	Freetype 2.4.12 environment established
		library to render fonts
	Python 3.6.0 environment established
	Gurobi 8.1.0 environment established
Instance LSFRP: LSFDRP_2_1_0_1_fr.p
Instance LSFDP: LSFDRP_2_1_0_1_fd_16.p


*****************************************************************************************************************************
*** Solve LSFDRP_2_1_0_1_fd_16.p with matheuristics.
***  |
***  |- Create instance object for heuristic
***  |   |- Convert flexible visitations into inflexible visitations,	took 0.017838 sec.
***  |   |- Calculate demand structure for node flow model,		took 0.137905 sec.
***  |   |- Create additional vessel information,				took 0.000906 sec.
***  |
***  |   |- Create ranking for FDP solutions,				took  0.00113 sec.
***  |- Start solving instance with matheuristics, run 1
***  |   |- Create ranking for FDP solutions,				took 0.001132 sec.
***  |   |- Calculation finished, timelimit reached 			took   599.28 sec.
***  |
***  |- Start solving instance with matheuristics, run 2
***  |   |- Create ranking for FDP solutions,				took 0.001289 sec.
***  |   |- Calculation finished, timelimit reached 			took   599.66 sec.
***  |
***  |- Start solving instance with matheuristics, run 3
***  |   |- Create ranking for FDP solutions,				took 0.001261 sec.
***  |   |- Calculation finished, timelimit reached 			took   599.24 sec.
***  |
***  |- Start solving instance with matheuristics, run 4
***  |   |- Create ranking for FDP solutions,				took 0.001486 sec.
***  |   |- Calculation finished, timelimit reached 			took   599.38 sec.
***  |
***  |- Start solving instance with matheuristics, run 5
***  |   |- Create ranking for FDP solutions,				took 0.001279 sec.
***  |   |- Calculation finished, timelimit reached 			took   599.09 sec.
***  |
***  |- Start solving instance with matheuristics, run 6
***  |   |- Create ranking for FDP solutions,				took 0.001598 sec.
***  |   |- Calculation finished, timelimit reached 			took    599.0 sec.
***  |
***  |-----------------------------------------------------------------------------------------------------------------------
***
*****************************************************************************************************************************
###
###
#############################################################################################################################
### Solution run 1
#############################################################################################################################
###
### Results
###
### The objective of the solution is 2,095,903.3337 (2095903.3337)
###
### Service 24 (WAF7) is operated by 3 vessels from type 18 (PMax25)
###  |
###  |- Vessel  1 has the path [100, 276, -1]
###  |  100 (DEHAM Out@288) - 276 (ESALG In@496/Out@515) - -1 (DUMMY_END Ziel-Service 24)
###  |
###  |- Vessel  2 has the path [101, 277, -1]
###  |  101 (DEHAM Out@456) - 277 (ESALG In@664/Out@683) - -1 (DUMMY_END Ziel-Service 24)
###  |
###  |- Vessel 13 has the path [104, 275, 201, 291, 202, 114, 278, -1]
###  |  104 (DKAAR Out@220) - 275 (ESALG In@328/Out@347) - 201 (MAPTM In@375/Out@396) - 291 (MAPTM In@379/Out@398) - 202 (MAP
###  |  TM In@406/Out@427) - 114 (ESALG In@452/Out@464) - 278 (ESALG In@832/Out@851) - -1 (DUMMY_END Ziel-Service 24)
###  |   |- and carried Demand  17,  484.0 containers from 201 to 114
###  |   |- and carried Demand  18,   18.0 containers from 201 to 114
###  |   |- and carried Demand  52,  312.0 containers from 202 to 114
###  |   |- and carried Demand  53,   18.0 containers from 202 to 114
###  |   |- and carried Demand 119,  214.0 containers from 201 to 278
###  |   |- and carried Demand 120,   10.0 containers from 201 to 278
###  |   |- and carried Demand 121,  484.0 containers from 201 to 114
###  |   |- and carried Demand 122,   18.0 containers from 201 to 114
###  |   |- and carried Demand 132,  214.0 containers from 202 to 278
###  |   |- and carried Demand 133,   10.0 containers from 202 to 278
###  |   |- and carried Demand 134,  484.0 containers from 202 to 114
###  |   |- and carried Demand 135,   18.0 containers from 202 to 114
###  |   |- and carried Demand 138,  214.0 containers from 291 to 278
###  |   |- and carried Demand 139,   10.0 containers from 291 to 278
###  |   |- and carried Demand 141,   18.0 containers from 291 to 114
###  |
###  |
### Service 177 (WCSA) is operated by 3 vessels from type 19 (PMax28)
###  |
###  |- Vessel  5 has the path [218, 133, 199, 290, 200, 112, 284, 45, 36, 240, 236, 0]
###  |  218 (NLRTM Out@92) - 133 (FRLEH In@111/Out@127) - 199 (MAPTM In@207/Out@228) - 290 (MAPTM In@211/Out@230) - 200 (MAPT
###  |  M In@238/Out@259) - 112 (ESALG In@284/Out@296) - 284 (GWOXB In@463/Out@542) - 45 (CMDLA In@765/Out@811) - 36 (CLLQN I
###  |  n@1240/Out@1258) - 240 (PECLL In@1399/Out@1514) - 236 (PABLB In@1640/Out@1652) - 0 (DUMMY_END Ziel-Service 177)
###  |   |- and carried Demand   6,   17.0 containers from 218 to 133
###  |   |- and carried Demand   7,  161.0 containers from 199 to 45
###  |   |- and carried Demand   8,   19.0 containers from 199 to 112
###  |   |- and carried Demand  45,  161.0 containers from 200 to 45
###  |   |- and carried Demand  46,  580.0 containers from 200 to 112
###  |   |- and carried Demand  80,  194.0 containers from 36 to 236
###  |   |- and carried Demand  81,   20.0 containers from 36 to 236
###  |   |- and carried Demand  83,    5.0 containers from 36 to 236
###  |   |- and carried Demand 117,  580.0 containers from 199 to 112
###  |   |- and carried Demand 131,  580.0 containers from 200 to 112
###  |   |- and carried Demand 144,  161.0 containers from 290 to 45
###  |   |- and carried Demand 145,  580.0 containers from 290 to 112
###  |
###  |- Vessel  7 has the path [221, 137, 203, 235, 0]
###  |  221 (NLRTM Out@428) - 137 (FRLEH In@447/Out@463) - 203 (MAPTM In@543/Out@564) - 235 (PABLB In@1472/Out@1484) - 0 (DUM
###  |  MY_END Ziel-Service 177)
###  |   |- and carried Demand  26,    6.0 containers from 221 to 137
###  |
###  |- Vessel  8 has the path [223, 138, 204, 234, 0]
###  |  223 (NLRTM Out@596) - 138 (FRLEH In@615/Out@631) - 204 (MAPTM In@711/Out@732) - 234 (PABLB In@1304/Out@1316) - 0 (DUM
###  |  MY_END Ziel-Service 177)
###  |
###  |
### Vessels not used in the solution: [3, 4, 6, 9, 10, 11, 12, 14, 15, 16, 17, 18]
###  |-----------------------------------------------------------------------------------------------------------------------
###
#############################################################################################################################
###
###
#############################################################################################################################
### Solution run 2
#############################################################################################################################
###
### Results
###
### The objective of the solution is 2,095,903.3337 (2095903.3337)
###
### Service 24 (WAF7) is operated by 3 vessels from type 18 (PMax25)
###  |
###  |- Vessel  1 has the path [100, 276, -1]
###  |  100 (DEHAM Out@288) - 276 (ESALG In@496/Out@515) - -1 (DUMMY_END Ziel-Service 24)
###  |
###  |- Vessel  2 has the path [101, 277, -1]
###  |  101 (DEHAM Out@456) - 277 (ESALG In@664/Out@683) - -1 (DUMMY_END Ziel-Service 24)
###  |
###  |- Vessel 13 has the path [104, 275, 201, 291, 202, 114, 278, -1]
###  |  104 (DKAAR Out@220) - 275 (ESALG In@328/Out@347) - 201 (MAPTM In@375/Out@396) - 291 (MAPTM In@379/Out@398) - 202 (MAP
###  |  TM In@406/Out@427) - 114 (ESALG In@452/Out@464) - 278 (ESALG In@832/Out@851) - -1 (DUMMY_END Ziel-Service 24)
###  |   |- and carried Demand  17,  484.0 containers from 201 to 114
###  |   |- and carried Demand  18,   18.0 containers from 201 to 114
###  |   |- and carried Demand  52,  312.0 containers from 202 to 114
###  |   |- and carried Demand  53,   18.0 containers from 202 to 114
###  |   |- and carried Demand 119,  214.0 containers from 201 to 278
###  |   |- and carried Demand 120,   10.0 containers from 201 to 278
###  |   |- and carried Demand 121,  484.0 containers from 201 to 114
###  |   |- and carried Demand 122,   18.0 containers from 201 to 114
###  |   |- and carried Demand 132,  214.0 containers from 202 to 278
###  |   |- and carried Demand 133,   10.0 containers from 202 to 278
###  |   |- and carried Demand 134,  484.0 containers from 202 to 114
###  |   |- and carried Demand 135,   18.0 containers from 202 to 114
###  |   |- and carried Demand 138,  214.0 containers from 291 to 278
###  |   |- and carried Demand 139,   10.0 containers from 291 to 278
###  |   |- and carried Demand 141,   18.0 containers from 291 to 114
###  |
###  |
### Service 177 (WCSA) is operated by 3 vessels from type 19 (PMax28)
###  |
###  |- Vessel  5 has the path [218, 133, 199, 290, 200, 112, 284, 45, 36, 240, 236, 0]
###  |  218 (NLRTM Out@92) - 133 (FRLEH In@111/Out@127) - 199 (MAPTM In@207/Out@228) - 290 (MAPTM In@211/Out@230) - 200 (MAPT
###  |  M In@238/Out@259) - 112 (ESALG In@284/Out@296) - 284 (GWOXB In@463/Out@542) - 45 (CMDLA In@765/Out@811) - 36 (CLLQN I
###  |  n@1240/Out@1258) - 240 (PECLL In@1399/Out@1514) - 236 (PABLB In@1640/Out@1652) - 0 (DUMMY_END Ziel-Service 177)
###  |   |- and carried Demand   6,   17.0 containers from 218 to 133
###  |   |- and carried Demand   7,  161.0 containers from 199 to 45
###  |   |- and carried Demand   8,   19.0 containers from 199 to 112
###  |   |- and carried Demand  45,  161.0 containers from 200 to 45
###  |   |- and carried Demand  46,  580.0 containers from 200 to 112
###  |   |- and carried Demand  80,  194.0 containers from 36 to 236
###  |   |- and carried Demand  81,   20.0 containers from 36 to 236
###  |   |- and carried Demand  83,    5.0 containers from 36 to 236
###  |   |- and carried Demand 117,  580.0 containers from 199 to 112
###  |   |- and carried Demand 131,  580.0 containers from 200 to 112
###  |   |- and carried Demand 144,  161.0 containers from 290 to 45
###  |   |- and carried Demand 145,  580.0 containers from 290 to 112
###  |
###  |- Vessel  7 has the path [221, 137, 203, 235, 0]
###  |  221 (NLRTM Out@428) - 137 (FRLEH In@447/Out@463) - 203 (MAPTM In@543/Out@564) - 235 (PABLB In@1472/Out@1484) - 0 (DUM
###  |  MY_END Ziel-Service 177)
###  |   |- and carried Demand  26,    6.0 containers from 221 to 137
###  |
###  |- Vessel  8 has the path [223, 138, 204, 234, 0]
###  |  223 (NLRTM Out@596) - 138 (FRLEH In@615/Out@631) - 204 (MAPTM In@711/Out@732) - 234 (PABLB In@1304/Out@1316) - 0 (DUM
###  |  MY_END Ziel-Service 177)
###  |
###  |
### Vessels not used in the solution: [3, 4, 6, 9, 10, 11, 12, 14, 15, 16, 17, 18]
###  |-----------------------------------------------------------------------------------------------------------------------
###
#############################################################################################################################
###
###
#############################################################################################################################
### Solution run 3
#############################################################################################################################
###
### Results
###
### The objective of the solution is 2,095,903.3337 (2095903.3337)
###
### Service 24 (WAF7) is operated by 3 vessels from type 18 (PMax25)
###  |
###  |- Vessel  1 has the path [100, 276, -1]
###  |  100 (DEHAM Out@288) - 276 (ESALG In@496/Out@515) - -1 (DUMMY_END Ziel-Service 24)
###  |
###  |- Vessel  2 has the path [101, 277, -1]
###  |  101 (DEHAM Out@456) - 277 (ESALG In@664/Out@683) - -1 (DUMMY_END Ziel-Service 24)
###  |
###  |- Vessel 13 has the path [104, 275, 201, 291, 202, 114, 278, -1]
###  |  104 (DKAAR Out@220) - 275 (ESALG In@328/Out@347) - 201 (MAPTM In@375/Out@396) - 291 (MAPTM In@379/Out@398) - 202 (MAP
###  |  TM In@406/Out@427) - 114 (ESALG In@452/Out@464) - 278 (ESALG In@832/Out@851) - -1 (DUMMY_END Ziel-Service 24)
###  |   |- and carried Demand  18,   18.0 containers from 201 to 114
###  |   |- and carried Demand  52,  484.0 containers from 202 to 114
###  |   |- and carried Demand  53,   18.0 containers from 202 to 114
###  |   |- and carried Demand 119,  214.0 containers from 201 to 278
###  |   |- and carried Demand 120,   10.0 containers from 201 to 278
###  |   |- and carried Demand 121,  484.0 containers from 201 to 114
###  |   |- and carried Demand 122,   18.0 containers from 201 to 114
###  |   |- and carried Demand 132,  214.0 containers from 202 to 278
###  |   |- and carried Demand 133,   10.0 containers from 202 to 278
###  |   |- and carried Demand 134,  484.0 containers from 202 to 114
###  |   |- and carried Demand 135,   18.0 containers from 202 to 114
###  |   |- and carried Demand 138,  214.0 containers from 291 to 278
###  |   |- and carried Demand 139,   10.0 containers from 291 to 278
###  |   |- and carried Demand 140,  312.0 containers from 291 to 114
###  |   |- and carried Demand 141,   18.0 containers from 291 to 114
###  |
###  |
### Service 177 (WCSA) is operated by 3 vessels from type 19 (PMax28)
###  |
###  |- Vessel  5 has the path [218, 133, 199, 290, 200, 112, 284, 45, 36, 240, 236, 0]
###  |  218 (NLRTM Out@92) - 133 (FRLEH In@111/Out@127) - 199 (MAPTM In@207/Out@228) - 290 (MAPTM In@211/Out@230) - 200 (MAPT
###  |  M In@238/Out@259) - 112 (ESALG In@284/Out@296) - 284 (GWOXB In@463/Out@542) - 45 (CMDLA In@765/Out@811) - 36 (CLLQN I
###  |  n@1240/Out@1258) - 240 (PECLL In@1399/Out@1514) - 236 (PABLB In@1640/Out@1652) - 0 (DUMMY_END Ziel-Service 177)
###  |   |- and carried Demand   6,   17.0 containers from 218 to 133
###  |   |- and carried Demand   7,  161.0 containers from 199 to 45
###  |   |- and carried Demand   8,  580.0 containers from 199 to 112
###  |   |- and carried Demand  45,  161.0 containers from 200 to 45
###  |   |- and carried Demand  46,   19.0 containers from 200 to 112
###  |   |- and carried Demand  80,  194.0 containers from 36 to 236
###  |   |- and carried Demand  81,   20.0 containers from 36 to 236
###  |   |- and carried Demand  83,    5.0 containers from 36 to 236
###  |   |- and carried Demand 117,  580.0 containers from 199 to 112
###  |   |- and carried Demand 131,  580.0 containers from 200 to 112
###  |   |- and carried Demand 144,  161.0 containers from 290 to 45
###  |   |- and carried Demand 145,  580.0 containers from 290 to 112
###  |
###  |- Vessel  7 has the path [221, 137, 203, 235, 0]
###  |  221 (NLRTM Out@428) - 137 (FRLEH In@447/Out@463) - 203 (MAPTM In@543/Out@564) - 235 (PABLB In@1472/Out@1484) - 0 (DUM
###  |  MY_END Ziel-Service 177)
###  |   |- and carried Demand  26,    6.0 containers from 221 to 137
###  |
###  |- Vessel  8 has the path [223, 138, 204, 234, 0]
###  |  223 (NLRTM Out@596) - 138 (FRLEH In@615/Out@631) - 204 (MAPTM In@711/Out@732) - 234 (PABLB In@1304/Out@1316) - 0 (DUM
###  |  MY_END Ziel-Service 177)
###  |
###  |
### Vessels not used in the solution: [3, 4, 6, 9, 10, 11, 12, 14, 15, 16, 17, 18]
###  |-----------------------------------------------------------------------------------------------------------------------
###
#############################################################################################################################
###
###
#############################################################################################################################
### Solution run 4
#############################################################################################################################
###
### Results
###
### The objective of the solution is 2,095,903.3337 (2095903.3337)
###
### Service 24 (WAF7) is operated by 3 vessels from type 18 (PMax25)
###  |
###  |- Vessel  1 has the path [100, 276, -1]
###  |  100 (DEHAM Out@288) - 276 (ESALG In@496/Out@515) - -1 (DUMMY_END Ziel-Service 24)
###  |
###  |- Vessel  2 has the path [101, 277, -1]
###  |  101 (DEHAM Out@456) - 277 (ESALG In@664/Out@683) - -1 (DUMMY_END Ziel-Service 24)
###  |
###  |- Vessel 13 has the path [104, 275, 201, 291, 202, 114, 278, -1]
###  |  104 (DKAAR Out@220) - 275 (ESALG In@328/Out@347) - 201 (MAPTM In@375/Out@396) - 291 (MAPTM In@379/Out@398) - 202 (MAP
###  |  TM In@406/Out@427) - 114 (ESALG In@452/Out@464) - 278 (ESALG In@832/Out@851) - -1 (DUMMY_END Ziel-Service 24)
###  |   |- and carried Demand  17,  484.0 containers from 201 to 114
###  |   |- and carried Demand  18,   18.0 containers from 201 to 114
###  |   |- and carried Demand  52,  312.0 containers from 202 to 114
###  |   |- and carried Demand  53,   18.0 containers from 202 to 114
###  |   |- and carried Demand 119,  214.0 containers from 201 to 278
###  |   |- and carried Demand 120,   10.0 containers from 201 to 278
###  |   |- and carried Demand 121,  484.0 containers from 201 to 114
###  |   |- and carried Demand 122,   18.0 containers from 201 to 114
###  |   |- and carried Demand 132,  214.0 containers from 202 to 278
###  |   |- and carried Demand 133,   10.0 containers from 202 to 278
###  |   |- and carried Demand 134,  484.0 containers from 202 to 114
###  |   |- and carried Demand 135,   18.0 containers from 202 to 114
###  |   |- and carried Demand 138,  214.0 containers from 291 to 278
###  |   |- and carried Demand 139,   10.0 containers from 291 to 278
###  |   |- and carried Demand 141,   18.0 containers from 291 to 114
###  |
###  |
### Service 177 (WCSA) is operated by 3 vessels from type 19 (PMax28)
###  |
###  |- Vessel  5 has the path [218, 133, 199, 290, 200, 112, 284, 45, 36, 240, 236, 0]
###  |  218 (NLRTM Out@92) - 133 (FRLEH In@111/Out@127) - 199 (MAPTM In@207/Out@228) - 290 (MAPTM In@211/Out@230) - 200 (MAPT
###  |  M In@238/Out@259) - 112 (ESALG In@284/Out@296) - 284 (GWOXB In@463/Out@542) - 45 (CMDLA In@765/Out@811) - 36 (CLLQN I
###  |  n@1240/Out@1258) - 240 (PECLL In@1399/Out@1514) - 236 (PABLB In@1640/Out@1652) - 0 (DUMMY_END Ziel-Service 177)
###  |   |- and carried Demand   6,   17.0 containers from 218 to 133
###  |   |- and carried Demand   7,  161.0 containers from 199 to 45
###  |   |- and carried Demand   8,   19.0 containers from 199 to 112
###  |   |- and carried Demand  45,  161.0 containers from 200 to 45
###  |   |- and carried Demand  46,  580.0 containers from 200 to 112
###  |   |- and carried Demand  80,  194.0 containers from 36 to 236
###  |   |- and carried Demand  81,   20.0 containers from 36 to 236
###  |   |- and carried Demand  83,    5.0 containers from 36 to 236
###  |   |- and carried Demand 117,  580.0 containers from 199 to 112
###  |   |- and carried Demand 131,  580.0 containers from 200 to 112
###  |   |- and carried Demand 144,  161.0 containers from 290 to 45
###  |   |- and carried Demand 145,  580.0 containers from 290 to 112
###  |
###  |- Vessel  7 has the path [221, 137, 203, 235, 0]
###  |  221 (NLRTM Out@428) - 137 (FRLEH In@447/Out@463) - 203 (MAPTM In@543/Out@564) - 235 (PABLB In@1472/Out@1484) - 0 (DUM
###  |  MY_END Ziel-Service 177)
###  |   |- and carried Demand  26,    6.0 containers from 221 to 137
###  |
###  |- Vessel  8 has the path [223, 138, 204, 234, 0]
###  |  223 (NLRTM Out@596) - 138 (FRLEH In@615/Out@631) - 204 (MAPTM In@711/Out@732) - 234 (PABLB In@1304/Out@1316) - 0 (DUM
###  |  MY_END Ziel-Service 177)
###  |
###  |
### Vessels not used in the solution: [3, 4, 6, 9, 10, 11, 12, 14, 15, 16, 17, 18]
###  |-----------------------------------------------------------------------------------------------------------------------
###
#############################################################################################################################
###
###
#############################################################################################################################
### Solution run 5
#############################################################################################################################
###
### Results
###
### The objective of the solution is 2,095,903.3337 (2095903.3337)
###
### Service 24 (WAF7) is operated by 3 vessels from type 18 (PMax25)
###  |
###  |- Vessel  1 has the path [100, 276, -1]
###  |  100 (DEHAM Out@288) - 276 (ESALG In@496/Out@515) - -1 (DUMMY_END Ziel-Service 24)
###  |
###  |- Vessel  2 has the path [101, 277, -1]
###  |  101 (DEHAM Out@456) - 277 (ESALG In@664/Out@683) - -1 (DUMMY_END Ziel-Service 24)
###  |
###  |- Vessel 13 has the path [104, 275, 201, 291, 202, 114, 278, -1]
###  |  104 (DKAAR Out@220) - 275 (ESALG In@328/Out@347) - 201 (MAPTM In@375/Out@396) - 291 (MAPTM In@379/Out@398) - 202 (MAP
###  |  TM In@406/Out@427) - 114 (ESALG In@452/Out@464) - 278 (ESALG In@832/Out@851) - -1 (DUMMY_END Ziel-Service 24)
###  |   |- and carried Demand  17,  484.0 containers from 201 to 114
###  |   |- and carried Demand  18,   18.0 containers from 201 to 114
###  |   |- and carried Demand  52,  312.0 containers from 202 to 114
###  |   |- and carried Demand  53,   18.0 containers from 202 to 114
###  |   |- and carried Demand 119,  214.0 containers from 201 to 278
###  |   |- and carried Demand 120,   10.0 containers from 201 to 278
###  |   |- and carried Demand 121,  484.0 containers from 201 to 114
###  |   |- and carried Demand 122,   18.0 containers from 201 to 114
###  |   |- and carried Demand 132,  214.0 containers from 202 to 278
###  |   |- and carried Demand 133,   10.0 containers from 202 to 278
###  |   |- and carried Demand 134,  484.0 containers from 202 to 114
###  |   |- and carried Demand 135,   18.0 containers from 202 to 114
###  |   |- and carried Demand 138,  214.0 containers from 291 to 278
###  |   |- and carried Demand 139,   10.0 containers from 291 to 278
###  |   |- and carried Demand 141,   18.0 containers from 291 to 114
###  |
###  |
### Service 177 (WCSA) is operated by 3 vessels from type 19 (PMax28)
###  |
###  |- Vessel  5 has the path [218, 133, 199, 290, 200, 112, 284, 45, 36, 240, 236, 0]
###  |  218 (NLRTM Out@92) - 133 (FRLEH In@111/Out@127) - 199 (MAPTM In@207/Out@228) - 290 (MAPTM In@211/Out@230) - 200 (MAPT
###  |  M In@238/Out@259) - 112 (ESALG In@284/Out@296) - 284 (GWOXB In@463/Out@542) - 45 (CMDLA In@765/Out@811) - 36 (CLLQN I
###  |  n@1240/Out@1258) - 240 (PECLL In@1399/Out@1514) - 236 (PABLB In@1640/Out@1652) - 0 (DUMMY_END Ziel-Service 177)
###  |   |- and carried Demand   6,   17.0 containers from 218 to 133
###  |   |- and carried Demand   7,  161.0 containers from 199 to 45
###  |   |- and carried Demand   8,   19.0 containers from 199 to 112
###  |   |- and carried Demand  45,  161.0 containers from 200 to 45
###  |   |- and carried Demand  46,  580.0 containers from 200 to 112
###  |   |- and carried Demand  80,  194.0 containers from 36 to 236
###  |   |- and carried Demand  81,   20.0 containers from 36 to 236
###  |   |- and carried Demand  83,    5.0 containers from 36 to 236
###  |   |- and carried Demand 117,  580.0 containers from 199 to 112
###  |   |- and carried Demand 131,  580.0 containers from 200 to 112
###  |   |- and carried Demand 144,  161.0 containers from 290 to 45
###  |   |- and carried Demand 145,  580.0 containers from 290 to 112
###  |
###  |- Vessel  7 has the path [221, 137, 203, 235, 0]
###  |  221 (NLRTM Out@428) - 137 (FRLEH In@447/Out@463) - 203 (MAPTM In@543/Out@564) - 235 (PABLB In@1472/Out@1484) - 0 (DUM
###  |  MY_END Ziel-Service 177)
###  |   |- and carried Demand  26,    6.0 containers from 221 to 137
###  |
###  |- Vessel  8 has the path [223, 138, 204, 234, 0]
###  |  223 (NLRTM Out@596) - 138 (FRLEH In@615/Out@631) - 204 (MAPTM In@711/Out@732) - 234 (PABLB In@1304/Out@1316) - 0 (DUM
###  |  MY_END Ziel-Service 177)
###  |
###  |
### Vessels not used in the solution: [3, 4, 6, 9, 10, 11, 12, 14, 15, 16, 17, 18]
###  |-----------------------------------------------------------------------------------------------------------------------
###
#############################################################################################################################
###
###
#############################################################################################################################
### Solution run 6
#############################################################################################################################
###
### Results
###
### The objective of the solution is 2,095,903.3337 (2095903.3337)
###
### Service 24 (WAF7) is operated by 3 vessels from type 18 (PMax25)
###  |
###  |- Vessel  1 has the path [100, 276, -1]
###  |  100 (DEHAM Out@288) - 276 (ESALG In@496/Out@515) - -1 (DUMMY_END Ziel-Service 24)
###  |
###  |- Vessel  2 has the path [101, 277, -1]
###  |  101 (DEHAM Out@456) - 277 (ESALG In@664/Out@683) - -1 (DUMMY_END Ziel-Service 24)
###  |
###  |- Vessel 13 has the path [104, 275, 201, 291, 202, 114, 278, -1]
###  |  104 (DKAAR Out@220) - 275 (ESALG In@328/Out@347) - 201 (MAPTM In@375/Out@396) - 291 (MAPTM In@379/Out@398) - 202 (MAP
###  |  TM In@406/Out@427) - 114 (ESALG In@452/Out@464) - 278 (ESALG In@832/Out@851) - -1 (DUMMY_END Ziel-Service 24)
###  |   |- and carried Demand  17,  484.0 containers from 201 to 114
###  |   |- and carried Demand  18,   18.0 containers from 201 to 114
###  |   |- and carried Demand  52,  312.0 containers from 202 to 114
###  |   |- and carried Demand  53,   18.0 containers from 202 to 114
###  |   |- and carried Demand 119,  214.0 containers from 201 to 278
###  |   |- and carried Demand 120,   10.0 containers from 201 to 278
###  |   |- and carried Demand 121,  484.0 containers from 201 to 114
###  |   |- and carried Demand 122,   18.0 containers from 201 to 114
###  |   |- and carried Demand 132,  214.0 containers from 202 to 278
###  |   |- and carried Demand 133,   10.0 containers from 202 to 278
###  |   |- and carried Demand 134,  484.0 containers from 202 to 114
###  |   |- and carried Demand 135,   18.0 containers from 202 to 114
###  |   |- and carried Demand 138,  214.0 containers from 291 to 278
###  |   |- and carried Demand 139,   10.0 containers from 291 to 278
###  |   |- and carried Demand 141,   18.0 containers from 291 to 114
###  |
###  |
### Service 177 (WCSA) is operated by 3 vessels from type 19 (PMax28)
###  |
###  |- Vessel  5 has the path [218, 133, 199, 290, 200, 112, 284, 45, 36, 240, 236, 0]
###  |  218 (NLRTM Out@92) - 133 (FRLEH In@111/Out@127) - 199 (MAPTM In@207/Out@228) - 290 (MAPTM In@211/Out@230) - 200 (MAPT
###  |  M In@238/Out@259) - 112 (ESALG In@284/Out@296) - 284 (GWOXB In@463/Out@542) - 45 (CMDLA In@765/Out@811) - 36 (CLLQN I
###  |  n@1240/Out@1258) - 240 (PECLL In@1399/Out@1514) - 236 (PABLB In@1640/Out@1652) - 0 (DUMMY_END Ziel-Service 177)
###  |   |- and carried Demand   6,   17.0 containers from 218 to 133
###  |   |- and carried Demand   7,  161.0 containers from 199 to 45
###  |   |- and carried Demand   8,   19.0 containers from 199 to 112
###  |   |- and carried Demand  45,  161.0 containers from 200 to 45
###  |   |- and carried Demand  46,  580.0 containers from 200 to 112
###  |   |- and carried Demand  80,  194.0 containers from 36 to 236
###  |   |- and carried Demand  81,   20.0 containers from 36 to 236
###  |   |- and carried Demand  83,    5.0 containers from 36 to 236
###  |   |- and carried Demand 117,  580.0 containers from 199 to 112
###  |   |- and carried Demand 131,  580.0 containers from 200 to 112
###  |   |- and carried Demand 144,  161.0 containers from 290 to 45
###  |   |- and carried Demand 145,  580.0 containers from 290 to 112
###  |
###  |- Vessel  7 has the path [221, 137, 203, 235, 0]
###  |  221 (NLRTM Out@428) - 137 (FRLEH In@447/Out@463) - 203 (MAPTM In@543/Out@564) - 235 (PABLB In@1472/Out@1484) - 0 (DUM
###  |  MY_END Ziel-Service 177)
###  |   |- and carried Demand  26,    6.0 containers from 221 to 137
###  |
###  |- Vessel  8 has the path [223, 138, 204, 234, 0]
###  |  223 (NLRTM Out@596) - 138 (FRLEH In@615/Out@631) - 204 (MAPTM In@711/Out@732) - 234 (PABLB In@1304/Out@1316) - 0 (DUM
###  |  MY_END Ziel-Service 177)
###  |
###  |
### Vessels not used in the solution: [3, 4, 6, 9, 10, 11, 12, 14, 15, 16, 17, 18]
###  |-----------------------------------------------------------------------------------------------------------------------
###
#############################################################################################################################
+++++++++++++++++++++++++++++++++++++++++++++++++++++++++++++++++++++++++++++++++++++++++++++++++++++++++++++++++++++++++++++
+++
+++ The average objective is 2,095,903.3337 (2095903.3337)
+++
+++++++++++++++++++++++++++++++++++++++++++++++++++++++++++++++++++++++++++++++++++++++++++++++++++++++++++++++++++++++++++++

real	59m59.915s
user	82m13.294s
sys	3m44.297s
	Freetype 2.4.12 environment removed
	Python 3.6.0 environment removed
	Gurobi 8.1.0 environment removed
