	Freetype 2.4.12 environment established
		library to render fonts
	Python 3.6.0 environment established
	Gurobi 8.1.0 environment established
Instance LSFRP: LSFDRP_2_2_0_0_fr.p
Instance LSFDP: LSFDRP_2_2_0_0_fd_16.p

*****************************************************************************************************************************
*** Solve LSFDRP_2_2_0_0_fd_16 with Gurobi
***
*** Graph info
*** |S|: 18
*** |S^E|: 0
*** |S^C|: 0
*** |V|: 321
*** |A|: 9520
*** |A^i|: 9469
*** |A^f|: 51
*** |M|: 193
*** |E|: 22

Changed value of parameter TimeLimit to 86400.0
   Prev: 1e+100  Min: 0.0  Max: 1e+100  Default: 1e+100
Changed value of parameter Threads to 4
   Prev: 0  Min: 0  Max: 1024  Default: 0
Optimize a model with 91412 rows, 2029350 columns and 7453802 nonzeros
Variable types: 1857954 continuous, 171396 integer (171396 binary)
Coefficient statistics:
  Matrix range     [1e+00, 4e+03]
  Objective range  [2e+00, 1e+07]
  Bounds range     [1e+00, 1e+00]
  RHS range        [1e+00, 4e+03]
Presolve removed 58892 rows and 1702398 columns (presolve time = 6s) ...
Presolve removed 62474 rows and 1706691 columns (presolve time = 10s) ...
Warning: Failed to open log file 'gurobi.log'
Presolve removed 62486 rows and 1706880 columns (presolve time = 28s) ...
Presolve removed 62721 rows and 1706899 columns (presolve time = 30s) ...
Presolve removed 63782 rows and 1710087 columns (presolve time = 105s) ...
Presolve removed 63782 rows and 1710087 columns
Presolve time: 104.66s
Presolved: 27630 rows, 319263 columns, 1387957 nonzeros
Variable types: 147960 continuous, 171303 integer (171255 binary)

Deterministic concurrent LP optimizer: primal and dual simplex
Showing first log only...


Root simplex log...

Iteration    Objective       Primal Inf.    Dual Inf.      Time
       0   -9.1610275e+03   5.000000e+00   8.077270e+07    109s
   10673   -2.4881183e+07   0.000000e+00   1.005248e+11    110s
   26065   -3.5369889e+06   0.000000e+00   1.009535e+11    115s
Concurrent spin time: 0.00s

Solved with dual simplex

Root relaxation: objective 6.687941e+06, 14248 iterations, 8.76 seconds

    Nodes    |    Current Node    |     Objective Bounds      |     Work
 Expl Unexpl |  Obj  Depth IntInf | Incumbent    BestBd   Gap | It/Node Time

     0     0 6686257.77    0  155          - 6686257.77      -     -  121s
     0     0 6197431.84    0  156          - 6197431.84      -     -  132s
H    0     0                    -7092385.403 6197431.84   187%     -  133s
     0     0 6065001.63    0  153 -7092385.4 6065001.63   186%     -  134s
     0     0 5980613.30    0  165 -7092385.4 5980613.30   184%     -  145s
     0     0 5980613.30    0  165 -7092385.4 5980613.30   184%     -  146s
     0     0 5948312.36    0  169 -7092385.4 5948312.36   184%     -  151s
     0     0 5939209.40    0  171 -7092385.4 5939209.40   184%     -  156s
     0     0 5939089.09    0  178 -7092385.4 5939089.09   184%     -  157s
     0     0 5938648.70    0  177 -7092385.4 5938648.70   184%     -  157s
     0     0 5934073.55    0  188 -7092385.4 5934073.55   184%     -  161s
H    0     0                    -7072450.277 5934073.55   184%     -  162s
H    0     0                    -6764362.276 5934073.55   188%     -  165s
     0     0 5933589.58    0  176 -6764362.3 5933589.58   188%     -  167s
     0     0 5933589.58    0  176 -6764362.3 5933589.58   188%     -  167s
     0     0 5933256.98    0  189 -6764362.3 5933256.98   188%     -  170s
H    0     0                    -4628064.397 5933256.98   228%     -  178s
     0     0 5933245.05    0  193 -4628064.4 5933245.05   228%     -  179s
     0     0 5933200.32    0  200 -4628064.4 5933200.32   228%     -  181s
     0     0 5933200.32    0  200 -4628064.4 5933200.32   228%     -  189s
     0     0 5931408.54    0  200 -4628064.4 5931408.54   228%     -  193s
     0     0 5928995.48    0  197 -4628064.4 5928995.48   228%     -  201s
     0     0 5928995.48    0  198 -4628064.4 5928995.48   228%     -  201s
     0     0 5928981.17    0  202 -4628064.4 5928981.17   228%     -  204s
H    0     0                    -4628064.395 5928981.17   228%     -  211s
     0     0 5928981.17    0  201 -4628064.4 5928981.17   228%     -  244s
     0     2 5928981.17    0  199 -4628064.4 5928981.17   228%     -  276s
     1     4 4520295.16    1  154 -4628064.4 5928791.54   228% 269434 2125s
     3     8 4166360.93    2  157 -4628064.4 5881518.59   227% 127135 3040s
     7    10 infeasible    3      -4628064.4 5665367.58   222% 71007 3090s
    11    14 2626688.72    3  214 -4628064.4 5616760.81   221% 47432 3267s
    15    17 1861663.05    4  181 -4628064.4 5304490.48   215% 87571 9896s
    19    19 2549159.22    4  137 -4628064.4 5304490.48   215% 69689 10111s
    23    22 2016925.21    5  134 -4628064.4 5304490.48   215% 59637 10361s
H   28    22                    -222244.9135 5304490.48  2487% 50326 10556s
H   29    22                    -31167.29025 5304490.48      - 49245 10556s
H   31    24                    474335.26052 5304490.48  1018% 46144 10556s
    35    27 1999048.46    6  136 474335.261 5304490.48  1018% 40946 11304s
    41    35 1971045.73    7  168 474335.261 5304490.48  1018% 37731 11545s
    51    41 1935480.56   10  162 474335.261 5304490.48  1018% 32102 15669s
    59    50 1934316.48   10  159 474335.261 5304490.48  1018% 38092 16067s
    68    55 1927499.31   12  163 474335.261 5304490.48  1018% 34634 19025s
    77    66 infeasible   13      474335.261 5304490.48  1018% 35339 19976s
    89    72 infeasible   15      474335.261 5304490.48  1018% 32585 21012s
   101    79 1668781.09   20  120 474335.261 5304490.48  1018% 31143 23035s
H  102    80                    560304.88180 5304490.48   847% 30838 23035s
H  104    81                    774728.66674 5304490.48   585% 32892 23035s
   105    84 1652082.09   21  117 774728.667 5304490.48   585% 32766 24622s
   121    95 1426601.95   25  137 774728.667 5304490.48   585% 30393 25035s
   139   107 1377997.80   31  141 774728.667 5304490.48   585% 27034 25192s
H  146   114                    774728.66781 5304490.48   585% 25803 25192s
   156   121 1098357.20   35  125 774728.668 5304490.48   585% 24406 25537s
   176   135 1150449.63   43  142 774728.668 5304490.48   585% 22040 26203s
H  177   136                    774728.67551 5304490.48   585% 21915 26203s
   188   150 1138177.10   44  149 774728.676 5304490.48   585% 21001 26654s
   211   164 1088152.56   54  149 774728.676 5304490.48   585% 18890 27519s
   238   176 4329382.60   13  115 774728.676 5300169.98   584% 17402 27738s
   267   193 4236185.45   25  115 774728.676 5300169.98   584% 15737 28475s
H  268   194                    774728.67565 5300169.98   584% 15679 28475s
   285   210 4236185.45   26  113 774728.676 5300169.98   584% 14837 28830s
   316   219 4025517.69   40  104 774728.676 5300169.98   584% 13743 30880s
   333   236 3980955.98   50  113 774728.676 5300169.98   584% 14249 32981s
   373   280 3577303.78   67  136 774728.676 5300169.98   584% 13439 33606s
   413   304 3366172.67   86   85 774728.676 5300169.98   584% 12386 38273s
   460   350 960920.654  107   49 774728.676 5279377.36   581% 11978 38842s
   493   375 4182593.17   21  117 774728.676 5279377.36   581% 11362 39445s
   501   384 4180253.76   23  125 774728.676 5279377.36   581% 11217 43541s
   561   439 2925606.26   49  118 774728.676 5279377.36   581% 10899 45096s
   635   509 2131605.78   78   67 774728.676 5279377.36   581%  9940 45664s
   719   559 1655777.39  110   74 774728.676 5202517.10   572%  8981 46399s
   812   606 4704088.09   11  113 774728.676 5202517.10   572%  8110 47240s
   876   613 4518063.89   15  111 774728.676 5202517.10   572%  7589 47718s
   971   683 infeasible   11      774728.676 4762552.75   515%  6998 48822s
  1052   731 1723091.95   92  201 774728.676 4707230.60   508%  6795 49080s
  1054   732 3777197.37   53  141 774728.676 4707230.60   508%  6782 49100s
  1055   733 3454809.96   53  146 774728.676 4697987.01   506%  6776 49111s
  1057   734 1133577.52   50  149 774728.676 4606729.83   495%  6763 49116s
  1058   735 1375570.59   74  158 774728.676 4575377.06   491%  6757 49127s
  1059   736 3885436.42   39  171 774728.676 4572140.01   490%  6750 49133s
  1060   736 2243104.02   85  171 774728.676 4535773.51   485%  6744 49144s
  1061   737 912736.253  124  179 774728.676 4535773.51   485%  6738 49145s
H 1061   700                    860698.28813 4473676.77   420%  6738 49149s
  1062   701 2175344.55   95  244 860698.288 4473676.77   420%  6731 49150s
  1064   702 2440344.81   25  221 860698.288 4396317.31   411%  6719 49158s
  1065   703 3343596.44   84  211 860698.288 4394019.51   411%  6712 49175s
H 1065   667                    860698.28899 4394019.51   411%  6712 49178s
H 1066   634                    860698.29060 4390044.84   410%  6706 49187s
  1068   636 3065747.07   43  237 860698.291 4386208.82   410%  6693 49201s
  1069   636 1750874.47   79  266 860698.291 4376554.77   408%  6687 49212s
  1070   637 1079853.85    9  306 860698.291 4372478.81   408%  6681 49254s
  1071   638 3511823.30   47  306 860698.291 4372478.81   408%  6675 49260s
  1072   638 1738621.36    8  306 860698.291 4372478.81   408%  6668 49276s
  1073   642 4359393.90   10  311 860698.291 4372478.81   408%  6701 49375s
  1075   645 4330086.66   11  314 860698.291 4356106.56   406%  6691 49461s
  1079   648 4286040.98   12  221 860698.291 4321224.21   402%  6694 49543s
  1083   651 4271270.14   12  288 860698.291 4282597.71   398%  6679 49621s
  1087   653 4273130.85   13  239 860698.291 4273130.85   396%  6685 49664s
  1091   655 3874914.80   13  135 860698.291 4273128.95   396%  6674 49718s
  1095   659 4266526.01   14  223 860698.291 4273101.25   396%  6675 49756s
  1099   660 4240329.91   14  240 860698.291 4271219.94   396%  6668 49803s
  1104   658 4261080.04   15  223 860698.291 4271219.94   396%  6649 49860s
  1110   667 4184395.12   15  219 860698.291 4271219.94   396%  6650 49918s
  1115   666 4260625.60   16  230 860698.291 4271219.94   396%  6634 49966s
  1122   675 4260625.60   17  223 860698.291 4271219.94   396%  6619 50000s
  1128   676 4214682.83   18  228 860698.291 4271219.94   396%  6608 50059s
  1134   685 4110611.66   18  169 860698.291 4271219.94   396%  6607 50096s
  1141   681 4213134.14   19  229 860698.291 4271219.94   396%  6583 50163s
  1150   696 4211859.51   20  225 860698.291 4271219.94   396%  6575 50217s
  1161   698 4177178.39   21  229 860698.291 4271219.94   396%  6562 50273s
  1168   702 3688970.52   22  172 860698.291 4271219.94   396%  6558 50336s
  1176   708 3688970.52   23  167 860698.291 4271219.94   396%  6558 50406s
  1185   716 2433129.89   24  143 860698.291 4271219.94   396%  6571 50456s
  1194   722 3637435.51   25  155 860698.291 4271219.94   396%  6558 50504s
H 1205   697                    866220.20452 4271219.94   393%  6520 50504s
  1207   694 1892747.33   27  128 866220.205 4271219.94   393%  6528 50556s
  1220   704 3586719.72   29  111 866220.205 4271219.94   393%  6511 50613s
  1233   716 3566458.61   31  152 866220.205 4271219.94   393%  6488 50680s
H 1237   688                    866220.20525 4271219.94   393%  6474 50680s
H 1246   664                    866220.20576 4271219.94   393%  6457 50680s
  1250   665 3508162.06   33  133 866220.206 4271219.94   393%  6449 50738s
  1265   675 3451926.49   36  155 866220.206 4271219.94   393%  6417 50794s
  1288   692 3399334.18   40  168 866220.206 4271219.94   393%  6353 50847s
  1317   712 3359034.07   44  167 866220.206 4271219.94   393%  6252 50907s
  1335   721 3343332.88   46  160 866220.206 4271219.94   393%  6227 50963s
  1363   742 3279525.22   49  114 866220.206 4271219.94   393%  6144 51023s
  1387   760 3270437.13   53  106 866220.206 4271219.94   393%  6092 51074s
  1408   770 3253266.81   56  122 866220.206 4271219.94   393%  6056 51131s
  1432   781 3188859.50   59   87 866220.206 4271219.94   393%  6014 51177s
  1466   801 3192013.10   62  100 866220.206 4271219.94   393%  5920 51233s
H 1494   784                    866220.86788 4271219.94   393%  5858 51233s
  1495   784 2214601.33   66  103 866220.868 4271219.94   393%  5859 51305s
  1538   808 3156797.77   69  103 866220.868 4271219.94   393%  5750 51368s
H 1550   790                    866221.00861 4271219.94   393%  5721 51368s
  1566   799 3112594.26   75  103 866221.009 4271181.44   393%  5703 51429s
  1593   815 3007280.04   81  106 866221.009 4271181.44   393%  5673 51517s
H 1635   806                    866221.29285 4271181.44   393%  5573 51517s
  1636   802 993692.143   94   88 866221.293 4245470.34   390%  5593 51589s
H 1686   787                    866221.31285 4245218.28   390%  5493 51665s
  1705   801 3789675.41   15  164 866221.313 4240327.88   390%  5479 51757s
  1744   824 3717317.75   16  137 866221.313 4240327.88   390%  5433 51852s
  1755   825 3525840.09   19  125 866221.313 4240327.88   390%  5424 51939s
  1822   838 3632777.78   24  123 866221.313 4240327.88   390%  5303 52008s
  1924   844 3509804.03   28  136 866221.313 4240327.88   390%  5077 52073s
  2012   864 3386266.16   37  135 866221.313 4240327.88   390%  4906 52144s
  2103   901 2857122.76   59  114 866221.313 4240327.88   390%  4748 52211s
  2202   957 2057273.17  104   93 866221.313 4240327.88   390%  4581 52275s
  2360  1040 1102148.78  141   72 866221.313 4238744.08   389%  4313 52346s
  2434  1071 3691414.69   17  123 866221.313 4234954.46   389%  4212 52468s
  2513  1136 2183585.27   21   97 866221.313 4234954.46   389%  4127 52603s
H 2515  1137                    866221.32792 4234954.46   389%  4125 52603s
  2517  1137 1545000.19   22   79 866221.328 4234954.46   389%  4125 52980s
  2579  1184 1079151.63   25   73 866221.328 4206208.77   386%  4058 53070s
  2620  1215 1142012.15   17  157 866221.328 4176560.66   382%  4047 53175s
  2712  1290 1284810.11   16  199 866221.328 4174092.54   382%  3969 53269s
  2909  1445 1164550.06   18  195 866221.328 4157921.23   380%  3763 53352s
  3063  1566 3390643.52   27  111 866221.328 4157921.23   380%  3619 53432s
  3206  1698 1819437.19   69   82 866221.328 4084701.75   372%  3503 53522s
  3289  1767 3439509.58   30  104 866221.328 4077951.48   371%  3463 53624s
  3404  1868 3278944.91   42   96 866221.328 4068579.11   370%  3399 53712s
  3566  2008 2612437.30   29  127 866221.328 4018068.89   364%  3288 53831s
  3773  2180 3522111.61   24  126 866221.328 3970221.58   358%  3166 53936s
  3954  2332 3392302.96   22  127 866221.328 3936466.53   354%  3068 54032s
  4106  2458 3704149.45   20  139 866221.328 3913632.38   352%  2998 54166s
  4254  2601 2717603.93   42  174 866221.328 3909638.57   351%  2944 54292s
  4354  2683 3789061.04   20  143 866221.328 3909638.57   351%  2907 54429s
  4555  2844 3633862.88   26  189 866221.328 3909638.57   351%  2827 54597s
  4696  2967 3481180.12   34  163 866221.328 3909638.57   351%  2800 55038s
  4779  3042 3345796.19   39  137 866221.328 3874861.76   347%  2789 55166s
  4926  3177 2822123.34   44  138 866221.328 3874861.76   347%  2756 55306s
  5093  3312 2416536.34   51  144 866221.328 3874861.76   347%  2718 55456s
  5279  3466 2346032.25   61  131 866221.328 3863670.52   346%  2681 55608s
  5462  3590 2763161.77   17  100 866221.328 3863670.52   346%  2641 55751s
  5514  3625 2248072.77   17  111 866221.328 3863670.52   346%  2638 55930s
  5699  3778 2344145.39   55  122 866221.328 3858771.24   345%  2608 56154s
  5943  3979 3693646.23   20  156 866221.328 3845641.50   344%  2559 56341s
  6158  4165 3557507.50   27  164 866221.328 3845641.50   344%  2528 56547s
  6406  4371 2002289.68   57   96 866221.328 3834186.25   343%  2493 56835s
  6571  4471 2313429.28   26  108 866221.328 3832026.63   342%  2486 57036s
  6795  4598 2517028.64   43  179 866221.328 3832026.63   342%  2472 57258s
  7171  4926     cutoff   92      866221.328 3825220.32   342%  2396 57495s
  7468  5120 3573488.92   23  129 866221.328 3813995.66   340%  2357 57715s
  7779  5364 3158779.11   46   72 866221.328 3810378.53   340%  2327 57930s
  8228  5694 3221832.98   38  155 866221.328 3802753.35   339%  2256 58151s
  8770  6167 3454234.88   41   97 866221.328 3796127.31   338%  2173 58394s
  9187  6479 3552762.03   23  203 866221.328 3790337.62   338%  2125 58669s
  9606  6774 3500516.20   22  194 866221.328 3789049.13   337%  2093 58943s
 10041  7100 3363108.35   21  209 866221.328 3784066.29   337%  2055 59211s
 10435  7421 3296748.78   24  201 866221.328 3780656.20   336%  2020 59271s
 10437  7422 1154503.90  105  128 866221.328 3780656.20   336%  2020 59283s
 10438  7423 2626978.74   65  165 866221.328 3780656.20   336%  2019 59296s
 10439  7424 3155903.24   52  209 866221.328 3780656.20   336%  2019 59303s
 10441  7425 3048439.29   33  241 866221.328 3780656.20   336%  2019 59313s
 10442  7426 1290904.12   87  250 866221.328 3780656.20   336%  2019 59319s
 10443  7426 2151916.00   87  275 866221.328 3780656.20   336%  2018 59330s
 10444  7427 1718866.15   46  285 866221.328 3780656.20   336%  2018 59337s
 10445  7428 2849423.70   33  270 866221.328 3780656.20   336%  2018 59348s
 10446  7428 2715197.20   42  272 866221.328 3780656.20   336%  2018 59355s
 10447  7429 2611215.30   45  266 866221.328 3780656.20   336%  2018 59367s
 10448  7430 2882452.15   30  267 866221.328 3780656.20   336%  2017 59372s
 10449  7430 2208665.45   47  255 866221.328 3780656.20   336%  2017 59384s
 10450  7431 1322268.68  111  264 866221.328 3780656.20   336%  2017 59390s
 10451  7432 2028155.12   46  250 866221.328 3780656.20   336%  2017 59402s
 10452  7432 3668740.96   23  260 866221.328 3780656.20   336%  2017 59407s
 10453  7433 2600803.57   67  231 866221.328 3780656.20   336%  2016 59418s
 10454  7434 1913727.81   64  264 866221.328 3780656.20   336%  2016 59423s
 10455  7434 2124781.33   46  250 866221.328 3780656.20   336%  2016 59447s
 10456  7435 2325682.90   60  250 866221.328 3780656.20   336%  2016 59452s
 10457  7436 1507733.76   28  250 866221.328 3780656.20   336%  2016 59475s
 10458  7439 3780656.20   20  247 866221.328 3780656.20   336%  2019 59534s
 10460  7443 3780656.20   21  260 866221.328 3780656.20   336%  2021 59614s
 10464  7445 3780656.20   22  231 866221.328 3780656.20   336%  2022 59671s
 10468  7448 1419011.97   22  211 866221.328 3780656.20   336%  2024 59714s
 10472  7451 3780656.20   23  218 866221.328 3780656.20   336%  2025 59739s
 10476  7453 3680671.80   23  213 866221.328 3780656.20   336%  2026 59792s
 10480  7456 3780656.20   24  171 866221.328 3780656.20   336%  2029 59826s
 10484  7459 3773153.54   24  176 866221.328 3780656.20   336%  2031 59861s
 10488  7452 3780656.20   25  182 866221.328 3780656.20   336%  2033 59878s
 10493  7462 3780656.20   25  153 866221.328 3780656.20   336%  2033 59913s
 10499  7466 3780656.20   26  145 866221.328 3780656.20   336%  2034 59942s
 10505  7470 3774273.15   26  133 866221.328 3780656.20   336%  2035 59992s
 10512  7472 3780656.20   27  156 866221.328 3780656.20   336%  2037 60013s
 10520  7479 3780656.20   28  128 866221.328 3780656.20   336%  2037 60048s
 10530  7485 3780656.20   29  129 866221.328 3780656.20   336%  2037 60079s
 10541  7493 3780656.20   30  115 866221.328 3780656.20   336%  2038 60106s
 10551  7501 3780656.20   31  112 866221.328 3780656.20   336%  2038 60136s
 10564  7504 3780656.20   32  118 866221.328 3780656.20   336%  2038 60219s
 10576  7516 3769552.93   33  129 866221.328 3780656.20   336%  2042 60245s
 10590  7526 3713640.25   35  120 866221.328 3780656.20   336%  2041 60281s
 10594  7527 3539992.39   35  116 866221.328 3780656.20   336%  2041 60304s
 10608  7538 3697535.06   37  133 866221.328 3780656.20   336%  2041 60338s
 10621  7541 3588984.79   38  108 866221.328 3780656.20   336%  2042 60370s
 10637  7549 3666931.40   40  126 866221.328 3780656.20   336%  2042 60420s
 10654  7555 3624881.48   42  124 866221.328 3780656.20   336%  2043 60467s
 10668  7562 3623375.04   43  121 866221.328 3780656.20   336%  2042 60499s
 10686  7576 3477251.89   30  141 866221.328 3780656.20   336%  2043 60500s
 10688  7578 3603493.85   45   98 866221.328 3780656.20   336%  2043 60534s
 10711  7588 3580337.69   48  121 866221.328 3780656.20   336%  2043 60573s
 10737  7598 3555998.62   51  134 866221.328 3780656.20   336%  2043 60603s
 10771  7608 3515014.11   53  119 866221.328 3780656.20   336%  2040 60636s
 10810  7617 3491653.37   55  118 866221.328 3780656.20   336%  2038 60670s
 10828  7624 3468724.45   58  124 866221.328 3780656.20   336%  2039 60702s
 10843  7634 3335400.94   61  128 866221.328 3780656.20   336%  2040 60731s
 10859  7639 2341525.04   64   91 866221.328 3780656.20   336%  2042 60766s
 10888  7661 3304854.08   68  138 866221.328 3780656.20   336%  2041 60806s
 10926  7684 2178413.03   72   92 866221.328 3780656.20   336%  2040 60847s
 10963  7700 3202199.97   73  115 866221.328 3780656.20   336%  2036 60909s
 10982  7709 1961295.93   75   97 866221.328 3780656.20   336%  2038 60946s
 11011  7729 2093681.95   80   95 866221.328 3780656.20   336%  2038 61003s
 11052  7751 3113135.44   81  110 866221.328 3780656.20   336%  2036 61049s
 11102  7790 3106849.11   87  111 866221.328 3780656.20   336%  2033 61089s
 11163  7818 2391575.88   94  101 866221.328 3780656.20   336%  2029 61128s
 11258  7857 3072342.55  102  109 866221.328 3780656.20   336%  2019 61177s
 11330  7869 2168068.36  111   91 866221.328 3780656.20   336%  2013 61221s
 11372  7879 3012855.19  120  112 866221.328 3780656.20   336%  2013 61264s
 11452  7896 1903950.82  130  110 866221.328 3780656.20   336%  2007 61314s
 11501  7908 2958194.57  147  114 866221.328 3780656.20   336%  2006 61356s
 11557  7914 2909798.46  170  115 866221.328 3780656.20   336%  2003 61406s
 11657  7936 2815819.71  198  122 866221.328 3780656.20   336%  1994 61458s
 11759  7972 2277021.51  228  101 866221.328 3780656.20   336%  1986 61523s
H11805  7583                    866221.32813 3780656.20   336%  1980 61523s
 11899  7685 1834922.13  261   84 866221.328 3780656.20   336%  1972 61658s
 11946  7700 1591359.19  267   73 866221.328 3780656.20   336%  1970 61716s
 12128  7766 3670455.71   29  137 866221.328 3780656.20   336%  1949 61796s
 12316  7828 3275026.76   44  136 866221.328 3780656.20   336%  1926 61883s
 12518  7858 2575409.78   52  188 866221.328 3780656.20   336%  1901 61967s
 12679  7920 2140233.36   74  114 866221.328 3777049.67   336%  1884 62077s
 12963  8074 3168985.49   30  140 866221.328 3777049.67   336%  1852 62160s
 13076  8100 3004490.46   33  115 866221.328 3777049.67   336%  1844 62255s
 13158  8153 2986793.70   37  140 866221.328 3777049.67   336%  1842 62358s
 13294  8235 2942651.67   42  139 866221.328 3777049.67   336%  1832 62480s
 13454  8317 2873222.68   47  141 866221.328 3777049.67   336%  1821 62582s
 13620  8362 2853549.99   52  128 866221.328 3777049.67   336%  1809 62690s
 13681  8405 2798122.99   59  132 866221.328 3777049.67   336%  1810 62797s
 13868  8500 2792651.09   63  130 866221.328 3777049.67   336%  1794 62922s
 14006  8557 2639056.43   74  133 866221.328 3777049.67   336%  1787 63044s
 14199  8659 2118380.36   82   93 866221.328 3752173.26   333%  1773 63184s
 14562  8744 3149582.77   32  134 866221.328 3747526.31   333%  1744 63297s
 14775  8832 2831076.30   49  143 866221.328 3741691.45   332%  1730 63443s
 14993  8929 1846238.52   28  131 866221.328 3732460.99   331%  1719 63582s
 15192  8998 3100344.58   42  136 866221.328 3732460.99   331%  1711 63715s
 15446  9123 2559241.90   72  175 866221.328 3721723.91   330%  1694 63855s
 15618  9190 3073288.78   50  121 866221.328 3721723.91   330%  1688 64000s
 15920  9332 3125802.68   46  129 866221.328 3721714.02   330%  1670 64088s
 16031  9375 3091106.23   47  135 866221.328 3712233.19   329%  1664 64251s
 16298  9518 3429831.94   38  167 866221.328 3707493.82   328%  1652 64410s
 16594  9658 2719548.49   60  149 866221.328 3699878.68   327%  1637 64571s
 17035  9846 3138357.54   42  109 866221.328 3692993.92   326%  1611 64739s
 17348  9985 3287397.21   52   93 866221.328 3687209.63   326%  1595 64918s
 17680 10165 2067209.23   55  123 866221.328 3680388.17   325%  1583 65127s
 18054 10346 3448588.61   36  102 866221.328 3676434.85   324%  1567 65541s
 18138 10380 3362586.35   40  116 866221.328 3674271.53   324%  1569 65778s
 18348 10482 3193279.45   30  199 866221.328 3674271.53   324%  1569 66003s
 18647 10609 infeasible   42      866221.328 3666394.93   323%  1562 66125s
 18956 10758 2587293.83   69   98 866221.328 3658491.04   322%  1554 66252s
 19320 10938 3580977.42   32  135 866221.328 3653655.21   322%  1545 66384s
 19640 11056 2286027.80   47   92 866221.328 3651964.18   322%  1539 66531s
 20104 11255 2718878.44   44  102 866221.328 3642605.36   321%  1524 66682s
 20504 11398 2685267.52   33  130 866221.328 3636191.84   320%  1510 66841s
 20943 11601 2598783.46   80  201 866221.328 3636191.84   320%  1500 69025s
 20945 11602 3029267.06   47  126 866221.328 3636191.84   320%  1500 69037s
 20946 11603 1722806.45   98  149 866221.328 3636191.84   320%  1500 69057s
 20947 11604 1424528.27  141  164 866221.328 3636191.84   320%  1499 69066s
 20948 11604 1533144.29   89  222 866221.328 3636191.84   320%  1499 69079s
 20949 11605 1478325.28   88  182 866221.328 3636191.84   320%  1499 69082s
 20950 11606 1103728.03   77  169 866221.328 3636191.84   320%  1499 69086s
 20951 11606 2595355.78   60  245 866221.328 3636191.84   320%  1499 69101s
 20952 11607 2395723.82   55  245 866221.328 3636191.84   320%  1499 69109s
 20953 11608 1368747.40  125  246 866221.328 3636191.84   320%  1499 69116s
 20954 11608 2003203.95   83  213 866221.328 3636191.84   320%  1499 69121s
 20955 11609 2953758.42   79  228 866221.328 3636191.84   320%  1499 69127s
 20956 11610 3478670.01   33  220 866221.328 3636191.84   320%  1499 69191s
 20957 11610 2612425.70   57  197 866221.328 3636191.84   320%  1499 69196s
 20958 11611 1080381.19   76  212 866221.328 3636191.84   320%  1499 69218s
 20959 11612 2722850.53   47  183 866221.328 3636191.84   320%  1499 69258s
 20960 11612 3461807.92   37  215 866221.328 3636191.84   320%  1499 69279s
 20961 11613 3573607.61   33  194 866221.328 3636191.84   320%  1498 69320s
 20963 11614 2433078.44   60  201 866221.328 3636191.84   320%  1498 69343s
 20964 11615 3308985.60   44  224 866221.328 3439378.16   297%  1498 69399s
 20965 11616 2162309.36   69  218 866221.328 3436360.87   297%  1498 69420s
 20966 11616 2973256.28   89  232 866221.328 3409423.44   294%  1498 69474s
 20967 11617 2703215.22   43  219 866221.328 3407383.58   293%  1498 69498s
 20968 11618 2173253.06  102  246 866221.328 3398622.41   292%  1498 69543s
 20969 11618 1538369.85   95  227 866221.328 3398128.45   292%  1498 69561s
 20970 11619 3001615.25   58  242 866221.328 3387444.00   291%  1498 69602s
 20971 11620 1328795.93  114  249 866221.328 3384780.91   291%  1498 69625s
 20972 11620 3379012.65   41  251 866221.328 3379012.65   290%  1498 69669s
 20973 11621 1221641.29  173  247 866221.328 3378707.29   290%  1498 69689s
 20974 11622 2886770.25   44  250 866221.328 3372682.01   289%  1498 69733s
 20975 11622 1618393.36   60  254 866221.328 3369972.39   289%  1497 69752s
 20976 11623 3059407.74   85  259 866221.328 3366356.58   289%  1497 69794s
 20977 11624 3366067.92   34  265 866221.328 3366067.92   289%  1497 69814s
 20978 11624 2633156.45   67  262 866221.328 3359074.56   288%  1497 69856s
 20979 11625 2368388.36   57  266 866221.328 3358792.23   288%  1497 69876s
 20980 11626 1481249.67   89  265 866221.328 3356739.81   288%  1497 69918s
 20981 11626 3346972.76   42  268 866221.328 3346972.76   286%  1497 69922s
 20982 11627 3346788.39   38  275 866221.328 3346788.39   286%  1497 69942s
 20983 11628 1817681.20   99  278 866221.328 3341560.33   286%  1497 69986s
 20984 11628 1159949.09   72  280 866221.328 3338800.61   285%  1497 70006s
 20985 11629 2610130.24   68  267 866221.328 3335338.28   285%  1497 70042s
 20986 11630 2380677.67   89  271 866221.328 3328050.44   284%  1497 70046s
 20987 11630 1316352.02  218  280 866221.328 3325584.45   284%  1497 70067s
 20988 11631 2215491.15   68  290 866221.328 3324619.92   284%  1497 70111s
 20989 11632 1526687.04   78  309 866221.328 3322348.62   284%  1496 70129s
 20990 11632 2181551.70   72  309 866221.328 3316142.72   283%  1496 70169s
 20991 11633 3315014.92   37  279 866221.328 3315014.92   283%  1496 70185s
 20992 11634 2425706.27   92  282 866221.328 3314675.82   283%  1496 70215s
 20993 11634 1360282.08  109  306 866221.328 3311561.37   282%  1496 70230s
 20994 11635 1560826.90   90  329 866221.328 3305775.72   282%  1496 70278s
 20995 11636 3277426.26   59  340 866221.328 3304312.54   281%  1496 70298s
 20996 11636 1541748.76   80  330 866221.328 3301110.44   281%  1496 70336s
 20997 11637 3297928.87   40  325 866221.328 3297928.87   281%  1496 70356s
 20998 11638 3295884.12   41  290 866221.328 3295884.12   280%  1496 70400s
 21000 11639 1416410.66   94  315 866221.328 3269907.11   277%  1496 70421s
 21001 11640 1069148.29   74  310 866221.328 3264964.05   277%  1496 70466s
 21002 11640 2056282.96   70  321 866221.328 3261262.25   276%  1496 70485s
 21003 11641 1141506.62  129  322 866221.328 3250014.99   275%  1495 70535s
 21004 11642 3058483.44   32  312 866221.328 3248687.53   275%  1495 70555s
 21005 11642 2112406.05   96  326 866221.328 3238694.61   274%  1495 70599s
 21006 11643 2282485.50  134  326 866221.328 3237946.76   274%  1495 70617s
 21007 11644 1872533.98   77  329 866221.328 3234815.05   273%  1495 70655s
 21008 11644 2033808.31   96  328 866221.328 3233386.23   273%  1495 70675s
 21009 11645 2844640.67  105  328 866221.328 3232813.33   273%  1495 70712s
 21010 11646 2880069.84   40  330 866221.328 3232163.80   273%  1495 70730s
 21011 11646 1634572.68   97  331 866221.328 3226941.55   273%  1495 70751s
 21012 11647 3016835.91   57  348 866221.328 3225558.68   272%  1495 70773s
 21013 11648 1131814.65   93  338 866221.328 3220495.00   272%  1495 70793s
 21014 11648 2173253.06  102  322 866221.328 3217663.41   271%  1495 70810s
 21015 11649 3048277.39   53  340 866221.328 3216021.06   271%  1495 70827s
 21016 11650 2778087.43   56  348 866221.328 3215341.86   271%  1495 70846s
 21017 11650 2901165.19   80  386 866221.328 3212733.84   271%  1495 70867s
 21018 11651 2623542.73   56  381 866221.328 3212548.51   271%  1494 70885s
 21019 11652 2755627.06  155  379 866221.328 3211622.99   271%  1494 70904s
 21020 11652 3192928.37   35  371 866221.328 3211295.18   271%  1494 70922s
 21021 11653 1078893.98  186  365 866221.328 3210659.23   271%  1494 70941s
 21022 11654 2171711.83   58  374 866221.328 3210444.04   271%  1494 70959s
 21023 11654 1624186.01   48  382 866221.328 3208044.27   270%  1494 70979s
 21024 11655 1174547.27   71  388 866221.328 3207886.04   270%  1494 70995s
 21025 11656 2924346.33   66  392 866221.328 3204880.19   270%  1494 71016s
 21026 11656 1900610.04   71  388 866221.328 3204463.90   270%  1494 71032s
 21027 11657 2278306.24   71  381 866221.328 3204376.36   270%  1494 71053s
 21028 11658 2799052.57   68  388 866221.328 3203979.68   270%  1494 71070s
 21029 11658 3203797.50   41  383 866221.328 3203797.50   270%  1494 71090s
 21030 11659 3203457.74   33  394 866221.328 3203457.74   270%  1494 71108s
 21031 11660 2993254.57   51  393 866221.328 3203453.28   270%  1494 71129s
 21032 11660 1789980.32   58  395 866221.328 3203407.56   270%  1493 71146s
 21033 11661 1781973.07   90  393 866221.328 3203356.64   270%  1493 71165s
 21034 11662 2742954.41   56  399 866221.328 3203328.90   270%  1493 71184s
 21035 11662 3183449.61   46  395 866221.328 3203236.36   270%  1493 71204s
 21036 11663 1186921.21  153  388 866221.328 3202971.20   270%  1493 71221s
 21037 11664 2626431.84   46  392 866221.328 3202846.14   270%  1493 71258s
 21038 11664 1249468.43   90  397 866221.328 3201609.48   270%  1493 71278s
 21039 11665 1257008.82   64  387 866221.328 3201586.09   270%  1493 71295s
 21040 11666 2779598.19   56  387 866221.328 3201500.04   270%  1493 71318s
 21041 11666 2386093.84   64  389 866221.328 3201424.18   270%  1493 71334s
 21042 11667 2004703.38   40  377 866221.328 3201296.05   270%  1493 71354s
 21043 11668 2598783.46   80  379 866221.328 3201289.22   270%  1493 71371s
 21044 11668 1866151.64   46  369 866221.328 3201245.91   270%  1493 71392s
 21045 11669 3029267.06   47  375 866221.328 3201194.08   270%  1493 71410s
 21046 11670 1722806.45   98  368 866221.328 3201120.66   270%  1492 71431s
 21047 11670 1424528.27  141  375 866221.328 3201102.20   270%  1492 71448s
 21048 11671 1533144.29   89  380 866221.328 3201064.07   270%  1492 71468s
 21049 11672 1478325.28   88  385 866221.328 3201034.96   270%  1492 71487s
 21050 11672 1103728.03   77  374 866221.328 3201018.06   270%  1492 71506s
 21051 11673 2595355.78   60  383 866221.328 3201000.50   270%  1492 71524s
 21052 11674 2395723.82   55  384 866221.328 3199725.44   269%  1492 71546s
 21053 11674 1368747.40  125  391 866221.328 3199693.62   269%  1492 71562s
 21054 11675 2003203.95   83  381 866221.328 3199508.19   269%  1492 71581s
 21055 11676 2953758.42   79  386 866221.328 3199326.67   269%  1492 71598s
 21056 11676 3199283.97   33  394 866221.328 3199283.97   269%  1492 71622s
 21057 11677 2612425.70   57  397 866221.328 3199213.52   269%  1492 71638s
 21058 11678 1080381.19   76  382 866221.328 3198962.39   269%  1492 71658s
 21059 11678 2722850.53   47  392 866221.328 3198867.04   269%  1492 71678s
 21060 11679 3198221.15   37  396 866221.328 3198221.15   269%  1491 71700s
 21061 11680 3198144.82   33  397 866221.328 3198144.82   269%  1491 71718s
 21062 11680 3196853.86   44  400 866221.328 3196853.86   269%  1491 71739s
 21063 11681 2433078.44   60  408 866221.328 3196760.21   269%  1491 71756s
 21064 11682 3196682.98   44  398 866221.328 3196682.98   269%  1491 71778s
 21065 11682 2162309.36   69  404 866221.328 3196630.78   269%  1491 71794s
 21066 11683 2973256.28   89  404 866221.328 3195095.60   269%  1491 71815s
 21067 11684 2703215.22   43  402 866221.328 3194921.07   269%  1491 71833s
 21068 11684 2173253.06  102  397 866221.328 3194847.30   269%  1491 71853s
 21069 11685 1538369.85   95  401 866221.328 3194809.79   269%  1491 71870s
 21070 11686 3001615.25   58  403 866221.328 3194809.79   269%  1491 71888s
 21071 11686 1328795.93  114  404 866221.328 3194809.79   269%  1491 71905s
 21072 11687 3188004.37   41  384 866221.328 3188004.37   268%  1491 71926s
 21073 11688 1221641.29  173  392 866221.328 3187797.52   268%  1491 71943s
 21074 11688 2886770.25   44  387 866221.328 3187775.56   268%  1490 71964s
 21075 11689 1618393.36   60  381 866221.328 3187619.90   268%  1490 71981s
 21076 11690 3059407.74   85  384 866221.328 3187509.85   268%  1490 72006s
 21077 11690 3187486.83   34  383 866221.328 3187486.83   268%  1490 72024s
 21078 11691 2633156.45   67  379 866221.328 3187355.77   268%  1490 72045s
 21079 11692 2368388.36   57  383 866221.328 3187309.97   268%  1490 72065s
 21080 11692 1481249.67   89  389 866221.328 3187272.05   268%  1490 72085s
 21081 11693 3187262.70   42  391 866221.328 3187262.70   268%  1490 72105s
 21082 11694 3187254.05   38  384 866221.328 3187254.05   268%  1490 72148s
 21083 11694 1817681.20   99  387 866221.328 3117362.54   260%  1490 72168s
 21084 11695 1159949.09   72  391 866221.328 3117362.54   260%  1490 72212s
 21085 11696 2610130.24   68  388 866221.328 3117362.54   260%  1490 72229s
 21086 11696 2380677.67   89  388 866221.328 3117362.54   260%  1490 72368s
 21087 11700 3117362.54   33  383 866221.328 3117362.54   260%  1496 72492s
 21089 11703 3117362.54   34  374 866221.328 3117362.54   260%  1496 72604s
 21093 11706 3031646.20   35  298 866221.328 3117362.54   260%  1498 72692s
 21097 11709 2402393.93   35  242 866221.328 3056084.68   253%  1499 72760s
 21101 11711 3000685.86   36  290 866221.328 3056084.68   253%  1500 72802s
 21105 11714 2942362.21   36  235 866221.328 3056033.29   253%  1501 72889s
 21109 11717 2991812.86   37  284 866221.328 3052899.78   252%  1503 72947s
 21113 11719 2930766.05   37  234 866221.328 3051921.16   252%  1504 73015s
 21117 11717 2979224.45   38  276 866221.328 2991783.56   245%  1505 73081s
 21122 11721 2859171.14   38  192 866221.328 2979224.25   244%  1507 73127s
 21126 11721 2976693.82   39  296 866221.328 2976693.82   244%  1507 73185s
 21132 11728 2958299.20   40  219 866221.328 2958299.20   242%  1508 73245s
 21138 11732 2935009.62   41  254 866221.328 2958291.53   242%  1509 73322s
 21144 11732 2551374.13   41  259 866221.328 2942362.21   240%  1512 73375s
 21152 11744 2926550.71   42  257 866221.328 2942362.21   240%  1512 73424s
 21162 11744 2902117.60   43  214 866221.328 2942362.21   240%  1513 73470s
 21169 11749 2896451.36   44  219 866221.328 2942362.21   240%  1515 73538s
 21178 11742 2891366.81   45  221 866221.328 2942362.21   240%  1518 73595s
 21188 11758 2642426.57   45  248 866221.328 2942362.21   240%  1519 73647s
 21202 11763 2890298.40   46  217 866221.328 2942362.21   240%  1520 73692s
 21219 11768 2886341.13   47  218 866221.328 2942362.21   240%  1520 73745s
 21235 11771 2835944.75   48  211 866221.328 2942362.21   240%  1522 73798s
 21250 11774 2832477.24   49  196 866221.328 2942362.21   240%  1523 73846s
 21263 11781 2825495.60   50  194 866221.328 2942341.60   240%  1524 73904s
 21277 11791 2512124.76   50  261 866221.328 2942341.60   240%  1526 73945s
 21293 11797 2825462.75   51  198 866221.328 2942341.60   240%  1527 73991s
 21313 11802 2798972.56   52  221 866221.328 2942341.60   240%  1529 74048s
 21337 11819 2750065.01   53  237 866221.328 2942341.60   240%  1529 74097s
 21356 11830 2794277.98   54  212 866221.328 2942341.60   240%  1529 74147s
 21382 11843 2784110.83   55  225 866221.328 2942341.60   240%  1530 74192s
 21408 11852 2760880.19   56  213 866221.328 2942341.60   240%  1531 74232s
 21441 11862 2673315.98   57  225 866221.328 2942341.60   240%  1531 74324s
 21475 11869 2737112.22   59  187 866221.328 2942341.60   240%  1533 74384s
 21500 11867 2650564.93   60  231 866221.328 2942341.60   240%  1534 74433s
 21528 11880 2637158.79   61  249 866221.328 2942341.60   240%  1535 74491s
 21540 11885 2634819.84   62  184 866221.328 2942341.60   240%  1536 74579s
 21560 11897 2614645.65   63  203 866221.328 2942341.60   240%  1539 74653s
 21584 11916 2599364.86   65  177 866221.328 2942341.60   240%  1541 74734s
 21603 11923 2590513.36   67  181 866221.328 2942341.60   240%  1544 74820s
 21629 11936 2572840.11   69  181 866221.328 2942341.60   240%  1547 74914s
 21655 11953 2559414.18   71  182 866221.328 2942341.60   240%  1550 75005s
 21705 11980 2535490.35   73  188 866221.328 2942341.60   240%  1551 75099s
 21757 12006 2528895.05   75  188 866221.328 2942341.60   240%  1553 75205s
 21797 12023 2526659.64   77  173 866221.328 2942341.60   240%  1557 75295s
 21859 12046 2520647.88   80  172 866221.328 2942341.60   240%  1560 75362s
 21962 12083 2507160.45   83  164 866221.328 2942341.60   240%  1556 75432s
 22021 12094 2303814.89   85  152 866221.328 2889532.55   234%  1558 75529s
 22061 12112 1894715.66   86  156 866221.328 2889532.55   234%  1559 75617s
 22118 12136 1269018.25   89  118 866221.328 2889532.55   234%  1561 75698s
 22165 12150 2028087.57   94  159 866221.328 2889532.55   234%  1564 75783s
 22261 12203 1907476.86   99  144 866221.328 2889532.55   234%  1565 75869s
 22388 12255 1834437.29  104  132 866221.328 2889532.55   234%  1565 75952s
 22496 12292 1743025.38  117  135 866221.328 2859158.41   230%  1565 76050s
 22639 12329 1575026.02   53  198 866221.328 2848604.56   229%  1564 76210s
 22812 12417 2522623.55   44  277 866221.328 2830015.43   227%  1560 76347s
 22918 12473 1875381.61   62  169 866221.328 2828861.34   227%  1561 76507s
 23065 12544 1262691.84   77  155 866221.328 2816515.68   225%  1560 76626s
 23131 12571 1973921.60   56  161 866221.328 2814967.50   225%  1562 76730s
 23299 12664 2496777.99   43  192 866221.328 2814967.50   225%  1560 76840s
 23446 12737 1879821.94   80  178 866221.328 2806899.60   224%  1560 76953s
 23602 12812 2517182.63   51  314 866221.328 2803495.77   224%  1560 77070s
 23767 12902 2217230.81   73  210 866221.328 2803495.77   224%  1558 77201s
 23887 12964     cutoff  144      866221.328 2799313.25   223%  1560 77411s
 24032 13038 1997065.58   53  154 866221.328 2794118.66   223%  1562 77545s
 24216 13114 2354009.89   45  273 866221.328 2789744.61   222%  1561 77762s
 24359 13190 2008453.38   58  149 866221.328 2789744.61   222%  1562 77951s
 24422 13221 1918978.41   63  143 866221.328 2787662.84   222%  1563 78092s
 24608 13295 2186272.47   43  270 866221.328 2779328.00   221%  1562 78249s
 24749 13351 2270363.19   48  280 866221.328 2775614.40   220%  1565 78397s
 24857 13397     cutoff   54      866221.328 2775155.11   220%  1572 78575s
 25071 13470 1785060.53   42  222 866221.328 2770435.26   220%  1573 78754s
 25408 13657 2603540.78   50  213 866221.328 2762400.98   219%  1567 78982s
 25545 13713 1762913.53   89  182 866221.328 2761949.56   219%  1571 79245s
 25769 13782 2573829.49   56  275 866221.328 2743587.90   217%  1573 79421s
 26007 13882 2281133.95   53  195 866221.328 2740820.74   216%  1577 79590s
 26161 13933 2074888.63   52  164 866221.328 2738185.84   216%  1581 79859s
 26447 14074 2222575.34   68  279 866221.328 2731814.72   215%  1582 80124s
 26686 14185 2488435.67   62  268 866221.328 2724111.34   214%  1579 80350s
 26885 14293 1031392.68  140  155 866221.328 2724049.47   214%  1583 80655s
 27080 14352 2038121.11   72  316 866221.328 2708228.68   213%  1586 81013s
 27420 14501 2409824.27   64  246 866221.328 2699326.86   212%  1586 81288s
 27448 14506 1721225.64   66  227 866221.328 2697497.07   211%  1586 81577s
 27773 14660 1488374.76   58  135 866221.328 2684988.06   210%  1588 81828s
 28160 14795 2510262.96   61  235 866221.328 2677449.93   209%  1585 82227s
 28532 14971 2599672.55   45  141 866221.328 2666280.68   208%  1586 82526s
 29009 15173     cutoff   85      866221.328 2654868.68   206%  1578 82801s
 29360 15323 1866842.09   74  210 866221.328 2650562.26   206%  1578 83134s
 29736 15500 1676870.00   53  191 866221.328 2643572.59   205%  1579 83435s
 30171 15645 1842822.21   95  145 866221.328 2639144.00   205%  1582 83889s
 30663 15839 2296224.01   68  222 866221.328 2632950.63   204%  1581 84206s
 31220 16112 2093334.30   56  201 866221.328 2630991.62   204%  1576 84646s
 31222 16113 2230391.74   48  129 866221.328 2630991.62   204%  1576 84657s
 31223 16114 1856881.25   89  156 866221.328 2630991.62   204%  1576 84678s
 31224 16115 1680893.16   83  211 866221.328 2630991.62   204%  1576 84684s
 31225 16115 1753178.84   65  199 866221.328 2630991.62   204%  1576 84697s
 31226 16116 1149903.47   85  218 866221.328 2630991.62   204%  1576 84710s
 31227 16117 2521269.70   51  245 866221.328 2630991.62   204%  1576 84719s
 31228 16117 1641817.86   78  269 866221.328 2630991.62   204%  1576 84729s
 31229 16118 1111593.10   94  294 866221.328 2630991.62   204%  1576 84739s
 31230 16119 1299982.99   65  277 866221.328 2630991.62   204%  1576 84757s
 31231 16119 1270350.58   67  303 866221.328 2630991.62   204%  1576 84763s
 31232 16120 1457271.76   51  296 866221.328 2630991.62   204%  1576 84778s
 31233 16121 1636479.43   68  325 866221.328 2630991.62   204%  1576 84798s
 31234 16121 1544621.62  136  295 866221.328 2630991.62   204%  1576 84806s
 31235 16122 2320307.60   71  304 866221.328 2630991.62   204%  1575 84815s
 31236 16123 1195136.38  104  290 866221.328 2630991.62   204%  1575 84854s
 31237 16123 1651233.64   45  319 866221.328 2630991.62   204%  1575 84876s
 31238 16124 1264630.15   69  310 866221.328 2630991.62   204%  1575 84905s
 31239 16125 1651140.21   96  338 866221.328 2630991.62   204%  1575 84927s
 31240 16125 1892490.26   95  328 866221.328 2630991.62   204%  1575 84974s
 31241 16126 2585544.33   60  329 866221.328 2630991.62   204%  1575 84996s
 31242 16127 1715917.04   92  336 866221.328 2630991.62   204%  1575 85042s
 31243 16127 1973224.62   65  337 866221.328 2630991.62   204%  1575 85065s
 31244 16128 1293504.25  122  331 866221.328 2630991.62   204%  1575 85104s
 31245 16129 998686.288   46  321 866221.328 2630991.62   204%  1575 85116s
 31246 16129 1086828.97   54  321 866221.328 2630991.62   204%  1575 85136s
 31247 16130 1090405.28   90  348 866221.328 2630991.62   204%  1575 85203s
 31248 16131 1458968.31   58  350 866221.328 2630991.62   204%  1575 85222s
 31249 16131 2515385.95   55  348 866221.328 2630991.62   204%  1575 85276s
 31250 16132 1604948.26   65  357 866221.328 2630991.62   204%  1575 85284s
 31251 16133 2065355.10   46  355 866221.328 2630991.62   204%  1575 85306s
 31252 16133 1807835.45   99  363 866221.328 2630991.62   204%  1575 85350s
 31254 16135 2032302.11   80  354 866221.328 2630991.62   204%  1575 85358s
 31255 16135 1903259.05   79  369 866221.328 2630991.62   204%  1574 85375s
 31256 16136 2000895.61   75  356 866221.328 2630991.62   204%  1574 85417s
 31257 16137 1808169.91   78  353 866221.328 2630991.62   204%  1574 85430s
 31258 16137 1705332.66   99  358 866221.328 2630991.62   204%  1574 85451s
 31259 16138 1740175.62  110  352 866221.328 2630991.62   204%  1574 85503s
 31260 16139 2044273.17   86  355 866221.328 2630991.62   204%  1574 85525s
 31261 16139 2104283.81   52  353 866221.328 2630991.62   204%  1574 85548s
 31262 16140 1350894.81   63  362 866221.328 2630991.62   204%  1574 85569s
 31263 16141 1111192.61   90  377 866221.328 2630991.62   204%  1574 85611s
 31264 16141 1366508.81  133  382 866221.328 2630991.62   204%  1574 85634s
 31265 16142 1943758.63   92  389 866221.328 2630991.62   204%  1574 85683s
 31266 16143 1451296.51   76  389 866221.328 2630991.62   204%  1574 85705s
 31267 16143 2427881.39   53  386 866221.328 2630991.62   204%  1574 85753s
 31268 16144 1797299.34   60  392 866221.328 2630991.62   204%  1574 85773s
 31269 16145 2430124.87   50  395 866221.328 2630991.62   204%  1574 85811s
 31270 16145 2044273.17   86  408 866221.328 2630991.62   204%  1574 85829s
 31271 16146 2000895.61   75  401 866221.328 2630991.62   204%  1574 85870s
 31272 16147 1856442.19   98  410 866221.328 2630991.62   204%  1574 85891s
 31273 16147 1475015.45  102  412 866221.328 2630991.62   204%  1574 85933s
 31274 16148 1818546.33   65  387 866221.328 2630991.62   204%  1574 85951s
 31275 16149 1768301.39   94  403 866221.328 2630991.62   204%  1573 85995s
 31276 16149 1278500.20  101  410 866221.328 2630991.62   204%  1573 86013s
 31277 16150 2398017.23   93  402 866221.328 2630991.62   204%  1573 86039s
 31278 16151 1161397.36   78  412 866221.328 2630991.62   204%  1573 86057s
 31279 16151 2201776.53   65  409 866221.328 2630991.62   204%  1573 86097s
 31280 16152 1687160.54   68  407 866221.328 2630991.62   204%  1573 86115s
 31281 16153 2106534.28   72  401 866221.328 2630991.62   204%  1573 86153s
 31282 16153 1574612.51   96  387 866221.328 2630991.62   204%  1573 86171s
 31283 16154 1851442.83   62  392 866221.328 2630991.62   204%  1573 86216s
 31284 16155 1769678.94  102  394 866221.328 2630991.62   204%  1573 86232s
 31285 16155 1657840.93   92  395 866221.328 2630991.62   204%  1573 86268s
 31286 16156 2472520.50   52  389 866221.328 2630991.62   204%  1573 86287s
 31287 16157 1983235.68   78  395 866221.328 2630991.62   204%  1573 86328s
 31288 16157 2053956.18   61  402 866221.328 2630991.62   204%  1573 86345s
 31289 16158 1225862.15  106  402 866221.328 2630991.62   204%  1573 86381s
 31290 16159 1493774.13  119  400 866221.328 2630991.62   204%  1573 86397s

Cutting planes:
  Gomory: 91
  Implied bound: 7
  Clique: 14
  MIR: 55
  Flow cover: 58
  Zero half: 15

Explored 31290 nodes (49395125 simplex iterations) in 86401.13 seconds
Thread count was 4 (of 16 available processors)

Solution count 10: 866221 866221 866221 ... 860698

Time limit reached
Warning: max constraint violation (1.1142e-03) exceeds tolerance
         (model may be infeasible or unbounded - try turning presolve off)
Best objective 8.662213281348e+05, best bound 2.630991616829e+06, gap 203.7320%

***
***  |- Calculation finished, timelimit reached 86,401.16 (86401.16) sec.))
***  |-----------------------------------------------------------------------------------------------------------------------
***
*****************************************************************************************************************************
#############################################################################################################################
###
### Results
###
### The objective of the solution is 866,221.3281 (866221.3281) and is feasible with a Gap of 2.0373
###
### Service 24 (WAF7) is operated by 3 vessels from type 18 (PMax25)
###  |- Vessel  1 has the path [100, 276, -1]
###  |  100 (DEHAM Out@288.0) - 276 (ESALG In@496.0/Out@515.0) - -1 (DUMMY_END Ziel-Service 24)
###  |- Vessel  2 has the path [101, 277, -1]
###  |  101 (DEHAM Out@456.0) - 277 (ESALG In@664.0/Out@683.0) - -1 (DUMMY_END Ziel-Service 24)
###  |- Vessel 13 has the path [104, 275, 201, 291, 202, 114, 278, -1]
###  |  104 (DKAAR Out@220.0) - 275 (ESALG In@328.0/Out@347.0) - 201 (MAPTM In@375.0/Out@396.0) - 291 (MAPTM In@379.0/Out@398
###  |  .0) - 202 (MAPTM In@406.0/Out@427.0) - 114 (ESALG In@452.0/Out@464.0) - 278 (ESALG In@832.0/Out@851.0) - -1 (DUMMY_EN
###  |  D Ziel-Service 24)
###  |   |- and carried Demand  17,  484.0 containers from 201 to 114
###  |   |- and carried Demand  18,   18.0 containers from 201 to 114
###  |   |- and carried Demand  52,  484.0 containers from 202 to 114
###  |   |- and carried Demand  53,   18.0 containers from 202 to 114
###  |   |- and carried Demand 119,  214.0 containers from 201 to 278
###  |   |- and carried Demand 120,   10.0 containers from 201 to 278
###  |   |- and carried Demand 122,   18.0 containers from 201 to 114
###  |   |- and carried Demand 132,  214.0 containers from 202 to 278
###  |   |- and carried Demand 133,   10.0 containers from 202 to 278
###  |   |- and carried Demand 134,  312.0 containers from 202 to 114
###  |   |- and carried Demand 135,   18.0 containers from 202 to 114
###  |   |- and carried Demand 138,  214.0 containers from 291 to 278
###  |   |- and carried Demand 139,   10.0 containers from 291 to 278
###  |   |- and carried Demand 140,  484.0 containers from 291 to 114
###  |   |- and carried Demand 141,   18.0 containers from 291 to 114
###  |
### Service 121 (SAE) is operated by 2 vessels from type 30 (PMax35)
###  |- Vessel 12 has the path [8, 302, -2]
###  |  8 (BEANR Out@570.0) - 302 (HNPCR In@1166.0/Out@1179.0) - -2 (DUMMY_END Ziel-Service 121)
###  |- Vessel 18 has the path [148, 315, 311, 301, -2]
###  |  148 (GBFXT Out@470.0) - 315 (USORF In@873.0/Out@881.0) - 311 (USMIA In@935.0/Out@943.0) - 301 (HNPCR In@998.0/Out@101
###  |  1.0) - -2 (DUMMY_END Ziel-Service 121)
###  |   |- and carried Demand 170,   10.0 containers from 311 to 301
###  |   |- and carried Demand 171,   75.0 containers from 315 to 301
###  |   |- and carried Demand 172,  114.0 containers from 315 to 301
###  |
### Service 177 (WCSA) is operated by 3 vessels from type 19 (PMax28)
###  |- Vessel  5 has the path [218, 133, 199, 290, 200, 112, 284, 45, 36, 240, 236, 0]
###  |  218 (NLRTM Out@92.0) - 133 (FRLEH In@111.0/Out@127.0) - 199 (MAPTM In@207.0/Out@228.0) - 290 (MAPTM In@211.0/Out@230.
###  |  0) - 200 (MAPTM In@238.0/Out@259.0) - 112 (ESALG In@284.0/Out@296.0) - 284 (GWOXB In@463.0/Out@542.0) - 45 (CMDLA In@
###  |  765.0/Out@811.0) - 36 (CLLQN In@1240.0/Out@1258.0) - 240 (PECLL In@1398.71/Out@1400.71) - 236 (PABLB In@1640.0/Out@16
###  |  52.0) - 0 (DUMMY_END Ziel-Service 177)
###  |   |- and carried Demand   6,   17.0 containers from 218 to 133
###  |   |- and carried Demand   7,  161.0 containers from 199 to  45
###  |   |- and carried Demand   8,  580.0 containers from 199 to 112
###  |   |- and carried Demand  45,  161.0 containers from 200 to  45
###  |   |- and carried Demand  46,  580.0 containers from 200 to 112
###  |   |- and carried Demand  80,  194.0 containers from  36 to 236
###  |   |- and carried Demand  81,   20.0 containers from  36 to 236
###  |   |- and carried Demand  83,    5.0 containers from  36 to 236
###  |   |- and carried Demand 117,   19.0 containers from 199 to 112
###  |   |- and carried Demand 131,  580.0 containers from 200 to 112
###  |   |- and carried Demand 144,  161.0 containers from 290 to  45
###  |   |- and carried Demand 145,  580.0 containers from 290 to 112
###  |- Vessel  7 has the path [221, 137, 203, 235, 0]
###  |  221 (NLRTM Out@428.0) - 137 (FRLEH In@447.0/Out@463.0) - 203 (MAPTM In@543.0/Out@564.0) - 235 (PABLB In@1472.0/Out@14
###  |  84.0) - 0 (DUMMY_END Ziel-Service 177)
###  |   |- and carried Demand  26,    6.0 containers from 221 to 137
###  |- Vessel  8 has the path [223, 138, 204, 234, 0]
###  |  223 (NLRTM Out@596.0) - 138 (FRLEH In@615.0/Out@631.0) - 204 (MAPTM In@711.0/Out@732.0) - 234 (PABLB In@1304.0/Out@13
###  |  16.0) - 0 (DUMMY_END Ziel-Service 177)
###  |
### Vessels not used in the solution: [3, 4, 6, 9, 10, 11, 14, 15, 16, 17]
###  |-----------------------------------------------------------------------------------------------------------------------
###
#############################################################################################################################

### Detialed variable overview

### All variables with value greater zero:
rho[24,18] = 1
rho[177,19] = 1
rho[121,30] = 1
eta[24,18,1] = 1
eta[24,18,2] = 1
eta[24,18,3] = 1
eta[177,19,1] = 1
eta[177,19,2] = 1
eta[177,19,3] = 1
eta[121,30,1] = 1
eta[121,30,2] = 1
y[1,276,-1] = 1
y[1,100,276] = 1
y[2,101,277] = 1
y[2,277,-1] = 1
y[5,200,112] = 1
y[5,290,200] = 1
y[5,240,236] = 0.999999
y[5,133,199] = 1
y[5,199,290] = 1
y[5,45,36] = 0.999999
y[5,218,133] = 1
y[5,36,240] = 0.999999
y[5,284,45] = 0.999999
y[5,236,0] = 1
y[5,112,284] = 0.999999
y[7,137,203] = 1
y[7,203,235] = 1
y[7,221,137] = 1
y[7,235,0] = 1
y[8,234,0] = 1
y[8,204,234] = 1
y[8,223,138] = 1
y[8,138,204] = 1
y[12,8,302] = 1
y[12,302,-2] = 1
y[13,104,275] = 0.999999
y[13,275,201] = 0.999999
y[13,291,202] = 1
y[13,114,278] = 1
y[13,202,114] = 1
y[13,278,-1] = 1
y[13,201,291] = 0.999999
y[18,301,-2] = 1
y[18,148,315] = 1
y[18,315,311] = 1
y[18,311,301] = 1
xD[6,218,133] = 17
xD[7,200,112] = 161
xD[7,290,200] = 161
xD[7,199,290] = 161
xD[7,284,45] = 161
xD[7,112,284] = 161
xD[8,200,112] = 580
xD[8,290,200] = 580
xD[8,199,290] = 580
xD[17,291,202] = 483.999
xD[17,202,114] = 483.999
xD[17,201,291] = 483.999
xD[18,291,202] = 18
xD[18,202,114] = 18
xD[18,201,291] = 18
xD[26,221,137] = 6
xD[45,200,112] = 161
xD[45,284,45] = 161
xD[45,112,284] = 161
xD[46,200,112] = 580
xD[52,202,114] = 484
xD[53,202,114] = 18
xD[80,240,236] = 194
xD[80,36,240] = 194
xD[81,240,236] = 20
xD[81,36,240] = 20
xD[83,240,236] = 5
xD[83,36,240] = 5
xD[117,200,112] = 19.0003
xD[117,290,200] = 19.0003
xD[117,199,290] = 19.0003
xD[119,291,202] = 214
xD[119,114,278] = 214
xD[119,202,114] = 214
xD[119,201,291] = 214
xD[120,291,202] = 9.99999
xD[120,114,278] = 9.99999
xD[120,202,114] = 9.99999
xD[120,201,291] = 9.99999
xD[122,291,202] = 18
xD[122,202,114] = 18
xD[122,201,291] = 18
xD[131,200,112] = 580
xD[132,114,278] = 214
xD[132,202,114] = 214
xD[133,114,278] = 10
xD[133,202,114] = 10
xD[134,202,114] = 312.001
xD[135,202,114] = 18
xD[138,291,202] = 214
xD[138,114,278] = 214
xD[138,202,114] = 214
xD[139,291,202] = 10
xD[139,114,278] = 10
xD[139,202,114] = 10
xD[140,291,202] = 484
xD[140,202,114] = 484
xD[141,291,202] = 18
xD[141,202,114] = 18
xD[144,200,112] = 161
xD[144,290,200] = 161
xD[144,284,45] = 161
xD[144,112,284] = 161
xD[145,200,112] = 580
xD[145,290,200] = 580
xD[170,311,301] = 10
xD[171,315,311] = 75
xD[171,311,301] = 75
xD[172,315,311] = 114
xD[172,311,301] = 114
zE[36] = 1240
zE[45] = 764.999
zE[112] = 284
zE[114] = 452
zE[133] = 111
zE[137] = 447
zE[138] = 615
zE[199] = 207
zE[200] = 238
zE[201] = 375
zE[202] = 406
zE[203] = 543
zE[204] = 711
zE[234] = 1304
zE[235] = 1472
zE[236] = 1640
zE[240] = 1398.71
zE[275] = 328
zE[276] = 496
zE[277] = 664
zE[278] = 832
zE[284] = 463
zE[290] = 211
zE[291] = 379
zE[301] = 998
zE[302] = 1166
zE[311] = 935
zE[315] = 873
zX[8] = 570
zX[36] = 1258
zX[45] = 810.999
zX[100] = 288
zX[101] = 456
zX[104] = 220
zX[112] = 296
zX[114] = 464
zX[133] = 127
zX[137] = 463
zX[138] = 631
zX[148] = 470
zX[199] = 228
zX[200] = 259
zX[201] = 396
zX[202] = 427
zX[203] = 564
zX[204] = 732
zX[218] = 92
zX[221] = 428
zX[223] = 596
zX[234] = 1316
zX[235] = 1484
zX[236] = 1652
zX[240] = 1400.71
zX[275] = 347
zX[276] = 515
zX[277] = 683
zX[278] = 851
zX[284] = 542
zX[290] = 230
zX[291] = 398
zX[301] = 1011
zX[302] = 1179
zX[311] = 943
zX[315] = 881
w[5,(240,236)] = 125.884
w[5,(36,240)] = 140.711
phi[1] = 227
phi[2] = 227
phi[5] = 1560
phi[7] = 1056
phi[8] = 720
phi[12] = 609
phi[13] = 631
phi[18] = 541

### All variables with value smaller zero:

### End

real	1442m12.676s
user	5174m1.135s
sys	588m43.836s
	Freetype 2.4.12 environment removed
	Python 3.6.0 environment removed
	Gurobi 8.1.0 environment removed
