	Freetype 2.4.12 environment established
		library to render fonts
	Python 3.6.0 environment established
	Gurobi 8.1.0 environment established
Instance LSFRP: LSFDRP_2_2_0_0_fr.p
Instance LSFDP: LSFDRP_2_2_0_0_fd_34.p

*****************************************************************************************************************************
*** Solve LSFDRP_2_2_0_0_fd_34 with Gurobi
***
*** Graph info
*** |S|: 18
*** |S^E|: 0
*** |S^C|: 0
*** |V|: 321
*** |A|: 9520
*** |A^i|: 9469
*** |A^f|: 51
*** |M|: 193
*** |E|: 22

Changed value of parameter TimeLimit to 86400.0
   Prev: 1e+100  Min: 0.0  Max: 1e+100  Default: 1e+100
Changed value of parameter Threads to 4
   Prev: 0  Min: 0  Max: 1024  Default: 0
Optimize a model with 91412 rows, 2029350 columns and 7453802 nonzeros
Variable types: 1857954 continuous, 171396 integer (171396 binary)
Coefficient statistics:
  Matrix range     [1e+00, 4e+03]
  Objective range  [2e+00, 2e+07]
  Bounds range     [1e+00, 1e+00]
  RHS range        [1e+00, 4e+03]
Presolve removed 50855 rows and 1604434 columns (presolve time = 5s) ...
Presolve removed 62472 rows and 1706691 columns (presolve time = 10s) ...
Warning: Failed to open log file 'gurobi.log'
Presolve removed 62486 rows and 1706715 columns (presolve time = 15s) ...
Presolve removed 62486 rows and 1706880 columns (presolve time = 31s) ...
Presolve removed 63782 rows and 1710087 columns (presolve time = 111s) ...
Presolve removed 63782 rows and 1710087 columns
Presolve time: 111.29s
Presolved: 27630 rows, 319263 columns, 1387957 nonzeros
Variable types: 147960 continuous, 171303 integer (171255 binary)

Deterministic concurrent LP optimizer: primal and dual simplex
Showing first log only...


Root simplex log...

Iteration    Objective       Primal Inf.    Dual Inf.      Time
       0   -9.1610275e+03   5.000000e+00   7.316897e+07    116s
   12786   -2.1373624e+07   0.000000e+00   1.400263e+10    118s
   19742   -1.3632453e+07   0.000000e+00   1.200817e+11    120s
   30802   -1.6325682e+06   0.000000e+00   4.555681e+10    125s
Concurrent spin time: 0.00s

Solved with dual simplex

Root relaxation: objective 6.687941e+06, 14267 iterations, 11.25 seconds

    Nodes    |    Current Node    |     Objective Bounds      |     Work
 Expl Unexpl |  Obj  Depth IntInf | Incumbent    BestBd   Gap | It/Node Time

     0     0 6685214.13    0  157          - 6685214.13      -     -  132s
     0     0 6137153.73    0  165          - 6137153.73      -     -  145s
H    0     0                    -2909080.588 6137153.73   311%     -  146s
     0     0 6002381.14    0  145 -2909080.6 6002381.14   306%     -  150s
     0     0 5744690.81    0  169 -2909080.6 5744690.81   297%     -  159s
H    0     0                    -2502500.587 5744690.81   330%     -  162s
     0     0 5743985.13    0  170 -2502500.6 5743985.13   330%     -  162s
     0     0 5580000.11    0  171 -2502500.6 5580000.11   323%     -  173s
H    0     0                    -2499979.938 5580000.11   323%     -  174s
     0     0 5579850.05    0  171 -2499979.9 5579850.05   323%     -  175s
     0     0 5579695.28    0  185 -2499979.9 5579695.28   323%     -  175s
     0     0 5579138.97    0  185 -2499979.9 5579138.97   323%     -  176s
     0     0 5578846.61    0  186 -2499979.9 5578846.61   323%     -  179s
H    0     0                    -2470675.938 5578846.61   326%     -  179s
H    0     0                    -418330.7203 5578846.61  1434%     -  188s
     0     0 5578846.61    0  186 -418330.72 5578846.61  1434%     -  189s
     0     0 5578846.61    0  187 -418330.72 5578846.61  1434%     -  191s
     0     0 5578819.74    0  189 -418330.72 5578819.74  1434%     -  197s
     0     0 5578819.74    0  189 -418330.72 5578819.74  1434%     -  228s
     0     2 5578819.74    0  189 -418330.72 5578819.74  1434%     -  251s
     1     4 4803723.51    1  216 -418330.72 4882820.97  1267% 199951 1617s
     3     6 4800195.33    2  214 -418330.72 4822279.66  1253% 71358 1769s
     7     8 4765064.75    3  158 -418330.72 4819745.90  1252% 48613 3226s
    11    12 4748484.43    4  152 -418330.72 4819745.90  1252% 36423 3262s
    15    14 4346139.18    5  168 -418330.72 4819745.90  1252% 33300 4460s
    19    19 4144776.27    5  162 -418330.72 4819745.90  1252% 29422 6407s
    23    20 3798494.33    6  113 -418330.72 4819745.90  1252% 49387 8286s
    29    26 3688923.06    7  108 -418330.72 4819745.90  1252% 40540 8423s
    35    34 3785690.13    7   99 -418330.72 4819745.90  1252% 34445 8501s
    43    36 3722418.55    8  101 -418330.72 4819745.90  1252% 28691 8963s
    53    49 3749043.78    9  102 -418330.72 4819745.90  1252% 25418 9108s
    63    57 3720230.48   11  118 -418330.72 4819745.90  1252% 21992 9286s
    73    71 3717682.59   12  103 -418330.72 4819745.90  1252% 19093 9374s
    88    83 3681336.14   15  100 -418330.72 4819745.90  1252% 16213 9446s
   102   100 3524271.54   19   97 -418330.72 4819745.90  1252% 14350 9633s
H  104   101                    100583.07892 4819745.90  4692% 14120 9634s
H  109   102                    435535.49360 4819745.90  1007% 13497 9634s
   115   106 3492824.35   21   92 435535.494 4819745.90  1007% 12929 9730s
   134   132 3440803.05   22  114 435535.494 4819745.90  1007% 11374 10090s
H  139   133                    435535.49493 4819745.90  1007% 11138 10090s
   154   141 3438767.31   23  108 435535.495 4819745.90  1007% 10178 10306s
   180   167 3292818.77   25  120 435535.495 4819745.90  1007%  9001 10958s
H  183   170                    435535.49841 4819745.90  1007%  8884 10958s
   204   188 3020396.44   27   82 435535.498 4807072.25  1004%  8181 11036s
   238   220 2622388.45   28   78 435535.498 4807072.25  1004%  7086 11082s
   276   240 3153432.74   29  114 435535.498 4807072.25  1004%  6254 11509s
   319   284 2750659.06   29   86 435535.498 4807072.25  1004%  5798 11916s
   353   310 3069179.23   30  114 435535.498 4807072.25  1004%  5338 12049s
   393   340 2580032.35   31  108 435535.498 4807072.25  1004%  4884 12165s
   437   356 2508531.10   33   90 435535.498 4807072.25  1004%  4474 12239s
   484   369 1441553.42   34   75 435535.498 4807072.25  1004%  4100 14249s
   520   392 1921941.08   34   75 435535.498 4807072.25  1004%  4689 14937s
   540   398 1593369.63   37   67 435535.498 4807072.25  1004%  4775 15741s
   577   431     cutoff   41      435535.498 4714582.05   982%  4805 16986s
H  616   460                    501291.94147 4714582.05   840%  4924 18315s
   620   461 3983987.22   14  141 501291.941 4714582.05   840%  4963 19330s
   633   474 3972429.09   15  134 501291.941 4714582.05   840%  5085 22227s
   648   491 3952710.53   17  148 501291.941 4714582.05   840%  5556 22521s
   660   504 3948072.44   18  156 501291.941 4714582.05   840%  5605 22817s
   707   546 3816376.16   20  143 501291.941 4714582.05   840%  5431 23579s
   753   587 3583067.10   23  143 501291.941 4714582.05   840%  5448 23881s
   802   634 3548303.38   24  114 501291.941 4714582.05   840%  5331 24448s
   876   681 3548303.38   25  109 501291.941 4640775.45   826%  5022 25173s
   948   722 infeasible   12      501291.941 4640775.45   826%  4875 25772s
  1007   753 1678293.16   14   97 501291.941 4640775.45   826%  4760 27407s
H 1134   856                    501291.95021 4640775.45   826%  4484 27408s
  1135   857 3035459.84   13  189 501291.950 4640775.45   826%  4480 27646s
  1137   858 4248160.95   33  149 501291.950 4587427.57   815%  4472 27660s
  1138   859 4308063.70   22  165 501291.950 4308063.70   759%  4468 27674s
  1139   860 2324413.89   58  172 501291.950 4197873.88   737%  4464 27679s
  1140   860 1207123.07  133  150 501291.950 4182608.29   734%  4461 27693s
  1142   862 1144884.37  140  186 501291.950 4161581.20   730%  4453 27700s
  1143   862 1942043.93   80  191 501291.950 4131255.20   724%  4449 27717s
  1144   863 1780116.73   72  198 501291.950 4127431.33   723%  4445 27723s
  1145   864 599599.996   44  191 501291.950 4117245.10   721%  4441 27738s
  1146   864 2380004.30   60  257 501291.950 4113258.66   721%  4437 27743s
  1147   865 2170852.98   15  258 501291.950 4112211.02   720%  4433 27745s
  1148   866 4111628.57   13  214 501291.950 4111628.57   720%  4429 27750s
  1149   866 3888082.84   48  295 501291.950 4005340.88   699%  4426 27779s
  1150   867 4001305.62    8  286 501291.950 4001305.62   698%  4422 27786s
  1151   868 2881922.23   23  225 501291.950 3996741.95   697%  4418 27798s
  1152   868 1119885.35   17  230 501291.950 3994497.03   697%  4414 27804s
  1153   869 2049964.52   41  259 501291.950 3601657.40   618%  4410 27820s
  1155   870 1646564.16  106  222 501291.950 3591182.42   616%  4403 27829s
  1156   871 1660744.40   99  283 501291.950 3587416.55   616%  4399 27841s
  1157   872 3185036.83    6  289 501291.950 3585635.07   615%  4395 27848s
  1158   872 2014756.40   45  279 501291.950 3584137.58   615%  4391 27885s
  1159   873 3584137.58   17  279 501291.950 3584137.58   615%  4387 27890s
  1160   874 3584137.58   38  279 501291.950 3584137.58   615%  4384 27912s
  1161   877 3554861.66   12  207 501291.950 3584137.58   615%  4428 27987s
  1163   881 3551373.54   13  208 501291.950 3551373.54   608%  4425 28098s
  1167   883 3548975.31   14  197 501291.950 3548975.31   608%  4446 28139s
  1171   886 2972362.78   14  159 501291.950 3542004.35   607%  4451 28209s
  1175   889 3378202.02   15  209 501291.950 3538082.97   606%  4467 28254s
  1179   891 3527362.57   15  215 501291.950 3527362.57   604%  4468 28299s
  1183   894 3524913.86   16  207 501291.950 3527362.57   604%  4474 28337s
  1187   896 3312581.05   16  166 501291.950 3524911.26   603%  4472 28371s
  1191   893 3485643.95   17  191 501291.950 3524910.62   603%  4476 28431s
  1197   897 3300590.56   17  193 501291.950 3485640.05   595%  4497 28477s
  1201   904 3470546.00   18  200 501291.950 3470546.00   592%  4491 28515s
  1206   905 3470546.00   19  193 501291.950 3470546.00   592%  4505 28600s
  1212   910 3452591.53   20  197 501291.950 3452591.53   589%  4543 28679s
  1219   911 3451279.95   21  190 501291.950 3452506.47   589%  4562 28720s
  1224   920 3236908.03   21  221 501291.950 3450885.25   588%  4566 28778s
  1230   921 3427790.75   22  172 501291.950 3427790.75   584%  4584 28830s
  1239   924 3419141.22   23  245 501291.950 3427748.36   584%  4590 28867s
  1246   933 3269770.15   23  174 501291.950 3420047.00   582%  4594 28909s
  1251   934 3046648.38   24  166 501291.950 3420047.00   582%  4621 28947s
  1261   945 3170686.37   25  214 501291.950 3420047.00   582%  4624 28994s
  1270   945 3157379.09   26  176 501291.950 3420047.00   582%  4633 29046s
  1279   955 3233780.66   26  178 501291.950 3420047.00   582%  4636 29092s
  1290   960 3204390.61   28  185 501291.950 3420047.00   582%  4644 29148s
  1299   967 3183950.10   29  238 501291.950 3420047.00   582%  4659 29246s
  1312   972 3178395.77   30  235 501291.950 3420047.00   582%  4676 29315s
H 1328   942                    502264.79947 3420047.00   581%  4688 29372s
  1345   944 3108269.28   35  215 502264.799 3420047.00   581%  4679 29442s
  1364   960 3026647.39   38  209 502264.799 3420047.00   581%  4671 29534s
  1378   970 2933070.25   39  229 502264.799 3420047.00   581%  4684 29610s
H 1383   931                    502264.80030 3420047.00   581%  4696 29610s
H 1390   893                    502264.80316 3420047.00   581%  4699 29610s
  1393   894 2856927.53   41  158 502264.803 3420047.00   581%  4696 29698s
  1412   910 2798203.28   43  185 502264.803 3420047.00   581%  4690 29790s
  1433   917 2362866.53   46  143 502264.803 3420047.00   581%  4691 29870s
  1467   937 2241506.76   53  110 502264.803 3420047.00   581%  4661 29937s
  1499   948 2154051.00   61  113 502264.803 3420047.00   581%  4625 29991s
  1537   968 688334.931   69   89 502264.803 3420047.00   581%  4570 30058s
  1579   972 3291566.67   22  150 502264.803 3420045.40   581%  4527 30290s
  1609   987 1488085.77   21  134 502264.803 3420045.40   581%  4510 30359s
  1640   997 3180911.19   24  139 502264.803 3420045.40   581%  4492 30446s
  1673  1021 1590387.96   27  160 502264.803 3420045.40   581%  4485 30508s
  1713  1043 1538314.46   28  160 502264.803 3420045.40   581%  4456 30597s
  1756  1058 2931842.60   27  164 502264.803 3420045.40   581%  4427 30755s
H 1760  1018                    540299.75181 3420045.40   533%  4429 30755s
  1814  1045 2651193.28   30  157 540299.752 3420045.40   533%  4360 30851s
  1892  1068 2475579.21   34  160 540299.752 3420045.40   533%  4251 30960s
  1913  1057 2033874.96   36  107 540299.752 3420045.40   533%  4294 31057s
  1985  1096 1186709.75   66   50 540299.752 3420044.32   533%  4206 31146s
  2020  1106 1978679.56   24  131 540299.752 3330170.25   516%  4195 31232s
  2099  1154 3015165.56   20  129 540299.752 3330170.25   516%  4119 31318s
  2171  1203 2805326.26   24  121 540299.752 3330170.25   516%  4042 31407s
  2291  1276 2302334.08   26   92 540299.752 3330170.25   516%  3891 31593s
  2410  1322 2184157.46   34   79 540299.752 3330170.25   516%  3744 31696s
  2525  1370 1877978.78   93   91 540299.752 3330170.25   516%  3625 31814s
  2648  1416 1094216.52  146   67 540299.752 3329832.43   516%  3494 32202s
  2795  1461 2808945.12   28  126 540299.752 3312465.81   513%  3350 32304s
  2925  1511 1181451.35   61  175 540299.752 3300533.68   511%  3248 32426s
  3075  1588 3131742.05   19  183 540299.752 3300533.68   511%  3151 32655s
  3188  1646 3130886.99   20  184 540299.752 3300533.68   511%  3064 32762s
  3323  1718 2548706.10   28  138 540299.752 3300533.68   511%  2991 32876s
  3494  1862 1271335.73   99  105 540299.752 3294684.70   510%  2899 33000s
  3639  1971 2914213.24   29  150 540299.752 3286204.07   508%  2846 33131s
  3781  2089 2805061.57   33  156 540299.752 3286204.07   508%  2800 33298s
  3983  2258 2057747.32   45  130 540299.752 3286204.07   508%  2724 33434s
  4165  2410 1805480.93   69  113 540299.752 3274554.22   506%  2662 33575s
  4366  2583 2950801.29   20  181 540299.752 3274554.22   506%  2601 33708s
H 4469  2677                    540299.75349 3274554.22   506%  2552 33709s
  4523  2728 2937108.63   21  174 540299.753 3274554.22   506%  2542 33854s
  4624  2809 2038580.63   73  145 540299.753 3269750.96   505%  2540 34013s
  4929  3085 1398100.32   37  137 540299.753 3261449.97   504%  2442 34186s
  5104  3225 2989851.70   30  145 540299.753 3261449.97   504%  2413 34355s
H 5158  3279                    540299.75399 3261449.97   504%  2401 34355s
  5322  3427 2235779.76   84   99 540299.754 3261449.97   504%  2374 34574s
H 5388  3483                    540299.75485 3261449.97   504%  2358 34574s
  5430  3513 2802835.57   31  122 540299.755 3247561.61   501%  2373 34772s
H 5451  3513                    540299.75888 3247561.61   501%  2375 34772s
H 5526  3576                    540299.76008 3247074.48   501%  2379 34950s
  5769  3778 2786643.87   29  109 540299.760 3247074.48   501%  2333 35136s
  5914  3907 2401983.05   68  106 540299.760 3238449.04   499%  2327 35334s
  6150  4074 2102652.85   92  153 540299.760 3236034.38   499%  2268 35335s
  6267  4138 2252165.64   40   91 540299.760 3235660.02   499%  2255 35600s
  6720  4515 2835574.80   27  138 540299.760 3230989.10   498%  2164 35794s
  6861  4623 2338091.91   56  107 540299.760 3226338.38   497%  2171 36019s
  7116  4847 1875227.30   45   92 540299.760 3217047.22   495%  2150 36241s
  7317  5013 1135132.42   65  102 540299.760 3215803.86   495%  2139 36775s
  7657  5241 2234863.54   21  128 540299.760 3207933.72   494%  2097 37046s
  7950  5509 2401172.86   27  140 540299.760 3198563.08   492%  2077 37321s
  8113  5636 2570491.50   34  141 540299.760 3195830.95   491%  2089 37592s
  8438  5920 2632233.48   41  121 540299.760 3189948.56   490%  2064 37876s
  8603  6052 2990651.92   22  205 540299.760 3187989.25   490%  2079 38175s
  9056  6415 2996313.31   27  169 540299.760 3179940.37   489%  2041 38496s
  9533  6780     cutoff   31      540299.760 3175398.21   488%  1998 38832s
  9823  7004 infeasible   40      540299.760 3173266.18   487%  1988 39200s
 10140  7276 2638857.19   33  107 540299.760 3165774.17   486%  1974 39602s
 10542  7600 1792469.10   48  189 540299.760 3160424.74   485%  1948 39733s
 10544  7601 2560445.84   35  128 540299.760 3160424.74   485%  1948 39743s
 10545  7602 3035033.77   29  164 540299.760 3160424.74   485%  1948 39760s
 10546  7603 2459248.27   58  163 540299.760 3160424.74   485%  1948 39780s
 10547  7603 579277.187   43  196 540299.760 3160424.74   485%  1947 39787s
 10548  7604 1128136.10   77  196 540299.760 3160424.74   485%  1947 39790s
 10549  7605 1492021.49  118  213 540299.760 3160424.74   485%  1947 39797s
 10550  7605 2392361.91   17  201 540299.760 3160424.74   485%  1947 39801s
 10552  7607 1834271.84   89  227 540299.760 3160424.74   485%  1946 39812s
 10553  7607 2879683.38   34  228 540299.760 3160424.74   485%  1946 39823s
 10554  7608 2383145.53   70  233 540299.760 3160424.74   485%  1946 39829s
 10555  7609 2221238.33   61  294 540299.760 3160424.74   485%  1946 39838s
 10556  7609 2115284.22   74  247 540299.760 3160424.74   485%  1946 39850s
 10557  7610 2036593.10   58  251 540299.760 3160424.74   485%  1946 39857s
 10558  7611 642989.169   77  250 540299.760 3160424.74   485%  1945 39862s
 10559  7611 1802787.41  103  237 540299.760 3160424.74   485%  1945 39872s
 10560  7612 1731280.64   97  254 540299.760 3160424.74   485%  1945 39876s
 10561  7613 2259477.71   50  311 540299.760 3160424.74   485%  1945 39914s
 10562  7613 1721053.58   28  311 540299.760 3160424.74   485%  1945 39916s
 10563  7614 2074363.57   61  311 540299.760 3160424.74   485%  1944 39934s
 10564  7618 3160424.74   22  263 540299.760 3160424.74   485%  1948 39999s
 10566  7621 3160424.74   23  276 540299.760 3160424.74   485%  1949 40073s
 10570  7624 3160424.74   24  212 540299.760 3160424.74   485%  1951 40107s
 10574  7626 3160424.74   24  187 540299.760 3160424.74   485%  1951 40150s
 10578  7629 3160424.74   25  247 540299.760 3160424.74   485%  1952 40194s
 10582  7632 3160424.74   25  187 540299.760 3160424.74   485%  1952 40229s
 10586  7634 3160424.74   26  235 540299.760 3160424.74   485%  1954 40252s
 10590  7637 3160424.74   26  181 540299.760 3160424.74   485%  1955 40357s
 10594  7635 3160424.74   27  242 540299.760 3160424.74   485%  1962 40386s
 10599  7641 2847796.99   27  186 540299.760 3160424.74   485%  1963 40426s
 10605  7643 3160424.74   28  191 540299.760 3160424.74   485%  1964 40449s
 10611  7649 3160424.74   29  191 540299.760 3160424.74   485%  1965 40478s
 10617  7648 3160424.74   30  247 540299.760 3160424.74   485%  1967 40514s
 10626  7651 3160424.74   31  248 540299.760 3160424.74   485%  1969 40614s
 10630  7663 3002238.87   31  174 540299.760 3160424.74   485%  1970 40644s
 10638  7667 3160424.74   32  239 540299.760 3160424.74   485%  1971 40674s
 10648  7675 3160424.74   33  176 540299.760 3160424.74   485%  1974 40697s
 10657  7677 3160424.74   34  250 540299.760 3160424.74   485%  1975 40757s
 10666  7685 3160424.74   35  193 540299.760 3160424.74   485%  1979 40798s
 10675  7684 3160424.74   36  243 540299.760 3160424.74   485%  1984 40836s
 10684  7696 3160424.74   37  262 540299.760 3160424.74   485%  1987 40876s
 10701  7709 3145257.30   38  181 540299.760 3160424.74   485%  1988 40924s
 10716  7713 3160424.74   40  193 540299.760 3160424.74   485%  1990 40961s
 10733  7728 3160424.74   41  189 540299.760 3160424.74   485%  1992 40998s
 10747  7729 3160424.74   42  175 540299.760 3160424.74   485%  1994 41025s
 10772  7748 2198003.72   43  119 540299.760 3160424.74   485%  1995 41060s
 10797  7754 3160424.74   44  208 540299.760 3160424.74   485%  1994 41088s
 10830  7770 3089093.52   46  139 540299.760 3160424.74   485%  1992 41119s
 10866  7774 3149836.96   47  229 540299.760 3160424.74   485%  1988 41148s
 10896  7779 3125895.43   48  146 540299.760 3160424.74   485%  1985 41203s
 10912  7780 3119597.79   49  155 540299.760 3160424.74   485%  1989 41267s
 10930  7795 2882662.22   50  116 540299.760 3160424.74   485%  1992 41319s
 10944  7803 2267188.96   51  119 540299.760 3160424.74   485%  1995 41356s
 10957  7807 2294926.32   52  179 540299.760 3160424.74   485%  1998 41405s
 10972  7820 3061184.31   53  156 540299.760 3160424.74   485%  1998 41454s
 10996  7836 3055834.25   55  158 540299.760 3160424.74   485%  1999 41498s
 11040  7854 3030239.04   58  173 540299.760 3160424.74   485%  1997 41602s
 11101  7872 3003044.44   61  170 540299.760 3160424.74   485%  1991 41655s
 11176  7904 2927893.25   66  124 540299.760 3160424.74   485%  1986 41711s
 11248  7918 2923905.51   69  124 540299.760 3160424.74   485%  1979 41754s
 11328  7959 2879896.10   72  109 540299.760 3160424.74   485%  1970 41793s
 11384  7983 2869891.07   74  110 540299.760 3160424.74   485%  1966 41869s
 11412  7994 2850627.59   77  118 540299.760 3160424.74   485%  1968 41943s
 11443  8008 2270270.10   81  108 540299.760 3160424.74   485%  1970 42022s
 11501  8035 1738971.66   85   83 540299.760 3160424.74   485%  1968 42091s
 11526  8041 1982670.97   90   84 540299.760 3160424.74   485%  1970 42170s
 11553  8053 1318077.01   96   88 540299.760 3160424.74   485%  1973 42246s
 11636  8076     cutoff  117      540299.760 3160424.74   485%  1967 42320s
 11708  8076 758091.451  152   67 540299.760 3160424.74   485%  1963 42400s
 11758  8101 2943482.22   29  162 540299.760 3160424.74   485%  1963 42487s
 11809  8118 848580.526   35  142 540299.760 3160424.74   485%  1963 42764s
 11859  8135 2216234.27   28   92 540299.760 3160424.74   485%  1967 42853s
 11924  8177 3160424.74   27  167 540299.760 3160424.74   485%  1965 42942s
 12047  8234 3160424.74   31  158 540299.760 3160424.74   485%  1955 43035s
 12121  8250 2703357.78   34  115 540299.760 3160424.74   485%  1954 43130s
 12177  8281 2778045.27   38  103 540299.760 3160424.74   485%  1956 43241s
 12220  8294 2237894.28   48   58 540299.760 3160424.74   485%  1962 43350s
 12331  8325 1215391.08   92   67 540299.760 3160424.74   485%  1956 43507s
 12421  8361 1214720.53   93   68 540299.760 3160424.74   485%  1952 43627s
 12531  8343 2256739.75   38  130 540299.760 3160424.74   485%  1947 43752s
 12624  8369 1802780.84   36   78 540299.760 3160424.74   485%  1946 43880s
 12786  8440 1373754.40   69   32 540299.760 3160424.74   485%  1935 44139s
 12845  8457 1215557.40   42   98 540299.760 3160424.74   485%  1935 44275s
 13015  8538 998857.242   66   73 540299.760 3160424.74   485%  1924 44497s
 13137  8587 2702589.39   37  118 540299.760 3160424.74   485%  1915 44653s
 13328  8667 3037403.40   44  134 540299.760 3160424.74   485%  1904 44807s
 13483  8731 794838.781   65   95 540299.760 3160424.74   485%  1898 45143s
 13573  8747 1911493.20   50  100 540299.760 3160424.74   485%  1894 45312s
 13746  8810 1338313.97   58  123 540299.760 3160424.74   485%  1886 45435s
 13944  8860 915331.211   44  110 540299.760 3160424.74   485%  1878 45559s
 14135  8935 1115056.15   85   92 540299.760 3160424.74   485%  1873 45691s
 14362  9026 1750107.08   36  126 540299.760 3160424.74   485%  1862 45815s
 14717  9191 959287.802   52  104 540299.760 3160424.74   485%  1835 45951s
 14992  9323 1740552.65   75  124 540299.760 3151632.21   483%  1821 46073s
 15225  9407     cutoff   40      540299.760 3146054.98   482%  1814 46405s
 15449  9443 2018784.34   45  107 540299.760 3140187.41   481%  1799 46545s
 15744  9571 2377836.76   43  178 540299.760 3137078.63   481%  1785 46703s
 16033  9697 910906.481   33  116 540299.760 3132987.10   480%  1775 46845s
 16299  9813 1450938.46  104  113 540299.760 3125953.20   479%  1768 47002s
 16630  9958 686785.507  103   96 540299.760 3118644.25   477%  1755 47157s
 16969 10110 2320865.15   41   96 540299.760 3108422.17   475%  1743 47318s
 17297 10266 2990827.84   44  148 540299.760 3101001.89   474%  1733 47490s
 17598 10351 1768293.87   53   90 540299.760 3100646.41   474%  1729 47675s
 17949 10473 1053153.75   31  102 540299.760 3084271.27   471%  1722 47860s
 18331 10636 1304093.66   87   97 540299.760 3079626.04   470%  1712 48138s
 18393 10665 969584.871   35   65 540299.760 3072147.41   469%  1711 48330s
 18717 10792 2033741.11   49   88 540299.760 3064074.28   467%  1706 48528s
 19201 11035 2289077.66   39   94 540299.760 3063234.18   467%  1692 48735s
 19562 11148 1803948.89   59  130 540299.760 3051242.25   465%  1691 49169s
 19681 11199 1425400.04   73  102 540299.760 3050329.99   465%  1688 49395s
 20360 11477 2394059.53   57  112 540299.760 3043793.31   463%  1661 49662s
 20967 11749 1178891.48   43   96 540299.760 3038497.79   462%  1642 56158s
 21620 12023 2373039.57   37   91 540299.760 3032442.79   461%  1623 56385s
 22215 12272 2527896.05   30  103 540299.760 3029247.62   461%  1605 56602s
 22695 12480 1094436.97   58  113 540299.760 3023719.56   460%  1598 56899s
 23291 12722 1039925.00   44   82 540299.760 3017122.84   458%  1582 57150s
 24006 13033     cutoff   54      540299.760 3012519.74   458%  1559 57372s
 24580 13250 2475981.14   33  109 540299.760 3007041.20   457%  1546 57588s
 25167 13501 1755086.52   37   89 540299.760 3002635.38   456%  1531 57780s
 25747 13713 2041580.38   52   99 540299.760 2998889.35   455%  1518 58008s
 26371 13963 2459360.51   42  106 540299.760 2994978.92   454%  1501 58271s
 26904 14192 2205188.06   40  100 540299.760 2992196.35   454%  1490 58480s
 27433 14375 2652961.95   45  119 540299.760 2987053.82   453%  1479 58662s
 27919 14574 2047305.76  102   87 540299.760 2985553.42   453%  1472 58850s
 28238 14719 2203207.81   56  129 540299.760 2985134.54   452%  1475 59130s
 28999 14961 1815869.05   67   70 540299.760 2981730.63   452%  1456 59533s
 29522 15125 1064930.16   95   95 540299.760 2975929.48   451%  1447 59840s
 30132 15407 2168035.70   42  112 540299.760 2971577.92   450%  1433 60127s
 30452 15526 1830576.87   49   85 540299.760 2966293.94   449%  1434 60428s
 30972 15726 2582754.27   35  145 540299.760 2965098.61   449%  1427 60814s
 31516 15932 2162328.36   75   58 540299.760 2960603.35   448%  1417 61152s
 31891 16088 2370630.98   40   98 540299.760 2959285.28   448%  1416 61450s
 32325 16303 2835483.00   40  103 540299.760 2958315.36   448%  1411 61760s
 32929 16564 1909063.71   31   98 540299.760 2954289.60   447%  1401 62093s
 33510 16878 984244.994  142   68 540299.760 2951670.62   446%  1389 62398s
 34145 17328 1779044.41   34   78 540299.760 2947169.33   445%  1376 62686s
 34792 17816 2568720.98   41   99 540299.760 2944131.27   445%  1364 62998s
 35247 18153 2683030.56   36  110 540299.760 2940562.80   444%  1359 63355s
 35632 18450 1771120.04   41  105 540299.760 2936937.04   444%  1356 63628s
 36191 18815 2316254.77   37  166 540299.760 2936473.84   443%  1347 63907s
 36638 19139 1895058.91   45  118 540299.760 2934066.22   443%  1342 64158s
 37236 19607 2019851.54   84   45 540299.760 2929072.84   442%  1332 64446s
 37746 19985 2534824.95   52  102 540299.760 2925883.75   442%  1325 64736s
 38408 20431 2811285.35   43   84 540299.760 2923055.22   441%  1314 64999s
 38810 20715 822258.860   57   48 540299.760 2922351.03   441%  1310 65258s
 39205 21021 767503.466   75   61 540299.760 2919309.32   440%  1307 65537s
 39524 21253 2391855.81   72   96 540299.760 2917895.36   440%  1306 65819s
 40121 21727 2384278.92   43   91 540299.760 2916732.43   440%  1296 66089s
 40600 22091 1741200.98   54   96 540299.760 2914522.80   439%  1291 66347s
 41038 22427 2390729.13   52  111 540299.760 2913088.98   439%  1287 66602s
 41547 22805 1198798.17   63   82 540299.760 2911295.11   439%  1280 66852s
 42021 23189 2310468.03   66  113 540299.760 2909635.26   439%  1275 67131s
 42409 23459 2212402.41   79  119 540299.760 2909635.26   439%  1273 67387s
 42795 23727 2061492.51   89  135 540299.760 2909635.26   439%  1271 67639s
 43211 24018 1728414.99  109   82 540299.760 2904828.25   438%  1269 67876s
 43643 24303 2324071.80   39   84 540299.760 2902457.56   437%  1265 68129s
 44060 24600 927091.190   82  108 540299.760 2899870.47   437%  1261 68373s
 44367 24857 1381283.55   65   93 540299.760 2899202.14   437%  1260 68624s
 44913 25167 1915870.90   83   67 540299.760 2895465.44   436%  1254 68893s
 45660 25747 2398160.95   52  123 540299.760 2891778.05   435%  1243 69140s
 45919 25921 1900144.29   61   99 540299.760 2891279.73   435%  1243 69375s
 46362 26269 2779719.57   50  136 540299.760 2890037.75   435%  1240 69615s
 46840 26643 1149148.93   67   94 540299.760 2889257.20   435%  1236 69859s
 47193 26877 2183865.60   38  131 540299.760 2886854.29   434%  1234 70118s
 47831 27392 926686.374   81   97 540299.760 2884409.54   434%  1226 70374s
 48177 27635 1479827.38   62  129 540299.760 2882575.37   434%  1224 70626s
 48696 28042     cutoff   73      540299.760 2878921.95   433%  1218 70874s
 49197 28396 2158172.53   42   91 540299.760 2877167.44   433%  1214 71164s
 49573 28697 2516356.28   48   80 540299.760 2875474.50   432%  1212 71417s
 49972 28939 1979376.75   55  107 540299.760 2873951.89   432%  1210 71659s
 50443 29318 1664704.36   43   93 540299.760 2871009.27   431%  1205 71892s
 51021 29764 1757758.16   62   98 540299.760 2870275.78   431%  1197 72146s
 51515 30146 2252572.24   40   84 540299.760 2867952.00   431%  1192 72392s
 51886 30405 2154833.70   61   96 540299.760 2866055.18   430%  1191 72645s
 52415 30810 1947630.43   67   95 540299.760 2864506.74   430%  1185 72913s
 52904 31216 1848776.19   57  114 540299.760 2863649.87   430%  1181 73157s
 53311 31510     cutoff   60      540299.760 2862631.96   430%  1179 73432s
 53556 31665 2373660.86   40   88 540299.760 2861756.83   430%  1180 73682s
 53983 32004 2168340.57   46  114 540299.760 2860441.13   429%  1177 73944s
 54468 32395 1023473.46  114   55 540299.760 2859817.97   429%  1173 74185s
 54909 32627 2249982.90   37   92 540299.760 2858703.95   429%  1171 74433s
 55294 32932 1519542.09   49  106 540299.760 2857946.34   429%  1169 74699s
 55636 33161 2054729.13   50   61 540299.760 2856831.12   429%  1168 74938s
 56201 33556 2696606.33   36  100 540299.760 2854672.72   428%  1163 75200s
 56594 33876 1987228.73   42  116 540299.760 2853414.07   428%  1161 75442s
 57091 34291 1462207.22   85  101 540299.760 2851648.47   428%  1157 75684s
 57510 34618 1460773.56   56   90 540299.760 2850607.36   428%  1154 75949s
 57854 34855 2555429.87   39   98 540299.760 2849794.98   427%  1153 76191s
 58459 35322 2674966.46   46  100 540299.760 2848381.17   427%  1147 76446s
 58862 35610     cutoff   70      540299.760 2847163.18   427%  1145 76691s
 59302 35921 1533684.28   62  110 540299.760 2845397.22   427%  1142 76927s
 59722 36236 1414223.82   35   50 540299.760 2843985.44   426%  1140 77180s
 60186 36614 1412762.44   47   77 540299.760 2842854.86   426%  1137 77440s
 60655 36887 1256227.99   50   81 540299.760 2841512.36   426%  1134 77675s
 61007 37094 2322972.09   45   76 540299.760 2839034.46   425%  1133 77894s
 61265 37303 711765.207   34   68 540299.760 2838256.23   425%  1131 78152s
 61635 37608 2461341.05   39  144 540299.760 2837708.10   425%  1129 78387s
 62090 37876 2510715.71   40  106 540299.760 2836304.37   425%  1127 78661s
 62772 38453 830888.919   78  115 540299.760 2835121.67   425%  1120 78960s
 63219 38778 2456961.65   43   77 540299.760 2834171.68   425%  1117 79205s
 63621 39047 2283297.33   52  105 540299.760 2832331.92   424%  1115 79435s
 64101 39384 2368996.10   37   93 540299.760 2829542.52   424%  1112 79670s
 64419 39606 702045.130  100   63 540299.760 2828774.85   424%  1112 79896s
 65020 40051 1735465.91   41  103 540299.760 2827705.69   423%  1107 80108s
 65411 40358 2340394.70   44   79 540299.760 2826280.06   423%  1105 80337s
 65779 40624 2480134.35   29  152 540299.760 2824530.28   423%  1103 80579s
 66380 41141 1093628.69   71  152 540299.760 2823471.69   423%  1098 80812s
 66778 41462 1293596.71   50   88 540299.760 2822161.25   422%  1096 81027s
 67084 41614 1890535.84   57   86 540299.760 2821326.07   422%  1096 81248s
 67611 42051 1597825.19   46  105 540299.760 2819470.95   422%  1093 81467s
 68112 42444 1611855.65   93   96 540299.760 2817321.08   421%  1089 81693s
 68561 42801 1848231.41   40   95 540299.760 2815895.04   421%  1086 81912s
 69079 43198 2124175.83   42   75 540299.760 2814265.15   421%  1083 82139s
 69545 43551 1121993.50   50   91 540299.760 2813084.56   421%  1080 82351s
 69881 43784 1559119.95   45  133 540299.760 2811556.82   420%  1079 82575s
 70197 43992 1304746.88   38   98 540299.760 2810559.26   420%  1079 82799s
 70784 44464 1120959.28   54   87 540299.760 2809119.56   420%  1074 83011s
 71139 44733 1350733.28   65   44 540299.760 2808607.62   420%  1073 83232s
 71672 45142 1919907.17   49   88 540299.760 2807367.10   420%  1070 83468s
 72125 45456 1684240.62   43  109 540299.760 2806333.06   419%  1068 83683s
 72430 45661 2506092.05   40  101 540299.760 2805932.82   419%  1067 83899s
 72859 45969 1345910.27   43  101 540299.760 2805239.75   419%  1065 84107s
 73340 46347 1858127.76   45   81 540299.760 2804640.45   419%  1063 84333s
 73782 46699 1764320.31   42   94 540299.760 2803746.27   419%  1060 84564s
 74073 46917 1092928.16   39   93 540299.760 2803112.32   419%  1060 84773s
 74444 47186 962957.961   94   93 540299.760 2802064.05   419%  1059 84980s
 75161 47760 1935025.10   51   98 540299.760 2800640.98   418%  1053 85187s
 75663 48170 901839.343   38   53 540299.760 2800411.71   418%  1050 85394s
 76036 48437 1683689.85   56   62 540299.760 2799782.26   418%  1049 85612s
 76455 48708     cutoff   37      540299.760 2797387.14   418%  1047 85815s
 76964 49100 1124668.13   60  116 540299.760 2796248.23   418%  1044 86024s
 77384 49438 1352787.20   64   80 540299.760 2794989.01   417%  1043 86229s
 77811 49712 1275006.08   71  151 540299.760 2794576.15   417%  1041 86400s

Cutting planes:
  Gomory: 4
  Cover: 3
  Implied bound: 3
  Projected implied bound: 2
  Clique: 5
  MIR: 16
  Flow cover: 50
  GUB cover: 1
  Zero half: 12

Explored 78125 nodes (81285325 simplex iterations) in 86401.05 seconds
Thread count was 4 (of 16 available processors)

Solution count 10: 540300 540300 540300 ... 501292

Time limit reached
Best objective 5.402997600831e+05, best bound 2.794357201678e+06, gap 417.1865%

***
***  |- Calculation finished, timelimit reached 86,401.08 (86401.08) sec.))
***  |-----------------------------------------------------------------------------------------------------------------------
***
*****************************************************************************************************************************
#############################################################################################################################
###
### Results
###
### The objective of the solution is 540,299.7601 (540299.7601) and is feasible with a Gap of 4.1719
###
### Service 24 (WAF7) is operated by 3 vessels from type 18 (PMax25)
###  |- Vessel  1 has the path [100, 276, -1]
###  |  100 (DEHAM Out@288.0) - 276 (ESALG In@496.0/Out@515.0) - -1 (DUMMY_END Ziel-Service 24)
###  |- Vessel  2 has the path [101, 277, -1]
###  |  101 (DEHAM Out@456.0) - 277 (ESALG In@664.0/Out@683.0) - -1 (DUMMY_END Ziel-Service 24)
###  |- Vessel 13 has the path [104, 275, 201, 291, 202, 114, 278, -1]
###  |  104 (DKAAR Out@220.0) - 275 (ESALG In@328.0/Out@347.0) - 201 (MAPTM In@375.0/Out@396.0) - 291 (MAPTM In@379.0/Out@398
###  |  .0) - 202 (MAPTM In@406.0/Out@427.0) - 114 (ESALG In@452.0/Out@464.0) - 278 (ESALG In@832.0/Out@851.0) - -1 (DUMMY_EN
###  |  D Ziel-Service 24)
###  |   |- and carried Demand  17,  312.0 containers from 201 to 114
###  |   |- and carried Demand  18,   18.0 containers from 201 to 114
###  |   |- and carried Demand  52,  484.0 containers from 202 to 114
###  |   |- and carried Demand  53,   18.0 containers from 202 to 114
###  |   |- and carried Demand 119,  214.0 containers from 201 to 278
###  |   |- and carried Demand 120,   10.0 containers from 201 to 278
###  |   |- and carried Demand 121,  484.0 containers from 201 to 114
###  |   |- and carried Demand 122,   18.0 containers from 201 to 114
###  |   |- and carried Demand 132,  214.0 containers from 202 to 278
###  |   |- and carried Demand 133,   10.0 containers from 202 to 278
###  |   |- and carried Demand 134,  484.0 containers from 202 to 114
###  |   |- and carried Demand 135,   18.0 containers from 202 to 114
###  |   |- and carried Demand 138,  214.0 containers from 291 to 278
###  |   |- and carried Demand 139,   10.0 containers from 291 to 278
###  |   |- and carried Demand 141,   18.0 containers from 291 to 114
###  |
### Service 121 (SAE) is operated by 2 vessels from type 30 (PMax35)
###  |- Vessel  9 has the path [1, 274, 199, 290, 200, 112, 284, 45, 302, -2]
###  |  1 (BEANR Out@66.0) - 274 (ESALG In@160.0/Out@179.0) - 199 (MAPTM In@207.0/Out@228.0) - 290 (MAPTM In@211.0/Out@230.0)
###  |   - 200 (MAPTM In@238.0/Out@259.0) - 112 (ESALG In@284.0/Out@296.0) - 284 (GWOXB In@463.0/Out@542.0) - 45 (CMDLA In@76
###  |  5.0/Out@811.0) - 302 (HNPCR In@1166.0/Out@1179.0) - -2 (DUMMY_END Ziel-Service 121)
###  |   |- and carried Demand   7,  161.0 containers from 199 to  45
###  |   |- and carried Demand   8,  580.0 containers from 199 to 112
###  |   |- and carried Demand  45,  161.0 containers from 200 to  45
###  |   |- and carried Demand  46,  580.0 containers from 200 to 112
###  |   |- and carried Demand 117,  580.0 containers from 199 to 112
###  |   |- and carried Demand 131,  580.0 containers from 200 to 112
###  |   |- and carried Demand 144,  161.0 containers from 290 to  45
###  |   |- and carried Demand 145,  580.0 containers from 290 to 112
###  |- Vessel 18 has the path [148, 315, 311, 301, -2]
###  |  148 (GBFXT Out@470.0) - 315 (USORF In@873.0/Out@881.0) - 311 (USMIA In@935.0/Out@943.0) - 301 (HNPCR In@998.0/Out@101
###  |  1.0) - -2 (DUMMY_END Ziel-Service 121)
###  |   |- and carried Demand 170,   10.0 containers from 311 to 301
###  |   |- and carried Demand 171,   75.0 containers from 315 to 301
###  |   |- and carried Demand 172,  114.0 containers from 315 to 301
###  |
### Service 177 (WCSA) is operated by 3 vessels from type 18 (PMax25)
###  |- Vessel  3 has the path [102, 234, 0]
###  |  102 (DEHAM Out@624.0) - 234 (PABLB In@1304.0/Out@1316.0) - 0 (DUMMY_END Ziel-Service 177)
###  |- Vessel  4 has the path [103, 235, 0]
###  |  103 (DEHAM Out@792.0) - 235 (PABLB In@1472.0/Out@1484.0) - 0 (DUMMY_END Ziel-Service 177)
###  |- Vessel 14 has the path [105, 36, 240, 236, 0]
###  |  105 (DKAAR Out@388.0) - 36 (CLLQN In@1240.0/Out@1258.0) - 240 (PECLL In@1481.61/Out@1483.61) - 236 (PABLB In@1640.0/O
###  |  ut@1652.0) - 0 (DUMMY_END Ziel-Service 177)
###  |   |- and carried Demand  80,  194.0 containers from  36 to 236
###  |   |- and carried Demand  81,   20.0 containers from  36 to 236
###  |   |- and carried Demand  83,    5.0 containers from  36 to 236
###  |
### Vessels not used in the solution: [5, 6, 7, 8, 10, 11, 12, 15, 16, 17]
###  |-----------------------------------------------------------------------------------------------------------------------
###
#############################################################################################################################

### Detialed variable overview

### All variables with value greater zero:
rho[24,18] = 1
rho[177,18] = 1
rho[121,30] = 1
eta[24,18,1] = 1
eta[24,18,2] = 1
eta[24,18,3] = 1
eta[177,18,1] = 1
eta[177,18,2] = 1
eta[177,18,3] = 1
eta[121,30,1] = 1
eta[121,30,2] = 1
y[1,276,-1] = 1
y[1,100,276] = 1
y[2,101,277] = 1
y[2,277,-1] = 1
y[3,234,0] = 1
y[3,102,234] = 1
y[4,235,0] = 1
y[4,103,235] = 1
y[9,200,112] = 1
y[9,274,199] = 1
y[9,290,200] = 1
y[9,1,274] = 1
y[9,45,302] = 1
y[9,199,290] = 1
y[9,302,-2] = 1
y[9,284,45] = 1
y[9,112,284] = 1
y[13,104,275] = 1
y[13,275,201] = 1
y[13,291,202] = 1
y[13,114,278] = 1
y[13,202,114] = 1
y[13,278,-1] = 1
y[13,201,291] = 1
y[14,240,236] = 1
y[14,105,36] = 1
y[14,36,240] = 1
y[14,236,0] = 1
y[18,301,-2] = 1
y[18,148,315] = 1
y[18,315,311] = 1
y[18,311,301] = 1
xD[7,200,112] = 161
xD[7,290,200] = 161
xD[7,199,290] = 161
xD[7,284,45] = 161
xD[7,112,284] = 161
xD[8,200,112] = 580
xD[8,290,200] = 580
xD[8,199,290] = 580
xD[17,291,202] = 312
xD[17,202,114] = 312
xD[17,201,291] = 312
xD[18,291,202] = 18
xD[18,202,114] = 18
xD[18,201,291] = 18
xD[45,200,112] = 161
xD[45,284,45] = 161
xD[45,112,284] = 161
xD[46,200,112] = 580
xD[52,202,114] = 484
xD[53,202,114] = 18
xD[80,240,236] = 194
xD[80,36,240] = 194
xD[81,240,236] = 20
xD[81,36,240] = 20
xD[83,240,236] = 5
xD[83,36,240] = 5
xD[117,200,112] = 580
xD[117,290,200] = 580
xD[117,199,290] = 580
xD[119,291,202] = 214
xD[119,114,278] = 214
xD[119,202,114] = 214
xD[119,201,291] = 214
xD[120,291,202] = 10
xD[120,114,278] = 10
xD[120,202,114] = 10
xD[120,201,291] = 10
xD[121,291,202] = 484
xD[121,202,114] = 484
xD[121,201,291] = 484
xD[122,291,202] = 18
xD[122,202,114] = 18
xD[122,201,291] = 18
xD[131,200,112] = 580
xD[132,114,278] = 214
xD[132,202,114] = 214
xD[133,114,278] = 10
xD[133,202,114] = 10
xD[134,202,114] = 484
xD[135,202,114] = 18
xD[138,291,202] = 214
xD[138,114,278] = 214
xD[138,202,114] = 214
xD[139,291,202] = 10
xD[139,114,278] = 10
xD[139,202,114] = 10
xD[141,291,202] = 18
xD[141,202,114] = 18
xD[144,200,112] = 161
xD[144,290,200] = 161
xD[144,284,45] = 161
xD[144,112,284] = 161
xD[145,200,112] = 580
xD[145,290,200] = 580
xD[170,311,301] = 10
xD[171,315,311] = 75
xD[171,311,301] = 75
xD[172,315,311] = 114
xD[172,311,301] = 114
zE[36] = 1240
zE[45] = 765
zE[112] = 284
zE[114] = 452
zE[199] = 207
zE[200] = 238
zE[201] = 375
zE[202] = 406
zE[234] = 1304
zE[235] = 1472
zE[236] = 1640
zE[240] = 1481.61
zE[274] = 160
zE[275] = 328
zE[276] = 496
zE[277] = 664
zE[278] = 832
zE[284] = 463
zE[290] = 211
zE[291] = 379
zE[301] = 998
zE[302] = 1166
zE[311] = 935
zE[315] = 873
zX[1] = 66
zX[36] = 1258
zX[45] = 811
zX[100] = 288
zX[101] = 456
zX[102] = 624
zX[103] = 792
zX[104] = 220
zX[105] = 388
zX[112] = 296
zX[114] = 464
zX[148] = 470
zX[199] = 228
zX[200] = 259
zX[201] = 396
zX[202] = 427
zX[234] = 1316
zX[235] = 1484
zX[236] = 1652
zX[240] = 1483.61
zX[274] = 179
zX[275] = 347
zX[276] = 515
zX[277] = 683
zX[278] = 851
zX[284] = 542
zX[290] = 230
zX[291] = 398
zX[301] = 1011
zX[302] = 1179
zX[311] = 943
zX[315] = 881
w[14,(240,236)] = 144.166
w[14,(36,240)] = 161.145
phi[1] = 227
phi[2] = 227
phi[3] = 692
phi[4] = 692
phi[9] = 1113
phi[13] = 631
phi[14] = 1264
phi[18] = 541

### All variables with value smaller zero:

### End

real	1442m14.225s
user	5339m41.315s
sys	423m24.799s
	Freetype 2.4.12 environment removed
	Python 3.6.0 environment removed
	Gurobi 8.1.0 environment removed
