	Freetype 2.4.12 environment established
		library to render fonts
	Python 3.6.0 environment established
	Gurobi 8.1.0 environment established
Instance LSFRP: LSFDRP_2_2_0_0_fr.p
Instance LSFDP: LSFDRP_2_2_0_0_fd_52.p

*****************************************************************************************************************************
*** Solve LSFDRP_2_2_0_0_fd_52 with Gurobi
***
*** Graph info
*** |S|: 18
*** |S^E|: 0
*** |S^C|: 0
*** |V|: 321
*** |A|: 9520
*** |A^i|: 9469
*** |A^f|: 51
*** |M|: 193
*** |E|: 22

Changed value of parameter TimeLimit to 86400.0
   Prev: 1e+100  Min: 0.0  Max: 1e+100  Default: 1e+100
Changed value of parameter Threads to 4
   Prev: 0  Min: 0  Max: 1024  Default: 0
Optimize a model with 91412 rows, 2029350 columns and 7453802 nonzeros
Variable types: 1857954 continuous, 171396 integer (171396 binary)
Coefficient statistics:
  Matrix range     [1e+00, 4e+03]
  Objective range  [2e+00, 4e+07]
  Bounds range     [1e+00, 1e+00]
  RHS range        [1e+00, 4e+03]
Presolve removed 52754 rows and 1636338 columns (presolve time = 5s) ...
Presolve removed 62217 rows and 1706436 columns (presolve time = 10s) ...
Warning: Failed to open log file 'gurobi.log'
Presolve removed 62486 rows and 1706715 columns (presolve time = 16s) ...
Presolve removed 62486 rows and 1706880 columns (presolve time = 30s) ...
Presolve removed 63782 rows and 1710087 columns (presolve time = 109s) ...
Presolve removed 63782 rows and 1710087 columns
Presolve time: 109.08s
Presolved: 27630 rows, 319263 columns, 1387957 nonzeros
Variable types: 147960 continuous, 171303 integer (171255 binary)

Deterministic concurrent LP optimizer: primal and dual simplex
Showing first log only...


Root simplex log...

Iteration    Objective       Primal Inf.    Dual Inf.      Time
       0   -9.1610275e+03   5.000000e+00   7.082935e+07    114s
Warning: 1 variables dropped from basis
Warning: switch to quad precision
   12016   -2.2119008e+07   0.000000e+00   6.013795e+10    116s
   12696   -2.2085398e+07   0.000000e+00   8.473480e+10    121s
Concurrent spin time: 1.61s

Solved with dual simplex

Root relaxation: objective 6.687941e+06, 14564 iterations, 9.32 seconds

    Nodes    |    Current Node    |     Objective Bounds      |     Work
 Expl Unexpl |  Obj  Depth IntInf | Incumbent    BestBd   Gap | It/Node Time

     0     0 6687941.05    0  153          - 6687941.05      -     -  125s
     0     0 6058525.25    0  170          - 6058525.25      -     -  141s
H    0     0                    -2.09225e+07 6058525.25   129%     -  141s
     0     0 5910680.74    0  144 -2.092e+07 5910680.74   128%     -  146s
     0     0 5910481.42    0  149 -2.092e+07 5910481.42   128%     -  147s
     0     0 5844176.45    0  128 -2.092e+07 5844176.45   128%     -  153s
H    0     0                    -4649501.685 5844176.45   226%     -  153s
     0     0 5844176.45    0  128 -4649501.7 5844176.45   226%     -  155s
     0     0 5609369.54    0  198 -4649501.7 5609369.54   221%     -  166s
     0     0 5582900.25    0  184 -4649501.7 5582900.25   220%     -  172s
     0     0 5582783.61    0  186 -4649501.7 5582783.61   220%     -  174s
     0     0 5579774.66    0  197 -4649501.7 5579774.66   220%     -  177s
     0     0 5576112.20    0  204 -4649501.7 5576112.20   220%     -  179s
     0     0 5576112.20    0  204 -4649501.7 5576112.20   220%     -  180s
     0     0 5575535.23    0  206 -4649501.7 5575535.23   220%     -  182s
H    0     0                    -4649501.684 5575535.23   220%     -  183s
     0     0 5575535.23    0  206 -4649501.7 5575535.23   220%     -  184s
     0     0 5575495.55    0  203 -4649501.7 5575495.55   220%     -  186s
     0     0 5575495.55    0  200 -4649501.7 5575495.55   220%     -  220s
H    0     0                    -2558676.504 5575495.55   318%     -  237s
H    0     0                    -990629.0242 5575495.55   663%     -  249s
H    0     0                    -990629.0241 5575495.55   663%     -  250s
H    0     2                    -968533.5851 5575495.55   676%     -  255s
     0     2 5575495.55    0  200 -968533.59 5575495.55   676%     -  256s
     1     4 5146576.33    1  217 -968533.59 5146576.33   631% 190853 1421s
     3     6 5143523.35    2  211 -968533.59 5143523.35   631% 64493 1473s
     7    10 5134140.32    3  208 -968533.59 5143485.66   631% 28815 1844s
    11    13 4438414.92    4  184 -968533.59 5137690.27   630% 26590 2218s
    15    14 3093304.22    4   89 -968533.59 5137690.27   630% 32705 3002s
    19    16 4276301.21    5  115 -968533.59 4443846.41   559% 31848 3256s
    23    19 4258122.88    6  122 -968533.59 4290141.34   543% 29452 3374s
    31    26 4117400.38    8  109 -968533.59 4287079.42   543% 30463 4805s
H   32    27                    -450493.5169 4287079.42  1052% 29511 4805s
    36    33 3639274.18    8  107 -450493.52 4287079.42  1052% 29821 4899s
    41    33 infeasible    9      -450493.52 4287079.42  1052% 26818 4953s
    51    43 infeasible   11      -450493.52 4287079.42  1052% 21963 5074s
    60    47 3819836.91   12  102 -450493.52 4287079.42  1052% 19485 5258s
H   64    47                    -313827.9764 4287079.42  1466% 18357 5258s
    70    47 3750567.30   14   86 -313827.98 4287079.42  1466% 17037 5373s
    81    59 3523413.92   15   91 -313827.98 4287079.42  1466% 15492 5431s
    93    65 3422621.73   16  100 -313827.98 4287079.42  1466% 13781 5662s
H   96    63                    -258799.9679 4287079.42  1757% 13409 5662s
H   98    60                    107617.31630 4287079.42  3884% 13229 5662s
   102    67 3416297.04   17   86 107617.316 4287079.42  3884% 12800 5850s
   124    81 3204069.81   22   76 107617.316 4287079.42  3884% 10894 6355s
H  127    81                    352707.56003 4287079.42  1115% 10636 6355s
   144    98 3050257.97   25   73 352707.560 4287079.42  1115%  9546 6420s
   174   117 2856356.30   31   70 352707.560 4287079.42  1115%  8057 6470s
   208   135 2644086.32   40   65 352707.560 4287079.42  1115%  6882 6528s
   238   166 2292398.68   45   86 352707.560 4275550.83  1112%  6176 6604s
   274   188 1138586.81   55   68 352707.560 4275550.83  1112%  5517 6640s
   330   218 740017.237   63   58 352707.560 4256862.89  1107%  4714 6705s
   387   250 3038334.09    7   84 352707.560 4256862.89  1107%  4165 7087s
   422   275 2368057.55    9   58 352707.560 4256862.89  1107%  3892 7148s
   489   338 960598.276   10   91 352707.560 4256862.89  1107%  3445 7250s
   565   382 894487.233   11   85 352707.560 4206315.26  1093%  3021 7314s
   668   444 3062650.04    8   70 352707.560 4206315.26  1093%  2632 7392s
   742   462 2496518.51    9   77 352707.560 4206315.26  1093%  2430 7448s
   780   493 2852809.26   10  104 352707.560 4206315.26  1093%  2369 7505s
   814   516 2837513.63   11   80 352707.560 4206315.26  1093%  2322 7553s
   840   543 1421570.68   14   70 352707.560 4206315.26  1093%  2292 7604s
   917   618 902190.157   20   34 352707.560 4206315.26  1093%  2163 7666s
  1022   697 3683735.05   21  200 352707.560 4206315.26  1093%  2002 7936s
  1024   698 3492453.61   17  144 352707.560 4206315.26  1093%  1998 7949s
  1025   699 3201115.36   25  181 352707.560 4079400.26  1057%  1996 7963s
  1027   700 1895576.93   88  190 352707.560 3459719.05   881%  1992 7968s
  1028   701 1727042.95  122  138 352707.560 3384996.05   860%  1990 7983s
  1029   702 1873231.22  106  171 352707.560 3368863.43   855%  1988 7987s
H 1029   666                    425051.78542 3368863.43   693%  1988 8002s
H 1029   633                    425051.78552 3346173.20   687%  1988 8007s
  1031   634 1554991.12   54  177 425051.786 3284907.06   673%  1984 8010s
  1032   635 2759867.00   38  211 425051.786 3278951.63   671%  1983 8015s
H 1032   603                    425051.78587 3267521.63   669%  1983 8036s
  1033   603 1097069.50   59  236 425051.786 3267521.63   669%  1981 8042s
H 1033   573                    425051.78677 3265829.71   668%  1981 8048s
H 1034   545                    435535.49364 3264097.07   649%  1979 8056s
  1035   546 1997465.95   14  256 435535.494 3264097.07   649%  1977 8062s
  1036   546 3075196.90    5  235 435535.494 3263015.23   649%  1975 8068s
H 1036   518                    435535.49402 3260740.46   649%  1975 8077s
  1038   520 3117712.95   33  262 435535.494 3257242.42   648%  1971 8083s
  1039   520 1778164.61   83  205 435535.494 3255216.25   647%  1969 8102s
H 1040   495                    502264.79929 3255216.25   548%  1967 8134s
H 1040   470                    502264.80103 3255216.25   548%  1967 8134s
  1041   471 3075196.90    5  205 502264.801 3255216.25   548%  1965 8135s
  1042   474 3254455.01   12  212 502264.801 3254455.01   548%  2008 8195s
  1044   478 3211862.54   13  211 502264.801 3211862.54   539%  2029 8274s
  1048   480 3108637.72   14  178 502264.801 3202064.87   538%  2041 8335s
  1052   483 3117310.77   14  214 502264.801 3117310.77   521%  2050 8407s
  1056   486 3097306.59   15  191 502264.801 3117294.67   521%  2072 8434s
  1060   488 2589052.00   15  156 502264.801 3117294.67   521%  2077 8462s
  1064   493 3076574.81   16  181 502264.801 3117294.67   521%  2085 8484s
H 1070   467                    502264.80134 3117294.67   521%  2081 8501s
  1075   472 3096184.46   17  161 502264.801 3117294.67   521%  2077 8529s
  1081   473 3096126.67   18  143 502264.801 3117294.67   521%  2086 8560s
  1089   479 2945473.35   19  218 502264.801 3117294.67   521%  2107 8611s
  1096   486 2682516.28   19  145 502264.801 3117294.67   521%  2116 8626s
H 1104   462                    502264.80146 3117294.67   521%  2114 8647s
  1108   471 2324175.76   20  152 502264.801 3117294.67   521%  2122 8682s
  1116   474 2918605.03   21  214 502264.801 3117294.67   521%  2120 8702s
  1122   481 2906211.83   22  215 502264.801 3117294.67   521%  2135 8739s
  1132   486 2904478.79   23  147 502264.801 3117294.67   521%  2146 8771s
  1142   486 2902335.47   24  144 502264.801 3117294.67   521%  2165 8793s
  1152   497 2892183.58   25  200 502264.801 3117294.67   521%  2177 8811s
  1160   503 1094284.14   25   75 502264.801 3117294.67   521%  2185 8839s
  1173   511 2859495.50   27   73 502264.801 3117294.67   521%  2197 8874s
  1187   512 2752828.98   28   82 502264.801 3117294.67   521%  2207 8901s
  1206   523 2772569.13   30   89 502264.801 3117294.67   521%  2195 8925s
  1223   533 2735319.51   32   82 502264.801 3117294.67   521%  2185 8947s
  1242   539 2667008.98   35   97 502264.801 3117294.67   521%  2173 8968s
  1250   543 2633668.40   37   91 502264.801 3117294.67   521%  2173 8991s
  1270   546 2592939.53   38   90 502264.801 3117294.67   521%  2170 9039s
H 1284   538                    502264.80300 3117270.28   521%  2184 9097s
  1292   538 2529204.71   41   94 502264.803 3117270.28   521%  2217 9131s
  1305   542 2368928.81   43   79 502264.803 3117270.28   521%  2238 9154s
  1330   555     cutoff   45      502264.803 3117270.28   521%  2246 9213s
  1359   563 2340014.75   46   63 502264.803 3117270.28   521%  2236 9249s
  1389   571 2334252.15   47   73 502264.803 3117270.28   521%  2232 9285s
  1411   584 2216505.90   48   91 502264.803 3117270.28   521%  2246 9324s
  1433   582 2068919.07   51   87 502264.803 3117270.28   521%  2270 9352s
  1488   601 1645110.85   53   97 502264.803 3117270.28   521%  2244 9414s
  1507   595 1817186.46   56   75 502264.803 3112706.53   520%  2242 9451s
  1569   609 3044566.26   16  163 502264.803 3112706.53   520%  2204 9483s
  1635   628 2897354.89   19  124 502264.803 3112706.53   520%  2149 9521s
  1700   647 2760916.85   23  108 502264.803 3089272.00   515%  2110 9558s
  1739   641 1889241.45   25  104 502264.803 3076289.48   512%  2104 9598s
  1812   666 2755631.21   17  150 502264.803 3073829.42   512%  2067 9636s
  1842   666 2670374.91   21  148 502264.803 3073829.42   512%  2078 9682s
  1924   694 2565212.63   23  145 502264.803 3073829.42   512%  2034 9725s
  1993   726 2405875.72   31  137 502264.803 3073829.42   512%  2006 9763s
  2070   755 2324765.53   41  138 502264.803 3073829.42   512%  1962 9807s
  2128   782 1935586.04   49   86 502264.803 3073829.42   512%  1953 9853s
  2183   806 1945991.65   84  133 502264.803 2850522.99   468%  1945 9893s
H 2215   805                    502264.80314 2850522.99   468%  1930 9893s
  2247   832 2031562.77   22  139 502264.803 2846455.23   467%  1935 9947s
  2312   876 2552433.11   24  114 502264.803 2846455.23   467%  1934 10001s
  2349   898 2272765.41   27   87 502264.803 2846455.23   467%  1951 10073s
  2417   958 2251151.64   33   85 502264.803 2846455.23   467%  1942 10125s
  2451   977     cutoff   35      502264.803 2809513.94   459%  1967 10196s
H 2452   972                    531204.84987 2809513.94   429%  1966 10196s
  2525  1026 2654250.45   24  109 531204.850 2798415.04   427%  1958 10316s
  2596  1071 1784333.94   27   90 531204.850 2792862.56   426%  1940 10378s
  2738  1168 1773307.43   26  129 531204.850 2781760.95   424%  1892 10453s
  2891  1252 2642819.68   24  118 531204.850 2767626.01   421%  1844 10526s
  3018  1361 2564986.38   24  102 531204.850 2763373.30   420%  1819 10589s
  3192  1498 2584557.89   24  119 531204.850 2763205.06   420%  1774 10654s
H 3278  1531                    531204.85025 2763205.06   420%  1759 10654s
  3334  1589 1809769.16   42  119 531204.850 2755631.21   419%  1746 10727s
H 3499  1708                    531204.85091 2755631.21   419%  1711 10811s
  3682  1851 1412879.17   42  117 531204.851 2744598.93   417%  1683 10888s
H 3776  1908                    531204.85102 2743551.04   416%  1670 10888s
  3841  1938 2340617.63   24  133 531204.851 2743400.75   416%  1668 11153s
  3905  1978 2155529.09   25  129 531204.851 2742783.80   416%  1663 11233s
H 3941  1975                    540299.75098 2742783.80   408%  1654 11233s
  4092  2105 2232135.79   23  125 540299.751 2742783.80   408%  1631 11317s
  4266  2212 1286785.81   44   97 540299.751 2742783.80   408%  1611 11552s
H 4271  2212                    540299.75296 2742783.80   408%  1612 11552s
H 4296  2236                    540299.98674 2742783.80   408%  1610 11552s
  4398  2322 1075410.92   63  105 540299.987 2733920.97   406%  1591 11640s
  4567  2455 2336414.53   29  109 540299.987 2728990.79   405%  1573 11943s
  4783  2596 2645165.33   26  115 540299.987 2724487.65   404%  1546 12038s
H 4937  2710                    540300.38935 2721145.04   404%  1538 12038s
  4951  2718 2195104.45   25  134 540300.389 2721145.04   404%  1545 12159s
H 5040  2774                    540300.56856 2721145.04   404%  1551 12159s
  5047  2777 1214481.82   39  123 540300.569 2718884.62   403%  1553 12354s
  5163  2828 1648436.41   26  134 540300.569 2718326.28   403%  1540 12492s
H 5559  3140                    540300.56866 2712274.12   402%  1488 12623s
  5868  3360 2220784.75   28  143 540300.569 2695386.70   399%  1463 12763s
  6089  3515 1978163.76   32   83 540300.569 2691524.85   398%  1457 12906s
  6326  3661 2505423.97   26  123 540300.569 2684878.93   397%  1458 13028s
  6510  3809 2413677.86   35  144 540300.569 2681577.75   396%  1444 13171s
  6824  4000 2559259.07   25  165 540300.569 2680027.23   396%  1429 13321s
  7020  4111 2584272.50   22  130 540300.569 2673760.67   395%  1442 13471s
  7331  4293 1088337.33   30   96 540300.569 2664351.17   393%  1437 13782s
  7589  4463 2461838.81   30  138 540300.569 2656473.96   392%  1435 13976s
  7751  4567 2444141.88   31  137 540300.569 2648796.66   390%  1440 14158s
  8208  4918 2077005.15   31  124 540300.569 2642164.48   389%  1417 14344s
  8506  5121 646413.751   53  134 540300.569 2633557.64   387%  1418 14540s
  8885  5394 1830619.75   31  104 540300.569 2628763.75   387%  1408 14781s
  9035  5501 942210.515   16  110 540300.569 2627671.07   386%  1417 14985s
  9463  5777 2388163.66   20  131 540300.569 2623939.62   386%  1407 15168s
  9824  6028 2320174.34   43  157 540300.569 2620885.72   385%  1401 15372s
 10405  6426 1056055.09   94  200 540300.569 2613747.68   384%  1379 15446s
 10407  6427 2404129.83   31  135 540300.569 2613747.68   384%  1379 15459s
 10408  6428 1691872.74   34  164 540300.569 2613747.68   384%  1379 15471s
 10409  6429 1215761.89   58  155 540300.569 2613747.68   384%  1379 15489s
 10410  6429 1202689.36   62  169 540300.569 2613747.68   384%  1378 15494s
 10411  6430 1830677.50   45  159 540300.569 2613747.68   384%  1378 15499s
 10412  6431 1569882.96   31  246 540300.569 2613747.68   384%  1378 15504s
 10413  6431 2310794.41   30  208 540300.569 2613747.68   384%  1378 15516s
 10414  6432 1527736.55   48  199 540300.569 2613747.68   384%  1378 15523s
 10415  6433 2552819.55   36  180 540300.569 2613747.68   384%  1378 15532s
 10417  6434 1693541.58   37  285 540300.569 2613747.68   384%  1378 15538s
 10418  6435 1009915.91   35  265 540300.569 2613747.68   384%  1377 15549s
 10419  6435 1504484.90   50  257 540300.569 2613747.68   384%  1377 15552s
 10420  6436 1757590.25   24  216 540300.569 2613747.68   384%  1377 15557s
 10421  6437 2082411.79   72  264 540300.569 2613747.68   384%  1377 15563s
 10422  6437 1524178.40   29  278 540300.569 2613747.68   384%  1377 15575s
 10423  6438 869954.794   38  219 540300.569 2613747.68   384%  1377 15580s
 10424  6439 1401527.34   46  216 540300.569 2613747.68   384%  1377 15595s
 10425  6439 1191531.56   41  216 540300.569 2613747.68   384%  1376 15600s
 10426  6440 1351141.99   44  218 540300.569 2613747.68   384%  1376 15615s
 10427  6441 1390763.06   54  222 540300.569 2613747.68   384%  1376 15621s
 10428  6441 779914.942   40  213 540300.569 2613747.68   384%  1376 15644s
 10429  6442 1196480.06   39  213 540300.569 2613747.68   384%  1376 15649s
 10430  6443 2197041.10   39  213 540300.569 2613747.68   384%  1376 15667s
 10431  6446 2613747.68   24  224 540300.569 2613747.68   384%  1382 15758s
 10433  6450 2613747.68   25  183 540300.569 2613747.68   384%  1383 15819s
 10437  6452 2613747.68   26  182 540300.569 2613747.68   384%  1386 15888s
 10441  6455 2613747.68   26  165 540300.569 2613747.68   384%  1390 15982s
 10445  6458 2613747.68   27  177 540300.569 2613747.68   384%  1392 16003s
 10449  6460 2613747.68   27   80 540300.569 2613747.68   384%  1392 16014s
 10453  6462 2613747.68   28  243 540300.569 2613747.68   384%  1393 16057s
 10458  6464 2613747.68   28   83 540300.569 2613747.68   384%  1394 16098s
 10463  6464 2613747.68   29  233 540300.569 2613747.68   384%  1396 16109s
 10470  6466 2613747.68   30  215 540300.569 2613747.68   384%  1396 16134s
 10477  6469 2613747.68   31  214 540300.569 2613747.68   384%  1397 16177s
 10485  6478 2613747.68   32  222 540300.569 2613747.68   384%  1399 16210s
 10491  6480 1973789.00   32   90 540300.569 2613747.68   384%  1402 16249s
 10496  6481 2613747.68   33  211 540300.569 2613747.68   384%  1403 16278s
 10508  6485 2613747.68   35  218 540300.569 2613747.68   384%  1405 16307s
 10516  6495 1260549.56   35  103 540300.569 2613747.68   384%  1407 16328s
 10526  6499 2613747.68   36  160 540300.569 2613747.68   384%  1408 16455s
 10533  6502 2613747.68   37  160 540300.569 2613747.68   384%  1412 16474s
 10541  6501 2613747.68   37   85 540300.569 2613747.68   384%  1415 16497s
 10552  6515 2613747.68   39  162 540300.569 2613747.68   384%  1417 16518s
 10566  6514 2604039.02   40   77 540300.569 2613747.68   384%  1418 16551s
 10583  6521 2613747.68   42   87 540300.569 2613747.68   384%  1421 16571s
 10602  6525 2613747.68   44  101 540300.569 2613747.68   384%  1422 16601s
 10622  6533 2613747.68   45  118 540300.569 2613747.68   384%  1424 16632s
 10651  6542 2343831.92   47  110 540300.569 2613747.68   384%  1423 16662s
 10675  6550 1538240.50   48   76 540300.569 2613747.68   384%  1425 16680s
 10692  6557 2514124.28   49   85 540300.569 2613747.68   384%  1425 16717s
 10712  6568 2501451.35   50  105 540300.569 2613747.68   384%  1426 16879s
 10730  6574 2459815.87   52  103 540300.569 2613747.68   384%  1427 16910s
 10757  6577 2406399.43   54   97 540300.569 2613747.68   384%  1428 16939s
 10805  6585 1498536.67   56   78 540300.569 2613747.68   384%  1426 16977s
 10851  6589     cutoff   62      540300.569 2613747.68   384%  1425 17020s
 10912  6592 2613747.68   28  155 540300.569 2613747.68   384%  1425 17054s
 10926  6600 2613747.68   29   90 540300.569 2613747.68   384%  1428 17087s
 10962  6607 2613747.68   33  158 540300.569 2613747.68   384%  1428 17124s
 11012  6630 1376397.67   60   63 540300.569 2613747.68   384%  1426 17156s
 11035  6632 2547599.51   30  126 540300.569 2613747.68   384%  1427 17185s
 11062  6643 2460952.05   37  118 540300.569 2613747.68   384%  1428 17215s
 11084  6659 1718784.91   41  100 540300.569 2613747.68   384%  1431 17243s
 11154  6675 1568797.60   47  100 540300.569 2613747.68   384%  1426 17282s
 11208  6686 1421778.14   53  125 540300.569 2613747.68   384%  1425 17308s
 11310  6716 1125388.68   81   84 540300.569 2613747.68   384%  1418 17340s
 11406  6743 651352.906  121   89 540300.569 2613747.68   384%  1410 17370s
 11436  6758 2613747.68   32   97 540300.569 2613747.68   384%  1410 17407s
 11463  6773 1857288.68   37   78 540300.569 2613747.68   384%  1412 17441s
 11497  6784 2025003.56   38   88 540300.569 2613747.68   384%  1412 17483s
 11575  6819 1907707.03   47   93 540300.569 2613747.68   384%  1408 17522s
 11653  6833 1665202.59   61   76 540300.569 2613747.68   384%  1405 17575s
 11740  6863 2613747.68   32   95 540300.569 2613747.68   384%  1403 17627s
 11805  6880 656887.318   36  124 540300.569 2613747.68   384%  1403 17829s
 11809  6882     cutoff   36      540300.569 2613747.68   384%  1403 17866s
 11944  6910 1464638.20   54   84 540300.569 2613747.68   384%  1394 17917s
 12063  6965 1892808.43   42   63 540300.569 2613747.68   384%  1387 17961s
 12146  6985 2530044.63   32  112 540300.569 2613747.68   384%  1385 18008s
 12191  6997 2205166.99   41  113 540300.569 2613747.68   384%  1389 18056s
 12235  7010 1689660.14   45   92 540300.569 2613747.68   384%  1392 18104s
 12328  7050 2323582.86   29  123 540300.569 2613747.68   384%  1390 18160s
 12404  7077 1963752.17   46   89 540300.569 2613747.68   384%  1390 18216s
 12487  7109 1781254.01   35   50 540300.569 2613747.68   384%  1392 18273s
 12584  7144 1301888.43   44   70 540300.569 2613747.68   384%  1393 18326s
 12641  7143 997797.972   37   91 540300.569 2613747.68   384%  1398 18382s
 12797  7180 2613747.68   36  124 540300.569 2613747.68   384%  1393 18455s
 12907  7168 2338731.52   49   99 540300.569 2613747.68   384%  1393 18522s
 13179  7270 1468372.92   34  115 540300.569 2613747.68   384%  1375 18587s
 13319  7322 2314414.30   37  121 540300.569 2613747.68   384%  1373 18652s
 13527  7394 2613747.68   37   99 540300.569 2613747.68   384%  1366 18719s
 13625  7425 2034932.08   44   89 540300.569 2613747.68   384%  1369 18801s
 13719  7478 1498699.45   46  102 540300.569 2613747.68   384%  1368 19030s
 13828  7497 1920330.61   58   94 540300.569 2613747.68   384%  1366 19105s
 14218  7649 913594.425   97   90 540300.569 2613747.68   384%  1344 19183s
 14466  7695 2262586.13   45  119 540300.569 2613747.68   384%  1335 19268s
 14627  7766 2025840.39   40  103 540300.569 2613747.68   384%  1335 19354s
 14757  7812 1373755.82   32  115 540300.569 2613747.68   384%  1337 19446s
 14923  7860 1906578.06   49  114 540300.569 2613747.68   384%  1337 19545s
 15107  7942 2358884.81   41   93 540300.569 2613747.68   384%  1339 19646s
 15316  8026 2078023.11   65  125 540300.569 2613747.68   384%  1338 19742s
 15534  8054 1626759.59   90   78 540300.569 2613747.68   384%  1338 19845s
 15784  8132 1639245.95   34   65 540300.569 2613747.68   384%  1335 19952s
 16057  8252 773802.968   51  109 540300.569 2613747.68   384%  1332 20062s
 16277  8322 2245469.30   80  112 540300.569 2613747.68   384%  1330 20184s
 16612  8436 2093774.99   62  110 540300.569 2613747.68   384%  1323 20293s
 16887  8511 2153356.94   51  121 540300.569 2611954.50   383%  1320 20411s
 17184  8625 1484903.03   89   81 540300.569 2601921.78   382%  1316 20542s
 17648  8779 2273007.24   44   89 540300.569 2588918.93   379%  1302 20674s
 18037  8865 920274.930  110   72 540300.569 2577981.61   377%  1293 20810s
 18390  8929 2178511.86   50  117 540300.569 2561617.55   374%  1291 20958s
 18461  8955 859486.683   57   96 540300.569 2558003.21   373%  1292 21097s
 18818  9067 1238428.93   43  107 540300.569 2548033.98   372%  1287 21247s
 19208  9188 2177598.61   54  111 540300.569 2542505.52   371%  1282 21395s
 19609  9276 1842752.93   35  104 540300.569 2539557.77   370%  1277 21557s
 19998  9365 2447644.34   45  133 540300.569 2530148.07   368%  1275 21732s
 20414  9488     cutoff   43      540300.569 2526622.71   368%  1273 21904s
 20808  9604 1045020.14   79  200 540300.569 2517108.34   366%  1276 25597s
 20810  9605 1114258.25   78  140 540300.569 2517108.34   366%  1276 25608s
 20811  9606 1530334.15   63  224 540300.569 2517108.34   366%  1276 25627s
 20812  9607 654125.849   55  121 540300.569 2517108.34   366%  1276 25631s
 20813  9607 787627.399   70  156 540300.569 2517108.34   366%  1276 25635s
 20814  9608 1464493.60   36  171 540300.569 2517108.34   366%  1276 25641s
 20816  9609 1813236.76   58  205 540300.569 2517108.34   366%  1276 25648s
 20817  9610 1487030.45   38  266 540300.569 2517108.34   366%  1276 25655s
 20818  9611 1498699.45   47  198 540300.569 2517108.34   366%  1275 25661s
 20819  9611 695162.324  136  205 540300.569 2517108.34   366%  1275 25668s
 20820  9612 750005.282   36  212 540300.569 2517108.34   366%  1275 25715s
 20821  9613 2098223.06   44  220 540300.569 2517108.34   366%  1275 25740s
 20822  9613 1175176.82   65  191 540300.569 2517108.34   366%  1275 25794s
 20823  9614 1713186.07   48  196 540300.569 2517108.34   366%  1275 25796s
 20824  9615 2193119.73   41  218 540300.569 2517108.34   366%  1275 25819s
 20825  9615 1890509.22   59  256 540300.569 2517108.34   366%  1275 25868s
 20826  9616 787049.535   94  252 540300.569 2517108.34   366%  1275 25892s
 20827  9617 1557745.32   39  241 540300.569 2517108.34   366%  1275 25950s
 20828  9617 1498396.33   87  199 540300.569 2517108.34   366%  1275 25955s
 20829  9618 713489.653   74  203 540300.569 2517108.34   366%  1275 25978s
 20830  9619 829015.602   60  212 540300.569 2517108.34   366%  1275 26023s
 20831  9619 1172346.27   68  236 540300.569 2517108.34   366%  1275 26045s
 20832  9620 2180012.20   51  199 540300.569 2517108.34   366%  1275 26089s
 20833  9621 1938778.63   33  230 540300.569 2517108.34   366%  1275 26112s
 20834  9621 1456488.13   36  250 540300.569 2517108.34   366%  1274 26154s
 20835  9622 2150254.05   45  253 540300.569 2517108.34   366%  1274 26174s
 20836  9623 2484782.58   44  251 540300.569 2517108.34   366%  1274 26218s
 20837  9623 733886.021   69  263 540300.569 2517108.34   366%  1274 26236s
 20838  9624 835092.469   49  257 540300.569 2517108.34   366%  1274 26276s
 20839  9625 1794100.81   41  260 540300.569 2517108.34   366%  1274 26294s
 20840  9625 1031766.29   87  250 540300.569 2517108.34   366%  1274 26337s
 20841  9626 2171498.46   47  231 540300.569 2517108.34   366%  1274 26355s
 20842  9627 1457992.04   55  265 540300.569 2405669.76   345%  1274 26410s
 20843  9627 2123513.21   45  307 540300.569 2361860.81   337%  1274 26417s
 20844  9628 1304637.72   39  252 540300.569 2353492.38   336%  1274 26424s
 20845  9629 1401748.11   74  247 540300.569 2347998.12   335%  1274 26442s
 20846  9629 1230434.70   90  255 540300.569 2338800.43   333%  1274 26475s
 20847  9630 2112584.27   31  262 540300.569 2334078.25   332%  1274 26494s
 20848  9631 600297.447   40  257 540300.569 2329519.22   331%  1274 26511s
 20850  9633 1480559.29   92  200 540300.569 2329519.22   331%  1278 26515s
 20852  9634 1753851.47   55  140 540300.569 2329519.22   331%  1278 26523s
 20853  9635 1928520.52   41  218 540300.569 2329519.22   331%  1278 26536s
 20855  9636 1013341.94   90  224 540300.569 2329519.22   331%  1278 26545s
 20856  9637 884255.060   58  199 540300.569 2329519.22   331%  1277 26555s
 20858  9638 1814186.92   41  220 540300.569 2329519.22   331%  1277 26564s
 20859  9639 1994014.24   45  234 540300.569 2329519.22   331%  1277 26570s
 20860  9640 2329519.22   65  225 540300.569 2329519.22   331%  1277 26575s
 20861  9640 1216960.67   47  214 540300.569 2329519.22   331%  1277 26611s
 20862  9641 2212091.62   32  214 540300.569 2315634.21   329%  1277 26615s
 20863  9642 1064884.98   54  219 540300.569 2312996.87   328%  1277 26628s
 20864  9642 2299578.24   45  229 540300.569 2299578.24   326%  1277 26657s
 20865  9643 1168302.00   56  238 540300.569 2295518.15   325%  1277 26671s
 20866  9644 988284.170   44  250 540300.569 2293735.91   325%  1277 26699s
 20867  9644 1582372.43   55  247 540300.569 2289794.03   324%  1277 26713s
 20868  9645 1616172.01   35  282 540300.569 2266963.77   320%  1277 26749s
 20869  9646 1983088.29   42  299 540300.569 2264604.55   319%  1277 26762s
 20870  9646 2258897.55   39  298 540300.569 2258897.55   318%  1277 26794s
 20871  9647 1143615.60   71  287 540300.569 2253904.57   317%  1277 26812s
 20872  9648 2030998.89   50  316 540300.569 2249101.63   316%  1276 26842s
 20873  9648 1114258.25   78  301 540300.569 2241215.46   315%  1276 26845s
 20874  9649 2240192.36   35  316 540300.569 2240192.36   315%  1276 26860s
 20875  9650 1779328.21   49  308 540300.569 2235723.74   314%  1276 26890s
 20876  9650 1188037.04   52  313 540300.569 2234103.53   313%  1276 26903s
 20877  9651 1807303.81   56  320 540300.569 2231667.53   313%  1276 26933s
 20878  9652 1270175.64   69  323 540300.569 2229718.28   313%  1276 26947s
 20879  9652 1714020.76   54  337 540300.569 2225559.65   312%  1276 26979s
 20880  9653 2106256.24   34  337 540300.569 2224491.51   312%  1276 26992s
 20881  9654 875961.368   80  326 540300.569 2218290.22   311%  1276 27020s
 20882  9654 1456021.52   30  343 540300.569 2217259.88   310%  1276 27034s
 20883  9655 1831774.42   68  344 540300.569 2212861.84   310%  1276 27063s
 20884  9656 1715741.83   55  335 540300.569 2210877.24   309%  1276 27077s
 20885  9656 1992460.47   44  345 540300.569 2210022.13   309%  1276 27108s
 20886  9657 1897549.25   60  355 540300.569 2209519.57   309%  1276 27122s
 20887  9658 1870136.45   45  343 540300.569 2207187.70   309%  1276 27153s
 20888  9658 1652445.65   47  346 540300.569 2205898.89   308%  1276 27167s
 20889  9659 1270820.18   58  366 540300.569 2201324.63   307%  1275 27194s
 20890  9660 1891594.20   35  367 540300.569 2200632.07   307%  1275 27205s
 20891  9660 705805.966   81  350 540300.569 2197566.88   307%  1275 27232s
 20892  9661 2196987.70   33  356 540300.569 2196987.70   307%  1275 27242s
 20893  9662 823789.424   39  338 540300.569 2192316.26   306%  1275 27271s
 20894  9662 1462913.65   58  353 540300.569 2190532.31   305%  1275 27283s
 20895  9663 1905703.47   47  342 540300.569 2188410.05   305%  1275 27312s
 20896  9664 2188010.92   57  341 540300.569 2188010.92   305%  1275 27322s
 20897  9664 889361.859   68  351 540300.569 2187354.48   305%  1275 27348s
 20898  9665 916396.175   35  353 540300.569 2182104.00   304%  1275 27365s
 20899  9666 2174062.61   41  360 540300.569 2174062.61   302%  1275 27397s
 20900  9666 1338429.61   51  367 540300.569 2172726.08   302%  1275 27413s
 20901  9667 1210408.65   81  346 540300.569 2168471.36   301%  1275 27445s
 20902  9668 2148079.74   31  329 540300.569 2148079.74   298%  1275 27451s
 20903  9668 1135674.69   80  353 540300.569 2145960.33   297%  1275 27464s
 20904  9669 1044905.67   86  362 540300.569 2143807.65   297%  1275 27491s
 20905  9670 2135043.02   53  371 540300.569 2142422.75   297%  1274 27504s
 20906  9670 1881030.81   36  345 540300.569 2136186.18   295%  1274 27536s
 20907  9671 1810421.60   44  341 540300.569 2135443.61   295%  1274 27550s
 20908  9672 1045020.14   79  357 540300.569 2134003.26   295%  1274 27578s
 20909  9672 1668261.52   40  356 540300.569 2131525.47   295%  1274 27591s
 20910  9673 1114258.25   78  364 540300.569 2129977.78   294%  1274 27615s
 20911  9674 1530334.15   63  371 540300.569 2128426.98   294%  1274 27628s
 20912  9674 654125.849   55  382 540300.569 2127637.29   294%  1274 27653s
 20913  9675 787627.399   70  385 540300.569 2126130.81   294%  1274 27667s
 20914  9676 1464493.60   36  361 540300.569 2124577.13   293%  1274 27697s
 20915  9676 1173440.41   53  375 540300.569 2124291.44   293%  1274 27709s
 20916  9677 1813236.76   58  375 540300.569 2123424.36   293%  1274 27737s
 20917  9678 1487030.45   38  361 540300.569 2122685.99   293%  1274 27750s
 20918  9678 1498699.45   47  349 540300.569 2119272.71   292%  1274 27789s
 20919  9679 695162.324  136  357 540300.569 2113315.75   291%  1274 27803s
 20920  9680 750005.282   36  353 540300.569 2108422.35   290%  1274 27831s
 20921  9680 2098223.06   44  364 540300.569 2108045.91   290%  1273 27842s
 20922  9681 1175176.82   65  367 540300.569 2104349.11   289%  1273 27877s
 20923  9682 1713186.07   48  354 540300.569 2103559.44   289%  1273 27888s
 20924  9682 2102378.18   41  350 540300.569 2102378.18   289%  1273 27919s
 20925  9683 1890509.22   59  348 540300.569 2101424.83   289%  1273 27930s
 20926  9684 787049.535   94  344 540300.569 2100421.13   289%  1273 27964s
 20927  9684 1557745.32   39  335 540300.569 2099118.95   289%  1273 27977s
 20928  9685 1498396.33   87  346 540300.569 2096657.45   288%  1273 27998s
 20929  9686 713489.653   74  334 540300.569 2094533.33   288%  1273 28013s
 20930  9686 829015.602   60  347 540300.569 2094014.95   288%  1273 28034s
 20931  9687 1172346.27   68  331 540300.569 2093673.95   288%  1273 28046s
 20932  9688 2093523.67   51  341 540300.569 2093523.67   287%  1273 28064s
 20933  9688 1938778.63   33  354 540300.569 2093496.15   287%  1273 28077s
 20934  9689 1456488.13   36  360 540300.569 2093122.54   287%  1273 28097s
 20935  9690 2092789.49   45  341 540300.569 2092789.49   287%  1273 28109s
 20936  9690 2092269.57   44  373 540300.569 2092269.57   287%  1273 28126s
 20937  9691 733886.021   69  375 540300.569 2092264.03   287%  1273 28137s
 20938  9692 835092.469   49  375 540300.569 2091720.71   287%  1272 28152s
 20939  9692 1794100.81   41  389 540300.569 2091593.48   287%  1272 28162s
 20940  9693 1031766.29   87  379 540300.569 2090398.28   287%  1272 28177s
 20941  9694 2090287.36   47  379 540300.569 2090287.36   287%  1272 28187s
 20942  9694 1457992.04   55  384 540300.569 2089190.68   287%  1272 28207s
 20943  9695 2089103.12   45  381 540300.569 2089103.12   287%  1272 28218s
 20944  9696 1304637.72   39  397 540300.569 2089033.23   287%  1272 28233s
 20945  9696 1401748.11   74  370 540300.569 2086841.14   286%  1272 28246s
 20946  9697 1230434.70   90  378 540300.569 2086609.00   286%  1272 28258s
 20947  9698 2086561.06   31  382 540300.569 2086561.06   286%  1272 28268s
 20948  9698 600297.447   40  378 540300.569 2085879.54   286%  1272 28281s
 20949  9699 2085823.77   29  382 540300.569 2085823.77   286%  1272 28290s
 20950  9700 1480559.29   92  354 540300.569 2085542.81   286%  1272 28302s
 20951  9700 1713995.45   53  371 540300.569 2085416.00   286%  1272 28312s
 20952  9701 1753851.47   55  381 540300.569 2080623.19   285%  1272 28328s
 20953  9702 1928520.52   41  378 540300.569 2079993.49   285%  1272 28339s
 20954  9702 1598221.71   55  377 540300.569 2079797.95   285%  1271 28371s
 20955  9703 1013341.94   90  381 540300.569 2079764.47   285%  1271 28383s
 20956  9704 884255.060   58  379 540300.569 2079171.69   285%  1271 28396s
 20957  9704 1833441.46   30  392 540300.569 2079003.78   285%  1271 28407s
 20958  9705 1814186.92   41  386 540300.569 2078970.84   285%  1271 28423s
 20959  9706 1994014.24   45  386 540300.569 2078944.21   285%  1271 28436s
 20960  9706 2077137.06   65  378 540300.569 2077137.06   284%  1271 28451s
 20961  9707 1216960.67   47  386 540300.569 2077059.11   284%  1271 28463s
 20962  9708 2075635.26   32  374 540300.569 2075635.26   284%  1271 28478s
 20963  9708 1064884.98   54  384 540300.569 2075448.61   284%  1271 28490s
 20964  9709 2073905.66   45  373 540300.569 2073905.66   284%  1271 28502s
 20965  9710 1168302.00   56  373 540300.569 2073671.18   284%  1271 28514s
 20966  9710 988284.170   44  385 540300.569 2073442.60   284%  1271 28525s
 20967  9711 1582372.43   55  374 540300.569 2073255.53   284%  1271 28538s
 20968  9712 1616172.01   35  372 540300.569 2073245.86   284%  1271 28588s
 20969  9712 1983088.29   42  372 540300.569 2073245.86   284%  1271 28597s
 20970  9713 2073245.86   39  372 540300.569 2073245.86   284%  1271 28667s
 20971  9715 1143615.60   71  200 540300.569 2073245.86   284%  1279 28670s
 20973  9716 1114258.25   78  139 540300.569 2073245.86   284%  1279 28677s
 20974  9717 2073245.86   35  155 540300.569 2073245.86   284%  1279 28682s
 20975  9718 1779328.21   49  201 540300.569 2073245.86   284%  1279 28695s
 20976  9718 1188037.04   52  234 540300.569 2073245.86   284%  1279 28706s
 20977  9719 1807303.81   56  259 540300.569 2073245.86   284%  1279 28718s
 20978  9720 1270175.64   69  225 540300.569 2073245.86   284%  1279 28737s
 20979  9720 1714020.76   54  212 540300.569 2073245.86   284%  1278 28747s
 20980  9721 2073245.86   34  242 540300.569 2073245.86   284%  1278 28764s
 20981  9722 875961.368   80  244 540300.569 2073245.86   284%  1278 28770s
 20982  9722 1456021.52   30  239 540300.569 2073245.86   284%  1278 28799s
 20983  9723 1831774.42   68  270 540300.569 2073245.86   284%  1278 28813s
 20984  9724 1715741.83   55  303 540300.569 2073245.86   284%  1278 28827s
 20985  9724 1992460.47   44  269 540300.569 2073245.86   284%  1278 28841s
 20986  9725 1897549.25   60  337 540300.569 2073245.86   284%  1278 28859s
 20987  9726 1870136.45   45  315 540300.569 2073245.86   284%  1278 28874s
 20988  9726 1652445.65   47  311 540300.569 2073245.86   284%  1278 28899s
 20989  9727 1270820.18   58  276 540300.569 2073245.86   284%  1278 28917s
 20990  9728 1891594.20   35  333 540300.569 2073245.86   284%  1278 28956s
 20991  9728 705805.966   81  341 540300.569 2073245.86   284%  1278 28972s
 20992  9729 2073245.86   33  348 540300.569 2073245.86   284%  1278 29000s
 20993  9730 823789.424   39  359 540300.569 2073245.86   284%  1278 29014s
 20994  9730 1462913.65   58  340 540300.569 2073245.86   284%  1278 29047s
 20995  9731 1905703.47   47  300 540300.569 2073245.86   284%  1277 29063s
 20996  9732 2073245.86   57  340 540300.569 2073245.86   284%  1277 29096s
 20997  9732 889361.859   68  337 540300.569 2073245.86   284%  1277 29111s
 20998  9733 916396.175   35  301 540300.569 2073245.86   284%  1277 29140s
 20999  9734 2073245.86   41  311 540300.569 2073245.86   284%  1277 29154s
 21000  9734 1338429.61   51  313 540300.569 2073245.86   284%  1277 29188s
 21001  9735 1210408.65   81  301 540300.569 2073245.86   284%  1277 29204s
 21002  9736 2073245.86   31  296 540300.569 2073245.86   284%  1277 29230s
 21003  9736 1135674.69   80  293 540300.569 2073245.86   284%  1277 29242s
 21004  9737 1044905.67   86  299 540300.569 2073245.86   284%  1277 29273s
 21005  9738 2073245.86   53  318 540300.569 2073245.86   284%  1277 29286s
 21006  9738 1881030.81   36  365 540300.569 2073245.86   284%  1277 29317s
 21007  9739 1810421.60   44  369 540300.569 2073245.86   284%  1277 29331s
 21008  9740 1045020.14   79  323 540300.569 2073245.86   284%  1277 29356s
 21009  9740 1668261.52   40  333 540300.569 2073245.86   284%  1277 29369s
H21009  9252                    540300.56929 2073245.86   284%  1277 29380s
 21010  9253 1114258.25   78  323 540300.569 2073245.86   284%  1277 29392s
 21011  9254 1530334.15   63  313 540300.569 2073245.86   284%  1277 29403s
 21012  9254 654125.849   55  322 540300.569 2071022.55   283%  1276 29428s
 21013  9255 787627.399   70  329 540300.569 2069058.13   283%  1276 29442s
 21014  9256 1464493.60   36  318 540300.569 2067528.47   283%  1276 29466s
 21015  9256 1173440.41   53  330 540300.569 2063566.23   282%  1276 29479s
 21016  9257 1813236.76   58  325 540300.569 2063137.11   282%  1276 29490s
 21017  9258 1487030.45   38  333 540300.569 2062795.71   282%  1276 29500s
 21018  9258 1498699.45   47  319 540300.569 2062108.91   282%  1276 29524s
 21019  9259 695162.324  136  321 540300.569 2060486.89   281%  1276 29534s
 21020  9260 750005.282   36  324 540300.569 2058291.48   281%  1276 29557s
 21021  9260 2052276.41   44  346 540300.569 2052276.41   280%  1276 29572s
 21022  9261 1175176.82   65  356 540300.569 2049435.49   279%  1276 29597s
 21023  9262 1713186.07   48  346 540300.569 2047537.41   279%  1276 29609s
 21024  9262 2045204.65   41  341 540300.569 2045204.65   279%  1276 29633s
 21025  9263 1890509.22   59  350 540300.569 2043625.66   278%  1276 29644s
 21026  9264 787049.535   94  350 540300.569 2043039.95   278%  1276 29664s
 21027  9264 1557745.32   39  354 540300.569 2040421.58   278%  1276 29675s
 21028  9265 1498396.33   87  356 540300.569 2039716.00   278%  1275 29688s
 21029  9266 713489.653   74  352 540300.569 2038315.14   277%  1275 29698s
 21030  9266 829015.602   60  359 540300.569 2037868.25   277%  1275 29721s
 21031  9267 1172346.27   68  362 540300.569 2037415.82   277%  1275 29731s
 21032  9268 2037160.60   51  356 540300.569 2037160.60   277%  1275 29753s
 21033  9268 1938778.63   33  367 540300.569 2036528.30   277%  1275 29765s
 21034  9269 1456488.13   36  365 540300.569 2035810.26   277%  1275 29779s
 21035  9270 2035417.27   45  364 540300.569 2035417.27   277%  1275 29788s
 21036  9270 2033955.73   44  349 540300.569 2033955.73   276%  1275 29802s
 21037  9271 733886.021   69  346 540300.569 2033644.63   276%  1275 29812s
 21038  9272 835092.469   49  346 540300.569 2033631.99   276%  1275 29824s
 21039  9272 1794100.81   41  348 540300.569 2033456.93   276%  1275 29833s
 21040  9273 1031766.29   87  349 540300.569 2033337.77   276%  1275 29845s
 21041  9274 2032945.92   47  347 540300.569 2032945.92   276%  1275 29855s
 21042  9274 1457992.04   55  356 540300.569 2028890.98   276%  1275 29871s
 21043  9275 2027285.47   45  355 540300.569 2027285.47   275%  1275 29884s
 21044  9276 1304637.72   39  339 540300.569 2026527.43   275%  1274 29899s
 21045  9276 1401748.11   74  349 540300.569 2026353.54   275%  1274 29910s
 21046  9277 1230434.70   90  360 540300.569 2024907.01   275%  1274 29926s
 21047  9278 2024522.83   31  344 540300.569 2024522.83   275%  1274 29937s
 21048  9278 600297.447   40  346 540300.569 2024443.15   275%  1274 29950s
 21049  9279 2024360.30   29  345 540300.569 2024360.30   275%  1274 29960s
 21050  9280 1480559.29   92  358 540300.569 2023836.99   275%  1274 29976s
 21051  9280 1713995.45   53  360 540300.569 2023699.04   275%  1274 29985s
 21052  9281 1753851.47   55  362 540300.569 2023628.08   275%  1274 29998s
 21053  9282 1928520.52   41  361 540300.569 2023390.51   274%  1274 30008s
 21054  9282 1598221.71   55  373 540300.569 2023280.97   274%  1274 30022s
 21055  9283 1013341.94   90  368 540300.569 2023258.05   274%  1274 30034s
 21056  9284 884255.060   58  370 540300.569 2022907.97   274%  1274 30050s
 21057  9284 1833441.46   30  372 540300.569 2022582.73   274%  1274 30061s
 21058  9285 1814186.92   41  358 540300.569 2016781.96   273%  1274 30080s
 21059  9286 1994014.24   45  352 540300.569 2016408.83   273%  1274 30092s
 21060  9286 2004068.76   65  346 540300.569 2004068.76   271%  1274 30113s
 21061  9287 1216960.67   47  344 540300.569 2003092.42   271%  1273 30125s
 21062  9288 2002190.74   32  366 540300.569 2002190.74   271%  1273 30140s
 21063  9288 1064884.98   54  366 540300.569 2001429.24   270%  1273 30152s
 21064  9289 2001074.65   45  360 540300.569 2001074.65   270%  1273 30175s
 21065  9290 1168302.00   56  357 540300.569 2000235.96   270%  1273 30188s
 21066  9290 988284.170   44  355 540300.569 1998733.92   270%  1273 30205s
 21067  9291 1582372.43   55  365 540300.569 1998659.12   270%  1273 30216s
 21068  9292 1616172.01   35  359 540300.569 1998009.20   270%  1273 30234s
 21069  9292 1983088.29   42  362 540300.569 1997615.04   270%  1273 30247s
 21070  9293 1997342.36   39  369 540300.569 1997342.36   270%  1273 30267s
 21071  9294 1143615.60   71  368 540300.569 1997257.91   270%  1273 30278s
 21072  9294 1997139.48   50  374 540300.569 1997139.48   270%  1273 30298s
 21073  9295 1114258.25   78  370 540300.569 1996966.10   270%  1273 30309s
 21074  9296 1996897.17   35  369 540300.569 1996897.17   270%  1273 30322s
 21075  9296 1779328.21   49  370 540300.569 1996777.23   270%  1273 30332s
 21076  9297 1188037.04   52  370 540300.569 1996568.56   270%  1273 30344s
 21077  9298 1807303.81   56  372 540300.569 1996517.40   270%  1273 30356s
 21078  9298 1270175.64   69  373 540300.569 1996510.23   270%  1272 30398s
 21079  9299 1714020.76   54  373 540300.569 1996510.23   270%  1272 30406s
 21080  9300 1996510.23   34  373 540300.569 1996510.23   270%  1272 30469s
 21081  9303 1994371.32   60  358 540300.569 1994371.32   269%  1281 30581s
 21083  9305 1989509.67   61  364 540300.569 1989509.67   268%  1281 30644s
 21087  9307 1981165.20   62  373 540300.569 1988248.13   268%  1282 30714s
 21091  9310 1977395.20   63  370 540300.569 1977395.20   266%  1283 30782s
 21095  9313 1245693.65   63  293 540300.569 1977395.16   266%  1284 30837s
 21099  9315 1926019.63   64  325 540300.569 1977393.47   266%  1285 30877s
 21103  9318 1898056.41   64  337 540300.569 1929244.15   257%  1286 30933s
 21107  9318 1918325.86   65  322 540300.569 1928978.97   257%  1288 30971s
 21112  9323 1724500.89   65  151 540300.569 1928978.97   257%  1290 31009s
 21117  9322 1886057.68   66  309 540300.569 1918322.99   255%  1291 31052s
 21122  9327 1798721.41   66  218 540300.569 1907880.03   253%  1292 31084s
 21128  9332 1882082.68   67  302 540300.569 1898051.12   251%  1293 31131s
 21137  9335 1878788.93   68  308 540300.569 1898051.12   251%  1294 31160s
 21144  9339 1868308.16   69  333 540300.569 1898051.12   251%  1295 31231s
 21153  9345 1832107.77   70  345 540300.569 1898051.12   251%  1296 31261s
 21163  9346 1809170.21   70  307 540300.569 1898051.12   251%  1298 31302s
 21174  9347 1828601.73   71  338 540300.569 1898051.12   251%  1299 31364s
 21185  9350 1473712.40   71  316 540300.569 1898051.12   251%  1301 31412s
 21194  9354 1823242.39   72  284 540300.569 1898051.12   251%  1302 31464s
 21206  9364 1816908.04   73  280 540300.569 1898051.12   251%  1303 31545s
 21216  9367 1813186.75   74  287 540300.569 1898051.12   251%  1307 31593s
 21230  9372 1808645.47   75  351 540300.569 1898051.12   251%  1309 31636s
 21248  9385 1746961.31   76  326 540300.569 1898051.12   251%  1311 31693s
 21266  9391 1740456.54   77  310 540300.569 1898051.12   251%  1313 31739s
 21287  9397 1701599.46   78  334 540300.569 1898051.12   251%  1315 31827s
 21316  9404 1639084.99   80  304 540300.569 1898051.12   251%  1316 31873s
 21344  9415 1635322.46   81  269 540300.569 1898051.12   251%  1318 31926s
 21368  9417 1614765.07   82  279 540300.569 1898037.54   251%  1320 31959s
 21385  9416 1607891.09   83  272 540300.569 1898037.54   251%  1322 32000s
 21413  9430 1602265.67   85  282 540300.569 1898037.54   251%  1323 32039s
 21433  9426 1589257.06   87  248 540300.569 1898037.54   251%  1326 32085s
 21465  9434 1577284.97   90  279 540300.569 1898037.54   251%  1328 32121s
 21495  9450 1350077.56   92  221 540300.569 1898037.54   251%  1331 32186s
H21496  8983                    540300.56935 1898037.54   251%  1331 32186s
 21503  8990 1151971.78   92  128 540300.569 1898037.54   251%  1334 32222s
 21515  8993 1335320.60   94  219 540300.569 1898037.54   251%  1337 32257s
 21535  9000 1333634.69   96  185 540300.569 1898037.54   251%  1340 32308s
 21560  9022 1294595.94   99  230 540300.569 1898037.54   251%  1344 32366s
 21584  9024 1237069.02  102  205 540300.569 1898037.54   251%  1348 32428s
 21622  9039 1071250.63  105  225 540300.569 1898037.54   251%  1352 32483s
 21647  9055     cutoff  109      540300.569 1898037.54   251%  1357 32544s
 21694  9068 770211.334  115  170 540300.569 1869476.86   246%  1359 32641s
 21766  9081 1688341.10   66  213 540300.569 1821084.44   237%  1361 32700s
 21807  9090 1053744.67   75   84 540300.569 1809163.37   235%  1365 32768s
 21878  9111 1666068.29   74  272 540300.569 1809163.37   235%  1367 32835s
 21947  9134 1471933.23   97  144 540300.569 1807056.34   234%  1370 32914s
 22028  9159 1626289.14   73  136 540300.569 1798721.41   233%  1373 32968s
 22086  9187 1754427.64   74  329 540300.569 1798721.41   233%  1375 33024s
 22149  9185 1555751.65   78  293 540300.569 1798721.41   233%  1380 33082s
 22215  9214 1133663.84   89  251 540300.569 1798720.15   233%  1385 33147s
 22289  9237 1707595.81   68  221 540300.569 1780910.10   230%  1388 33335s
 22293  9249 1562934.98   69  200 540300.569 1780910.10   230%  1389 33401s
 22329  9240 1382107.88   73  200 540300.569 1779286.87   229%  1396 33498s
 22439  9290     cutoff   69      540300.569 1766923.22   227%  1400 33619s
 22521  9296 1569619.88   74  261 540300.569 1766923.22   227%  1407 33705s
 22595  9309 885919.950   77   78 540300.569 1760231.16   226%  1414 33794s
 22721  9343 1378263.60   72  114 540300.569 1754638.46   225%  1418 33882s
 22814  9368 1448294.90   67  141 540300.569 1743618.88   223%  1425 34000s
 22904  9401 1584074.09   76  249 540300.569 1743618.88   223%  1431 34118s
 23014  9435 1140723.68   96  164 540300.569 1735299.68   221%  1437 34220s
 23120  9465 1548666.92   73  217 540300.569 1727460.69   220%  1443 34310s
 23245  9503 1200820.03   67  179 540300.569 1726504.13   220%  1450 34409s
 23325  9488 938878.892   70  139 540300.569 1716784.79   218%  1458 34551s
 23522  9563 958119.454   74  226 540300.569 1713772.79   217%  1461 34678s
 23659  9613 1336542.49   78  104 540300.569 1707160.21   216%  1468 34799s
 23850  9669 1001093.62   72  101 540300.569 1695745.75   214%  1473 34913s
 24051  9717 1343902.38   76  129 540300.569 1684338.73   212%  1479 35062s
 24219  9743 1122479.80   74  107 540300.569 1679859.33   211%  1486 35239s
 24388  9789 1440923.04   77  267 540300.569 1678603.29   211%  1495 35427s
 24538  9814 727938.017  107  191 540300.569 1670958.71   209%  1502 35563s
 24701  9871 1452590.42   75  104 540300.569 1660902.01   207%  1510 35718s
 24985  9954 1404824.89   71  114 540300.569 1657411.10   207%  1512 35851s
 25194 10009 1174422.73   79  115 540300.569 1642644.81   204%  1520 36051s
 25447 10047 1374015.11   72  346 540300.569 1638868.78   203%  1527 36213s
 25677 10072 1437182.69   76  132 540300.569 1628168.83   201%  1534 36386s
 25891 10126 1569585.07   73  234 540300.569 1627133.54   201%  1543 36595s
 26048 10121 1217719.17   98  114 540300.569 1617735.02   199%  1553 36789s
 26321 10139 1005510.29   98  177 540300.569 1614244.02   199%  1561 37065s
 26604 10172 1208066.52   65  159 540300.569 1603912.48   197%  1570 37294s
 26892 10221 1091574.89   89  177 540300.569 1596790.12   196%  1579 37549s
 27233 10323 1425414.53   71  229 540300.569 1590107.32   194%  1583 37801s
 27521 10402 735356.779  105  253 540300.569 1587479.68   194%  1589 38094s
 27805 10462     cutoff   83      540300.569 1583995.13   193%  1600 38392s
 28202 10510 1027548.06  100  130 540300.569 1568950.54   190%  1606 38697s
 28580 10611 978557.747   73  191 540300.569 1563943.85   189%  1613 38982s
 28701 10615 950970.826   74  206 540300.569 1558385.03   188%  1619 39297s
 29055 10674 1371711.62   72  118 540300.569 1548615.91   187%  1629 39672s
 29498 10759 1128102.21   76  158 540300.569 1544711.11   186%  1636 40044s
 29839 10805 672991.394   76  101 540300.569 1539493.03   185%  1648 40430s
 30413 10912 1421801.01   76  103 540300.569 1535657.88   184%  1650 40762s
 30911 10993 1075727.55   90  196 540300.569 1526670.46   183%  1657 41152s
 31393 11092 927870.644   74  151 540300.569 1523250.00   182%  1664 41533s
 31848 11199 688993.168  100  157 540300.569 1517760.37   181%  1673 41905s
 32402 11304 1244698.49   78  270 540300.569 1508034.32   179%  1678 42370s
 32876 11349 1116726.19   89  266 540300.569 1499931.68   178%  1685 42787s
 33436 11433 1447950.81   74   75 540300.569 1489826.71   176%  1690 43155s
 34002 11546 1157160.64   85  186 540300.569 1483160.96   175%  1692 43539s
 34515 11633 1212311.39   87  171 540300.569 1476931.67   173%  1698 43856s
 34883 11662     cutoff   76      540300.569 1471002.05   172%  1696 44246s
 35367 11702 1333814.61   80   93 540300.569 1466500.66   171%  1700 44602s
 35908 11760 1217575.59   84  218 540300.569 1461360.88   170%  1705 44979s
 36419 11840 638641.719   94  243 540300.569 1451415.53   169%  1708 45344s
 37007 11941 1407227.97   72  237 540300.569 1445214.57   167%  1709 45708s
 37530 12050 974287.709   74  163 540300.569 1441001.98   167%  1711 46047s
 38074 12154     cutoff   77      540300.569 1436103.22   166%  1711 46399s
 38566 12201 1116672.57   83  267 540300.569 1429599.34   165%  1715 46666s
 38994 12264 1000900.76   94  240 540300.569 1425803.78   164%  1718 46975s
 39555 12365 1122150.86   88  218 540300.569 1422290.65   163%  1718 47283s
 40135 12427 645005.932   81  157 540300.569 1413513.28   162%  1718 47600s
 40648 12488 1249687.27   90  239 540300.569 1409164.94   161%  1718 47912s
 41068 12554 1170020.10   80  224 540300.569 1406659.63   160%  1722 48214s
 41661 12613 966874.978   91  213 540300.569 1398297.54   159%  1721 48568s
 42160 12710 1172990.49   87  236 540300.569 1395468.79   158%  1721 48886s
 42693 12805 1260794.88   92  314 540300.569 1394480.36   158%  1719 49187s
 43124 12855 1097344.99   82  137 540300.569 1389946.42   157%  1722 49474s
 43640 12943 1238565.82   92  257 540300.569 1385547.65   156%  1721 49813s
 44105 13030 879567.571   77  220 540300.569 1382769.04   156%  1723 50113s
 44478 13066 1324051.42   72  247 540300.569 1378046.69   155%  1727 50435s
 44893 13157 836291.122   73  166 540300.569 1376913.32   155%  1729 50733s
 45459 13244     cutoff   74      540300.569 1374722.47   154%  1725 51042s
 45953 13314 976407.615   90  197 540300.569 1371363.54   154%  1725 51329s
 46425 13400 992450.392   92  174 540300.569 1368098.93   153%  1724 51656s
 46875 13465 1190418.97   75  124 540300.569 1364585.23   153%  1726 51946s
 47368 13506 1052799.03   90  177 540300.569 1360071.82   152%  1726 52286s
 47783 13667 1193878.57   84  221 540300.569 1359412.08   152%  1727 52728s
 47839 13669 1187918.45   85  213 540300.569 1359165.12   152%  1728 53037s
 48309 13916 836031.189  137  219 540300.569 1356240.25   151%  1727 53313s
 48828 14168 1119926.04  107  202 540300.569 1351775.78   150%  1726 53674s
 49288 14351 1125837.56   82  192 540300.569 1349259.22   150%  1726 53979s
 49699 14511     cutoff   75      540300.569 1345833.87   149%  1729 54295s
 50172 14708 651868.107   69  150 540300.569 1342216.41   148%  1729 54607s
 50604 14912 1090160.65   83  188 540300.569 1339182.93   148%  1730 54916s
 50960 15073 568008.645   73  116 540300.569 1338459.84   148%  1733 55193s
 51482 15326 1228786.95   82  124 540300.569 1334422.66   147%  1732 55507s
 51917 15497 750755.278   87  162 540300.569 1332742.11   147%  1733 55859s
 52417 15757 690504.813   81  272 540300.569 1330555.20   146%  1732 56115s
 52839 15926 1062063.21  108  282 540300.569 1328547.15   146%  1733 56406s
 53291 16154 1089752.87   99  217 540300.569 1326566.08   146%  1732 56704s
 53707 16382 1249172.33   97  236 540300.569 1323822.73   145%  1733 56983s
 54179 16579     cutoff   79      540300.569 1322243.98   145%  1733 57316s
 54624 16759 1101412.52   79  103 540300.569 1319792.97   144%  1733 57634s
 55009 16914 1174703.92   81  295 540300.569 1318098.09   144%  1735 57915s
 55351 17066     cutoff   92      540300.569 1318098.09   144%  1737 58199s
 55768 17215 962042.831   81  262 540300.569 1314605.77   143%  1738 58512s
 56186 17333 1007491.14   83   80 540300.569 1311283.51   143%  1739 58799s
 56605 17515 757935.304   90  187 540300.569 1308446.33   142%  1740 59079s
 57179 17809 921754.347   95  304 540300.569 1306012.09   142%  1737 59348s
 57635 17989 801359.599   72  226 540300.569 1304160.11   141%  1737 59633s
 58116 18227 869085.059  109  179 540300.569 1301230.86   141%  1736 59933s
 58487 18381 1137626.60   71  174 540300.569 1297724.50   140%  1738 60233s
 58910 18534 1208281.83   86  227 540300.569 1295823.05   140%  1739 60502s
 59297 18671 660297.972   86  204 540300.569 1293798.88   139%  1740 60792s
 59659 18806 1032085.11   84  148 540300.569 1290564.87   139%  1742 61103s
 60145 19017 1000589.54   75   71 540300.569 1288773.39   139%  1742 61400s
 60534 19196 596482.874  121  219 540300.569 1286673.66   138%  1743 61680s
 60971 19406     cutoff   98      540300.569 1285245.54   138%  1743 61969s
 61487 19693 957776.257   88  152 540300.569 1284253.22   138%  1740 62288s
 61860 19796 725968.769   80  189 540300.569 1283358.81   138%  1742 62577s
 62274 20007 565102.835   74  161 540300.569 1279284.42   137%  1742 62846s
 62737 20185 728383.356   84  111 540300.569 1276366.58   136%  1741 63093s
 63252 20461 899212.732   80  131 540300.569 1274094.62   136%  1739 63382s
 63604 20583 1127226.92   73   88 540300.569 1273888.18   136%  1741 63732s
 64040 20768 991192.363  103  189 540300.569 1270897.99   135%  1741 63972s
 64465 20926 945105.029   91  222 540300.569 1268590.40   135%  1741 64229s
 64923 21100 830449.278   90  188 540300.569 1267282.02   135%  1740 64502s
 65352 21257     cutoff   79      540300.569 1264212.54   134%  1740 64759s
 65819 21483     cutoff   93      540300.569 1262763.81   134%  1739 65029s
 66211 21664     cutoff   75      540300.569 1260330.90   133%  1740 65272s
 66623 21813     cutoff  100      540300.569 1259404.36   133%  1740 65528s
 67049 21975     cutoff   85      540300.569 1257601.58   133%  1739 65772s
 67466 22147 971323.235  103  200 540300.569 1254664.43   132%  1739 66030s
 67909 22305 832165.647  103  184 540300.569 1252900.35   132%  1739 66308s
 68338 22420     cutoff   89      540300.569 1250903.37   132%  1739 66565s
 68740 22546 557994.861  103  172 540300.569 1248647.96   131%  1739 66813s
 69236 22718 950017.663   94  268 540300.569 1246810.12   131%  1737 67151s
 69585 22889     cutoff   78      540300.569 1244256.05   130%  1739 67389s
 69972 23052 1041970.77  102  188 540300.569 1242523.51   130%  1739 67623s
 70430 23230 1036224.81   90  208 540300.569 1240776.19   130%  1738 67899s
 70845 23368 1153848.54   96  212 540300.569 1239686.91   129%  1738 68171s
 71310 23586 933084.792   89  194 540300.569 1237930.06   129%  1738 68460s
 71804 23825 931076.737   98  274 540300.569 1236261.82   129%  1736 68734s
 72289 24016     cutoff  107      540300.569 1234302.03   128%  1734 68994s
 72803 24237 1114576.69  105  186 540300.569 1233078.25   128%  1732 69249s
 73056 24322 787358.826   88  134 540300.569 1232218.23   128%  1735 69528s
 73390 24405 936489.868   78  180 540300.569 1229899.89   128%  1736 69791s
 73833 24628 1200168.79   70  188 540300.569 1227883.40   127%  1736 70143s
 73870 24588 1160783.23   71  202 540300.569 1227881.98   127%  1736 70423s
 74339 24812 886920.571  102  196 540300.569 1225425.36   127%  1735 70659s
 74727 25001 738522.502  107  211 540300.569 1223844.65   127%  1735 70898s
 75082 25058 1113784.84   78  180 540300.569 1222706.88   126%  1736 71159s
 75457 25207 817150.661  110  232 540300.569 1220979.49   126%  1737 71424s
 75897 25422 1000471.06   86  124 540300.569 1219201.29   126%  1736 71678s
 76346 25519 754923.315   99  177 540300.569 1217463.67   125%  1736 71947s
 76825 25674 1091560.53  109  219 540300.569 1214743.80   125%  1735 72209s
 77165 25814 1041962.61   76  166 540300.569 1212683.94   124%  1736 72478s
 77588 25992     cutoff   90      540300.569 1211097.41   124%  1736 72733s
 78009 26127 866395.841   88  229 540300.569 1210858.07   124%  1736 72981s
 78439 26293 817996.346   93  219 540300.569 1208796.62   124%  1736 73236s
 78872 26484 870012.664  114  172 540300.569 1206905.68   123%  1735 73502s
 79250 26639 999511.198   80  165 540300.569 1205352.86   123%  1736 73757s
 79757 26854 553537.332   81  135 540300.569 1203943.63   123%  1734 74004s
 80210 27034 766692.432   87  195 540300.569 1201625.60   122%  1733 74267s
 80584 27177 1112069.99   69  120 540300.569 1200447.13   122%  1734 74520s
 80923 27275     cutoff   77      540300.569 1199434.04   122%  1735 74777s
 81347 27384 1061152.77   92  189 540300.569 1199070.13   122%  1735 75030s
 81816 27558 752393.150  108  204 540300.569 1196852.52   122%  1734 75287s
 82290 27724 972851.927  106  168 540300.569 1194920.83   121%  1733 75545s
 82758 27927     cutoff   92      540300.569 1193845.03   121%  1732 75802s
 83202 28104 768653.140  103  198 540300.569 1192419.38   121%  1731 76074s
 83625 28316 826634.365   84  101 540300.569 1191695.50   121%  1731 76315s
 84043 28477 993469.761   85  169 540300.569 1190390.85   120%  1731 76576s
 84516 28658     cutoff   96      540300.569 1189094.81   120%  1729 76822s
 84904 28774 1042480.03   84  167 540300.569 1186783.45   120%  1729 77087s
 85402 28998     cutoff   82      540300.569 1185229.96   119%  1728 77331s
 85868 29156 1144736.85  107  198 540300.569 1183834.76   119%  1727 77588s
 86267 29320 816244.325  107  259 540300.569 1182591.06   119%  1726 77860s
 86723 29501 951661.346   76  196 540300.569 1181168.38   119%  1725 78118s
 87214 29690 981393.725   96  200 540300.569 1180404.37   118%  1724 78363s
 87726 29924 587025.866   97  169 540300.569 1178268.47   118%  1721 78609s
 88167 30108 673837.003  124  195 540300.569 1177271.04   118%  1720 78869s
 88662 30288 744249.426  112  190 540300.569 1175306.42   118%  1718 79117s
 89051 30438 969764.110   87   73 540300.569 1174092.68   117%  1718 79347s
 89486 30638 745700.363   68  235 540300.569 1173520.48   117%  1717 79589s
 89944 30835 894448.060  107  226 540300.569 1171857.88   117%  1716 79829s
 90351 30982 971687.669  114  225 540300.569 1170964.47   117%  1716 80049s
 90770 31095 797794.203  143  176 540300.569 1170563.83   117%  1715 80298s
 91231 31259 1076001.79   79  189 540300.569 1167796.87   116%  1714 80547s
 91707 31406     cutoff   88      540300.569 1167403.70   116%  1713 80786s
 92167 31542 937978.301   92  197 540300.569 1165652.51   116%  1711 81011s
 92535 31691 946574.330   83  189 540300.569 1164936.27   116%  1711 81254s
 92960 31863 697494.477   82  168 540300.569 1163275.96   115%  1710 81500s
 93346 32040 952254.283   91  135 540300.569 1161775.28   115%  1710 81732s
 93783 32234 802750.124  100  190 540300.569 1160477.63   115%  1709 81963s
 94105 32350 800096.048  107  165 540300.569 1159445.48   115%  1710 82183s
 94561 32521 840156.830   97  160 540300.569 1158394.73   114%  1708 82421s
 94964 32694 766316.048  115  138 540300.569 1157340.49   114%  1708 82653s
 95290 32770 1007510.64  106  227 540300.569 1156468.02   114%  1708 82887s
 95665 32894 1006277.97   89  186 540300.569 1155247.13   114%  1708 83122s
 96071 33038 894622.483   89  130 540300.569 1153863.61   114%  1708 83343s
 96546 33230 802403.222  106  173 540300.569 1152095.84   113%  1706 83583s
 97004 33394 1090673.01   91  221 540300.569 1150580.39   113%  1705 83838s
 97457 33586 917268.358  102  169 540300.569 1150071.16   113%  1704 84084s
 97955 33823 916780.989   99  208 540300.569 1148652.38   113%  1702 84291s
 98431 34035 925543.158   99  193 540300.569 1147803.34   112%  1700 84498s
 98879 34163 850928.204  105  209 540300.569 1146625.72   112%  1699 84723s
 99348 34352 1052222.68   85  199 540300.569 1144745.31   112%  1697 84934s
 99767 34537 994738.884   86  212 540300.569 1144099.10   112%  1697 85155s
 100204 34716 964837.809   85  279 540300.569 1143503.19   112%  1695 85365s
 100551 34840 723561.682   75  131 540300.569 1142562.73   111%  1695 85565s
 100873 34971     cutoff   81      540300.569 1141700.58   111%  1694 85775s
 101264 35091 896390.918  106  236 540300.569 1140577.31   111%  1694 85993s
 101775 35322 1029141.63   78  167 540300.569 1139385.02   111%  1692 86185s
 102205 35458 689235.951   81  141 540300.569 1138091.42   111%  1691 86374s
 102620 35613 955515.573  103  178 540300.569 1136673.54   110%  1690 86400s

Cutting planes:
  Learned: 2
  Gomory: 239
  Cover: 2
  Implied bound: 10
  Projected implied bound: 9
  Clique: 21
  MIR: 113
  StrongCG: 1
  Flow cover: 427
  GUB cover: 2
  Zero half: 26

Explored 102717 nodes (173560041 simplex iterations) in 86400.94 seconds
Thread count was 4 (of 16 available processors)

Solution count 10: 540301 540301 540301 ... 531205

Time limit reached
Best objective 5.403005693502e+05, best bound 1.136509364300e+06, gap 110.3476%

***
***  |- Calculation finished, timelimit reached 86,400.96 (86400.96) sec.))
***  |-----------------------------------------------------------------------------------------------------------------------
***
*****************************************************************************************************************************
#############################################################################################################################
###
### Results
###
### The objective of the solution is 540,300.5694 (540300.5694) and is feasible with a Gap of 1.1035
###
### Service 24 (WAF7) is operated by 3 vessels from type 18 (PMax25)
###  |- Vessel  1 has the path [100, 276, -1]
###  |  100 (DEHAM Out@288.0) - 276 (ESALG In@496.0/Out@515.0) - -1 (DUMMY_END Ziel-Service 24)
###  |- Vessel  2 has the path [101, 277, -1]
###  |  101 (DEHAM Out@456.0) - 277 (ESALG In@664.0/Out@683.0) - -1 (DUMMY_END Ziel-Service 24)
###  |- Vessel 13 has the path [104, 275, 201, 291, 202, 114, 278, -1]
###  |  104 (DKAAR Out@220.0) - 275 (ESALG In@328.0/Out@347.0) - 201 (MAPTM In@375.0/Out@396.0) - 291 (MAPTM In@379.0/Out@398
###  |  .0) - 202 (MAPTM In@406.0/Out@427.0) - 114 (ESALG In@452.0/Out@464.0) - 278 (ESALG In@832.0/Out@851.0) - -1 (DUMMY_EN
###  |  D Ziel-Service 24)
###  |   |- and carried Demand  18,   18.0 containers from 201 to 114
###  |   |- and carried Demand  52,  312.0 containers from 202 to 114
###  |   |- and carried Demand  53,   18.0 containers from 202 to 114
###  |   |- and carried Demand 119,  214.0 containers from 201 to 278
###  |   |- and carried Demand 120,   10.0 containers from 201 to 278
###  |   |- and carried Demand 121,  484.0 containers from 201 to 114
###  |   |- and carried Demand 122,   18.0 containers from 201 to 114
###  |   |- and carried Demand 132,  214.0 containers from 202 to 278
###  |   |- and carried Demand 133,   10.0 containers from 202 to 278
###  |   |- and carried Demand 134,  484.0 containers from 202 to 114
###  |   |- and carried Demand 135,   18.0 containers from 202 to 114
###  |   |- and carried Demand 138,  214.0 containers from 291 to 278
###  |   |- and carried Demand 139,   10.0 containers from 291 to 278
###  |   |- and carried Demand 140,  484.0 containers from 291 to 114
###  |   |- and carried Demand 141,   18.0 containers from 291 to 114
###  |
### Service 121 (SAE) is operated by 2 vessels from type 30 (PMax35)
###  |- Vessel  9 has the path [1, 274, 199, 290, 200, 112, 284, 45, 302, -2]
###  |  1 (BEANR Out@66.0) - 274 (ESALG In@160.0/Out@179.0) - 199 (MAPTM In@207.0/Out@228.0) - 290 (MAPTM In@211.0/Out@230.0)
###  |   - 200 (MAPTM In@238.0/Out@259.0) - 112 (ESALG In@284.0/Out@296.0) - 284 (GWOXB In@463.0/Out@542.0) - 45 (CMDLA In@76
###  |  5.0/Out@811.0) - 302 (HNPCR In@1166.0/Out@1179.0) - -2 (DUMMY_END Ziel-Service 121)
###  |   |- and carried Demand   7,  161.0 containers from 199 to  45
###  |   |- and carried Demand   8,  580.0 containers from 199 to 112
###  |   |- and carried Demand  45,  161.0 containers from 200 to  45
###  |   |- and carried Demand  46,  580.0 containers from 200 to 112
###  |   |- and carried Demand 117,  580.0 containers from 199 to 112
###  |   |- and carried Demand 131,  580.0 containers from 200 to 112
###  |   |- and carried Demand 144,  161.0 containers from 290 to  45
###  |   |- and carried Demand 145,  580.0 containers from 290 to 112
###  |- Vessel 18 has the path [148, 315, 311, 301, -2]
###  |  148 (GBFXT Out@470.0) - 315 (USORF In@873.0/Out@881.0) - 311 (USMIA In@935.0/Out@943.0) - 301 (HNPCR In@998.0/Out@101
###  |  1.0) - -2 (DUMMY_END Ziel-Service 121)
###  |   |- and carried Demand 170,   10.0 containers from 311 to 301
###  |   |- and carried Demand 171,   75.0 containers from 315 to 301
###  |   |- and carried Demand 172,  114.0 containers from 315 to 301
###  |
### Service 177 (WCSA) is operated by 3 vessels from type 18 (PMax25)
###  |- Vessel  3 has the path [102, 234, 0]
###  |  102 (DEHAM Out@624.0) - 234 (PABLB In@1304.0/Out@1316.0) - 0 (DUMMY_END Ziel-Service 177)
###  |- Vessel  4 has the path [103, 235, 0]
###  |  103 (DEHAM Out@792.0) - 235 (PABLB In@1472.0/Out@1484.0) - 0 (DUMMY_END Ziel-Service 177)
###  |- Vessel 14 has the path [105, 36, 240, 236, 0]
###  |  105 (DKAAR Out@388.0) - 36 (CLLQN In@1240.0/Out@1258.0) - 240 (PECLL In@1493.83/Out@1495.83) - 236 (PABLB In@1640.0/O
###  |  ut@1652.0) - 0 (DUMMY_END Ziel-Service 177)
###  |   |- and carried Demand  80,  194.0 containers from  36 to 236
###  |   |- and carried Demand  81,   20.0 containers from  36 to 236
###  |   |- and carried Demand  83,    5.0 containers from  36 to 236
###  |
### Vessels not used in the solution: [5, 6, 7, 8, 10, 11, 12, 15, 16, 17]
###  |-----------------------------------------------------------------------------------------------------------------------
###
#############################################################################################################################

### Detialed variable overview

### All variables with value greater zero:
rho[24,18] = 1
rho[177,18] = 1
rho[121,30] = 1
eta[24,18,1] = 1
eta[24,18,2] = 1
eta[24,18,3] = 1
eta[177,18,1] = 1
eta[177,18,2] = 1
eta[177,18,3] = 1
eta[121,30,1] = 1
eta[121,30,2] = 1
y[1,276,-1] = 1
y[1,100,276] = 1
y[2,101,277] = 1
y[2,277,-1] = 1
y[3,234,0] = 1
y[3,102,234] = 1
y[4,235,0] = 1
y[4,103,235] = 1
y[9,200,112] = 1
y[9,274,199] = 1
y[9,290,200] = 1
y[9,1,274] = 1
y[9,45,302] = 0.999999
y[9,199,290] = 1
y[9,302,-2] = 1
y[9,284,45] = 0.999999
y[9,112,284] = 1
y[13,104,275] = 1
y[13,275,201] = 1
y[13,291,202] = 1
y[13,114,278] = 1
y[13,202,114] = 1
y[13,278,-1] = 1
y[13,201,291] = 1
y[14,240,236] = 1
y[14,105,36] = 1
y[14,36,240] = 1
y[14,236,0] = 1
y[18,301,-2] = 1
y[18,148,315] = 1
y[18,315,311] = 1
y[18,311,301] = 1
xD[7,200,112] = 161
xD[7,290,200] = 161
xD[7,199,290] = 161
xD[7,284,45] = 161
xD[7,112,284] = 161
xD[8,200,112] = 580
xD[8,290,200] = 580
xD[8,199,290] = 580
xD[18,291,202] = 18
xD[18,202,114] = 18
xD[18,201,291] = 18
xD[45,200,112] = 161
xD[45,284,45] = 161
xD[45,112,284] = 161
xD[46,200,112] = 580
xD[52,202,114] = 312
xD[53,202,114] = 18
xD[80,240,236] = 194
xD[80,36,240] = 194
xD[81,240,236] = 20
xD[81,36,240] = 20
xD[83,240,236] = 5
xD[83,36,240] = 5
xD[117,200,112] = 580
xD[117,290,200] = 580
xD[117,199,290] = 580
xD[119,291,202] = 214
xD[119,114,278] = 214
xD[119,202,114] = 214
xD[119,201,291] = 214
xD[120,291,202] = 10
xD[120,114,278] = 10
xD[120,202,114] = 10
xD[120,201,291] = 10
xD[121,291,202] = 484
xD[121,202,114] = 484
xD[121,201,291] = 484
xD[122,291,202] = 18
xD[122,202,114] = 18
xD[122,201,291] = 18
xD[131,200,112] = 580
xD[132,114,278] = 214
xD[132,202,114] = 214
xD[133,114,278] = 10
xD[133,202,114] = 10
xD[134,202,114] = 484
xD[135,202,114] = 18
xD[138,291,202] = 214
xD[138,114,278] = 214
xD[138,202,114] = 214
xD[139,291,202] = 10
xD[139,114,278] = 10
xD[139,202,114] = 10
xD[140,291,202] = 484
xD[140,202,114] = 484
xD[141,291,202] = 18
xD[141,202,114] = 18
xD[144,200,112] = 161
xD[144,290,200] = 161
xD[144,284,45] = 161
xD[144,112,284] = 161
xD[145,200,112] = 580
xD[145,290,200] = 580
xD[170,311,301] = 10
xD[171,315,311] = 75
xD[171,311,301] = 75
xD[172,315,311] = 114
xD[172,311,301] = 114
zE[36] = 1240
zE[45] = 764.999
zE[112] = 284
zE[114] = 452
zE[199] = 207
zE[200] = 238
zE[201] = 375
zE[202] = 406
zE[234] = 1304
zE[235] = 1472
zE[236] = 1640
zE[240] = 1493.83
zE[274] = 160
zE[275] = 328
zE[276] = 496
zE[277] = 664
zE[278] = 832
zE[284] = 463
zE[290] = 211
zE[291] = 379
zE[301] = 998
zE[302] = 1166
zE[311] = 935
zE[315] = 873
zX[1] = 66
zX[36] = 1258
zX[45] = 810.999
zX[100] = 288
zX[101] = 456
zX[102] = 624
zX[103] = 792
zX[104] = 220
zX[105] = 388
zX[112] = 296
zX[114] = 464
zX[148] = 470
zX[199] = 228
zX[200] = 259
zX[201] = 396
zX[202] = 427
zX[234] = 1316
zX[235] = 1484
zX[236] = 1652
zX[240] = 1495.83
zX[274] = 179
zX[275] = 347
zX[276] = 515
zX[277] = 683
zX[278] = 851
zX[284] = 542
zX[290] = 230
zX[291] = 398
zX[301] = 1011
zX[302] = 1179
zX[311] = 943
zX[315] = 881
w[14,(240,236)] = 144.166
w[14,(36,240)] = 161.145
phi[1] = 227
phi[2] = 227
phi[3] = 692
phi[4] = 692
phi[9] = 1113
phi[13] = 631
phi[14] = 1264
phi[18] = 541

### All variables with value smaller zero:

### End

real	1442m4.108s
user	5495m42.573s
sys	267m40.632s
	Freetype 2.4.12 environment removed
	Python 3.6.0 environment removed
	Gurobi 8.1.0 environment removed
