	Freetype 2.4.12 environment established
		library to render fonts
	Python 3.6.0 environment established
	Gurobi 8.1.0 environment established
Instance LSFRP: LSFDRP_2_2_0_0_fr.p
Instance LSFDP: LSFDRP_2_2_0_0_fd_13.p

*****************************************************************************************************************************
*** Solve LSFDRP_2_2_0_0_fd_13 with Gurobi
***
*** Graph info
*** |S|: 18
*** |S^E|: 0
*** |S^C|: 0
*** |V|: 321
*** |A|: 9520
*** |A^i|: 9469
*** |A^f|: 51
*** |M|: 193
*** |E|: 22

Changed value of parameter TimeLimit to 86400.0
   Prev: 1e+100  Min: 0.0  Max: 1e+100  Default: 1e+100
Changed value of parameter Threads to 4
   Prev: 0  Min: 0  Max: 1024  Default: 0
Optimize a model with 91412 rows, 2029350 columns and 7453802 nonzeros
Variable types: 1857954 continuous, 171396 integer (171396 binary)
Coefficient statistics:
  Matrix range     [1e+00, 4e+03]
  Objective range  [2e+00, 1e+07]
  Bounds range     [1e+00, 1e+00]
  RHS range        [1e+00, 4e+03]
Presolve removed 51746 rows and 1608140 columns (presolve time = 5s) ...
Presolve removed 62474 rows and 1706691 columns (presolve time = 10s) ...
Warning: Failed to open log file 'gurobi.log'
Presolve removed 62486 rows and 1706880 columns (presolve time = 30s) ...
Presolve removed 62648 rows and 1706892 columns (presolve time = 30s) ...
Presolve removed 63782 rows and 1710087 columns (presolve time = 106s) ...
Presolve removed 63782 rows and 1710087 columns
Presolve time: 106.04s
Presolved: 27630 rows, 319263 columns, 1387957 nonzeros
Variable types: 147960 continuous, 171303 integer (171255 binary)

Deterministic concurrent LP optimizer: primal and dual simplex
Showing first log only...


Root simplex log...

Iteration    Objective       Primal Inf.    Dual Inf.      Time
       0   -9.1610275e+03   5.000000e+00   8.416720e+07    111s
   11496   -2.3999024e+07   0.000000e+00   1.058028e+11    112s
   22336   -6.3270651e+06   0.000000e+00   2.876812e+11    115s
   34531   -4.3352394e+06   0.000000e+00   1.635493e+11    120s
Concurrent spin time: 0.00s

Solved with dual simplex

Root relaxation: objective 6.687941e+06, 16030 iterations, 11.69 seconds

    Nodes    |    Current Node    |     Objective Bounds      |     Work
 Expl Unexpl |  Obj  Depth IntInf | Incumbent    BestBd   Gap | It/Node Time

     0     0 6687941.05    0  150          - 6687941.05      -     -  124s
     0     0 6243742.49    0  144          - 6243742.49      -     -  137s
H    0     0                    -7079227.456 6243742.49   188%     -  138s
H    0     0                    -6544543.456 6243742.49   195%     -  141s
     0     0 6116338.85    0  145 -6544543.5 6116338.85   193%     -  142s
     0     0 6083001.13    0  160 -6544543.5 6083001.13   193%     -  147s
H    0     0                    -5625435.343 6083001.13   208%     -  147s
     0     0 6081988.02    0  158 -5625435.3 6081988.02   208%     -  150s
     0     0 6022406.21    0  140 -5625435.3 6022406.21   207%     -  159s
     0     0 6021267.87    0  140 -5625435.3 6021267.87   207%     -  161s
     0     0 6020426.50    0  140 -5625435.3 6020426.50   207%     -  162s
     0     0 6000642.09    0  203 -5625435.3 6000642.09   207%     -  171s
H    0     0                    -976662.2182 6000642.09   714%     -  175s
     0     0 6000615.23    0  203 -976662.22 6000615.23   714%     -  176s
     0     0 5999488.48    0  212 -976662.22 5999488.48   714%     -  180s
     0     0 5999488.48    0  213 -976662.22 5999488.48   714%     -  183s
     0     0 5999440.17    0  216 -976662.22 5999440.17   714%     -  186s
H    0     0                    -934463.6559 5999440.17   742%     -  191s
     0     0 5999439.07    0  217 -934463.66 5999439.07   742%     -  191s
     0     0 5997337.06    0  194 -934463.66 5997337.06   742%     -  195s
     0     0 5997337.06    0  195 -934463.66 5997337.06   742%     -  199s
     0     0 5993416.62    0  200 -934463.66 5993416.62   741%     -  202s
     0     0 5992453.15    0  214 -934463.66 5992453.15   741%     -  205s
     0     0 5992453.15    0  214 -934463.66 5992453.15   741%     -  206s
     0     0 5992384.99    0  215 -934463.66 5992384.99   741%     -  209s
     0     0 5991645.28    0  205 -934463.66 5991645.28   741%     -  215s
     0     0 5991638.98    0  205 -934463.66 5991638.98   741%     -  217s
H    0     0                    519280.88467 5991638.98  1054%     -  221s
     0     0 5991638.98    0  202 519280.885 5991638.98  1054%     -  262s
H    0     2                    519280.88845 5991638.98  1054%     -  297s
     0     2 5991638.98    0  199 519280.888 5991638.98  1054%     -  297s
     1     4 5830440.78    1  287 519280.888 5830440.78  1023% 142733 1401s
     3     8 4547197.41    2  197 519280.888 5665686.05   991% 53705 1776s
     7    12 4513392.54    3  160 519280.888 5447002.33   949% 31038 1847s
    11    16 4511030.96    4  162 519280.888 5447002.33   949% 20950 1876s
    15    16 4503123.54    5  168 519280.888 5447002.33   949% 15683 1891s
    19    19 4493641.75    6  177 519280.888 5447002.33   949% 12535 1895s
    23    24 4353923.48    6  158 519280.888 5447002.33   949% 10534 1952s
    30    29 4486177.09    7  177 519280.888 5447002.33   949%  8267 2133s
H   35    34                    537661.22222 5447002.33   913%  7922 2133s
    37    35 4464031.55    9  171 537661.222 5447002.33   913%  7504 2207s
    45    46 4421989.72   11  153 537661.222 5447002.33   913%  6546 2223s
    53    52 4401197.95   12  158 537661.222 5447002.33   913%  5671 2236s
    58    56 4325134.85   13  155 537661.222 5447002.33   913%  5330 2264s
    68    63 4318035.69   14  146 537661.222 5447002.33   913%  4682 2304s
H   71    65                    568689.81170 5447002.33   858%  4500 2304s
    76    72 3833279.59   16  146 568689.812 5447002.33   858%  4337 2325s
    86    80 3830910.40   16  154 568689.812 5447002.33   858%  3961 2349s
   101    96 3731656.22   20   96 568689.812 5447002.33   858%  3529 2417s
   112   105 3625749.45   20  119 568689.812 5447002.33   858%  3279 2481s
   124   117 3723555.41   21   90 568689.812 5447002.33   858%  3119 2504s
   137   125 3663936.91   24   78 568689.812 5447002.33   858%  2948 2523s
   151   143 3645146.78   26   46 568689.812 5447002.33   858%  2737 2539s
   171   160 3558242.04   28   58 568689.812 5447002.33   858%  2476 2556s
   194   182 3419499.29   37   65 568689.812 5447002.33   858%  2244 2574s
   225   215 3321533.44   47   67 568689.812 5447002.33   858%  1995 2595s
   250   226 2890288.22   55   65 568689.812 5447002.33   858%  1839 2624s
   271   248 2863271.71   68   52 568689.812 5447002.33   858%  1743 2649s
   291   265 2089869.85   81   57 568689.812 5447002.33   858%  1670 2878s
   320   285 1951815.26   91   36 568689.812 5447002.33   858%  1593 2906s
   370   314 1898334.76  108   36 568689.812 5447002.33   858%  1429 2925s
   419   354 1838130.23  125   48 568689.812 5447002.33   858%  1302 2943s
   486   400 799268.909  144   41 568689.812 5391453.89   848%  1149 2961s
   551   448 4461064.34   13  111 568689.812 5391453.89   848%  1046 2987s
   617   480 4224010.38   27  128 568689.812 5362625.83   843%   973 3010s
   684   533 4454667.43   12   84 568689.812 5362625.83   843%   911 3209s
   701   546 4305343.35   17   99 568689.812 5358768.95   842%   910 3232s
   766   591 5205583.75   13  178 568689.812 5358768.95   842%   863 3718s
   829   637 5011450.92   17  153 568689.812 5358768.95   842%   929 3783s
   899   692 4499490.21   19  111 568689.812 5358768.95   842%   901 3816s
   941   728 4013100.04   21  101 568689.812 5358768.95   842%   889 4198s
   980   758 3622868.37   22   95 568689.812 5358768.95   842%   890 4298s
  1052   819 2615933.25   84  202 568689.812 5358768.95   842%   854 4565s
  1054   820 3430221.72   29  135 568689.812 4845655.60   752%   853 4585s
  1055   821 2554172.00   20  137 568689.812 4699197.59   726%   852 4598s
  1056   822 1748652.11   41  146 568689.812 4679944.51   723%   851 4603s
  1057   822 4288278.26   14  130 568689.812 4665213.54   720%   850 4612s
  1058   823 3790792.26   18  238 568689.812 4631370.95   714%   850 4617s
  1059   824 1341656.55  111  185 568689.812 4631246.89   714%   849 4623s
  1060   824 4071724.72   13  197 568689.812 4625991.92   713%   848 4625s
  1063   826 4288278.26   14  209 568689.812 4623529.93   713%   846 4634s
  1064   827 2221460.47   44  229 568689.812 4551013.28   700%   845 4652s
  1065   828 2415656.87   46  237 568689.812 4540717.45   698%   844 4655s
  1066   828 2895747.61   81  249 568689.812 4539866.22   698%   843 4661s
  1067   829 4192593.42   31  223 568689.812 4496097.73   691%   842 4674s
  1068   830 2877427.43   58  196 568689.812 4481115.39   688%   842 4681s
  1069   830 993930.831   60  238 568689.812 4455887.69   684%   841 4699s
  1070   831 4430050.16   11  259 568689.812 4448995.12   682%   840 4706s
  1071   832 3469038.89   31  273 568689.812 4443747.26   681%   839 4719s
H 1071   790                    769167.28466 4443747.26   478%   839 4722s
H 1073   751                    769167.28492 4431330.94   476%   838 4728s
  1075   752 2999255.87   40  182 769167.285 4412071.98   474%   836 4737s
  1076   753 1044277.68   81  253 769167.285 4408235.22   473%   835 4750s
  1077   754 3277963.49   39  259 769167.285 4408103.93   473%   835 4755s
  1078   754 2233377.75  104  273 769167.285 4404355.42   473%   834 4769s
  1079   755 4301979.89   12  268 769167.285 4398528.27   472%   833 4770s
  1080   756 2575706.69   16  275 769167.285 4397832.67   472%   832 4776s
  1081   756 4397030.72   10  287 769167.285 4397030.72   472%   831 4808s
  1082   757 3266486.74   40  287 769167.285 4397030.72   472%   831 4813s
  1083   758 2828379.75   77  287 769167.285 4397030.72   472%   830 4834s
  1084   761 4397030.72   12  288 769167.285 4397030.72   472%   876 4897s
  1086   765 4370281.88   13  263 769167.285 4389092.30   471%   881 4975s
  1090   767 4334305.64   14  197 769167.285 4361585.00   467%   893 5046s
  1094   770 4310310.58   14  293 769167.285 4334155.78   463%   917 5097s
  1098   773 4331103.25   15  199 769167.285 4334144.20   463%   922 5144s
  1102   775 4297364.67   15  200 769167.285 4331103.25   463%   944 5176s
  1106   777 4326427.68   16  197 769167.285 4331103.25   463%   969 5219s
  1111   779 4240000.64   16  159 769167.285 4326411.26   462%   999 5261s
H 1114   741                    864066.44392 4326411.26   401%  1005 5261s
H 1116   707                    957920.60585 4326411.26   352%  1013 5261s
  1117   707 4268840.90   17  249 957920.606 4326411.26   352%  1024 5316s
  1122   711 3980051.29   17  236 957920.606 4310310.58   350%  1055 5341s
  1127   715 4268840.90   18  250 957920.606 4310310.58   350%  1065 5397s
  1133   713 4234909.74   19  297 957920.606 4310310.58   350%  1103 5428s
  1141   721 4010532.26   19  280 957920.606 4310310.58   350%  1129 5458s
  1147   725 4210470.93   20  247 957920.606 4310310.58   350%  1145 5528s
  1151   730 3891636.03   20  258 957920.606 4310310.58   350%  1178 5557s
  1158   733 4179319.86   21  230 957920.606 4310310.58   350%  1200 5587s
  1163   740 4092789.08   21  216 957920.606 4310310.58   350%  1213 5656s
  1172   743 4035735.22   23  309 957920.606 4310310.58   350%  1256 5684s
H 1184   714                    957920.60607 4310310.58   350%  1271 5719s
H 1186   682                    957920.60677 4310310.58   350%  1276 5719s
  1194   689 3991737.78   25  233 957920.607 4310310.58   350%  1282 5750s
  1211   702 2776107.19   26  181 957920.607 4310310.58   350%  1313 5792s
  1229   714 3984767.07   27  219 957920.607 4310310.58   350%  1322 5847s
H 1231   684                    957920.60695 4310310.58   350%  1338 5847s
  1248   694 3937289.69   28  219 957920.607 4310310.58   350%  1349 5904s
  1265   703 3928487.45   29  225 957920.607 4310310.58   350%  1375 5933s
  1283   710 3893313.81   30  183 957920.607 4310310.58   350%  1387 5968s
  1313   720 3618004.79   32  147 957920.607 4310310.58   350%  1387 5999s
  1336   725 3205236.51   33  139 957920.607 4310310.58   350%  1391 6046s
  1368   740 3084160.98   35  147 957920.607 4310310.58   350%  1388 6096s
  1378   739 3081328.55   37  140 957920.607 4310310.58   350%  1411 6127s
  1406   752 3081280.47   38  145 957920.607 4310310.58   350%  1419 6204s
  1422   758 3051687.77   40  138 957920.607 4310310.58   350%  1437 6241s
  1464   768 3002199.55   44  128 957920.607 4310310.58   350%  1442 6306s
H 1482   750                    957921.01851 4310310.58   350%  1456 6306s
  1483   749 3030994.50   47  155 957921.019 4310310.58   350%  1461 6340s
  1517   771 2941066.42   48  143 957921.019 4310310.58   350%  1477 6373s
  1558   793 2084537.76   51  119 957921.019 4310310.58   350%  1487 6466s
  1607   821 2919466.09   54  145 957921.019 4310310.58   350%  1482 6519s
  1666   844 2872415.20   57  131 957921.019 4310310.58   350%  1475 6572s
  1709   859 2857864.39   61  132 957921.019 4310310.58   350%  1482 6618s
  1722   866 2806165.91   63  139 957921.019 4310310.58   350%  1507 6666s
  1752   881 2745320.46   68  127 957921.019 4310310.58   350%  1537 6720s
  1779   897 2726127.83   72  127 957921.019 4310310.58   350%  1566 6826s
H 1818   886                    957921.30386 4310310.58   350%  1586 7103s
  1831   890 1378696.91   81   93 957921.304 4310310.58   350%  1585 7143s
  1959   945 1261346.06   99   99 957921.304 4310310.58   350%  1532 7254s
  2021   965 1331820.29  107   90 957921.304 4310310.58   350%  1520 7304s
  2113   962     cutoff  133      957921.304 4310229.92   350%  1505 7400s
  2209   979 4214836.57   17  339 957921.304 4310229.92   350%  1509 7453s
  2263   993 4162811.61   19  284 957921.304 4310229.92   350%  1523 7543s
  2378  1043 4031437.36   23  270 957921.304 4310229.92   350%  1510 7596s
  2466  1051 3924307.07   32  247 957921.304 4310229.92   350%  1493 7695s
  2559  1094 1738874.86   77  246 957921.304 4272634.55   346%  1485 7780s
  2622  1109 4190967.92   16  270 957921.304 4272634.55   346%  1476 7865s
  2662  1131 4035437.73   24  201 957921.304 4272634.55   346%  1499 7932s
  2783  1233 2768532.57   38  103 957921.304 4269221.60   346%  1476 8047s
  2883  1316 1396713.49   18  204 957921.304 4244801.09   343%  1477 8153s
  2963  1382 3748708.57   20  261 957921.304 4244801.09   343%  1487 8264s
  3016  1425 2995556.13   20  185 957921.304 4244801.09   343%  1495 8363s
  3113  1505 3323267.30   23  133 957921.304 4244801.09   343%  1500 8623s
  3203  1565 3227029.09   29  105 957921.304 4244801.09   343%  1500 8704s
  3401  1707 3056390.74   39  108 957921.304 4244801.09   343%  1464 8803s
  3469  1744 2783602.79   50   95 957921.304 4196500.09   338%  1479 8914s
  3640  1858 3142679.10   19  222 957921.304 4196500.09   338%  1469 9013s
  3909  2095 2170829.96   29   97 957921.304 4183194.83   337%  1406 9139s
  4027  2156 3374997.26   22  134 957921.304 4169443.53   335%  1406 9264s
  4150  2257 3991104.65   22  213 957921.304 4168936.94   335%  1410 9368s
  4229  2322 2577607.29   35  109 957921.304 4167215.12   335%  1427 9522s
  4352  2416 3166685.52   25  160 957921.304 4165097.23   335%  1430 9634s
  4514  2544 3165027.48   36  111 957921.304 4165097.23   335%  1426 9760s
  4755  2704 2637610.89   73   80 957921.304 4144752.00   333%  1417 9881s
  4960  2836 3634140.18   28  159 957921.304 4143964.97   333%  1402 10004s
  5142  2950 3826939.78   19  367 957921.304 4137845.46   332%  1397 10136s
  5543  3270 1695863.94   21  154 957921.304 4137354.44   332%  1349 10294s
  5711  3370     cutoff   34      957921.304 4122828.34   330%  1365 10443s
  5893  3505 1809592.44   23  146 957921.304 4118429.17   330%  1380 10630s
  6250  3768 3824224.15   18  196 957921.304 4114828.46   330%  1369 10854s
  6429  3879 3920367.86   24  221 957921.304 4112798.49   329%  1381 11200s
  6589  4010 1323227.52   59  126 957921.304 4105168.85   329%  1390 11375s
  6850  4184 2624772.12   31  156 957921.304 4092387.64   327%  1392 11573s
  7047  4301 3630347.14   26  176 957921.304 4088271.87   327%  1411 11782s
  7381  4536 2871779.72   37  148 957921.304 4065106.59   324%  1401 11991s
  7680  4789 2950606.35   30   97 957921.304 4054915.42   323%  1400 12210s
  7953  4993 3616915.55   19  190 957921.304 4050541.87   323%  1406 12415s
  8349  5282 1265752.69   66   73 957921.304 4036806.95   321%  1392 12672s
  8613  5467 3443536.95   27  123 957921.304 4035840.41   321%  1388 12987s
  8783  5582 2932588.06   32  147 957921.304 4027192.16   320%  1396 13199s
  9000  5721 2686200.94   34  181 957921.304 4019140.64   320%  1411 13421s
  9483  6031 1920377.40   35  146 957921.304 4013887.71   319%  1390 13687s
  9897  6316 3061506.91   26  127 957921.304 4001692.82   318%  1383 13925s
 10096  6439 2767964.64   37  105 957921.304 3999446.06   318%  1395 14215s
 10697  6924 1646396.76   62  202 957921.304 3989242.18   316%  1371 14357s
 10699  6925 1495117.04   69  128 957921.304 3989242.18   316%  1371 14371s
 10700  6926 1895541.02   41  157 957921.304 3989242.18   316%  1371 14385s
 10701  6927 2524272.22   34  180 957921.304 3989242.18   316%  1371 14394s
 10702  6927 2492730.72   62  199 957921.304 3989242.18   316%  1370 14401s
 10704  6929 3344581.49   42  226 957921.304 3989242.18   316%  1370 14408s
 10705  6929 2772360.08   44  252 957921.304 3989242.18   316%  1370 14430s
 10706  6930 1457593.91   60  216 957921.304 3989242.18   316%  1370 14444s
 10707  6931 1461267.53   67  219 957921.304 3989242.18   316%  1370 14446s
 10708  6931 2161532.98   63  227 957921.304 3989242.18   316%  1370 14452s
 10709  6932 1214771.50  167  231 957921.304 3989242.18   316%  1370 14456s
 10710  6933 3967496.64   21  193 957921.304 3989242.18   316%  1369 14469s
 10711  6933 2083259.31   42  238 957921.304 3989242.18   316%  1369 14474s
 10712  6934 1067774.79   75  244 957921.304 3989242.18   316%  1369 14482s
 10713  6935 1889864.38   33  242 957921.304 3989242.18   316%  1369 14494s
 10714  6935 1819593.08   23  315 957921.304 3989242.18   316%  1369 14501s
 10715  6936 2339715.10   36  302 957921.304 3989242.18   316%  1369 14513s
 10716  6937 2873356.18   42  301 957921.304 3989242.18   316%  1369 14520s
 10717  6937 2001127.46   97  273 957921.304 3989242.18   316%  1369 14531s
 10718  6938 3037434.21   32  289 957921.304 3989242.18   316%  1368 14538s
 10719  6939 3544288.35   25  289 957921.304 3989242.18   316%  1368 14552s
 10720  6939 1895446.15   60  257 957921.304 3989242.18   316%  1368 14558s
 10721  6940 1047173.36   40  275 957921.304 3989242.18   316%  1368 14588s
 10722  6941 2066711.98   83  275 957921.304 3989242.18   316%  1368 14593s
 10723  6941 2045463.26   32  275 957921.304 3989242.18   316%  1368 14616s
 10724  6945 3989242.18   22  283 957921.304 3989242.18   316%  1372 14691s
 10726  6948 3989242.18   23  312 957921.304 3989242.18   316%  1373 14791s
 10730  6951 3989242.18   24  278 957921.304 3989242.18   316%  1373 14848s
 10734  6954 2373054.22   24  161 957921.304 3989242.18   316%  1375 14914s
 10738  6956 3989242.18   25  306 957921.304 3989242.18   316%  1378 14977s
 10742  6958 3937274.72   25  156 957921.304 3989242.18   316%  1380 15013s
 10746  6961 3953484.35   26  288 957921.304 3989242.18   316%  1381 15044s
 10750  6963 3979995.28   26  309 957921.304 3979995.28   315%  1381 15086s
 10755  6962 3771475.41   27  206 957921.304 3979894.33   315%  1383 15129s
 10760  6969 3973695.25   27  298 957921.304 3973695.25   315%  1384 15167s
 10765  6971 3964458.14   28  287 957921.304 3964458.14   314%  1385 15200s
 10770  6977 2056597.86   28  202 957921.304 3956103.29   313%  1388 15248s
 10777  6980 3940838.08   29  299 957921.304 3948912.16   312%  1389 15284s
 10785  6977 3935518.49   30  292 957921.304 3948912.16   312%  1391 15355s
 10789  6986 3720542.36   30  177 957921.304 3948912.16   312%  1392 15387s
 10795  6992 3867127.34   31  278 957921.304 3948912.16   312%  1393 15415s
 10803  6995 3796786.99   31  194 957921.304 3948912.16   312%  1395 15447s
 10812  7001 3854534.07   32  274 957921.304 3948912.16   312%  1396 15479s
 10822  7009 3837905.47   33  226 957921.304 3948912.16   312%  1397 15511s
 10831  7016 3831888.98   34  225 957921.304 3948912.16   312%  1399 15554s
 10843  7018 3811859.23   35  215 957921.304 3948912.16   312%  1402 15589s
 10855  7028 3792808.91   36  235 957921.304 3948912.16   312%  1404 15620s
 10870  7033 3784150.05   37  226 957921.304 3948912.16   312%  1404 15663s
 10888  7048 1802296.18   38  194 957921.304 3948912.16   312%  1406 15715s
 10905  7058 3737518.20   39  215 957921.304 3948912.16   312%  1407 15749s
 10931  7069 3709729.36   41  166 957921.304 3948912.16   312%  1408 15843s
 10958  7094 3529802.70   41  230 957921.304 3948912.16   312%  1408 15882s
 10987  7106 3690655.00   43  160 957921.304 3948912.16   312%  1409 15940s
 11021  7128 3054764.42   43  156 957921.304 3948912.16   312%  1409 15972s
 11062  7158 3654518.85   46  159 957921.304 3948912.16   312%  1408 16063s
 11103  7185 2556345.56   46  141 957921.304 3948912.16   312%  1407 16114s
 11155  7209 3648375.52   48  156 957921.304 3948912.16   312%  1406 16148s
 11211  7234 3615394.13   51  142 957921.304 3948912.16   312%  1403 16176s
 11279  7261 3580221.54   55  132 957921.304 3948912.16   312%  1399 16206s
 11329  7282 3547796.62   56  121 957921.304 3937266.74   311%  1397 16241s
 11389  7292 3499614.32   61  119 957921.304 3937266.74   311%  1395 16281s
 11452  7302 3481954.45   65  123 957921.304 3937266.74   311%  1392 16318s
 11502  7317 3431779.55   68  146 957921.304 3937266.74   311%  1391 16362s
 11552  7338 3406916.92   70  131 957921.304 3937266.74   311%  1391 16398s
 11609  7350 3372596.80   73  152 957921.304 3937266.74   311%  1389 16435s
 11672  7356 2862474.96   76  127 957921.304 3937266.74   311%  1387 16491s
 11744  7371 3109180.93   80  102 957921.304 3937266.74   311%  1384 16537s
 11777  7388 3076046.96   83  138 957921.304 3937266.74   311%  1385 16584s
 11809  7406 3059810.00   86  136 957921.304 3937266.74   311%  1386 16636s
 11875  7445 2981347.81   90  109 957921.304 3937266.74   311%  1386 16686s
 11908  7460 2986213.62   94   92 957921.304 3937266.74   311%  1388 16745s
 11942  7478 2966018.21   99   98 957921.304 3937266.74   311%  1393 16801s
 11988  7500 2905211.51  103   93 957921.304 3937266.74   311%  1397 16859s
 12056  7525 2794448.19  108  110 957921.304 3937266.74   311%  1396 16912s
 12107  7555 2506681.90  117   97 957921.304 3937266.74   311%  1398 16978s
 12254  7627 2440209.40  133   93 957921.304 3937266.74   311%  1392 17029s
 12403  7682 2256684.57  154   99 957921.304 3937266.74   311%  1384 17083s
 12574  7722 1514112.25  202   68 957921.304 3920556.88   309%  1375 17144s
 12691  7723 2829150.98   29  142 957921.304 3920550.04   309%  1372 17255s
 12852  7795 3194102.28   33  107 957921.304 3920550.04   309%  1365 17349s
 13022  7874 2525721.54   41   87 957921.304 3892869.27   306%  1356 17773s
 13162  7905 3167332.93   30  145 957921.304 3884303.85   305%  1349 17887s
 13353  8003 2488955.37   73   82 957921.304 3834351.40   300%  1340 17995s
 13609  8099 3564780.15   37  235 957921.304 3825019.02   299%  1326 18101s
 13722  8158 2363121.58   57  132 957921.304 3824102.65   299%  1324 18223s
 13876  8189 3666585.62   36  156 957921.304 3813728.16   298%  1320 18328s
 13953  8207 2727089.38   45  128 957921.304 3800350.49   297%  1321 18450s
 14067  8271 1347653.46   30  151 957921.304 3788498.65   295%  1322 18584s
 14203  8327 1626205.16   43  146 957921.304 3783098.81   295%  1321 18723s
 14371  8376 2260728.40   41  164 957921.304 3781930.95   295%  1319 18850s
 14450  8393 3751999.17   42  129 957921.304 3773874.87   294%  1316 18994s
 14541  8439 2774540.68   51  149 957921.304 3771427.40   294%  1321 19156s
 14737  8518 1472210.12   33  141 957921.304 3765984.79   293%  1317 19311s
 14914  8584 3229670.63   39  121 957921.304 3763116.07   293%  1314 19450s
 15205  8719 2013702.05   30  165 957921.304 3760192.90   293%  1302 19627s
 15485  8803 3358193.09   35  112 957921.304 3755868.44   292%  1296 19813s
 15687  8847 3309797.23   43  130 957921.304 3745827.66   291%  1293 20182s
 15888  8942 3179501.01   46  130 957921.304 3745684.13   291%  1288 20366s
 16195  9104 3624840.22   40  123 957921.304 3733965.20   290%  1277 20508s
 16529  9245 3070293.91   50  125 957921.304 3733965.20   290%  1268 20647s
 16773  9366 2875672.03   64  100 957921.304 3733965.20   290%  1268 20795s
 17039  9489 2184997.29   83  109 957921.304 3718559.32   288%  1268 20942s
 17263  9587 2768829.43   65  134 957921.304 3716093.45   288%  1266 21106s
 17570  9739 3447212.57   31  178 957921.304 3708329.74   287%  1263 21271s
 18005  9934 2777966.11   42   66 957921.304 3702786.61   287%  1253 21543s
 18257  9984 2779377.84   42   84 957921.304 3692401.09   285%  1255 21725s
 18658 10122 3078584.52   40  209 957921.304 3686821.23   285%  1249 21907s
H18782  9846                    957921.30404 3686821.23   285%  1246 21907s
 19038  9980 1345804.21   99   50 957921.304 3685331.83   285%  1246 22096s
 19569 10153 2887415.78   49   83 957921.304 3676539.65   284%  1237 22298s
 19996 10313 3283436.94   41  146 957921.304 3666866.25   283%  1232 22497s
 20549 10573 2415287.25   61  131 957921.304 3666110.29   283%  1218 22708s
 21296 10941 2677902.17   55  202 957921.304 3659896.06   282%  1197 25387s
 21298 10942 1162090.38   52  127 957921.304 3659896.06   282%  1197 25399s
 21299 10943 3631888.23   34  183 957921.304 3659896.06   282%  1197 25412s
 21300 10944 1419946.27  152  245 957921.304 3659896.06   282%  1197 25418s
 21301 10944 1559340.51   88  224 957921.304 3659896.06   282%  1197 25423s
 21302 10945 1922587.21  112  242 957921.304 3659896.06   282%  1197 25433s
 21303 10946 2887881.51   66  251 957921.304 3659896.06   282%  1197 25440s
 21304 10946 2742228.22   77  229 957921.304 3659896.06   282%  1197 25448s
 21305 10947 1383366.94   97  233 957921.304 3659896.06   282%  1197 25453s
 21306 10948 2710432.90   83  261 957921.304 3659896.06   282%  1197 25459s
 21307 10948 3155567.19   36  243 957921.304 3659896.06   282%  1197 25511s
 21308 10949 1962908.36  133  272 957921.304 3659896.06   282%  1197 25516s
 21309 10950 2783382.43   70  282 957921.304 3659896.06   282%  1197 25535s
 21310 10950 3092042.18   38  278 957921.304 3586489.97   274%  1197 25586s
 21312 10952 3458615.65   47  298 957921.304 3581427.02   274%  1196 25610s
 21313 10952 2774932.43   71  289 957921.304 3561596.27   272%  1196 25650s
 21315 10954 2926500.38   70  292 957921.304 3553187.42   271%  1196 25675s
 21316 10954 3147536.60   36  293 957921.304 3544715.44   270%  1196 25724s
 21317 10955 1438353.13  116  317 957921.304 3532126.62   269%  1196 25728s
 21318 10956 1855709.94  136  321 957921.304 3527185.12   268%  1196 25730s
 21320 10957 1771915.54   48  342 957921.304 3520238.23   267%  1196 25753s
 21321 10958 3179234.68   55  334 957921.304 3511532.05   267%  1196 25800s
 21322 10958 1519801.73   54  330 957921.304 3508897.46   266%  1196 25823s
 21323 10959 1780256.46   85  333 957921.304 3507068.10   266%  1196 25867s
 21324 10960 1996457.24   76  349 957921.304 3504819.44   266%  1196 25892s
 21325 10960 1288680.52  109  313 957921.304 3491646.50   265%  1196 25936s
 21327 10962 1906904.98   96  338 957921.304 3485579.02   264%  1196 25960s
 21328 10962 1869392.84  130  360 957921.304 3476250.10   263%  1196 26006s
 21330 10964 3468090.45   31  339 957921.304 3468090.45   262%  1195 26029s
 21331 10964 1946904.97   37  307 957921.304 3358206.49   251%  1195 26079s
 21332 10965 1322578.92   41  308 957921.304 3351852.50   250%  1195 26081s
 21334 10966 1502518.44  118  309 957921.304 3346484.81   249%  1195 26106s
 21335 10967 2139099.27  106  302 957921.304 3319187.94   246%  1195 26150s
 21337 10968 1692022.21   43  328 957921.304 3312428.70   246%  1195 26176s
 21338 10969 2675347.53   36  325 957921.304 3308248.09   245%  1195 26218s
 21339 10970 2653404.31   84  329 957921.304 3304146.02   245%  1195 26221s
 21340 10970 1999251.72   52  322 957921.304 3302695.06   245%  1195 26240s
 21341 10971 3300283.89   46  328 957921.304 3300283.89   245%  1195 26262s
 21342 10972 3299905.63   53  347 957921.304 3299905.63   244%  1195 26280s
 21343 10972 1632270.92   92  339 957921.304 3292600.96   244%  1195 26307s
 21344 10973 1445854.52  126  333 957921.304 3291585.81   244%  1195 26328s
 21345 10974 3236571.97   33  325 957921.304 3288715.54   243%  1195 26347s
 21346 10974 1467007.28   63  332 957921.304 3286055.10   243%  1195 26367s
 21347 10975 1864809.60   49  324 957921.304 3283501.14   243%  1194 26407s
 21348 10976 1779404.94  129  323 957921.304 3281225.11   243%  1194 26425s
 21349 10976 1687078.08   57  309 957921.304 3248089.40   239%  1194 26457s
 21350 10977 1983910.08   59  316 957921.304 3246899.01   239%  1194 26470s
 21351 10978 1324187.46  153  302 957921.304 3245121.97   239%  1194 26501s
 21353 10979 1989034.97   68  340 957921.304 3237609.41   238%  1194 26521s
 21354 10980 1787858.31   44  341 957921.304 3232656.63   237%  1194 26556s
 21356 10981 1640179.70  144  330 957921.304 3228795.58   237%  1194 26573s
 21357 10982 3228052.74   35  342 957921.304 3228052.74   237%  1194 26604s
 21358 10982 2768407.16   97  354 957921.304 3226004.05   237%  1194 26620s
 21359 10983 2295231.22   58  344 957921.304 3223883.09   237%  1194 26652s
 21361 10984 2654630.94   88  360 957921.304 3211502.61   235%  1194 26669s
 21362 10985 2503701.48   54  375 957921.304 3208735.73   235%  1194 26702s
 21363 10986 2082267.81   63  362 957921.304 3207864.08   235%  1194 26720s
 21364 10986 1448428.48   69  365 957921.304 3206864.85   235%  1194 26753s
 21365 10987 1347507.75   31  382 957921.304 3206642.68   235%  1193 26769s
 21366 10988 1362620.20   44  377 957921.304 3204102.80   234%  1193 26789s
 21367 10988 2330351.84   46  353 957921.304 3201359.76   234%  1193 26804s
 21368 10989 1827472.69   78  351 957921.304 3196580.49   234%  1193 26823s
 21369 10990 1332991.23   84  369 957921.304 3195944.70   234%  1193 26839s
 21370 10990 3188886.08   34  349 957921.304 3188886.08   233%  1193 26857s
 21371 10991 1580385.51   71  371 957921.304 3188002.48   233%  1193 26874s
 21372 10992 2820971.06  115  357 957921.304 3183874.47   232%  1193 26911s
 21373 10992 2723078.91   53  366 957921.304 3182711.02   232%  1193 26927s
 21374 10993 1316157.93   45  349 957921.304 3182240.93   232%  1193 26946s
 21375 10994 2799599.11   85  360 957921.304 3182191.69   232%  1193 26962s
 21376 10994 1565394.90   42  347 957921.304 3181527.16   232%  1193 26980s
 21377 10995 1257558.25  136  371 957921.304 3180174.65   232%  1193 26997s
 21378 10996 1651568.48   84  363 957921.304 3175955.84   232%  1193 27015s
 21379 10996 1575001.80  128  358 957921.304 3175598.40   232%  1193 27030s
 21380 10997 3174784.68   45  364 957921.304 3174784.68   231%  1193 27048s
 21381 10998 2881113.27   49  375 957921.304 3174632.60   231%  1193 27066s
 21382 10998 2481271.55   39  375 957921.304 3174493.41   231%  1192 27082s
 21383 10999 2603743.82   44  380 957921.304 3174464.90   231%  1192 27098s
 21384 11000 2571084.07   58  375 957921.304 3172991.58   231%  1192 27117s
 21385 11000 2200742.03   98  369 957921.304 3172697.38   231%  1192 27133s
 21386 11001 2044142.81   84  364 957921.304 3172611.48   231%  1192 27151s
 21387 11002 1695780.42   74  376 957921.304 3172476.44   231%  1192 27168s
 21388 11002 2574401.39   53  378 957921.304 3171807.39   231%  1192 27185s
 21389 11003 1438312.89   53  382 957921.304 3171577.67   231%  1192 27201s
 21390 11004 1456477.13  111  387 957921.304 3171064.51   231%  1192 27218s
 21391 11004 1748057.87   56  392 957921.304 3170745.24   231%  1192 27234s
 21392 11005 2634794.16   91  385 957921.304 3169490.07   231%  1192 27253s
 21393 11006 3136632.95   63  369 957921.304 3169024.98   231%  1192 27271s
 21394 11006 1864393.09   98  368 957921.304 3168496.74   231%  1192 27296s
 21395 11007 1280419.97   72  370 957921.304 3168391.95   231%  1192 27312s
 21396 11008 2677902.17   55  371 957921.304 3167396.83   231%  1192 27331s
 21397 11008 1951479.68   80  385 957921.304 3167105.99   231%  1192 27348s
 21398 11009 1162090.38   52  367 957921.304 3165040.94   230%  1192 27366s
 21399 11010 3164840.40   34  381 957921.304 3164840.40   230%  1192 27381s
 21400 11010 1419946.27  152  390 957921.304 3162187.34   230%  1191 27423s
 21401 11011 1559340.51   88  396 957921.304 3162064.62   230%  1191 27439s
 21402 11012 1922587.21  112  386 957921.304 3155145.41   229%  1191 27467s
 21403 11012 2887881.51   66  384 957921.304 3155075.54   229%  1191 27482s
 21404 11013 2742228.22   77  383 957921.304 3153666.24   229%  1191 27503s
 21405 11014 1383366.94   97  373 957921.304 3153482.68   229%  1191 27521s
 21406 11014 2710432.90   83  385 957921.304 3148661.72   229%  1191 27543s
 21407 11015 3148234.95   36  376 957921.304 3148234.95   229%  1191 27561s
 21408 11016 1962908.36  133  376 957921.304 3146160.58   228%  1191 27579s
 21409 11016 2783382.43   70  382 957921.304 3145814.97   228%  1191 27596s
 21410 11017 3092042.18   38  384 957921.304 3144278.50   228%  1191 27617s
 21411 11018 1733964.72   67  387 957921.304 3144030.48   228%  1191 27636s
 21412 11018 3143156.84   47  372 957921.304 3143156.84   228%  1191 27654s
 21413 11019 2774932.43   71  381 957921.304 3142529.18   228%  1191 27673s
 21414 11020 2872365.50   33  375 957921.304 3139587.30   228%  1191 27693s
 21415 11020 2926500.38   70  378 957921.304 3139182.48   228%  1191 27715s
 21416 11021 3136453.98   36  365 957921.304 3136453.98   227%  1191 27737s
 21417 11022 1438353.13  116  382 957921.304 3135906.42   227%  1191 27755s
 21418 11022 1855709.94  136  380 957921.304 3135764.01   227%  1190 27773s
 21419 11023 3135559.39   57  386 957921.304 3135559.39   227%  1190 27790s
 21420 11024 1771915.54   48  387 957921.304 3135044.39   227%  1190 27807s
 21421 11024 3134958.42   55  388 957921.304 3134958.42   227%  1190 27823s
 21422 11025 1519801.73   54  385 957921.304 3134704.99   227%  1190 27842s
 21423 11026 1780256.46   85  374 957921.304 3134467.10   227%  1190 27859s
 21424 11026 1996457.24   76  375 957921.304 3133330.08   227%  1190 27879s
 21425 11027 1288680.52  109  371 957921.304 3133236.32   227%  1190 27897s
 21426 11028 1827859.06   66  373 957921.304 3133091.75   227%  1190 27915s
 21427 11028 1906904.98   96  377 957921.304 3133091.07   227%  1190 27932s
 21428 11029 1869392.84  130  376 957921.304 3131354.59   227%  1190 27950s
 21429 11030 3130502.66   35  373 957921.304 3130502.66   227%  1190 27966s
 21430 11030 3129959.18   31  375 957921.304 3129959.18   227%  1190 27994s
 21431 11031 1946904.97   37  382 957921.304 3129286.15   227%  1190 28011s
 21432 11032 1322578.92   41  379 957921.304 3129166.53   227%  1190 28029s
 21433 11032 1305324.15  151  381 957921.304 3129127.84   227%  1190 28045s
 21434 11033 1502518.44  118  385 957921.304 3128278.06   227%  1190 28062s
 21435 11034 2139099.27  106  376 957921.304 3127714.07   227%  1190 28078s
 21436 11034 3127096.01   47  376 957921.304 3127096.01   226%  1189 28093s
 21437 11035 1692022.21   43  380 957921.304 3126800.02   226%  1189 28110s
 21438 11036 2675347.53   36  397 957921.304 3126173.67   226%  1189 28129s
 21439 11036 2653404.31   84  397 957921.304 3125915.06   226%  1189 28144s
 21440 11037 1999251.72   52  404 957921.304 3125086.72   226%  1189 28166s
 21441 11038 3124883.93   46  398 957921.304 3124883.93   226%  1189 28183s
 21442 11038 3107196.13   53  395 957921.304 3107196.13   224%  1189 28201s
 21443 11039 1632270.92   92  386 957921.304 3105314.31   224%  1189 28220s
 21444 11040 1445854.52  126  387 957921.304 3104055.55   224%  1189 28237s
 21445 11040 3102884.16   33  396 957921.304 3102884.16   224%  1189 28254s
 21446 11041 1467007.28   63  392 957921.304 3102579.12   224%  1189 28271s
 21447 11042 1864809.60   49  404 957921.304 3102012.77   224%  1189 28287s
 21448 11042 1779404.94  129  392 957921.304 3101133.32   224%  1189 28305s
 21449 11043 1687078.08   57  391 957921.304 3100914.03   224%  1189 28321s
 21450 11044 1983910.08   59  384 957921.304 3100884.15   224%  1189 28338s
 21451 11044 1324187.46  153  383 957921.304 3100818.76   224%  1189 28353s
 21452 11045 1202716.27  141  401 957921.304 3100643.00   224%  1189 28371s
 21453 11046 1989034.97   68  403 957921.304 3100548.72   224%  1189 28388s
 21454 11046 1787858.31   44  392 957921.304 3100463.70   224%  1188 28406s
 21455 11047 1913447.91  119  393 957921.304 3100456.10   224%  1188 28420s
 21456 11048 1640179.70  144  399 957921.304 3099938.83   224%  1188 28439s
 21457 11048 3099863.57   35  398 957921.304 3099863.57   224%  1188 28455s
 21458 11049 2768407.16   97  393 957921.304 3099087.12   224%  1188 28471s
 21459 11050 2295231.22   58  393 957921.304 3098890.06   224%  1188 28487s
 21460 11050 3098765.14   41  398 957921.304 3098765.14   223%  1188 28507s
 21461 11051 2654630.94   88  398 957921.304 3098741.97   223%  1188 28523s
 21462 11052 2503701.48   54  393 957921.304 3098381.85   223%  1188 28540s
 21463 11052 2082267.81   63  398 957921.304 3098168.68   223%  1188 28557s
 21464 11053 1448428.48   69  393 957921.304 3097987.61   223%  1188 28575s
 21465 11054 1347507.75   31  402 957921.304 3097929.11   223%  1188 28591s
 21466 11054 1362620.20   44  400 957921.304 3097757.16   223%  1188 28608s
 21467 11055 2330351.84   46  401 957921.304 3097757.16   223%  1188 28624s
 21468 11056 1827472.69   78  402 957921.304 3097711.54   223%  1188 28640s
 21469 11056 1332991.23   84  400 957921.304 3097644.12   223%  1188 28656s
 21470 11057 3097575.43   34  403 957921.304 3097575.43   223%  1188 28675s
 21471 11058 1580385.51   71  407 957921.304 3097453.14   223%  1188 28691s
 21472 11058 2820971.06  115  403 957921.304 3097241.59   223%  1187 28709s
 21473 11059 2723078.91   53  404 957921.304 3097083.17   223%  1187 28723s
 21474 11060 1316157.93   45  399 957921.304 3095405.85   223%  1187 28740s
 21475 11060 2799599.11   85  395 957921.304 3095300.32   223%  1187 28756s
 21476 11061 1565394.90   42  397 957921.304 3095095.36   223%  1187 28776s
 21477 11062 1257558.25  136  401 957921.304 3095047.30   223%  1187 28795s
 21478 11062 1651568.48   84  403 957921.304 3095026.23   223%  1187 28810s
 21479 11063 1575001.80  128  405 957921.304 3095025.90   223%  1187 28827s
 21480 11064 3094647.10   45  402 957921.304 3094647.10   223%  1187 28845s
 21481 11064 2881113.27   49  405 957921.304 3094640.40   223%  1187 28859s
 21482 11065 2481271.55   39  403 957921.304 3094618.93   223%  1187 28874s
 21483 11066 2603743.82   44  400 957921.304 3094617.09   223%  1187 28888s
 21484 11066 2571084.07   58  403 957921.304 3094606.10   223%  1187 28903s
 21485 11067 2200742.03   98  403 957921.304 3094603.83   223%  1187 28918s
 21486 11068 2044142.81   84  404 957921.304 3094515.95   223%  1187 28936s
 21487 11068 1695780.42   74  405 957921.304 3094515.95   223%  1187 28953s
 21488 11069 2574401.39   53  407 957921.304 3094503.76   223%  1187 28966s
 21489 11070 1438312.89   53  409 957921.304 3094503.09   223%  1187 28983s
 21490 11070 1456477.13  111  412 957921.304 3094435.16   223%  1187 28998s
 21491 11071 1748057.87   56  408 957921.304 3094338.98   223%  1186 29014s
 21492 11072 2634794.16   91  413 957921.304 3094298.46   223%  1186 29031s
 21493 11072 3094286.37   63  411 957921.304 3094286.37   223%  1186 29047s
 21494 11073 1864393.09   98  413 957921.304 3094236.26   223%  1186 29061s
 21495 11074 1280419.97   72  413 957921.304 3094235.74   223%  1186 29078s
 21496 11074 2677902.17   55  412 957921.304 3094197.76   223%  1186 29096s
 21497 11075 1951479.68   80  412 957921.304 3094197.53   223%  1186 29115s
 21498 11076 1162090.38   52  393 957921.304 3091714.55   223%  1186 29135s
 21499 11076 3091344.33   34  384 957921.304 3091344.33   223%  1186 29154s
 21500 11077 1419946.27  152  384 957921.304 3091215.79   223%  1186 29175s
 21501 11078 1559340.51   88  388 957921.304 3091178.10   223%  1186 29193s
 21502 11078 1922587.21  112  387 957921.304 3091092.52   223%  1186 29211s
 21503 11079 2887881.51   66  390 957921.304 3091007.64   223%  1186 29227s
 21504 11080 2742228.22   77  378 957921.304 3087727.57   222%  1186 29248s
 21505 11080 1383366.94   97  380 957921.304 3087324.04   222%  1186 29265s
 21506 11081 2710432.90   83  379 957921.304 3087255.71   222%  1186 29283s
 21507 11082 3087243.92   36  394 957921.304 3087243.92   222%  1186 29302s
 21508 11082 1962908.36  133  383 957921.304 3085178.84   222%  1186 29321s
 21509 11083 2783382.43   70  396 957921.304 3084477.57   222%  1185 29341s
 21510 11084 3083697.21   38  398 957921.304 3083697.21   222%  1185 29361s
 21511 11084 1733964.72   67  403 957921.304 3083684.66   222%  1185 29378s
 21512 11085 3083648.26   47  405 957921.304 3083648.26   222%  1185 29398s
 21513 11086 2774932.43   71  404 957921.304 3083569.20   222%  1185 29415s
 21514 11086 2872365.50   33  404 957921.304 3081927.51   222%  1185 29431s
 21515 11087 2926500.38   70  384 957921.304 3081748.22   222%  1185 29448s
 21516 11088 3081218.21   36  413 957921.304 3081218.21   222%  1185 29472s
 21517 11088 1438353.13  116  399 957921.304 3081162.04   222%  1185 29491s
 21518 11089 1855709.94  136  406 957921.304 3080954.49   222%  1185 29520s
 21519 11090 3080954.49   57  406 957921.304 3080954.49   222%  1185 29608s
 21520 11093 3056072.58   32  384 957921.304 3080939.10   222%  1191 29716s
 21522 11097 3030756.14   33  371 957921.304 3053650.80   219%  1192 29829s
 21526 11099 3017901.02   34  366 957921.304 3030482.39   216%  1193 29941s
 21530 11102 2911725.91   34  340 957921.304 3022221.23   215%  1194 30038s
 21534 11105 3013763.21   35  403 957921.304 3019201.37   215%  1194 30118s
 21538 11107 2510898.93   35  365 957921.304 3019201.37   215%  1196 30219s
 21542 11111 2945082.32   36  403 957921.304 3013450.59   215%  1198 30287s
 21547 11111 2784019.15   36  346 957921.304 3010394.03   214%  1199 30352s
 21551 11111 2890021.21   37  349 957921.304 3007581.07   214%  1200 30419s
 21556 11117 2195872.31   37  236 957921.304 3007548.16   214%  1202 30484s
 21560 11120 2875551.77   38  335 957921.304 2970417.65   210%  1203 30526s
 21566 11118 2867506.48   38  300 957921.304 2970417.65   210%  1204 30572s
 21573 11127 2856109.67   39  317 957921.304 2970417.65   210%  1206 30634s
 21582 11132 2840386.07   40  326 957921.304 2970417.65   210%  1208 30693s
 21589 11136 2796362.75   40  299 957921.304 2970417.65   210%  1210 30737s
 21599 11139 2813535.19   41  244 957921.304 2970417.65   210%  1211 30787s
 21610 11143 2802697.22   42  305 957921.304 2970417.65   210%  1213 30833s
 21621 11152 2796020.22   43  289 957921.304 2970417.65   210%  1214 30905s
 21634 11160 2731386.35   44  231 957921.304 2970417.65   210%  1217 31156s
 21642 11164 2730948.18   45  233 957921.304 2970417.65   210%  1218 31201s
 21654 11167 2728941.66   46  243 957921.304 2970417.65   210%  1220 31243s
 21669 11169 2707678.39   47  289 957921.304 2970417.65   210%  1221 31291s
 21684 11172 2688999.18   48  277 957921.304 2970417.65   210%  1222 31355s
 21690 11178 2687551.24   49  270 957921.304 2970370.12   210%  1224 31420s
 21700 11183 2685971.36   50  266 957921.304 2970370.12   210%  1227 31495s
 21709 11191 2658453.63   52  269 957921.304 2970370.12   210%  1230 31562s
 21722 11197 2384656.75   55  227 957921.304 2970370.12   210%  1234 31629s
 21733 11201 2616157.00   57  248 957921.304 2970370.12   210%  1237 31694s
 21752 11215 2192868.09   59  227 957921.304 2970370.12   210%  1241 31760s
 21770 11231 2332184.48   62  233 957921.304 2970370.12   210%  1244 31825s
 21790 11238 2503323.19   65  247 957921.304 2970370.12   210%  1248 31897s
 21811 11249 2428976.24   68  186 957921.304 2970370.12   210%  1252 31959s
 21832 11263 2330083.34   71  164 957921.304 2970370.12   210%  1258 32034s
 21862 11270 2303343.74   75  160 957921.304 2970370.12   210%  1262 32097s
 21900 11289 2246829.10   79  163 957921.304 2970370.12   210%  1268 32200s
 21938 11302 2232674.65   81  165 957921.304 2970370.12   210%  1271 32280s
 21982 11323     cutoff   84      957921.304 2970370.12   210%  1277 32385s
 22031 11342 2133607.99   88  165 957921.304 2970370.12   210%  1282 32487s
 22063 11339 1579976.33   94  147 957921.304 2970370.12   210%  1288 32555s
 22108 11350 1300529.05  111  155 957921.304 2970370.12   210%  1291 32615s
 22183 11358 1199471.04  130  132 957921.304 2930718.25   206%  1294 32760s
 22247 11373 1849053.69   38  259 957921.304 2930718.25   206%  1298 32844s
 22316 11397 1643371.40   54  168 957921.304 2911602.80   204%  1300 32935s
 22353 11404 2809336.16   38  259 957921.304 2911602.80   204%  1303 33013s
 22398 11425 2489120.63   42  274 957921.304 2911602.80   204%  1308 33099s
 22468 11450 2457268.60   43  285 957921.304 2911602.80   204%  1310 33182s
 22552 11472 2411009.84   51  288 957921.304 2911602.80   204%  1313 33266s
 22635 11507 2248202.07   62  284 957921.304 2911602.80   204%  1316 33356s
 22746 11567 1393094.38   77  187 957921.304 2896435.59   202%  1317 33457s
 22889 11640 2246418.86   37  289 957921.304 2888450.22   202%  1317 33596s
 22953 11653 2034976.12   38  267 957921.304 2875543.72   200%  1323 33747s
 23109 11735 2654208.96   40  326 957921.304 2867965.49   199%  1325 33846s
 23214 11790 2498718.60   47  282 957921.304 2867965.49   199%  1327 33949s
 23294 11824 1690338.74   58  254 957921.304 2846584.35   197%  1331 34052s
 23341 11853 2612396.70   38  246 957921.304 2846584.35   197%  1336 34158s
 23439 11911 2531862.52   43  269 957921.304 2846584.35   197%  1340 34340s
 23600 12000 2482157.66   47  264 957921.304 2846584.35   197%  1342 34501s
 23673 12030 2368338.88   62  243 957921.304 2846584.35   197%  1351 34674s
 23810 12085 2198656.17   89  257 957921.304 2846584.35   197%  1357 34838s
 23904 12129 1951353.58  121  281 957921.304 2846584.35   197%  1365 35032s
 24098 12155 1178004.88  173  170 957921.304 2796355.56   192%  1368 35183s
 24235 12206 2273955.34   47  199 957921.304 2786584.20   191%  1373 35368s
 24510 12343 1751852.05   40  185 957921.304 2780586.27   190%  1374 35504s
 24553 12362 1870590.76   38  271 957921.304 2779824.21   190%  1379 35662s
 24668 12420 2209096.27   42  211 957921.304 2779824.21   190%  1386 35823s
 24741 12457 2130118.63   49  202 957921.304 2779824.21   190%  1396 35975s
 24840 12488 2104380.62   57  203 957921.304 2779824.21   190%  1406 36135s
 24995 12543 2077347.25   65  229 957921.304 2779824.21   190%  1416 36446s
 25235 12655     cutoff   75      957921.304 2779824.21   190%  1420 36693s
 25518 12795 1973496.02   91  230 957921.304 2779824.21   190%  1424 36892s
 25669 12860 1845074.87  109  233 957921.304 2754153.85   188%  1432 37163s
 25934 12971 2370694.35   42  207 957921.304 2751148.48   187%  1438 37375s
 26116 13055 2035782.18   51  125 957921.304 2739371.29   186%  1447 37601s
 26391 13178 2095542.26   54  105 957921.304 2737765.07   186%  1453 37807s
 26667 13308 2448601.73   56  264 957921.304 2728281.44   185%  1459 38118s
 26987 13419 1736082.21   42  317 957921.304 2720470.68   184%  1466 38464s
 27245 13516 2328587.22   56  253 957921.304 2716741.30   184%  1474 38792s
 27409 13578 1915034.75   53  131 957921.304 2711952.65   183%  1483 39110s
 27741 13724 2409494.01   44  227 957921.304 2709708.86   183%  1489 39371s
 28010 13865 2446687.51   51  177 957921.304 2706663.66   183%  1499 39638s
 28295 14003 1487959.42   45  251 957921.304 2701684.24   182%  1508 39979s
 28594 14090 2473530.94   44  178 957921.304 2701684.24   182%  1521 40307s
 28819 14174 2078263.91   63  102 957921.304 2697595.19   182%  1530 40739s
 29326 14361 2169726.02   87  214 957921.304 2673382.10   179%  1529 41168s
 29821 14572 1430804.54  222  205 957921.304 2665680.06   178%  1529 41570s
 30207 14718 2129941.11   76  213 957921.304 2656327.68   177%  1535 42033s
 30726 14974 1716128.54   39  157 957921.304 2652707.00   177%  1538 42471s
 31161 15138 1797930.85   51  195 957921.304 2645235.35   176%  1544 42990s
 31705 15406 2360236.55   51  296 957921.304 2639901.99   176%  1545 43388s
 31946 15504 1728586.89  101  218 957921.304 2633888.44   175%  1543 43942s
 32610 15836 1796410.79   57   64 957921.304 2628047.17   174%  1541 44400s
 33124 16008 2492823.62   47  278 957921.304 2620194.08   174%  1546 44765s
 33628 16223 1629421.44   47  156 957921.304 2616477.88   173%  1549 45205s
 34138 16450 1735455.58   73  103 957921.304 2612394.03   173%  1557 45583s
 34584 16580 2123093.41   72  218 957921.304 2608863.26   172%  1562 46063s
 35064 16774 2330205.68   45  229 957921.304 2603467.98   172%  1568 46545s
 35532 16951 1178727.21   58  116 957921.304 2594086.83   171%  1570 47028s
 36038 17169 1512816.62   47  217 957921.304 2586754.43   170%  1572 47554s
 36551 17392 1984173.29   50  251 957921.304 2581646.93   170%  1577 47971s
 36959 17581 2146587.50   51  171 957921.304 2572871.76   169%  1583 48344s
 37438 17766 1021713.06   47  112 957921.304 2569280.65   168%  1585 48737s
 37910 17972 1707860.24   59  201 957921.304 2566782.21   168%  1588 49154s
 38433 18190 1673694.17   54  239 957921.304 2563668.70   168%  1591 49658s
 38870 18381 1256736.60   93  168 957921.304 2558722.87   167%  1595 50123s
 39301 18530 1978578.57   82  194 957921.304 2556027.51   167%  1600 50639s
 39808 18706 1733915.60   65  213 957921.304 2554595.07   167%  1602 50995s
 40323 18901 1327568.79   70  151 957921.304 2550168.46   166%  1606 51400s
 41001 19203 2342008.52   49  181 957921.304 2544266.60   166%  1600 51785s
 41420 19339 2380823.93   54  235 957921.304 2542311.74   165%  1604 52283s
 41865 19448 2258784.13   49  178 957921.304 2537505.60   165%  1608 52783s
 42383 19636 2332353.30   58  290 957921.304 2534197.99   165%  1607 53296s
 42805 19827 2320697.50   47  261 957921.304 2532383.79   164%  1611 53783s
 43194 19991 1952928.94  113  183 957921.304 2530854.40   164%  1614 54199s
 43777 20232 1801959.56   46  137 957921.304 2527029.91   164%  1614 54621s
 44130 20348 1690253.70   61  175 957921.304 2525351.37   164%  1618 54934s
 44512 20494 1962742.76   50  172 957921.304 2519848.02   163%  1620 55363s
 44944 20672 2293382.35   42  190 957921.304 2516377.33   163%  1622 55714s
 45464 20939 2457379.99   51  131 957921.304 2513911.14   162%  1622 56188s
 45986 21202 2063150.88   82  244 957921.304 2512019.77   162%  1621 56684s
 46384 21356 1857832.50  107  241 957921.304 2510743.43   162%  1622 57180s
 46942 21552 2354959.85   51  226 957921.304 2508479.65   162%  1620 57661s
 47414 21789 1250638.71   47  172 957921.304 2505637.85   162%  1621 58023s
 47807 21939 1768592.23   58  136 957921.304 2503803.09   161%  1622 58389s
 48150 22028 1874902.12   46  128 957921.304 2501953.77   161%  1625 58889s
 48724 22300 2247390.01   53  221 957921.304 2499058.37   161%  1624 59358s
 49055 22426 1350288.62   93  151 957921.304 2498044.48   161%  1625 59818s
 49647 22663 2295948.01   46  190 957921.304 2493979.88   160%  1622 60265s
 50114 22858 2163950.15   91  241 957921.304 2493131.32   160%  1622 60729s
 50691 23107 1876130.65   56  276 957921.304 2491487.31   160%  1619 61135s
 51244 23342 2248392.30   72  232 957921.304 2488916.04   160%  1617 61457s
 51667 23462 2072584.16   57  195 957921.304 2488616.59   160%  1619 61872s
 52081 23620     cutoff   53      957921.304 2486847.27   160%  1621 62277s
 52409 23754 1127390.47   61  137 957921.304 2485129.21   159%  1625 62752s
 52795 23896     cutoff   54      957921.304 2482521.40   159%  1629 63166s
 53206 23987 1794152.92   70  171 957921.304 2480569.78   159%  1630 63504s
 53704 24186 1572542.41   52  246 957921.304 2478929.91   159%  1630 63950s
 54182 24375 2144176.75   54  218 957921.304 2475546.41   158%  1631 64340s
 54623 24543 2178885.47   57  232 957921.304 2474439.55   158%  1632 64703s
 54983 24773 2050462.23   61  266 957921.304 2472537.13   158%  1634 65073s
 55497 25175 2283253.50   47  175 957921.304 2471609.56   158%  1633 65417s
 56035 25567 2267923.46   48  253 957921.304 2471184.18   158%  1633 65817s
 56615 25936 2252201.47   54  199 957921.304 2468135.25   158%  1630 66270s
 57020 26226 1909720.67   54  228 957921.304 2467235.28   158%  1629 66681s
 57460 26498 2153759.90   61  243 957921.304 2465034.78   157%  1630 67082s
 57978 26884     cutoff   55      957921.304 2463810.14   157%  1629 67492s
 58547 27297     cutoff   70      957921.304 2461911.27   157%  1625 67913s
 59003 27661 1608711.38   60  225 957921.304 2461049.22   157%  1625 68327s
 59500 28034 1218837.79   50  222 957921.304 2460479.00   157%  1624 68632s
 59864 28259 2444867.79   46  245 957921.304 2457775.01   157%  1625 69058s
 60164 28451 1736596.71   89  159 957921.304 2457268.60   157%  1626 69424s
 60605 28772 2150294.96   63  212 957921.304 2456136.66   156%  1625 69794s
 61037 29067 1440503.05   70  125 957921.304 2454593.18   156%  1626 70121s
 61500 29345 1781556.35   95  177 957921.304 2453660.67   156%  1626 70511s
 62004 29770 1898245.77  100  183 957921.304 2452907.39   156%  1624 70907s
 62495 30125 1434081.27   56  273 957921.304 2450653.38   156%  1622 71230s
 62864 30348 2101582.47   54  165 957921.304 2449386.89   156%  1624 71592s
 63142 30564     cutoff   72      957921.304 2448831.45   156%  1626 71980s
 63645 30941 2342014.30   58  223 957921.304 2447878.84   156%  1623 72322s
 63997 31180 2179933.82   73  247 957921.304 2446928.62   155%  1625 72709s
 64490 31556 2093253.87   66  142 957921.304 2446261.56   155%  1625 73104s
 64968 31944 1451134.76   49  129 957921.304 2444243.41   155%  1625 73448s
 65472 32283 2120197.03   52  156 957921.304 2443233.73   155%  1622 73828s
 65940 32655 1574423.79   56  221 957921.304 2441852.09   155%  1621 74146s
 66392 33022 2371860.19   50  273 957921.304 2441851.04   155%  1621 74373s
 66523 33095 2093943.97   73  292 957921.304 2440659.16   155%  1624 74686s
 66988 33417 1925476.68   57  239 957921.304 2439408.29   155%  1623 75020s
 67493 33781 1183054.95   57  149 957921.304 2437959.20   155%  1622 75378s
 67963 34101 1884705.47   51  201 957921.304 2436285.33   154%  1621 75810s
 68417 34401 2205013.68   53  139 957921.304 2435758.66   154%  1621 76084s
 68890 34715 1246711.79   53  110 957921.304 2434527.42   154%  1620 76437s
 69259 34982 1504936.82   66  133 957921.304 2433760.58   154%  1623 76818s
 69539 35110 2328372.69   54  269 957921.304 2433202.73   154%  1626 77177s
 69948 35326 2043589.64   64  224 957921.304 2433202.73   154%  1627 77548s
 70345 35639 1546833.77   77  140 957921.304 2433202.73   154%  1628 77974s
 70778 35916 1657989.68   96  188 957921.304 2431110.18   154%  1628 78311s
 71172 36201 2111701.30   55  151 957921.304 2429638.45   154%  1629 78623s
 71583 36481 1555839.42   69  133 957921.304 2428472.73   154%  1630 78987s
 72061 36734 1125176.35   63  170 957921.304 2426986.20   153%  1629 79348s
 72555 37093 1236388.01   55  152 957921.304 2425230.64   153%  1629 79630s
 73070 37455 1657730.95   74  172 957921.304 2422991.98   153%  1627 80027s
 73758 38006 1824886.45   90  266 957921.304 2421512.63   153%  1621 80428s
 74202 38366 1893834.18   59  215 957921.304 2420549.50   153%  1621 80739s
 74556 38607 1480886.20   85  177 957921.304 2420025.15   153%  1620 81107s
 75083 39001 2062465.73   66  180 957921.304 2418634.55   152%  1617 81450s
 75674 39449 2111355.88   59  194 957921.304 2417815.76   152%  1613 81805s
 75985 39653 1970359.14   78  184 957921.304 2417502.76   152%  1615 82160s
 76550 39984 2112979.44   57  212 957921.304 2415819.81   152%  1612 82490s
 77066 40317 1030774.77   61   75 957921.304 2414797.38   152%  1610 82783s
 77432 40589 2324307.13   44  164 957921.304 2413412.81   152%  1610 83054s
 77803 40871 1736483.77   54  190 957921.304 2412861.52   152%  1610 83404s
 78251 41110     cutoff   53      957921.304 2412291.11   152%  1610 83746s
 78575 41293 2135446.55   55  130 957921.304 2411009.84   152%  1610 84072s
 78866 41461     cutoff   48      957921.304 2410903.23   152%  1612 84427s
 79267 41738 2152647.96   57  192 957921.304 2409084.02   151%  1612 84782s
 79704 42045 2247251.79   53  226 957921.304 2408505.89   151%  1611 85135s
 80118 42364 2073568.93   40  165 957921.304 2407763.71   151%  1611 85485s
 80424 42556     cutoff   64      957921.304 2406555.07   151%  1612 85837s
 80986 42977 2161987.44   60  104 957921.304 2405587.92   151%  1609 86157s
 81530 43399 1978817.85   64  251 957921.304 2403841.90   151%  1605 86400s

Cutting planes:
  Gomory: 189
  Cover: 7
  Implied bound: 19
  Projected implied bound: 6
  Clique: 42
  MIR: 98
  StrongCG: 1
  Flow cover: 380
  Zero half: 18

Explored 81888 nodes (131377606 simplex iterations) in 86401.01 seconds
Thread count was 4 (of 16 available processors)

Solution count 10: 957921 957921 957921 ... 769167

Time limit reached
Warning: max constraint violation (1.4528e-03) exceeds tolerance
         (model may be infeasible or unbounded - try turning presolve off)
Best objective 9.579213040451e+05, best bound 2.403798171954e+06, gap 150.9390%

***
***  |- Calculation finished, timelimit reached 86,401.04 (86401.04) sec.))
***  |-----------------------------------------------------------------------------------------------------------------------
***
*****************************************************************************************************************************
#############################################################################################################################
###
### Results
###
### The objective of the solution is 957,921.304 (957921.304) and is feasible with a Gap of 1.5094
###
### Service 24 (WAF7) is operated by 3 vessels from type 18 (PMax25)
###  |- Vessel  1 has the path [100, 276, -1]
###  |  100 (DEHAM Out@288.0) - 276 (ESALG In@496.0/Out@515.0) - -1 (DUMMY_END Ziel-Service 24)
###  |- Vessel  2 has the path [101, 277, -1]
###  |  101 (DEHAM Out@456.0) - 277 (ESALG In@664.0/Out@683.0) - -1 (DUMMY_END Ziel-Service 24)
###  |- Vessel 13 has the path [104, 275, 201, 291, 202, 114, 278, -1]
###  |  104 (DKAAR Out@220.0) - 275 (ESALG In@328.0/Out@347.0) - 201 (MAPTM In@375.0/Out@396.0) - 291 (MAPTM In@379.0/Out@398
###  |  .0) - 202 (MAPTM In@406.0/Out@427.0) - 114 (ESALG In@452.0/Out@464.0) - 278 (ESALG In@832.0/Out@851.0) - -1 (DUMMY_EN
###  |  D Ziel-Service 24)
###  |   |- and carried Demand  18,   18.0 containers from 201 to 114
###  |   |- and carried Demand  52,  484.0 containers from 202 to 114
###  |   |- and carried Demand  53,   18.0 containers from 202 to 114
###  |   |- and carried Demand 119,  214.0 containers from 201 to 278
###  |   |- and carried Demand 120,   10.0 containers from 201 to 278
###  |   |- and carried Demand 121,  312.0 containers from 201 to 114
###  |   |- and carried Demand 122,   18.0 containers from 201 to 114
###  |   |- and carried Demand 132,  214.0 containers from 202 to 278
###  |   |- and carried Demand 133,   10.0 containers from 202 to 278
###  |   |- and carried Demand 134,  484.0 containers from 202 to 114
###  |   |- and carried Demand 135,   18.0 containers from 202 to 114
###  |   |- and carried Demand 138,  214.0 containers from 291 to 278
###  |   |- and carried Demand 139,   10.0 containers from 291 to 278
###  |   |- and carried Demand 140,  484.0 containers from 291 to 114
###  |   |- and carried Demand 141,   18.0 containers from 291 to 114
###  |
### Service 121 (SAE) is operated by 2 vessels from type 30 (PMax35)
###  |- Vessel 12 has the path [8, 302, -2]
###  |  8 (BEANR Out@570.0) - 302 (HNPCR In@1166.0/Out@1179.0) - -2 (DUMMY_END Ziel-Service 121)
###  |- Vessel 18 has the path [148, 315, 311, 301, -2]
###  |  148 (GBFXT Out@470.0) - 315 (USORF In@873.0/Out@881.0) - 311 (USMIA In@935.0/Out@943.0) - 301 (HNPCR In@998.0/Out@101
###  |  1.0) - -2 (DUMMY_END Ziel-Service 121)
###  |   |- and carried Demand 170,   10.0 containers from 311 to 301
###  |   |- and carried Demand 171,   75.0 containers from 315 to 301
###  |   |- and carried Demand 172,  114.0 containers from 315 to 301
###  |
### Service 177 (WCSA) is operated by 3 vessels from type 19 (PMax28)
###  |- Vessel  5 has the path [218, 133, 199, 290, 200, 112, 284, 45, 36, 240, 236, 0]
###  |  218 (NLRTM Out@92.0) - 133 (FRLEH In@111.0/Out@127.0) - 199 (MAPTM In@207.0/Out@228.0) - 290 (MAPTM In@211.0/Out@230.
###  |  0) - 200 (MAPTM In@238.0/Out@259.0) - 112 (ESALG In@284.0/Out@296.0) - 284 (GWOXB In@463.0/Out@542.0) - 45 (CMDLA In@
###  |  765.0/Out@811.0) - 36 (CLLQN In@1240.0/Out@1258.0) - 240 (PECLL In@1398.71/Out@1400.71) - 236 (PABLB In@1640.0/Out@16
###  |  52.0) - 0 (DUMMY_END Ziel-Service 177)
###  |   |- and carried Demand   6,   17.0 containers from 218 to 133
###  |   |- and carried Demand   7,  161.0 containers from 199 to  45
###  |   |- and carried Demand   8,  580.0 containers from 199 to 112
###  |   |- and carried Demand  45,  161.0 containers from 200 to  45
###  |   |- and carried Demand  46,  580.0 containers from 200 to 112
###  |   |- and carried Demand  80,  194.0 containers from  36 to 236
###  |   |- and carried Demand  81,   20.0 containers from  36 to 236
###  |   |- and carried Demand  83,    5.0 containers from  36 to 236
###  |   |- and carried Demand 117,  580.0 containers from 199 to 112
###  |   |- and carried Demand 131,   19.0 containers from 200 to 112
###  |   |- and carried Demand 144,  161.0 containers from 290 to  45
###  |   |- and carried Demand 145,  580.0 containers from 290 to 112
###  |- Vessel  7 has the path [221, 137, 203, 234, 0]
###  |  221 (NLRTM Out@428.0) - 137 (FRLEH In@447.0/Out@463.0) - 203 (MAPTM In@543.0/Out@564.0) - 234 (PABLB In@1304.0/Out@13
###  |  16.0) - 0 (DUMMY_END Ziel-Service 177)
###  |   |- and carried Demand  26,    6.0 containers from 221 to 137
###  |- Vessel  8 has the path [223, 138, 204, 235, 0]
###  |  223 (NLRTM Out@596.0) - 138 (FRLEH In@615.0/Out@631.0) - 204 (MAPTM In@711.0/Out@732.0) - 235 (PABLB In@1472.0/Out@14
###  |  84.0) - 0 (DUMMY_END Ziel-Service 177)
###  |
### Vessels not used in the solution: [3, 4, 6, 9, 10, 11, 14, 15, 16, 17]
###  |-----------------------------------------------------------------------------------------------------------------------
###
#############################################################################################################################

### Detialed variable overview

### All variables with value greater zero:
rho[24,18] = 1
rho[177,19] = 1
rho[121,30] = 1
eta[24,18,1] = 1
eta[24,18,2] = 1
eta[24,18,3] = 1
eta[177,19,1] = 1
eta[177,19,2] = 1
eta[177,19,3] = 1
eta[121,30,1] = 1
eta[121,30,2] = 1
y[1,276,-1] = 1
y[1,100,276] = 1
y[2,101,277] = 1
y[2,277,-1] = 1
y[5,200,112] = 1
y[5,290,200] = 1
y[5,240,236] = 0.999999
y[5,133,199] = 1
y[5,199,290] = 1
y[5,45,36] = 0.999999
y[5,218,133] = 1
y[5,36,240] = 0.999999
y[5,284,45] = 0.999999
y[5,236,0] = 1
y[5,112,284] = 1
y[7,234,0] = 1
y[7,137,203] = 1
y[7,203,234] = 1
y[7,221,137] = 1
y[8,235,0] = 1
y[8,204,235] = 1
y[8,223,138] = 1
y[8,138,204] = 1
y[12,8,302] = 1
y[12,302,-2] = 1
y[13,104,275] = 1
y[13,275,201] = 1
y[13,291,202] = 1
y[13,114,278] = 1
y[13,202,114] = 1
y[13,278,-1] = 1
y[13,201,291] = 1
y[18,301,-2] = 1
y[18,148,315] = 1
y[18,315,311] = 1
y[18,311,301] = 1
xD[6,218,133] = 17
xD[7,200,112] = 161
xD[7,290,200] = 161
xD[7,199,290] = 161
xD[7,284,45] = 161
xD[7,112,284] = 161
xD[8,200,112] = 580
xD[8,290,200] = 580
xD[8,199,290] = 580
xD[18,291,202] = 18
xD[18,202,114] = 18
xD[18,201,291] = 18
xD[26,221,137] = 6
xD[45,200,112] = 161
xD[45,284,45] = 161
xD[45,112,284] = 161
xD[46,200,112] = 580
xD[52,202,114] = 484
xD[53,202,114] = 18
xD[80,240,236] = 194
xD[80,36,240] = 194
xD[81,240,236] = 20
xD[81,36,240] = 20
xD[83,240,236] = 5
xD[83,36,240] = 4.99999
xD[117,200,112] = 580
xD[117,290,200] = 580
xD[117,199,290] = 580
xD[119,291,202] = 214
xD[119,114,278] = 214
xD[119,202,114] = 214
xD[119,201,291] = 214
xD[120,291,202] = 10
xD[120,114,278] = 10
xD[120,202,114] = 10
xD[120,201,291] = 10
xD[121,291,202] = 312
xD[121,202,114] = 312
xD[121,201,291] = 312
xD[122,291,202] = 18
xD[122,202,114] = 18
xD[122,201,291] = 18
xD[131,200,112] = 19
xD[132,114,278] = 214
xD[132,202,114] = 214
xD[133,114,278] = 10
xD[133,202,114] = 10
xD[134,202,114] = 484
xD[135,202,114] = 18
xD[138,291,202] = 214
xD[138,114,278] = 214
xD[138,202,114] = 214
xD[139,291,202] = 10
xD[139,114,278] = 10
xD[139,202,114] = 10
xD[140,291,202] = 484
xD[140,202,114] = 484
xD[141,291,202] = 18
xD[141,202,114] = 18
xD[144,200,112] = 161
xD[144,290,200] = 161
xD[144,284,45] = 161
xD[144,112,284] = 161
xD[145,200,112] = 580
xD[145,290,200] = 580
xD[170,311,301] = 10
xD[171,315,311] = 75
xD[171,311,301] = 75
xD[172,315,311] = 114
xD[172,311,301] = 114
zE[36] = 1240
zE[45] = 764.999
zE[112] = 284
zE[114] = 452
zE[133] = 111
zE[137] = 447
zE[138] = 615
zE[199] = 207
zE[200] = 238
zE[201] = 375
zE[202] = 406
zE[203] = 543
zE[204] = 711
zE[234] = 1304
zE[235] = 1472
zE[236] = 1640
zE[240] = 1398.71
zE[275] = 328
zE[276] = 496
zE[277] = 664
zE[278] = 832
zE[284] = 463
zE[290] = 211
zE[291] = 379
zE[301] = 998
zE[302] = 1166
zE[311] = 935
zE[315] = 873
zX[8] = 570
zX[36] = 1258
zX[45] = 810.999
zX[100] = 288
zX[101] = 456
zX[104] = 220
zX[112] = 296
zX[114] = 464
zX[133] = 127
zX[137] = 463
zX[138] = 631
zX[148] = 470
zX[199] = 228
zX[200] = 259
zX[201] = 396
zX[202] = 427
zX[203] = 564
zX[204] = 732
zX[218] = 92
zX[221] = 428
zX[223] = 596
zX[234] = 1316
zX[235] = 1484
zX[236] = 1652
zX[240] = 1400.71
zX[275] = 347
zX[276] = 515
zX[277] = 683
zX[278] = 851
zX[284] = 542
zX[290] = 230
zX[291] = 398
zX[301] = 1011
zX[302] = 1179
zX[311] = 943
zX[315] = 881
w[5,(240,236)] = 125.884
w[5,(36,240)] = 140.71
phi[1] = 227
phi[2] = 227
phi[5] = 1560
phi[7] = 888
phi[8] = 888
phi[12] = 609
phi[13] = 631
phi[18] = 541

### All variables with value smaller zero:

### End

real	1442m14.464s
user	5489m47.925s
sys	273m4.293s
	Freetype 2.4.12 environment removed
	Python 3.6.0 environment removed
	Gurobi 8.1.0 environment removed
