	Freetype 2.4.12 environment established
		library to render fonts
	Python 3.6.0 environment established
	Gurobi 8.1.0 environment established
Instance LSFRP: LSFDRP_2_2_0_0_fr.p
Instance LSFDP: LSFDRP_2_2_0_0_fd_43.p

*****************************************************************************************************************************
*** Solve LSFDRP_2_2_0_0_fd_43 with Gurobi
***
*** Graph info
*** |S|: 18
*** |S^E|: 0
*** |S^C|: 0
*** |V|: 321
*** |A|: 9520
*** |A^i|: 9469
*** |A^f|: 51
*** |M|: 193
*** |E|: 22

Changed value of parameter TimeLimit to 86400.0
   Prev: 1e+100  Min: 0.0  Max: 1e+100  Default: 1e+100
Changed value of parameter Threads to 4
   Prev: 0  Min: 0  Max: 1024  Default: 0
Optimize a model with 91412 rows, 2029350 columns and 7453802 nonzeros
Variable types: 1857954 continuous, 171396 integer (171396 binary)
Coefficient statistics:
  Matrix range     [1e+00, 4e+03]
  Objective range  [2e+00, 3e+07]
  Bounds range     [1e+00, 1e+00]
  RHS range        [1e+00, 4e+03]
Presolve removed 49371 rows and 1545968 columns (presolve time = 5s) ...
Presolve removed 62472 rows and 1706691 columns (presolve time = 10s) ...
Warning: Failed to open log file 'gurobi.log'
Presolve removed 62486 rows and 1706715 columns (presolve time = 16s) ...
Presolve removed 62486 rows and 1706880 columns (presolve time = 30s) ...
Presolve removed 63782 rows and 1710087 columns (presolve time = 110s) ...
Presolve removed 63782 rows and 1710087 columns
Presolve time: 109.74s
Presolved: 27630 rows, 319263 columns, 1387957 nonzeros
Variable types: 147960 continuous, 171303 integer (171255 binary)

Deterministic concurrent LP optimizer: primal and dual simplex
Showing first log only...


Root simplex log...

Iteration    Objective       Primal Inf.    Dual Inf.      Time
       0   -9.1610275e+03   5.000000e+00   7.175431e+07    115s
    8348   -4.3034084e+03   2.000334e+00   1.744815e+09    115s
   12225   -2.1799409e+07   0.000000e+00   4.277504e+09    116s
   25118   -4.0195141e+06   0.000000e+00   2.275139e+10    120s
Concurrent spin time: 0.00s

Solved with dual simplex

Root relaxation: objective 6.687941e+06, 14816 iterations, 9.28 seconds

    Nodes    |    Current Node    |     Objective Bounds      |     Work
 Expl Unexpl |  Obj  Depth IntInf | Incumbent    BestBd   Gap | It/Node Time

     0     0 6685214.13    0  158          - 6685214.13      -     -  129s
     0     0 6095714.50    0  169          - 6095714.50      -     -  147s
H    0     0                    -1.75992e+07 6095714.50   135%     -  148s
     0     0 5956530.94    0  146 -1.760e+07 5956530.94   134%     -  152s
     0     0 5956331.62    0  150 -1.760e+07 5956331.62   134%     -  152s
     0     0 5645055.15    0  179 -1.760e+07 5645055.15   132%     -  162s
H    0     0                    -1.72284e+07 5645055.15   133%     -  163s
     0     0 5643887.24    0  174 -1.723e+07 5643887.24   133%     -  165s
     0     0 5460836.47    0  195 -1.723e+07 5460836.47   132%     -  170s
H    0     0                    -2775081.142 5460836.47   297%     -  171s
     0     0 5453135.97    0  196 -2775081.1 5453135.97   297%     -  173s
     0     0 5452550.94    0  198 -2775081.1 5452550.94   296%     -  174s
     0     0 5452550.94    0  200 -2775081.1 5452550.94   296%     -  176s
H    0     0                    -397723.1278 5452550.94  1471%     -  183s
     0     0 5452550.94    0  195 -397723.13 5452550.94  1471%     -  216s
H    0     0                    -397723.1274 5452550.94  1471%     -  235s
     0     2 5452550.94    0  188 -397723.13 5452550.94  1471%     -  253s
     1     2 infeasible    1      -397723.13 5452546.71  1471%   160  256s
     3     4 4489281.48    2  188 -397723.13 5034330.49  1366%   125  267s
     5     7 3494317.58    3  220 -397723.13 4894182.40  1331% 43047 2136s
     9    11 1155888.75    4  161 -397723.13 4350520.98  1194% 57117 3428s
    13    15 1113852.86    5  172 -397723.13 4347254.58  1193% 45341 3576s
    17    16 1105792.42    6  170 -397723.13 4321539.40  1187% 36167 3599s
    21    21 1103456.80    7  168 -397723.13 4321539.40  1187% 29422 3635s
    28    22 1060244.79    9  162 -397723.13 4321539.40  1187% 22414 3673s
H   32    25                    -397723.1270 4321539.40  1187% 19761 3673s
    35    29 951727.209   10  151 -397723.13 4321539.40  1187% 18290 3710s
    43    32 1007468.77   11  153 -397723.13 4321539.40  1187% 15112 3727s
    54    47 985562.651   14  146 -397723.13 4321539.40  1187% 12171 3746s
    63    55 918528.271   17  170 -397723.13 4321539.40  1187% 10566 3776s
H   66    58                    -353930.7731 4321539.40  1321% 10131 3776s
    68    56 899034.801   19  161 -353930.77 4321539.40  1321%  9856 3789s
    84    70 879596.524   23  157 -353930.77 4321539.40  1321%  8064 3808s
    97    80 860116.330   28  163 -353930.77 4321539.40  1321%  7049 3888s
H  103    85                    -224465.6712 4321539.40  2025%  6654 3888s
H  104    85                    -138907.1851 4321539.40  3211%  6616 3889s
   105    85 838656.626   31  174 -138907.19 4321539.40  3211%  6559 3982s
H  106    85                    -52937.57105 4321539.40  8263%  6497 3982s
   113    94 825751.388   33  165 -52937.571 4321539.40  8263%  6126 4010s
   130   109 742275.609   38  144 -52937.571 4321539.40  8263%  5454 4180s
   141   117     cutoff   39      -52937.571 4321539.40  8263%  5127 4213s
   160   127 4279823.43    5  112 -52937.571 4279823.43  8185%  4686 4272s
H  170   137                    78058.096108 4279823.43  5383%  4486 4588s
   176   145 4081660.18    7   97 78058.0961 4279823.43  5383%  4387 4642s
   201   170 4046116.99    8  103 78058.0961 4279823.43  5383%  3943 4675s
   220   188 3843293.88    8  122 78058.0961 4279823.43  5383%  3731 4717s
   242   205 3991037.45   11  119 78058.0961 4279823.43  5383%  3506 4864s
   270   237 3816937.62   12  124 78058.0961 4279823.43  5383%  3357 4913s
   293   254 3930088.70   13  119 78058.0961 4279823.43  5383%  3157 4961s
   329   285 3686533.83   17  124 78058.0961 4279823.43  5383%  2899 5033s
   356   306 infeasible   20      78058.0961 4279823.43  5383%  2774 5139s
   382   337 3228365.78   20   99 78058.0961 4279823.43  5383%  2695 5184s
   415   361 3242506.52   19   90 78058.0961 4279823.43  5383%  2537 5270s
   460   396 3135727.67   20   90 78058.0961 4279823.43  5383%  2366 5315s
   520   432 3153276.41   22   88 78058.0961 4279823.43  5383%  2142 5369s
   558   466 3068461.28   25   79 78058.0961 4279823.43  5383%  2056 5598s
   596   484 3041828.86   26   81 78058.0961 4279823.43  5383%  2042 5661s
   614   497 2973399.48   30   98 78058.0961 4279823.43  5383%  2040 5748s
   657   533 2934510.98   31   80 78058.0961 4279823.43  5383%  1978 5806s
   727   570 2016732.20   32   74 78058.0961 4279823.43  5383%  1846 5887s
   768   600 2667521.99   35  127 78058.0961 4279823.43  5383%  1805 5941s
   796   628 2265235.28   39  133 78058.0961 4279823.43  5383%  1784 6033s
   852   665 1591976.18   78  125 78058.0961 4279823.43  5383%  1712 6110s
   920   728 903719.481  118  118 78058.0961 4046121.05  5083%  1651 6186s
  1004   769 3133356.52    7   80 78058.0961 4046121.05  5083%  1572 6257s
H 1102   833                    78058.096214 3943452.99  4952%  1479 6258s
  1103   834 2268062.18   49  195 78058.0962 3943452.99  4952%  1478 6531s
  1105   835 1527288.21   72  142 78058.0962 3943452.99  4952%  1475 6548s
  1106   836 2191010.04   25  150 78058.0962 3943452.99  4952%  1474 6559s
  1108   837 1143502.56   49  157 78058.0962 3943452.99  4952%  1471 6563s
  1109   838 2006990.99   73  170 78058.0962 3943452.99  4952%  1470 6578s
  1111   839 3205968.74   50  174 78058.0962 3513704.33  4401%  1467 6583s
H 1111   796                    106859.12268 3513704.33  3188%  1467 6591s
H 1111   756                    106859.12331 3420937.06  3101%  1467 6599s
  1113   758 1585146.98   82  192 106859.123 3399549.86  3081%  1465 6604s
  1114   758 3195889.08   54  176 106859.123 3395445.57  3077%  1463 6618s
  1115   759 2802746.79   62  190 106859.123 3385400.06  3068%  1462 6622s
  1117   760 2133199.82   27  203 106859.123 3375949.94  3059%  1459 6630s
  1118   761 545021.342   31  198 106859.123 3370773.08  3054%  1458 6655s
H 1119   724                    106859.12358 3370773.08  3054%  1457 6669s
  1121   728 3370773.08   15  194 106859.124 3370773.08  3054%  1483 6707s
  1123   731 3368680.18   16  190 106859.124 3368680.18  3052%  1484 6756s
  1127   734 3336172.20   17  196 106859.124 3347915.88  3033%  1500 6836s
  1131   737 3237780.28   17  179 106859.124 3334329.68  3020%  1499 6867s
  1135   739 3332130.35   18  198 106859.124 3332130.35  3018%  1497 6893s
  1139   742 1990563.60   18  161 106859.124 3332066.10  3018%  1504 6921s
  1143   745 3293515.55   19  191 106859.124 3331980.64  3018%  1507 6946s
  1148   746 3126248.21   19  190 106859.124 3293486.48  2982%  1507 6981s
H 1149   709                    106859.13066 3293486.48  2982%  1506 6981s
  1152   707 3284083.02   20  184 106859.131 3293133.11  2982%  1510 6988s
  1158   715 1855635.07   20  156 106859.131 3284069.51  2973%  1509 7006s
  1164   713 3119345.00   21  150 106859.131 3283997.46  2973%  1517 7049s
  1172   725 3139097.47   21  154 106859.131 3197982.25  2893%  1535 7090s
  1180   727 3092546.93   22  152 106859.131 3197982.25  2893%  1534 7107s
  1191   730 3064433.43   22  153 106859.131 3197982.25  2893%  1537 7130s
  1201   737 2904593.31   23  131 106859.131 3197982.25  2893%  1541 7148s
  1214   743 3041858.71   23  140 106859.131 3197982.25  2893%  1530 7176s
  1227   751 2286613.22   24  117 106859.131 3197982.25  2893%  1539 7193s
  1242   750 3022949.86   25  159 106859.131 3197982.25  2893%  1536 7203s
  1259   761 2926065.82   25   98 106859.131 3197982.25  2893%  1538 7229s
  1277   763 3002915.20   26  139 106859.131 3197982.25  2893%  1531 7271s
  1288   765 2945141.74   26  116 106859.131 3197982.25  2893%  1560 7293s
H 1289   726                    425051.78369 3197982.25   652%  1559 7293s
  1295   732 2985548.89   27  159 425051.784 3197982.25   652%  1566 7312s
  1309   735 2896871.29   27  129 425051.784 3197982.25   652%  1566 7327s
H 1323   714                    425051.78388 3197982.25   652%  1563 7372s
H 1325   680                    436508.35256 3197982.25   633%  1569 7372s
  1329   676 2951267.56   29  151 436508.353 3197982.25   633%  1572 7388s
  1352   686 2911223.83   30  155 436508.353 3197982.25   633%  1569 7417s
  1364   688 2780985.65   30  136 436508.353 3197982.25   633%  1573 7443s
  1390   696 2564056.22   31  132 436508.353 3197982.25   633%  1580 7488s
  1417   698 2721238.78   32  127 436508.353 3197982.25   633%  1567 7563s
  1424   699 2650736.79   32   99 436508.353 3197982.25   633%  1612 7592s
  1434   704 2535098.34   34  104 436508.353 3197982.25   633%  1637 7625s
  1453   705 2605862.67   36  125 436508.353 3197982.25   633%  1644 7679s
  1460   715 2465585.56   36  112 436508.353 3197982.25   633%  1677 7729s
  1469   715 2576250.31   38  117 436508.353 3197982.25   633%  1709 7776s
H 1479   688                    436508.35403 3197982.25   633%  1743 7804s
H 1484   658                    502264.79911 3197982.25   537%  1744 7804s
  1488   661 2312688.97   41   97 502264.799 3197982.25   537%  1767 7841s
  1506   670 2421011.91   42   95 502264.799 3197982.25   537%  1780 7886s
  1519   665 2359629.34   45   92 502264.799 3197982.25   537%  1810 7921s
H 1525   643                    502264.79920 3197982.25   537%  1814 7921s
H 1528   620                    502264.80037 3197982.25   537%  1822 7921s
  1538   631 2221789.73   48   81 502264.800 3197982.25   537%  1824 7956s
  1558   638 2164658.30   53   90 502264.800 3197982.25   537%  1846 7982s
  1580   650 1686434.45   58   73 502264.800 3197982.25   537%  1852 8011s
  1621   649 1208777.93   71   65 502264.800 3197982.25   537%  1849 8048s
  1689   663 1014977.51   91   76 502264.800 3197982.25   537%  1813 8088s
  1746   677 812023.100  115   75 502264.800 3178503.36   533%  1783 8127s
  1798   692 2890260.18   19  217 502264.800 3092503.33   516%  1770 8256s
H 1799   668                    502264.80263 3092503.33   516%  1769 8256s
  1825   672 2941247.19   20  131 502264.803 3092503.33   516%  1772 8306s
  1867   672 2768359.99   24  140 502264.803 3092503.33   516%  1776 8347s
  1886   693 2629196.75   26  129 502264.803 3092503.33   516%  1789 8391s
  1910   709 1573210.15   25  118 502264.803 3092503.33   516%  1802 8439s
  1932   715 701530.059   29   76 502264.803 3092503.33   516%  1821 8488s
  1982   741 1716485.24   31   95 502264.803 3092503.33   516%  1816 8568s
  2036   756 1686473.18   33   83 502264.803 3092503.33   516%  1826 8622s
  2069   767 1587448.49   36   95 502264.803 3092503.33   516%  1847 8681s
  2156   801 1201989.96   46   82 502264.803 3008461.33   499%  1824 8767s
H 2190   786                    502264.80320 3008461.33   499%  1858 8820s
  2222   794 2737253.31   27  117 502264.803 3008461.33   499%  1871 8896s
  2294   834 2725511.34   29  116 502264.803 3008461.33   499%  1865 8967s
H 2325   821                    502264.80748 3008461.33   499%  1887 9108s
H 2332   814                    540299.75099 3008461.33   457%  1895 9108s
H 2339   820                    540299.75127 3008461.33   457%  1905 9108s
  2340   813 2681739.15   31  102 540299.751 3008461.33   457%  1905 9186s
  2406   858 2648438.02   34  106 540299.751 3008461.33   457%  1909 9272s
  2447   883 2586081.88   36  119 540299.751 3008461.33   457%  1931 9367s
  2476   906 2584556.58   39  124 540299.751 3008461.33   457%  1959 9447s
  2523   945 2026056.70   41  102 540299.751 3008461.33   457%  1969 9585s
  2638  1020 2398739.84   42  119 540299.751 3008461.33   457%  1953 9666s
  2696  1072 869144.454   52   87 540299.751 3008461.33   457%  1959 9752s
  2785  1141 2072084.39   68   86 540299.751 2943298.89   445%  1956 9945s
  2928  1249 658564.253   24  173 540299.751 2941188.89   444%  1926 10034s
  3009  1294 2669694.80   34  118 540299.751 2939284.45   444%  1932 10137s
  3022  1299 2519674.80   40  122 540299.751 2939284.45   444%  1933 10249s
  3114  1372 1598466.82   60   89 540299.751 2925995.26   442%  1935 10371s
  3195  1425 2346594.68   32  130 540299.751 2924469.28   441%  1951 10501s
  3262  1473 2494818.34   33  151 540299.751 2924114.65   441%  1968 10630s
  3321  1510 1865382.72   29   75 540299.751 2921245.46   441%  1997 10761s
  3524  1670 2517714.90   31  118 540299.751 2915278.92   440%  1953 11060s
H 3565  1674                    540299.75267 2915278.92   440%  1950 11060s
  3588  1717 2499264.55   33  110 540299.753 2915278.92   440%  1961 11234s
  3689  1802 2407942.31   35   98 540299.753 2915278.92   440%  1947 11362s
H 3800  1855                    540299.75273 2915278.92   440%  1920 11362s
  3834  1910 2340257.50   40   94 540299.753 2903582.22   437%  1930 11516s
  4032  2044 2222602.76   47  101 540299.753 2893692.44   436%  1897 11825s
  4080  2079 2661871.92   31  119 540299.753 2893692.44   436%  1927 11972s
  4103  2079 2627528.95   32  128 540299.753 2893692.44   436%  1947 12166s
  4255  2201 1379113.17   40   91 540299.753 2892488.53   435%  1951 12321s
  4464  2311 1726057.41   53   92 540299.753 2878083.80   433%  1921 12497s
H 4485  2311                    540299.75299 2878083.80   433%  1920 12497s
H 4527  2329                    540299.75313 2874172.47   432%  1920 12497s
  4598  2415 2026540.76   33  106 540299.753 2870476.10   431%  1932 12664s
H 4608  2415                    540299.75321 2870476.10   431%  1936 12664s
H 4641  2431                    540299.75359 2870476.10   431%  1940 12664s
  4720  2494 2648511.51   31  157 540299.754 2866323.67   431%  1953 12845s
  4982  2676 2663268.50   30  164 540299.754 2864912.04   430%  1917 13010s
  5044  2717 2500926.61   34  139 540299.754 2854752.76   428%  1925 13261s
  5093  2745 2364361.65   39  110 540299.754 2854743.41   428%  1937 13468s
  5284  2869 1859517.45   37  120 540299.754 2848677.78   427%  1938 13677s
  5460  2991 2775711.80   28  185 540299.754 2843713.83   426%  1943 13874s
  5555  3062 2504399.34   39  132 540299.754 2842628.66   426%  1977 14082s
  5728  3188 1879181.15   37  127 540299.754 2835427.01   425%  1981 14305s
  5913  3348 1103178.49   41   96 540299.754 2835427.01   425%  1986 14711s
H 5921  3348                    540299.75431 2835427.01   425%  1984 14711s
  5966  3375 933544.101   50  120 540299.754 2834695.20   425%  2007 14956s
  6208  3481 1907214.77   36   87 540299.754 2831309.89   424%  2008 15240s
  6434  3612 2475631.54   34  138 540299.754 2825322.68   423%  2013 15526s
  6625  3750 1895211.24   33  200 540299.754 2822286.99   422%  2016 15794s
  6822  3884 1186571.97   33  139 540299.754 2813665.69   421%  2031 16068s
  7125  4087 1384957.91   43  129 540299.754 2808405.04   420%  2014 16367s
  7465  4345 2279438.20   36  100 540299.754 2802734.21   419%  1993 16685s
  7804  4566 2127310.67   29  171 540299.754 2794145.02   417%  1987 17026s
  8195  4846 2458569.28   36  117 540299.754 2786433.59   416%  1967 17406s
  8327  4929 2211133.02   29  108 540299.754 2786000.98   416%  1988 17752s
  8589  5073 1251374.66   36  109 540299.754 2781802.66   415%  2000 18124s
  8709  5157 2003264.51   32  164 540299.754 2780696.61   415%  2001 18541s
  9032  5370 1659535.59   37  114 540299.754 2777179.37   414%  1999 18920s
  9411  5632 2104046.50   25  128 540299.754 2775573.92   414%  1999 19332s
  9838  5896 1612235.47   34  114 540299.754 2767396.35   412%  1993 19775s
 10213  6186 2192899.97   37  195 540299.754 2762865.20   411%  1989 19849s
 10215  6187 1405769.51   34  141 540299.754 2762865.20   411%  1989 19863s
 10216  6188 1502403.83   63  164 540299.754 2762865.20   411%  1989 19882s
 10217  6189 2546027.37   33  164 540299.754 2762865.20   411%  1989 19893s
 10219  6190 1336907.03   53  262 540299.754 2762865.20   411%  1988 19897s
 10220  6191 1658290.28   35  239 540299.754 2762865.20   411%  1988 19903s
 10221  6191 960734.415   43  245 540299.754 2762865.20   411%  1988 19907s
 10222  6192 896061.840   80  283 540299.754 2762865.20   411%  1988 19922s
 10223  6193 755700.079   72  235 540299.754 2762865.20   411%  1987 19927s
 10224  6193 875722.075   70  238 540299.754 2762865.20   411%  1987 19934s
 10225  6194 1794582.06   74  255 540299.754 2762865.20   411%  1987 19938s
 10226  6195 743782.801  122  258 540299.754 2762865.20   411%  1987 19948s
 10227  6195 2024649.11   51  268 540299.754 2762865.20   411%  1987 19954s
 10228  6196 1494035.39   33  261 540299.754 2762865.20   411%  1986 19964s
 10229  6197 847276.515   52  273 540299.754 2762865.20   411%  1986 19971s
 10230  6197 851510.146   58  295 540299.754 2762865.20   411%  1986 19982s
 10231  6198 774775.013  101  261 540299.754 2762865.20   411%  1986 19991s
 10232  6199 1202712.69   47  289 540299.754 2762865.20   411%  1986 20004s
 10233  6199 1892726.29   55  291 540299.754 2762865.20   411%  1986 20008s
 10234  6200 1952074.38   40  295 540299.754 2762865.20   411%  1985 20040s
 10236  6201 2451717.70   29  295 540299.754 2762865.20   411%  1985 20058s
 10237  6205 2762865.20   25  308 540299.754 2762865.20   411%  1991 20173s
 10239  6208 2762865.20   26  300 540299.754 2762865.20   411%  1992 20264s
 10243  6211 2762865.20   27  202 540299.754 2762865.20   411%  1994 20315s
 10247  6214 2762865.20   27  162 540299.754 2762865.20   411%  1995 20397s
 10251  6216 2762865.20   28  202 540299.754 2762865.20   411%  2000 20443s
 10255  6219 1897400.76   28  163 540299.754 2762865.20   411%  2000 20502s
 10259  6221 2762865.20   29  236 540299.754 2762865.20   411%  2003 20568s
 10264  6224 2762865.20   29  239 540299.754 2762865.20   411%  2005 20632s
 10269  6220 2762865.20   30  172 540299.754 2762865.20   411%  2007 20664s
 10275  6224 2762865.20   30  178 540299.754 2762865.20   411%  2011 20709s
 10280  6225 2762865.20   31  246 540299.754 2762865.20   411%  2012 20770s
 10288  6232 2762865.20   31  163 540299.754 2762865.20   411%  2014 20818s
 10295  6235 2762865.20   32  266 540299.754 2762865.20   411%  2015 20897s
 10299  6235 2744024.57   32  159 540299.754 2762865.20   411%  2019 20944s
 10308  6240 2762865.20   33  261 540299.754 2762865.20   411%  2020 20984s
 10318  6243 2762865.20   34  115 540299.754 2762865.20   411%  2022 21022s
 10329  6245 2762865.20   35  108 540299.754 2762865.20   411%  2022 21062s
 10335  6250 2762865.20   36  108 540299.754 2762865.20   411%  2023 21108s
 10344  6259 2762865.20   38  110 540299.754 2762865.20   411%  2026 21150s
 10360  6264 2762865.20   40  186 540299.754 2762865.20   411%  2028 21190s
 10370  6270 2762865.20   41  197 540299.754 2762865.20   411%  2030 21250s
 10386  6279 2762865.20   42  189 540299.754 2762865.20   411%  2032 21290s
 10400  6288 2762865.20   43  190 540299.754 2762865.20   411%  2033 21334s
 10408  6287 2761845.12   44  238 540299.754 2762865.20   411%  2036 21386s
 10425  6298 2669749.61   45  204 540299.754 2762865.20   411%  2038 21427s
 10442  6299 2665034.92   46  200 540299.754 2762865.20   411%  2039 21466s
 10455  6301 2664948.30   47  205 540299.754 2762865.20   411%  2042 21510s
 10464  6305 1723685.19   48  130 540299.754 2762865.20   411%  2048 21545s
 10476  6314 1862060.15   49  116 540299.754 2762865.20   411%  2049 21610s
 10490  6316 1005813.00   52   83 540299.754 2762865.20   411%  2052 21648s
 10506  6325 2138281.50   55  125 540299.754 2762865.20   411%  2053 21698s
 10532  6328 2130862.36   58  105 540299.754 2762865.20   411%  2055 21741s
 10564  6335 2050725.18   63   81 540299.754 2762865.20   411%  2057 21842s
 10582  6338 1540549.12   66   68 540299.754 2762865.20   411%  2058 21900s
 10625  6356     cutoff   75      540299.754 2762865.20   411%  2058 21964s
 10663  6347     cutoff   85      540299.754 2762865.20   411%  2058 22015s
 10698  6350     cutoff   96      540299.754 2762865.20   411%  2059 22092s
 10747  6370 2762865.20   32  173 540299.754 2762865.20   411%  2059 22138s
 10796  6391 2655927.84   41  157 540299.754 2762865.20   411%  2055 22195s
 10844  6392 2105480.81   57  159 540299.754 2762865.20   411%  2054 22250s
 10909  6428 2762865.20   31  129 540299.754 2762865.20   411%  2051 22315s
 10947  6417 2672825.70   36  156 540299.754 2762865.20   411%  2052 22419s
 11005  6438 2762865.20   33  175 540299.754 2762865.20   411%  2050 22520s
 11045  6461 2585149.55   36  121 540299.754 2762865.20   411%  2050 22600s
 11124  6480     cutoff   41      540299.754 2762865.20   411%  2044 22674s
 11276  6524 641895.571   55  100 540299.754 2762865.20   411%  2025 22756s
 11351  6516 1262888.43   35  150 540299.754 2762865.20   411%  2022 22865s
 11365  6519 2120868.30   38  153 540299.754 2762865.20   411%  2025 22955s
 11427  6552 1770893.95   46  103 540299.754 2762865.20   411%  2021 23071s
 11524  6598 1505596.61   37  138 540299.754 2762865.20   411%  2015 23147s
 11617  6653 878855.562  102  102 540299.754 2762865.20   411%  2008 23266s
 11680  6667 2586598.53   36  108 540299.754 2762865.20   411%  2008 23369s
 11746  6707 2175013.93   58  157 540299.754 2762865.20   411%  2008 23500s
 11861  6767 1629420.79   38  109 540299.754 2762865.20   411%  2002 23626s
 11987  6789 1347693.32   37  101 540299.754 2762865.20   411%  1996 23756s
 12096  6818 1134311.48   52   80 540299.754 2762865.20   411%  1992 23874s
 12200  6811 2688384.14   42  141 540299.754 2762865.20   411%  1987 23995s
 12345  6877 2354854.20   57  147 540299.754 2762865.20   411%  1976 24116s
 12492  6964 2762865.20   32  158 540299.754 2762865.20   411%  1965 24255s
 12591  7011 1265984.29   53  101 540299.754 2762865.20   411%  1963 24398s
 12755  7066 2698137.82   34  141 540299.754 2762865.20   411%  1950 24532s
 12832  7100 2294035.57   39  145 540299.754 2762865.20   411%  1951 24641s
 12956  7150 1700764.20   42  118 540299.754 2762865.20   411%  1943 24756s
 13093  7155 1624823.08   46  123 540299.754 2762865.20   411%  1934 24887s
 13245  7193 1202712.72   38  103 540299.754 2762865.20   411%  1930 25033s
 13363  7239 1103420.71   33  145 540299.754 2762865.20   411%  1921 25162s
 13546  7269 2214462.46   36  114 540299.754 2762865.20   411%  1914 25286s
 13681  7309 2720859.07   34  169 540299.754 2762865.20   411%  1915 25538s
 13785  7337 1918235.98   43  122 540299.754 2762865.20   411%  1918 25672s
 13907  7363 2018936.78   43  155 540299.754 2762865.20   411%  1923 25825s
 14141  7399 2108368.21   38  164 540299.754 2762865.20   411%  1912 26293s
 14197  7434 1949253.42   42  147 540299.754 2762865.20   411%  1910 26425s
 14394  7495 1969962.50   50  136 540299.754 2762865.20   411%  1906 26576s
 14801  7629 1390020.45   33  124 540299.754 2762865.20   411%  1876 26724s
 15053  7702 1516236.43   46  133 540299.754 2762865.20   411%  1866 26888s
 15413  7855 2041335.56   60  120 540299.754 2762865.20   411%  1845 27051s
 15733  7978 2482627.67   50  112 540299.754 2762865.20   411%  1832 27255s
 16115  8140 2099087.88   52   94 540299.754 2762865.20   411%  1810 27450s
 16431  8244 1722881.30   42  160 540299.754 2762865.20   411%  1800 27624s
 16817  8410 1149902.44   90   93 540299.754 2762865.20   411%  1786 27805s
 17018  8446 1016843.74   49  109 540299.754 2760341.33   411%  1789 28000s
 17645  8745 744805.000  124   61 540299.754 2757359.81   410%  1750 28204s
 18010  8842 2330443.23   47   70 540299.754 2751153.28   409%  1740 28416s
 18421  9013 1023026.75   65  105 540299.754 2749740.66   409%  1727 28630s
 18927  9220 1048766.06   41  136 540299.754 2746135.00   408%  1706 28844s
 19085  9265 978115.403   41  131 540299.754 2744431.99   408%  1700 29052s
 19448  9343 1933027.75   50  204 540299.754 2738712.54   407%  1694 29280s
 19966  9505 629381.220   39   85 540299.754 2728211.14   405%  1678 29500s
 20229  9562 1246515.54   35   74 540299.754 2726058.56   405%  1677 29759s
 20685  9709 690453.651  110  195 540299.754 2723261.52   404%  1671 32519s
 20687  9710 1876410.84   51  128 540299.754 2723261.52   404%  1671 32523s
 20688  9711 1539973.32   93  155 540299.754 2723261.52   404%  1670 32525s
 20692  9714 2315470.70   44  261 540299.754 2723261.52   404%  1670 32530s
 20693  9714 2417121.78   50  220 540299.754 2723261.52   404%  1670 32535s
 20694  9715 938018.854   88  229 540299.754 2723261.52   404%  1670 32541s
 20695  9716 1609472.00   71  198 540299.754 2723261.52   404%  1670 32560s
 20697  9717 2150868.97  124  220 540299.754 2723261.52   404%  1670 32566s
 20698  9718 2373703.30   57  219 540299.754 2723261.52   404%  1670 32576s
 20700  9719 1903796.50   49  250 540299.754 2723261.52   404%  1669 32581s
 20701  9720 2120857.01   39  302 540299.754 2723261.52   404%  1669 32592s
 20704  9722 892658.742  122  264 540299.754 2723261.52   404%  1669 32599s
 20705  9722 1151313.93   54  283 540299.754 2697702.24   399%  1669 32604s
 20706  9723 1241325.27   75  283 540299.754 2688858.60   398%  1669 32605s
 20708  9724 801793.295   46  351 540299.754 2663512.80   393%  1669 32621s
 20709  9725 1362015.59   43  347 540299.754 2660724.65   392%  1669 32626s
 20710  9726 1491544.45  160  296 540299.754 2650134.99   390%  1669 32636s
 20711  9726 1035543.60   42  306 540299.754 2648802.27   390%  1669 32641s
 20712  9727 1706958.52   73  302 540299.754 2643857.86   389%  1669 32656s
 20713  9728 2072980.39   40  292 540299.754 2641833.62   389%  1668 32662s
 20714  9728 1529521.48   66  303 540299.754 2621996.63   385%  1668 32668s
 20716  9730 1484985.05   50  325 540299.754 2569355.08   376%  1668 32675s
 20717  9730 1053207.22   93  305 540299.754 2553984.12   373%  1668 32685s
 20719  9732 2211690.35   39  334 540299.754 2540617.18   370%  1668 32691s
 20720  9732 2010532.13   58  315 540299.754 2308421.81   327%  1668 32703s
 20722  9734 2230313.82   46  351 540299.754 2230313.82   313%  1668 32705s
 20725  9736 1879038.94   55  371 540299.754 2175435.28   303%  1667 32711s
 20726  9736 1112810.37   77  368 540299.754 2102039.50   289%  1667 32723s
 20728  9738 1886196.80   42  325 540299.754 2091119.92   287%  1667 32728s
 20729  9738 1648677.59   40  373 540299.754 2073730.05   284%  1667 32738s
H20729  9250                    540299.76737 2073730.05   284%  1667 32738s
 20730  9251 844697.873   84  378 540299.767 2071156.59   283%  1667 32742s
 20731  9252 1680327.24   76  374 540299.767 2063767.72   282%  1667 32752s
H20731  8788                    540299.76758 2063767.72   282%  1667 32752s
 20732  8788 1332832.49   33  378 540299.768 2058640.58   281%  1667 32756s
 20733  8789 1467852.86   48  382 540299.768 2053702.46   280%  1667 32763s
 20734  8790 649532.812   45  380 540299.768 2050178.79   279%  1667 32768s
H20734  8350                    540299.76823 2050178.79   279%  1667 32773s
H20734  7932                    540299.76837 2047097.22   279%  1667 32780s
H20735  7534                    540299.76843 2047097.22   279%  1667 32781s
 20737  7536 1667347.78   61  381 540299.768 2036063.33   277%  1666 32786s
H20737  7159                    540299.76875 2036063.33   277%  1666 32790s
 20738  7159 1221869.05   76  362 540299.769 2031813.89   276%  1666 32797s
H20738  6800                    540299.76902 2029715.70   276%  1666 32801s
H20739  6460                    540299.76921 2026972.57   275%  1666 32813s
H20740  6137                    540299.76947 2026972.57   275%  1666 32814s
 20741  6137 1786667.16   85  372 540299.769 2025463.95   275%  1666 32818s
H20741  5829                    540299.76980 2025463.95   275%  1666 32823s
 20744  5831 1330188.27   72  354 540299.770 2004201.31   271%  1666 32829s
 20745  5832 757826.345  125  376 540299.770 2000498.43   270%  1666 32833s
H20745  5539                    540299.77014 1997947.28   270%  1666 32838s
H20746  5262                    540299.77026 1995480.13   269%  1666 32845s
 20749  5264 1989309.85   43  394 540299.770 1989309.85   268%  1666 32861s
 20750  5264 1988232.46   93  382 540299.770 1988232.46   268%  1665 32866s
 20751  5265 1777823.46   50  374 540299.770 1986709.89   268%  1665 32871s
 20752  5266 1984946.69   45  384 540299.770 1984946.69   267%  1665 32876s
 20753  5266 1911698.27   49  386 540299.770 1983798.03   267%  1665 32882s
 20754  5267 733191.146  204  391 540299.770 1983298.26   267%  1665 32886s
 20755  5268 1587087.38   54  397 540299.770 1982752.13   267%  1665 32891s
 20756  5268 1361690.05  115  379 540299.770 1982459.19   267%  1665 32895s
 20757  5269 1982126.47   46  378 540299.770 1982126.47   267%  1665 32902s
 20758  5270 1981517.94   38  384 540299.770 1981517.94   267%  1665 32906s
 20759  5270 1981192.56   63  387 540299.770 1981192.56   267%  1665 32911s
 20760  5271 1980671.81   57  387 540299.770 1980671.81   267%  1665 32915s
 20761  5272 918771.373   99  373 540299.770 1977183.57   266%  1665 32926s
 20762  5272 1965091.81  121  383 540299.770 1976408.66   266%  1664 32931s
 20763  5273 1976194.11   56  372 540299.770 1976194.11   266%  1664 32937s
 20764  5274 1572234.32   52  378 540299.770 1975806.17   266%  1664 32941s
 20765  5274 1667347.78   61  376 540299.770 1975130.38   266%  1664 32946s
 20766  5275 1962057.39   48  390 540299.770 1974895.12   266%  1664 32950s
 20767  5276 1974418.58   37  382 540299.770 1974418.58   265%  1664 32957s
 20768  5276 997724.560   48  374 540299.770 1974169.72   265%  1664 32961s
 20769  5277 904396.001  142  387 540299.770 1973541.10   265%  1664 32966s
 20770  5278 1973089.57   38  390 540299.770 1973089.57   265%  1664 32970s
 20771  5278 1282632.45   52  386 540299.770 1972974.06   265%  1664 32977s
 20772  5279 1570932.73   36  388 540299.770 1972942.07   265%  1664 32981s
 20773  5280 1967598.86   40  387 540299.770 1967598.86   264%  1664 32986s
 20774  5280 1955774.72   52  387 540299.770 1955774.72   262%  1664 32990s
 20775  5281 1515090.34  192  389 540299.770 1922564.49   256%  1663 32997s
 20776  5282 916138.965  113  397 540299.770 1922564.49   256%  1663 33001s
 20777  5282 1922564.49   35  372 540299.770 1922564.49   256%  1663 33007s
 20778  5283 1803913.66  125  374 540299.770 1900031.20   252%  1663 33011s
 20779  5284 1757835.92   41  378 540299.770 1900031.20   252%  1663 33015s
 20783  5287 1149032.90   92  129 540299.770 1900031.20   252%  1666 33021s
 20785  5289 690453.651  110  254 540299.770 1900031.20   252%  1665 33025s
 20789  5291 741586.009  203  306 540299.770 1900031.20   252%  1665 33030s
 20792  5293 1900031.20   44  336 540299.770 1900031.20   252%  1665 33042s
 20795  5295 1609472.00   71  337 540299.770 1900031.20   252%  1665 33045s
 20797  5297 1900031.20  124  363 540299.770 1900031.20   252%  1665 33050s
 20798  5297 1900031.20   57  378 540299.770 1900031.20   252%  1664 33055s
 20799  5298 1877075.67   66  379 540299.770 1900031.20   252%  1664 33060s
 20800  5299 1900031.20   49  367 540299.770 1900031.20   252%  1664 33065s
 20802  5300 1900031.20   77  384 540299.770 1900031.20   252%  1664 33078s
 20803  5301 1611078.77   75  362 540299.770 1900031.20   252%  1664 33082s
 20804  5301 892658.742  122  362 540299.770 1900031.20   252%  1664 33093s
H20804  5035                    540300.53832 1900031.20   252%  1664 33093s
 20805  5036 1151313.93   54  364 540300.538 1900031.20   252%  1664 33097s
 20806  5037 1241325.27   75  370 540300.538 1900031.20   252%  1664 33101s
 20807  5037 1900031.20   66  369 540300.538 1900031.20   252%  1664 33105s
 20808  5038 801793.295   46  390 540300.538 1900031.20   252%  1664 33116s
H20808  4786                    540300.53952 1900031.20   252%  1664 33116s
 20809  4787 1362015.59   43  381 540300.540 1900031.20   252%  1664 33120s
 20810  4787 1491544.45  160  376 540300.540 1900031.20   252%  1663 33125s
 20812  4789 1706958.52   73  382 540300.540 1900031.20   252%  1663 33134s
 20813  4789 1900031.20   40  387 540300.540 1900031.20   252%  1663 33138s
H20813  4549                    540300.53971 1900031.20   252%  1663 33148s
 20815  4551 1900031.20   48  379 540300.540 1900031.20   252%  1663 33152s
 20816  4551 1484985.05   50  389 540300.540 1900031.20   252%  1663 33163s
 20817  4552 1053207.22   93  397 540300.540 1900031.20   252%  1663 33167s
 20818  4553 1900031.20   37  390 540300.540 1900031.20   252%  1663 33176s
 20819  4553 1900031.20   39  399 540300.540 1900031.20   252%  1663 33180s
 20820  4554 1900031.20   58  401 540300.540 1900031.20   252%  1663 33185s
 20822  4555 1900031.20   46  389 540300.540 1900031.20   252%  1663 33199s
H20822  4326                    540300.54072 1900031.20   252%  1663 33199s
 20823  4327 1860724.37  157  380 540300.541 1900031.20   252%  1662 33203s
 20824  4328 741326.915   60  374 540300.541 1900031.20   252%  1662 33209s
 20825  4328 1879038.94   55  371 540300.541 1900031.20   252%  1662 33213s
 20826  4329 1112810.37   77  369 540300.541 1900031.20   252%  1662 33221s
 20828  4330 1886196.80   42  368 540300.541 1900031.20   252%  1662 33233s
 20829  4331 1648677.59   40  394 540300.541 1897803.24   251%  1662 33238s
 20830  4332 844697.873   84  385 540300.541 1897015.02   251%  1662 33248s
H20830  4115                    540300.54192 1896723.45   251%  1662 33252s
 20832  4116 1332832.49   33  407 540300.542 1896577.90   251%  1662 33260s
H20833  3910                    540300.54211 1895195.07   251%  1662 33269s
 20835  3911 1205525.59   44  397 540300.542 1894851.02   251%  1662 33272s
 20836  3912 1363684.47   44  406 540300.542 1894660.94   251%  1661 33283s
 20837  3912 1667347.78   61  401 540300.542 1887883.62   249%  1661 33287s
 20838  3913 1221869.05   76  391 540300.542 1886400.85   249%  1661 33291s
 20839  3914 787812.258   40  411 540300.542 1885897.34   249%  1661 33296s
 20840  3914 1803145.93   59  397 540300.542 1884590.71   249%  1661 33303s
 20841  3915 1786667.16   85  399 540300.542 1883903.71   249%  1661 33306s
 20842  3916 607945.491   63  404 540300.542 1882602.37   248%  1661 33315s
 20844  3917 1330188.27   72  378 540300.542 1877676.06   248%  1661 33329s
 20845  3918 757826.345  125  388 540300.542 1877116.48   247%  1661 33333s
 20846  3918 1449138.41   28  399 540300.542 1874347.88   247%  1661 33337s
 20847  3919 740845.723   68  410 540300.542 1873091.40   247%  1661 33340s
 20849  3920 1868983.41   43  422 540300.542 1868983.41   246%  1660 33348s
 20850  3921 1867034.44   93  400 540300.542 1867034.44   246%  1660 33356s
 20851  3922 1777823.46   50  386 540300.542 1866140.11   245%  1660 33360s
 20853  3923 1862440.79   49  417 540300.542 1862440.79   245%  1660 33367s
 20854  3924 733191.146  204  390 540300.542 1856634.25   244%  1660 33371s
 20855  3924 1587087.38   54  395 540300.542 1854876.08   243%  1660 33375s
 20856  3925 1361690.05  115  404 540300.542 1853817.90   243%  1660 33384s
 20857  3926 1853276.75   46  410 540300.542 1853276.75   243%  1660 33387s
 20858  3926 1853069.08   38  404 540300.542 1853069.08   243%  1660 33390s
 20860  3928 1852482.96   57  398 540300.542 1852482.96   243%  1660 33397s
 20861  3928 918771.373   99  406 540300.542 1852363.23   243%  1659 33400s
 20862  3929 1852201.07  121  409 540300.542 1852201.07   243%  1659 33405s
 20864  3930 1572234.32   52  401 540300.542 1852081.55   243%  1659 33412s
 20865  3931 1667347.78   61  403 540300.542 1852049.82   243%  1659 33415s
 20867  3932 1851068.40   37  421 540300.542 1851068.40   243%  1659 33421s
 20868  3933 997724.560   48  414 540300.542 1850960.22   243%  1659 33427s
 20869  3934 904396.001  142  407 540300.542 1850914.04   243%  1659 33430s
 20871  3935 1282632.45   52  419 540300.542 1850506.61   242%  1659 33437s
 20872  3936 1570932.73   36  423 540300.542 1849841.35   242%  1659 33440s
 20874  3937 1849121.07   52  422 540300.542 1849121.07   242%  1658 33447s
 20875  3938 1515090.34  192  415 540300.542 1849034.65   242%  1658 33450s
 20876  3938 916138.965  113  405 540300.542 1848450.83   242%  1658 33456s
 20878  3940 1803913.66  125  405 540300.542 1847059.16   242%  1658 33463s
 20879  3940 1757835.92   41  390 540300.542 1846756.90   242%  1658 33467s
 20880  3941 1111822.30   42  383 540300.542 1846699.42   242%  1658 33470s
 20882  3942 879484.382   61  387 540300.542 1846604.55   242%  1658 33479s
 20883  3943 1149032.90   92  386 540300.542 1846549.71   242%  1658 33483s
 20884  3944 909865.721   49  386 540300.542 1846548.36   242%  1658 33486s
 20886  3945 1557565.31   43  408 540300.542 1844747.31   241%  1657 33492s
 20887  3946 1844186.10   51  408 540300.542 1844186.10   241%  1657 33495s
 20888  3946 1539973.32   93  412 540300.542 1843767.87   241%  1657 33502s
 20889  3947 741586.009  203  400 540300.542 1843111.61   241%  1657 33505s
 20891  3948 802657.810   48  425 540300.542 1842886.29   241%  1657 33511s
 20892  3949 1842761.44   44  423 540300.542 1842761.44   241%  1657 33515s
 20894  3950 938018.854   88  443 540300.542 1842221.28   241%  1657 33521s
 20895  3951 1609472.00   71  418 540300.542 1841966.13   241%  1657 33525s
 20897  3952 1840122.68  124  412 540300.542 1840122.68   241%  1657 33531s
 20898  3953 1839633.33   57  390 540300.542 1839633.33   240%  1656 33536s
H20899  3754                    540300.64662 1839156.70   240%  1656 33543s
 20900  3754 1836151.43   49  423 540300.647 1836151.43   240%  1656 33546s
 20901  3755 1835170.58   39  413 540300.647 1835170.58   240%  1656 33550s
 20902  3756 1834781.04   77  404 540300.647 1834781.04   240%  1656 33556s
 20904  3757 892658.742  122  399 540300.647 1834213.46   239%  1656 33563s
 20905  3758 1151313.93   54  397 540300.647 1834160.81   239%  1656 33566s
 20907  3759 1832518.47   66  398 540300.647 1832518.47   239%  1656 33572s
 20908  3760 801793.295   46  389 540300.647 1831228.27   239%  1656 33576s
 20910  3761 1491544.45  160  410 540300.647 1830621.60   239%  1656 33584s
 20911  3762 1035543.60   42  398 540300.647 1830458.37   239%  1655 33588s
 20912  3762 1706958.52   73  380 540300.647 1830068.69   239%  1655 33591s
 20914  3764 1529521.48   66  371 540300.647 1829430.07   239%  1655 33598s
 20915  3764 1828893.49   48  416 540300.647 1828893.49   238%  1655 33601s
 20916  3765 1484985.05   50  414 540300.647 1828741.89   238%  1655 33606s
 20917  3766 1053207.22   93  405 540300.647 1828716.55   238%  1655 33610s
 20919  3767 1827973.92   39  425 540300.647 1827973.92   238%  1655 33617s
 20920  3768 1827350.80   58  410 540300.647 1827350.80   238%  1655 33621s
 20922  3769 1826104.83   46  414 540300.647 1826104.83   238%  1655 33629s
 20923  3770 1825961.25  157  412 540300.647 1825961.25   238%  1655 33632s
 20924  3770 741326.915   60  409 540300.647 1825895.32   238%  1654 33636s
 20926  3772 1112810.37   77  410 540300.647 1825676.27   238%  1654 33642s
 20927  3772 1471104.96   81  406 540300.647 1825642.25   238%  1654 33645s
 20928  3773 1824848.70   42  404 540300.647 1824848.70   238%  1654 33651s
H20928  3582                    540300.65850 1824750.61   238%  1654 33654s
 20930  3583 844697.873   84  404 540300.659 1824726.58   238%  1654 33657s
 20931  3584 1680327.24   76  398 540300.659 1824648.67   238%  1654 33660s
 20933  3585 1467852.86   48  374 540300.659 1823307.93   237%  1654 33667s
 20934  3586 649532.812   45  381 540300.659 1822979.53   237%  1654 33672s
 20935  3587 1205525.59   44  393 540300.659 1822876.85   237%  1654 33675s
 20937  3588 1667347.78   61  390 540300.659 1821009.64   237%  1653 33682s
 20938  3589 1221869.05   76  395 540300.659 1820973.30   237%  1653 33686s
 20940  3590 1803145.93   59  392 540300.659 1820778.89   237%  1653 33694s
 20941  3591 1786667.16   85  396 540300.659 1820720.63   237%  1653 33697s
 20942  3591 607945.491   63  395 540300.659 1820696.56   237%  1653 33700s
 20944  3593 1330188.27   72  385 540300.659 1820418.64   237%  1653 33707s
 20945  3593 757826.345  125  395 540300.659 1820242.66   237%  1653 33710s
 20946  3594 1449138.41   28  410 540300.659 1818818.59   237%  1653 33715s
 20948  3595 1426847.67   66  407 540300.659 1818168.33   237%  1653 33722s
 20949  3596 1818120.68   43  401 540300.659 1818120.68   237%  1652 33725s
 20950  3597 1818112.47   93  407 540300.659 1818112.47   237%  1652 33731s
 20951  3597 1777823.46   50  398 540300.659 1818111.78   237%  1652 33740s
 20953  3599 1818111.78   49  398 540300.659 1818111.78   237%  1652 33754s
 20954  3600 1817230.21   47  369 540300.659 1817230.21   236%  1655 33772s
 20956  3602 1761816.40   48  347 540300.659 1817137.42   236%  1655 33804s
 20958  3604 1758140.25   49  347 540300.659 1777765.64   229%  1655 33826s
 20962  3606 1686068.50   50  364 540300.659 1767518.44   227%  1655 33841s
 20966  3607 1692678.58   50  370 540300.659 1765611.81   227%  1655 33865s
 20970  3608 1670253.08   51  380 540300.659 1752951.42   224%  1655 33873s
 20974  3611 1372787.34   51  322 540300.659 1752632.53   224%  1655 33892s
 20979  3609 1670252.76   52  382 540300.659 1734779.04   221%  1655 33909s
 20984  3609     cutoff   52      540300.659 1734779.04   221%  1654 33920s
 20990  3609 1440367.09   53  259 540300.659 1701842.26   215%  1654 33928s
 20995  3610 1637632.38   54  361 540300.659 1701842.26   215%  1654 33938s
 21001  3613 829281.110   54  317 540300.659 1675976.86   210%  1654 33943s
 21008  3612 1578623.00   55  364 540300.659 1675976.86   210%  1654 33951s
 21015  3618 1537887.21   55  312 540300.659 1675976.86   210%  1653 33962s
 21022  3619 1567602.63   56  351 540300.659 1675976.86   210%  1653 33972s
 21032  3619 1562732.03   57  349 540300.659 1675976.86   210%  1653 33981s
 21042  3619 1561449.06   58  352 540300.659 1675976.86   210%  1652 33988s
 21053  3623 1554425.59   59  350 540300.659 1675976.86   210%  1652 34001s
 21066  3624 1540777.68   60  349 540300.659 1675976.86   210%  1651 34011s
 21079  3630 1539060.02   61  336 540300.659 1675976.86   210%  1651 34020s
 21092  3632 1520341.82   62  343 540300.659 1675976.86   210%  1650 34028s
 21101  3637 1510182.47   63  353 540300.659 1675976.86   210%  1650 34036s
 21113  3643 735719.135   64  254 540300.659 1675976.86   210%  1650 34045s
 21127  3652 1305441.46   65  299 540300.659 1675976.86   210%  1649 34054s
 21138  3654 1474608.03   66  371 540300.659 1675976.86   210%  1649 34062s
 21159  3665 619416.035   67  224 540300.659 1675976.86   210%  1648 34075s
 21173  3666 1460896.89   68  360 540300.659 1675976.86   210%  1648 34085s
 21196  3677 1445930.45   70  357 540300.659 1675976.86   210%  1647 34095s
 21223  3691 819056.443   71  249 540300.659 1675976.86   210%  1646 34106s
 21249  3690 1428732.29   73  349 540300.659 1675976.86   210%  1645 34117s
 21280  3706 1387577.41   75  348 540300.659 1675976.86   210%  1644 34127s
 21320  3727 744950.703   77  294 540300.659 1675976.86   210%  1641 34136s
 21362  3745 1343831.01   79  360 540300.659 1675976.86   210%  1639 34145s
 21411  3756 1319803.16   81  378 540300.659 1675976.86   210%  1636 34153s
 21451  3777 986421.956   83  207 540300.659 1675976.86   210%  1634 34165s
 21493  3780 1252168.14   86  356 540300.659 1675976.86   210%  1632 34175s
 21561  3797 1226369.23   89  347 540300.659 1675976.86   210%  1628 34184s
 21603  3797 543917.784   92  298 540300.659 1675976.86   210%  1627 34193s
 21640  3808     cutoff   94      540300.659 1675976.86   210%  1625 34203s
 21700  3811     cutoff   97      540300.659 1675976.86   210%  1622 34211s
 21799  3826 967250.044  101  337 540300.659 1675976.86   210%  1616 34221s
 21862  3830     cutoff  106      540300.659 1675976.86   210%  1613 34232s
 21928  3842 873589.331  109  295 540300.659 1675976.86   210%  1609 34242s
 22002  3861 822231.194  116  295 540300.659 1675976.86   210%  1606 34250s
 22100  3884 743386.828  137  210 540300.659 1646199.49   205%  1600 34260s
 22233  3902 1432557.72   55  327 540300.659 1646137.21   205%  1593 34271s
 22304  3922 1223556.44   71  307 540300.659 1646137.21   205%  1590 34282s
 22368  3951 959008.981   87  284 540300.659 1582914.95   193%  1587 34294s
 22440  3972 1288942.66   55  292 540300.659 1542230.20   185%  1585 34305s
 22525  3995 932297.240   74  331 540300.659 1531812.02   184%  1581 34317s
 22644  4017 909833.335   57  115 540300.659 1516460.11   181%  1575 34330s
 22869  4075 893199.134   84  262 540300.659 1498411.07   177%  1562 34341s
 23070  4128 1210136.23   71  143 540300.659 1466138.89   171%  1551 34352s
 23250  4180 1363151.50   62  326 540300.659 1462935.08   171%  1542 34366s
 23348  4190 1150764.05   82  254 540300.659 1460788.88   170%  1537 34380s
 23539  4208 1312962.74   62  120 540300.659 1451560.12   169%  1528 34400s
 23739  4277 652732.178   68  225 540300.659 1439286.10   166%  1518 34415s
 23924  4327 1201456.61   63  274 540300.659 1434342.81   165%  1509 34431s
 24045  4325 1116676.39   70  281 540300.659 1430289.82   165%  1505 34446s
 24228  4350     cutoff   83      540300.659 1421846.98   163%  1497 34463s
 24468  4368 825013.029   68  207 540300.659 1408700.46   161%  1486 34480s
 24674  4406 1347045.47   67  150 540300.659 1394713.47   158%  1476 34496s
 24861  4445 881728.689   82  370 540300.659 1388423.64   157%  1469 34516s
 25054  4470 636354.966   54  161 540300.659 1380159.62   155%  1462 34536s
 25323  4540 1223154.33   66  223 540300.659 1360016.84   152%  1450 34551s
 25571  4624 676279.493  125  215 540300.659 1355728.32   151%  1440 34576s
 25767  4670 762438.813   56  250 540300.659 1346706.87   149%  1433 34597s
 26014  4715 663901.400   73  148 540300.659 1335452.57   147%  1424 34618s
 26217  4745 859829.687   75  309 540300.659 1335452.57   147%  1417 34641s
 26497  4811 1127984.73   85  258 540300.659 1324519.91   145%  1406 34669s
 26717  4872 668074.917  134  187 540300.659 1314658.45   143%  1398 34694s
 27001  4926 782728.213   74  206 540300.659 1306700.54   142%  1389 34715s
 27268  4929 778962.640   73  104 540300.659 1289339.95   139%  1379 34742s
 27507  4975 878254.391   69  311 540300.659 1277839.20   137%  1373 34767s
 27629  4958     cutoff   83      540300.659 1275003.65   136%  1369 34797s
 27952  4963 885735.969   61  139 540300.659 1263685.50   134%  1359 34827s
 28280  5025 987789.289   77  252 540300.659 1255354.27   132%  1349 34859s
 28631  4955 737119.565   91  302 540300.659 1245731.06   131%  1339 34891s
 29032  4978 872309.178   84  274 540300.659 1223848.08   127%  1326 34925s
 29351  5010 721807.361   82  290 540300.659 1209242.17   124%  1319 34959s
 29789  4983 898046.875   69  308 540300.659 1196097.02   121%  1305 34991s
 30259  5053     cutoff  100      540300.659 1189376.73   120%  1292 35014s
 30703  5001 712749.941   64  241 540300.659 1173823.18   117%  1280 35050s
 31136  4991     cutoff   62      540300.659 1155449.64   114%  1268 35098s
 31514  4961 965115.107   61  272 540300.659 1141117.22   111%  1259 35135s
 31955  4986 876691.155   71  238 540300.659 1132589.58   110%  1249 35172s
 32402  5110     cutoff   58      540300.659 1122172.61   108%  1238 35208s
 32890  5236 816892.193   94  221 540300.659 1104605.99   104%  1226 35244s
 33349  5303 807204.000   76  204 540300.659 1096464.58   103%  1216 35277s
 33811  5525 728065.314  153  185 540300.659 1087927.33   101%  1206 35313s
 33904  5486 978249.328   64  258 540300.659 1085773.94   101%  1204 35349s
 34411  5579     cutoff   66      540300.659 1071003.56  98.2%  1193 35384s
 34921  5710     cutoff   62      540300.659 1064262.32  97.0%  1182 35417s
 35425  5790     cutoff   82      540300.659 1055088.34  95.3%  1170 35444s
 35825  5836     cutoff   74      540300.659 1043851.72  93.2%  1162 35477s
 36237  5908     cutoff   75      540300.659 1030666.50  90.8%  1154 35500s
 36587  5951     cutoff   58      540300.659 1018208.13  88.5%  1147 35533s
 36939  5987     cutoff   76      540300.659 1007772.93  86.5%  1141 35563s
 37269  6002     cutoff   81      540300.659 999481.832  85.0%  1135 35585s
 37611  6070 905867.429   61  188 540300.659 991849.589  83.6%  1128 35605s
 37914  6090 920493.128   68  246 540300.659 982618.960  81.9%  1122 35629s
 38228  6115     cutoff   80      540300.659 974998.300  80.5%  1117 35648s
 38482  6103     cutoff   88      540300.659 967583.494  79.1%  1112 35676s
 38760  6094     cutoff   84      540300.659 964592.047  78.5%  1108 35699s
 39009  6086 823181.458  100  161 540300.659 954428.954  76.6%  1103 35724s
 39354  6111     cutoff  111      540300.659 947363.202  75.3%  1097 35742s
 39579  6081     cutoff   76      540300.659 941586.221  74.3%  1094 35764s
 39863  6074     cutoff   79      540300.659 934281.801  72.9%  1088 35783s
 40116  6047     cutoff   93      540300.659 928575.410  71.9%  1084 35807s
 40491  6102     cutoff   87      540300.659 922503.074  70.7%  1077 35825s
 40708  6082     cutoff   62      540300.659 916787.096  69.7%  1074 35843s
 40904  6037     cutoff   68      540300.659 910921.651  68.6%  1071 35866s
 41161  6032 595436.085   76  160 540300.659 905618.947  67.6%  1067 35886s
 41398  5997     cutoff   98      540300.659 901514.008  66.9%  1063 35907s
 41689  5989     cutoff   99      540300.659 897011.268  66.0%  1058 35927s
 41927  5935     cutoff   65      540300.659 890516.513  64.8%  1055 35948s
 42234  5969     cutoff   90      540300.659 885502.127  63.9%  1050 35969s
 42565  5968     cutoff   71      540300.659 881348.625  63.1%  1045 35981s
 42752  5921     cutoff   90      540300.659 876513.670  62.2%  1043 35989s
 42877  5841 757739.238   69  230 540300.659 871199.702  61.2%  1041 36005s
 43066  5786     cutoff   74      540300.659 867748.538  60.6%  1038 36020s
 43313  5768     cutoff   73      540300.659 862948.664  59.7%  1034 36030s
 43484  5700     cutoff   76      540300.659 858632.539  58.9%  1031 36047s
 43745  5682     cutoff   78      540300.659 855266.333  58.3%  1028 36057s
 43875  5605     cutoff   70      540300.659 850782.675  57.5%  1026 36070s
 44143  5580     cutoff  102      540300.659 846673.346  56.7%  1022 36081s
 44279  5512     cutoff   94      540300.659 843001.686  56.0%  1020 36097s
 44515  5487     cutoff  101      540300.659 838734.014  55.2%  1016 36108s
 44693  5456     cutoff  114      540300.659 834905.155  54.5%  1014 36121s
 44923  5406 567513.082   65  192 540300.659 831065.496  53.8%  1010 36133s
 45129  5372     cutoff  131      540300.659 828302.478  53.3%  1007 36148s
 45276  5299     cutoff   95      540300.659 824263.073  52.6%  1005 36159s
 45487  5258     cutoff   88      540300.659 820634.369  51.9%  1002 36174s
 45721  5231     cutoff   75      540300.659 816473.915  51.1%   999 36183s
 45872  5170     cutoff   66      540300.659 812785.512  50.4%   997 36190s
 46021  5092     cutoff   66      540300.659 809127.518  49.8%   995 36199s
 46191  5049     cutoff   87      540300.659 805542.738  49.1%   992 36208s
 46375  5006     cutoff  109      540300.659 801983.106  48.4%   989 36218s
 46551  4935 587860.190   63  172 540300.659 798611.371  47.8%   987 36225s
 46699  4854     cutoff   78      540300.659 795447.577  47.2%   985 36233s
 46868  4797     cutoff   94      540300.659 791764.222  46.5%   982 36242s
 47020  4740     cutoff   67      540300.659 789208.840  46.1%   980 36248s
 47193  4693     cutoff   84      540300.659 785981.523  45.5%   977 36260s
 47329  4625     cutoff   90      540300.659 783345.604  45.0%   976 36265s
 47468  4554     cutoff   83      540300.659 780640.626  44.5%   974 36270s
 47601  4493     cutoff   67      540300.659 777667.686  43.9%   971 36278s
 47757  4445     cutoff   67      540300.659 774771.546  43.4%   969 36285s
 48014  4296     cutoff   71      540300.659 768058.172  42.2%   965 36297s
 48197  4229 571704.370  103  170 540300.659 764348.398  41.5%   962 36306s
 48309  4148     cutoff  122      540300.659 761264.218  40.9%   960 36313s
 48447  4092 684854.271   79  127 540300.659 758312.958  40.4%   958 36319s
 48572  4011     cutoff   93      540300.659 754966.829  39.7%   956 36325s
 48811  3862     cutoff  103      540300.659 749022.743  38.6%   952 36335s
 48956  3786     cutoff   83      540300.659 746331.961  38.1%   950 36342s
 49113  3721     cutoff   82      540300.659 743224.130  37.6%   948 36347s
 49249  3644     cutoff   64      540300.659 740026.117  37.0%   946 36352s
 49363  3565     cutoff   65      540300.659 736965.456  36.4%   945 36359s
 49501  3500     cutoff  103      540300.659 733922.771  35.8%   943 36366s
 49632  3425     cutoff   92      540300.659 731172.687  35.3%   941 36375s
 49952  3274     cutoff   91      540300.659 724323.964  34.1%   936 36384s
 50050  3194     cutoff   83      540300.659 721554.746  33.5%   935 36391s
 50155  3117     cutoff   75      540300.659 717955.962  32.9%   934 36395s
 50270  3044     cutoff   65      540300.659 715024.219  32.3%   932 36402s
 50378  2964     cutoff   71      540300.659 712778.626  31.9%   930 36408s
 50505  2893     cutoff   97      540300.659 709813.315  31.4%   929 36412s
 50621  2821     cutoff   70      540300.659 706656.468  30.8%   927 36416s
 50746  2755     cutoff   83      540300.659 704332.816  30.4%   925 36422s
 50867  2675     cutoff   71      540300.659 701234.411  29.8%   923 36427s
 50982  2598     cutoff   64      540300.659 698155.137  29.2%   922 36430s
 51206  2438     cutoff   83      540300.659 692077.348  28.1%   918 36436s
 51296  2354     cutoff   71      540300.659 689735.773  27.7%   917 36441s
 51501  2189     cutoff   74      540300.659 684133.988  26.6%   914 36446s
 51677  2021     cutoff   87      540300.659 678349.907  25.6%   911 36452s
 51805  1948     cutoff  101      540300.659 675132.908  25.0%   909 36455s
 52023  1790     cutoff   56      540300.659 669311.411  23.9%   906 36460s
 52230  1632     cutoff   73      540300.659 663452.349  22.8%   903 36465s
 52404  1464     cutoff   95      540300.659 657286.690  21.7%   901 36471s
 52605  1307     cutoff   90      540300.659 651291.146  20.5%   898 36479s
 52703  1223     cutoff  132      540300.659 648183.778  20.0%   896 36481s
 52900  1055     cutoff   98      540300.659 642098.407  18.8%   894 36486s
 53186   805     cutoff  115      540300.659 633055.508  17.2%   889 36491s
 53377   637     cutoff   70      540300.659 624906.274  15.7%   887 36496s
 53651   385     cutoff   83      540300.659 613432.992  13.5%   882 36500s
 53938   135     cutoff   80      540300.659 593276.661  9.80%   878 36505s

Cutting planes:
  Gomory: 423
  Cover: 3
  Implied bound: 18
  Projected implied bound: 22
  Clique: 36
  MIR: 48
  Flow cover: 351
  GUB cover: 1
  Zero half: 21

Explored 54176 nodes (47394946 simplex iterations) in 36509.98 seconds
Thread count was 4 (of 16 available processors)

Solution count 10: 540301 540301 540301 ... 540300
No other solutions better than 540301

Optimal solution found (tolerance 1.00e-04)
Warning: max constraint violation (9.1841e-05) exceeds tolerance
Best objective 5.403006585023e+05, best bound 5.403006585023e+05, gap 0.0000%

***
***  |- Calculation finished, took 36,510.01 (36510.01) sec.
***  |-----------------------------------------------------------------------------------------------------------------------
***
*****************************************************************************************************************************
#############################################################################################################################
###
### Results
###
### The objective of the solution is 540,300.6585 (540300.6585) and is feasible with a Gap of 0.0
###
### Service 24 (WAF7) is operated by 3 vessels from type 18 (PMax25)
###  |- Vessel  1 has the path [100, 276, -1]
###  |  100 (DEHAM Out@288.0) - 276 (ESALG In@496.0/Out@515.0) - -1 (DUMMY_END Ziel-Service 24)
###  |- Vessel  2 has the path [101, 277, -1]
###  |  101 (DEHAM Out@456.0) - 277 (ESALG In@664.0/Out@683.0) - -1 (DUMMY_END Ziel-Service 24)
###  |- Vessel 13 has the path [104, 275, 201, 291, 202, 114, 278, -1]
###  |  104 (DKAAR Out@220.0) - 275 (ESALG In@328.0/Out@347.0) - 201 (MAPTM In@375.0/Out@396.0) - 291 (MAPTM In@379.0/Out@398
###  |  .0) - 202 (MAPTM In@406.0/Out@427.0) - 114 (ESALG In@452.0/Out@464.0) - 278 (ESALG In@832.0/Out@851.0) - -1 (DUMMY_EN
###  |  D Ziel-Service 24)
###  |   |- and carried Demand  18,   18.0 containers from 201 to 114
###  |   |- and carried Demand  52,  484.0 containers from 202 to 114
###  |   |- and carried Demand  53,   18.0 containers from 202 to 114
###  |   |- and carried Demand 119,  214.0 containers from 201 to 278
###  |   |- and carried Demand 120,   10.0 containers from 201 to 278
###  |   |- and carried Demand 121,  484.0 containers from 201 to 114
###  |   |- and carried Demand 122,   18.0 containers from 201 to 114
###  |   |- and carried Demand 132,  214.0 containers from 202 to 278
###  |   |- and carried Demand 133,   10.0 containers from 202 to 278
###  |   |- and carried Demand 134,  312.0 containers from 202 to 114
###  |   |- and carried Demand 135,   18.0 containers from 202 to 114
###  |   |- and carried Demand 138,  214.0 containers from 291 to 278
###  |   |- and carried Demand 139,   10.0 containers from 291 to 278
###  |   |- and carried Demand 140,  484.0 containers from 291 to 114
###  |   |- and carried Demand 141,   18.0 containers from 291 to 114
###  |
### Service 121 (SAE) is operated by 2 vessels from type 30 (PMax35)
###  |- Vessel  9 has the path [1, 274, 199, 290, 200, 112, 284, 45, 302, -2]
###  |  1 (BEANR Out@66.0) - 274 (ESALG In@160.0/Out@179.0) - 199 (MAPTM In@207.0/Out@228.0) - 290 (MAPTM In@211.0/Out@230.0)
###  |   - 200 (MAPTM In@238.0/Out@259.0) - 112 (ESALG In@284.0/Out@296.0) - 284 (GWOXB In@463.0/Out@542.0) - 45 (CMDLA In@76
###  |  5.0/Out@811.0) - 302 (HNPCR In@1166.0/Out@1179.0) - -2 (DUMMY_END Ziel-Service 121)
###  |   |- and carried Demand   7,  161.0 containers from 199 to  45
###  |   |- and carried Demand   8,  580.0 containers from 199 to 112
###  |   |- and carried Demand  45,  161.0 containers from 200 to  45
###  |   |- and carried Demand  46,  580.0 containers from 200 to 112
###  |   |- and carried Demand 117,  580.0 containers from 199 to 112
###  |   |- and carried Demand 131,  580.0 containers from 200 to 112
###  |   |- and carried Demand 144,  161.0 containers from 290 to  45
###  |   |- and carried Demand 145,  580.0 containers from 290 to 112
###  |- Vessel 18 has the path [148, 315, 311, 301, -2]
###  |  148 (GBFXT Out@470.0) - 315 (USORF In@873.0/Out@881.0) - 311 (USMIA In@935.0/Out@943.0) - 301 (HNPCR In@998.0/Out@101
###  |  1.0) - -2 (DUMMY_END Ziel-Service 121)
###  |   |- and carried Demand 170,   10.0 containers from 311 to 301
###  |   |- and carried Demand 171,   75.0 containers from 315 to 301
###  |   |- and carried Demand 172,  114.0 containers from 315 to 301
###  |
### Service 177 (WCSA) is operated by 3 vessels from type 18 (PMax25)
###  |- Vessel  3 has the path [102, 234, 0]
###  |  102 (DEHAM Out@624.0) - 234 (PABLB In@1304.0/Out@1316.0) - 0 (DUMMY_END Ziel-Service 177)
###  |- Vessel  4 has the path [103, 235, 0]
###  |  103 (DEHAM Out@792.0) - 235 (PABLB In@1472.0/Out@1484.0) - 0 (DUMMY_END Ziel-Service 177)
###  |- Vessel 14 has the path [105, 36, 240, 236, 0]
###  |  105 (DKAAR Out@388.0) - 36 (CLLQN In@1240.0/Out@1258.0) - 240 (PECLL In@1435.24/Out@1437.24) - 236 (PABLB In@1640.0/O
###  |  ut@1652.0) - 0 (DUMMY_END Ziel-Service 177)
###  |   |- and carried Demand  80,  194.0 containers from  36 to 236
###  |   |- and carried Demand  81,   20.0 containers from  36 to 236
###  |   |- and carried Demand  83,    5.0 containers from  36 to 236
###  |
### Vessels not used in the solution: [5, 6, 7, 8, 10, 11, 12, 15, 16, 17]
###  |-----------------------------------------------------------------------------------------------------------------------
###
#############################################################################################################################

### Detialed variable overview

### All variables with value greater zero:
rho[24,18] = 1
rho[177,18] = 1
rho[121,30] = 1
eta[24,18,1] = 1
eta[24,18,2] = 1
eta[24,18,3] = 1
eta[177,18,1] = 1
eta[177,18,2] = 1
eta[177,18,3] = 1
eta[121,30,1] = 1
eta[121,30,2] = 1
y[1,276,-1] = 1
y[1,100,276] = 1
y[2,101,277] = 1
y[2,277,-1] = 1
y[3,234,0] = 1
y[3,102,234] = 1
y[4,235,0] = 1
y[4,103,235] = 1
y[9,200,112] = 1
y[9,274,199] = 1
y[9,290,200] = 1
y[9,1,274] = 1
y[9,45,302] = 1
y[9,199,290] = 1
y[9,302,-2] = 1
y[9,284,45] = 1
y[9,112,284] = 1
y[13,104,275] = 1
y[13,275,201] = 1
y[13,291,202] = 1
y[13,114,278] = 1
y[13,202,114] = 1
y[13,278,-1] = 1
y[13,201,291] = 1
y[14,240,236] = 1
y[14,105,36] = 1
y[14,36,240] = 1
y[14,236,0] = 1
y[18,301,-2] = 1
y[18,148,315] = 1
y[18,315,311] = 1
y[18,311,301] = 1
xD[7,200,112] = 161
xD[7,290,200] = 161
xD[7,199,290] = 161
xD[7,284,45] = 161
xD[7,112,284] = 161
xD[8,200,112] = 580
xD[8,290,200] = 580
xD[8,199,290] = 580
xD[18,291,202] = 18
xD[18,202,114] = 18
xD[18,201,291] = 18
xD[45,200,112] = 161
xD[45,284,45] = 161
xD[45,112,284] = 161
xD[46,200,112] = 580
xD[52,202,114] = 484
xD[53,202,114] = 18
xD[80,240,236] = 194
xD[80,36,240] = 194
xD[81,240,236] = 20
xD[81,36,240] = 20
xD[83,240,236] = 5
xD[83,36,240] = 5
xD[117,200,112] = 579.999
xD[117,290,200] = 580
xD[117,199,290] = 580
xD[119,291,202] = 214
xD[119,114,278] = 214
xD[119,202,114] = 214
xD[119,201,291] = 214
xD[120,291,202] = 10
xD[120,114,278] = 10
xD[120,202,114] = 10
xD[120,201,291] = 10
xD[121,291,202] = 484
xD[121,202,114] = 484
xD[121,201,291] = 484
xD[122,291,202] = 18
xD[122,202,114] = 18
xD[122,201,291] = 18
xD[131,200,112] = 580
xD[132,114,278] = 214
xD[132,202,114] = 214
xD[133,114,278] = 10
xD[133,202,114] = 10
xD[134,202,114] = 312
xD[135,202,114] = 18
xD[138,291,202] = 214
xD[138,114,278] = 214
xD[138,202,114] = 214
xD[139,291,202] = 10
xD[139,114,278] = 10
xD[139,202,114] = 10
xD[140,291,202] = 484
xD[140,202,114] = 484
xD[141,291,202] = 18
xD[141,202,114] = 18
xD[144,200,112] = 161
xD[144,290,200] = 161
xD[144,284,45] = 161
xD[144,112,284] = 161
xD[145,200,112] = 580
xD[145,290,200] = 580
xD[170,311,301] = 10
xD[171,315,311] = 75
xD[171,311,301] = 75
xD[172,315,311] = 114
xD[172,311,301] = 114
zE[36] = 1240
zE[45] = 765
zE[112] = 284
zE[114] = 452
zE[199] = 207
zE[200] = 238
zE[201] = 375
zE[202] = 406
zE[234] = 1304
zE[235] = 1472
zE[236] = 1640
zE[240] = 1435.24
zE[274] = 160
zE[275] = 328
zE[276] = 496
zE[277] = 664
zE[278] = 832
zE[284] = 463
zE[290] = 211
zE[291] = 379
zE[301] = 998
zE[302] = 1166
zE[311] = 935
zE[315] = 873
zX[1] = 66
zX[36] = 1258
zX[45] = 811
zX[100] = 288
zX[101] = 456
zX[102] = 624
zX[103] = 792
zX[104] = 220
zX[105] = 388
zX[112] = 296
zX[114] = 464
zX[148] = 470
zX[199] = 228
zX[200] = 259
zX[201] = 396
zX[202] = 427
zX[234] = 1316
zX[235] = 1484
zX[236] = 1652
zX[240] = 1437.24
zX[274] = 179
zX[275] = 347
zX[276] = 515
zX[277] = 683
zX[278] = 851
zX[284] = 542
zX[290] = 230
zX[291] = 398
zX[301] = 1011
zX[302] = 1179
zX[311] = 943
zX[315] = 881
w[14,(240,236)] = 144.166
w[14,(36,240)] = 161.145
phi[1] = 227
phi[2] = 227
phi[3] = 692
phi[4] = 692
phi[9] = 1113
phi[13] = 631
phi[14] = 1264
phi[18] = 541

### All variables with value smaller zero:

### End

real	610m39.005s
user	2288m59.314s
sys	146m38.478s
	Freetype 2.4.12 environment removed
	Python 3.6.0 environment removed
	Gurobi 8.1.0 environment removed
