	Freetype 2.4.12 environment established
		library to render fonts
	Python 3.6.0 environment established
	Gurobi 8.1.0 environment established
Instance LSFRP: LSFDRP_2_2_0_0_fr.p
Instance LSFDP: LSFDRP_2_2_0_0_fd_19.p

*****************************************************************************************************************************
*** Solve LSFDRP_2_2_0_0_fd_19 with Gurobi
***
*** Graph info
*** |S|: 18
*** |S^E|: 0
*** |S^C|: 0
*** |V|: 321
*** |A|: 9520
*** |A^i|: 9469
*** |A^f|: 51
*** |M|: 193
*** |E|: 22

Changed value of parameter TimeLimit to 86400.0
   Prev: 1e+100  Min: 0.0  Max: 1e+100  Default: 1e+100
Changed value of parameter Threads to 4
   Prev: 0  Min: 0  Max: 1024  Default: 0
Optimize a model with 91412 rows, 2029350 columns and 7453802 nonzeros
Variable types: 1857954 continuous, 171396 integer (171396 binary)
Coefficient statistics:
  Matrix range     [1e+00, 4e+03]
  Objective range  [2e+00, 1e+07]
  Bounds range     [1e+00, 1e+00]
  RHS range        [1e+00, 4e+03]
Presolve removed 53749 rows and 1663543 columns (presolve time = 5s) ...
Presolve removed 62474 rows and 1706691 columns (presolve time = 10s) ...
Warning: Failed to open log file 'gurobi.log'
Presolve removed 62486 rows and 1706880 columns (presolve time = 28s) ...
Presolve removed 62721 rows and 1706899 columns (presolve time = 30s) ...
Presolve removed 63782 rows and 1710087 columns (presolve time = 106s) ...
Presolve removed 63782 rows and 1710087 columns
Presolve time: 106.26s
Presolved: 27630 rows, 319263 columns, 1387957 nonzeros
Variable types: 147960 continuous, 171303 integer (171255 binary)

Deterministic concurrent LP optimizer: primal and dual simplex
Showing first log only...


Root simplex log...

Iteration    Objective       Primal Inf.    Dual Inf.      Time
       0   -9.1610275e+03   5.000000e+00   7.855971e+07    111s
   13313   -2.1406447e+07   0.000000e+00   1.719572e+10    114s
   20770   -1.8711411e+07   0.000000e+00   4.715358e+11    115s
Concurrent spin time: 0.00s

Solved with dual simplex

Root relaxation: objective 6.687941e+06, 16708 iterations, 10.29 seconds

    Nodes    |    Current Node    |     Objective Bounds      |     Work
 Expl Unexpl |  Obj  Depth IntInf | Incumbent    BestBd   Gap | It/Node Time

     0     0 6687941.05    0  150          - 6687941.05      -     -  123s
     0     0 6211228.35    0  146          - 6211228.35      -     -  136s
H    0     0                    -8676626.237 6211228.35   172%     -  137s
H    0     0                    -8270046.236 6211228.35   175%     -  139s
     0     0 6078798.14    0  145 -8270046.2 6078798.14   174%     -  141s
     0     0 6000385.26    0  164 -8270046.2 6000385.26   173%     -  152s
H    0     0                    -2222146.376 6000385.26   370%     -  152s
     0     0 5998268.58    0  159 -2222146.4 5998268.58   370%     -  156s
     0     0 5950368.06    0  118 -2222146.4 5950368.06   368%     -  163s
     0     0 5944307.52    0  118 -2222146.4 5944307.52   368%     -  166s
     0     0 5920708.80    0  204 -2222146.4 5920708.80   366%     -  173s
H    0     0                    -744308.3249 5920708.80   895%     -  180s
     0     0 5920708.80    0  204 -744308.32 5920708.80   895%     -  181s
     0     0 5918406.43    0  193 -744308.32 5918406.43   895%     -  184s
     0     0 5917980.87    0  197 -744308.32 5917980.87   895%     -  189s
     0     0 5917980.87    0  197 -744308.32 5917980.87   895%     -  190s
     0     0 5917473.63    0  198 -744308.32 5917473.63   895%     -  193s
H    0     0                    354973.52291 5917473.63  1567%     -  197s
     0     0 5917460.87    0  197 354973.523 5917460.87  1567%     -  197s
     0     0 5916923.45    0  200 354973.523 5916923.45  1567%     -  201s
     0     0 5916529.97    0  199 354973.523 5916529.97  1567%     -  203s
     0     0 5916529.97    0  200 354973.523 5916529.97  1567%     -  203s
     0     0 5916458.87    0  200 354973.523 5916458.87  1567%     -  206s
     0     0 5916458.87    0  200 354973.523 5916458.87  1567%     -  210s
     0     0 5911453.86    0  196 354973.523 5911453.86  1565%     -  213s
     0     0 5911453.86    0  197 354973.523 5911453.86  1565%     -  217s
     0     0 5911453.86    0  193 354973.523 5911453.86  1565%     -  243s
     0     2 5911453.86    0  193 354973.523 5911453.86  1565%     -  263s
     1     4 5741359.98    1  287 354973.523 5741359.98  1517% 114509 1174s
     3     6 4029819.39    2  188 354973.523 5481175.77  1444% 94941 7215s
     7    10 4023361.46    3  175 354973.523 5264167.43  1383% 134037 7406s
    11    14 4014957.96    4  171 354973.523 5264167.43  1383% 90393 7439s
    15    16 4009566.93    5  172 354973.523 5264167.43  1383% 66462 7554s
    19    18 4004325.30    6  160 354973.523 5264167.43  1383% 53519 7682s
    23    18 3952069.82    7  208 354973.523 5264167.43  1383% 45892 7955s
    29    26 3862017.24    7  165 354973.523 5264167.43  1383% 37511 8020s
    37    28 3947593.45    9  161 354973.523 5264167.43  1383% 29629 8091s
    44    35 3926801.69   11  159 354973.523 5264167.43  1383% 25140 8118s
    54    40 3898132.37   14  156 354973.523 5264167.43  1383% 20656 8219s
H   64    47                    360164.59497 5252587.65  1358% 17778 8462s
    72    46 3846767.45   18  156 360164.595 5252587.65  1358% 15980 8634s
    84    55 3561507.62   19  134 360164.595 5252587.65  1358% 14355 8976s
    99    60 3493256.08   22  139 360164.595 5252587.65  1358% 12703 9474s
   103    63 3323678.98   22  116 360164.595 5252587.65  1358% 12740 10544s
   117    76 3429174.05   28  129 360164.595 5252587.65  1358% 12008 12278s
   131    93 3034933.45   33  104 360164.595 5252587.65  1358% 12734 12618s
   141    95 3180350.90   37  109 360164.595 5252587.65  1358% 12182 12870s
   157   113 3115962.46   43   97 360164.595 5252587.65  1358% 11359 13017s
   172   126 2997349.29   50  110 360164.595 5252587.65  1358% 10577 13602s
   179   131 2956393.91   51  106 360164.595 5252587.65  1358% 10426 13770s
   207   159 2904980.66   58  130 360164.595 5252587.65  1358%  9280 14009s
   235   179 2055524.68   66  130 360164.595 5252587.65  1358%  8463 14130s
   272   215 2361014.52   76   92 360164.595 5252587.65  1358%  7442 14459s
   310   243 2153546.90   89  101 360164.595 5194974.50  1342%  6864 14564s
   346   270 1195135.00  101   67 360164.595 5194974.50  1342%  6330 15056s
   379   304 758042.833  117   75 360164.595 5152461.39  1331%  6078 15654s
   439   341 4320916.47   11  105 360164.595 5152461.39  1331%  5413 16450s
   464   360 4513635.99   11  117 360164.595 5152461.39  1331%  5151 16541s
   560   438 infeasible   21      360164.595 5152461.39  1331%  4348 16699s
   636   484 2734956.68   24  110 360164.595 5152309.00  1331%  3970 16871s
   703   526 1751971.09   39  118 360164.595 5152309.00  1331%  3735 16989s
   783   597 1912620.89   70  107 360164.595 5152309.00  1331%  3443 17112s
   873   671 1254152.79   99   96 360164.595 5120725.14  1322%  3172 17229s
   979   751 3904781.15   19  132 360164.595 5036121.79  1298%  2930 17333s
  1118   875 3070875.66   36  193 360164.595 5036121.79  1298%  2660 17612s
  1120   876 2680957.90   56  145 360164.595 4771063.80  1225%  2655 17628s
  1121   877 4419723.73   39  159 360164.595 4583360.05  1173%  2653 17640s
  1123   878 901921.159  104  156 360164.595 4364525.61  1112%  2648 17656s
  1124   879 4362860.25   14  158 360164.595 4362860.25  1111%  2646 17660s
  1125   880 1255779.40   81  182 360164.595 4339881.88  1105%  2643 17671s
H 1125   835                    360164.70723 4339881.88  1105%  2643 17674s
  1126   835 1142326.75   34  187 360164.707 4299385.16  1094%  2641 17675s
H 1126   793                    774519.80355 4299385.16   455%  2641 17678s
  1127   794 1722072.34   83  229 774519.804 4266374.92   451%  2639 17680s
  1129   795 4117757.94   16  225 774519.804 4258834.56   450%  2634 17690s
  1130   796 3095370.73   53  228 774519.804 4238125.04   447%  2632 17704s
  1131   797 3476436.79   34  278 774519.804 4103305.85   430%  2629 17714s
  1132   797 4102963.77   12  278 774519.804 4102963.77   430%  2627 17719s
H 1132   757                    774519.80427 4100917.62   429%  2627 17732s
  1134   759 1264736.61   62  288 774519.804 4081783.39   427%  2622 17739s
  1135   759 3596698.41   14  306 774519.804 4079267.23   427%  2620 17746s
  1136   760 1504456.93   69  309 774519.804 4061235.32   424%  2618 17764s
  1137   761 3875732.16   24  262 774519.804 4049010.31   423%  2616 17767s
  1138   761 4048386.32   13  254 774519.804 4048386.32   423%  2613 17772s
  1139   762 2034238.50   89  317 774519.804 4030573.72   420%  2611 17808s
  1140   763 3219891.19   23  317 774519.804 4030573.72   420%  2609 17813s
  1141   763 4030573.72   10  317 774519.804 4030573.72   420%  2606 17838s
  1142   767 4030573.72   14  317 774519.804 4030573.72   420%  2647 17944s
  1144   770 3850996.33   15  166 774519.804 3974320.22   413%  2649 18019s
  1147   769 3196468.57   15  159 774519.804 3910030.07   405%  2659 18020s
  1148   773 3834914.77   16  216 774519.804 3910030.07   405%  2659 18079s
  1152   776 3689039.57   16  232 774519.804 3889534.91   402%  2666 18125s
  1156   778 3758998.14   17  128 774519.804 3889534.91   402%  2671 18143s
  1160   781 3245767.21   17  205 774519.804 3889534.91   402%  2676 18196s
  1164   784 3753595.96   18  130 774519.804 3753595.96   385%  2690 18229s
  1171   786 3747869.57   19  133 774519.804 3747869.57   384%  2690 18261s
  1178   789 3691944.24   20  117 774519.804 3747869.57   384%  2697 18289s
  1185   795 3741139.69   21  129 774519.804 3741139.69   383%  2692 18308s
  1192   799 3703611.84   22  133 774519.804 3710252.02   379%  2694 18338s
  1199   801 3648771.40   23  119 774519.804 3708109.23   379%  2702 18361s
  1207   806 3683550.49   24  121 774519.804 3708109.23   379%  2702 18397s
  1215   815 3638720.28   24  140 774519.804 3708109.23   379%  2706 18426s
  1222   820 3630602.52   25  131 774519.804 3708109.23   379%  2710 18471s
  1230   823 3628222.66   26  130 774519.804 3708109.23   379%  2722 18505s
  1239   830 3621457.32   27  135 774519.804 3708109.23   379%  2734 18531s
  1245   834 3597337.42   28  134 774519.804 3708109.23   379%  2736 18563s
  1251   837 3595553.90   29  138 774519.804 3708109.23   379%  2754 18593s
  1256   845 3590004.08   30  133 774519.804 3708109.23   379%  2777 18620s
  1266   848 3586033.99   31  133 774519.804 3708109.23   379%  2785 18684s
  1280   855 3585984.98   32  138 774519.804 3708109.23   379%  2793 18731s
  1296   867 3419786.85   33  112 774519.804 3708109.23   379%  2817 18768s
  1310   876 3563910.28   34  103 774519.804 3708109.23   379%  2818 18807s
  1323   887 2951983.14   35  103 774519.804 3708109.23   379%  2843 18836s
  1338   897 3530328.02   36  120 774519.804 3708109.23   379%  2846 18872s
  1351   905 3527444.55   37  121 774519.804 3708109.23   379%  2863 18918s
  1372   921 3462585.35   39  108 774519.804 3708109.23   379%  2861 18958s
  1393   927 3462559.23   40  110 774519.804 3708109.23   379%  2868 19001s
  1426   946 3457752.74   43  114 774519.804 3708109.23   379%  2842 19026s
  1462   969 3210153.92   45  110 774519.804 3708109.23   379%  2806 19053s
  1499   978 3435586.05   47  113 774519.804 3708109.23   379%  2773 19086s
  1536   997 2702741.32   51  107 774519.804 3708109.23   379%  2748 19113s
  1571  1005 3386598.32   55  121 774519.804 3708109.23   379%  2727 19144s
  1609  1029 3265439.32   60  117 774519.804 3708109.23   379%  2706 19205s
  1628  1028 3317418.32   64  139 774519.804 3708109.23   379%  2702 19249s
  1677  1043 3257054.02   70  137 774519.804 3708109.23   379%  2673 19283s
  1712  1062 3201012.63   76  109 774519.804 3708109.23   379%  2655 19320s
  1782  1098 3156530.14   85  113 774519.804 3708109.23   379%  2593 19387s
H 1806  1074                    774519.80646 3708109.23   379%  2577 19387s
  1868  1107 3040138.78   97   83 774519.806 3708109.23   379%  2509 19449s
  1951  1123 2814058.12  111  106 774519.806 3708109.23   379%  2456 19496s
  2034  1152 1934853.29  119   87 774519.806 3708109.23   379%  2402 19545s
  2098  1170 2086722.91  131   87 774519.806 3708109.23   379%  2373 19590s
  2149  1188 1937340.84  147   87 774519.806 3708109.23   379%  2358 19631s
  2216  1221 1738977.30  159   81 774519.806 3703598.37   378%  2327 19719s
  2293  1265 2938149.14   19  170 774519.806 3703598.37   378%  2279 19792s
H 2334  1226                    774520.47141 3703598.37   378%  2253 19792s
  2362  1266     cutoff   22      774520.471 3703598.37   378%  2235 19985s
  2424  1293 1036805.65   30   76 774520.471 3688989.34   376%  2195 20040s
  2547  1333 3435889.92   26  118 774520.471 3688989.34   376%  2130 20104s
  2684  1414 3363964.07   30  153 774520.471 3688989.34   376%  2055 20172s
  2710  1422 3317115.75   39  117 774520.471 3688989.34   376%  2061 20247s
  2756  1446 3185068.89   57  126 774520.471 3688989.34   376%  2061 20309s
  2812  1478 3037231.77   79  125 774520.471 3688989.34   376%  2058 20363s
  2893  1509 2121260.90   89  107 774520.471 3688989.34   376%  2031 20451s
  3124  1647 1821274.12  165  120 774520.471 3652425.38   372%  1917 20536s
  3425  1888 2960482.46   19  242 774520.471 3648771.40   371%  1787 20597s
  3458  1909 2809207.45   22  170 774520.471 3648771.40   371%  1801 20660s
  3636  2052 2549436.17   39  125 774520.471 3648771.40   371%  1745 20725s
  3777  2150 2245511.21   75  137 774520.471 3647613.46   371%  1710 20813s
  4033  2389 3567318.24   26  150 774520.471 3647613.46   371%  1635 20915s
  4302  2594 2209649.70   33   68 774520.471 3630172.91   369%  1574 21031s
  4547  2810 3318524.78   27  196 774520.471 3630172.91   369%  1522 21110s
  4625  2881 3288398.52   29  186 774520.471 3622139.13   368%  1518 21195s
  4845  3048 3320716.34   19  191 774520.471 3622139.13   368%  1480 21300s
  5052  3225 3217451.58   22  164 774520.471 3622139.13   368%  1453 21398s
  5117  3271 2890744.28   39  135 774520.471 3622139.13   368%  1462 21496s
  5217  3360 2467311.39   53  166 774520.471 3612309.73   366%  1466 21596s
  5282  3417 3412851.57   28  211 774520.471 3612309.73   366%  1479 21705s
  5479  3543 3288354.74   31  221 774520.471 3612309.73   366%  1459 21883s
  5564  3590 3227656.16   36  214 774520.471 3611711.29   366%  1465 21995s
H 5700  3708                    774520.47152 3611711.29   366%  1446 21995s
  5750  3719 3323754.17   27  233 774520.472 3611711.29   366%  1443 22120s
  6073  3991 3214725.32   29  138 774520.472 3611711.29   366%  1392 22241s
  6190  4074 1134212.50   34  104 774520.472 3590538.46   364%  1397 22358s
  6294  4156 3254026.87   26  142 774520.472 3590538.46   364%  1412 22479s
  6444  4280 3092274.30   35  114 774520.472 3590538.46   364%  1415 22642s
  6539  4362 2930548.95   45  121 774520.472 3585179.27   363%  1416 22789s
  6852  4637 3165793.58   22  171 774520.472 3580913.73   362%  1395 22932s
  7125  4879 2793813.78   34  160 774520.472 3573517.84   361%  1371 23084s
  7275  4983 1870385.23   28   88 774520.472 3572642.79   361%  1377 23259s
  7471  5160 2796843.69   29  239 774520.472 3572642.79   361%  1382 23417s
  7565  5227 2969575.99   32  183 774520.472 3572642.79   361%  1400 23594s
  7683  5324 2781959.62   36  158 774520.472 3572642.79   361%  1419 23765s
  7953  5498 2532421.07   43  175 774520.472 3572642.79   361%  1406 24072s
  8039  5578     cutoff   46      774520.472 3572642.79   361%  1407 24306s
  8383  5867 2456129.67   53  163 774520.472 3572642.79   361%  1387 24492s
  8596  6017 2335716.98   63   85 774520.472 3555243.06   359%  1397 24680s
  8761  6138 2924574.75   33  153 774520.472 3543332.14   357%  1410 24872s
  9215  6535 3235726.41   34  131 774520.472 3540965.71   357%  1383 25065s
  9642  6795 3279777.38   34  107 774520.472 3536996.91   357%  1366 25262s
 10081  7146 1271949.67   87  121 774520.472 3530443.98   356%  1346 25453s
 10662  7627 3520959.86   18  193 774520.472 3529681.29   356%  1307 25527s
 10664  7628 2687780.60   75  131 774520.472 3529681.29   356%  1307 25542s
 10665  7629 2549245.35   40  158 774520.472 3529681.29   356%  1307 25555s
 10667  7630 2116522.88   62  237 774520.472 3529681.29   356%  1307 25567s
 10668  7631 1890974.06  135  235 774520.472 3529681.29   356%  1307 25572s
 10669  7632 2281738.52   27  234 774520.472 3529681.29   356%  1307 25579s
 10670  7632 3351204.58   28  225 774520.472 3529681.29   356%  1306 25586s
 10671  7633 1820825.94   47  220 774520.472 3529681.29   356%  1306 25590s
 10672  7634 2663245.78   78  220 774520.472 3529681.29   356%  1306 25596s
 10673  7634 3013952.25   40  219 774520.472 3529681.29   356%  1306 25606s
 10675  7636 2809187.89   23  291 774520.472 3529681.29   356%  1306 25614s
 10676  7636 1316122.13   93  306 774520.472 3529681.29   356%  1306 25628s
 10677  7637 1269246.07  118  314 774520.472 3529681.29   356%  1306 25633s
 10678  7638 3121940.79   31  313 774520.472 3529681.29   356%  1305 25641s
 10679  7638 2103327.22  120  254 774520.472 3529681.29   356%  1305 25649s
 10680  7639 2274179.56   36  251 774520.472 3529681.29   356%  1305 25661s
 10681  7640 1223372.21   86  248 774520.472 3529681.29   356%  1305 25667s
 10682  7640 2682145.02   57  253 774520.472 3529681.29   356%  1305 25680s
 10683  7641 3352526.87   28  250 774520.472 3529681.29   356%  1305 25687s
 10684  7642 1297638.36  142  257 774520.472 3529681.29   356%  1305 25710s
 10685  7642 3004710.24   79  257 774520.472 3529681.29   356%  1305 25715s
 10686  7643 1871672.81   23  257 774520.472 3529681.29   356%  1305 25743s
 10687  7647 3529681.29   26  189 774520.472 3529681.29   356%  1309 25803s
 10689  7650 3529681.29   27  244 774520.472 3529681.29   356%  1309 25851s
 10693  7653 3529681.29   28  153 774520.472 3529681.29   356%  1309 25906s
 10697  7653 3383790.25   28  236 774520.472 3529681.29   356%  1311 25965s
 10701  7656 3529681.29   29  157 774520.472 3529681.29   356%  1311 25994s
 10705  7658 3529681.29   29  160 774520.472 3529681.29   356%  1312 26030s
 10709  7661 3529681.29   30  159 774520.472 3529681.29   356%  1314 26060s
 10713  7662 3529681.29   30  145 774520.472 3529681.29   356%  1314 26081s
 10717  7663 3529681.29   31  157 774520.472 3529681.29   356%  1316 26107s
 10723  7663 3529681.29   32  140 774520.472 3529681.29   356%  1318 26153s
 10729  7664 3529681.29   33  144 774520.472 3529681.29   356%  1320 26180s
 10734  7673 3529681.29   33  127 774520.472 3529681.29   356%  1321 26232s
 10741  7678 3529681.29   35  122 774520.472 3529681.29   356%  1323 26258s
 10748  7676 3529681.29   36  118 774520.472 3529681.29   356%  1324 26288s
 10756  7685 3529681.29   37  113 774520.472 3529681.29   356%  1326 26310s
 10762  7690 3459121.42   38  120 774520.472 3529681.29   356%  1327 26335s
 10772  7690 3508067.30   40  157 774520.472 3529681.29   356%  1328 26356s
 10783  7698 3487923.71   42  154 774520.472 3529681.29   356%  1330 26380s
 10791  7708 3478418.27   43  155 774520.472 3529681.29   356%  1332 26408s
 10801  7711 3474300.63   45  159 774520.472 3529681.29   356%  1333 26434s
 10815  7720 3451496.65   47  159 774520.472 3529681.29   356%  1334 26464s
 10823  7722 3423729.13   49  153 774520.472 3529681.29   356%  1335 26491s
 10840  7735 3163008.56   51  116 774520.472 3529681.29   356%  1336 26520s
 10853  7744 3377467.15   53  143 774520.472 3529681.29   356%  1338 26541s
 10867  7753 3301217.53   55  132 774520.472 3529681.29   356%  1340 26573s
 10886  7762 2954320.19   58  110 774520.472 3529681.29   356%  1342 26602s
 10906  7775 2930366.30   61  112 774520.472 3529681.29   356%  1345 26627s
 10930  7789 2832264.38   66  127 774520.472 3529681.29   356%  1347 26676s
 10953  7806 2824996.32   69  133 774520.472 3529681.29   356%  1348 26699s
 10985  7826 2587392.64   76  141 774520.472 3529681.29   356%  1349 26728s
 11021  7851 2217922.68   82   91 774520.472 3529681.29   356%  1349 26753s
 11068  7871 2061094.62   90   97 774520.472 3529681.29   356%  1348 26774s
 11137  7898 2029868.32   99  103 774520.472 3529681.29   356%  1345 26797s
 11201  7895 1931712.01  105   91 774520.472 3529681.29   356%  1342 26823s
 11269  7913 1003994.18  116   82 774520.472 3529681.29   356%  1338 26872s
 11314  7918 1755683.74  129  105 774520.472 3529681.29   356%  1336 26898s
 11385  7935 1691577.11  144  109 774520.472 3529681.29   356%  1333 26922s
 11458  7962 1587463.37  160   99 774520.472 3529681.29   356%  1330 26949s
 11577  7987 1514555.36  178   99 774520.472 3529681.29   356%  1320 26990s
 11652  8000     cutoff  192      774520.472 3529681.29   356%  1316 27011s
 11747  7993 3529681.29   32  164 774520.472 3529681.29   356%  1309 27066s
 11780  8016 3529681.29   33  159 774520.472 3529681.29   356%  1308 27100s
 11815  8027 3529681.29   35  151 774520.472 3529681.29   356%  1307 27144s
 11855  8041 3330549.59   39  142 774520.472 3529681.29   356%  1308 27173s
 11964  8066 3361448.08   33  155 774520.472 3529681.29   356%  1300 27201s
 12069  8102 3279805.54   40  163 774520.472 3529681.29   356%  1293 27232s
 12096  8116 2711997.96   50  144 774520.472 3529681.29   356%  1296 27267s
 12125  8125 2313978.69   61  128 774520.472 3529681.29   356%  1298 27300s
 12292  8188 1562167.46  132  100 774520.472 3529681.29   356%  1286 27338s
 12328  8199 1631300.89   35  124 774520.472 3529681.29   356%  1288 27674s
 12398  8242 1398465.53   63  118 774520.472 3529681.29   356%  1284 27712s
 12609  8346 1175433.22  149   97 774520.472 3529681.29   356%  1267 27754s
 12655  8365 2175927.78   35  116 774520.472 3529681.29   356%  1267 27799s
 12745  8396 2071202.26   40  120 774520.472 3529681.29   356%  1264 27842s
 12782  8413 2015026.92   49  181 774520.472 3529681.29   356%  1267 27883s
 12901  8465 1480213.74   56  134 774520.472 3529681.29   356%  1261 27936s
 12967  8497 3435142.32   37  120 774520.472 3529681.29   356%  1262 28023s
 12980  8505 3435142.32   38  123 774520.472 3529681.29   356%  1263 28087s
 13038  8532 1069002.38   44   83 774520.472 3529681.29   356%  1267 28162s
 13188  8627 1628276.87   47  131 774520.472 3529681.29   356%  1262 28215s
 13329  8675 3107839.90   34  111 774520.472 3529681.29   356%  1257 28273s
 13467  8757 2399530.21   38  146 774520.472 3529681.29   356%  1254 28339s
 13673  8811 1325535.46  100  104 774520.472 3529681.29   356%  1244 28402s
 13954  8905 2247649.78   43  134 774520.472 3529681.29   356%  1228 28461s
 14136  8990 3379943.21   36  195 774520.472 3529681.29   356%  1222 28520s
 14324  9074 3313270.24   40  210 774520.472 3529681.29   356%  1214 28596s
 14619  9214 1151280.87  216   70 774520.472 3529681.29   356%  1199 28664s
 14849  9333 3380670.12   35  172 774520.472 3529681.29   356%  1191 28730s
 15038  9412 2940696.35   37  114 774520.472 3529681.29   356%  1187 28804s
 15261  9519 3225802.01   44  153 774520.472 3529681.29   356%  1180 28871s
 15432  9605 2718931.08   51  144 774520.472 3529681.29   356%  1178 28946s
 15614  9673 1558587.81   62  104 774520.472 3529681.29   356%  1179 29022s
 15837  9763 2011220.97   95  109 774520.472 3529681.29   356%  1175 29099s
 16121  9885 2881012.42   42  127 774520.472 3529681.29   356%  1166 29177s
 16410 10035 1768211.48   34  115 774520.472 3529681.29   356%  1157 29265s
 16918 10150 3465593.74   37  134 774520.472 3529681.29   356%  1137 29353s
 17185 10297 3203274.50   47  158 774520.472 3529681.29   356%  1131 29448s
 17606 10508 2863376.87   54  105 774520.472 3529681.29   356%  1116 29549s
 17880 10637 2700422.69   65   93 774520.472 3529681.29   356%  1112 29647s
 18125 10765 1301773.42   76  109 774520.472 3529681.29   356%  1110 29750s
 18505 10933 3282115.70   45  110 774520.472 3527789.47   355%  1100 29857s
 18589 10971 2640708.74   59  101 774520.472 3525486.00   355%  1099 29966s
 19044 11184 2188249.60   35  127 774520.472 3515785.97   354%  1086 30074s
 19440 11381 3169696.43   36  117 774520.472 3507443.33   353%  1076 30190s
 19782 11517 3066365.89   37  147 774520.472 3503596.08   352%  1071 30323s
 20018 11618 1375503.89   89  123 774520.472 3501750.83   352%  1074 30443s
 20531 11747 3283631.65   44  115 774520.472 3497233.75   352%  1065 30568s
 21144 12034 3025458.68   47  193 774520.472 3494028.65   351%  1051 33273s
 21146 12035 982867.708   57  102 774520.472 2457717.27   217%  1051 33277s
 21147 12036 1855425.18   78  108 774520.472 2333245.70   201%  1051 33281s
 21150 12038 1556790.44   81  130 774520.472 1728232.49   123%  1051 33286s
 21151 12039 1709662.30   57  133 774520.472 1709662.30   121%  1051 33294s
 21153 12041 1709662.30   82  193 774520.472 1709662.30   121%  1051 33295s
 21157 12044 830419.863   57  110 774520.472 1709662.30   121%  1051 33300s
 21161 12046 1707310.31   66  133 774520.472 1707310.31   120%  1051 33308s
 21164 12048 1395977.70   82  129 774520.472 1691048.24   118%  1051 33315s
 21165 12049 1508551.78   75  125 774520.472 1638907.51   112%  1051 33320s
 21167 12050 1588066.16   37  129 774520.472 1588066.16   105%  1051 33325s
 21169 12052 1586335.42   64  123 774520.472 1586335.42   105%  1051 33334s
 21170 12052 1576916.58   35  138 774520.472 1576916.58   104%  1051 33338s
 21171 12053 1250730.45   75  150 774520.472 1573113.45   103%  1051 33344s
 21172 12054 1526776.31   43  174 774520.472 1526776.31  97.1%  1050 33350s
 21176 12056 1498225.35   54  187 774520.472 1498225.35  93.4%  1050 33358s
 21177 12057 1163211.03  145  153 774520.472 1484799.01  91.7%  1050 33369s
 21178 12058 1481202.21   58  152 774520.472 1481202.21  91.2%  1050 33374s
 21179 12058 1421989.66   43  196 774520.472 1421989.66  83.6%  1050 33387s
 21180 12059 1385900.79   47  208 774520.472 1385900.79  78.9%  1050 33391s
 21181 12060 1381567.55   71  213 774520.472 1381567.55  78.4%  1050 33397s
 21182 12060 1090885.22   69  208 774520.472 1090885.22  40.8%  1050 33404s
 21184 12063 1090885.22   37  193 774520.472 1090885.22  40.8%  1052 33406s
 21188 12066 1090885.22   92  151 774520.472 1090885.22  40.8%  1052 33410s
 21192 12068 1090885.22   69  176 774520.472 1090885.22  40.8%  1052 33415s
 21200 12075 1019550.08   79  102 774520.472 1019550.08  31.6%  1052 33420s
 21210 12082 883167.322  182  196 774520.472 979855.828  26.5%  1052 33425s

Cutting planes:
  Gomory: 24
  Implied bound: 14
  Projected implied bound: 11
  Clique: 1
  MIR: 12
  Flow cover: 32
  Zero half: 2

Explored 21220 nodes (22358745 simplex iterations) in 33429.88 seconds
Thread count was 4 (of 16 available processors)

Solution count 10: 774520 774520 774520 ... -744308

Optimal solution found (tolerance 1.00e-04)
Best objective 7.745198030136e+05, best bound 7.745204715217e+05, gap 0.0001%

***
***  |- Calculation finished, took 33,429.91 (33429.91) sec.
***  |-----------------------------------------------------------------------------------------------------------------------
***
*****************************************************************************************************************************
#############################################################################################################################
###
### Results
###
### The objective of the solution is 774,519.803 (774519.803) and is feasible with a Gap of 0.0
###
### Service 24 (WAF7) is operated by 3 vessels from type 18 (PMax25)
###  |- Vessel  1 has the path [100, 276, -1]
###  |  100 (DEHAM Out@288.0) - 276 (ESALG In@496.0/Out@515.0) - -1 (DUMMY_END Ziel-Service 24)
###  |- Vessel  2 has the path [101, 277, -1]
###  |  101 (DEHAM Out@456.0) - 277 (ESALG In@664.0/Out@683.0) - -1 (DUMMY_END Ziel-Service 24)
###  |- Vessel 13 has the path [104, 275, 201, 291, 202, 114, 278, -1]
###  |  104 (DKAAR Out@220.0) - 275 (ESALG In@328.0/Out@347.0) - 201 (MAPTM In@375.0/Out@396.0) - 291 (MAPTM In@379.0/Out@398
###  |  .0) - 202 (MAPTM In@406.0/Out@427.0) - 114 (ESALG In@452.0/Out@464.0) - 278 (ESALG In@832.0/Out@851.0) - -1 (DUMMY_EN
###  |  D Ziel-Service 24)
###  |   |- and carried Demand  18,   18.0 containers from 201 to 114
###  |   |- and carried Demand  52,  312.0 containers from 202 to 114
###  |   |- and carried Demand  53,   18.0 containers from 202 to 114
###  |   |- and carried Demand 119,  214.0 containers from 201 to 278
###  |   |- and carried Demand 120,   10.0 containers from 201 to 278
###  |   |- and carried Demand 121,  484.0 containers from 201 to 114
###  |   |- and carried Demand 122,   18.0 containers from 201 to 114
###  |   |- and carried Demand 132,  214.0 containers from 202 to 278
###  |   |- and carried Demand 133,   10.0 containers from 202 to 278
###  |   |- and carried Demand 134,  484.0 containers from 202 to 114
###  |   |- and carried Demand 135,   18.0 containers from 202 to 114
###  |   |- and carried Demand 138,  214.0 containers from 291 to 278
###  |   |- and carried Demand 139,   10.0 containers from 291 to 278
###  |   |- and carried Demand 140,  484.0 containers from 291 to 114
###  |   |- and carried Demand 141,   18.0 containers from 291 to 114
###  |
### Service 121 (SAE) is operated by 2 vessels from type 30 (PMax35)
###  |- Vessel 12 has the path [8, 302, -2]
###  |  8 (BEANR Out@570.0) - 302 (HNPCR In@1166.0/Out@1179.0) - -2 (DUMMY_END Ziel-Service 121)
###  |- Vessel 18 has the path [148, 315, 311, 301, -2]
###  |  148 (GBFXT Out@470.0) - 315 (USORF In@873.0/Out@881.0) - 311 (USMIA In@935.0/Out@943.0) - 301 (HNPCR In@998.0/Out@101
###  |  1.0) - -2 (DUMMY_END Ziel-Service 121)
###  |   |- and carried Demand 170,   10.0 containers from 311 to 301
###  |   |- and carried Demand 171,   75.0 containers from 315 to 301
###  |   |- and carried Demand 172,  114.0 containers from 315 to 301
###  |
### Service 177 (WCSA) is operated by 3 vessels from type 19 (PMax28)
###  |- Vessel  5 has the path [218, 133, 199, 290, 200, 112, 284, 45, 36, 240, 236, 0]
###  |  218 (NLRTM Out@92.0) - 133 (FRLEH In@111.0/Out@127.0) - 199 (MAPTM In@207.0/Out@228.0) - 290 (MAPTM In@211.0/Out@230.
###  |  0) - 200 (MAPTM In@238.0/Out@259.0) - 112 (ESALG In@284.0/Out@296.0) - 284 (GWOXB In@463.0/Out@542.0) - 45 (CMDLA In@
###  |  765.0/Out@811.0) - 36 (CLLQN In@1240.0/Out@1258.0) - 240 (PECLL In@1512.12/Out@1514.12) - 236 (PABLB In@1640.0/Out@16
###  |  52.0) - 0 (DUMMY_END Ziel-Service 177)
###  |   |- and carried Demand   6,   17.0 containers from 218 to 133
###  |   |- and carried Demand   7,  161.0 containers from 199 to  45
###  |   |- and carried Demand   8,  580.0 containers from 199 to 112
###  |   |- and carried Demand  45,  161.0 containers from 200 to  45
###  |   |- and carried Demand  46,  580.0 containers from 200 to 112
###  |   |- and carried Demand  80,  194.0 containers from  36 to 236
###  |   |- and carried Demand  81,   20.0 containers from  36 to 236
###  |   |- and carried Demand  83,    5.0 containers from  36 to 236
###  |   |- and carried Demand 117,  580.0 containers from 199 to 112
###  |   |- and carried Demand 131,   19.0 containers from 200 to 112
###  |   |- and carried Demand 144,  161.0 containers from 290 to  45
###  |   |- and carried Demand 145,  580.0 containers from 290 to 112
###  |- Vessel  7 has the path [221, 137, 203, 234, 0]
###  |  221 (NLRTM Out@428.0) - 137 (FRLEH In@447.0/Out@463.0) - 203 (MAPTM In@543.0/Out@564.0) - 234 (PABLB In@1304.0/Out@13
###  |  16.0) - 0 (DUMMY_END Ziel-Service 177)
###  |   |- and carried Demand  26,    6.0 containers from 221 to 137
###  |- Vessel  8 has the path [223, 138, 204, 235, 0]
###  |  223 (NLRTM Out@596.0) - 138 (FRLEH In@615.0/Out@631.0) - 204 (MAPTM In@711.0/Out@732.0) - 235 (PABLB In@1472.0/Out@14
###  |  84.0) - 0 (DUMMY_END Ziel-Service 177)
###  |
### Vessels not used in the solution: [3, 4, 6, 9, 10, 11, 14, 15, 16, 17]
###  |-----------------------------------------------------------------------------------------------------------------------
###
#############################################################################################################################

### Detialed variable overview

### All variables with value greater zero:
rho[24,18] = 1
rho[177,19] = 1
rho[121,30] = 1
eta[24,18,1] = 1
eta[24,18,2] = 1
eta[24,18,3] = 1
eta[177,19,1] = 1
eta[177,19,2] = 1
eta[177,19,3] = 1
eta[121,30,1] = 1
eta[121,30,2] = 1
y[1,276,-1] = 1
y[1,100,276] = 1
y[2,101,277] = 1
y[2,277,-1] = 1
y[5,200,112] = 1
y[5,290,200] = 1
y[5,240,236] = 1
y[5,133,199] = 1
y[5,199,290] = 1
y[5,45,36] = 1
y[5,218,133] = 1
y[5,36,240] = 1
y[5,284,45] = 1
y[5,236,0] = 1
y[5,112,284] = 1
y[7,234,0] = 1
y[7,137,203] = 1
y[7,203,234] = 1
y[7,221,137] = 1
y[8,235,0] = 1
y[8,204,235] = 1
y[8,223,138] = 1
y[8,138,204] = 1
y[12,8,302] = 1
y[12,302,-2] = 1
y[13,104,275] = 1
y[13,275,201] = 1
y[13,291,202] = 1
y[13,114,278] = 1
y[13,202,114] = 1
y[13,278,-1] = 1
y[13,201,291] = 1
y[18,301,-2] = 1
y[18,148,315] = 1
y[18,315,311] = 1
y[18,311,301] = 1
xD[6,218,133] = 17
xD[7,200,112] = 161
xD[7,290,200] = 161
xD[7,199,290] = 161
xD[7,284,45] = 161
xD[7,112,284] = 161
xD[8,200,112] = 580
xD[8,290,200] = 580
xD[8,199,290] = 580
xD[18,291,202] = 18
xD[18,202,114] = 18
xD[18,201,291] = 18
xD[26,221,137] = 6
xD[45,200,112] = 161
xD[45,284,45] = 161
xD[45,112,284] = 161
xD[46,200,112] = 580
xD[52,202,114] = 312
xD[53,202,114] = 18
xD[80,240,236] = 194
xD[80,36,240] = 194
xD[81,240,236] = 20
xD[81,36,240] = 20
xD[83,240,236] = 5
xD[83,36,240] = 5
xD[117,200,112] = 580
xD[117,290,200] = 580
xD[117,199,290] = 580
xD[119,291,202] = 214
xD[119,114,278] = 214
xD[119,202,114] = 214
xD[119,201,291] = 214
xD[120,291,202] = 10
xD[120,114,278] = 10
xD[120,202,114] = 10
xD[120,201,291] = 10
xD[121,291,202] = 484
xD[121,202,114] = 484
xD[121,201,291] = 484
xD[122,291,202] = 18
xD[122,202,114] = 18
xD[122,201,291] = 18
xD[131,200,112] = 19
xD[132,114,278] = 214
xD[132,202,114] = 214
xD[133,114,278] = 10
xD[133,202,114] = 10
xD[134,202,114] = 484
xD[135,202,114] = 18
xD[138,291,202] = 214
xD[138,114,278] = 214
xD[138,202,114] = 214
xD[139,291,202] = 10
xD[139,114,278] = 10
xD[139,202,114] = 10
xD[140,291,202] = 484
xD[140,202,114] = 484
xD[141,291,202] = 18
xD[141,202,114] = 18
xD[144,200,112] = 161
xD[144,290,200] = 161
xD[144,284,45] = 161
xD[144,112,284] = 161
xD[145,200,112] = 580
xD[145,290,200] = 580
xD[170,311,301] = 10
xD[171,315,311] = 75
xD[171,311,301] = 75
xD[172,315,311] = 114
xD[172,311,301] = 114
zE[36] = 1240
zE[45] = 765
zE[112] = 284
zE[114] = 452
zE[133] = 111
zE[137] = 447
zE[138] = 615
zE[199] = 207
zE[200] = 238
zE[201] = 375
zE[202] = 406
zE[203] = 543
zE[204] = 711
zE[234] = 1304
zE[235] = 1472
zE[236] = 1640
zE[240] = 1512.12
zE[275] = 328
zE[276] = 496
zE[277] = 664
zE[278] = 832
zE[284] = 463
zE[290] = 211
zE[291] = 379
zE[301] = 998
zE[302] = 1166
zE[311] = 935
zE[315] = 873
zX[8] = 570
zX[36] = 1258
zX[45] = 811
zX[100] = 288
zX[101] = 456
zX[104] = 220
zX[112] = 296
zX[114] = 464
zX[133] = 127
zX[137] = 463
zX[138] = 631
zX[148] = 470
zX[199] = 228
zX[200] = 259
zX[201] = 396
zX[202] = 427
zX[203] = 564
zX[204] = 732
zX[218] = 92
zX[221] = 428
zX[223] = 596
zX[234] = 1316
zX[235] = 1484
zX[236] = 1652
zX[240] = 1514.12
zX[275] = 347
zX[276] = 515
zX[277] = 683
zX[278] = 851
zX[284] = 542
zX[290] = 230
zX[291] = 398
zX[301] = 1011
zX[302] = 1179
zX[311] = 943
zX[315] = 881
w[5,(240,236)] = 125.884
w[5,(36,240)] = 140.711
phi[1] = 227
phi[2] = 227
phi[5] = 1560
phi[7] = 888
phi[8] = 888
phi[12] = 609
phi[13] = 631
phi[18] = 541

### All variables with value smaller zero:

### End

real	559m29.965s
user	2012m14.774s
sys	217m18.677s
	Freetype 2.4.12 environment removed
	Python 3.6.0 environment removed
	Gurobi 8.1.0 environment removed
