### Additional Information to the goal services
# Basic costs on route 24: 38303690.87726081
# Basic costs on route 177: 42186486.96408953
# Basic costs on route 121: 18507829.378721282
# Basic costs on route 7: 85285380.78424482
# Direct costs (not staggered):
# For goal service 24:
# n_min: 2
# n_max: 4
# lowest costs of the goal service 24 with configuration (24, 18, 3) at 0.0
# For goal service 177:
# n_min: 2
# n_max: 3
# lowest costs of the goal service 177 with configuration (177, 18, 3) at 0.0
# For goal service 121:
# n_min: 1
# n_max: 2
# lowest costs of the goal service 121 with configuration (121, 30, 2) at 0.0
# For goal service 7:
# n_min: 3
# n_max: 6
# lowest costs of the goal service 7 with configuration (7, 19, 6) at 0.0
# (7, 18, 1): 50820096.950048044
# (7, 18, 2): 51780524.39004804
# (7, 18, 3): 46693437.21710083
# (7, 18, 4): 33364073.057100832
# (7, 18, 5): 20034708.89710082
# (7, 18, 6): 6705344.73710084
# (7, 19, 1): 52576297.6014054
# (7, 19, 2): 53632710.1614054
# (7, 19, 3): 44492151.235406
# (7, 19, 4): 26754797.496896
# (7, 19, 5): 9017443.758385986
# (7, 19, 6): 0.0
# (7, 30, 1): 56117717.63744305
# (7, 30, 2): 57270197.63744305
# (7, 30, 3): 53726143.739421085
# (7, 30, 4): 35286934.5226991
# (7, 30, 5): 16847725.30597709
# (7, 30, 6): 3887634.3825351447
# (24, 18, 1): 23192887.649769925
# (24, 18, 2): 12770064.830545142
# (24, 18, 3): 0.0
# (24, 18, 4): 960427.4400000051
# (24, 19, 1): 35819637.96676747
# (24, 19, 2): 20857256.35701771
# (24, 19, 3): 10911785.04889436
# (24, 19, 4): 11968197.608894356
# (24, 30, 1): 35091718.032195725
# (24, 30, 2): 22316264.777966373
# (24, 30, 3): 10313362.71222771
# (24, 30, 4): 11465842.71222771
# (121, 18, 1): 15029310.107922632
# (121, 18, 2): 1699945.9479226284
# (121, 19, 1): 17289613.729672603
# (121, 19, 2): 1370554.9198750556
# (121, 30, 1): 17785158.767755747
# (121, 30, 2): 0.0
# (177, 18, 1): 18812579.10572601
# (177, 18, 2): 13329364.159999982
# (177, 18, 3): 0.0
# (177, 19, 1): 28001937.076790467
# (177, 19, 2): 19235126.960318424
# (177, 19, 3): 1497773.221808426
# (177, 30, 1): 27536344.356699005
# (177, 30, 2): 22015460.79971938
# (177, 30, 3): 3576251.5829973742
# -------------------------------------------
