### Additional Information to the goal services
# Basic costs on route 24: 24232947.289695613
# Basic costs on route 177: 26689410.120138265
# Basic costs on route 121: 11709034.913068563
# Basic costs on route 7: 53956057.23084877
# Direct costs (not staggered):
# For goal service 24:
# n_min: 2
# n_max: 4
# lowest costs of the goal service 24 with configuration (24, 18, 3) at 0.0
# For goal service 177:
# n_min: 2
# n_max: 3
# lowest costs of the goal service 177 with configuration (177, 18, 3) at 0.0
# For goal service 121:
# n_min: 1
# n_max: 2
# lowest costs of the goal service 121 with configuration (121, 30, 2) at 0.0
# For goal service 7:
# n_min: 3
# n_max: 6
# lowest costs of the goal service 7 with configuration (7, 19, 6) at 0.0
# (7, 18, 1): 32151489.907173224
# (7, 18, 2): 32759107.267173223
# (7, 18, 3): 29540745.99449236
# (7, 18, 4): 21107882.954492353
# (7, 18, 5): 12675019.914492361
# (7, 18, 6): 4242156.87449237
# (7, 19, 1): 33262555.62537893
# (7, 19, 2): 33930898.26537893
# (7, 19, 3): 28148095.679542564
# (7, 19, 4): 16926504.538852565
# (7, 19, 5): 5704913.398162566
# (7, 19, 6): 0.0
# (7, 30, 1): 35503045.85225988
# (7, 30, 2): 36232165.85225988
# (7, 30, 3): 33990009.304531716
# (7, 30, 4): 22324387.147013687
# (7, 30, 5): 10658764.989495687
# (7, 30, 6): 2459523.7930324376
# (24, 18, 1): 14673051.3702626
# (24, 18, 2): 8079020.607079573
# (24, 18, 3): 0.0
# (24, 18, 4): 607617.3599999994
# (24, 19, 1): 22661403.6116284
# (24, 19, 2): 13195407.083011217
# (24, 19, 3): 6903374.214606635
# (24, 19, 4): 7571716.854606643
# (24, 30, 1): 22200882.836695246
# (24, 30, 2): 14118453.226876684
# (24, 30, 3): 6524780.491409361
# (24, 30, 4): 7253900.491409361
# (121, 18, 1): 9508339.047869422
# (121, 18, 2): 1075476.0078694262
# (121, 19, 1): 10938327.05346635
# (121, 19, 2): 867085.7656352445
# (121, 30, 1): 11251835.138784252
# (121, 30, 2): 0.0
# (177, 18, 1): 11901835.76076544
# (177, 18, 2): 8432863.04
# (177, 18, 3): 0.0
# (177, 19, 1): 17715511.21184703
# (177, 19, 2): 12169161.954487175
# (177, 19, 3): 947570.8137971759
# (177, 30, 1): 17420952.552197337
# (177, 30, 2): 13928148.669210218
# (177, 30, 3): 2262526.5116922185
# -------------------------------------------
