### Additional Information
# Routes included into the instance: {24}
#
### Additional Information to the vessels
# 1: k: 18, Start port: DEHAM, tE: 702, 
# 2: k: 18, Start port: DEHAM, tE: 870, 
# 3: k: 18, Start port: DEHAM, tE: 1038, 
# 4: k: 18, Start port: DEHAM, tE: 1206, 
# 5: k: 19, Start port: NLRTM, tE: 526, 
# 6: k: 19, Start port: NLRTM, tE: 694, 
# 7: k: 19, Start port: NLRTM, tE: 862, 
# 8: k: 19, Start port: NLRTM, tE: 1030, 
# 9: k: 30, Start port: BEANR, tE: 492, 
# 10: k: 30, Start port: BEANR, tE: 660, 
# 11: k: 30, Start port: BEANR, tE: 828, 
# 12: k: 30, Start port: BEANR, tE: 996, 
# 13: k: 18, Start port: DKAAR, tE: 654, 
# 14: k: 18, Start port: DKAAR, tE: 822, 
# 15: k: 19, Start port: FRLEH, tE: 588, 
# 16: k: 19, Start port: FRLEH, tE: 756, 
# 17: k: 30, Start port: GBFXT, tE: 726, 
# 18: k: 30, Start port: GBFXT, tE: 894, 
# 22: k: 18, Start port: JPYOK, tE: 944, 
# -------------------------------------------
