	Freetype 2.4.12 environment established
		library to render fonts
	Python 3.6.0 environment established
	Gurobi 8.1.0 environment established
Instance LSFRP: LSFDRP_1_4_0_0_fr.p
Instance LSFDP: LSFDRP_1_4_0_0_fd_16.p

*****************************************************************************************************************************
*** Solve LSFDRP_1_4_0_0_fd_16 with Gurobi
***
*** Graph info
*** |S|: 18
*** |S^E|: 0
*** |S^C|: 0
*** |V|: 221
*** |A|: 4463
*** |A^i|: 4463
*** |A^f|: 0
*** |M|: 75
*** |E|: 0

Changed value of parameter TimeLimit to 86400.0
   Prev: 1e+100  Min: 0.0  Max: 1e+100  Default: 1e+100
Changed value of parameter Threads to 4
   Prev: 0  Min: 0  Max: 1024  Default: 0
Optimize a model with 30424 rows, 424452 columns and 1727894 nonzeros
Variable types: 344097 continuous, 80355 integer (80355 binary)
Coefficient statistics:
  Matrix range     [1e+00, 4e+03]
  Objective range  [4e+01, 2e+07]
  Bounds range     [1e+00, 1e+00]
  RHS range        [1e+00, 6e+00]
Presolve removed 26588 rows and 347571 columns (presolve time = 28s) ...
Presolve removed 26632 rows and 347671 columns
Presolve time: 28.83s
Presolved: 3792 rows, 76781 columns, 239415 nonzeros
Variable types: 416 continuous, 76365 integer (76330 binary)
Warning: Failed to open log file 'gurobi.log'

Root simplex log...

Iteration    Objective       Primal Inf.    Dual Inf.      Time
       0    2.8984309e+08   4.577502e+04   0.000000e+00     30s
   10157    4.9440677e+05   0.000000e+00   0.000000e+00     35s

Root relaxation: objective 4.944068e+05, 10157 iterations, 4.70 seconds

    Nodes    |    Current Node    |     Objective Bounds      |     Work
 Expl Unexpl |  Obj  Depth IntInf | Incumbent    BestBd   Gap | It/Node Time

     0     0 423348.073    0   75          - 423348.073      -     -   36s
H    0     0                    -1.67331e+07 423348.073   103%     -   37s
H    0     0                    -1.54391e+07 423348.073   103%     -   37s
H    0     0                    -2739637.769 423348.073   115%     -   38s
H    0     0                    -1186907.579 423348.073   136%     -   40s
     0     0 261024.831    0  125 -1186907.6 261024.831   122%     -   42s
H    0     0                    -1084512.046 261024.831   124%     -   45s
     0     0 -200978.10    0  128 -1084512.0 -200978.10  81.5%     -   47s
H    0     0                    -1076948.254 -200978.10  81.3%     -   51s
     0     0 -201029.80    0  132 -1076948.3 -201029.80  81.3%     -   51s
     0     0 -236033.48    0  131 -1076948.3 -236033.48  78.1%     -   51s
     0     0 -437230.65    0  127 -1076948.3 -437230.65  59.4%     -   57s
     0     0 -505215.10    0  119 -1076948.3 -505215.10  53.1%     -   58s
     0     0 -505587.63    0  128 -1076948.3 -505587.63  53.1%     -   58s
     0     0 -529272.33    0  151 -1076948.3 -529272.33  50.9%     -   58s
     0     0 -536111.37    0  153 -1076948.3 -536111.37  50.2%     -   58s
     0     0 -540573.57    0  149 -1076948.3 -540573.57  49.8%     -   58s
     0     0 -541384.59    0  157 -1076948.3 -541384.59  49.7%     -   58s
     0     0 -541498.31    0  157 -1076948.3 -541498.31  49.7%     -   58s
     0     0 -561691.48    0  134 -1076948.3 -561691.48  47.8%     -   58s
     0     0 -561691.48    0  129 -1076948.3 -561691.48  47.8%     -   59s
     0     0 -685981.59    0  116 -1076948.3 -685981.59  36.3%     -   59s
     0     0 -713135.94    0  117 -1076948.3 -713135.94  33.8%     -   59s
     0     0 -722529.04    0  124 -1076948.3 -722529.04  32.9%     -   59s
     0     0 -756289.69    0  128 -1076948.3 -756289.69  29.8%     -   59s
     0     0 -760228.61    0  124 -1076948.3 -760228.61  29.4%     -   59s
     0     0 -760308.84    0  124 -1076948.3 -760308.84  29.4%     -   59s
     0     0 -767327.77    0  106 -1076948.3 -767327.77  28.7%     -   59s
     0     0 -767327.77    0  107 -1076948.3 -767327.77  28.7%     -   59s
     0     0 -816944.82    0  124 -1076948.3 -816944.82  24.1%     -   59s
     0     0 -816944.82    0  110 -1076948.3 -816944.82  24.1%     -   60s
     0     0 -831514.51    0  128 -1076948.3 -831514.51  22.8%     -   60s
     0     0 -859459.01    0  117 -1076948.3 -859459.01  20.2%     -   60s
     0     0 -884760.02    0  124 -1076948.3 -884760.02  17.8%     -   60s
     0     0 -884804.29    0  134 -1076948.3 -884804.29  17.8%     -   60s
     0     0 -905234.07    0  110 -1076948.3 -905234.07  15.9%     -   60s
     0     0 -905234.07    0  104 -1076948.3 -905234.07  15.9%     -   60s
     0     0 -905234.07    0  104 -1076948.3 -905234.07  15.9%     -   60s
     0     0 -914890.66    0   98 -1076948.3 -914890.66  15.0%     -   60s
     0     0 -931981.23    0  107 -1076948.3 -931981.23  13.5%     -   60s
     0     0 -972081.85    0  101 -1076948.3 -972081.85  9.74%     -   60s
     0     0 -973276.79    0  104 -1076948.3 -973276.79  9.63%     -   61s
     0     0 -973399.48    0  104 -1076948.3 -973399.48  9.62%     -   61s
     0     0 -977937.58    0  105 -1076948.3 -977937.58  9.19%     -   61s
     0     0 -977937.58    0   96 -1076948.3 -977937.58  9.19%     -   61s
H    0     0                    -1075516.593 -977937.58  9.07%     -   61s
     0     0 -977937.58    0   86 -1075516.6 -977937.58  9.07%     -   61s
     0     0 -983457.70    0   92 -1075516.6 -983457.70  8.56%     -   61s
     0     0 -985042.06    0   98 -1075516.6 -985042.06  8.41%     -   61s
     0     0 -985281.24    0   91 -1075516.6 -985281.24  8.39%     -   61s
     0     0 -985295.22    0   99 -1075516.6 -985295.22  8.39%     -   61s
     0     0 -985412.70    0  106 -1075516.6 -985412.70  8.38%     -   61s
     0     0 -986085.41    0  102 -1075516.6 -986085.41  8.32%     -   61s
     0     0 -986085.41    0  101 -1075516.6 -986085.41  8.32%     -   61s
     0     0 -986085.41    0   87 -1075516.6 -986085.41  8.32%     -   61s
     0     0 -986085.41    0   78 -1075516.6 -986085.41  8.32%     -   61s
     0     0 -986085.41    0   73 -1075516.6 -986085.41  8.32%     -   61s
     0     0 -992988.49    0  104 -1075516.6 -992988.49  7.67%     -   61s
     0     0 -994655.92    0  103 -1075516.6 -994655.92  7.52%     -   61s
     0     0 -994862.61    0  103 -1075516.6 -994862.61  7.50%     -   61s
     0     0 -994876.40    0  104 -1075516.6 -994876.40  7.50%     -   61s
     0     0 -1000152.3    0  104 -1075516.6 -1000152.3  7.01%     -   61s
     0     0 -1001476.3    0  109 -1075516.6 -1001476.3  6.88%     -   61s
     0     0 -1001876.6    0   81 -1075516.6 -1001876.6  6.85%     -   61s
     0     0 -1001876.6    0   81 -1075516.6 -1001876.6  6.85%     -   61s
     0     0 -1001876.6    0   66 -1075516.6 -1001876.6  6.85%     -   61s
     0     0 -1001876.6    0   69 -1075516.6 -1001876.6  6.85%     -   61s
     0     0 -1001876.6    0   55 -1075516.6 -1001876.6  6.85%     -   61s
     0     0 -1001876.6    0   87 -1075516.6 -1001876.6  6.85%     -   61s
     0     0 -1001876.6    0   79 -1075516.6 -1001876.6  6.85%     -   61s
     0     0 -1006790.2    0   68 -1075516.6 -1006790.2  6.39%     -   61s
     0     0 -1016788.9    0   73 -1075516.6 -1016788.9  5.46%     -   61s
     0     0 -1017754.9    0   82 -1075516.6 -1017754.9  5.37%     -   61s
     0     0 -1018204.7    0   85 -1075516.6 -1018204.7  5.33%     -   61s
     0     0 -1025778.2    0   51 -1075516.6 -1025778.2  4.62%     -   61s
     0     0 -1027036.8    0   65 -1075516.6 -1027036.8  4.51%     -   61s
     0     0 -1027660.5    0   65 -1075516.6 -1027660.5  4.45%     -   61s
     0     0 -1027743.3    0   67 -1075516.6 -1027743.3  4.44%     -   61s
     0     0 -1030081.6    0   64 -1075516.6 -1030081.6  4.22%     -   61s
     0     0 -1043728.5    0   42 -1075516.6 -1043728.5  2.96%     -   62s
     0     0 -1048871.9    0   52 -1075516.6 -1048871.9  2.48%     -   62s
     0     0 -1050336.7    0   32 -1075516.6 -1050336.7  2.34%     -   62s
     0     0 -1050336.7    0   31 -1075516.6 -1050336.7  2.34%     -   62s
     0     0 -1050336.7    0   22 -1075516.6 -1050336.7  2.34%     -   62s
     0     0 -1050336.7    0   18 -1075516.6 -1050336.7  2.34%     -   62s
     0     0 -1052959.0    0   26 -1075516.6 -1052959.0  2.10%     -   62s
     0     0 -1056474.5    0   17 -1075516.6 -1056474.5  1.77%     -   62s
     0     0     cutoff    0      -1075516.6 -1075516.6  0.00%     -   62s

Cutting planes:
  Gomory: 4
  MIR: 1

Explored 1 nodes (34440 simplex iterations) in 62.13 seconds
Thread count was 4 (of 16 available processors)

Solution count 7: -1.07552e+06 -1.07695e+06 -1.08451e+06 ... -1.67331e+07

Optimal solution found (tolerance 1.00e-04)
Best objective -1.075516592702e+06, best bound -1.075516592702e+06, gap 0.0000%

***
***  |- Calculation finished, took 62.13 (62.13) sec.
***  |-----------------------------------------------------------------------------------------------------------------------
***
*****************************************************************************************************************************
#############################################################################################################################
###
### Results
###
### The objective of the solution is -1,075,516.5927 (-1075516.5927) and is feasible with a Gap of 0.0
###
### Service 7 (ME3) is operated by 6 vessels from type 19 (PMax28)
###  |- Vessel  5 has the path [174, 105, 159, 86, 214, 5, 0]
###  |  174 (NLRTM Out@92.0) - 105 (FRLEH In@111.0/Out@127.0) - 159 (MAPTM In@207.0/Out@228.0) - 86 (ESALG In@253.0/Out@265.0
###  |  ) - 214 (TRMER In@411.0/Out@455.0) - 5 (AEJEA In@690.0/Out@723.0) - 0 (DUMMY_END Ziel-Service 7)
###  |   |- and carried Demand  5,  42.0 containers from 174 to  86
###  |   |- and carried Demand  6,  17.0 containers from 174 to 105
###  |   |- and carried Demand  8, 580.0 containers from 159 to  86
###  |- Vessel  6 has the path [175, 107, 161, 88, 200, 187, 188, 8, 0]
###  |  175 (NLRTM Out@260.0) - 107 (FRLEH In@279.0/Out@295.0) - 161 (MAPTM In@375.0/Out@396.0) - 88 (ESALG In@421.0/Out@433.
###  |  0) - 200 (TRALI In@668.0/Out@686.0) - 187 (OMSLL In@878.0/Out@890.0) - 188 (OMSLL In@889.0/Out@904.0) - 8 (AEJEA In@1
###  |  026.0/Out@1059.0) - 0 (DUMMY_END Ziel-Service 7)
###  |   |- and carried Demand 11,  74.0 containers from 175 to  88
###  |   |- and carried Demand 12,   5.0 containers from 175 to 107
###  |   |- and carried Demand 15, 484.0 containers from 161 to  88
###  |   |- and carried Demand 16,  18.0 containers from 161 to  88
###  |   |- and carried Demand 55, 111.0 containers from 187 to   8
###  |   |- and carried Demand 56,  35.0 containers from 187 to   8
###  |- Vessel  7 has the path [177, 217, 10, 0]
###  |  177 (NLRTM Out@428.0) - 217 (TRMER In@915.0/Out@959.0) - 10 (AEJEA In@1362.0/Out@1395.0) - 0 (DUMMY_END Ziel-Service 
###  |  7)
###  |- Vessel  8 has the path [179, 218, 11, 0]
###  |  179 (NLRTM Out@596.0) - 218 (TRMER In@1083.0/Out@1127.0) - 11 (AEJEA In@1530.0/Out@1563.0) - 0 (DUMMY_END Ziel-Servic
###  |  e 7)
###  |- Vessel 15 has the path [106, 160, 87, 215, 7, 0]
###  |  106 (FRLEH Out@158.0) - 160 (MAPTM In@238.0/Out@259.0) - 87 (ESALG In@284.0/Out@296.0) - 215 (TRMER In@579.0/Out@623.
###  |  0) - 7 (AEJEA In@858.0/Out@891.0) - 0 (DUMMY_END Ziel-Service 7)
###  |   |- and carried Demand 40, 580.0 containers from 160 to  87
###  |- Vessel 16 has the path [108, 162, 89, 130, 81, 82, 9, 0]
###  |  108 (FRLEH Out@326.0) - 162 (MAPTM In@406.0/Out@427.0) - 89 (ESALG In@452.0/Out@464.0) - 130 (GRPIR In@696.0/Out@721.
###  |  0) - 81 (EGPSD In@867.0/Out@886.0) - 82 (EGPSD In@957.0/Out@973.0) - 9 (AEJEA In@1194.0/Out@1227.0) - 0 (DUMMY_END Zi
###  |  el-Service 7)
###  |   |- and carried Demand 44, 484.0 containers from 162 to  89
###  |   |- and carried Demand 45,  18.0 containers from 162 to  89
###  |   |- and carried Demand 60, 467.0 containers from  81 to   9
###  |   |- and carried Demand 64, 467.0 containers from  82 to   9
###  |
### Vessels not used in the solution: [1, 2, 3, 4, 9, 10, 11, 12, 13, 14, 17, 18]
###  |-----------------------------------------------------------------------------------------------------------------------
###
#############################################################################################################################

### Detialed variable overview

### All variables with value greater zero:
rho[7,19] = 1
eta[7,19,1] = 1
eta[7,19,2] = 1
eta[7,19,3] = 1
eta[7,19,4] = 1
eta[7,19,5] = 1
eta[7,19,6] = 1
y[5,105,159] = 1
y[5,214,5] = 1
y[5,5,0] = 1
y[5,86,214] = 1
y[5,174,105] = 1
y[5,159,86] = 1
y[6,200,187] = 1
y[6,88,200] = 1
y[6,107,161] = 1
y[6,187,188] = 1
y[6,8,0] = 1
y[6,175,107] = 1
y[6,161,88] = 1
y[6,188,8] = 1
y[7,10,0] = 1
y[7,217,10] = 1
y[7,177,217] = 1
y[8,218,11] = 1
y[8,179,218] = 1
y[8,11,0] = 1
y[15,160,87] = 1
y[15,106,160] = 1
y[15,7,0] = 1
y[15,215,7] = 1
y[15,87,215] = 1
y[16,9,0] = 1
y[16,162,89] = 1
y[16,108,162] = 1
y[16,82,9] = 1
y[16,89,130] = 1
y[16,81,82] = 1
y[16,130,81] = 1
xD[5,105,159] = 42
xD[5,174,105] = 42
xD[5,159,86] = 42
xD[6,174,105] = 17
xD[8,159,86] = 580
xD[11,107,161] = 74
xD[11,175,107] = 74
xD[11,161,88] = 74
xD[12,175,107] = 5
xD[15,161,88] = 484
xD[16,161,88] = 18
xD[40,160,87] = 580
xD[44,162,89] = 484
xD[45,162,89] = 18
xD[55,187,188] = 111
xD[55,188,8] = 111
xD[56,187,188] = 35
xD[56,188,8] = 35
xD[60,82,9] = 467
xD[60,81,82] = 467
xD[64,82,9] = 467
zE[5] = 690
zE[7] = 858
zE[8] = 1026
zE[9] = 1194
zE[10] = 1362
zE[11] = 1530
zE[81] = 867
zE[82] = 957
zE[86] = 253
zE[87] = 284
zE[88] = 421
zE[89] = 452
zE[105] = 111
zE[107] = 279
zE[130] = 696
zE[159] = 207
zE[160] = 238
zE[161] = 375
zE[162] = 406
zE[187] = 878
zE[188] = 889
zE[200] = 668
zE[214] = 411
zE[215] = 579
zE[217] = 915
zE[218] = 1083
zX[5] = 723
zX[7] = 891
zX[8] = 1059
zX[9] = 1227
zX[10] = 1395
zX[11] = 1563
zX[81] = 886
zX[82] = 973
zX[86] = 265
zX[87] = 296
zX[88] = 433
zX[89] = 464
zX[105] = 127
zX[106] = 158
zX[107] = 295
zX[108] = 326
zX[130] = 721
zX[159] = 228
zX[160] = 259
zX[161] = 396
zX[162] = 427
zX[174] = 92
zX[175] = 260
zX[177] = 428
zX[179] = 596
zX[187] = 890
zX[188] = 904
zX[200] = 686
zX[214] = 455
zX[215] = 623
zX[217] = 959
zX[218] = 1127
phi[5] = 631
phi[6] = 799
phi[7] = 967
phi[8] = 967
phi[15] = 733
phi[16] = 901

### All variables with value smaller zero:

### End

real	1m24.939s
user	2m10.462s
sys	0m6.930s
	Freetype 2.4.12 environment removed
	Python 3.6.0 environment removed
	Gurobi 8.1.0 environment removed
