	Freetype 2.4.12 environment established
		library to render fonts
	Python 3.6.0 environment established
	Gurobi 8.1.0 environment established
Instance LSFRP: LSFDRP_1_4_0_0_fr.p
Instance LSFDP: LSFDRP_1_4_0_0_fd_28.p

*****************************************************************************************************************************
*** Solve LSFDRP_1_4_0_0_fd_28 with Gurobi
***
*** Graph info
*** |S|: 18
*** |S^E|: 0
*** |S^C|: 0
*** |V|: 221
*** |A|: 4463
*** |A^i|: 4463
*** |A^f|: 0
*** |M|: 75
*** |E|: 0

Changed value of parameter TimeLimit to 86400.0
   Prev: 1e+100  Min: 0.0  Max: 1e+100  Default: 1e+100
Changed value of parameter Threads to 4
   Prev: 0  Min: 0  Max: 1024  Default: 0
Optimize a model with 30424 rows, 424452 columns and 1727894 nonzeros
Variable types: 344097 continuous, 80355 integer (80355 binary)
Coefficient statistics:
  Matrix range     [1e+00, 4e+03]
  Objective range  [4e+01, 3e+07]
  Bounds range     [1e+00, 1e+00]
  RHS range        [1e+00, 6e+00]
Presolve removed 26588 rows and 347571 columns (presolve time = 24s) ...
Presolve removed 26632 rows and 347671 columns
Presolve time: 24.86s
Presolved: 3792 rows, 76781 columns, 239415 nonzeros
Variable types: 416 continuous, 76365 integer (76330 binary)
Warning: Failed to open log file 'gurobi.log'

Root simplex log...

Iteration    Objective       Primal Inf.    Dual Inf.      Time
       0    3.1693744e+08   4.577502e+04   0.000000e+00     26s
    9175    5.0456464e+05   3.917357e+02   0.000000e+00     30s
   10014    4.9440677e+05   0.000000e+00   0.000000e+00     31s

Root relaxation: objective 4.944068e+05, 10014 iterations, 4.47 seconds

    Nodes    |    Current Node    |     Objective Bounds      |     Work
 Expl Unexpl |  Obj  Depth IntInf | Incumbent    BestBd   Gap | It/Node Time

     0     0 423348.073    0   74          - 423348.073      -     -   32s
H    0     0                    -2.76292e+07 423348.073   102%     -   33s
H    0     0                    -2.61097e+07 423348.073   102%     -   33s
H    0     0                    -1186907.482 423348.073   136%     -   36s
     0     0 261024.831    0  119 -1186907.5 261024.831   122%     -   38s
     0     0 -198254.58    0  117 -1186907.5 -198254.58  83.3%     -   39s
     0     0 -200022.49    0  137 -1186907.5 -200022.49  83.1%     -   40s
     0     0 -200022.49    0  137 -1186907.5 -200022.49  83.1%     -   40s
     0     0 -256058.45    0  152 -1186907.5 -256058.45  78.4%     -   41s
     0     0 -272765.23    0  149 -1186907.5 -272765.23  77.0%     -   41s
     0     0 -279377.27    0  153 -1186907.5 -279377.27  76.5%     -   41s
     0     0 -279820.07    0  155 -1186907.5 -279820.07  76.4%     -   41s
     0     0 -279820.07    0  155 -1186907.5 -279820.07  76.4%     -   41s
     0     0 -291883.86    0  155 -1186907.5 -291883.86  75.4%     -   41s
     0     0 -300791.35    0  154 -1186907.5 -300791.35  74.7%     -   41s
     0     0 -313456.97    0  155 -1186907.5 -313456.97  73.6%     -   41s
     0     0 -316562.23    0  143 -1186907.5 -316562.23  73.3%     -   41s
     0     0 -319296.08    0  140 -1186907.5 -319296.08  73.1%     -   41s
     0     0 -319297.87    0  140 -1186907.5 -319297.87  73.1%     -   41s
     0     0 -324828.99    0  150 -1186907.5 -324828.99  72.6%     -   41s
     0     0 -324871.37    0  152 -1186907.5 -324871.37  72.6%     -   41s
     0     0 -325034.13    0  154 -1186907.5 -325034.13  72.6%     -   41s
     0     0 -341782.28    0  138 -1186907.5 -341782.28  71.2%     -   41s
     0     0 -345049.04    0  144 -1186907.5 -345049.04  70.9%     -   41s
     0     0 -345087.11    0  142 -1186907.5 -345087.11  70.9%     -   41s
     0     0 -345097.21    0  144 -1186907.5 -345097.21  70.9%     -   42s
     0     0 -346780.20    0  130 -1186907.5 -346780.20  70.8%     -   42s
     0     0 -352065.63    0  149 -1186907.5 -352065.63  70.3%     -   42s
     0     0 -353272.40    0  144 -1186907.5 -353272.40  70.2%     -   42s
     0     0 -353314.74    0  146 -1186907.5 -353314.74  70.2%     -   42s
     0     0 -353461.67    0  152 -1186907.5 -353461.67  70.2%     -   42s
     0     0 -365096.38    0  150 -1186907.5 -365096.38  69.2%     -   42s
     0     0 -365192.28    0  155 -1186907.5 -365192.28  69.2%     -   42s
     0     0 -365195.83    0  154 -1186907.5 -365195.83  69.2%     -   42s
     0     0 -365217.74    0  152 -1186907.5 -365217.74  69.2%     -   42s
     0     0 -365217.74    0  123 -1186907.5 -365217.74  69.2%     -   43s
     0     0 -365217.74    0  124 -1186907.5 -365217.74  69.2%     -   43s
     0     0 -365217.74    0  136 -1186907.5 -365217.74  69.2%     -   44s
     0     0 -365217.74    0  146 -1186907.5 -365217.74  69.2%     -   44s
     0     0 -365217.74    0  150 -1186907.5 -365217.74  69.2%     -   44s
     0     0 -365217.74    0  148 -1186907.5 -365217.74  69.2%     -   44s
     0     0 -365217.74    0  156 -1186907.5 -365217.74  69.2%     -   44s
     0     0 -365217.74    0  155 -1186907.5 -365217.74  69.2%     -   44s
     0     0 -365217.74    0  156 -1186907.5 -365217.74  69.2%     -   44s
     0     0 -365225.21    0  157 -1186907.5 -365225.21  69.2%     -   44s
     0     0 -365228.21    0  158 -1186907.5 -365228.21  69.2%     -   44s
     0     0 -365241.49    0  158 -1186907.5 -365241.49  69.2%     -   44s
     0     0 -365241.49    0  160 -1186907.5 -365241.49  69.2%     -   44s
     0     0 -365251.19    0  157 -1186907.5 -365251.19  69.2%     -   44s
     0     0 -365251.19    0  157 -1186907.5 -365251.19  69.2%     -   44s
     0     2 -365251.19    0  157 -1186907.5 -365251.19  69.2%     -   44s
     1     5 -544616.22    1  157 -1186907.5 -460047.12  61.2%   573   45s
H  151   131                    -1080758.214 -595786.04  44.9%  61.5   48s
H  152   131                    -1075516.593 -595786.04  44.6%  61.1   48s
   958   648 -969796.57   18   85 -1075516.6 -725347.90  32.6%  31.1   50s
  1030   698 -854962.80   38  119 -1075516.6 -725347.90  32.6%  30.0   57s
  1053   716 -935003.37   18  119 -1075516.6 -935003.37  13.1%  36.7   60s

Cutting planes:
  Gomory: 7
  Projected implied bound: 1
  Flow cover: 4

Explored 1084 nodes (65628 simplex iterations) in 60.74 seconds
Thread count was 4 (of 16 available processors)

Solution count 5: -1.07552e+06 -1.08076e+06 -1.18691e+06 ... -2.76292e+07

Optimal solution found (tolerance 1.00e-04)
Best objective -1.075516592702e+06, best bound -1.075516592702e+06, gap 0.0000%

***
***  |- Calculation finished, took 60.75 (60.75) sec.
***  |-----------------------------------------------------------------------------------------------------------------------
***
*****************************************************************************************************************************
#############################################################################################################################
###
### Results
###
### The objective of the solution is -1,075,516.5927 (-1075516.5927) and is feasible with a Gap of 0.0
###
### Service 7 (ME3) is operated by 6 vessels from type 19 (PMax28)
###  |- Vessel  5 has the path [174, 105, 159, 86, 214, 5, 0]
###  |  174 (NLRTM Out@92.0) - 105 (FRLEH In@111.0/Out@127.0) - 159 (MAPTM In@207.0/Out@228.0) - 86 (ESALG In@253.0/Out@265.0
###  |  ) - 214 (TRMER In@411.0/Out@455.0) - 5 (AEJEA In@690.0/Out@723.0) - 0 (DUMMY_END Ziel-Service 7)
###  |   |- and carried Demand  5,  42.0 containers from 174 to  86
###  |   |- and carried Demand  6,  17.0 containers from 174 to 105
###  |   |- and carried Demand  8, 580.0 containers from 159 to  86
###  |- Vessel  6 has the path [175, 107, 161, 88, 200, 187, 188, 8, 0]
###  |  175 (NLRTM Out@260.0) - 107 (FRLEH In@279.0/Out@295.0) - 161 (MAPTM In@375.0/Out@396.0) - 88 (ESALG In@421.0/Out@433.
###  |  0) - 200 (TRALI In@668.0/Out@686.0) - 187 (OMSLL In@878.0/Out@890.0) - 188 (OMSLL In@889.0/Out@904.0) - 8 (AEJEA In@1
###  |  026.0/Out@1059.0) - 0 (DUMMY_END Ziel-Service 7)
###  |   |- and carried Demand 11,  74.0 containers from 175 to  88
###  |   |- and carried Demand 12,   5.0 containers from 175 to 107
###  |   |- and carried Demand 15, 484.0 containers from 161 to  88
###  |   |- and carried Demand 16,  18.0 containers from 161 to  88
###  |   |- and carried Demand 55, 111.0 containers from 187 to   8
###  |   |- and carried Demand 56,  35.0 containers from 187 to   8
###  |- Vessel  7 has the path [177, 215, 7, 0]
###  |  177 (NLRTM Out@428.0) - 215 (TRMER In@579.0/Out@623.0) - 7 (AEJEA In@858.0/Out@891.0) - 0 (DUMMY_END Ziel-Service 7)
###  |- Vessel  8 has the path [179, 216, 10, 0]
###  |  179 (NLRTM Out@596.0) - 216 (TRMER In@747.0/Out@791.0) - 10 (AEJEA In@1362.0/Out@1395.0) - 0 (DUMMY_END Ziel-Service 
###  |  7)
###  |- Vessel 15 has the path [106, 160, 87, 217, 11, 0]
###  |  106 (FRLEH Out@158.0) - 160 (MAPTM In@238.0/Out@259.0) - 87 (ESALG In@284.0/Out@296.0) - 217 (TRMER In@915.0/Out@959.
###  |  0) - 11 (AEJEA In@1530.0/Out@1563.0) - 0 (DUMMY_END Ziel-Service 7)
###  |   |- and carried Demand 40, 580.0 containers from 160 to  87
###  |- Vessel 16 has the path [108, 162, 89, 130, 81, 82, 9, 0]
###  |  108 (FRLEH Out@326.0) - 162 (MAPTM In@406.0/Out@427.0) - 89 (ESALG In@452.0/Out@464.0) - 130 (GRPIR In@696.0/Out@721.
###  |  0) - 81 (EGPSD In@867.0/Out@886.0) - 82 (EGPSD In@957.0/Out@973.0) - 9 (AEJEA In@1194.0/Out@1227.0) - 0 (DUMMY_END Zi
###  |  el-Service 7)
###  |   |- and carried Demand 44, 484.0 containers from 162 to  89
###  |   |- and carried Demand 45,  18.0 containers from 162 to  89
###  |   |- and carried Demand 60, 467.0 containers from  81 to   9
###  |   |- and carried Demand 64, 467.0 containers from  82 to   9
###  |
### Vessels not used in the solution: [1, 2, 3, 4, 9, 10, 11, 12, 13, 14, 17, 18]
###  |-----------------------------------------------------------------------------------------------------------------------
###
#############################################################################################################################

### Detialed variable overview

### All variables with value greater zero:
rho[7,19] = 1
eta[7,19,1] = 1
eta[7,19,2] = 1
eta[7,19,3] = 1
eta[7,19,4] = 1
eta[7,19,5] = 1
eta[7,19,6] = 1
y[5,105,159] = 1
y[5,214,5] = 1
y[5,5,0] = 1
y[5,86,214] = 1
y[5,174,105] = 1
y[5,159,86] = 1
y[6,200,187] = 1
y[6,88,200] = 1
y[6,107,161] = 1
y[6,187,188] = 1
y[6,8,0] = 1
y[6,175,107] = 1
y[6,161,88] = 1
y[6,188,8] = 1
y[7,177,215] = 1
y[7,7,0] = 1
y[7,215,7] = 1
y[8,10,0] = 1
y[8,179,216] = 1
y[8,216,10] = 1
y[15,160,87] = 1
y[15,87,217] = 1
y[15,106,160] = 1
y[15,217,11] = 1
y[15,11,0] = 1
y[16,9,0] = 1
y[16,162,89] = 1
y[16,108,162] = 1
y[16,82,9] = 1
y[16,89,130] = 1
y[16,81,82] = 1
y[16,130,81] = 1
xD[5,105,159] = 42
xD[5,174,105] = 42
xD[5,159,86] = 42
xD[6,174,105] = 17
xD[8,159,86] = 580
xD[11,107,161] = 74
xD[11,175,107] = 74
xD[11,161,88] = 74
xD[12,175,107] = 5
xD[15,161,88] = 484
xD[16,161,88] = 18
xD[40,160,87] = 580
xD[44,162,89] = 484
xD[45,162,89] = 18
xD[55,187,188] = 111
xD[55,188,8] = 111
xD[56,187,188] = 35
xD[56,188,8] = 35
xD[60,82,9] = 467
xD[60,81,82] = 467
xD[64,82,9] = 467
zE[5] = 690
zE[7] = 858
zE[8] = 1026
zE[9] = 1194
zE[10] = 1362
zE[11] = 1530
zE[81] = 867
zE[82] = 957
zE[86] = 253
zE[87] = 284
zE[88] = 421
zE[89] = 452
zE[105] = 111
zE[107] = 279
zE[130] = 696
zE[159] = 207
zE[160] = 238
zE[161] = 375
zE[162] = 406
zE[187] = 878
zE[188] = 889
zE[200] = 668
zE[214] = 411
zE[215] = 579
zE[216] = 747
zE[217] = 915
zX[5] = 723
zX[7] = 891
zX[8] = 1059
zX[9] = 1227
zX[10] = 1395
zX[11] = 1563
zX[81] = 886
zX[82] = 973
zX[86] = 265
zX[87] = 296
zX[88] = 433
zX[89] = 464
zX[105] = 127
zX[106] = 158
zX[107] = 295
zX[108] = 326
zX[130] = 721
zX[159] = 228
zX[160] = 259
zX[161] = 396
zX[162] = 427
zX[174] = 92
zX[175] = 260
zX[177] = 428
zX[179] = 596
zX[187] = 890
zX[188] = 904
zX[200] = 686
zX[214] = 455
zX[215] = 623
zX[216] = 791
zX[217] = 959
phi[5] = 631
phi[6] = 799
phi[7] = 463
phi[8] = 799
phi[15] = 1405
phi[16] = 901

### All variables with value smaller zero:

### End

real	1m23.512s
user	2m30.765s
sys	0m11.322s
	Freetype 2.4.12 environment removed
	Python 3.6.0 environment removed
	Gurobi 8.1.0 environment removed
