	OpenBLAS 0.2.6 environment established
		compiled with gcc for max. 16 cores
	Freetype 2.4.12 environment established
		library to render fonts
	Python 3.6.0 environment established
	Gurobi 8.1.0 environment established
Instance LSFRP: LSFDRP_4_3_2_1_fr.p
Instance LSFDP: LSFDRP_4_3_2_1_fd_22.p

*****************************************************************************************************************************
*** Solve LSFDRP_4_3_2_1_fd_22 with Gurobi
***
*** Graph info
*** |S|: 19
*** |S^E|: 0
*** |S^C|: 1
*** |V|: 347
*** |A|: 8382
*** |A^i|: 8382
*** |A^f|: 0
*** |M|: 343
*** |E|: 0

Changed value of parameter NumericFocus to 1
   Prev: 0  Min: 0  Max: 3  Default: 0
Changed value of parameter TimeLimit to 86400.0
   Prev: 1e+100  Min: 0.0  Max: 1e+100  Default: 1e+100
Changed value of parameter Threads to 4
   Prev: 0  Min: 0  Max: 1024  Default: 0
Optimize a model with 143928 rows, 3051766 columns and 10893683 nonzeros
Variable types: 2892487 continuous, 159279 integer (159279 binary)
Coefficient statistics:
  Matrix range     [1e+00, 4e+03]
  Objective range  [4e+01, 1e+08]
  Bounds range     [1e+00, 1e+00]
  RHS range        [1e+00, 6e+00]
Presolve removed 134788 rows and 2908667 columns (presolve time = 5s) ...
Presolve removed 135979 rows and 2910537 columns (presolve time = 12s) ...
Presolve removed 135979 rows and 2916579 columns (presolve time = 55s) ...
Presolve removed 136092 rows and 2916685 columns (presolve time = 55s) ...
Presolve removed 136096 rows and 2916796 columns (presolve time = 61s) ...
Presolve removed 136096 rows and 2916796 columns
Presolve time: 60.54s
Presolved: 7832 rows, 134970 columns, 469781 nonzeros
Variable types: 5236 continuous, 129734 integer (129696 binary)

Root simplex log...

Iteration    Objective       Primal Inf.    Dual Inf.      Time
       0    9.8020571e+09   1.465895e+06   0.000000e+00     62s
   18311    1.6677082e+07   1.499020e+06   0.000000e+00     65s
   25349    1.3116376e+07   1.353958e+06   0.000000e+00     70s
   31548    1.1817098e+07   2.237437e+05   0.000000e+00     75s
   36506    1.1028234e+07   1.150750e+05   0.000000e+00     80s
   41189    1.0386237e+07   2.651433e+05   0.000000e+00     85s
   46187    8.7448133e+06   1.637138e+05   0.000000e+00     90s
   50697    8.1819316e+06   2.310680e+05   0.000000e+00     95s
   54807    7.5666749e+06   9.653121e+04   0.000000e+00    100s
   56592    7.3948219e+06   0.000000e+00   0.000000e+00    103s

Root relaxation: objective 7.394822e+06, 56592 iterations, 40.70 seconds

    Nodes    |    Current Node    |     Objective Bounds      |     Work
 Expl Unexpl |  Obj  Depth IntInf | Incumbent    BestBd   Gap | It/Node Time

     0     0 7394821.85    0  191          - 7394821.85      -     -  105s
H    0     0                    -1662970.320 7394821.85   545%     -  106s
H    0     0                    1114368.6571 7394821.85   564%     -  137s
     0     0 7127000.47    0  217 1114368.66 7127000.47   540%     -  139s
     0     0 7114934.03    0  178 1114368.66 7114934.03   538%     -  154s
     0     0 5146175.06    0  191 1114368.66 5146175.06   362%     -  167s
     0     0 5138942.71    0  195 1114368.66 5138942.71   361%     -  168s
     0     0 5133498.27    0  185 1114368.66 5133498.27   361%     -  168s
     0     0 5133289.60    0  185 1114368.66 5133289.60   361%     -  169s
     0     0 5071999.91    0  186 1114368.66 5071999.91   355%     -  170s
     0     0 5071999.91    0  213 1114368.66 5071999.91   355%     -  178s
     0     0 5071999.91    0  193 1114368.66 5071999.91   355%     -  188s
     0     0 4862444.07    0  166 1114368.66 4862444.07   336%     -  189s
     0     0 4855633.42    0  171 1114368.66 4855633.42   336%     -  189s
     0     0 4855622.31    0  172 1114368.66 4855622.31   336%     -  189s
     0     0 4642724.48    0  153 1114368.66 4642724.48   317%     -  191s
     0     0 4640404.50    0  154 1114368.66 4640404.50   316%     -  191s
     0     0 4640329.92    0  153 1114368.66 4640329.92   316%     -  191s
     0     0 4638611.49    0  163 1114368.66 4638611.49   316%     -  192s
     0     0 4638611.49    0  163 1114368.66 4638611.49   316%     -  192s
     0     0 4638611.49    0  163 1114368.66 4638611.49   316%     -  192s
     0     0 4619694.56    0  179 1114368.66 4619694.56   315%     -  192s
     0     0 4614028.92    0  174 1114368.66 4614028.92   314%     -  193s
     0     0 4610652.28    0  174 1114368.66 4610652.28   314%     -  193s
     0     0 4610245.86    0  172 1114368.66 4610245.86   314%     -  193s
     0     0 4609466.80    0  170 1114368.66 4609466.80   314%     -  193s
     0     0 4609202.86    0  170 1114368.66 4609202.86   314%     -  193s
     0     0 4607818.42    0  175 1114368.66 4607818.42   313%     -  194s
     0     0 4607500.25    0  170 1114368.66 4607500.25   313%     -  194s
     0     0 4607306.84    0  176 1114368.66 4607306.84   313%     -  194s
     0     0 4607217.01    0  176 1114368.66 4607217.01   313%     -  194s
     0     0 4606753.44    0  186 1114368.66 4606753.44   313%     -  194s
     0     0 4606753.44    0  185 1114368.66 4606753.44   313%     -  200s
     0     0 4606753.44    0  175 1114368.66 4606753.44   313%     -  208s
     0     0 4606753.44    0  187 1114368.66 4606753.44   313%     -  213s
H    0     0                    1126843.1589 4606753.44   309%     -  214s
     0     0 4606753.44    0  190 1126843.16 4606753.44   309%     -  214s
     0     0 4606753.44    0  164 1126843.16 4606753.44   309%     -  214s
     0     0 4606753.44    0  163 1126843.16 4606753.44   309%     -  214s
     0     0 4606753.44    0  170 1126843.16 4606753.44   309%     -  215s
     0     0 4605699.97    0  183 1126843.16 4605699.97   309%     -  215s
     0     0 4605592.25    0  185 1126843.16 4605592.25   309%     -  215s
     0     0 4438557.85    0  162 1126843.16 4438557.85   294%     -  216s
     0     0 4428369.39    0  196 1126843.16 4428369.39   293%     -  217s
     0     0 4427455.66    0  197 1126843.16 4427455.66   293%     -  217s
     0     0 4427398.90    0  197 1126843.16 4427398.90   293%     -  217s
     0     0 4421803.45    0  203 1126843.16 4421803.45   292%     -  217s
     0     0 4417655.35    0  199 1126843.16 4417655.35   292%     -  217s
     0     0 4416041.21    0  201 1126843.16 4416041.21   292%     -  218s
     0     0 4409887.82    0  211 1126843.16 4409887.82   291%     -  218s
     0     0 4409778.69    0  211 1126843.16 4409778.69   291%     -  218s
     0     0 4389937.64    0  217 1126843.16 4389937.64   290%     -  219s
     0     0 4389725.13    0  219 1126843.16 4389725.13   290%     -  219s
     0     0 4389392.08    0  215 1126843.16 4389392.08   290%     -  219s
     0     0 4387785.53    0  226 1126843.16 4387785.53   289%     -  219s
     0     0 4387785.53    0  228 1126843.16 4387785.53   289%     -  219s
     0     0 4387344.13    0  225 1126843.16 4387344.13   289%     -  219s
     0     0 4387255.77    0  225 1126843.16 4387255.77   289%     -  219s
     0     0 4387255.05    0  225 1126843.16 4387255.05   289%     -  219s
     0     0 4387137.78    0  226 1126843.16 4387137.78   289%     -  219s
     0     0 4387137.78    0  226 1126843.16 4387137.78   289%     -  220s
     0     0 4386447.72    0  227 1126843.16 4386447.72   289%     -  220s
     0     0 4386447.72    0  229 1126843.16 4386447.72   289%     -  220s
     0     0 4386434.48    0  229 1126843.16 4386434.48   289%     -  220s
     0     0 4386434.48    0  226 1126843.16 4386434.48   289%     -  224s
     0     2 4386434.48    0  222 1126843.16 4386434.48   289%     -  226s
     7    12 4071712.00    3  235 1126843.16 4288342.65   281%   879  232s
    15    16 3933673.61    4  190 1126843.16 4274581.10   279%   975  235s
    28    22 3890759.20    7  183 1126843.16 4274581.10   279%   786  246s
H   31    26                    1412263.9070 4274581.10   203%   761  246s
    60    51 3656543.41   16  129 1412263.91 4274581.10   203%   598  250s
   159   137 3024389.17   44   67 1412263.91 4274581.10   203%   357  255s
   283   227 2662987.19   65   37 1412263.91 4274581.10   203%   329  260s
   400   284 3530131.92    7  187 1412263.91 4273980.95   203%   303  265s
   466   317 3102255.98   12  119 1412263.91 4224224.73   199%   318  270s
   483   322 3020799.62   14  103 1412263.91 4224224.73   199%   321  275s
H  494   322                    1412263.9121 4224224.73   199%   318  275s
   638   440     cutoff   59      1412263.91 4182798.08   196%   315  280s
   794   531 3674160.38   10  173 1412263.91 4134746.62   193%   314  285s
   921   602 3503203.29   24  199 1412263.91 4134746.62   193%   313  290s
  1039   678 2000555.52   51  217 1412263.91 4134746.62   193%   319  321s
  1041   679 2778103.48   28  175 1412263.91 4134746.62   193%   319  329s
  1042   680 3093332.52   43  206 1412263.91 4134746.62   193%   319  332s
  1050   685 3162566.46   21  217 1412263.91 4134746.62   193%   316  335s
  1060   692 3163023.38   14  214 1412263.91 4134746.62   193%   313  341s
  1063   697 4134746.62   10  192 1412263.91 4134746.62   193%   342  357s
  1065   700 4134746.62   11  196 1412263.91 4134746.62   193%   344  368s
  1069   703 4134746.62   12  185 1412263.91 4134746.62   193%   347  370s
  1081   705 3928830.24   13  196 1412263.91 4134746.62   193%   357  376s
H 1092   670                    1470704.4374 4134746.62   181%   360  382s
  1110   667 3862958.46   16  172 1470704.44 4134746.62   181%   367  385s
  1153   666 3806602.04   18  157 1470704.44 4134746.62   181%   371  390s
  1199   679 3772213.16   22  148 1470704.44 4134746.62   181%   379  395s
  1286   704 3007115.90   27  116 1470704.44 4134746.62   181%   383  400s
  1401   732 2135297.66   43   66 1470704.44 4134746.62   181%   384  405s
  1525   771 3949875.75   19  218 1470704.44 4102557.15   179%   378  410s
  1630   807 3679055.41   17  199 1470704.44 4096501.92   179%   382  416s
  1770   858 3005850.13   38  204 1470704.44 4096501.92   179%   375  420s
  1923   880 3702240.51   20  136 1470704.44 3967623.17   170%   375  426s
H 1975   828                    1685986.4724 3967623.17   135%   376  428s
  1985   839 2809555.89   34   34 1685986.47 3892027.22   131%   375  430s
  2092   839 3348496.14   25  190 1685986.47 3856673.31   129%   387  436s
  2155   850 2498101.94   36  166 1685986.47 3853797.17   129%   389  441s
  2306   868 3305433.46   18  145 1685986.47 3832373.20   127%   385  446s
  2467   897     cutoff   48      1685986.47 3755398.76   123%   381  451s
  2704   935 2909326.74   22  164 1685986.47 3680091.40   118%   374  456s
H 2803   893                    1745167.8513 3661975.05   110%   374  459s
H 2817   882                    1747408.0863 3661975.05   110%   374  459s
  2848   894 2820488.57   20  143 1747408.09 3648457.17   109%   374  462s
  2976   961 3364911.44   23  155 1747408.09 3625686.36   107%   372  465s
  3187  1026 3230726.84   16  128 1747408.09 3566954.94   104%   373  471s
  3323  1095 3199264.68   16  154 1747408.09 3558336.98   104%   370  475s
  3559  1205 1883692.77   70  104 1747408.09 3550130.61   103%   364  481s
  3698  1278 2307669.75   53  134 1747408.09 3523939.19   102%   363  485s
  4039  1432     cutoff   25      1747408.09 3486015.99  99.5%   358  492s
  4218  1509 3075357.41   17  143 1747408.09 3471360.57  98.7%   356  496s
  4363  1576 2068135.04   36   37 1747408.09 3451829.27  97.5%   356  500s
  4535  1653 3128159.27   26  100 1747408.09 3433534.53  96.5%   353  507s
  4746  1789 2715925.10   25   65 1747408.09 3388461.43  93.9%   347  512s
  4906  1867     cutoff   27      1747408.09 3383482.83  93.6%   345  516s
H 4907  1867                    1747408.3775 3383482.83  93.6%   345  516s
  5112  1967     cutoff   34      1747408.38 3363615.90  92.5%   343  522s
  5208  1978 2202316.09   58  107 1747408.38 3363615.90  92.5%   343  527s
  5316  2039 2292527.94   29  102 1747408.38 3340278.82  91.2%   342  533s
  5560  2160 2811020.60   32  107 1747408.38 3325874.77  90.3%   340  538s
  5786  2270 2500946.96   49  113 1747408.38 3313887.26  89.6%   339  545s
  5922  2317 2967414.45   30   93 1747408.38 3296751.06  88.7%   339  551s
  6177  2461 2982534.24   30   68 1747408.38 3286141.25  88.1%   336  560s
  6452  2583 2995084.91   29  173 1747408.38 3267138.56  87.0%   335  568s
  6605  2684 2586843.03   50  165 1747408.38 3252693.36  86.1%   333  575s
  6965  2859 3028029.60   29   68 1747408.38 3232911.71  85.0%   330  582s
  7313  3014 1794878.57   40   96 1747408.38 3203597.95  83.3%   328  589s
  7736  3176 2541809.86   24  185 1747408.38 3161954.33  81.0%   325  596s
  8136  3299 2133206.11   31  106 1747408.38 3130572.45  79.2%   324  603s
  8414  3353 2457464.74   32  167 1747408.38 3120801.72  78.6%   325  612s
  8853  3534 3023658.38   28   36 1747408.38 3089986.05  76.8%   321  621s
  9296  3740 2780870.11   32  126 1747408.38 3075070.52  76.0%   320  629s
  9672  3892     cutoff   25      1747408.38 3043893.11  74.2%   319  639s
 10175  4100 2381540.85   46  155 1747408.38 3022953.73  73.0%   315  648s
 10721  4316 2047718.63   45   96 1747408.38 3005516.28  72.0%   313  661s
 11236  4478     cutoff   39      1747408.38 2977344.35  70.4%   312  671s
 11871  4756 2396695.68   48  102 1747408.38 2954548.28  69.1%   310  680s
 12152  4819 2815847.34   27   64 1747408.38 2933962.24  67.9%   308  689s
 12789  4991 2084379.07   52   50 1747408.38 2911748.28  66.6%   307  699s
 13378  5172 2674168.53   36  131 1747408.38 2887948.95  65.3%   305  707s
 13915  5319 2661192.36   22  118 1747408.38 2867220.41  64.1%   305  717s
 14388  5444 2650228.41   30   61 1747408.38 2850879.25  63.1%   303  725s
 15059  5639     cutoff   33      1747408.38 2825294.78  61.7%   301  734s
 15630  5777 2669538.76   34   44 1747408.38 2814111.58  61.0%   299  745s
 16123  5878 2098509.76   37   75 1747408.38 2797574.32  60.1%   298  753s
 16651  6038 2355538.66   38  130 1747408.38 2785252.53  59.4%   297  764s
 16975  6120     cutoff   30      1747408.38 2782963.06  59.3%   296  772s
 17569  6290     cutoff   50      1747408.38 2773210.66  58.7%   294  780s
 18163  6543 2086076.17   54  169 1747408.38 2768067.27  58.4%   293  791s
 18213  6492 1978874.80   60  137 1747408.38 2764498.15  58.2%   293  799s
 18851  6722 1950142.80   69   64 1747408.38 2759690.00  57.9%   291  807s
 19470  6890 1996165.19   44  174 1747408.38 2745975.05  57.1%   289  815s
 20072  7074 2284562.06   22  142 1747408.38 2729267.11  56.2%   288  822s
 20600  7208 2345675.34   52  110 1747408.38 2719557.25  55.6%   288  829s
 21319  7441 2638401.59   28  185 1747408.38 2712418.36  55.2%   285 1176s
 21877  7620 1955265.66   59  155 1747408.38 2707321.82  54.9%   284 1182s
 22195  7720 2121757.17   38   97 1747408.38 2700467.13  54.5%   284 1189s
 22496  7784 2414539.11   35  161 1747408.38 2697249.70  54.4%   285 1196s
 22779  7846 2119625.92   24  155 1747408.38 2689818.46  53.9%   287 1202s
 22928  7864 2355583.36   67  141 1747408.38 2687184.47  53.8%   288 1209s
 23281  7985     cutoff   35      1747408.38 2681397.01  53.4%   288 1215s
 23565  8068 2244515.27   22   81 1747408.38 2675156.37  53.1%   290 1239s
 23792  8094 2521697.23   48   62 1747408.38 2671781.07  52.9%   290 1248s
 24073  8201     cutoff   50      1747408.38 2667668.78  52.7%   292 1254s
 24308  8238 2565381.85   53   90 1747408.38 2663657.63  52.4%   293 1261s
 24623  8343 2401715.74   25  108 1747408.38 2658006.05  52.1%   293 1268s
 24894  8425     cutoff   35      1747408.38 2656638.72  52.0%   294 1275s
 25135  8478 2295974.18   39   82 1747408.38 2652486.08  51.8%   296 1282s
 25360  8507 2256213.36   73  128 1747408.38 2649416.07  51.6%   298 1289s
 25678  8577 2102008.55   32  103 1747408.38 2641753.93  51.2%   299 1296s
 25959  8630 1951633.66   35   93 1747408.38 2639339.88  51.0%   300 1303s
 26165  8655 2183371.67   40  124 1747408.38 2632057.69  50.6%   302 1311s
 26545  8802 2350063.77   47   92 1747408.38 2626437.43  50.3%   302 1318s
 26860  8864 2297010.97   44   46 1747408.38 2622108.99  50.1%   304 1325s
 27127  8941 1899002.35   40  129 1747408.38 2617707.53  49.8%   305 1333s
 27409  9017 1961624.83   61  117 1747408.38 2616517.03  49.7%   306 1341s
 27749  9093 2132016.96   52  155 1747408.38 2612038.46  49.5%   307 1349s
 28044  9153 2114017.97   34   55 1747408.38 2605605.44  49.1%   309 1356s
 28333  9221     cutoff   48      1747408.38 2601947.38  48.9%   310 1365s
 28674  9324 1858712.00   66  177 1747408.38 2595679.07  48.5%   311 1373s
 29057  9448 2256957.82   26  181 1747408.38 2591480.04  48.3%   312 1381s
 29402  9572 2106393.15   43   66 1747408.38 2585022.06  47.9%   313 1389s
 29604  9616     cutoff   48      1747408.38 2581439.58  47.7%   314 1396s
 30037  9724 1875150.50   38   73 1747408.38 2577324.39  47.5%   314 1404s
 30366  9820 2275770.89   41   83 1747408.38 2575190.86  47.4%   315 1413s
 30554  9884 2423538.61   58  183 1747408.38 2572868.77  47.2%   316 1421s
 30801  9965     cutoff   23      1747408.38 2569524.19  47.0%   318 1429s
 31137 10016 2074946.94   49   73 1747408.38 2565030.56  46.8%   319 1438s
 31517 10068     cutoff   34      1747408.38 2559531.98  46.5%   320 1446s
 31917 10150 1851240.15   48   84 1747408.38 2557581.11  46.4%   320 1458s
 32183 10194 2236229.19   48   56 1747408.38 2553462.21  46.1%   322 1467s
 32607 10326 2062439.70   47   56 1747408.38 2550492.10  46.0%   322 1475s
 32869 10384 1863374.60   34   77 1747408.38 2547488.45  45.8%   323 1483s
 33276 10502 2397088.77   40   50 1747408.38 2543705.94  45.6%   323 1492s
 33664 10572 2301540.16   36  104 1747408.38 2539441.76  45.3%   324 1500s
 34047 10723 1760529.95   32  162 1747408.38 2534628.08  45.1%   324 1508s
 34374 10791 1909043.39   70  101 1747408.38 2531765.52  44.9%   325 1517s
 34774 10899 1979147.47   42  125 1747408.38 2527091.11  44.6%   326 1526s
 35167 11036     cutoff   53      1747408.38 2523613.85  44.4%   326 1536s
 35280 11041 2326479.02   41   50 1747408.38 2523017.59  44.4%   327 1545s
 35634 11125 1857368.82   54   85 1747408.38 2521503.05  44.3%   328 1553s
 36106 11240 2322859.06   35  110 1747408.38 2514770.74  43.9%   328 1562s
 36478 11344 1760535.56   44   58 1747408.38 2512142.83  43.8%   328 1571s
 36923 11475 1929735.20   51  102 1747408.38 2507722.22  43.5%   329 1579s
 37228 11548 1820297.75   45   83 1747408.38 2505868.25  43.4%   330 1588s
 37561 11599 2252532.02   34   69 1747408.38 2500499.15  43.1%   330 1597s
 37954 11663 2199913.19   62   81 1747408.38 2498544.71  43.0%   331 1606s
 38320 11739 1794219.50   44  133 1747408.38 2493062.83  42.7%   331 1643s
 38428 11714 2112820.93   19   97 1747408.38 2491804.22  42.6%   331 1652s
 38833 11813 2081972.51   66  113 1747408.38 2487531.68  42.4%   332 1661s
 39183 11874 2082985.43   35   41 1747408.38 2484177.33  42.2%   333 1670s
 39626 11959 2259786.33   34  118 1747408.38 2481484.18  42.0%   333 1679s
 40060 12046 1856388.74   63   51 1747408.38 2477976.46  41.8%   333 1688s
 40436 12080 2362529.38   32  144 1747408.38 2474617.38  41.6%   334 1697s
 40834 12137     cutoff   30      1747408.38 2471617.40  41.4%   335 1706s
 41281 12266 2278385.62   45  129 1747408.38 2466889.03  41.2%   335 1715s
 41674 12326 2405497.79   30   61 1747408.38 2465800.25  41.1%   335 1724s
 42062 12385 2019106.40   56   97 1747408.38 2463102.75  41.0%   336 1733s
 42378 12407     cutoff   30      1747408.38 2459750.70  40.8%   336 1747s
 42732 12468 1982265.46   36  165 1747408.38 2455227.00  40.5%   337 1756s
 43180 12532 1811742.67   58   90 1747408.38 2452021.31  40.3%   337 1765s
 43574 12610 2013016.27   39   58 1747408.38 2447909.90  40.1%   337 1774s
 43942 12651 1936935.44   44   95 1747408.38 2444586.40  39.9%   338 1783s
 44326 12706 1816657.09   46   68 1747408.38 2441493.36  39.7%   339 1792s
 44760 12789 1781357.39   43   82 1747408.38 2437715.94  39.5%   339 1801s
 45188 12849 1949608.96   48  177 1747408.38 2434917.07  39.3%   340 1810s
 45626 12917 1773477.38   36   60 1747408.38 2431504.10  39.1%   340 1819s
 45972 12956 infeasible   73      1747408.38 2428989.96  39.0%   341 1828s
 46313 13027     cutoff   31      1747408.38 2424840.13  38.8%   342 1837s
 46582 13039 2018319.85   36  115 1747408.38 2422122.60  38.6%   342 1845s
 46955 13076 infeasible   26      1747408.38 2418493.67  38.4%   343 1854s
 47302 13124 2150808.21   35   63 1747408.38 2416167.46  38.3%   344 1864s
 47549 13124 2257101.86   58  183 1747408.38 2413568.54  38.1%   345 1873s
 48025 13234 1933738.84   36   71 1747408.38 2410099.97  37.9%   345 1883s
 48265 13232 2310751.21   41  107 1747408.38 2408527.90  37.8%   345 1892s
 48680 13297 2295975.43   49  135 1747408.38 2404596.27  37.6%   345 1902s
 49075 13366 2215910.54   18  162 1747408.38 2401951.57  37.5%   346 1911s
 49420 13365 infeasible   30      1747408.38 2396812.97  37.2%   346 1920s
 49846 13438 1974660.66   36   21 1747408.38 2393430.89  37.0%   346 1930s
 50291 13473     cutoff   39      1747408.38 2390718.63  36.8%   347 1939s
 50894 13593 2044035.05   57  162 1747408.38 2386761.84  36.6%   346 1948s
 51276 13626     cutoff   43      1747408.38 2384815.72  36.5%   347 1957s
 51675 13669     cutoff   51      1747408.38 2382335.80  36.3%   347 1966s
 52069 13724 2193268.11   62  103 1747408.38 2378897.27  36.1%   348 1975s
 52429 13733 2102480.87   31   70 1747408.38 2375941.13  36.0%   348 1984s
 52870 13864 2172433.29   34  131 1747408.38 2372681.39  35.8%   349 1997s
 53075 13836 2008589.89   31   34 1747408.38 2371186.09  35.7%   349 2007s
 53540 13877     cutoff   41      1747408.38 2367839.36  35.5%   349 2016s
 53966 13902 1990953.93   58   62 1747408.38 2366331.86  35.4%   350 2025s
 54405 13965 1826881.11   33   86 1747408.38 2362950.26  35.2%   349 2033s
 54776 13981     cutoff   45      1747408.38 2359664.37  35.0%   350 2043s
 55210 14071     cutoff   57      1747408.38 2356990.34  34.9%   350 2052s
 55650 14117 2026151.58   34   41 1747408.38 2353971.83  34.7%   351 2060s
 56073 14166     cutoff   33      1747408.38 2351753.44  34.6%   351 2069s
 56418 14203 2077674.18   40   34 1747408.38 2349385.20  34.4%   351 2077s
 56797 14224     cutoff   46      1747408.38 2345937.90  34.3%   352 2086s
 57193 14281 2312059.50   47  116 1747408.38 2344836.29  34.2%   352 2094s
 57649 14300 1975583.19   45   97 1747408.38 2341071.43  34.0%   352 2103s
 58057 14352 1982703.34   57   39 1747408.38 2337377.99  33.8%   352 2112s
 58424 14377 infeasible   47      1747408.38 2335198.70  33.6%   352 2120s
 58937 14457     cutoff   52      1747408.38 2332660.07  33.5%   352 2129s
 59315 14526 2073019.58   37  100 1747408.38 2329742.77  33.3%   352 2138s
 59674 14621 1889244.05   65   36 1747408.38 2328154.13  33.2%   352 2146s
 60032 14659     cutoff   60      1747408.38 2325433.72  33.1%   353 2156s
 60232 14649     cutoff   44      1747408.38 2324340.67  33.0%   353 2165s
 60685 14692 infeasible   28      1747408.38 2320217.29  32.8%   353 2175s
 61040 14696 1824117.79   68  151 1747408.38 2317877.85  32.6%   353 2183s
 61416 14691 2227031.36   42  111 1747408.38 2314952.77  32.5%   353 2192s
 61864 14759 2169061.80   35  150 1747408.38 2312534.24  32.3%   353 2201s
 62319 14834     cutoff   56      1747408.38 2309625.13  32.2%   353 2209s
 62805 14887     cutoff   42      1747408.38 2307710.24  32.1%   353 2218s
 63215 14924     cutoff   39      1747408.38 2304868.03  31.9%   353 2231s
 63581 14963 2029110.43   45   25 1747408.38 2303038.20  31.8%   353 2239s
 63975 14976     cutoff   36      1747408.38 2301129.60  31.7%   353 2247s
 64319 14966     cutoff   35      1747408.38 2298709.90  31.5%   354 2257s
 64762 14996 1940097.04   46  134 1747408.38 2295625.22  31.4%   354 2265s
 65155 15034     cutoff   42      1747408.38 2292755.32  31.2%   354 2273s
 65586 15101     cutoff   40      1747408.38 2291547.40  31.1%   354 2282s
 66084 15170     cutoff   39      1747408.38 2288550.67  31.0%   354 2290s
 66428 15142 1911498.08   34   83 1747408.38 2286004.32  30.8%   354 2299s
 66798 15267 1892067.42   29  126 1747408.38 2284101.45  30.7%   354 2308s
 66963 15246     cutoff   31      1747408.38 2283820.29  30.7%   354 2317s
 67421 15340 2198758.78   32  111 1747408.38 2281407.57  30.6%   354 2326s
 67845 15389     cutoff   66      1747408.38 2279292.10  30.4%   354 2335s
 68267 15436     cutoff   43      1747408.38 2276548.01  30.3%   354 2343s
 68649 15461     cutoff   32      1747408.38 2273684.95  30.1%   354 2351s
 69108 15546     cutoff   39      1747408.38 2272239.53  30.0%   354 2359s
 69491 15556     cutoff   48      1747408.38 2269486.95  29.9%   355 2367s
 69788 15544 1756727.08   64   90 1747408.38 2267712.46  29.8%   355 2376s
 70143 15552 2131718.81   36   61 1747408.38 2265250.22  29.6%   355 2384s
 70506 15536 2260583.12   55   78 1747408.38 2262229.89  29.5%   355 2391s
 70862 15521 1970355.65   86   57 1747408.38 2260396.83  29.4%   356 2400s
 71284 15560 2129073.11   47   82 1747408.38 2257362.60  29.2%   355 2408s
 71621 15593 1749649.59   28  111 1747408.38 2256069.38  29.1%   356 2416s
 72112 15665 2150935.56   53  131 1747408.38 2252769.60  28.9%   355 2424s
 72483 15696     cutoff   57      1747408.38 2251439.45  28.8%   355 2432s
 72773 15660     cutoff   51      1747408.38 2249150.13  28.7%   356 2440s
 73117 15662     cutoff   37      1747408.38 2246054.58  28.5%   356 2448s
 73502 15685 1971335.00   53   43 1747408.38 2243684.29  28.4%   356 2458s
 73725 15684 2156999.75   35   34 1747408.38 2243001.72  28.4%   356 2471s
 74194 15725 1964660.03   56  121 1747408.38 2240435.98  28.2%   356 2479s
 74696 15796 1822916.04   57   42 1747408.38 2237731.36  28.1%   356 2487s
 75139 15841     cutoff   39      1747408.38 2235100.19  27.9%   356 2496s
 75516 15862     cutoff   41      1747408.38 2233336.68  27.8%   356 2504s
 75864 15891 1879164.64   45  110 1747408.38 2231708.63  27.7%   356 2513s
 76320 16006 2100712.50   61  109 1747408.38 2228994.56  27.6%   356 2520s
 76653 16007 1898656.51   46   67 1747408.38 2226927.29  27.4%   356 2529s
 76993 16033     cutoff   47      1747408.38 2225499.52  27.4%   356 2536s
 77378 16061 2032208.48   37   25 1747408.38 2223067.37  27.2%   356 2548s
 77643 16044 2006070.46   46  102 1747408.38 2222179.48  27.2%   356 2556s
 77966 16072 2053880.98   76   85 1747408.38 2219912.02  27.0%   356 2564s
 78307 16072     cutoff   44      1747408.38 2217742.82  26.9%   357 2570s
 78690 16065     cutoff   43      1747408.38 2215483.90  26.8%   356 2578s
 79044 16082     cutoff   41      1747408.38 2214009.36  26.7%   357 2586s
 79465 16096 2036959.63   68  139 1747408.38 2212873.02  26.6%   357 2594s
 79841 16125 1935896.35   46  187 1747408.38 2211015.40  26.5%   357 2602s
 80216 16130 1886713.99   72  103 1747408.38 2209374.50  26.4%   357 2611s
 80658 16178     cutoff   67      1747408.38 2207143.58  26.3%   357 2618s
 81129 16224 2120512.34   47   75 1747408.38 2204905.69  26.2%   357 2626s
 81520 16225     cutoff   68      1747408.38 2203468.45  26.1%   357 2634s
 81785 16188     cutoff   44      1747408.38 2201681.54  26.0%   357 2641s
 82232 16224     cutoff   40      1747408.38 2199139.47  25.9%   357 2649s
 82698 16246 1950945.84   49   90 1747408.38 2197664.83  25.8%   357 2657s
 83100 16277 1851173.17   71   40 1747408.38 2195659.76  25.7%   357 2665s
 83470 16278 1953397.86   50   92 1747408.38 2194660.67  25.6%   357 2672s
 83794 16267     cutoff   44      1747408.38 2192677.96  25.5%   357 2680s
 84201 16321 2135336.18   69   57 1747408.38 2191080.99  25.4%   357 2692s
 84545 16308 2126276.01   50   67 1747408.38 2189736.67  25.3%   357 2700s
 84880 16304 1776639.65   43   68 1747408.38 2187292.93  25.2%   357 2708s
 85285 16369 2175508.17   20   37 1747408.38 2185873.87  25.1%   357 2716s
 85525 16356 2007334.49   69  127 1747408.38 2184653.35  25.0%   357 2724s
 85869 16390 2141156.62   45  109 1747408.38 2182801.00  24.9%   357 2731s
 86242 16424     cutoff   62      1747408.38 2180580.81  24.8%   357 2739s
 86637 16437 2043400.10   62   39 1747408.38 2179356.34  24.7%   357 2747s
 87041 16457 2114730.17   81   55 1747408.38 2177025.20  24.6%   357 2754s
 87429 16474     cutoff   44      1747408.38 2175275.80  24.5%   357 2762s
 87837 16500 1937074.24   34   44 1747408.38 2173849.54  24.4%   357 2769s
 88240 16503 2092552.97   32  119 1747408.38 2172195.21  24.3%   357 2777s
 88570 16501 2043223.83   51   52 1747408.38 2170115.29  24.2%   358 2785s
 88951 16531     cutoff   48      1747408.38 2168797.30  24.1%   358 2792s
 89348 16548     cutoff   50      1747408.38 2167103.41  24.0%   357 2800s
 89696 16526     cutoff   78      1747408.38 2164884.65  23.9%   357 2807s
 90099 16556 2076902.88   41  111 1747408.38 2163617.81  23.8%   357 2815s
 90500 16580     cutoff   43      1747408.38 2162220.02  23.7%   357 2822s
 90826 16561     cutoff   28      1747408.38 2160734.69  23.7%   357 2829s
 91176 16576 2062087.41   81   63 1747408.38 2158912.08  23.5%   357 2836s
 91553 16558 2061448.42   28   50 1747408.38 2158082.16  23.5%   358 2843s
 91999 16649     cutoff   39      1747408.38 2155643.36  23.4%   357 2852s
 92185 16599 2104875.59   64   67 1747408.38 2155263.02  23.3%   357 2859s
 92566 16631     cutoff   45      1747408.38 2153353.62  23.2%   357 2867s
 92921 16647 2117093.78   45   87 1747408.38 2151829.49  23.1%   358 2876s
 93299 16647     cutoff   64      1747408.38 2149889.57  23.0%   357 2888s
 93679 16659     cutoff   46      1747408.38 2148169.78  22.9%   357 2900s
 93994 16635     cutoff   82      1747408.38 2146583.40  22.8%   358 2911s
 94332 16643     cutoff   56      1747408.38 2145579.88  22.8%   358 2954s
 94608 16618 2112101.68   45  163 1747408.38 2144521.15  22.7%   357 2964s
 94992 16575 1951411.84   53   54 1747408.38 2142699.84  22.6%   358 2971s
 95321 16558 2125237.37   62   96 1747408.38 2141476.48  22.6%   358 2978s
 95685 16565     cutoff   68      1747408.38 2139930.91  22.5%   358 2985s
 96010 16538     cutoff   42      1747408.38 2138362.52  22.4%   358 2993s
 96385 16518     cutoff   51      1747408.38 2136654.04  22.3%   358 2999s
 96712 16497 1935127.63   28  109 1747408.38 2134928.59  22.2%   358 3006s
 97039 16478     cutoff   66      1747408.38 2133576.08  22.1%   358 3013s
 97397 16458     cutoff   56      1747408.38 2131950.41  22.0%   358 3020s
 97685 16434 1963790.58   33   70 1747408.38 2130646.23  21.9%   358 3026s
 98033 16415 1867906.36   44   27 1747408.38 2129250.42  21.9%   358 3033s
 98395 16394     cutoff   49      1747408.38 2127924.21  21.8%   358 3040s
 98714 16386 2008084.42   41   56 1747408.38 2126677.15  21.7%   359 3047s
 99103 16387     cutoff   34      1747408.38 2125000.88  21.6%   358 3055s
 99418 16355     cutoff   53      1747408.38 2123925.64  21.5%   358 3062s
 99773 16378     cutoff   46      1747408.38 2122480.23  21.5%   358 3073s
 100043 16361 2101546.50   31   69 1747408.38 2120807.47  21.4%   359 3080s
 100420 16344 1822101.89   49   68 1747408.38 2119435.71  21.3%   359 3088s
 100706 16302     cutoff   35      1747408.38 2117718.77  21.2%   359 3095s
 101057 16319     cutoff   71      1747408.38 2116082.07  21.1%   359 3103s
 101253 16255 1919524.74   55  170 1747408.38 2115860.22  21.1%   359 3110s
 101590 16242     cutoff   58      1747408.38 2113822.60  21.0%   359 3117s
 101976 16225     cutoff   47      1747408.38 2112380.88  20.9%   359 3124s
 102410 16221 2064994.41   42  121 1747408.38 2110970.53  20.8%   358 3129s
 102677 16178 2005104.04   41   84 1747408.38 2109609.39  20.7%   359 3136s
 102976 16158     cutoff   48      1747408.38 2108006.41  20.6%   359 3143s
 103270 16119     cutoff   45      1747408.38 2106796.56  20.6%   359 3150s
 103599 16089     cutoff   76      1747408.38 2106541.08  20.6%   359 3157s
 103893 16054     cutoff   40      1747408.38 2103794.93  20.4%   359 3163s
 104172 16020     cutoff   52      1747408.38 2102575.07  20.3%   359 3169s
 104494 16011 1848492.85   41   58 1747408.38 2101237.22  20.2%   359 3175s
 104763 15967 1965091.47   48   82 1747408.38 2099764.13  20.2%   359 3182s
 105063 15929     cutoff   63      1747408.38 2098538.16  20.1%   359 3189s
 105295 15881 1966305.78   43   94 1747408.38 2097129.29  20.0%   359 3196s
 105587 15854     cutoff   42      1747408.38 2095520.96  19.9%   359 3202s
 105919 15816 1990721.65   43   46 1747408.38 2093923.77  19.8%   359 3208s
 106176 15776 2020505.27   64  111 1747408.38 2092421.10  19.7%   359 3214s
 106542 15793     cutoff   46      1747408.38 2090901.57  19.7%   359 3219s
 106855 15768     cutoff   44      1747408.38 2089445.54  19.6%   359 3223s
 107075 15718     cutoff   88      1747408.38 2088164.23  19.5%   359 3228s
 107412 15698 1761229.59   47   69 1747408.38 2086786.29  19.4%   359 3234s
 107718 15665     cutoff   48      1747408.38 2085204.31  19.3%   359 3240s
 108017 15624 1789458.50   43  134 1747408.38 2083869.42  19.3%   359 3246s
 108406 15635 1896739.10   51   90 1747408.38 2082901.04  19.2%   359 3252s
 108727 15612     cutoff   60      1747408.38 2081126.55  19.1%   359 3257s
 109017 15562     cutoff   56      1747408.38 2079942.73  19.0%   359 3263s
 109298 15524     cutoff   38      1747408.38 2078832.45  19.0%   359 3274s
 109631 15488 2001266.24   34  129 1747408.38 2077864.53  18.9%   359 3280s
 109856 15436     cutoff   73      1747408.38 2076533.49  18.8%   359 3287s
 110158 15432 1973577.54   44   63 1747408.38 2075435.37  18.8%   359 3295s
 110506 15413 2031390.54   54   34 1747408.38 2074300.45  18.7%   359 3301s
 110902 15437 1996739.00   42  112 1747408.38 2072989.28  18.6%   359 3308s
 111182 15408     cutoff   71      1747408.38 2071870.58  18.6%   359 3315s
 111495 15395     cutoff   52      1747408.38 2070503.15  18.5%   359 3320s
 111778 15337     cutoff   50      1747408.38 2068967.27  18.4%   359 3325s
 112006 15280     cutoff   38      1747408.38 2067607.59  18.3%   359 3332s
 112399 15240 infeasible   17      1747408.38 2066355.11  18.3%   359 3338s
 112656 15203     cutoff   40      1747408.38 2065156.87  18.2%   359 3345s
 113006 15237     cutoff   43      1747408.38 2064186.23  18.1%   359 3353s
 113203 15186 2063973.95   40   49 1747408.38 2063973.95  18.1%   359 3358s
 113477 15142 1968984.84   41   43 1747408.38 2062264.39  18.0%   359 3362s
 113689 15085     cutoff   38      1747408.38 2061026.21  17.9%   359 3368s
 113971 15061     cutoff   58      1747408.38 2059744.79  17.9%   359 3374s
 114248 15012 1980296.98   66  169 1747408.38 2058579.73  17.8%   359 3379s
 114487 14951 1877728.18   49   48 1747408.38 2057052.68  17.7%   359 3383s
 114839 14962     cutoff   35      1747408.38 2056009.38  17.7%   359 3390s
 115098 14911     cutoff   35      1747408.38 2055094.34  17.6%   359 3397s
 115455 14929 1846926.37   43   45 1747408.38 2054209.04  17.6%   359 3405s
 115801 14917     cutoff   43      1747408.38 2052641.53  17.5%   359 3413s
 116163 14918     cutoff   54      1747408.38 2051278.57  17.4%   358 3423s
 116448 14901 1879168.65   33   37 1747408.38 2050076.65  17.3%   358 3433s
 116731 14862     cutoff   34      1747408.38 2049729.66  17.3%   359 3442s
 116976 14839 2001877.98   35   95 1747408.38 2047927.46  17.2%   359 3477s
 117174 14770 1954917.86   53   63 1747408.38 2047753.87  17.2%   359 3483s
 117405 14721     cutoff   50      1747408.38 2045871.32  17.1%   359 3494s
 117689 14649     cutoff   49      1747408.38 2044799.84  17.0%   359 3503s
 117954 14586     cutoff   56      1747408.38 2043587.79  16.9%   359 3509s
 118254 14546     cutoff   44      1747408.38 2042447.48  16.9%   359 3514s
 118505 14481     cutoff   39      1747408.38 2041273.93  16.8%   359 3518s
 118747 14429     cutoff   47      1747408.38 2040168.56  16.8%   359 3524s
 119009 14401     cutoff   53      1747408.38 2038930.49  16.7%   359 3528s
 119193 14330     cutoff   60      1747408.38 2037703.80  16.6%   359 3533s
 119471 14300     cutoff   50      1747408.38 2036792.66  16.6%   359 3539s
 119717 14241     cutoff   60      1747408.38 2035719.21  16.5%   359 3544s
 119981 14187 1934145.20   32   73 1747408.38 2034653.18  16.4%   359 3549s
 120230 14142 1834895.62   55   92 1747408.38 2033467.31  16.4%   359 3554s
 120559 14115     cutoff   59      1747408.38 2032363.77  16.3%   359 3558s
 120793 14065     cutoff   42      1747408.38 2031216.07  16.2%   359 3563s
 121018 14004 2013414.35   39   92 1747408.38 2029979.53  16.2%   359 3568s
 121215 13969 1910028.06   52   51 1747408.38 2028735.37  16.1%   360 3576s
 121362 13917 1914766.08   43   31 1747408.38 2028120.03  16.1%   360 3581s
 121620 13847     cutoff   33      1747408.38 2026824.42  16.0%   360 3586s
 122082 13712     cutoff   47      1747408.38 2024581.61  15.9%   360 3593s
 122272 13650     cutoff   66      1747408.38 2023649.67  15.8%   360 3599s
 122494 13608 1926649.15   31   92 1747408.38 2022525.13  15.7%   360 3606s
 122771 13551     cutoff   46      1747408.38 2021323.42  15.7%   360 3611s
 123073 13519 2010368.90   39   58 1747408.38 2020150.80  15.6%   360 3616s
 123321 13459     cutoff   80      1747408.38 2019049.05  15.5%   360 3620s
 123592 13395     cutoff   37      1747408.38 2018087.34  15.5%   360 3625s
 123874 13367 1876466.89   50  100 1747408.38 2017061.99  15.4%   360 3630s
 124100 13308     cutoff   64      1747408.38 2016038.29  15.4%   360 3636s
 124385 13288     cutoff   47      1747408.38 2014807.70  15.3%   360 3642s
 124665 13246     cutoff   48      1747408.38 2013662.75  15.2%   360 3647s
 124937 13198     cutoff   38      1747408.38 2012488.89  15.2%   360 3652s
 125204 13149     cutoff   71      1747408.38 2011696.08  15.1%   360 3658s
 125435 13111     cutoff   47      1747408.38 2010318.60  15.0%   360 3663s
 125703 13068     cutoff   40      1747408.38 2009064.42  15.0%   360 3667s
 125932 13005     cutoff   49      1747408.38 2007847.30  14.9%   360 3673s
 126193 12964     cutoff   47      1747408.38 2006758.34  14.8%   360 3676s
 126579 12818 1840846.39   60   98 1747408.38 2004703.53  14.7%   360 3684s
 126805 12768     cutoff   48      1747408.38 2003367.96  14.6%   360 3689s
 127104 12723     cutoff   58      1747408.38 2002256.48  14.6%   360 3694s
 127310 12656     cutoff   38      1747408.38 2001178.23  14.5%   360 3698s
 127595 12619     cutoff   26      1747408.38 2000073.83  14.5%   360 3704s
 127894 12576     cutoff   26      1747408.38 1999071.10  14.4%   360 3708s
 128143 12525 1965958.80   40   32 1747408.38 1997882.77  14.3%   360 3712s
 128430 12468     cutoff   47      1747408.38 1996837.61  14.3%   359 3717s
 128711 12436     cutoff   35      1747408.38 1995829.20  14.2%   359 3721s
 128925 12377     cutoff   54      1747408.38 1994832.86  14.2%   359 3725s
 129213 12324     cutoff   46      1747408.38 1993839.26  14.1%   359 3730s
 129451 12273 1927813.25   71   81 1747408.38 1992780.87  14.0%   359 3735s
 129920 12157     cutoff   40      1747408.38 1990504.16  13.9%   359 3742s
 130144 12108 1881072.12   61   93 1747408.38 1989356.83  13.8%   359 3746s
 130348 12038     cutoff   62      1747408.38 1988322.83  13.8%   359 3750s
 130812 11912     cutoff   67      1747408.38 1985985.53  13.7%   359 3759s
 131063 11867     cutoff   54      1747408.38 1984831.36  13.6%   359 3763s
 131322 11804     cutoff   42      1747408.38 1983657.17  13.5%   359 3767s
 131485 11760     cutoff   48      1747408.38 1982466.69  13.5%   359 3775s
 131897 11660 1875785.96   40   42 1747408.38 1980662.80  13.3%   359 3784s
 132155 11615 1955704.90   64   80 1747408.38 1979665.66  13.3%   359 3788s
 132370 11553     cutoff   46      1747408.38 1978769.36  13.2%   359 3792s
 132620 11502     cutoff   71      1747408.38 1977572.60  13.2%   359 3796s
 132790 11432     cutoff   41      1747408.38 1976630.75  13.1%   359 3801s
 133045 11371     cutoff   36      1747408.38 1975476.14  13.1%   359 3805s
 133485 11270     cutoff   46      1747408.38 1973155.73  12.9%   359 3812s
 133728 11224     cutoff   44      1747408.38 1972024.22  12.9%   359 3818s
 133938 11157     cutoff   50      1747408.38 1970961.08  12.8%   359 3822s
 134188 11106     cutoff   41      1747408.38 1969879.86  12.7%   359 3826s
 134385 11045     cutoff   63      1747408.38 1968706.49  12.7%   359 3830s
 134806 10912     cutoff   72      1747408.38 1966565.38  12.5%   359 3837s
 135061 10859     cutoff   46      1747408.38 1965425.87  12.5%   359 3840s
 135252 10792     cutoff   45      1747408.38 1964408.35  12.4%   359 3845s
 135711 10670     cutoff   52      1747408.38 1962657.31  12.3%   359 3853s
 135919 10603     cutoff   64      1747408.38 1961674.17  12.3%   359 3858s
 136171 10562 1797944.66   37   89 1747408.38 1960743.29  12.2%   359 3864s
 136403 10505     cutoff   46      1747408.38 1959526.97  12.1%   359 3869s
 136639 10442 1837814.51   61   75 1747408.38 1958563.72  12.1%   359 3872s
 136850 10373     cutoff   70      1747408.38 1957314.22  12.0%   358 3875s
 137222 10252     cutoff   30      1747408.38 1955229.59  11.9%   358 3882s
 137445 10186     cutoff   48      1747408.38 1954291.97  11.8%   358 3885s
 137609 10120     cutoff   49      1747408.38 1953501.78  11.8%   358 3935s
 137803 10044     cutoff   79      1747408.38 1952724.80  11.7%   358 3940s
 138185  9909 1935810.68   37   58 1747408.38 1950549.92  11.6%   358 3947s
 138370  9851 1893003.82   40   63 1747408.38 1949591.11  11.6%   358 3952s
 138596  9784     cutoff   52      1747408.38 1948725.10  11.5%   358 3955s
 138802  9721     cutoff   59      1747408.38 1947504.37  11.5%   358 3960s
 139284  9608     cutoff   47      1747408.38 1945565.98  11.3%   358 3966s
 139507  9528 1904870.96   74   62 1747408.38 1944512.29  11.3%   358 3970s
 139892  9400     cutoff   43      1747408.38 1942795.97  11.2%   358 3976s
 140023  9317     cutoff   44      1747408.38 1941794.84  11.1%   358 3980s
 140427  9175     cutoff   51      1747408.38 1939595.34  11.0%   358 3987s
 140621  9127     cutoff   72      1747408.38 1938742.90  10.9%   358 3995s
H140710  9134                    1747408.5648 1938736.80  10.9%   358 3995s
 140770  9076     cutoff   61      1747408.56 1938664.75  10.9%   358 4003s
 140908  9015 1926032.48   30   47 1747408.56 1937105.83  10.9%   358 4009s
 141088  8950 1802722.46   25   56 1747408.56 1935856.13  10.8%   358 4013s
 141317  8898 1832912.47   40   68 1747408.56 1934720.91  10.7%   358 4017s
 141586  8843     cutoff   50      1747408.56 1933599.64  10.7%   358 4020s
 141929  8690 1767559.49   38   39 1747408.56 1931664.73  10.5%   358 4026s
 142156  8650     cutoff   65      1747408.56 1930733.82  10.5%   358 4033s
 142368  8583     cutoff   44      1747408.56 1929931.34  10.4%   358 4036s
 142739  8452 1802714.42   36   30 1747408.56 1927995.30  10.3%   357 4042s
 142988  8386     cutoff   57      1747408.56 1927158.48  10.3%   357 4045s
 143347  8253 1894078.11   62   37 1747408.56 1924743.25  10.1%   357 4051s
 143661  8099 1890615.26   31   68 1747408.56 1922572.05  10.0%   357 4057s
 143874  8041     cutoff   49      1747408.56 1921548.42  10.0%   357 4060s
 144219  7899     cutoff   47      1747408.56 1919539.26  9.85%   357 4067s
 144567  7748     cutoff   49      1747408.56 1917582.61  9.74%   357 4072s
 144765  7689     cutoff   56      1747408.56 1916452.78  9.67%   357 4076s
 145203  7561     cutoff   37      1747408.56 1914222.28  9.55%   357 4082s
 145364  7487     cutoff   37      1747408.56 1913154.41  9.49%   357 4085s
 145717  7346     cutoff   39      1747408.56 1911083.19  9.37%   357 4091s
 146026  7197 1898907.07   87   64 1747408.56 1909121.77  9.25%   357 4096s
 146358  7061 1802354.71   55   83 1747408.56 1907123.92  9.14%   357 4102s
 146673  6914 1860415.58   56   57 1747408.56 1904836.37  9.01%   357 4107s
 146860  6846     cutoff   72      1747408.56 1903672.52  8.94%   357 4110s
 147265  6702     cutoff   53      1747408.56 1901785.71  8.83%   357 4115s
 147633  6554     cutoff   39      1747408.56 1899537.33  8.71%   356 4122s
 147794  6477     cutoff   51      1747408.56 1898377.80  8.64%   356 4125s
 147954  6405     cutoff   45      1747408.56 1897338.28  8.58%   356 4132s
 148135  6333     cutoff   46      1747408.56 1896536.14  8.53%   356 4135s
 148492  6198     cutoff   58      1747408.56 1894397.24  8.41%   356 4140s
 148804  6050     cutoff   30      1747408.56 1892237.97  8.29%   356 4145s
 149295  5830     cutoff   58      1747408.56 1889129.84  8.11%   356 4152s
 149438  5752     cutoff   61      1747408.56 1887970.97  8.04%   356 4155s
 149930  5531     cutoff   59      1747408.56 1884682.98  7.86%   356 4162s
 150210  5373     cutoff   61      1747408.56 1882758.37  7.75%   356 4166s
 150529  5221     cutoff   50      1747408.56 1880651.86  7.63%   356 4172s
 150804  5063 infeasible   46      1747408.56 1878474.07  7.50%   356 4177s
 151123  4909     cutoff   51      1747408.56 1876526.16  7.39%   356 4181s
 151440  4748     cutoff   69      1747408.56 1874212.52  7.26%   355 4186s
 151733  4593     cutoff   71      1747408.56 1871685.13  7.11%   355 4190s
 152142  4357 1845180.83   61   91 1747408.56 1868187.80  6.91%   355 4196s
 152440  4204     cutoff   47      1747408.56 1865826.55  6.78%   355 4201s
 152738  4053 1827336.00   43   62 1747408.56 1863812.08  6.66%   355 4205s
 153130  3812     cutoff   42      1747408.56 1860199.25  6.45%   355 4211s
 153425  3661 1815458.31  102   96 1747408.56 1858016.69  6.33%   355 4216s
 153735  3506     cutoff   48      1747408.56 1855484.68  6.18%   355 4220s
 154146  3271 1778541.78   89   71 1747408.56 1851611.14  5.96%   355 4225s
 154557  3024     cutoff   54      1747408.56 1847472.74  5.73%   355 4231s
 154974  2801     cutoff   70      1747408.56 1843071.78  5.47%   354 4236s
 155367  2552 1825369.04   53   83 1747408.56 1838710.56  5.22%   354 4241s
 155608  2388 infeasible   76      1747408.56 1835721.17  5.05%   354 4245s
 156065  2053     cutoff   64      1747408.56 1829789.86  4.71%   354 4251s
 156337  1891 1749768.73   48   18 1747408.56 1826317.43  4.52%   354 4255s
 156859  1569     cutoff   50      1747408.56 1819563.64  4.13%   353 4260s
 157291  1235     cutoff   41      1747408.56 1811675.60  3.68%   353 4265s
 157688   900     cutoff   47      1747408.56 1801902.84  3.12%   353 4271s
 157908   732     cutoff   60      1747408.56 1797051.46  2.84%   353 4276s
 158326   398     cutoff   69      1747408.56 1784462.55  2.12%   353 4281s
 158614   146     cutoff   51      1747408.56 1770671.70  1.33%   352 4285s

Cutting planes:
  Gomory: 61
  Implied bound: 14
  Projected implied bound: 3
  MIR: 45
  Flow cover: 258
  Zero half: 3

Explored 158856 nodes (56136179 simplex iterations) in 4292.25 seconds
Thread count was 4 (of 16 available processors)

Solution count 10: 1.74741e+06 1.74741e+06 1.74741e+06 ... 1.11437e+06

Optimal solution found (tolerance 1.00e-04)
Best objective 1.747408086087e+06, best bound 1.747408564804e+06, gap 0.0000%

***
***  |- Calculation finished, took 4,292.3 (4292.3) sec.
***  |-----------------------------------------------------------------------------------------------------------------------
***
*****************************************************************************************************************************
#############################################################################################################################
###
### Results
###
### The objective of the solution is 1,747,408.0861 (1747408.0861) and is feasible with a Gap of 0.0
###
### Service 81 (MECL1) is operated by 6 vessels from type 30 (PMax35)
###  |- Vessel  9 has the path [9, 332, 326, 342, 333, 324, 4, 294, 284, 7, 298, 196, 0]
###  |  9 (BEANR Out@344.0) - 332 (USEWR In@608.0/Out@618.0) - 326 (USCHS In@656.0/Out@666.0) - 342 (USORF In@691.0/Out@704.0
###  |  ) - 333 (USEWR In@728.0/Out@744.0) - 324 (TRZMK In@1063.0/Out@1077.0) - 4 (AEJEA In@1177.0/Out@1201.0) - 294 (PKBQM I
###  |  n@1258.0/Out@1288.0) - 284 (OMSLL In@1410.0/Out@1423.0) - 7 (AEJEA In@1681.0/Out@1705.0) - 298 (PKBQM In@1762.0/Out@1
###  |  792.0) - 196 (INNSA In@1856.0/Out@1872.0) - 0 (DUMMY_END Ziel-Service 81)
###  |   |- and carried Demand 237,   34.0 containers from 298 to 196
###  |   |- and carried Demand 238,   84.0 containers from   7 to 298
###  |   |- and carried Demand 239,   50.0 containers from   7 to 298
###  |   |- and carried Demand 297,  254.0 containers from 294 to 196
###  |   |- and carried Demand 298,    1.0 containers from 294 to 196
###  |   |- and carried Demand 299,  135.0 containers from 294 to 196
###  |   |- and carried Demand 302,   75.0 containers from   4 to 196
###  |   |- and carried Demand 303,  200.0 containers from   4 to 294
###  |   |- and carried Demand 304,   24.0 containers from   4 to 294
###  |   |- and carried Demand 305,   26.0 containers from   4 to 196
###  |   |- and carried Demand 306,  144.0 containers from   4 to 196
###  |   |- and carried Demand 307,    1.0 containers from   4 to 196
###  |   |- and carried Demand 309,  339.0 containers from 342 to   4
###  |   |- and carried Demand 310,  115.0 containers from 342 to   4
###  |   |- and carried Demand 311,    3.0 containers from 342 to 284
###  |   |- and carried Demand 312,    2.0 containers from 342 to 294
###  |   |- and carried Demand 313,  194.0 containers from 326 to   4
###  |   |- and carried Demand 314,   49.0 containers from 326 to   4
###  |   |- and carried Demand 315,   40.0 containers from 326 to 294
###  |   |- and carried Demand 318,  842.0 containers from 332 to   4
###  |   |- and carried Demand 319,   99.0 containers from 332 to   4
###  |   |- and carried Demand 320,  123.0 containers from 332 to 294
###  |   |- and carried Demand 321,    1.0 containers from 332 to 294
###  |- Vessel 10 has the path [10, 316, 190, 0]
###  |  10 (BEANR Out@512.0) - 316 (TRAMB In@854.0/Out@881.0) - 190 (INNSA In@1016.0/Out@1032.0) - 0 (DUMMY_END Ziel-Service 
###  |  81)
###  |- Vessel 11 has the path [13, 313, 192, 0]
###  |  13 (BEANR Out@680.0) - 313 (TRALI In@946.0/Out@964.0) - 192 (INNSA In@1352.0/Out@1368.0) - 0 (DUMMY_END Ziel-Service 
###  |  81)
###  |- Vessel 12 has the path [16, 314, 5, 295, 193, 0]
###  |  16 (BEANR Out@848.0) - 314 (TRALI In@1114.0/Out@1132.0) - 5 (AEJEA In@1345.0/Out@1369.0) - 295 (PKBQM In@1426.0/Out@1
###  |  456.0) - 193 (INNSA In@1520.0/Out@1536.0) - 0 (DUMMY_END Ziel-Service 81)
###  |   |- and carried Demand 284,   86.0 containers from   5 to 295
###  |   |- and carried Demand 285,  118.0 containers from   5 to 295
###  |- Vessel 17 has the path [158, 270, 323, 191, 0]
###  |  158 (GBFXT Out@580.0) - 270 (NLRTM In@610.0/Out@622.0) - 323 (TRZMK In@895.0/Out@909.0) - 191 (INNSA In@1184.0/Out@12
###  |  00.0) - 0 (DUMMY_END Ziel-Service 81)
###  |- Vessel 19 has the path [199, 2, 291, 292, 293, 194, 195, 0]
###  |  199 (INPAV Out@564.0) - 2 (AEJEA In@841.0/Out@865.0) - 291 (PKBQM In@922.0/Out@952.0) - 292 (PKBQM In@992.0/Out@1020.
###  |  0) - 293 (PKBQM In@1090.0/Out@1120.0) - 194 (INNSA In@1590.0/Out@1622.0) - 195 (INNSA In@1688.0/Out@1704.0) - 0 (DUMM
###  |  Y_END Ziel-Service 81)
###  |   |- and carried Demand 120,  237.0 containers from 292 to 194
###  |   |- and carried Demand 121,    2.0 containers from 292 to 194
###  |   |- and carried Demand 123,   97.0 containers from 292 to 194
###  |   |- and carried Demand 323,  244.0 containers from 293 to 195
###  |   |- and carried Demand 324,   67.0 containers from 293 to 195
###  |   |- and carried Demand 333,  237.0 containers from 291 to 194
###  |   |- and carried Demand 334,    2.0 containers from 291 to 194
###  |   |- and carried Demand 336,   97.0 containers from 291 to 194
###  |   |- and carried Demand 338,  704.0 containers from   2 to 195
###  |   |- and carried Demand 339,    8.0 containers from   2 to 195
###  |   |- and carried Demand 340,  156.0 containers from   2 to 291
###  |   |- and carried Demand 341,   45.0 containers from   2 to 291
###  |   |- and carried Demand 342,   16.0 containers from   2 to 194
###  |   |- and carried Demand 343,  264.0 containers from   2 to 194
###  |
### Vessels not used in the solution: [1, 2, 3, 4, 5, 6, 7, 8, 13, 14, 15, 16, 18]
###  |-----------------------------------------------------------------------------------------------------------------------
###
#############################################################################################################################

### Detialed variable overview

### All variables with value greater zero:
rho[81,30] = 1
eta[81,30,1] = 1
eta[81,30,2] = 1
eta[81,30,3] = 1
eta[81,30,4] = 1
eta[81,30,5] = 1
eta[81,30,6] = 1
y[9,4,294] = 1
y[9,332,326] = 1
y[9,294,284] = 1
y[9,284,7] = 1
y[9,342,333] = 1
y[9,9,332] = 1
y[9,324,4] = 1
y[9,7,298] = 1
y[9,196,0] = 1
y[9,333,324] = 1
y[9,298,196] = 1
y[9,326,342] = 1
y[10,190,0] = 1
y[10,316,190] = 1
y[10,10,316] = 1
y[11,192,0] = 1
y[11,313,192] = 1
y[11,13,313] = 1
y[12,5,295] = 1
y[12,193,0] = 1
y[12,16,314] = 1
y[12,295,193] = 1
y[12,314,5] = 1
y[17,270,323] = 1
y[17,158,270] = 1
y[17,191,0] = 1
y[17,323,191] = 1
y[19,293,194] = 1
y[19,195,0] = 1
y[19,292,293] = 1
y[19,194,195] = 1
y[19,291,292] = 1
y[19,199,2] = 1
y[19,2,291] = 1
xD[120,293,194] = 237
xD[120,292,293] = 237
xD[121,293,194] = 2
xD[121,292,293] = 2
xD[123,293,194] = 97
xD[123,292,293] = 97
xD[237,298,196] = 34
xD[238,7,298] = 84
xD[239,7,298] = 50
xD[284,5,295] = 86
xD[285,5,295] = 118
xD[297,294,284] = 254
xD[297,284,7] = 254
xD[297,7,298] = 254
xD[297,298,196] = 254
xD[298,294,284] = 1
xD[298,284,7] = 1
xD[298,7,298] = 1
xD[298,298,196] = 1
xD[299,294,284] = 135
xD[299,284,7] = 135
xD[299,7,298] = 135
xD[299,298,196] = 135
xD[302,4,294] = 75
xD[302,294,284] = 75
xD[302,284,7] = 75
xD[302,7,298] = 75
xD[302,298,196] = 75
xD[303,4,294] = 200
xD[304,4,294] = 24
xD[305,4,294] = 26
xD[305,294,284] = 26
xD[305,284,7] = 26
xD[305,7,298] = 26
xD[305,298,196] = 26
xD[306,4,294] = 144
xD[306,294,284] = 144
xD[306,284,7] = 144
xD[306,7,298] = 144
xD[306,298,196] = 144
xD[307,4,294] = 1
xD[307,294,284] = 1
xD[307,284,7] = 1
xD[307,7,298] = 1
xD[307,298,196] = 1
xD[309,342,333] = 339
xD[309,324,4] = 339
xD[309,333,324] = 339
xD[310,342,333] = 115
xD[310,324,4] = 115
xD[310,333,324] = 115
xD[311,4,294] = 3
xD[311,294,284] = 3
xD[311,342,333] = 3
xD[311,324,4] = 3
xD[311,333,324] = 3
xD[312,4,294] = 2
xD[312,342,333] = 2
xD[312,324,4] = 2
xD[312,333,324] = 2
xD[313,342,333] = 194
xD[313,324,4] = 194
xD[313,333,324] = 194
xD[313,326,342] = 194
xD[314,342,333] = 49
xD[314,324,4] = 49
xD[314,333,324] = 49
xD[314,326,342] = 49
xD[315,4,294] = 40
xD[315,342,333] = 40
xD[315,324,4] = 40
xD[315,333,324] = 40
xD[315,326,342] = 40
xD[318,332,326] = 842
xD[318,342,333] = 842
xD[318,324,4] = 842
xD[318,333,324] = 842
xD[318,326,342] = 842
xD[319,332,326] = 99
xD[319,342,333] = 99
xD[319,324,4] = 99
xD[319,333,324] = 99
xD[319,326,342] = 99
xD[320,4,294] = 123
xD[320,332,326] = 123
xD[320,342,333] = 123
xD[320,324,4] = 123
xD[320,333,324] = 123
xD[320,326,342] = 123
xD[321,4,294] = 1
xD[321,332,326] = 1
xD[321,342,333] = 1
xD[321,324,4] = 1
xD[321,333,324] = 1
xD[321,326,342] = 1
xD[323,293,194] = 244
xD[323,194,195] = 244
xD[324,293,194] = 67
xD[324,194,195] = 67
xD[333,293,194] = 237
xD[333,292,293] = 237
xD[333,291,292] = 237
xD[334,293,194] = 2
xD[334,292,293] = 2
xD[334,291,292] = 2
xD[336,293,194] = 97
xD[336,292,293] = 97
xD[336,291,292] = 97
xD[338,293,194] = 704
xD[338,292,293] = 704
xD[338,194,195] = 704
xD[338,291,292] = 704
xD[338,2,291] = 704
xD[339,293,194] = 8
xD[339,292,293] = 8
xD[339,194,195] = 8
xD[339,291,292] = 8
xD[339,2,291] = 8
xD[340,2,291] = 156
xD[341,2,291] = 45
xD[342,293,194] = 16
xD[342,292,293] = 16
xD[342,291,292] = 16
xD[342,2,291] = 16
xD[343,293,194] = 264
xD[343,292,293] = 264
xD[343,291,292] = 264
xD[343,2,291] = 264
zE[2] = 841
zE[4] = 1177
zE[5] = 1345
zE[7] = 1681
zE[190] = 1016
zE[191] = 1184
zE[192] = 1352
zE[193] = 1520
zE[194] = 1590
zE[195] = 1688
zE[196] = 1856
zE[270] = 610
zE[284] = 1410
zE[291] = 922
zE[292] = 992
zE[293] = 1090
zE[294] = 1258
zE[295] = 1426
zE[298] = 1762
zE[313] = 946
zE[314] = 1114
zE[316] = 854
zE[323] = 895
zE[324] = 1063
zE[326] = 656
zE[332] = 608
zE[333] = 728
zE[342] = 691
zX[2] = 865
zX[4] = 1201
zX[5] = 1369
zX[7] = 1705
zX[9] = 344
zX[10] = 512
zX[13] = 680
zX[16] = 848
zX[158] = 580
zX[190] = 1032
zX[191] = 1200
zX[192] = 1368
zX[193] = 1536
zX[194] = 1622
zX[195] = 1704
zX[196] = 1872
zX[199] = 564
zX[270] = 622
zX[284] = 1423
zX[291] = 952
zX[292] = 1020
zX[293] = 1120
zX[294] = 1288
zX[295] = 1456
zX[298] = 1792
zX[313] = 964
zX[314] = 1132
zX[316] = 881
zX[323] = 909
zX[324] = 1077
zX[326] = 666
zX[332] = 618
zX[333] = 744
zX[342] = 704
phi[9] = 1528
phi[10] = 520
phi[11] = 688
phi[12] = 688
phi[17] = 620
phi[19] = 1140

### All variables with value smaller zero:

### End

real	74m42.467s
user	272m28.733s
sys	13m30.782s
	OpenBLAS 0.2.6 environment removed
	Freetype 2.4.12 environment removed
	Python 3.6.0 environment removed
	Gurobi 8.1.0 environment removed
