	OpenBLAS 0.2.6 environment established
		compiled with gcc for max. 16 cores
	Freetype 2.4.12 environment established
		library to render fonts
	Python 3.6.0 environment established
	Gurobi 8.1.0 environment established
Instance LSFRP: LSFDRP_4_3_2_1_fr.p
Instance LSFDP: LSFDRP_4_3_2_1_fd_13.p

*****************************************************************************************************************************
*** Solve LSFDRP_4_3_2_1_fd_13 with Gurobi
***
*** Graph info
*** |S|: 19
*** |S^E|: 0
*** |S^C|: 1
*** |V|: 347
*** |A|: 8382
*** |A^i|: 8382
*** |A^f|: 0
*** |M|: 343
*** |E|: 0

Changed value of parameter NumericFocus to 1
   Prev: 0  Min: 0  Max: 3  Default: 0
Changed value of parameter TimeLimit to 86400.0
   Prev: 1e+100  Min: 0.0  Max: 1e+100  Default: 1e+100
Changed value of parameter Threads to 4
   Prev: 0  Min: 0  Max: 1024  Default: 0
Optimize a model with 143928 rows, 3051766 columns and 10893683 nonzeros
Variable types: 2892487 continuous, 159279 integer (159279 binary)
Coefficient statistics:
  Matrix range     [1e+00, 4e+03]
  Objective range  [4e+01, 8e+07]
  Bounds range     [1e+00, 1e+00]
  RHS range        [1e+00, 6e+00]
Presolve removed 131018 rows and 2897455 columns (presolve time = 5s) ...
Presolve removed 135979 rows and 2910537 columns (presolve time = 12s) ...
Presolve removed 135979 rows and 2916579 columns (presolve time = 58s) ...
Presolve removed 136096 rows and 2916796 columns (presolve time = 63s) ...
Presolve removed 136096 rows and 2916796 columns (presolve time = 65s) ...
Presolve removed 136096 rows and 2916796 columns
Presolve time: 65.45s
Presolved: 7832 rows, 134970 columns, 469781 nonzeros
Variable types: 5236 continuous, 129734 integer (129696 binary)

Root simplex log...

Iteration    Objective       Primal Inf.    Dual Inf.      Time
       0    9.8020571e+09   1.465895e+06   0.000000e+00     68s
   17460    1.6324830e+07   2.944511e+05   0.000000e+00     70s
   25407    1.3009184e+07   1.061760e+05   0.000000e+00     75s
   30737    1.2236375e+07   1.441078e+06   0.000000e+00     80s
   35962    1.1415394e+07   4.618760e+04   0.000000e+00     85s
   40542    1.0703207e+07   7.278614e+04   0.000000e+00     90s
   45532    8.8399669e+06   4.708140e+04   0.000000e+00     95s
   49552    8.2300873e+06   2.216876e+04   0.000000e+00    100s
   53002    7.7408727e+06   1.004705e+03   0.000000e+00    105s
   53558    7.7350219e+06   0.000000e+00   0.000000e+00    106s

Root relaxation: objective 7.735022e+06, 53558 iterations, 38.80 seconds

    Nodes    |    Current Node    |     Objective Bounds      |     Work
 Expl Unexpl |  Obj  Depth IntInf | Incumbent    BestBd   Gap | It/Node Time

     0     0 7735021.85    0  191          - 7735021.85      -     -  108s
H    0     0                    -1752531.428 7735021.85   541%     -  110s
H    0     0                    1535026.2238 7735021.85   404%     -  138s
     0     0 7464446.61    0  213 1535026.22 7464446.61   386%     -  144s
     0     0 7455134.03    0  185 1535026.22 7455134.03   386%     -  150s
     0     0 7360448.38    0  217 1535026.22 7360448.38   379%     -  156s
     0     0 5260414.88    0  195 1535026.22 5260414.88   243%     -  158s
     0     0 5253588.10    0  198 1535026.22 5253588.10   242%     -  159s
     0     0 5252995.92    0  196 1535026.22 5252995.92   242%     -  159s
     0     0 4991039.71    0  156 1535026.22 4991039.71   225%     -  160s
     0     0 4991039.71    0  192 1535026.22 4991039.71   225%     -  163s
     0     0 4991039.71    0  201 1535026.22 4991039.71   225%     -  167s
     0     0 4989033.15    0  160 1535026.22 4989033.15   225%     -  168s
     0     0 4988127.21    0  163 1535026.22 4988127.21   225%     -  168s
     0     0 4988015.81    0  164 1535026.22 4988015.81   225%     -  168s
     0     0 4988015.81    0  164 1535026.22 4988015.81   225%     -  168s
     0     0 4906088.55    0  161 1535026.22 4906088.55   220%     -  169s
     0     0 4889361.30    0  169 1535026.22 4889361.30   219%     -  169s
     0     0 4887699.31    0  176 1535026.22 4887699.31   218%     -  169s
     0     0 4887399.36    0  176 1535026.22 4887399.36   218%     -  169s
     0     0 4853159.95    0  196 1535026.22 4853159.95   216%     -  170s
     0     0 4845109.70    0  200 1535026.22 4845109.70   216%     -  170s
     0     0 4843013.87    0  211 1535026.22 4843013.87   216%     -  170s
     0     0 4842464.90    0  204 1535026.22 4842464.90   215%     -  170s
     0     0 4842464.90    0  207 1535026.22 4842464.90   215%     -  170s
     0     0 4839150.97    0  218 1535026.22 4839150.97   215%     -  170s
     0     0 4837390.76    0  221 1535026.22 4837390.76   215%     -  170s
     0     0 4832754.52    0  217 1535026.22 4832754.52   215%     -  171s
     0     0 4831603.32    0  215 1535026.22 4831603.32   215%     -  171s
     0     0 4831597.24    0  214 1535026.22 4831597.24   215%     -  171s
     0     0 4825407.39    0  206 1535026.22 4825407.39   214%     -  171s
     0     0 4825390.73    0  207 1535026.22 4825390.73   214%     -  171s
     0     0 4820708.06    0  207 1535026.22 4820708.06   214%     -  171s
     0     0 4819046.09    0  205 1535026.22 4819046.09   214%     -  171s
     0     0 4818045.39    0  207 1535026.22 4818045.39   214%     -  172s
     0     0 4818030.75    0  208 1535026.22 4818030.75   214%     -  172s
     0     0 4816266.32    0  204 1535026.22 4816266.32   214%     -  172s
     0     0 4814952.52    0  204 1535026.22 4814952.52   214%     -  172s
     0     0 4814887.63    0  205 1535026.22 4814887.63   214%     -  172s
     0     0 4814695.90    0  210 1535026.22 4814695.90   214%     -  172s
     0     0 4814629.76    0  213 1535026.22 4814629.76   214%     -  172s
     0     0 4814192.04    0  212 1535026.22 4814192.04   214%     -  172s
     0     0 4814192.04    0  212 1535026.22 4814192.04   214%     -  176s
     0     0 4814192.04    0  177 1535026.22 4814192.04   214%     -  180s
     0     0 4814192.04    0  201 1535026.22 4814192.04   214%     -  183s
     0     0 4792539.95    0  163 1535026.22 4792539.95   212%     -  185s
     0     0 4732755.20    0  209 1535026.22 4732755.20   208%     -  185s
     0     0 4721574.39    0  223 1535026.22 4721574.39   208%     -  186s
     0     0 4707017.49    0  224 1535026.22 4707017.49   207%     -  186s
     0     0 4701501.71    0  205 1535026.22 4701501.71   206%     -  187s
     0     0 4692717.38    0  208 1535026.22 4692717.38   206%     -  187s
     0     0 4692144.40    0  221 1535026.22 4692144.40   206%     -  187s
     0     0 4692144.40    0  221 1535026.22 4692144.40   206%     -  187s
     0     0 4676162.31    0  213 1535026.22 4676162.31   205%     -  188s
     0     0 4669622.34    0  206 1535026.22 4669622.34   204%     -  188s
     0     0 4669554.00    0  208 1535026.22 4669554.00   204%     -  188s
     0     0 4660734.78    0  225 1535026.22 4660734.78   204%     -  188s
     0     0 4660167.09    0  225 1535026.22 4660167.09   204%     -  188s
     0     0 4660148.84    0  226 1535026.22 4660148.84   204%     -  188s
     0     0 4658636.42    0  202 1535026.22 4658636.42   203%     -  189s
     0     0 4657520.56    0  213 1535026.22 4657520.56   203%     -  189s
     0     0 4657448.46    0  214 1535026.22 4657448.46   203%     -  189s
     0     0 4657448.46    0  214 1535026.22 4657448.46   203%     -  189s
     0     0 4657432.90    0  210 1535026.22 4657432.90   203%     -  189s
     0     0 4657432.90    0  209 1535026.22 4657432.90   203%     -  192s
     0     2 4657432.90    0  209 1535026.22 4657432.90   203%     -  194s
     1     5 4370763.72    1  200 1535026.22 4655459.53   203%  1641  197s
     7    11 4290075.84    3  220 1535026.22 4518021.50   194%  1354  200s
    29    24 4128830.07    6  195 1535026.22 4518021.50   194%   774  206s
    81    57 4028353.34   14  111 1535026.22 4518021.50   194%   497  210s
   134    92 3582814.76   20  137 1535026.22 4518021.50   194%   487  215s
   255   171 2946257.76   34  102 1535026.22 4518021.50   194%   408  220s
   289   185 4148758.71    4  185 1535026.22 4381083.95   185%   441  227s
   375   226 3889655.00    9  113 1535026.22 4350408.85   183%   425  230s
   505   317 3156663.60    6  123 1535026.22 4318916.23   181%   416  235s
   594   354 2060081.62   12  109 1535026.22 4258300.79   177%   420  240s
   679   400 3544943.63   15   61 1535026.22 4258300.79   177%   443  245s
H  749   438                    1573305.3256 4258300.79   171%   453  250s
   923   515 1697491.04   30   43 1573305.33 4131940.89   163%   422  256s
  1022   577 2760860.44   17  213 1573305.33 4124979.50   162%   418  275s
  1024   578 3868138.27    7  176 1573305.33 4124979.50   162%   417  280s
  1028   581 2105270.09   45  215 1573305.33 4124979.50   162%   416  285s
  1038   588 3253467.88   23  224 1573305.33 4124979.50   162%   412  290s
  1044   592 3104608.22   27  231 1573305.33 4124979.50   162%   409  295s
  1047   597 4124979.50   12  236 1573305.33 4124979.50   162%   440  311s
  1049   600 4118988.03   13  196 1573305.33 4124979.50   162%   441  322s
H 1051   568                    1573305.3261 4124979.50   162%   441  322s
  1057   573 3641786.84   14  194 1573305.33 4124979.50   162%   445  327s
  1069   581 4072323.33   16  186 1573305.33 4124979.50   162%   455  330s
  1078   582 4066116.57   17  207 1573305.33 4124979.50   162%   460  335s
  1107   600 3956450.19   19  134 1573305.33 4124979.50   162%   474  342s
H 1109   571                    1788192.2738 4124979.50   131%   474  342s
H 1112   544                    1798835.9313 4124979.50   129%   475  342s
  1129   546 2999470.21   21  106 1798835.93 4124979.50   129%   480  345s
  1182   559 3688783.24   27  163 1798835.93 4124979.50   129%   483  351s
  1251   593 2229774.75   31  101 1798835.93 4124979.50   129%   481  355s
  1377   616     cutoff   41      1798835.93 4124979.50   129%   477  360s
  1473   603 2203546.20   48  135 1798835.93 4124979.50   129%   479  365s
  1588   619 3413453.52   34  115 1798835.93 4124979.50   129%   481  370s
H 1589   594                    1798835.9318 4124979.50   129%   480  370s
  1689   599 2928885.61   20  129 1798835.93 4064600.39   126%   475  375s
  1807   604     cutoff   22      1798835.93 3881753.07   116%   473  380s
  1885   616 2858726.17   42  130 1798835.93 3861089.59   115%   474  385s
  1994   649 3418627.27   24  181 1798835.93 3831241.73   113%   471  390s
  2191   701 2286622.40   55  147 1798835.93 3813412.38   112%   459  397s
  2261   721 3347339.72   24  171 1798835.93 3813412.38   112%   458  400s
H 2265   688                    1832652.8027 3813412.38   108%   458  400s
  2468   743 3256356.00   28  126 1832652.80 3800230.63   107%   450  406s
  2684   859 2500629.13   48  116 1832652.80 3719957.32   103%   440  411s
H 2723   867                    1858017.2051 3719957.32   100%   441  411s
  2853   927 3619422.02   27  182 1858017.21 3700992.78  99.2%   437  417s
  3016  1041 3286907.97   24  123 1858017.21 3683746.12  98.3%   426  420s
  3212  1157 2846258.25   43   99 1858017.21 3661808.61  97.1%   421  426s
  3522  1351     cutoff   39      1858017.21 3639681.47  95.9%   413  432s
  3697  1431 3094504.79   32  124 1858017.21 3633073.24  95.5%   408  436s
H 3779  1459                    1858017.2884 3619715.99  94.8%   407  436s
  3790  1451 2365386.40   32   89 1858017.29 3616342.46  94.6%   407  440s
  3962  1545 1940378.44   35  145 1858017.29 3602179.36  93.9%   411  448s
  4105  1612 2128821.24   31   78 1858017.29 3579151.91  92.6%   411  452s
  4137  1609 2615006.48   31  117 1858017.29 3565959.91  91.9%   411  456s
  4316  1690 2150787.41   44  126 1858017.29 3560750.96  91.6%   409  460s
  4502  1745 3442006.05   31   60 1858017.29 3549361.50  91.0%   407  465s
  4975  1928 2697399.86   26   87 1858017.29 3503679.85  88.6%   395  474s
  5182  2011 2992261.23   37  102 1858017.29 3485520.43  87.6%   391  479s
  5356  2089 2189033.37   24   84 1858017.29 3476222.81  87.1%   388  484s
  5531  2137 2775269.64   34  101 1858017.29 3452477.35  85.8%   387  489s
  5705  2203 2155088.16   27  123 1858017.29 3442283.80  85.3%   384  495s
  5960  2344 2432799.03   51   93 1858017.29 3432113.44  84.7%   379  501s
  6214  2462 2037959.06   31  170 1858017.29 3409908.08  83.5%   374  507s
  6509  2552     cutoff   36      1858017.29 3399828.64  83.0%   366  512s
  6867  2722     cutoff   34      1858017.29 3380299.15  81.9%   360  519s
H 6890  2662                    1921994.5113 3380299.15  75.9%   361  519s
  7177  2750 2196322.49   33  113 1921994.51 3367551.82  75.2%   358  525s
H 7492  2750                    1992418.7518 3346754.87  68.0%   358  532s
H 7723  2761                    2015542.8133 3343346.91  65.9%   359  532s
  7777  2755 2377250.29   38   79 2015542.81 3331962.14  65.3%   359  539s
  8139  2862 2635296.15   34  112 2015542.81 3312333.01  64.3%   359  547s
H 8193  2892                    2017783.1542 3312333.01  64.2%   359  547s
  8453  2996 2869320.06   41  158 2017783.15 3303596.81  63.7%   355  556s
  8885  3192 2143788.85   28  124 2017783.15 3284205.46  62.8%   351  565s
  9388  3378 2862371.69   29  150 2017783.15 3265074.87  61.8%   346  573s
  9875  3541 2659654.60   39  160 2017783.15 3257796.79  61.5%   346  581s
H 9950  3468                    2062243.6837 3257796.79  58.0%   346  581s
H10040  3436                    2087608.0861 3257796.79  56.1%   346  581s
 10288  3478     cutoff   31      2087608.09 3224576.11  54.5%   345  594s
 10755  3622 2911202.80   42  125 2087608.09 3206779.19  53.6%   342  604s
H10822  3622                    2087608.1000 3206779.19  53.6%   344  604s
 11165  3692 3176165.11   19  135 2087608.10 3182237.08  52.4%   342  614s
 11791  3891 2892805.49   41  121 2087608.10 3181596.77  52.4%   339  623s
 12122  3952 3044055.94   44  104 2087608.10 3151715.38  51.0%   337  632s
 12662  4127 2993440.15   33  156 2087608.10 3141843.99  50.5%   335  647s
 13170  4270     cutoff   36      2087608.10 3131349.78  50.0%   332  657s
 13623  4381 2191572.86   55   82 2087608.10 3115475.25  49.2%   332  665s
 14107  4523 3014396.89   30   75 2087608.10 3102789.02  48.6%   332  675s
 14761  4690 2317081.98   37   34 2087608.10 3087328.83  47.9%   330  684s
 15408  4871 2780237.97   40  120 2087608.10 3070937.68  47.1%   327  692s
 16030  5078 infeasible   38      2087608.10 3060748.62  46.6%   325  701s
 16624  5211 2379983.10   31   88 2087608.10 3044906.21  45.9%   323  708s
 17167  5349 2775983.33   40  172 2087608.10 3025707.09  44.9%   321  716s
 17769  5527 2716965.49   43   93 2087608.10 3012109.41  44.3%   319  724s
 18397  5717 infeasible   49      2087608.10 3002244.47  43.8%   317  731s
 18931  5814     cutoff   32      2087608.10 2989538.74  43.2%   316  739s
 19355  5891 2163873.56   34   85 2087608.10 2984170.23  42.9%   315  747s
 19969  6032 2330811.17   32  102 2087608.10 2971873.03  42.4%   312  754s
 20534  6130 2313715.93   28  119 2087608.10 2955538.30  41.6%   311 1018s
 21009  6238 2154674.87   35  151 2087608.10 2950257.59  41.3%   309 1025s
 21237  6304 2466955.34   46  143 2087608.10 2945144.33  41.1%   311 1032s
 21439  6338     cutoff   51      2087608.10 2940894.06  40.9%   313 1038s
 21688  6409 2874204.38   33   79 2087608.10 2934736.27  40.6%   314 1045s
 21870  6464     cutoff   25      2087608.10 2931656.45  40.4%   316 1051s
 22109  6498 infeasible   60      2087608.10 2930264.53  40.4%   317 1058s
 22450  6561 2900250.45   48   47 2087608.10 2923039.91  40.0%   318 1064s
 22640  6559     cutoff   38      2087608.10 2920263.60  39.9%   320 1071s
 22909  6610     cutoff   40      2087608.10 2917531.61  39.8%   322 1077s
 23073  6625 2611458.79   29  147 2087608.10 2914180.39  39.6%   324 1084s
 23281  6654 2840758.21   39  133 2087608.10 2909316.88  39.4%   327 1091s
 23493  6727 2261828.14   36   92 2087608.10 2908404.49  39.3%   328 1100s
 23518  6689 2551700.09   54   66 2087608.10 2907821.18  39.3%   329 1108s
 23773  6776 2853751.33   31  180 2087608.10 2903367.87  39.1%   330 1115s
 23934  6776 2681204.47   44  187 2087608.10 2900999.22  39.0%   333 1123s
 24138  6807 2604401.24   41  165 2087608.10 2900079.23  38.9%   335 1130s
 24428  6844 2375557.44   30  140 2087608.10 2892674.89  38.6%   337 1137s
 24751  6888     cutoff   34      2087608.10 2890262.00  38.4%   338 1145s
 25061  6937 2361517.09   37  176 2087608.10 2885124.29  38.2%   339 1152s
 25325  6977     cutoff   41      2087608.10 2882126.46  38.1%   341 1160s
 25590  7012 2175325.96   33   40 2087608.10 2878913.58  37.9%   341 1167s
 25866  7047 2565689.87   41  135 2087608.10 2875199.70  37.7%   342 1175s
 26126  7070     cutoff   37      2087608.10 2869656.20  37.5%   344 1183s
 26463  7138 2131796.05   44  114 2087608.10 2868204.60  37.4%   345 1236s
 26817  7231 2701183.96   34  186 2087608.10 2862172.30  37.1%   345 1244s
 27074  7245 2635018.22   37  131 2087608.10 2859030.35  37.0%   346 1253s
 27458  7365 2703209.64   36   50 2087608.10 2853700.99  36.7%   347 1261s
 27779  7408     cutoff   52      2087608.10 2847915.20  36.4%   348 1269s
 28003  7415 2258251.61   43  158 2087608.10 2844448.88  36.3%   351 1278s
 28270  7442 2784098.92   33   52 2087608.10 2840768.27  36.1%   353 1287s
 28537  7468     cutoff   45      2087608.10 2836447.90  35.9%   354 1296s
 28868  7482 2630285.76   39  123 2087608.10 2830755.37  35.6%   356 1305s
 29196  7555 2478453.10   42   41 2087608.10 2827619.85  35.4%   357 1314s
 29480  7569     cutoff   37      2087608.10 2821643.94  35.2%   359 1322s
 29732  7567 2200840.72   28  104 2087608.10 2815916.45  34.9%   362 1332s
 30096  7603 2580847.14   39  117 2087608.10 2810990.87  34.7%   363 1341s
 30559  7728     cutoff   69      2087608.10 2807875.14  34.5%   363 1350s
 30784  7715     cutoff   27      2087608.10 2805120.25  34.4%   365 1363s
 31168  7825 2665960.16   44   26 2087608.10 2800598.82  34.2%   366 1372s
 31392  7792 2159703.96   36   52 2087608.10 2797735.01  34.0%   366 1382s
 31805  7840 2476322.89   47   55 2087608.10 2791765.68  33.7%   367 1391s
 32113  7878     cutoff   55      2087608.10 2787701.60  33.5%   368 1400s
 32412  7894 2670100.98   34   68 2087608.10 2786220.02  33.5%   370 1410s
 32640  7899 2267002.15   30  120 2087608.10 2780050.66  33.2%   371 1419s
 32951  7905     cutoff   32      2087608.10 2775379.39  32.9%   372 1429s
 33294  7927 2200560.34   42  144 2087608.10 2774056.13  32.9%   374 1439s
 33619  7977 2221888.29   39   50 2087608.10 2768238.76  32.6%   375 1448s
 34000  8063 infeasible   64      2087608.10 2764471.16  32.4%   376 1457s
 34293  8063     cutoff   27      2087608.10 2760825.23  32.2%   377 1467s
 34595  8063     cutoff   42      2087608.10 2754920.68  32.0%   379 1476s
 34858  8079     cutoff   27      2087608.10 2753050.01  31.9%   380 1486s
 35216  8141 2445307.15   28  153 2087608.10 2746243.93  31.5%   382 1497s
 35422  8161     cutoff   40      2087608.10 2742581.40  31.4%   382 1506s
 35831  8195 infeasible   58      2087608.10 2738274.62  31.2%   383 1516s
 36264  8254 2604466.31   33   64 2087608.10 2731828.28  30.9%   383 1526s
 36622  8294 2562079.99   38  178 2087608.10 2726495.29  30.6%   384 1536s
 36937  8290 2648087.64   28   61 2087608.10 2720959.85  30.3%   386 1546s
 37399  8371     cutoff   40      2087608.10 2716217.42  30.1%   386 1556s
 37744  8406     cutoff   56      2087608.10 2712953.41  30.0%   386 1565s
 38151  8477     cutoff   46      2087608.10 2710728.21  29.8%   386 1575s
 38472  8489     cutoff   61      2087608.10 2702765.94  29.5%   387 1585s
 38742  8481     cutoff   52      2087608.10 2700641.57  29.4%   389 1595s
 39075  8496 2626236.55   55   65 2087608.10 2694158.19  29.1%   390 1606s
 39529  8590 2410608.02   39   53 2087608.10 2690251.52  28.9%   389 1616s
 39750  8590     cutoff   41      2087608.10 2688157.75  28.8%   390 1627s
 40062  8575     cutoff   29      2087608.10 2685187.04  28.6%   392 1636s
 40454  8600     cutoff   33      2087608.10 2679825.67  28.4%   392 1646s
 40768  8604 2652182.73   38   32 2087608.10 2677608.26  28.3%   393 1656s
 41142  8604 2505881.71   48   57 2087608.10 2672471.60  28.0%   393 1669s
 41433  8604 2363401.22   22  133 2087608.10 2667159.92  27.8%   395 1679s
 41773  8636     cutoff   59      2087608.10 2664768.43  27.6%   396 1690s
 42146  8655 2457182.95   35   48 2087608.10 2661745.62  27.5%   396 1700s
 42495  8671     cutoff   53      2087608.10 2655885.20  27.2%   397 1710s
 42833  8659 2611059.37   52   34 2087608.10 2653897.67  27.1%   397 1720s
 43154  8640 2501349.93   45   64 2087608.10 2649583.62  26.9%   399 1730s
 43562  8675 2284211.95   56   39 2087608.10 2645772.34  26.7%   399 1742s
 43870  8686 2291076.80   55  146 2087608.10 2642848.26  26.6%   399 1752s
 44256  8692     cutoff   55      2087608.10 2638761.32  26.4%   400 1762s
 44624  8712 2369183.07   42  174 2087608.10 2635055.79  26.2%   400 1772s
 44956  8699     cutoff   45      2087608.10 2632281.02  26.1%   401 1782s
 45347  8753     cutoff   39      2087608.10 2627192.75  25.8%   401 1792s
 45568  8742 2556405.00   37   60 2087608.10 2625144.14  25.7%   402 1802s
 45923  8733 2216805.04   33  198 2087608.10 2620705.88  25.5%   403 1812s
 46295  8734 2436733.16   41   50 2087608.10 2617717.04  25.4%   404 1821s
 46693  8765 2294548.45   36   84 2087608.10 2611981.79  25.1%   403 1831s
 46990  8745 2137220.17   38  112 2087608.10 2609364.13  25.0%   404 1840s
 47374  8730 2313574.02   42   66 2087608.10 2604791.11  24.8%   404 1850s
 47882  8780 2501804.51   41   76 2087608.10 2600165.73  24.6%   403 1860s
 48217  8736 2366777.12   40   52 2087608.10 2596950.34  24.4%   404 1870s
 48693  8771 2586078.62   52   18 2087608.10 2592661.53  24.2%   403 1879s
 49024  8790 2578340.16   51   35 2087608.10 2589339.00  24.0%   404 1890s
 49272  8753     cutoff   36      2087608.10 2588521.96  24.0%   405 1900s
 49655  8744     cutoff   31      2087608.10 2582822.36  23.7%   405 1910s
 50012  8779 2335754.83   37   80 2087608.10 2580090.03  23.6%   406 1920s
 50478  8783     cutoff   45      2087608.10 2576562.59  23.4%   405 1930s
 50842  8807     cutoff   57      2087608.10 2572667.97  23.2%   406 1941s
 51244  8843 infeasible   58      2087608.10 2570461.46  23.1%   406 1951s
 51612  8847     cutoff   35      2087608.10 2568248.96  23.0%   407 1965s
 51963  8835 2422931.15   43  113 2087608.10 2564705.64  22.9%   407 1975s
 52411  8894     cutoff   36      2087608.10 2560777.59  22.7%   407 1984s
 52720  8882     cutoff   38      2087608.10 2558825.15  22.6%   408 1995s
 52970  8880     cutoff   25      2087608.10 2556156.54  22.4%   408 2006s
 53318  8871 2235446.32   35  121 2087608.10 2552159.80  22.3%   409 2016s
 53606  8835     cutoff   42      2087608.10 2548709.44  22.1%   410 2027s
 53988  8809 2190125.50   37  114 2087608.10 2544155.77  21.9%   410 2037s
 54317  8825     cutoff   46      2087608.10 2540803.16  21.7%   410 2048s
 54547  8788 2519411.35   37   51 2087608.10 2540118.93  21.7%   410 2058s
 54876  8759     cutoff   42      2087608.10 2534864.39  21.4%   410 2068s
 55217  8783     cutoff   56      2087608.10 2531221.04  21.2%   411 2077s
 55578  8775 2473461.40   47   44 2087608.10 2528454.92  21.1%   411 2087s
 55915  8752 2474455.60   43  178 2087608.10 2524281.08  20.9%   411 2096s
 56284  8769     cutoff   40      2087608.10 2521224.33  20.8%   411 2107s
 56621  8770     cutoff   60      2087608.10 2518255.13  20.6%   412 2116s
 56922  8739 2474905.92   43  104 2087608.10 2516802.16  20.6%   412 2125s
 57226  8723     cutoff   25      2087608.10 2512560.29  20.4%   411 2135s
 57482  8677     cutoff   25      2087608.10 2511021.41  20.3%   412 2144s
 57833  8660 2249790.26   60   46 2087608.10 2506707.53  20.1%   413 2154s
 58190  8669 2269578.71   61   82 2087608.10 2502907.97  19.9%   413 2164s
 58515  8663     cutoff   37      2087608.10 2500367.39  19.8%   413 2173s
 58879  8618 2324695.30   33  211 2087608.10 2496652.92  19.6%   414 2183s
 59199  8600     cutoff   44      2087608.10 2494074.32  19.5%   413 2191s
 59551  8603     cutoff   38      2087608.10 2490356.91  19.3%   413 2200s
 59911  8564     cutoff   38      2087608.10 2487620.95  19.2%   413 2208s
 60188  8520 2224449.89   37   82 2087608.10 2484572.05  19.0%   414 2216s
 60601  8573     cutoff   51      2087608.10 2481890.85  18.9%   413 2226s
 60835  8535 2210110.32   50  139 2087608.10 2480319.54  18.8%   413 2236s
 61186  8527     cutoff   43      2087608.10 2477339.92  18.7%   413 2245s
 61598  8565 2389216.96   45  102 2087608.10 2473816.45  18.5%   413 2255s
 61880  8522 2186956.09   58   21 2087608.10 2472258.41  18.4%   413 2263s
 62298  8548     cutoff   46      2087608.10 2468035.58  18.2%   413 2276s
 62584  8507 2259960.02   53  162 2087608.10 2465911.63  18.1%   413 2284s
 62960  8510     cutoff   40      2087608.10 2462377.92  18.0%   413 2293s
 63307  8518 infeasible   52      2087608.10 2460175.08  17.8%   413 2302s
 63500  8467     cutoff   30      2087608.10 2458812.19  17.8%   413 2310s
 63884  8464 2438918.98   40   76 2087608.10 2455159.52  17.6%   413 2320s
 64238  8468     cutoff   45      2087608.10 2453870.29  17.5%   413 2328s
 64656  8497 2288586.56   50   46 2087608.10 2450453.86  17.4%   413 2337s
 64936  8453     cutoff   39      2087608.10 2448527.77  17.3%   413 2346s
 65235  8400 2305373.45   34  142 2087608.10 2445459.75  17.1%   414 2354s
 65552  8368     cutoff   47      2087608.10 2442944.14  17.0%   414 2362s
 65910  8363 2420955.14   43   79 2087608.10 2440591.37  16.9%   414 2371s
 66262  8364     cutoff   47      2087608.10 2437835.81  16.8%   414 2380s
 66504  8319     cutoff   27      2087608.10 2434993.38  16.6%   414 2388s
 66794  8303 2278860.65   61   45 2087608.10 2432300.21  16.5%   414 2396s
 67069  8262     cutoff   56      2087608.10 2429884.07  16.4%   414 2403s
 67390  8241     cutoff   44      2087608.10 2427790.31  16.3%   414 2408s
 67684  8212     cutoff   36      2087608.10 2424960.17  16.2%   414 2417s
 67925  8178     cutoff   38      2087608.10 2424086.60  16.1%   414 2426s
 68156  8120     cutoff   46      2087608.10 2422200.21  16.0%   414 2434s
 68484  8079     cutoff   49      2087608.10 2419041.27  15.9%   414 2442s
 68834  8079     cutoff   56      2087608.10 2416400.41  15.7%   414 2450s
 69068  8023 2401005.86   56   97 2087608.10 2413859.25  15.6%   414 2456s
 69382  7994     cutoff   28      2087608.10 2411503.15  15.5%   414 2462s
 69639  7950     cutoff   48      2087608.10 2409189.63  15.4%   414 2469s
 69894  7887 2382726.48   45   60 2087608.10 2406544.77  15.3%   414 2477s
 70120  7851     cutoff   53      2087608.10 2404260.05  15.2%   414 2482s
 70420  7822 2398437.22   36   87 2087608.10 2402056.08  15.1%   414 2491s
 70698  7800     cutoff   41      2087608.10 2399433.33  14.9%   414 2498s
 71073  7780     cutoff   42      2087608.10 2397164.10  14.8%   414 2507s
 71329  7739 2257130.18   52   16 2087608.10 2394913.24  14.7%   414 2513s
 71648  7717     cutoff   32      2087608.10 2392690.69  14.6%   413 2521s
 71891  7661     cutoff   41      2087608.10 2390210.31  14.5%   414 2528s
 72171  7630     cutoff   45      2087608.10 2387895.08  14.4%   414 2535s
 72482  7610 2377299.47   62   56 2087608.10 2385562.21  14.3%   414 2543s
 72794  7595     cutoff   49      2087608.10 2383480.82  14.2%   414 2548s
 73101  7579 2298872.81   37   61 2087608.10 2381565.26  14.1%   413 2555s
 73396  7557     cutoff   49      2087608.10 2379715.79  14.0%   413 2562s
 73682  7518 2220115.87   63   32 2087608.10 2377273.47  13.9%   413 2568s
 73938  7497 2352031.74   36   60 2087608.10 2374889.71  13.8%   413 2577s
 74209  7449     cutoff   39      2087608.10 2373555.11  13.7%   413 2582s
 74484  7398 2302599.17   39   28 2087608.10 2370893.11  13.6%   412 2591s
 74737  7356     cutoff   40      2087608.10 2369266.54  13.5%   413 2595s
 74980  7307     cutoff   51      2087608.10 2367376.14  13.4%   413 2602s
 75236  7255 2323195.55   46   44 2087608.10 2365740.58  13.3%   413 2607s
 75539  7221 2339582.86   59   55 2087608.10 2363452.47  13.2%   412 2613s
 75725  7158 2284686.28   49   66 2087608.10 2361424.63  13.1%   413 2618s
 75954  7086 2268709.42   55   22 2087608.10 2359580.78  13.0%   413 2625s
 76255  7060 2357869.79   50   56 2087608.10 2357869.79  12.9%   413 2631s
 76523  7011     cutoff   62      2087608.10 2355564.41  12.8%   412 2637s
 76884  6992     cutoff   50      2087608.10 2353742.14  12.7%   412 2642s
 77121  6943     cutoff   64      2087608.10 2351791.89  12.7%   412 2648s
 77352  6881 2310380.05   41   60 2087608.10 2349618.34  12.6%   412 2652s
 77601  6832 2302288.49   42   82 2087608.10 2347722.81  12.5%   411 2722s
 77810  6772     cutoff   65      2087608.10 2345983.52  12.4%   411 2728s
 78096  6725     cutoff   51      2087608.10 2344229.90  12.3%   411 2733s
 78307  6666 2339011.53   55   22 2087608.10 2342153.65  12.2%   411 2738s
 78562  6609     cutoff   42      2087608.10 2339969.25  12.1%   411 2744s
 78922  6598     cutoff   33      2087608.10 2338199.06  12.0%   411 2751s
 79158  6556     cutoff   22      2087608.10 2336082.91  11.9%   411 2757s
 79387  6489 2092435.76   42   61 2087608.10 2334004.68  11.8%   411 2765s
 79908  6402 2107389.71   42   90 2087608.10 2329786.02  11.6%   410 2774s
 80119  6334     cutoff   56      2087608.10 2328061.13  11.5%   410 2780s
 80422  6299     cutoff   45      2087608.10 2326006.30  11.4%   410 2789s
 80646  6245     cutoff   46      2087608.10 2324391.22  11.3%   410 2793s
 80871  6183     cutoff   38      2087608.10 2322337.67  11.2%   410 2798s
 81169  6185     cutoff   52      2087608.10 2320739.61  11.2%   409 2807s
 81262  6112 2286448.92   46   43 2087608.10 2320451.05  11.2%   409 2813s
 81561  6087     cutoff   40      2087608.10 2317898.35  11.0%   409 2819s
 81831  6052     cutoff   41      2087608.10 2315480.91  10.9%   409 2824s
 82091  5998     cutoff   36      2087608.10 2313520.94  10.8%   408 2828s
 82354  5949     cutoff   56      2087608.10 2311858.78  10.7%   408 2833s
 82569  5893 2180125.99   43   38 2087608.10 2310422.35  10.7%   408 2837s
 82799  5836     cutoff   40      2087608.10 2308743.10  10.6%   408 2843s
 83039  5779 infeasible   62      2087608.10 2306910.92  10.5%   408 2847s
 83197  5700     cutoff   28      2087608.10 2305472.40  10.4%   408 2853s
 83425  5651 2278519.62   50  115 2087608.10 2303455.30  10.3%   408 2858s
 83645  5582     cutoff   61      2087608.10 2301402.19  10.2%   408 2862s
 83884  5526     cutoff   45      2087608.10 2299584.34  10.2%   408 2867s
 84150  5481 2139420.85   52   73 2087608.10 2298176.04  10.1%   407 2872s
 84349  5414 2133175.48   48   79 2087608.10 2296364.16  10.0%   407 2877s
 84605  5360 2267699.88   42   67 2087608.10 2294565.92  9.91%   407 2881s
 84805  5296     cutoff   37      2087608.10 2292540.36  9.82%   407 2886s
 85006  5234     cutoff   38      2087608.10 2290955.53  9.74%   407 2891s
 85240  5180 2271344.96   41   64 2087608.10 2289228.57  9.66%   407 2895s
 85689  5065     cutoff   56      2087608.10 2285682.96  9.49%   406 2902s
 85935  5001     cutoff   26      2087608.10 2283759.98  9.40%   406 2907s
 86116  4928     cutoff   63      2087608.10 2282078.13  9.32%   406 2911s
 86332  4874     cutoff   54      2087608.10 2280205.11  9.23%   406 2917s
 86521  4809     cutoff   39      2087608.10 2278145.52  9.13%   406 2921s
 87024  4702 2119533.37   38  119 2087608.10 2274221.52  8.94%   405 2927s
 87192  4634     cutoff   49      2087608.10 2272251.11  8.84%   405 2932s
 87439  4570 2096609.44   53   98 2087608.10 2270425.61  8.76%   405 2935s
 87857  4429     cutoff   39      2087608.10 2266607.97  8.57%   404 2941s
 88268  4303 2192381.43   51   31 2087608.10 2263049.05  8.40%   404 2947s
 88499  4243     cutoff   38      2087608.10 2261254.03  8.32%   403 2950s
 88900  4116     cutoff   49      2087608.10 2257340.37  8.13%   403 2956s
 89304  3991 2122338.37   36  107 2087608.10 2253743.18  7.96%   402 2962s
 89494  3917 2147904.33   59   74 2087608.10 2251952.13  7.87%   402 2965s
 89862  3769     cutoff   42      2087608.10 2248669.42  7.72%   402 2972s
 90024  3694     cutoff   45      2087608.10 2246989.75  7.63%   402 2975s
 90398  3553 2239035.01   51   55 2087608.10 2243309.58  7.46%   401 2981s
 90743  3401     cutoff   50      2087608.10 2239230.24  7.26%   401 2987s
 90944  3325     cutoff   46      2087608.10 2237062.47  7.16%   401 2990s
 91108  3248 2224603.05   40   79 2087608.10 2235173.28  7.07%   401 2995s
 91556  3117     cutoff   50      2087608.10 2231365.85  6.89%   400 3003s
 91742  3051     cutoff   44      2087608.10 2229405.07  6.79%   400 3008s
 91952  2984     cutoff   45      2087608.10 2227787.73  6.71%   400 3011s
 92285  2840 infeasible   48      2087608.10 2224289.30  6.55%   400 3017s
 92441  2764     cutoff   61      2087608.10 2222392.44  6.46%   400 3020s
 92810  2616     cutoff   42      2087608.10 2218231.52  6.26%   399 3026s
 92949  2536     cutoff   50      2087608.10 2216106.48  6.16%   399 3030s
 93275  2383     cutoff   35      2087608.10 2211577.54  5.94%   399 3036s
 93576  2222     cutoff   64      2087608.10 2207270.76  5.73%   399 3042s
 93884  2080     cutoff   45      2087608.10 2202232.30  5.49%   399 3047s
 94055  2011 2150818.95   41   65 2087608.10 2199890.67  5.38%   398 3050s
 94349  1850     cutoff   44      2087608.10 2194428.70  5.12%   398 3057s
 94507  1774     cutoff   37      2087608.10 2192127.98  5.01%   398 3060s
 94842  1616     cutoff   44      2087608.10 2187104.91  4.77%   398 3065s
 95120  1452     cutoff   55      2087608.10 2181805.69  4.51%   398 3070s
 95433  1295     cutoff   58      2087608.10 2176531.98  4.26%   398 3076s
 95738  1139     cutoff   43      2087608.10 2171473.68  4.02%   397 3082s
 96018   975     cutoff   42      2087608.10 2165377.05  3.73%   397 3087s
 96173   893     cutoff   48      2087608.10 2161332.03  3.53%   397 3090s
 96546   646     cutoff   55      2087608.10 2149637.76  2.97%   397 3097s
 96760   478     cutoff   48      2087608.10 2141311.36  2.57%   397 3101s
 96949   310     cutoff   46      2087608.10 2130984.08  2.08%   397 3107s
 97052   226     cutoff   39      2087608.10 2124831.22  1.78%   397 3110s
 97250    78     cutoff   32      2087608.10 2108562.38  1.00%   397 3122s
 97317     0 2104995.89   42  102 2087608.10 2104995.89  0.83%   397 3126s

Cutting planes:
  Gomory: 88
  Implied bound: 19
  Projected implied bound: 6
  MIR: 51
  Flow cover: 226
  Zero half: 3

Explored 97401 nodes (38827025 simplex iterations) in 3130.31 seconds
Thread count was 4 (of 16 available processors)

Solution count 10: 2.08761e+06 2.08761e+06 2.06224e+06 ... 1.83265e+06

Optimal solution found (tolerance 1.00e-04)
Best objective 2.087608086087e+06, best bound 2.087608099957e+06, gap 0.0000%

***
***  |- Calculation finished, took 3,130.36 (3130.36) sec.
***  |-----------------------------------------------------------------------------------------------------------------------
***
*****************************************************************************************************************************
#############################################################################################################################
###
### Results
###
### The objective of the solution is 2,087,608.0861 (2087608.0861) and is feasible with a Gap of 0.0
###
### Service 81 (MECL1) is operated by 6 vessels from type 30 (PMax35)
###  |- Vessel  9 has the path [9, 332, 326, 342, 333, 324, 4, 294, 284, 7, 298, 196, 0]
###  |  9 (BEANR Out@344.0) - 332 (USEWR In@608.0/Out@618.0) - 326 (USCHS In@656.0/Out@666.0) - 342 (USORF In@691.0/Out@704.0
###  |  ) - 333 (USEWR In@728.0/Out@744.0) - 324 (TRZMK In@1063.0/Out@1077.0) - 4 (AEJEA In@1177.0/Out@1201.0) - 294 (PKBQM I
###  |  n@1258.0/Out@1288.0) - 284 (OMSLL In@1410.0/Out@1423.0) - 7 (AEJEA In@1681.0/Out@1705.0) - 298 (PKBQM In@1762.0/Out@1
###  |  792.0) - 196 (INNSA In@1856.0/Out@1872.0) - 0 (DUMMY_END Ziel-Service 81)
###  |   |- and carried Demand 237,   34.0 containers from 298 to 196
###  |   |- and carried Demand 238,   84.0 containers from   7 to 298
###  |   |- and carried Demand 239,   50.0 containers from   7 to 298
###  |   |- and carried Demand 297,  254.0 containers from 294 to 196
###  |   |- and carried Demand 298,    1.0 containers from 294 to 196
###  |   |- and carried Demand 299,  135.0 containers from 294 to 196
###  |   |- and carried Demand 302,   75.0 containers from   4 to 196
###  |   |- and carried Demand 303,  200.0 containers from   4 to 294
###  |   |- and carried Demand 304,   24.0 containers from   4 to 294
###  |   |- and carried Demand 305,   26.0 containers from   4 to 196
###  |   |- and carried Demand 306,  144.0 containers from   4 to 196
###  |   |- and carried Demand 307,    1.0 containers from   4 to 196
###  |   |- and carried Demand 309,  339.0 containers from 342 to   4
###  |   |- and carried Demand 310,  115.0 containers from 342 to   4
###  |   |- and carried Demand 311,    3.0 containers from 342 to 284
###  |   |- and carried Demand 312,    2.0 containers from 342 to 294
###  |   |- and carried Demand 313,  194.0 containers from 326 to   4
###  |   |- and carried Demand 314,   49.0 containers from 326 to   4
###  |   |- and carried Demand 315,   40.0 containers from 326 to 294
###  |   |- and carried Demand 318,  842.0 containers from 332 to   4
###  |   |- and carried Demand 319,   99.0 containers from 332 to   4
###  |   |- and carried Demand 320,  123.0 containers from 332 to 294
###  |   |- and carried Demand 321,    1.0 containers from 332 to 294
###  |- Vessel 10 has the path [10, 316, 190, 0]
###  |  10 (BEANR Out@512.0) - 316 (TRAMB In@854.0/Out@881.0) - 190 (INNSA In@1016.0/Out@1032.0) - 0 (DUMMY_END Ziel-Service 
###  |  81)
###  |- Vessel 11 has the path [13, 313, 192, 0]
###  |  13 (BEANR Out@680.0) - 313 (TRALI In@946.0/Out@964.0) - 192 (INNSA In@1352.0/Out@1368.0) - 0 (DUMMY_END Ziel-Service 
###  |  81)
###  |- Vessel 12 has the path [16, 314, 5, 295, 193, 0]
###  |  16 (BEANR Out@848.0) - 314 (TRALI In@1114.0/Out@1132.0) - 5 (AEJEA In@1345.0/Out@1369.0) - 295 (PKBQM In@1426.0/Out@1
###  |  456.0) - 193 (INNSA In@1520.0/Out@1536.0) - 0 (DUMMY_END Ziel-Service 81)
###  |   |- and carried Demand 284,   86.0 containers from   5 to 295
###  |   |- and carried Demand 285,  118.0 containers from   5 to 295
###  |- Vessel 17 has the path [158, 270, 323, 191, 0]
###  |  158 (GBFXT Out@580.0) - 270 (NLRTM In@610.0/Out@622.0) - 323 (TRZMK In@895.0/Out@909.0) - 191 (INNSA In@1184.0/Out@12
###  |  00.0) - 0 (DUMMY_END Ziel-Service 81)
###  |- Vessel 19 has the path [199, 2, 291, 292, 293, 194, 195, 0]
###  |  199 (INPAV Out@564.0) - 2 (AEJEA In@841.0/Out@865.0) - 291 (PKBQM In@922.0/Out@952.0) - 292 (PKBQM In@992.0/Out@1020.
###  |  0) - 293 (PKBQM In@1090.0/Out@1120.0) - 194 (INNSA In@1590.0/Out@1622.0) - 195 (INNSA In@1688.0/Out@1704.0) - 0 (DUMM
###  |  Y_END Ziel-Service 81)
###  |   |- and carried Demand 120,  237.0 containers from 292 to 194
###  |   |- and carried Demand 121,    2.0 containers from 292 to 194
###  |   |- and carried Demand 123,   97.0 containers from 292 to 194
###  |   |- and carried Demand 323,  244.0 containers from 293 to 195
###  |   |- and carried Demand 324,   67.0 containers from 293 to 195
###  |   |- and carried Demand 333,  237.0 containers from 291 to 194
###  |   |- and carried Demand 334,    2.0 containers from 291 to 194
###  |   |- and carried Demand 336,   97.0 containers from 291 to 194
###  |   |- and carried Demand 338,  704.0 containers from   2 to 195
###  |   |- and carried Demand 339,    8.0 containers from   2 to 195
###  |   |- and carried Demand 340,  156.0 containers from   2 to 291
###  |   |- and carried Demand 341,   45.0 containers from   2 to 291
###  |   |- and carried Demand 342,   16.0 containers from   2 to 194
###  |   |- and carried Demand 343,  264.0 containers from   2 to 194
###  |
### Vessels not used in the solution: [1, 2, 3, 4, 5, 6, 7, 8, 13, 14, 15, 16, 18]
###  |-----------------------------------------------------------------------------------------------------------------------
###
#############################################################################################################################

### Detialed variable overview

### All variables with value greater zero:
rho[81,30] = 1
eta[81,30,1] = 1
eta[81,30,2] = 1
eta[81,30,3] = 1
eta[81,30,4] = 1
eta[81,30,5] = 1
eta[81,30,6] = 1
y[9,4,294] = 1
y[9,332,326] = 1
y[9,294,284] = 1
y[9,284,7] = 1
y[9,342,333] = 1
y[9,9,332] = 1
y[9,324,4] = 1
y[9,7,298] = 1
y[9,196,0] = 1
y[9,333,324] = 1
y[9,298,196] = 1
y[9,326,342] = 1
y[10,190,0] = 1
y[10,316,190] = 1
y[10,10,316] = 1
y[11,192,0] = 1
y[11,313,192] = 1
y[11,13,313] = 1
y[12,5,295] = 1
y[12,193,0] = 1
y[12,16,314] = 1
y[12,295,193] = 1
y[12,314,5] = 1
y[17,270,323] = 1
y[17,158,270] = 1
y[17,191,0] = 1
y[17,323,191] = 1
y[19,293,194] = 1
y[19,195,0] = 1
y[19,292,293] = 1
y[19,194,195] = 1
y[19,291,292] = 1
y[19,199,2] = 1
y[19,2,291] = 1
xD[120,293,194] = 237
xD[120,292,293] = 237
xD[121,293,194] = 2
xD[121,292,293] = 2
xD[123,293,194] = 97
xD[123,292,293] = 97
xD[237,298,196] = 34
xD[238,7,298] = 84
xD[239,7,298] = 50
xD[284,5,295] = 86
xD[285,5,295] = 118
xD[297,294,284] = 254
xD[297,284,7] = 254
xD[297,7,298] = 254
xD[297,298,196] = 254
xD[298,294,284] = 1
xD[298,284,7] = 1
xD[298,7,298] = 1
xD[298,298,196] = 1
xD[299,294,284] = 135
xD[299,284,7] = 135
xD[299,7,298] = 135
xD[299,298,196] = 135
xD[302,4,294] = 75
xD[302,294,284] = 75
xD[302,284,7] = 75
xD[302,7,298] = 75
xD[302,298,196] = 75
xD[303,4,294] = 200
xD[304,4,294] = 24
xD[305,4,294] = 26
xD[305,294,284] = 26
xD[305,284,7] = 26
xD[305,7,298] = 26
xD[305,298,196] = 26
xD[306,4,294] = 144
xD[306,294,284] = 144
xD[306,284,7] = 144
xD[306,7,298] = 144
xD[306,298,196] = 144
xD[307,4,294] = 1
xD[307,294,284] = 1
xD[307,284,7] = 1
xD[307,7,298] = 1
xD[307,298,196] = 1
xD[309,342,333] = 339
xD[309,324,4] = 339
xD[309,333,324] = 339
xD[310,342,333] = 115
xD[310,324,4] = 115
xD[310,333,324] = 115
xD[311,4,294] = 3
xD[311,294,284] = 3
xD[311,342,333] = 3
xD[311,324,4] = 3
xD[311,333,324] = 3
xD[312,4,294] = 2
xD[312,342,333] = 2
xD[312,324,4] = 2
xD[312,333,324] = 2
xD[313,342,333] = 194
xD[313,324,4] = 194
xD[313,333,324] = 194
xD[313,326,342] = 194
xD[314,342,333] = 49
xD[314,324,4] = 49
xD[314,333,324] = 49
xD[314,326,342] = 49
xD[315,4,294] = 40
xD[315,342,333] = 40
xD[315,324,4] = 40
xD[315,333,324] = 40
xD[315,326,342] = 40
xD[318,332,326] = 842
xD[318,342,333] = 842
xD[318,324,4] = 842
xD[318,333,324] = 842
xD[318,326,342] = 842
xD[319,332,326] = 99
xD[319,342,333] = 99
xD[319,324,4] = 99
xD[319,333,324] = 99
xD[319,326,342] = 99
xD[320,4,294] = 123
xD[320,332,326] = 123
xD[320,342,333] = 123
xD[320,324,4] = 123
xD[320,333,324] = 123
xD[320,326,342] = 123
xD[321,4,294] = 1
xD[321,332,326] = 1
xD[321,342,333] = 1
xD[321,324,4] = 1
xD[321,333,324] = 1
xD[321,326,342] = 1
xD[323,293,194] = 244
xD[323,194,195] = 244
xD[324,293,194] = 67
xD[324,194,195] = 67
xD[333,293,194] = 237
xD[333,292,293] = 237
xD[333,291,292] = 237
xD[334,293,194] = 2
xD[334,292,293] = 2
xD[334,291,292] = 2
xD[336,293,194] = 97
xD[336,292,293] = 97
xD[336,291,292] = 97
xD[338,293,194] = 704
xD[338,292,293] = 704
xD[338,194,195] = 704
xD[338,291,292] = 704
xD[338,2,291] = 704
xD[339,293,194] = 8
xD[339,292,293] = 8
xD[339,194,195] = 8
xD[339,291,292] = 8
xD[339,2,291] = 8
xD[340,2,291] = 156
xD[341,2,291] = 45
xD[342,293,194] = 16
xD[342,292,293] = 16
xD[342,291,292] = 16
xD[342,2,291] = 16
xD[343,293,194] = 264
xD[343,292,293] = 264
xD[343,291,292] = 264
xD[343,2,291] = 264
zE[2] = 841
zE[4] = 1177
zE[5] = 1345
zE[7] = 1681
zE[190] = 1016
zE[191] = 1184
zE[192] = 1352
zE[193] = 1520
zE[194] = 1590
zE[195] = 1688
zE[196] = 1856
zE[270] = 610
zE[284] = 1410
zE[291] = 922
zE[292] = 992
zE[293] = 1090
zE[294] = 1258
zE[295] = 1426
zE[298] = 1762
zE[313] = 946
zE[314] = 1114
zE[316] = 854
zE[323] = 895
zE[324] = 1063
zE[326] = 656
zE[332] = 608
zE[333] = 728
zE[342] = 691
zX[2] = 865
zX[4] = 1201
zX[5] = 1369
zX[7] = 1705
zX[9] = 344
zX[10] = 512
zX[13] = 680
zX[16] = 848
zX[158] = 580
zX[190] = 1032
zX[191] = 1200
zX[192] = 1368
zX[193] = 1536
zX[194] = 1622
zX[195] = 1704
zX[196] = 1872
zX[199] = 564
zX[270] = 622
zX[284] = 1423
zX[291] = 952
zX[292] = 1020
zX[293] = 1120
zX[294] = 1288
zX[295] = 1456
zX[298] = 1792
zX[313] = 964
zX[314] = 1132
zX[316] = 881
zX[323] = 909
zX[324] = 1077
zX[326] = 666
zX[332] = 618
zX[333] = 744
zX[342] = 704
phi[9] = 1528
phi[10] = 520
phi[11] = 688
phi[12] = 688
phi[17] = 620
phi[19] = 1140

### All variables with value smaller zero:

### End

real	55m30.174s
user	198m15.751s
sys	10m19.880s
	OpenBLAS 0.2.6 environment removed
	Freetype 2.4.12 environment removed
	Python 3.6.0 environment removed
	Gurobi 8.1.0 environment removed
