	OpenBLAS 0.2.6 environment established
		compiled with gcc for max. 16 cores
	Freetype 2.4.12 environment established
		library to render fonts
	Python 3.6.0 environment established
	Gurobi 8.1.0 environment established
Instance LSFRP: LSFDRP_4_3_2_1_fr.p
Instance LSFDP: LSFDRP_4_3_2_1_fd_52.p

*****************************************************************************************************************************
*** Solve LSFDRP_4_3_2_1_fd_52 with Gurobi
***
*** Graph info
*** |S|: 19
*** |S^E|: 0
*** |S^C|: 1
*** |V|: 347
*** |A|: 8382
*** |A^i|: 8382
*** |A^f|: 0
*** |M|: 343
*** |E|: 0

Changed value of parameter NumericFocus to 1
   Prev: 0  Min: 0  Max: 3  Default: 0
Changed value of parameter TimeLimit to 86400.0
   Prev: 1e+100  Min: 0.0  Max: 1e+100  Default: 1e+100
Changed value of parameter Threads to 4
   Prev: 0  Min: 0  Max: 1024  Default: 0
Optimize a model with 143928 rows, 3051766 columns and 10893683 nonzeros
Variable types: 2892487 continuous, 159279 integer (159279 binary)
Coefficient statistics:
  Matrix range     [1e+00, 4e+03]
  Objective range  [4e+01, 3e+08]
  Bounds range     [1e+00, 1e+00]
  RHS range        [1e+00, 6e+00]
Presolve removed 134788 rows and 2908667 columns (presolve time = 5s) ...
Presolve removed 135979 rows and 2910537 columns (presolve time = 12s) ...
Presolve removed 135979 rows and 2916579 columns (presolve time = 55s) ...
Presolve removed 136092 rows and 2916685 columns (presolve time = 55s) ...
Presolve removed 136096 rows and 2916796 columns (presolve time = 61s) ...
Presolve removed 136096 rows and 2916796 columns
Presolve time: 60.68s
Presolved: 7832 rows, 134970 columns, 469781 nonzeros
Variable types: 5236 continuous, 129734 integer (129696 binary)

Root simplex log...

Iteration    Objective       Primal Inf.    Dual Inf.      Time
       0    9.8020571e+09   1.465895e+06   0.000000e+00     63s
   16052    2.2704519e+07   6.748152e+05   0.000000e+00     65s
   24468    1.3582350e+07   3.613689e+05   0.000000e+00     70s
   30708    1.2266640e+07   6.968444e+05   0.000000e+00     75s
   36803    1.1185021e+07   6.671094e+05   0.000000e+00     80s
   42649    9.7980182e+06   4.511020e+05   0.000000e+00     85s
   48166    7.7917312e+06   5.844548e+04   0.000000e+00     90s
   52006    6.7890433e+06   3.330940e+05   0.000000e+00     95s
   55056    6.4366741e+06   8.068503e+04   0.000000e+00    100s
   57895    6.2608219e+06   0.000000e+00   0.000000e+00    105s

Root relaxation: objective 6.260822e+06, 57895 iterations, 42.41 seconds
Total elapsed time = 105.00s

    Nodes    |    Current Node    |     Objective Bounds      |     Work
 Expl Unexpl |  Obj  Depth IntInf | Incumbent    BestBd   Gap | It/Node Time

     0     0 6260821.85    0  197          - 6260821.85      -     -  107s
H    0     0                    -2796970.320 6260821.85   324%     -  108s
H    0     0                    826603.16341 6260821.85   657%     -  145s
     0     0 5920483.31    0  222 826603.163 5920483.31   616%     -  147s
     0     0 5920483.31    0  175 826603.163 5920483.31   616%     -  157s
     0     0 5835360.07    0  217 826603.163 5835360.07   606%     -  166s
     0     0 5823996.72    0  217 826603.163 5823996.72   605%     -  167s
     0     0 5815175.62    0  204 826603.163 5815175.62   604%     -  167s
     0     0 5815046.65    0  204 826603.163 5815046.65   603%     -  167s
     0     0 4000030.54    0  175 826603.163 4000030.54   384%     -  172s
     0     0 3994453.07    0  185 826603.163 3994453.07   383%     -  172s
     0     0 3994316.34    0  188 826603.163 3994316.34   383%     -  173s
     0     0 3938564.83    0  205 826603.163 3938564.83   376%     -  174s
     0     0 3938564.83    0  173 826603.163 3938564.83   376%     -  181s
     0     0 3938564.83    0  196 826603.163 3938564.83   376%     -  187s
     0     0 3550747.86    0  178 826603.163 3550747.86   330%     -  188s
     0     0 3537708.74    0  186 826603.163 3537708.74   328%     -  188s
     0     0 3533819.78    0  188 826603.163 3533819.78   328%     -  188s
     0     0 3532675.57    0  190 826603.163 3532675.57   327%     -  189s
     0     0 3532513.09    0  190 826603.163 3532513.09   327%     -  189s
     0     0 3290874.44    0  207 826603.163 3290874.44   298%     -  190s
     0     0 3290874.44    0  208 826603.163 3290874.44   298%     -  190s
     0     0 3280506.12    0  222 826603.163 3280506.12   297%     -  190s
     0     0 3280506.12    0  176 826603.163 3280506.12   297%     -  195s
H    0     0                    826603.23997 3280506.12   297%     -  198s
     0     0 3280506.12    0  203 826603.240 3280506.12   297%     -  199s
     0     0 3280506.12    0  180 826603.240 3280506.12   297%     -  201s
     0     0 3280506.12    0  202 826603.240 3280506.12   297%     -  202s
     0     0 3280506.12    0  225 826603.240 3280506.12   297%     -  202s
     0     0 3280474.62    0  212 826603.240 3280474.62   297%     -  202s
     0     0 3279413.44    0  212 826603.240 3279413.44   297%     -  202s
     0     0 3276329.73    0  209 826603.240 3276329.73   296%     -  203s
     0     0 3273532.89    0  204 826603.240 3273532.89   296%     -  203s
     0     0 3273454.40    0  218 826603.240 3273454.40   296%     -  203s
     0     0 3263795.88    0  210 826603.240 3263795.88   295%     -  203s
     0     0 3263795.88    0  210 826603.240 3263795.88   295%     -  203s
     0     0 3260007.53    0  198 826603.240 3260007.53   294%     -  203s
     0     0 3259767.43    0  199 826603.240 3259767.43   294%     -  204s
     0     0 3259767.43    0  201 826603.240 3259767.43   294%     -  204s
     0     0 3259384.10    0  195 826603.240 3259384.10   294%     -  204s
     0     0 3259384.10    0  195 826603.240 3259384.10   294%     -  204s
     0     0 3257894.60    0  204 826603.240 3257894.60   294%     -  204s
     0     0 3257894.60    0  198 826603.240 3257894.60   294%     -  208s
     0     2 3257894.60    0  197 826603.240 3257894.60   294%     -  213s
     1     4 3025400.21    1  202 826603.240 3255675.68   294%  1077  216s
    15    18 2721009.32    5  156 826603.240 3058464.41   270%   720  220s
    45    46 2678702.72    8  158 826603.240 3052935.34   269%   601  225s
   121   103 2388954.50   20   68 826603.240 3052935.34   269%   477  230s
H  144   118                    864882.26530 3052935.34   253%   467  234s
   148   124 2283771.67   23   94 864882.265 3052935.34   253%   475  235s
   290   224 2000903.34   66   85 864882.265 3052935.34   253%   368  240s
   392   311     cutoff  105      864882.265 3052935.34   253%   315  246s
   521   379     cutoff   16      864882.265 2955536.78   242%   300  250s
   655   452 1397580.06   17   58 864882.265 2955536.78   242%   304  255s
H  715   498                    906561.29700 2921553.40   222%   300  259s
H  716   472                    1079769.2129 2921553.40   171%   300  259s
   720   476 2750689.81    8  202 1079769.21 2915390.56   170%   305  260s
   896   591 1930326.44   48  158 1079769.21 2915390.56   170%   306  266s
  1041   713 2163296.13   67  222 1079769.21 2856117.37   165%   305  293s
  1043   714 2352395.38   20  181 1079769.21 2856117.37   165%   305  298s
  1045   716 2236120.28   45  196 1079769.21 2856117.37   165%   304  300s
  1059   725 1787213.60   80  235 1079769.21 2856117.37   165%   300  305s
  1071   733 1883534.84   67  213 1079769.21 2856117.37   165%   297  311s
  1074   736 2856117.37   10  213 1079769.21 2856117.37   165%   325  325s
  1076   737 2856117.37   11  219 1079769.21 2856117.37   165%   330  335s
  1082   739 2739939.49   13  192 1079769.21 2856117.37   165%   336  340s
  1094   743 2717878.81   15  212 1079769.21 2856117.37   165%   345  345s
  1113   753 2008135.51   17   82 1079769.21 2856117.37   165%   357  350s
  1148   768 2641699.71   21  158 1079769.21 2856117.37   165%   363  355s
  1178   786 2122465.59   24  157 1079769.21 2856117.37   165%   373  360s
  1247   795 2501045.20   29   93 1079769.21 2856117.37   165%   387  365s
  1324   815 2451978.02   34  110 1079769.21 2856117.37   165%   393  370s
  1425   830 2408540.50   38   97 1079769.21 2856117.37   165%   398  375s
  1600   862 2341335.64   46  126 1079769.21 2856117.37   165%   390  380s
  1760   886 1830039.89   56   78 1079769.21 2856117.37   165%   387  385s
  1919   923 1406954.95   75   37 1079769.21 2727516.08   153%   382  390s
  2259   971 2406968.48   29  125 1079769.21 2660886.45   146%   358  397s
  2408  1020 2397191.42   23  149 1079769.21 2657309.71   146%   349  400s
  2589  1059 1514053.22   47  151 1079769.21 2653236.55   146%   351  406s
  2754  1083 1788611.67   21  170 1079769.21 2653236.55   146%   351  411s
  2836  1104 1509228.78   28  179 1079769.21 2653236.55   146%   359  415s
H 2975  1051                    1079769.2155 2653236.55   146%   356  417s
  3059  1120 1143372.52   38  173 1079769.22 2653236.55   146%   353  420s
  3276  1214 1113817.45   39   82 1079769.22 2536476.20   135%   349  425s
  3503  1357 2391382.98   26  135 1079769.22 2535877.21   135%   347  431s
  3677  1449 2245372.48   38  119 1079769.22 2519962.41   133%   348  437s
  3794  1495 1927047.61   46   76 1079769.22 2500588.96   132%   349  442s
  3923  1538 1794487.56   29  144 1079769.22 2490276.31   131%   346  445s
H 3971  1562                    1079769.2156 2489956.06   131%   346  445s
  4045  1620 1824558.42   38  111 1079769.22 2488097.93   130%   347  450s
  4303  1757 2312024.45   25  125 1079769.22 2470387.06   129%   344  458s
  4357  1776 1586605.49   42  153 1079769.22 2450990.83   127%   345  462s
  4469  1850 2190259.05   32  152 1079769.22 2445952.12   127%   347  466s
  4636  1950 1554845.44   62   69 1079769.22 2438960.85   126%   344  470s
  4998  2092 1573813.80   44  145 1079769.22 2427960.97   125%   339  479s
  5134  2150     cutoff   31      1079769.22 2397269.82   122%   339  483s
  5269  2216 1604445.94   36  130 1079769.22 2395692.95   122%   339  488s
  5445  2258 1857055.93   39   80 1079769.22 2376103.55   120%   340  493s
  5678  2353 2108585.93   23  108 1079769.22 2368260.71   119%   340  498s
  5926  2426     cutoff   48      1079769.22 2362757.30   119%   338  504s
  6186  2517 1247246.64   26   85 1079769.22 2349225.79   118%   337  509s
  6395  2588 1543781.58   43   79 1079769.22 2328940.42   116%   337  515s
  6726  2702 1324033.97   26  166 1079769.22 2314694.57   114%   334  522s
  7038  2802 1552118.77   40   61 1079769.22 2294594.83   113%   334  528s
  7221  2886 1560152.06   43  123 1079769.22 2291187.48   112%   335  534s
  7488  2982 1969718.51   35  112 1079769.22 2268602.48   110%   337  540s
  7747  3069 1420380.39   31  172 1079769.22 2255617.13   109%   340  548s
  7963  3123 1967227.17   49   76 1079769.22 2250206.43   108%   340  555s
  8296  3280 1737380.64   28  110 1079769.22 2238300.13   107%   339  562s
  8681  3447 1441240.12   33  160 1079769.22 2231211.15   107%   339  569s
  8932  3552 1538509.88   35   86 1079769.22 2223305.57   106%   339  577s
  9266  3679 1561989.76   35  127 1079769.22 2207918.32   104%   338  586s
  9760  3861 1253680.17   34  118 1079769.22 2190736.70   103%   337  594s
H 9990  3900                    1079769.2211 2185202.38   102%   337  594s
 10097  3935 1166528.68   34   91 1079769.22 2177892.54   102%   337  602s
 10542  4055 1457266.55   31  158 1079769.22 2160229.17   100%   338  615s
 10974  4144 infeasible   39      1079769.22 2153954.35  99.5%   336  624s
 11434  4271 1359795.21   64  119 1079769.22 2130434.96  97.3%   337  633s
 11925  4413 1777087.21   39  115 1079769.22 2114884.57  95.9%   337  643s
 12419  4631     cutoff   52      1079769.22 2102185.65  94.7%   336  653s
 12773  4695 1719832.28   27   57 1079769.22 2090955.93  93.6%   338  662s
 13207  4808 1286691.03   40   42 1079769.22 2078943.78  92.5%   338  671s
 13725  4987     cutoff   22      1079769.22 2068016.77  91.5%   337  680s
 14186  5112     cutoff   41      1079769.22 2055455.94  90.4%   338  689s
 14661  5207     cutoff   55      1079769.22 2041410.10  89.1%   339  701s
 15037  5296 1901923.26   36  140 1079769.22 2036012.15  88.6%   339  710s
 15564  5462 1772194.03   32  161 1079769.22 2026562.30  87.7%   337  720s
 15966  5524 1134929.97   27   76 1079769.22 2009563.20  86.1%   338  729s
 16378  5640 1949049.42   38   24 1079769.22 1995343.49  84.8%   339  738s
 16577  5635     cutoff   35      1079769.22 1991917.40  84.5%   339  747s
 17078  5730     cutoff   44      1079769.22 1979850.97  83.4%   340  756s
 17563  5797 1891969.24   25  121 1079769.22 1964331.39  81.9%   340  768s
 17983  5869 1359436.33   34   28 1079769.22 1955245.91  81.1%   340  777s
 18378  5917 1713413.45   33  103 1079769.22 1941570.49  79.8%   341  786s
 18835  5957 1824001.49   44  182 1079769.22 1930092.19  78.8%   342  795s
 19336  6071     cutoff   55      1079769.22 1922163.71  78.0%   341  804s
 19781  6164 1578274.29   41   69 1079769.22 1914234.66  77.3%   340  813s
 20208  6190 1791924.89   27  146 1079769.22 1900487.04  76.0%   341  821s
 20637  6279     cutoff   52      1079769.22 1887867.93  74.8%   342  840s
H20797  6328                    1079769.2270 1886923.44  74.8%   342  840s
 20830  6267     cutoff   41      1079769.23 1883086.57  74.4%   342 1134s
H21088  6343                    1079769.2432 1881512.35  74.3%   343 1134s
 21212  6325     cutoff   60      1079769.24 1875117.49  73.7%   343 1142s
 21551  6391     cutoff   37      1079769.24 1866275.37  72.8%   345 1150s
 21899  6457 1378107.77   42   20 1079769.24 1858126.32  72.1%   346 1159s
 22127  6517 1348718.64   50   21 1079769.24 1855365.75  71.8%   348 1167s
H22318  6571                    1079769.5988 1850174.81  71.3%   351 1176s
 22499  6611 1559810.18   35   84 1079769.60 1847439.12  71.1%   352 1184s
 22764  6679 1455329.30   39   65 1079769.60 1843737.28  70.8%   354 1194s
 23000  6703     cutoff   41      1079769.60 1839476.44  70.4%   357 1202s
 23219  6754 1333931.66   37   54 1079769.60 1836063.73  70.0%   360 1211s
 23340  6753 1156525.47   36  175 1079769.60 1832761.39  69.7%   361 1220s
 23588  6816 1386011.56   41  164 1079769.60 1830009.40  69.5%   364 1229s
 23866  6860 1617698.54   39  213 1079769.60 1823786.13  68.9%   366 1238s
 24083  6907 1235300.74   59  192 1079769.60 1821000.35  68.6%   368 1247s
 24328  6931 1556294.96   46  212 1079769.60 1815058.41  68.1%   370 1256s
 24577  6971     cutoff   47      1079769.60 1812051.60  67.8%   373 1266s
 24696  6983     cutoff   46      1079769.60 1809830.30  67.6%   375 1276s
 24930  7041     cutoff   43      1079769.60 1806785.50  67.3%   378 1285s
 25121  7064 1245602.77   38   95 1079769.60 1803460.24  67.0%   381 1295s
 25340  7074     cutoff   41      1079769.60 1798736.82  66.6%   384 1304s
 25609  7138 1526372.01   37  233 1079769.60 1796583.24  66.4%   386 1315s
 25915  7213     cutoff   41      1079769.60 1792599.64  66.0%   388 1325s
 26144  7242     cutoff   28      1079769.60 1788134.09  65.6%   391 1335s
 26377  7285 1729907.59   25  208 1079769.60 1785254.00  65.3%   393 1345s
 26661  7346     cutoff   39      1079769.60 1781910.31  65.0%   395 1356s
 26896  7362     cutoff   59      1079769.60 1777168.59  64.6%   397 1366s
 27161  7390 1420280.06   29  116 1079769.60 1772666.35  64.2%   400 1376s
 27542  7473     cutoff   52      1079769.60 1766430.08  63.6%   401 1387s
 27879  7548     cutoff   64      1079769.60 1763477.38  63.3%   403 1398s
 28071  7549 1686292.53   29   79 1079769.60 1758512.17  62.9%   404 1409s
 28378  7592 1121674.53   37  180 1079769.60 1755152.06  62.5%   406 1420s
 28767  7669 1550060.89   25  128 1079769.60 1751825.19  62.2%   407 1430s
 29063  7745 1110569.32   34  152 1079769.60 1750263.91  62.1%   409 1441s
 29350  7793     cutoff   34      1079769.60 1745216.46  61.6%   410 1453s
 29490  7847 1225504.50   40   36 1079769.60 1743978.14  61.5%   411 1481s
 29530  7805 1327907.64   48  124 1079769.60 1742124.92  61.3%   412 1492s
 29907  7879     cutoff   38      1079769.60 1739166.03  61.1%   413 1503s
 30180  7910     cutoff   41      1079769.60 1736440.07  60.8%   416 1514s
 30494  7937 1191007.01   46  165 1079769.60 1731703.42  60.4%   418 1525s
 30718  7979 1325813.92   36  169 1079769.60 1728819.53  60.1%   421 1536s
 31124  8061 1238231.63   36   25 1079769.60 1724917.85  59.7%   421 1551s
 31498  8090     cutoff   63      1079769.60 1718751.15  59.2%   423 1563s
 31841  8113 1343003.56   31   86 1079769.60 1714525.70  58.8%   425 1575s
 32214  8161 1319900.18   30  148 1079769.60 1708139.91  58.2%   426 1587s
 32555  8196     cutoff   40      1079769.60 1704210.98  57.8%   428 1599s
 32862  8212 1231486.75   34   41 1079769.60 1701040.24  57.5%   430 1610s
 33322  8259 1671000.49   48   36 1079769.60 1693728.78  56.9%   431 1622s
 33725  8347 1082532.64   27  104 1079769.60 1690931.10  56.6%   431 1634s
 34054  8364 1249834.87   51   52 1079769.60 1684418.38  56.0%   433 1646s
 34361  8383 1590791.18   42   21 1079769.60 1679756.10  55.6%   434 1657s
 34696  8370     cutoff   30      1079769.60 1673695.00  55.0%   436 1669s
 35108  8440 1590780.20   45   78 1079769.60 1669879.62  54.7%   436 1683s
 35165  8383 1508425.11   48   60 1079769.60 1667736.64  54.5%   437 1695s
 35591  8445     cutoff   88      1079769.60 1663175.87  54.0%   437 1706s
 35929  8417     cutoff   66      1079769.60 1658487.30  53.6%   438 1719s
 36314  8471 1600829.29   53   19 1079769.60 1654617.95  53.2%   439 1730s
 36690  8495 1650720.43   51   49 1079769.60 1651188.76  52.9%   440 1741s
 37111  8507 1619243.74   52   72 1079769.60 1645435.72  52.4%   440 1753s
 37506  8523 1422772.51   80   86 1079769.60 1641883.84  52.1%   441 1765s
 37919  8595 infeasible   40      1079769.60 1638489.99  51.7%   442 1776s
 38236  8583     cutoff   50      1079769.60 1634619.64  51.4%   443 1788s
 38662  8654 1366443.05   20  102 1079769.60 1629523.91  50.9%   444 1799s
 39027  8669     cutoff   28      1079769.60 1625405.47  50.5%   445 1811s
 39423  8686 1447428.97   42   53 1079769.60 1620763.28  50.1%   446 1823s
 39833  8717     cutoff   34      1079769.60 1616494.55  49.7%   447 1834s
 40191  8774 1451126.78   50   76 1079769.60 1612141.36  49.3%   447 1845s
 40483  8767 1598175.99   38   34 1079769.60 1609915.56  49.1%   448 1857s
 40861  8815     cutoff   31      1079769.60 1606174.29  48.8%   449 1868s
 41111  8811 1426366.56   39  107 1079769.60 1603226.73  48.5%   450 1880s
 41547  8832     cutoff   48      1079769.60 1599280.33  48.1%   450 1895s
 41942  8836     cutoff   31      1079769.60 1595781.25  47.8%   450 1907s
 42414  8867 1435173.54   37   72 1079769.60 1591382.65  47.4%   449 1918s
 42907  8963     cutoff   33      1079769.60 1587695.77  47.0%   449 1929s
 43223  8965 1388342.66   67  108 1079769.60 1585875.75  46.9%   449 1940s
 43670  9028 1228671.10   37   68 1079769.60 1582722.95  46.6%   449 1951s
 44085  9052 1483066.71   45   42 1079769.60 1577434.15  46.1%   449 1962s
 44386  9026     cutoff   53      1079769.60 1573118.56  45.7%   450 1973s
 44777  9037     cutoff   51      1079769.60 1568849.36  45.3%   450 1984s
 45167  9029     cutoff   85      1079769.60 1564720.88  44.9%   450 1994s
 45572  9048 1189354.50   52   70 1079769.60 1560806.08  44.5%   450 2003s
 45934  9041 1431627.92   39  172 1079769.60 1557118.03  44.2%   450 2014s
 46387  9076 1450289.40   46   57 1079769.60 1554635.62  44.0%   450 2023s
 46811  9134     cutoff   34      1079769.60 1550585.44  43.6%   450 2034s
 47128  9113     cutoff   53      1079769.60 1547698.96  43.3%   451 2044s
 47389  9079     cutoff   32      1079769.60 1544743.04  43.1%   451 2055s
 47864  9148     cutoff   52      1079769.60 1540582.47  42.7%   451 2065s
 48169  9126     cutoff   59      1079769.60 1538136.30  42.5%   451 2075s
 48580  9182     cutoff   52      1079769.60 1534429.48  42.1%   451 2085s
 48902  9190 1273752.64   38  126 1079769.60 1530915.27  41.8%   452 2095s
 49203  9164     cutoff   52      1079769.60 1528658.07  41.6%   452 2106s
 49564  9168 1485946.86   51   34 1079769.60 1525016.83  41.2%   453 2116s
 49840  9126     cutoff   71      1079769.60 1523630.89  41.1%   452 2126s
 50148  9086 1269483.08   53  170 1079769.60 1519244.02  40.7%   453 2136s
 50483  9090 1230056.17   61  113 1079769.60 1517264.86  40.5%   453 2147s
 50790  9066 1354144.05   38   32 1079769.60 1513181.39  40.1%   452 2157s
 51148  9035 1435749.32   57   46 1079769.60 1510792.16  39.9%   453 2165s
 51487  9009 1115892.79   44  156 1079769.60 1508248.40  39.7%   453 2175s
 51966  9051     cutoff   36      1079769.60 1505206.98  39.4%   452 2187s
H52096  9072                    1079769.6899 1505187.08  39.4%   452 2187s
 52311  9074     cutoff   49      1079769.69 1502228.13  39.1%   451 2198s
 52521  9067     cutoff   50      1079769.69 1501934.81  39.1%   451 2210s
 52739  9043     cutoff   55      1079769.69 1500644.68  39.0%   451 2221s
 53038  9012     cutoff   37      1079769.69 1496597.70  38.6%   451 2230s
 53375  9011 1100594.57   30  133 1079769.69 1492981.77  38.3%   452 2240s
 53780  9001     cutoff   54      1079769.69 1490025.23  38.0%   452 2250s
 54127  8990 1332042.58   42   33 1079769.69 1486780.21  37.7%   452 2259s
 54448  8956     cutoff   52      1079769.69 1483746.36  37.4%   451 2267s
 54834  8956     cutoff   43      1079769.69 1480774.92  37.1%   451 2277s
 55235  9001     cutoff   30      1079769.69 1477883.19  36.9%   450 2287s
 55563  8974 1441693.85   52   42 1079769.69 1476456.00  36.7%   450 2296s
 55904  8970     cutoff   48      1079769.69 1472731.88  36.4%   450 2304s
 56222  8934     cutoff   36      1079769.69 1470118.29  36.2%   450 2314s
 56597  8919     cutoff   40      1079769.69 1467477.90  35.9%   450 2324s
 56960  8917     cutoff   51      1079769.69 1464844.25  35.7%   450 2364s
 57193  8861     cutoff   75      1079769.69 1463004.88  35.5%   450 2371s
 57495  8822 1437236.41   47   67 1079769.69 1460241.87  35.2%   450 2380s
 57848  8816     cutoff   39      1079769.69 1458153.22  35.0%   450 2391s
 58170  8784 1320574.09   29  201 1079769.69 1455595.46  34.8%   450 2398s
 58456  8755 1430399.44   31   68 1079769.69 1453034.12  34.6%   450 2405s
 58696  8699 1443711.47   42   47 1079769.69 1450339.67  34.3%   450 2415s
 59023  8677     cutoff   41      1079769.69 1447819.97  34.1%   450 2424s
 59419  8680 1185122.22   40  150 1079769.69 1445353.42  33.9%   450 2431s
 59692  8630     cutoff   47      1079769.69 1442511.17  33.6%   450 2440s
 60058  8591     cutoff   39      1079769.69 1439768.34  33.3%   450 2446s
 60362  8574     cutoff   42      1079769.69 1437444.89  33.1%   450 2457s
 60572  8527 1402345.74   60   76 1079769.69 1437334.36  33.1%   449 2465s
 60940  8493     cutoff   48      1079769.69 1433771.02  32.8%   449 2472s
 61317  8490     cutoff   30      1079769.69 1431019.87  32.5%   449 2482s
 61547  8437 1417831.68   40   70 1079769.69 1429055.35  32.3%   449 2491s
 61816  8406 1150427.20   50  106 1079769.69 1427320.16  32.2%   450 2499s
 62141  8374     cutoff   40      1079769.69 1424321.50  31.9%   450 2508s
 62467  8340     cutoff   48      1079769.69 1422419.61  31.7%   449 2515s
 62774  8324     cutoff   40      1079769.69 1419413.85  31.5%   449 2520s
 63001  8272     cutoff   39      1079769.69 1417289.18  31.3%   449 2526s
 63216  8213 1356100.09   42   29 1079769.69 1415073.67  31.1%   449 2535s
 63512  8190     cutoff   37      1079769.69 1413051.74  30.9%   449 2542s
 63804  8161 1381747.59   53   53 1079769.69 1410922.98  30.7%   449 2550s
 64179  8135 1306587.39   49   26 1079769.69 1408993.62  30.5%   448 2556s
 64446  8083     cutoff   54      1079769.69 1406390.26  30.2%   448 2564s
 64758  8074 1190037.27   60   71 1079769.69 1404306.64  30.1%   448 2571s
 65057  8038 1401819.74   58   46 1079769.69 1402120.02  29.9%   448 2580s
 65428  8024 1310150.38   60   25 1079769.69 1400701.93  29.7%   448 2585s
 65707  7977     cutoff   34      1079769.69 1397274.77  29.4%   448 2591s
 65991  7945 1294356.67   42   46 1079769.69 1395336.76  29.2%   448 2598s
 66275  7915 1349872.05   76  102 1079769.69 1393117.94  29.0%   448 2607s
 66565  7883     cutoff   78      1079769.69 1390887.95  28.8%   448 2611s
 66816  7835     cutoff   37      1079769.69 1388049.69  28.6%   447 2619s
 67093  7805 1348509.13   42   45 1079769.69 1386036.06  28.4%   447 2625s
 67439  7778     cutoff   56      1079769.69 1383630.36  28.1%   447 2632s
 67648  7717 1174914.04   40   42 1079769.69 1381747.59  28.0%   447 2639s
 67907  7675 1302610.99   57   44 1079769.69 1379389.85  27.7%   447 2645s
 68214  7660 1338826.23   34   71 1079769.69 1376960.84  27.5%   447 2651s
 68468  7601     cutoff   45      1079769.69 1375243.11  27.4%   446 2657s
 68690  7543     cutoff   42      1079769.69 1373357.45  27.2%   446 2665s
 69068  7531     cutoff   53      1079769.69 1371527.26  27.0%   446 2670s
 69308  7489     cutoff   73      1079769.69 1369084.91  26.8%   446 2676s
 69532  7417 1098110.69   48   36 1079769.69 1366501.70  26.6%   446 2684s
 69815  7381     cutoff   40      1079769.69 1364335.80  26.4%   446 2693s
 70082  7336     cutoff   38      1079769.69 1362570.42  26.2%   445 2700s
 70437  7325     cutoff   57      1079769.69 1360449.45  26.0%   445 2706s
 70692  7277 1355866.88   56   35 1079769.69 1358481.35  25.8%   445 2712s
 70929  7227     cutoff   66      1079769.69 1356461.94  25.6%   444 2718s
 71192  7175     cutoff   30      1079769.69 1354445.32  25.4%   444 2724s
 71446  7111     cutoff   70      1079769.69 1352370.73  25.2%   444 2728s
 71671  7068     cutoff   42      1079769.69 1350518.27  25.1%   444 2736s
 71964  7016     cutoff   58      1079769.69 1348661.49  24.9%   444 2743s
 72252  6971     cutoff   65      1079769.69 1346588.05  24.7%   443 2751s
 72546  6928     cutoff   38      1079769.69 1344600.51  24.5%   443 2756s
 72751  6872     cutoff   78      1079769.69 1342626.96  24.3%   443 2761s
 73019  6817 1094503.76   64   31 1079769.69 1340194.32  24.1%   443 2766s
 73339  6796     cutoff   60      1079769.69 1338046.94  23.9%   442 2772s
 73663  6751     cutoff   60      1079769.69 1336012.90  23.7%   442 2776s
 73889  6706     cutoff   44      1079769.69 1333858.88  23.5%   442 2782s
 74157  6666 1330523.29   52   45 1079769.69 1332088.42  23.4%   441 2785s
 74386  6618 1284916.25   43   53 1079769.69 1329948.65  23.2%   441 2792s
 74657  6580 1282112.77   43  151 1079769.69 1328359.13  23.0%   441 2799s
 74948  6541     cutoff   46      1079769.69 1326320.61  22.8%   440 2803s
 75183  6483 1264078.48   48   45 1079769.69 1324373.51  22.7%   440 2807s
 75409  6421 1162081.92   42   43 1079769.69 1322791.31  22.5%   440 2813s
 75672  6373 1243061.10   35   38 1079769.69 1320566.82  22.3%   439 2817s
 75941  6345     cutoff   45      1079769.69 1318880.43  22.1%   439 2822s
 76245  6308 1205561.02   34   36 1079769.69 1316751.55  21.9%   438 2828s
 76500  6263     cutoff   36      1079769.69 1314589.69  21.7%   438 2833s
 76782  6224     cutoff   48      1079769.69 1312605.71  21.6%   438 2838s
 77029  6184     cutoff   49      1079769.69 1310588.85  21.4%   438 2842s
 77224  6108 1231205.70   55   57 1079769.69 1308786.46  21.2%   438 2848s
 77464  6060     cutoff   65      1079769.69 1306699.18  21.0%   437 2854s
 77774  6035 1247931.12   50   75 1079769.69 1305047.33  20.9%   437 2859s
 77972  5967     cutoff   39      1079769.69 1303234.48  20.7%   437 2862s
 78227  5919     cutoff   64      1079769.69 1301131.54  20.5%   436 2866s
 78533  5869 1188716.95   37   46 1079769.69 1299453.81  20.3%   436 2870s
 78917  5725 1255819.82   69   81 1079769.69 1295897.38  20.0%   435 2877s
 79169  5665     cutoff   48      1079769.69 1294274.46  19.9%   435 2880s
 79574  5541     cutoff   51      1079769.69 1290889.80  19.6%   434 2888s
 79873  5503     cutoff   57      1079769.69 1289401.36  19.4%   434 2892s
 80094  5449     cutoff   30      1079769.69 1287574.45  19.2%   433 2897s
 80357  5382     cutoff   35      1079769.69 1285662.46  19.1%   433 2900s
 80832  5252     cutoff   46      1079769.69 1282470.13  18.8%   432 2909s
 81060  5189     cutoff   71      1079769.69 1280364.01  18.6%   432 2912s
 81244  5120     cutoff   34      1079769.69 1278256.06  18.4%   432 2916s
 81398  5046 1192463.07   53   40 1079769.69 1276266.70  18.2%   432 2920s
 81952  4948     cutoff   51      1079769.69 1272693.09  17.9%   431 2928s
 82168  4875     cutoff   69      1079769.69 1270940.55  17.7%   431 2932s
 82380  4812     cutoff   66      1079769.69 1269387.09  17.6%   430 2936s
 82868  4685     cutoff   47      1079769.69 1266263.09  17.3%   430 2943s
 83090  4610     cutoff   49      1079769.69 1264649.68  17.1%   429 2947s
 83295  4540 1236022.26   49   49 1079769.69 1262825.87  17.0%   429 2950s
 83645  4400 1226482.12   54   39 1079769.69 1259150.17  16.6%   429 2956s
 83868  4333     cutoff   43      1079769.69 1257344.55  16.4%   428 2960s
 84288  4195     cutoff   51      1079769.69 1254129.25  16.1%   428 2967s
 84482  4137     cutoff   54      1079769.69 1252353.94  16.0%   427 2972s
 84690  4078 1235153.65   43   61 1079769.69 1250590.22  15.8%   427 2975s
 85094  3936     cutoff   46      1079769.69 1247318.48  15.5%   426 2982s
 85326  3891     cutoff   49      1079769.69 1245598.88  15.4%   426 2985s
 85544  3837     cutoff   52      1079769.69 1243628.00  15.2%   426 2990s
 85878  3686 1220416.06   38   50 1079769.69 1240735.11  14.9%   426 2997s
 86056  3618     cutoff   52      1079769.69 1238545.10  14.7%   425 3000s
 86430  3472 infeasible   35      1079769.69 1234486.04  14.3%   425 3005s
 86837  3334 1208600.90   37   55 1079769.69 1230235.86  13.9%   424 3012s
 87244  3189     cutoff   47      1079769.69 1226945.97  13.6%   424 3017s
 87547  3033     cutoff   40      1079769.69 1222581.54  13.2%   423 3022s
 87896  2882 1176773.47   56   56 1079769.69 1218945.01  12.9%   423 3027s
 88236  2723     cutoff   51      1079769.69 1214467.98  12.5%   422 3032s
 88436  2657     cutoff   37      1079769.69 1212631.42  12.3%   422 3035s
 88773  2505     cutoff   61      1079769.69 1208559.00  11.9%   421 3040s
 89270  2279     cutoff   53      1079769.69 1202430.31  11.4%   421 3047s
 89606  2130     cutoff   71      1079769.69 1198227.74  11.0%   420 3051s
 89930  1977     cutoff   33      1079769.69 1194079.04  10.6%   420 3056s
 90252  1814     cutoff   67      1079769.69 1189335.84  10.1%   419 3060s
 90702  1576     cutoff   41      1079769.69 1182243.47  9.49%   418 3066s
 91030  1422     cutoff   44      1079769.69 1177006.72  9.01%   418 3070s
 91426  1217     cutoff   47      1079769.69 1168877.71  8.25%   417 3113s
 91493  1129     cutoff   46      1079769.69 1168556.89  8.22%   417 3115s
 92059   805     cutoff   48      1079769.69 1155670.01  7.03%   416 3121s
 92401   553 1141378.12   38   54 1079769.69 1144273.93  5.97%   415 3125s
 92718   303 infeasible   49      1079769.69 1129157.52  4.57%   415 3130s
 93015    51     cutoff   53      1079769.69 1106332.77  2.46%   414 3136s

Cutting planes:
  Gomory: 92
  Implied bound: 12
  Projected implied bound: 3
  MIR: 36
  Flow cover: 260
  Zero half: 1

Explored 93168 nodes (38740431 simplex iterations) in 3140.92 seconds
Thread count was 4 (of 16 available processors)

Solution count 10: 1.07977e+06 1.07977e+06 1.07977e+06 ... 864882

Optimal solution found (tolerance 1.00e-04)
Best objective 1.079769212879e+06, best bound 1.079769689890e+06, gap 0.0000%

***
***  |- Calculation finished, took 3,140.97 (3140.97) sec.
***  |-----------------------------------------------------------------------------------------------------------------------
***
*****************************************************************************************************************************
#############################################################################################################################
###
### Results
###
### The objective of the solution is 1,079,769.2129 (1079769.2129) and is feasible with a Gap of 0.0
###
### Service 81 (MECL1) is operated by 6 vessels from type 30 (PMax35)
###  |- Vessel  9 has the path [9, 332, 326, 342, 333, 324, 4, 294, 284, 7, 298, 196, 0]
###  |  9 (BEANR Out@344.0) - 332 (USEWR In@608.0/Out@618.0) - 326 (USCHS In@656.0/Out@666.0) - 342 (USORF In@691.0/Out@704.0
###  |  ) - 333 (USEWR In@728.0/Out@744.0) - 324 (TRZMK In@1063.0/Out@1077.0) - 4 (AEJEA In@1177.0/Out@1201.0) - 294 (PKBQM I
###  |  n@1258.0/Out@1288.0) - 284 (OMSLL In@1410.0/Out@1423.0) - 7 (AEJEA In@1681.0/Out@1705.0) - 298 (PKBQM In@1762.0/Out@1
###  |  792.0) - 196 (INNSA In@1856.0/Out@1872.0) - 0 (DUMMY_END Ziel-Service 81)
###  |   |- and carried Demand 237,   34.0 containers from 298 to 196
###  |   |- and carried Demand 238,   84.0 containers from   7 to 298
###  |   |- and carried Demand 239,   50.0 containers from   7 to 298
###  |   |- and carried Demand 297,  254.0 containers from 294 to 196
###  |   |- and carried Demand 298,    1.0 containers from 294 to 196
###  |   |- and carried Demand 299,  135.0 containers from 294 to 196
###  |   |- and carried Demand 302,   75.0 containers from   4 to 196
###  |   |- and carried Demand 303,  200.0 containers from   4 to 294
###  |   |- and carried Demand 304,   24.0 containers from   4 to 294
###  |   |- and carried Demand 305,   26.0 containers from   4 to 196
###  |   |- and carried Demand 306,  144.0 containers from   4 to 196
###  |   |- and carried Demand 307,    1.0 containers from   4 to 196
###  |   |- and carried Demand 309,  339.0 containers from 342 to   4
###  |   |- and carried Demand 310,  115.0 containers from 342 to   4
###  |   |- and carried Demand 311,    3.0 containers from 342 to 284
###  |   |- and carried Demand 312,    2.0 containers from 342 to 294
###  |   |- and carried Demand 313,  194.0 containers from 326 to   4
###  |   |- and carried Demand 314,   49.0 containers from 326 to   4
###  |   |- and carried Demand 315,   40.0 containers from 326 to 294
###  |   |- and carried Demand 318,  842.0 containers from 332 to   4
###  |   |- and carried Demand 319,   99.0 containers from 332 to   4
###  |   |- and carried Demand 320,  123.0 containers from 332 to 294
###  |   |- and carried Demand 321,    1.0 containers from 332 to 294
###  |- Vessel 10 has the path [10, 316, 190, 0]
###  |  10 (BEANR Out@512.0) - 316 (TRAMB In@854.0/Out@881.0) - 190 (INNSA In@1016.0/Out@1032.0) - 0 (DUMMY_END Ziel-Service 
###  |  81)
###  |- Vessel 11 has the path [13, 313, 191, 0]
###  |  13 (BEANR Out@680.0) - 313 (TRALI In@946.0/Out@964.0) - 191 (INNSA In@1184.0/Out@1200.0) - 0 (DUMMY_END Ziel-Service 
###  |  81)
###  |- Vessel 12 has the path [16, 314, 192, 0]
###  |  16 (BEANR Out@848.0) - 314 (TRALI In@1114.0/Out@1132.0) - 192 (INNSA In@1352.0/Out@1368.0) - 0 (DUMMY_END Ziel-Servic
###  |  e 81)
###  |- Vessel 17 has the path [158, 2, 291, 292, 293, 283, 5, 295, 194, 195, 0]
###  |  158 (GBFXT Out@580.0) - 2 (AEJEA In@841.0/Out@865.0) - 291 (PKBQM In@922.0/Out@952.0) - 292 (PKBQM In@992.0/Out@1020.
###  |  0) - 293 (PKBQM In@1090.0/Out@1120.0) - 283 (OMSLL In@1167.0/Out@1182.0) - 5 (AEJEA In@1345.0/Out@1369.0) - 295 (PKBQ
###  |  M In@1426.0/Out@1456.0) - 194 (INNSA In@1590.0/Out@1622.0) - 195 (INNSA In@1688.0/Out@1704.0) - 0 (DUMMY_END Ziel-Ser
###  |  vice 81)
###  |   |- and carried Demand 120,  237.0 containers from 292 to 194
###  |   |- and carried Demand 121,    2.0 containers from 292 to 194
###  |   |- and carried Demand 123,   97.0 containers from 292 to 194
###  |   |- and carried Demand 283,  153.0 containers from   5 to 195
###  |   |- and carried Demand 284,   86.0 containers from   5 to 295
###  |   |- and carried Demand 285,  118.0 containers from   5 to 295
###  |   |- and carried Demand 323,  244.0 containers from 293 to 195
###  |   |- and carried Demand 324,   67.0 containers from 293 to 195
###  |   |- and carried Demand 333,  237.0 containers from 291 to 194
###  |   |- and carried Demand 334,    2.0 containers from 291 to 194
###  |   |- and carried Demand 336,   97.0 containers from 291 to 194
###  |   |- and carried Demand 338,  704.0 containers from   2 to 195
###  |   |- and carried Demand 339,    8.0 containers from   2 to 195
###  |   |- and carried Demand 340,  156.0 containers from   2 to 291
###  |   |- and carried Demand 341,   45.0 containers from   2 to 291
###  |   |- and carried Demand 342,   16.0 containers from   2 to 194
###  |   |- and carried Demand 343,  264.0 containers from   2 to 194
###  |- Vessel 18 has the path [161, 321, 193, 0]
###  |  161 (GBFXT Out@748.0) - 321 (TRGEM In@1087.0/Out@1095.0) - 193 (INNSA In@1520.0/Out@1536.0) - 0 (DUMMY_END Ziel-Servi
###  |  ce 81)
###  |
### Vessels not used in the solution: [1, 2, 3, 4, 5, 6, 7, 8, 13, 14, 15, 16, 19]
###  |-----------------------------------------------------------------------------------------------------------------------
###
#############################################################################################################################

### Detialed variable overview

### All variables with value greater zero:
rho[81,30] = 1
eta[81,30,1] = 1
eta[81,30,2] = 1
eta[81,30,3] = 1
eta[81,30,4] = 1
eta[81,30,5] = 1
eta[81,30,6] = 1
y[9,4,294] = 1
y[9,332,326] = 1
y[9,294,284] = 1
y[9,284,7] = 1
y[9,342,333] = 1
y[9,9,332] = 1
y[9,324,4] = 1
y[9,7,298] = 1
y[9,196,0] = 1
y[9,333,324] = 1
y[9,298,196] = 1
y[9,326,342] = 1
y[10,190,0] = 1
y[10,316,190] = 1
y[10,10,316] = 1
y[11,313,191] = 1
y[11,191,0] = 1
y[11,13,313] = 1
y[12,192,0] = 1
y[12,314,192] = 1
y[12,16,314] = 1
y[17,283,5] = 1
y[17,293,283] = 1
y[17,195,0] = 1
y[17,5,295] = 1
y[17,292,293] = 1
y[17,194,195] = 1
y[17,291,292] = 1
y[17,295,194] = 1
y[17,2,291] = 1
y[17,158,2] = 1
y[18,161,321] = 1
y[18,193,0] = 1
y[18,321,193] = 1
xD[120,283,5] = 237
xD[120,293,283] = 237
xD[120,5,295] = 237
xD[120,292,293] = 237
xD[120,295,194] = 237
xD[121,283,5] = 2
xD[121,293,283] = 2
xD[121,5,295] = 2
xD[121,292,293] = 2
xD[121,295,194] = 2
xD[123,283,5] = 97
xD[123,293,283] = 97
xD[123,5,295] = 97
xD[123,292,293] = 97
xD[123,295,194] = 97
xD[237,298,196] = 34
xD[238,7,298] = 84
xD[239,7,298] = 50
xD[283,5,295] = 153
xD[283,194,195] = 153
xD[283,295,194] = 153
xD[284,5,295] = 86
xD[285,5,295] = 118
xD[297,294,284] = 254
xD[297,284,7] = 254
xD[297,7,298] = 254
xD[297,298,196] = 254
xD[298,294,284] = 1
xD[298,284,7] = 1
xD[298,7,298] = 1
xD[298,298,196] = 1
xD[299,294,284] = 135
xD[299,284,7] = 135
xD[299,7,298] = 135
xD[299,298,196] = 135
xD[302,4,294] = 75
xD[302,294,284] = 75
xD[302,284,7] = 75
xD[302,7,298] = 75
xD[302,298,196] = 75
xD[303,4,294] = 200
xD[304,4,294] = 24
xD[305,4,294] = 26
xD[305,294,284] = 26
xD[305,284,7] = 26
xD[305,7,298] = 26
xD[305,298,196] = 26
xD[306,4,294] = 144
xD[306,294,284] = 144
xD[306,284,7] = 144
xD[306,7,298] = 144
xD[306,298,196] = 144
xD[307,4,294] = 1
xD[307,294,284] = 1
xD[307,284,7] = 1
xD[307,7,298] = 1
xD[307,298,196] = 1
xD[309,342,333] = 339
xD[309,324,4] = 339
xD[309,333,324] = 339
xD[310,342,333] = 115
xD[310,324,4] = 115
xD[310,333,324] = 115
xD[311,4,294] = 3
xD[311,294,284] = 3
xD[311,342,333] = 3
xD[311,324,4] = 3
xD[311,333,324] = 3
xD[312,4,294] = 2
xD[312,342,333] = 2
xD[312,324,4] = 2
xD[312,333,324] = 2
xD[313,342,333] = 194
xD[313,324,4] = 194
xD[313,333,324] = 194
xD[313,326,342] = 194
xD[314,342,333] = 49
xD[314,324,4] = 49
xD[314,333,324] = 49
xD[314,326,342] = 49
xD[315,4,294] = 40
xD[315,342,333] = 40
xD[315,324,4] = 40
xD[315,333,324] = 40
xD[315,326,342] = 40
xD[318,332,326] = 842
xD[318,342,333] = 842
xD[318,324,4] = 842
xD[318,333,324] = 842
xD[318,326,342] = 842
xD[319,332,326] = 99
xD[319,342,333] = 99
xD[319,324,4] = 99
xD[319,333,324] = 99
xD[319,326,342] = 99
xD[320,4,294] = 123
xD[320,332,326] = 123
xD[320,342,333] = 123
xD[320,324,4] = 123
xD[320,333,324] = 123
xD[320,326,342] = 123
xD[321,4,294] = 1
xD[321,332,326] = 1
xD[321,342,333] = 1
xD[321,324,4] = 1
xD[321,333,324] = 1
xD[321,326,342] = 1
xD[323,283,5] = 244
xD[323,293,283] = 244
xD[323,5,295] = 244
xD[323,194,195] = 244
xD[323,295,194] = 244
xD[324,283,5] = 67
xD[324,293,283] = 67
xD[324,5,295] = 67
xD[324,194,195] = 67
xD[324,295,194] = 67
xD[333,283,5] = 237
xD[333,293,283] = 237
xD[333,5,295] = 237
xD[333,292,293] = 237
xD[333,291,292] = 237
xD[333,295,194] = 237
xD[334,283,5] = 2
xD[334,293,283] = 2
xD[334,5,295] = 2
xD[334,292,293] = 2
xD[334,291,292] = 2
xD[334,295,194] = 2
xD[336,283,5] = 97
xD[336,293,283] = 97
xD[336,5,295] = 97
xD[336,292,293] = 97
xD[336,291,292] = 97
xD[336,295,194] = 97
xD[338,283,5] = 704
xD[338,293,283] = 704
xD[338,5,295] = 704
xD[338,292,293] = 704
xD[338,194,195] = 704
xD[338,291,292] = 704
xD[338,295,194] = 704
xD[338,2,291] = 704
xD[339,283,5] = 8
xD[339,293,283] = 8
xD[339,5,295] = 8
xD[339,292,293] = 8
xD[339,194,195] = 8
xD[339,291,292] = 8
xD[339,295,194] = 8
xD[339,2,291] = 8
xD[340,2,291] = 156
xD[341,2,291] = 45
xD[342,283,5] = 16
xD[342,293,283] = 16
xD[342,5,295] = 16
xD[342,292,293] = 16
xD[342,291,292] = 16
xD[342,295,194] = 16
xD[342,2,291] = 16
xD[343,283,5] = 264
xD[343,293,283] = 264
xD[343,5,295] = 264
xD[343,292,293] = 264
xD[343,291,292] = 264
xD[343,295,194] = 264
xD[343,2,291] = 264
zE[2] = 841
zE[4] = 1177
zE[5] = 1345
zE[7] = 1681
zE[190] = 1016
zE[191] = 1184
zE[192] = 1352
zE[193] = 1520
zE[194] = 1590
zE[195] = 1688
zE[196] = 1856
zE[283] = 1167
zE[284] = 1410
zE[291] = 922
zE[292] = 992
zE[293] = 1090
zE[294] = 1258
zE[295] = 1426
zE[298] = 1762
zE[313] = 946
zE[314] = 1114
zE[316] = 854
zE[321] = 1087
zE[324] = 1063
zE[326] = 656
zE[332] = 608
zE[333] = 728
zE[342] = 691
zX[2] = 865
zX[4] = 1201
zX[5] = 1369
zX[7] = 1705
zX[9] = 344
zX[10] = 512
zX[13] = 680
zX[16] = 848
zX[158] = 580
zX[161] = 748
zX[190] = 1032
zX[191] = 1200
zX[192] = 1368
zX[193] = 1536
zX[194] = 1622
zX[195] = 1704
zX[196] = 1872
zX[283] = 1182
zX[284] = 1423
zX[291] = 952
zX[292] = 1020
zX[293] = 1120
zX[294] = 1288
zX[295] = 1456
zX[298] = 1792
zX[313] = 964
zX[314] = 1132
zX[316] = 881
zX[321] = 1095
zX[324] = 1077
zX[326] = 666
zX[332] = 618
zX[333] = 744
zX[342] = 704
phi[9] = 1528
phi[10] = 520
phi[11] = 520
phi[12] = 520
phi[17] = 1124
phi[18] = 788

### All variables with value smaller zero:

### End

real	55m29.769s
user	199m3.737s
sys	9m51.564s
	OpenBLAS 0.2.6 environment removed
	Freetype 2.4.12 environment removed
	Python 3.6.0 environment removed
	Gurobi 8.1.0 environment removed
