	OpenBLAS 0.2.6 environment established
		compiled with gcc for max. 16 cores
	Freetype 2.4.12 environment established
		library to render fonts
	Python 3.6.0 environment established
	Gurobi 8.1.0 environment established
Instance LSFRP: LSFDRP_4_3_3_1_fr.p
Instance LSFDP: LSFDRP_4_3_3_1_fd_28.p

*****************************************************************************************************************************
*** Solve LSFDRP_4_3_3_1_fd_28 with Gurobi
***
*** Graph info
*** |S|: 19
*** |S^E|: 0
*** |S^C|: 1
*** |V|: 347
*** |A|: 8382
*** |A^i|: 8382
*** |A^f|: 0
*** |M|: 343
*** |E|: 0

Changed value of parameter NumericFocus to 1
   Prev: 0  Min: 0  Max: 3  Default: 0
Changed value of parameter TimeLimit to 86400.0
   Prev: 1e+100  Min: 0.0  Max: 1e+100  Default: 1e+100
Changed value of parameter Threads to 4
   Prev: 0  Min: 0  Max: 1024  Default: 0
Optimize a model with 143928 rows, 3051766 columns and 10894259 nonzeros
Variable types: 2892487 continuous, 159279 integer (159279 binary)
Coefficient statistics:
  Matrix range     [1e+00, 4e+03]
  Objective range  [4e+01, 2e+08]
  Bounds range     [1e+00, 1e+00]
  RHS range        [1e+00, 6e+00]
Presolve removed 128064 rows and 2886640 columns (presolve time = 5s) ...
Presolve removed 136133 rows and 2913296 columns (presolve time = 12s) ...
Presolve removed 136133 rows and 2919395 columns (presolve time = 56s) ...
Presolve removed 136254 rows and 2919622 columns (presolve time = 60s) ...
Presolve removed 136254 rows and 2919622 columns
Presolve time: 62.29s
Presolved: 7674 rows, 132144 columns, 453518 nonzeros
Variable types: 4833 continuous, 127311 integer (127273 binary)

Root simplex log...

Iteration    Objective       Primal Inf.    Dual Inf.      Time
       0    9.3484069e+09   1.418943e+06   0.000000e+00     64s
   10108    4.7329858e+07   1.181439e+05   0.000000e+00     65s
   21689    1.0146811e+07   8.730668e+05   0.000000e+00     70s
   27316    8.7961706e+06   3.925557e+05   0.000000e+00     75s
   32141    7.8694165e+06   3.656845e+05   0.000000e+00     80s
   36612    6.7115633e+06   4.442270e+04   0.000000e+00     85s
   41052    5.4264457e+06   4.912491e-01   0.000000e+00     90s
   41070    5.4264458e+06   0.000000e+00   0.000000e+00     90s

Root relaxation: objective 5.426446e+06, 41070 iterations, 25.96 seconds

    Nodes    |    Current Node    |     Objective Bounds      |     Work
 Expl Unexpl |  Obj  Depth IntInf | Incumbent    BestBd   Gap | It/Node Time

     0     0 5426445.78    0  171          - 5426445.78      -     -   92s
H    0     0                    -943683.2382 5426445.78   675%     -   93s
H    0     0                    959096.10324 5426445.78   466%     -  120s
     0     0 5272320.73    0  176 959096.103 5272320.73   450%     -  121s
     0     0 5272320.73    0  181 959096.103 5272320.73   450%     -  133s
     0     0 5196345.30    0  188 959096.103 5196345.30   442%     -  139s
     0     0 3536344.07    0  151 959096.103 3536344.07   269%     -  142s
     0     0 3531510.49    0  139 959096.103 3531510.49   268%     -  143s
     0     0 3531181.89    0  140 959096.103 3531181.89   268%     -  143s
     0     0 3523708.94    0  162 959096.103 3523708.94   267%     -  144s
     0     0 3523708.94    0  175 959096.103 3523708.94   267%     -  150s
     0     0 3523708.94    0  151 959096.103 3523708.94   267%     -  157s
     0     0 3523708.94    0  176 959096.103 3523708.94   267%     -  158s
     0     0 3519934.20    0  170 959096.103 3519934.20   267%     -  158s
     0     0 3519519.83    0  169 959096.103 3519519.83   267%     -  158s
     0     0 3519118.74    0  173 959096.103 3519118.74   267%     -  159s
     0     0 3519118.74    0  173 959096.103 3519118.74   267%     -  159s
     0     0 3515687.74    0  177 959096.103 3515687.74   267%     -  160s
     0     0 3515155.36    0  180 959096.103 3515155.36   267%     -  160s
     0     0 3515127.12    0  182 959096.103 3515127.12   267%     -  160s
     0     0 3514873.00    0  183 959096.103 3514873.00   266%     -  160s
     0     0 3514711.09    0  183 959096.103 3514711.09   266%     -  160s
     0     0 3514420.64    0  183 959096.103 3514420.64   266%     -  160s
     0     0 3514232.16    0  183 959096.103 3514232.16   266%     -  161s
     0     0 3513149.94    0  179 959096.103 3513149.94   266%     -  161s
     0     0 3512420.76    0  182 959096.103 3512420.76   266%     -  161s
     0     0 3512347.12    0  185 959096.103 3512347.12   266%     -  161s
     0     0 3511915.39    0  183 959096.103 3511915.39   266%     -  161s
     0     0 3511915.39    0  183 959096.103 3511915.39   266%     -  166s
     0     2 3511915.39    0  182 959096.103 3511915.39   266%     -  169s
     1     5 3480516.72    1  177 959096.103 3480516.72   263%   601  170s
     3     8 3472243.30    2  188 959096.103 3472243.30   262%   473  176s
    19    22 3262220.37    5  152 959096.103 3458075.80   261%  1005  181s
    29    25 3252343.35    6  136 959096.103 3390322.83   253%   912  193s
    33    33 2898975.41    7  128 959096.103 3390322.83   253%   925  195s
    55    44 2785257.97    9  131 959096.103 3390322.83   253%   824  201s
    93    84 2738325.59   16  125 959096.103 3390322.83   253%   601  205s
   203   155 2277329.20   26  110 959096.103 3390322.83   253%   403  211s
   267   190 1958233.17   46   84 959096.103 3388948.67   253%   382  215s
   344   247 3079066.22   10  117 959096.103 3313897.01   246%   374  220s
   448   327 2866121.93   27  110 959096.103 3313897.01   246%   335  225s
   511   370 1509306.74   56   50 959096.103 3089683.06   222%   333  230s
   666   489 1411052.42   28   92 959096.103 3010604.08   214%   326  236s
   795   583 2634095.93   17   78 959096.103 3010604.08   214%   312  240s
   966   688 2143340.09   61   58 959096.103 2988994.64   212%   303  246s
  1096   796 2380499.83   10  176 959096.103 2960105.09   209%   283  280s
  1098   797 2304725.11   14  135 959096.103 2960105.09   209%   283  286s
  1105   802 2174735.84    7  158 959096.103 2960105.09   209%   281  290s
  1116   809 2666103.46   22  211 959096.103 2960105.09   209%   278  297s
  1118   811 1274654.59   54  211 959096.103 2960105.09   209%   278  300s
  1119   814 2960105.09   11  173 959096.103 2960105.09   209%   302  310s
  1121   818 2941765.96   12  146 959096.103 2960105.09   209%   304  318s
  1129   821 2284488.48   13  128 959096.103 2960105.09   209%   306  320s
  1141   827 2881263.32   15  158 959096.103 2960105.09   209%   313  325s
  1145   830 2681148.35   15  155 959096.103 2960105.09   209%   316  333s
H 1148   788                    1058565.7288 2960105.09   180%   316  333s
  1156   790 2568175.27   16  174 1058565.73 2960105.09   180%   318  336s
  1196   797 2624479.03   20  129 1058565.73 2960105.09   180%   321  340s
  1272   815 1478033.00   29   75 1058565.73 2955202.71   179%   331  345s
  1361   839 2446880.16   24  134 1058565.73 2944727.88   178%   336  350s
  1497   857     cutoff   21      1058565.73 2919361.09   176%   334  355s
  1695   905 1912815.75   25  108 1058565.73 2803649.72   165%   332  360s
  1888   934 2456312.96   24  166 1058565.73 2785827.90   163%   329  366s
  1961   945 2430516.89   25  168 1058565.73 2785827.90   163%   324  374s
  1995   948 2358327.53   26  106 1058565.73 2785827.90   163%   325  375s
  2141   981 1267723.73   77  113 1058565.73 2718402.72   157%   327  380s
  2271   995 2206871.64   23  175 1058565.73 2580215.05   144%   339  385s
  2433  1019 2333374.77   21   88 1058565.73 2549016.93   141%   345  391s
  2589  1045 1569494.68   28  126 1058565.73 2536926.42   140%   344  395s
  2921  1049     cutoff   31      1058565.73 2496066.67   136%   343  402s
  3219  1018 2386172.69   22  148 1058565.73 2469890.56   133%   337  406s
  3452  1042 1762946.78   29  106 1058565.73 2469890.56   133%   335  411s
  3606  1129 1487011.79   36   97 1058565.73 2446880.16   131%   332  415s
  3820  1187     cutoff   35      1058565.73 2415836.92   128%   330  420s
  4072  1272 1356378.33   36   73 1058565.73 2385610.65   125%   330  427s
  4200  1330     cutoff   28      1058565.73 2375053.58   124%   331  430s
  4476  1435     cutoff   29      1058565.73 2354853.95   122%   334  437s
  4622  1486 1358036.31   23   44 1058565.73 2340161.04   121%   332  440s
  4889  1621 1690432.95   35  139 1058565.73 2321102.42   119%   335  448s
  5070  1685 1456270.86   26  109 1058565.73 2309993.04   118%   335  452s
  5165  1717 1309632.40   31   98 1058565.73 2301445.74   117%   337  456s
  5369  1773 1691026.45   27  120 1058565.73 2284354.03   116%   338  461s
  5588  1852     cutoff   28      1058565.73 2266813.92   114%   338  465s
  5818  1938 1713189.27   58  129 1058565.73 2260044.35   114%   338  470s
  6147  2090 1794377.78   48   60 1058565.73 2250673.20   113%   335  476s
  6248  2122 2181326.28   25   97 1058565.73 2249806.88   113%   333  481s
  6480  2194 1908730.02   31   72 1058565.73 2238082.63   111%   334  486s
  6758  2261     cutoff   34      1058565.73 2218097.53   110%   336  491s
  7026  2307 1213761.35   28   97 1058565.73 2192744.77   107%   337  497s
  7318  2391 1759981.05   35  121 1058565.73 2178608.97   106%   335  503s
  7739  2558 1880903.31   33   36 1058565.73 2166577.46   105%   333  509s
  8161  2676 1888780.46   26   72 1058565.73 2148071.91   103%   331  516s
  8552  2767 1986232.36   32   40 1058565.73 2124189.26   101%   332  523s
  8758  2802 1526874.49   23   68 1058565.73 2110100.67  99.3%   333  530s
  9052  2875     cutoff   31      1058565.73 2100051.66  98.4%   334  537s
  9451  2996     cutoff   34      1058565.73 2086064.98  97.1%   334  544s
  9702  3069 1823584.20   30  143 1058565.73 2078503.06  96.4%   335  551s
  9907  3114 1435434.59   42  160 1058565.73 2078035.87  96.3%   334  559s
 10402  3303 2038612.22   16  101 1058565.73 2058191.11  94.4%   333  572s
 10813  3429     cutoff   48      1058565.73 2042946.89  93.0%   333  585s
H10822  3429                    1058565.7294 2042946.89  93.0%   333  585s
 10991  3431 1874626.60   35   36 1058565.73 2040503.19  92.8%   332  594s
 11548  3537 1192013.22   47   67 1058565.73 2029063.88  91.7%   332  603s
 12221  3703 1394964.18   41   20 1058565.73 2012257.59  90.1%   329  612s
 12819  3868 1802265.53   22   81 1058565.73 1996910.63  88.6%   326  621s
 13363  4024 1444317.49   38  128 1058565.73 1986051.91  87.6%   324  629s
 13961  4176 infeasible   40      1058565.73 1978113.60  86.9%   322  638s
 14541  4319 1358660.36   51   66 1058565.73 1955853.84  84.8%   321  646s
 15111  4506 1497035.48   25   67 1058565.73 1945668.83  83.8%   319  654s
 15642  4616 1218899.77   49  122 1058565.73 1933932.13  82.7%   318  662s
 16305  4801     cutoff   35      1058565.73 1923060.42  81.7%   315  670s
 16631  4822 1480057.08   46   51 1058565.73 1915001.73  80.9%   316  677s
 17128  4901 1296618.13   44   37 1058565.73 1906191.30  80.1%   316  685s
 17744  5028 1486868.26   35   65 1058565.73 1898988.69  79.4%   315  693s
 18282  5100 1487370.89   32   25 1058565.73 1888002.09  78.4%   313  700s
 18800  5159     cutoff   29      1058565.73 1876348.60  77.3%   313  707s
 19414  5312 1663304.52   34   55 1058565.73 1868000.12  76.5%   311  714s
 19924  5372 1811707.73   35   77 1058565.73 1857361.74  75.5%   311  721s
 20407  5455 1490760.34   45   16 1058565.73 1851995.19  75.0%   311  728s
 20994  5546 1647269.22   41  132 1058565.73 1847160.32  74.5%   310 1112s
 21571  5684 1270405.22   42   72 1058565.73 1834751.46  73.3%   308 1118s
 21985  5837 1594443.47   46   34 1058565.73 1831162.62  73.0%   308 1125s
 22273  5868 1318768.99   48   84 1058565.73 1826533.41  72.5%   310 1131s
 22593  5915 1515826.39   43   54 1058565.73 1823484.14  72.3%   310 1136s
 22800  5957 1662276.79   28   72 1058565.73 1821558.34  72.1%   312 1143s
 22984  5978 1713956.71   34   88 1058565.73 1815422.48  71.5%   315 1149s
 23193  5989 1525532.89   29   85 1058565.73 1810150.30  71.0%   317 1155s
 23442  6034     cutoff   41      1058565.73 1808484.24  70.8%   319 1163s
 23460  5982     cutoff   41      1058565.73 1808199.01  70.8%   319 1170s
 23757  6015     cutoff   35      1058565.73 1802716.10  70.3%   321 1177s
 24037  6051 1615304.34   35   45 1058565.73 1797125.53  69.8%   322 1183s
 24238  6049 1441289.58   27   99 1058565.73 1794477.57  69.5%   325 1190s
 24464  6054 1687925.77   26   80 1058565.73 1790720.32  69.2%   327 1196s
 24762  6100 1581927.59   34   46 1058565.73 1787575.38  68.9%   328 1203s
 25017  6125 1486509.26   36   39 1058565.73 1785375.74  68.7%   329 1209s
 25215  6135 1399948.01   48  128 1058565.73 1781038.02  68.3%   331 1216s
 25387  6143     cutoff   30      1058565.73 1778845.79  68.0%   333 1223s
 25599  6157 1486615.20   36  205 1058565.73 1775898.30  67.8%   336 1230s
 25785  6179 1143629.25   30  100 1058565.73 1774295.56  67.6%   338 1238s
 26055  6199 1059569.08   23  171 1058565.73 1770307.61  67.2%   340 1245s
 26343  6231 1394627.43   35  131 1058565.73 1765688.82  66.8%   341 1252s
 26597  6268     cutoff   24      1058565.73 1759769.20  66.2%   343 1260s
 26831  6269     cutoff   30      1058565.73 1757496.24  66.0%   345 1267s
 27132  6309 1461865.77   38   60 1058565.73 1751604.41  65.5%   347 1275s
 27503  6393     cutoff   44      1058565.73 1747292.40  65.1%   348 1317s
 27783  6429 1415241.71   34  166 1058565.73 1744305.15  64.8%   350 1324s
 28024  6442     cutoff   32      1058565.73 1740803.79  64.4%   352 1332s
 28395  6523 1669717.29   33   53 1058565.73 1736202.26  64.0%   353 1341s
 28603  6518 1106314.54   36   77 1058565.73 1732614.28  63.7%   355 1348s
 28958  6583 1386443.64   38   82 1058565.73 1728905.94  63.3%   356 1357s
 29257  6605 1141071.08   36  152 1058565.73 1725467.41  63.0%   357 1364s
 29622  6643     cutoff   49      1058565.73 1721884.69  62.7%   358 1372s
 29937  6668 infeasible   60      1058565.73 1717875.01  62.3%   359 1380s
 30363  6742     cutoff   36      1058565.73 1713064.79  61.8%   360 1387s
 30645  6749 1250460.14   64  114 1058565.73 1708514.28  61.4%   361 1396s
 31078  6802 1298275.71   31   55 1058565.73 1704437.21  61.0%   362 1404s
 31551  6895 1096903.85   44   66 1058565.73 1700947.44  60.7%   362 1416s
 31873  6923     cutoff   44      1058565.73 1697710.89  60.4%   363 1424s
 32314  6972 1202710.02   45   33 1058565.73 1692277.97  59.9%   364 1432s
 32630  6974 1458295.62   39  106 1058565.73 1688820.23  59.5%   366 1440s
 33130  7055 1592029.23   40   44 1058565.73 1682465.68  58.9%   365 1448s
 33538  7088     cutoff   59      1058565.73 1679757.84  58.7%   366 1456s
 33864  7086 1539987.02   41   50 1058565.73 1677397.58  58.5%   367 1464s
 34187  7091     cutoff   40      1058565.73 1673365.58  58.1%   368 1472s
 34659  7140 1453581.81   58   26 1058565.73 1668670.20  57.6%   369 1481s
 34999  7167 1389555.67   33   84 1058565.73 1665456.43  57.3%   370 1489s
 35362  7188 1280471.33   50   70 1058565.73 1662576.09  57.1%   371 1497s
 35817  7253 1402334.56   45   62 1058565.73 1657847.32  56.6%   371 1505s
 36123  7291 1465639.96   51  173 1058565.73 1655558.48  56.4%   371 1513s
 36455  7315 1623021.13   48   26 1058565.73 1651332.62  56.0%   372 1521s
 36847  7361     cutoff   34      1058565.73 1649093.38  55.8%   372 1529s
 37202  7347 1476616.28   29  131 1058565.73 1643329.84  55.2%   372 1537s
 37610  7348     cutoff   53      1058565.73 1639236.14  54.9%   373 1545s
*37807  7333              47    1079769.2129 1638961.21  51.8%   372 1545s
 38022  7373     cutoff   35      1079769.21 1632906.27  51.2%   373 1553s
 38200  7395 1271035.25   44   37 1079769.21 1632011.21  51.1%   373 1562s
 38471  7480     cutoff   44      1079769.21 1630929.83  51.0%   373 1577s
 38514  7403 1526894.91   46   69 1079769.21 1629882.96  50.9%   373 1585s
 38996  7451     cutoff   23      1079769.21 1625544.37  50.5%   373 1593s
 39366  7475 1325764.35   33   81 1079769.21 1619941.52  50.0%   374 1601s
 39689  7437     cutoff   35      1079769.21 1618067.70  49.9%   375 1608s
 40164  7464 1504695.19   40   27 1079769.21 1611151.49  49.2%   375 1616s
 40560  7447     cutoff   36      1079769.21 1605965.61  48.7%   375 1624s
 40993  7485     cutoff   29      1079769.21 1601900.21  48.4%   376 1632s
 41464  7498 1420100.39   43   34 1079769.21 1598927.67  48.1%   376 1640s
 41844  7532     cutoff   40      1079769.21 1593561.21  47.6%   376 1653s
 42190  7558     cutoff   33      1079769.21 1589800.05  47.2%   377 1662s
 42577  7573 1258070.75   58   83 1079769.21 1586718.90  46.9%   378 1669s
 42896  7565     cutoff   24      1079769.21 1584284.10  46.7%   379 1677s
 43224  7555     cutoff   54      1079769.21 1579030.78  46.2%   379 1685s
 43606  7567 1455996.22   45   63 1079769.21 1574404.82  45.8%   379 1693s
 43998  7549     cutoff   43      1079769.21 1573265.16  45.7%   380 1700s
 44404  7546 1515707.29   34   93 1079769.21 1566333.10  45.1%   380 1707s
 44803  7582     cutoff   42      1079769.21 1562362.91  44.7%   380 1715s
 45149  7576 1371540.11   32   71 1079769.21 1560156.86  44.5%   380 1724s
 45487  7584     cutoff   42      1079769.21 1557236.19  44.2%   381 1732s
 45944  7595 1487476.06   45   68 1079769.21 1554066.15  43.9%   381 1740s
 46368  7614     cutoff   35      1079769.21 1549466.70  43.5%   380 1747s
 46867  7642     cutoff   34      1079769.21 1545570.20  43.1%   380 1755s
 47315  7676 1459026.54   42   82 1079769.21 1542008.44  42.8%   380 1763s
 47728  7704     cutoff   43      1079769.21 1540078.11  42.6%   380 1770s
 48092  7686 1116996.93   49  107 1079769.21 1537268.24  42.4%   380 1778s
 48594  7701     cutoff   42      1079769.21 1533512.86  42.0%   380 1785s
 48991  7706 1475477.48   41   29 1079769.21 1530778.58  41.8%   380 1793s
 49464  7769     cutoff   45      1079769.21 1527649.50  41.5%   380 1800s
 49839  7754 1257693.68   41   35 1079769.21 1522842.51  41.0%   381 1807s
 50115  7725 1213878.72   48   37 1079769.21 1520277.76  40.8%   382 1814s
 50482  7735     cutoff   64      1079769.21 1517342.09  40.5%   382 1822s
 50859  7714 1324207.40   41   42 1079769.21 1515188.56  40.3%   382 1828s
 51345  7748 1193483.00   56   45 1079769.21 1511650.34  40.0%   381 1835s
 51706  7757 1353325.05   34   92 1079769.21 1509616.50  39.8%   382 1842s
 52149  7780     cutoff   57      1079769.21 1506531.17  39.5%   382 1854s
 52435  7780 1477167.40   34   58 1079769.21 1504278.32  39.3%   382 1861s
 52834  7787     cutoff   36      1079769.21 1502223.87  39.1%   382 1869s
 53166  7769 1400226.47   33   45 1079769.21 1498904.22  38.8%   382 1876s
 53574  7768 1180148.23   46   29 1079769.21 1496898.59  38.6%   382 1883s
 53949  7766 1492369.58   40   38 1079769.21 1492960.93  38.3%   382 1890s
 54390  7773 1469343.92   32   87 1079769.21 1490415.55  38.0%   381 1896s
 54687  7734     cutoff   41      1079769.21 1487158.05  37.7%   382 1903s
 55081  7725 infeasible   58      1079769.21 1485563.93  37.6%   381 1911s
 55499  7705 1192477.11   29   88 1079769.21 1481832.22  37.2%   381 1918s
 55887  7680     cutoff   37      1079769.21 1479820.82  37.0%   381 1923s
 56209  7640 1418896.25   38   43 1079769.21 1476913.10  36.8%   381 1929s
 56576  7629 1273064.47   42   92 1079769.21 1474358.89  36.5%   380 1936s
 56965  7611     cutoff   44      1079769.21 1471713.08  36.3%   380 1943s
 57405  7608 1466567.16   46   24 1079769.21 1469074.09  36.1%   380 1949s
 57763  7599     cutoff   32      1079769.21 1465951.78  35.8%   380 1956s
 58050  7580     cutoff   38      1079769.21 1464524.65  35.6%   380 1963s
 58382  7568 1124332.10   41   29 1079769.21 1462083.45  35.4%   380 1969s
 58673  7518     cutoff   34      1079769.21 1458776.47  35.1%   380 1975s
 58961  7483 1160896.32   38   31 1079769.21 1454840.04  34.7%   380 1982s
 59271  7426     cutoff   51      1079769.21 1451794.47  34.5%   380 1988s
 59636  7431     cutoff   40      1079769.21 1449216.52  34.2%   380 1995s
 59952  7450 1250819.64   58  173 1079769.21 1447701.60  34.1%   380 2050s
 60036  7369 1084656.10   27   46 1079769.21 1446366.56  34.0%   380 2056s
 60400  7349 1304602.56   44   34 1079769.21 1443604.02  33.7%   380 2063s
 60725  7298 1146185.84   50   34 1079769.21 1441613.68  33.5%   380 2069s
 61076  7263     cutoff   34      1079769.21 1437702.83  33.1%   380 2076s
 61445  7224 1295197.32   43   55 1079769.21 1434751.38  32.9%   380 2082s
 61791  7199 1166517.25   51   86 1079769.21 1432232.21  32.6%   379 2088s
 62093  7157     cutoff   45      1079769.21 1430207.60  32.5%   380 2095s
 62550  7163     cutoff   44      1079769.21 1428235.97  32.3%   379 2101s
 62885  7122     cutoff   44      1079769.21 1424865.78  32.0%   379 2108s
 63186  7071     cutoff   41      1079769.21 1422520.20  31.7%   379 2114s
 63517  7021     cutoff   31      1079769.21 1420183.65  31.5%   379 2121s
 63918  6999     cutoff   32      1079769.21 1417341.32  31.3%   379 2128s
 64322  6968 1128430.28   27   69 1079769.21 1414522.46  31.0%   378 2131s
 64542  6897 1117678.52   55   25 1079769.21 1411882.28  30.8%   378 2137s
 64916  6855     cutoff   46      1079769.21 1409408.64  30.5%   378 2142s
 65222  6804     cutoff   56      1079769.21 1406638.91  30.3%   378 2147s
 65487  6743     cutoff   47      1079769.21 1404127.88  30.0%   378 2153s
 65859  6731     cutoff   41      1079769.21 1401838.77  29.8%   377 2159s
 66167  6686 1267128.58   38   73 1079769.21 1399033.76  29.6%   377 2164s
 66471  6649     cutoff   45      1079769.21 1396038.09  29.3%   377 2170s
 66758  6587     cutoff   47      1079769.21 1393692.79  29.1%   377 2175s
 67415  6490     cutoff   50      1079769.21 1389139.55  28.7%   376 2184s
 67775  6478 1275396.31   46   54 1079769.21 1386293.92  28.4%   376 2189s
 68057  6420     cutoff   49      1079769.21 1383685.02  28.1%   376 2195s
 68434  6414     cutoff   35      1079769.21 1381174.18  27.9%   375 2201s
 68732  6361     cutoff   33      1079769.21 1378760.20  27.7%   375 2207s
 69135  6340 1321678.32   59   39 1079769.21 1376015.97  27.4%   375 2211s
 69409  6298 1281363.97   38   29 1079769.21 1373406.54  27.2%   375 2215s
 69624  6227 1259766.06   33   87 1079769.21 1371032.98  27.0%   375 2221s
 69887  6166     cutoff   38      1079769.21 1368388.78  26.7%   375 2225s
 70099  6105     cutoff   38      1079769.21 1365903.74  26.5%   375 2230s
 70354  6049 1168888.65   21  130 1079769.21 1363189.29  26.2%   375 2236s
 70600  5981     cutoff   40      1079769.21 1360491.51  26.0%   375 2240s
 71107  5880     cutoff   53      1079769.21 1355811.83  25.6%   375 2248s
 71410  5835     cutoff   39      1079769.21 1353219.94  25.3%   375 2252s
 71710  5791     cutoff   46      1079769.21 1351113.07  25.1%   375 2256s
 71972  5738     cutoff   37      1079769.21 1348233.83  24.9%   375 2261s
 72518  5636     cutoff   40      1079769.21 1344134.92  24.5%   374 2269s
 72781  5584     cutoff   42      1079769.21 1341739.42  24.3%   374 2274s
 73023  5516     cutoff   52      1079769.21 1339086.42  24.0%   374 2278s
 73239  5447     cutoff   43      1079769.21 1336599.31  23.8%   374 2283s
 73456  5383     cutoff   55      1079769.21 1334502.94  23.6%   374 2287s
 73645  5305     cutoff   50      1079769.21 1331985.20  23.4%   374 2291s
 73858  5240     cutoff   28      1079769.21 1328887.13  23.1%   374 2296s
 74116  5184 1308025.17   55   38 1079769.21 1326270.53  22.8%   374 2301s
 74372  5135     cutoff   50      1079769.21 1324334.15  22.6%   374 2305s
 74904  5027 1203019.47   45   29 1079769.21 1319836.92  22.2%   374 2312s
 75145  4960     cutoff   29      1079769.21 1317850.86  22.0%   374 2317s
 75437  4920 1234919.39   42   44 1079769.21 1315637.37  21.8%   373 2320s
 75916  4798     cutoff   30      1079769.21 1311078.00  21.4%   373 2328s
 76139  4736 1252998.50   51   43 1079769.21 1308499.23  21.2%   373 2333s
 76381  4676     cutoff   37      1079769.21 1306413.79  21.0%   373 2336s
 76597  4608     cutoff   31      1079769.21 1304054.94  20.8%   373 2340s
 77090  4487     cutoff   38      1079769.21 1299400.79  20.3%   372 2347s
 77344  4423     cutoff   50      1079769.21 1296589.68  20.1%   372 2351s
 77824  4306     cutoff   46      1079769.21 1291569.67  19.6%   372 2357s
 78053  4249     cutoff   43      1079769.21 1289569.44  19.4%   372 2361s
 78492  4127     cutoff   35      1079769.21 1285124.92  19.0%   371 2369s
 78683  4053 1275898.00   37  130 1079769.21 1282907.88  18.8%   371 2372s
 78921  3984     cutoff   50      1079769.21 1280766.57  18.6%   371 2375s
 79129  3929     cutoff   61      1079769.21 1278152.66  18.4%   371 2380s
 79597  3795     cutoff   31      1079769.21 1273207.55  17.9%   370 2385s
 80018  3658 1241482.57   25   53 1079769.21 1267994.09  17.4%   370 2392s
 80194  3580 1224679.58   62   46 1079769.21 1265927.76  17.2%   370 2397s
 80585  3438     cutoff   39      1079769.21 1261821.46  16.9%   370 2401s
 80977  3296     cutoff   49      1079769.21 1257599.76  16.5%   369 2407s
 81358  3155     cutoff   46      1079769.21 1252794.72  16.0%   369 2411s
 81534  3081     cutoff   46      1079769.21 1250277.73  15.8%   369 2415s
 81943  2927 1223791.11   38  130 1079769.21 1245707.97  15.4%   369 2420s
 82315  2777     cutoff   49      1079769.21 1240701.54  14.9%   368 2425s
 82688  2633     cutoff   24      1079769.21 1236023.67  14.5%   368 2430s
 83077  2485 1205524.55   28   11 1079769.21 1231041.69  14.0%   368 2437s
 83256  2411     cutoff   42      1079769.21 1228527.58  13.8%   368 2440s
 83785  2188     cutoff   44      1079769.21 1219899.45  13.0%   367 2445s
 84277  1966 1140461.68   64   55 1079769.21 1211583.55  12.2%   366 2451s
 84635  1815     cutoff   29      1079769.21 1205107.55  11.6%   366 2455s
 85150  1581     cutoff   56      1079769.21 1196448.57  10.8%   365 2461s
 85642  1350     cutoff   33      1079769.21 1187808.06  10.0%   364 2466s
 85919  1184     cutoff   39      1079769.21 1181462.15  9.42%   364 2470s
 86279   936     cutoff   38      1079769.21 1171303.36  8.48%   364 2475s
 86712   698     cutoff   61      1079769.21 1158427.61  7.28%   363 2480s
 87240   278     cutoff   55      1079769.21 1129499.47  4.61%   362 2486s
 87629     0     cutoff   45      1079769.21 1084323.55  0.42%   362 2490s

Cutting planes:
  Gomory: 100
  Implied bound: 12
  Projected implied bound: 3
  MIR: 27
  Flow cover: 233
  Zero half: 1

Explored 87655 nodes (31812727 simplex iterations) in 2494.29 seconds
Thread count was 4 (of 16 available processors)

Solution count 5: 1.07977e+06 1.05857e+06 1.05857e+06 ... -943683

Optimal solution found (tolerance 1.00e-04)
Best objective 1.079769212879e+06, best bound 1.079769212913e+06, gap 0.0000%

***
***  |- Calculation finished, took 2,494.34 (2494.34) sec.
***  |-----------------------------------------------------------------------------------------------------------------------
***
*****************************************************************************************************************************
#############################################################################################################################
###
### Results
###
### The objective of the solution is 1,079,769.2129 (1079769.2129) and is feasible with a Gap of 0.0
###
### Service 81 (MECL1) is operated by 6 vessels from type 30 (PMax35)
###  |- Vessel  9 has the path [9, 332, 326, 342, 333, 324, 4, 294, 284, 7, 298, 196, 0]
###  |  9 (BEANR Out@344.0) - 332 (USEWR In@608.0/Out@618.0) - 326 (USCHS In@656.0/Out@666.0) - 342 (USORF In@691.0/Out@704.0
###  |  ) - 333 (USEWR In@728.0/Out@744.0) - 324 (TRZMK In@1063.0/Out@1077.0) - 4 (AEJEA In@1177.0/Out@1201.0) - 294 (PKBQM I
###  |  n@1258.0/Out@1288.0) - 284 (OMSLL In@1410.0/Out@1423.0) - 7 (AEJEA In@1681.0/Out@1705.0) - 298 (PKBQM In@1762.0/Out@1
###  |  792.0) - 196 (INNSA In@1856.0/Out@1872.0) - 0 (DUMMY_END Ziel-Service 81)
###  |   |- and carried Demand 237,   34.0 containers from 298 to 196
###  |   |- and carried Demand 238,   84.0 containers from   7 to 298
###  |   |- and carried Demand 239,   50.0 containers from   7 to 298
###  |   |- and carried Demand 297,  254.0 containers from 294 to 196
###  |   |- and carried Demand 298,    1.0 containers from 294 to 196
###  |   |- and carried Demand 299,  135.0 containers from 294 to 196
###  |   |- and carried Demand 302,   75.0 containers from   4 to 196
###  |   |- and carried Demand 303,  200.0 containers from   4 to 294
###  |   |- and carried Demand 304,   24.0 containers from   4 to 294
###  |   |- and carried Demand 305,   26.0 containers from   4 to 196
###  |   |- and carried Demand 306,  144.0 containers from   4 to 196
###  |   |- and carried Demand 307,    1.0 containers from   4 to 196
###  |   |- and carried Demand 309,  339.0 containers from 342 to   4
###  |   |- and carried Demand 310,  115.0 containers from 342 to   4
###  |   |- and carried Demand 311,    3.0 containers from 342 to 284
###  |   |- and carried Demand 312,    2.0 containers from 342 to 294
###  |   |- and carried Demand 313,  194.0 containers from 326 to   4
###  |   |- and carried Demand 314,   49.0 containers from 326 to   4
###  |   |- and carried Demand 315,   40.0 containers from 326 to 294
###  |   |- and carried Demand 318,  842.0 containers from 332 to   4
###  |   |- and carried Demand 319,   99.0 containers from 332 to   4
###  |   |- and carried Demand 320,  123.0 containers from 332 to 294
###  |   |- and carried Demand 321,    1.0 containers from 332 to 294
###  |- Vessel 10 has the path [10, 316, 190, 0]
###  |  10 (BEANR Out@512.0) - 316 (TRAMB In@854.0/Out@881.0) - 190 (INNSA In@1016.0/Out@1032.0) - 0 (DUMMY_END Ziel-Service 
###  |  81)
###  |- Vessel 11 has the path [13, 313, 191, 0]
###  |  13 (BEANR Out@680.0) - 313 (TRALI In@946.0/Out@964.0) - 191 (INNSA In@1184.0/Out@1200.0) - 0 (DUMMY_END Ziel-Service 
###  |  81)
###  |- Vessel 12 has the path [16, 314, 192, 0]
###  |  16 (BEANR Out@848.0) - 314 (TRALI In@1114.0/Out@1132.0) - 192 (INNSA In@1352.0/Out@1368.0) - 0 (DUMMY_END Ziel-Servic
###  |  e 81)
###  |- Vessel 17 has the path [158, 2, 291, 292, 293, 283, 5, 295, 194, 195, 0]
###  |  158 (GBFXT Out@580.0) - 2 (AEJEA In@841.0/Out@865.0) - 291 (PKBQM In@922.0/Out@952.0) - 292 (PKBQM In@992.0/Out@1020.
###  |  0) - 293 (PKBQM In@1090.0/Out@1120.0) - 283 (OMSLL In@1167.0/Out@1182.0) - 5 (AEJEA In@1345.0/Out@1369.0) - 295 (PKBQ
###  |  M In@1426.0/Out@1456.0) - 194 (INNSA In@1590.0/Out@1622.0) - 195 (INNSA In@1688.0/Out@1704.0) - 0 (DUMMY_END Ziel-Ser
###  |  vice 81)
###  |   |- and carried Demand 120,  237.0 containers from 292 to 194
###  |   |- and carried Demand 121,    2.0 containers from 292 to 194
###  |   |- and carried Demand 123,   97.0 containers from 292 to 194
###  |   |- and carried Demand 283,  153.0 containers from   5 to 195
###  |   |- and carried Demand 284,   86.0 containers from   5 to 295
###  |   |- and carried Demand 285,  118.0 containers from   5 to 295
###  |   |- and carried Demand 323,  244.0 containers from 293 to 195
###  |   |- and carried Demand 324,   67.0 containers from 293 to 195
###  |   |- and carried Demand 333,  237.0 containers from 291 to 194
###  |   |- and carried Demand 334,    2.0 containers from 291 to 194
###  |   |- and carried Demand 336,   97.0 containers from 291 to 194
###  |   |- and carried Demand 338,  704.0 containers from   2 to 195
###  |   |- and carried Demand 339,    8.0 containers from   2 to 195
###  |   |- and carried Demand 340,  156.0 containers from   2 to 291
###  |   |- and carried Demand 341,   45.0 containers from   2 to 291
###  |   |- and carried Demand 342,   16.0 containers from   2 to 194
###  |   |- and carried Demand 343,  264.0 containers from   2 to 194
###  |- Vessel 18 has the path [161, 321, 193, 0]
###  |  161 (GBFXT Out@748.0) - 321 (TRGEM In@1087.0/Out@1095.0) - 193 (INNSA In@1520.0/Out@1536.0) - 0 (DUMMY_END Ziel-Servi
###  |  ce 81)
###  |
### Vessels not used in the solution: [1, 2, 3, 4, 5, 6, 7, 8, 13, 14, 15, 16, 20]
###  |-----------------------------------------------------------------------------------------------------------------------
###
#############################################################################################################################

### Detialed variable overview

### All variables with value greater zero:
rho[81,30] = 1
eta[81,30,1] = 1
eta[81,30,2] = 1
eta[81,30,3] = 1
eta[81,30,4] = 1
eta[81,30,5] = 1
eta[81,30,6] = 1
y[9,4,294] = 1
y[9,332,326] = 1
y[9,294,284] = 1
y[9,284,7] = 1
y[9,342,333] = 1
y[9,9,332] = 1
y[9,324,4] = 1
y[9,7,298] = 1
y[9,196,0] = 1
y[9,333,324] = 1
y[9,298,196] = 1
y[9,326,342] = 1
y[10,190,0] = 1
y[10,316,190] = 1
y[10,10,316] = 1
y[11,313,191] = 1
y[11,191,0] = 1
y[11,13,313] = 1
y[12,192,0] = 1
y[12,314,192] = 1
y[12,16,314] = 1
y[17,283,5] = 1
y[17,293,283] = 1
y[17,195,0] = 1
y[17,5,295] = 1
y[17,292,293] = 1
y[17,194,195] = 1
y[17,291,292] = 1
y[17,295,194] = 1
y[17,2,291] = 1
y[17,158,2] = 1
y[18,161,321] = 1
y[18,193,0] = 1
y[18,321,193] = 1
xD[120,283,5] = 237
xD[120,293,283] = 237
xD[120,5,295] = 237
xD[120,292,293] = 237
xD[120,295,194] = 237
xD[121,283,5] = 2
xD[121,293,283] = 2
xD[121,5,295] = 2
xD[121,292,293] = 2
xD[121,295,194] = 2
xD[123,283,5] = 97
xD[123,293,283] = 97
xD[123,5,295] = 97
xD[123,292,293] = 97
xD[123,295,194] = 97
xD[237,298,196] = 34
xD[238,7,298] = 84
xD[239,7,298] = 50
xD[283,5,295] = 153
xD[283,194,195] = 153
xD[283,295,194] = 153
xD[284,5,295] = 86
xD[285,5,295] = 118
xD[297,294,284] = 254
xD[297,284,7] = 254
xD[297,7,298] = 254
xD[297,298,196] = 254
xD[298,294,284] = 1
xD[298,284,7] = 1
xD[298,7,298] = 1
xD[298,298,196] = 1
xD[299,294,284] = 135
xD[299,284,7] = 135
xD[299,7,298] = 135
xD[299,298,196] = 135
xD[302,4,294] = 75
xD[302,294,284] = 75
xD[302,284,7] = 75
xD[302,7,298] = 75
xD[302,298,196] = 75
xD[303,4,294] = 200
xD[304,4,294] = 24
xD[305,4,294] = 26
xD[305,294,284] = 26
xD[305,284,7] = 26
xD[305,7,298] = 26
xD[305,298,196] = 26
xD[306,4,294] = 144
xD[306,294,284] = 144
xD[306,284,7] = 144
xD[306,7,298] = 144
xD[306,298,196] = 144
xD[307,4,294] = 1
xD[307,294,284] = 1
xD[307,284,7] = 1
xD[307,7,298] = 1
xD[307,298,196] = 1
xD[309,342,333] = 339
xD[309,324,4] = 339
xD[309,333,324] = 339
xD[310,342,333] = 115
xD[310,324,4] = 115
xD[310,333,324] = 115
xD[311,4,294] = 3
xD[311,294,284] = 3
xD[311,342,333] = 3
xD[311,324,4] = 3
xD[311,333,324] = 3
xD[312,4,294] = 2
xD[312,342,333] = 2
xD[312,324,4] = 2
xD[312,333,324] = 2
xD[313,342,333] = 194
xD[313,324,4] = 194
xD[313,333,324] = 194
xD[313,326,342] = 194
xD[314,342,333] = 49
xD[314,324,4] = 49
xD[314,333,324] = 49
xD[314,326,342] = 49
xD[315,4,294] = 40
xD[315,342,333] = 40
xD[315,324,4] = 40
xD[315,333,324] = 40
xD[315,326,342] = 40
xD[318,332,326] = 842
xD[318,342,333] = 842
xD[318,324,4] = 842
xD[318,333,324] = 842
xD[318,326,342] = 842
xD[319,332,326] = 99
xD[319,342,333] = 99
xD[319,324,4] = 99
xD[319,333,324] = 99
xD[319,326,342] = 99
xD[320,4,294] = 123
xD[320,332,326] = 123
xD[320,342,333] = 123
xD[320,324,4] = 123
xD[320,333,324] = 123
xD[320,326,342] = 123
xD[321,4,294] = 1
xD[321,332,326] = 1
xD[321,342,333] = 1
xD[321,324,4] = 1
xD[321,333,324] = 1
xD[321,326,342] = 1
xD[323,283,5] = 244
xD[323,293,283] = 244
xD[323,5,295] = 244
xD[323,194,195] = 244
xD[323,295,194] = 244
xD[324,283,5] = 67
xD[324,293,283] = 67
xD[324,5,295] = 67
xD[324,194,195] = 67
xD[324,295,194] = 67
xD[333,283,5] = 237
xD[333,293,283] = 237
xD[333,5,295] = 237
xD[333,292,293] = 237
xD[333,291,292] = 237
xD[333,295,194] = 237
xD[334,283,5] = 2
xD[334,293,283] = 2
xD[334,5,295] = 2
xD[334,292,293] = 2
xD[334,291,292] = 2
xD[334,295,194] = 2
xD[336,283,5] = 97
xD[336,293,283] = 97
xD[336,5,295] = 97
xD[336,292,293] = 97
xD[336,291,292] = 97
xD[336,295,194] = 97
xD[338,283,5] = 704
xD[338,293,283] = 704
xD[338,5,295] = 704
xD[338,292,293] = 704
xD[338,194,195] = 704
xD[338,291,292] = 704
xD[338,295,194] = 704
xD[338,2,291] = 704
xD[339,283,5] = 8
xD[339,293,283] = 8
xD[339,5,295] = 8
xD[339,292,293] = 8
xD[339,194,195] = 8
xD[339,291,292] = 8
xD[339,295,194] = 8
xD[339,2,291] = 8
xD[340,2,291] = 156
xD[341,2,291] = 45
xD[342,283,5] = 16
xD[342,293,283] = 16
xD[342,5,295] = 16
xD[342,292,293] = 16
xD[342,291,292] = 16
xD[342,295,194] = 16
xD[342,2,291] = 16
xD[343,283,5] = 264
xD[343,293,283] = 264
xD[343,5,295] = 264
xD[343,292,293] = 264
xD[343,291,292] = 264
xD[343,295,194] = 264
xD[343,2,291] = 264
zE[2] = 841
zE[4] = 1177
zE[5] = 1345
zE[7] = 1681
zE[190] = 1016
zE[191] = 1184
zE[192] = 1352
zE[193] = 1520
zE[194] = 1590
zE[195] = 1688
zE[196] = 1856
zE[283] = 1167
zE[284] = 1410
zE[291] = 922
zE[292] = 992
zE[293] = 1090
zE[294] = 1258
zE[295] = 1426
zE[298] = 1762
zE[313] = 946
zE[314] = 1114
zE[316] = 854
zE[321] = 1087
zE[324] = 1063
zE[326] = 656
zE[332] = 608
zE[333] = 728
zE[342] = 691
zX[2] = 865
zX[4] = 1201
zX[5] = 1369
zX[7] = 1705
zX[9] = 344
zX[10] = 512
zX[13] = 680
zX[16] = 848
zX[158] = 580
zX[161] = 748
zX[190] = 1032
zX[191] = 1200
zX[192] = 1368
zX[193] = 1536
zX[194] = 1622
zX[195] = 1704
zX[196] = 1872
zX[283] = 1182
zX[284] = 1423
zX[291] = 952
zX[292] = 1020
zX[293] = 1120
zX[294] = 1288
zX[295] = 1456
zX[298] = 1792
zX[313] = 964
zX[314] = 1132
zX[316] = 881
zX[321] = 1095
zX[324] = 1077
zX[326] = 666
zX[332] = 618
zX[333] = 744
zX[342] = 704
phi[9] = 1528
phi[10] = 520
phi[11] = 520
phi[12] = 520
phi[17] = 1124
phi[18] = 788

### All variables with value smaller zero:

### End

real	44m48.779s
user	157m18.647s
sys	9m25.587s
	OpenBLAS 0.2.6 environment removed
	Freetype 2.4.12 environment removed
	Python 3.6.0 environment removed
	Gurobi 8.1.0 environment removed
