	OpenBLAS 0.2.6 environment established
		compiled with gcc for max. 16 cores
	Freetype 2.4.12 environment established
		library to render fonts
	Python 3.6.0 environment established
	Gurobi 8.1.0 environment established
Instance LSFRP: LSFDRP_4_3_3_1_fr.p
Instance LSFDP: LSFDRP_4_3_3_1_fd_40.p

*****************************************************************************************************************************
*** Solve LSFDRP_4_3_3_1_fd_40 with Gurobi
***
*** Graph info
*** |S|: 19
*** |S^E|: 0
*** |S^C|: 1
*** |V|: 347
*** |A|: 8382
*** |A^i|: 8382
*** |A^f|: 0
*** |M|: 343
*** |E|: 0

Changed value of parameter NumericFocus to 1
   Prev: 0  Min: 0  Max: 3  Default: 0
Changed value of parameter TimeLimit to 86400.0
   Prev: 1e+100  Min: 0.0  Max: 1e+100  Default: 1e+100
Changed value of parameter Threads to 4
   Prev: 0  Min: 0  Max: 1024  Default: 0
Optimize a model with 143928 rows, 3051766 columns and 10894259 nonzeros
Variable types: 2892487 continuous, 159279 integer (159279 binary)
Coefficient statistics:
  Matrix range     [1e+00, 4e+03]
  Objective range  [4e+01, 2e+08]
  Bounds range     [1e+00, 1e+00]
  RHS range        [1e+00, 6e+00]
Presolve removed 80555 rows and 2464840 columns (presolve time = 5s) ...
Presolve removed 136035 rows and 2912945 columns (presolve time = 10s) ...
Presolve removed 136133 rows and 2919395 columns (presolve time = 61s) ...
Presolve removed 136254 rows and 2919622 columns (presolve time = 65s) ...
Presolve removed 136254 rows and 2919622 columns
Presolve time: 67.55s
Presolved: 7674 rows, 132144 columns, 453518 nonzeros
Variable types: 4833 continuous, 127311 integer (127273 binary)

Root simplex log...

Iteration    Objective       Primal Inf.    Dual Inf.      Time
       0    9.3484069e+09   1.418943e+06   0.000000e+00     70s
    5086    3.5959058e+08   1.918083e+05   0.000000e+00     70s
   21222    1.0570616e+07   9.043301e+04   0.000000e+00     75s
   26801    8.7822949e+06   1.283163e+05   0.000000e+00     80s
   31542    7.0655970e+06   1.642144e+05   0.000000e+00     85s
   35856    5.4073849e+06   0.000000e+00   0.000000e+00     90s

Root relaxation: objective 5.407385e+06, 35856 iterations, 20.37 seconds

    Nodes    |    Current Node    |     Objective Bounds      |     Work
 Expl Unexpl |  Obj  Depth IntInf | Incumbent    BestBd   Gap | It/Node Time

     0     0 5407384.87    0  173          - 5407384.87      -     -   92s
H    0     0                    -566805.3650 5407384.87  1054%     -   93s
H    0     0                    1079769.2135 5407384.87   401%     -  145s
     0     0 3455939.06    0  154 1079769.21 3455939.06   220%     -  152s
     0     0 3455939.06    0  131 1079769.21 3455939.06   220%     -  162s
     0     0 3455939.06    0  163 1079769.21 3455939.06   220%     -  164s
     0     0 3229245.08    0  152 1079769.21 3229245.08   199%     -  165s
     0     0 3227735.13    0  148 1079769.21 3227735.13   199%     -  165s
     0     0 3208254.81    0  156 1079769.21 3208254.81   197%     -  166s
     0     0 3199738.40    0  159 1079769.21 3199738.40   196%     -  166s
     0     0 3199398.12    0  149 1079769.21 3199398.12   196%     -  166s
     0     0 3198831.58    0  142 1079769.21 3198831.58   196%     -  166s
     0     0 3195811.52    0  142 1079769.21 3195811.52   196%     -  166s
     0     0 3195731.57    0  145 1079769.21 3195731.57   196%     -  166s
     0     0 3192805.78    0  137 1079769.21 3192805.78   196%     -  166s
     0     0 3192795.50    0  147 1079769.21 3192795.50   196%     -  166s
     0     0 3192722.68    0  137 1079769.21 3192722.68   196%     -  167s
     0     0 3192721.24    0  137 1079769.21 3192721.24   196%     -  167s
     0     0 3192706.56    0  147 1079769.21 3192706.56   196%     -  167s
     0     0 3192564.00    0  149 1079769.21 3192564.00   196%     -  167s
     0     0 3192564.00    0  149 1079769.21 3192564.00   196%     -  167s
     0     0 3192554.85    0  149 1079769.21 3192554.85   196%     -  167s
     0     0 3192470.41    0  151 1079769.21 3192470.41   196%     -  167s
     0     0 3192470.41    0  151 1079769.21 3192470.41   196%     -  170s
     0     0 3192470.41    0  137 1079769.21 3192470.41   196%     -  172s
     0     0 3192470.41    0  167 1079769.21 3192470.41   196%     -  175s
     0     0 3192470.41    0  142 1079769.21 3192470.41   196%     -  176s
     0     0 3190183.12    0  153 1079769.21 3190183.12   195%     -  176s
     0     0 3189275.35    0  144 1079769.21 3189275.35   195%     -  176s
     0     0 3188323.70    0  150 1079769.21 3188323.70   195%     -  176s
     0     0 3187991.28    0  151 1079769.21 3187991.28   195%     -  176s
     0     0 3187979.06    0  151 1079769.21 3187979.06   195%     -  176s
     0     0 3179847.44    0  155 1079769.21 3179847.44   194%     -  177s
     0     0 3179823.21    0  152 1079769.21 3179823.21   194%     -  177s
     0     0 3178789.32    0  157 1079769.21 3178789.32   194%     -  177s
     0     0 3178500.78    0  157 1079769.21 3178500.78   194%     -  177s
     0     0 3178385.85    0  162 1079769.21 3178385.85   194%     -  177s
     0     0 3174757.90    0  161 1079769.21 3174757.90   194%     -  177s
     0     0 3174574.66    0  164 1079769.21 3174574.66   194%     -  177s
     0     0 3173670.20    0  160 1079769.21 3173670.20   194%     -  178s
     0     0 3173280.24    0  159 1079769.21 3173280.24   194%     -  178s
     0     0 3173158.96    0  160 1079769.21 3173158.96   194%     -  178s
     0     0 3173016.75    0  162 1079769.21 3173016.75   194%     -  178s
     0     0 3172419.98    0  160 1079769.21 3172419.98   194%     -  178s
     0     0 3172404.05    0  162 1079769.21 3172404.05   194%     -  178s
     0     0 3171325.67    0  162 1079769.21 3171325.67   194%     -  178s
     0     0 3171325.67    0  159 1079769.21 3171325.67   194%     -  181s
     0     2 3171325.67    0  156 1079769.21 3171325.67   194%     -  182s
     1     5 2937712.62    1  123 1079769.21 3170778.08   194%  1645  185s
    29    31 2812611.24    7  117 1079769.21 3029147.94   181%   570  190s
    53    52 2718292.52   12  109 1079769.21 3029147.94   181%   461  196s
   181   137     cutoff   36      1079769.21 2936664.26   172%   294  200s
   333   213 2441933.68    7   71 1079769.21 2857083.93   165%   279  205s
   533   302 1663010.83   11  138 1079769.21 2794823.41   159%   288  210s
   773   402 2504202.76    6  133 1079769.21 2713453.77   151%   279  215s
  1084   565 1566777.33   12  154 1079769.21 2657503.52   146%   257  229s
  1086   566 1316569.23    8  132 1079769.21 2657503.52   146%   257  233s
  1088   568 1447402.50   24  160 1079769.21 2657503.52   146%   256  235s
  1111   583 1556940.33   16  213 1079769.21 2657503.52   146%   251  240s
  1117   587 2102020.88   10  225 1079769.21 2657503.52   146%   249  245s
  1119   591 2657503.52   15  202 1079769.21 2657503.52   146%   270  256s
  1121   593 2657503.52   16  204 1079769.21 2657503.52   146%   271  263s
  1125   594 2657503.52   17  202 1079769.21 2657503.52   146%   273  267s
  1137   599 2657503.52   19  186 1079769.21 2657503.52   146%   283  270s
  1148   600 2657503.52   20  198 1079769.21 2657503.52   146%   287  275s
  1197   614     cutoff   24      1079769.21 2657503.52   146%   300  280s
  1253   622 2612007.98   29  124 1079769.21 2657503.52   146%   313  285s
  1350   629 1639207.79   39   36 1079769.21 2657503.52   146%   325  290s
  1452   639 1787168.85   24   95 1079769.21 2657503.52   146%   330  295s
  1555   655 1676976.57   36  132 1079769.21 2657503.52   146%   337  301s
  1628   667 1418419.95   28  131 1079769.21 2657503.52   146%   349  305s
  1696   686 1976279.21   29  148 1079769.21 2657503.52   146%   357  310s
  1818   716 1178173.59   25  116 1079769.21 2613552.32   142%   365  315s
  1968   741 2056643.09   30   96 1079769.21 2567326.39   138%   369  322s
  2059   728 1793941.67   32   83 1079769.21 2449826.62   127%   372  325s
  2254   767 2026083.92   21  114 1079769.21 2395076.49   122%   376  331s
  2406   780 2158148.49   23  117 1079769.21 2352752.36   118%   379  335s
  2505   787 2132501.20   23  158 1079769.21 2276786.92   111%   382  340s
  2640   793 1167166.74   39   53 1079769.21 2256228.90   109%   390  345s
  2934   827 1539220.06   24  110 1079769.21 2224252.83   106%   386  351s
  3148   906 1352387.82   33  137 1079769.21 2187861.40   103%   380  356s
  3406  1001     cutoff   54      1079769.21 2159396.78   100%   380  362s
  3609  1094     cutoff   34      1079769.21 2150706.77  99.2%   375  365s
  3784  1144 2102258.63   25   33 1079769.21 2119017.57  96.2%   377  372s
  3986  1225 1571409.50   45   58 1079769.21 2108878.47  95.3%   374  375s
  4262  1275 1422291.03   38  129 1079769.21 2080172.55  92.6%   378  382s
  4442  1323 1688336.00   26  118 1079769.21 2076463.73  92.3%   377  386s
  4652  1364 1412807.17   35  135 1079769.21 2054894.87  90.3%   376  390s
  4847  1395 1533938.98   31  110 1079769.21 2030858.46  88.1%   377  395s
  5284  1533 1683627.75   29   86 1079769.21 1998300.91  85.1%   373  403s
  5456  1563 1982265.75   23  117 1079769.21 1983761.60  83.7%   371  408s
  5696  1618 1492579.41   29   58 1079769.21 1981912.01  83.5%   370  412s
  6065  1733 1268526.01   34  128 1079769.21 1950695.09  80.7%   364  416s
  6377  1830 1752969.72   34   87 1079769.21 1939609.23  79.6%   362  421s
H 6555  1896                    1079769.2698 1938656.40  79.5%   361  421s
  6617  1876     cutoff   36      1079769.27 1931243.01  78.9%   361  426s
  6952  1939 1447975.62   53   42 1079769.27 1918990.12  77.7%   359  431s
  7386  2053     cutoff   34      1079769.27 1904344.07  76.4%   353  437s
  7734  2105 1787678.92   27   90 1079769.27 1891888.33  75.2%   348  443s
  8176  2171 1255185.01   35   49 1079769.27 1878267.90  74.0%   345  449s
  8627  2266     cutoff   49      1079769.27 1856069.10  71.9%   341  455s
  9011  2298     cutoff   53      1079769.27 1840428.13  70.4%   338  462s
  9438  2325 1497545.21   44   71 1079769.27 1818311.45  68.4%   337  468s
  9923  2380 1756332.59   36   35 1079769.27 1799618.67  66.7%   334  475s
 10412  2384 1479214.20   42   67 1079769.27 1778395.72  64.7%   333  482s
 10930  2443     cutoff   41      1079769.27 1758334.11  62.8%   330  492s
 11490  2532 1567096.85   39   74 1079769.27 1729979.22  60.2%   327  499s
 12027  2596     cutoff   42      1079769.27 1708633.64  58.2%   324  505s
 12443  2602 1096300.46   37   69 1079769.27 1694037.97  56.9%   324  511s
 12914  2613 1356178.69   50   54 1079769.27 1674934.53  55.1%   323  518s
 13353  2612     cutoff   34      1079769.27 1670464.78  54.7%   323  524s
 13906  2673 1370189.89   21   63 1079769.27 1640764.56  52.0%   321  530s
 14400  2690 1557143.47   42   37 1079769.27 1628032.35  50.8%   319  535s
 14980  2782 1601002.71   35   49 1079769.27 1612088.87  49.3%   315  541s
 15464  2813 1456575.62   37   53 1079769.27 1606021.01  48.7%   313  546s
 16047  2891     cutoff   35      1079769.27 1590558.02  47.3%   310  552s
 16532  2919 1524394.93   41   44 1079769.27 1584726.82  46.8%   308  556s
 16984  2925     cutoff   40      1079769.27 1574165.85  45.8%   306  562s
 17438  2944     cutoff   34      1079769.27 1563911.84  44.8%   305  566s
 17944  2990     cutoff   44      1079769.27 1553121.39  43.8%   302  571s
 18427  3022     cutoff   29      1079769.27 1545681.75  43.1%   301  576s
 18881  3046 1219227.88   60   55 1079769.27 1537129.59  42.4%   299  581s
 19663  3135     cutoff   40      1079769.27 1520194.64  40.8%   297  604s
 19700  3042 1175685.63   31   68 1079769.27 1519134.02  40.7%   297  609s
 20111  3051 1476422.29   39   96 1079769.27 1510678.29  39.9%   297  612s
 20515  3067     cutoff   27      1079769.27 1503102.80  39.2%   295  617s
 20973  3057 1452974.66   43   82 1079769.27 1494927.98  38.4%   294  622s
 21389  3062 1476230.26   49   26 1079769.27 1487145.71  37.7%   292  823s
 21693  3040     cutoff   42      1079769.27 1480576.30  37.1%   291  828s
 22065  3035     cutoff   33      1079769.27 1472872.53  36.4%   291  832s
 22402  3029 1100354.24   43   55 1079769.27 1465043.25  35.7%   291  836s
 22703  2998     cutoff   30      1079769.27 1461430.64  35.3%   291  840s
 22999  2979 1375682.71   41   64 1079769.27 1452007.69  34.5%   292  845s
 23657  2930 1335934.67   42   33 1079769.27 1441928.12  33.5%   292  853s
 24027  2919 1363189.79   42   40 1079769.27 1435952.95  33.0%   292  856s
 24344  2879 1421470.62   27   41 1079769.27 1428851.24  32.3%   292  861s
 24632  2833     cutoff   29      1079769.27 1422935.30  31.8%   292  865s
 25267  2746 1335970.59   31   92 1079769.27 1408302.87  30.4%   292  873s
 25570  2700     cutoff   38      1079769.27 1401617.82  29.8%   292  877s
 25891  2685     cutoff   29      1079769.27 1395803.17  29.3%   292  881s
 26564  2591     cutoff   56      1079769.27 1381674.70  28.0%   291  888s
 26831  2549 1338802.82   32   87 1079769.27 1376784.12  27.5%   292  892s
 27190  2525 1294883.41   46   56 1079769.27 1370055.33  26.9%   292  896s
 27506  2497 1328420.55   32   22 1079769.27 1365620.11  26.5%   292  900s
 28057  2416     cutoff   41      1079769.27 1352481.74  25.3%   292  906s
 28283  2346 1256115.01   51  123 1079769.27 1345801.32  24.6%   293  910s
 28860  2257 1248660.45   26   16 1079769.27 1333957.81  23.5%   293  915s
 29425  2160     cutoff   36      1079769.27 1323337.81  22.6%   292  921s
 29892  2039     cutoff   50      1079769.27 1312566.19  21.6%   292  926s
 30318  1902 1212746.53   34   59 1079769.27 1300143.95  20.4%   292  931s
 30847  1788 1136017.00   34   46 1079769.27 1288464.19  19.3%   291  936s
 31194  1638     cutoff   55      1079769.27 1276999.40  18.3%   291  940s
 31592  1508     cutoff   36      1079769.27 1266538.27  17.3%   291  945s
 32048  1380     cutoff   36      1079769.27 1256307.37  16.3%   290  950s
 32517  1250     cutoff   39      1079769.27 1245518.89  15.4%   289  955s
 33101  1026     cutoff   30      1079769.27 1228231.07  13.7%   288  960s
 33602   792     cutoff   37      1079769.27 1212080.02  12.3%   287  965s
 34368   397     cutoff   57      1079769.27 1178160.04  9.11%   285  970s
 34945     0     cutoff   59      1079769.27 1108963.00  2.70%   284  975s

Cutting planes:
  Gomory: 44
  Implied bound: 19
  MIR: 20
  Flow cover: 154
  Zero half: 1

Explored 35016 nodes (10024693 simplex iterations) in 979.20 seconds
Thread count was 4 (of 16 available processors)

Solution count 3: 1.07977e+06 1.07977e+06 -566805 

Optimal solution found (tolerance 1.00e-04)
Best objective 1.079769212879e+06, best bound 1.079769269839e+06, gap 0.0000%

***
***  |- Calculation finished, took 979.25 (979.25) sec.
***  |-----------------------------------------------------------------------------------------------------------------------
***
*****************************************************************************************************************************
#############################################################################################################################
###
### Results
###
### The objective of the solution is 1,079,769.2129 (1079769.2129) and is feasible with a Gap of 0.0
###
### Service 81 (MECL1) is operated by 6 vessels from type 30 (PMax35)
###  |- Vessel  9 has the path [9, 332, 326, 342, 333, 324, 4, 294, 284, 7, 298, 196, 0]
###  |  9 (BEANR Out@344.0) - 332 (USEWR In@608.0/Out@618.0) - 326 (USCHS In@656.0/Out@666.0) - 342 (USORF In@691.0/Out@704.0
###  |  ) - 333 (USEWR In@728.0/Out@744.0) - 324 (TRZMK In@1063.0/Out@1077.0) - 4 (AEJEA In@1177.0/Out@1201.0) - 294 (PKBQM I
###  |  n@1258.0/Out@1288.0) - 284 (OMSLL In@1410.0/Out@1423.0) - 7 (AEJEA In@1681.0/Out@1705.0) - 298 (PKBQM In@1762.0/Out@1
###  |  792.0) - 196 (INNSA In@1856.0/Out@1872.0) - 0 (DUMMY_END Ziel-Service 81)
###  |   |- and carried Demand 237,   34.0 containers from 298 to 196
###  |   |- and carried Demand 238,   84.0 containers from   7 to 298
###  |   |- and carried Demand 239,   50.0 containers from   7 to 298
###  |   |- and carried Demand 297,  254.0 containers from 294 to 196
###  |   |- and carried Demand 298,    1.0 containers from 294 to 196
###  |   |- and carried Demand 299,  135.0 containers from 294 to 196
###  |   |- and carried Demand 302,   75.0 containers from   4 to 196
###  |   |- and carried Demand 303,  200.0 containers from   4 to 294
###  |   |- and carried Demand 304,   24.0 containers from   4 to 294
###  |   |- and carried Demand 305,   26.0 containers from   4 to 196
###  |   |- and carried Demand 306,  144.0 containers from   4 to 196
###  |   |- and carried Demand 307,    1.0 containers from   4 to 196
###  |   |- and carried Demand 309,  339.0 containers from 342 to   4
###  |   |- and carried Demand 310,  115.0 containers from 342 to   4
###  |   |- and carried Demand 311,    3.0 containers from 342 to 284
###  |   |- and carried Demand 312,    2.0 containers from 342 to 294
###  |   |- and carried Demand 313,  194.0 containers from 326 to   4
###  |   |- and carried Demand 314,   49.0 containers from 326 to   4
###  |   |- and carried Demand 315,   40.0 containers from 326 to 294
###  |   |- and carried Demand 318,  842.0 containers from 332 to   4
###  |   |- and carried Demand 319,   99.0 containers from 332 to   4
###  |   |- and carried Demand 320,  123.0 containers from 332 to 294
###  |   |- and carried Demand 321,    1.0 containers from 332 to 294
###  |- Vessel 10 has the path [10, 316, 190, 0]
###  |  10 (BEANR Out@512.0) - 316 (TRAMB In@854.0/Out@881.0) - 190 (INNSA In@1016.0/Out@1032.0) - 0 (DUMMY_END Ziel-Service 
###  |  81)
###  |- Vessel 11 has the path [13, 313, 191, 0]
###  |  13 (BEANR Out@680.0) - 313 (TRALI In@946.0/Out@964.0) - 191 (INNSA In@1184.0/Out@1200.0) - 0 (DUMMY_END Ziel-Service 
###  |  81)
###  |- Vessel 12 has the path [16, 314, 192, 0]
###  |  16 (BEANR Out@848.0) - 314 (TRALI In@1114.0/Out@1132.0) - 192 (INNSA In@1352.0/Out@1368.0) - 0 (DUMMY_END Ziel-Servic
###  |  e 81)
###  |- Vessel 17 has the path [158, 2, 291, 292, 293, 283, 5, 295, 194, 195, 0]
###  |  158 (GBFXT Out@580.0) - 2 (AEJEA In@841.0/Out@865.0) - 291 (PKBQM In@922.0/Out@952.0) - 292 (PKBQM In@992.0/Out@1020.
###  |  0) - 293 (PKBQM In@1090.0/Out@1120.0) - 283 (OMSLL In@1167.0/Out@1182.0) - 5 (AEJEA In@1345.0/Out@1369.0) - 295 (PKBQ
###  |  M In@1426.0/Out@1456.0) - 194 (INNSA In@1590.0/Out@1622.0) - 195 (INNSA In@1688.0/Out@1704.0) - 0 (DUMMY_END Ziel-Ser
###  |  vice 81)
###  |   |- and carried Demand 120,  237.0 containers from 292 to 194
###  |   |- and carried Demand 121,    2.0 containers from 292 to 194
###  |   |- and carried Demand 123,   97.0 containers from 292 to 194
###  |   |- and carried Demand 283,  153.0 containers from   5 to 195
###  |   |- and carried Demand 284,   86.0 containers from   5 to 295
###  |   |- and carried Demand 285,  118.0 containers from   5 to 295
###  |   |- and carried Demand 323,  244.0 containers from 293 to 195
###  |   |- and carried Demand 324,   67.0 containers from 293 to 195
###  |   |- and carried Demand 333,  237.0 containers from 291 to 194
###  |   |- and carried Demand 334,    2.0 containers from 291 to 194
###  |   |- and carried Demand 336,   97.0 containers from 291 to 194
###  |   |- and carried Demand 338,  704.0 containers from   2 to 195
###  |   |- and carried Demand 339,    8.0 containers from   2 to 195
###  |   |- and carried Demand 340,  156.0 containers from   2 to 291
###  |   |- and carried Demand 341,   45.0 containers from   2 to 291
###  |   |- and carried Demand 342,   16.0 containers from   2 to 194
###  |   |- and carried Demand 343,  264.0 containers from   2 to 194
###  |- Vessel 18 has the path [161, 321, 193, 0]
###  |  161 (GBFXT Out@748.0) - 321 (TRGEM In@1087.0/Out@1095.0) - 193 (INNSA In@1520.0/Out@1536.0) - 0 (DUMMY_END Ziel-Servi
###  |  ce 81)
###  |
### Vessels not used in the solution: [1, 2, 3, 4, 5, 6, 7, 8, 13, 14, 15, 16, 20]
###  |-----------------------------------------------------------------------------------------------------------------------
###
#############################################################################################################################

### Detialed variable overview

### All variables with value greater zero:
rho[81,30] = 1
eta[81,30,1] = 1
eta[81,30,2] = 1
eta[81,30,3] = 1
eta[81,30,4] = 1
eta[81,30,5] = 1
eta[81,30,6] = 1
y[9,4,294] = 1
y[9,332,326] = 1
y[9,294,284] = 1
y[9,284,7] = 1
y[9,342,333] = 1
y[9,9,332] = 1
y[9,324,4] = 1
y[9,7,298] = 1
y[9,196,0] = 1
y[9,333,324] = 1
y[9,298,196] = 1
y[9,326,342] = 1
y[10,190,0] = 1
y[10,316,190] = 1
y[10,10,316] = 1
y[11,313,191] = 1
y[11,191,0] = 1
y[11,13,313] = 1
y[12,192,0] = 1
y[12,314,192] = 1
y[12,16,314] = 1
y[17,283,5] = 1
y[17,293,283] = 1
y[17,195,0] = 1
y[17,5,295] = 1
y[17,292,293] = 1
y[17,194,195] = 1
y[17,291,292] = 1
y[17,295,194] = 1
y[17,2,291] = 1
y[17,158,2] = 1
y[18,161,321] = 1
y[18,193,0] = 1
y[18,321,193] = 1
xD[120,283,5] = 237
xD[120,293,283] = 237
xD[120,5,295] = 237
xD[120,292,293] = 237
xD[120,295,194] = 237
xD[121,283,5] = 2
xD[121,293,283] = 2
xD[121,5,295] = 2
xD[121,292,293] = 2
xD[121,295,194] = 2
xD[123,283,5] = 97
xD[123,293,283] = 97
xD[123,5,295] = 97
xD[123,292,293] = 97
xD[123,295,194] = 97
xD[237,298,196] = 34
xD[238,7,298] = 84
xD[239,7,298] = 50
xD[283,5,295] = 153
xD[283,194,195] = 153
xD[283,295,194] = 153
xD[284,5,295] = 86
xD[285,5,295] = 118
xD[297,294,284] = 254
xD[297,284,7] = 254
xD[297,7,298] = 254
xD[297,298,196] = 254
xD[298,294,284] = 1
xD[298,284,7] = 1
xD[298,7,298] = 1
xD[298,298,196] = 1
xD[299,294,284] = 135
xD[299,284,7] = 135
xD[299,7,298] = 135
xD[299,298,196] = 135
xD[302,4,294] = 75
xD[302,294,284] = 75
xD[302,284,7] = 75
xD[302,7,298] = 75
xD[302,298,196] = 75
xD[303,4,294] = 200
xD[304,4,294] = 24
xD[305,4,294] = 26
xD[305,294,284] = 26
xD[305,284,7] = 26
xD[305,7,298] = 26
xD[305,298,196] = 26
xD[306,4,294] = 144
xD[306,294,284] = 144
xD[306,284,7] = 144
xD[306,7,298] = 144
xD[306,298,196] = 144
xD[307,4,294] = 1
xD[307,294,284] = 1
xD[307,284,7] = 1
xD[307,7,298] = 1
xD[307,298,196] = 1
xD[309,342,333] = 339
xD[309,324,4] = 339
xD[309,333,324] = 339
xD[310,342,333] = 115
xD[310,324,4] = 115
xD[310,333,324] = 115
xD[311,4,294] = 3
xD[311,294,284] = 3
xD[311,342,333] = 3
xD[311,324,4] = 3
xD[311,333,324] = 3
xD[312,4,294] = 2
xD[312,342,333] = 2
xD[312,324,4] = 2
xD[312,333,324] = 2
xD[313,342,333] = 194
xD[313,324,4] = 194
xD[313,333,324] = 194
xD[313,326,342] = 194
xD[314,342,333] = 49
xD[314,324,4] = 49
xD[314,333,324] = 49
xD[314,326,342] = 49
xD[315,4,294] = 40
xD[315,342,333] = 40
xD[315,324,4] = 40
xD[315,333,324] = 40
xD[315,326,342] = 40
xD[318,332,326] = 842
xD[318,342,333] = 842
xD[318,324,4] = 842
xD[318,333,324] = 842
xD[318,326,342] = 842
xD[319,332,326] = 99
xD[319,342,333] = 99
xD[319,324,4] = 99
xD[319,333,324] = 99
xD[319,326,342] = 99
xD[320,4,294] = 123
xD[320,332,326] = 123
xD[320,342,333] = 123
xD[320,324,4] = 123
xD[320,333,324] = 123
xD[320,326,342] = 123
xD[321,4,294] = 1
xD[321,332,326] = 1
xD[321,342,333] = 1
xD[321,324,4] = 1
xD[321,333,324] = 1
xD[321,326,342] = 1
xD[323,283,5] = 244
xD[323,293,283] = 244
xD[323,5,295] = 244
xD[323,194,195] = 244
xD[323,295,194] = 244
xD[324,283,5] = 67
xD[324,293,283] = 67
xD[324,5,295] = 67
xD[324,194,195] = 67
xD[324,295,194] = 67
xD[333,283,5] = 237
xD[333,293,283] = 237
xD[333,5,295] = 237
xD[333,292,293] = 237
xD[333,291,292] = 237
xD[333,295,194] = 237
xD[334,283,5] = 2
xD[334,293,283] = 2
xD[334,5,295] = 2
xD[334,292,293] = 2
xD[334,291,292] = 2
xD[334,295,194] = 2
xD[336,283,5] = 97
xD[336,293,283] = 97
xD[336,5,295] = 97
xD[336,292,293] = 97
xD[336,291,292] = 97
xD[336,295,194] = 97
xD[338,283,5] = 704
xD[338,293,283] = 704
xD[338,5,295] = 704
xD[338,292,293] = 704
xD[338,194,195] = 704
xD[338,291,292] = 704
xD[338,295,194] = 704
xD[338,2,291] = 704
xD[339,283,5] = 8
xD[339,293,283] = 8
xD[339,5,295] = 8
xD[339,292,293] = 8
xD[339,194,195] = 8
xD[339,291,292] = 8
xD[339,295,194] = 8
xD[339,2,291] = 8
xD[340,2,291] = 156
xD[341,2,291] = 45
xD[342,283,5] = 16
xD[342,293,283] = 16
xD[342,5,295] = 16
xD[342,292,293] = 16
xD[342,291,292] = 16
xD[342,295,194] = 16
xD[342,2,291] = 16
xD[343,283,5] = 264
xD[343,293,283] = 264
xD[343,5,295] = 264
xD[343,292,293] = 264
xD[343,291,292] = 264
xD[343,295,194] = 264
xD[343,2,291] = 264
zE[2] = 841
zE[4] = 1177
zE[5] = 1345
zE[7] = 1681
zE[190] = 1016
zE[191] = 1184
zE[192] = 1352
zE[193] = 1520
zE[194] = 1590
zE[195] = 1688
zE[196] = 1856
zE[283] = 1167
zE[284] = 1410
zE[291] = 922
zE[292] = 992
zE[293] = 1090
zE[294] = 1258
zE[295] = 1426
zE[298] = 1762
zE[313] = 946
zE[314] = 1114
zE[316] = 854
zE[321] = 1087
zE[324] = 1063
zE[326] = 656
zE[332] = 608
zE[333] = 728
zE[342] = 691
zX[2] = 865
zX[4] = 1201
zX[5] = 1369
zX[7] = 1705
zX[9] = 344
zX[10] = 512
zX[13] = 680
zX[16] = 848
zX[158] = 580
zX[161] = 748
zX[190] = 1032
zX[191] = 1200
zX[192] = 1368
zX[193] = 1536
zX[194] = 1622
zX[195] = 1704
zX[196] = 1872
zX[283] = 1182
zX[284] = 1423
zX[291] = 952
zX[292] = 1020
zX[293] = 1120
zX[294] = 1288
zX[295] = 1456
zX[298] = 1792
zX[313] = 964
zX[314] = 1132
zX[316] = 881
zX[321] = 1095
zX[324] = 1077
zX[326] = 666
zX[332] = 618
zX[333] = 744
zX[342] = 704
phi[9] = 1528
phi[10] = 520
phi[11] = 520
phi[12] = 520
phi[17] = 1124
phi[18] = 788

### All variables with value smaller zero:

### End

real	19m34.800s
user	60m13.603s
sys	4m28.938s
	OpenBLAS 0.2.6 environment removed
	Freetype 2.4.12 environment removed
	Python 3.6.0 environment removed
	Gurobi 8.1.0 environment removed
