	OpenBLAS 0.2.6 environment established
		compiled with gcc for max. 16 cores
	Freetype 2.4.12 environment established
		library to render fonts
	Python 3.6.0 environment established
	Gurobi 8.1.0 environment established
Instance LSFRP: LSFDRP_4_3_3_1_fr.p
Instance LSFDP: LSFDRP_4_3_3_1_fd_22.p

*****************************************************************************************************************************
*** Solve LSFDRP_4_3_3_1_fd_22 with Gurobi
***
*** Graph info
*** |S|: 19
*** |S^E|: 0
*** |S^C|: 1
*** |V|: 347
*** |A|: 8382
*** |A^i|: 8382
*** |A^f|: 0
*** |M|: 343
*** |E|: 0

Changed value of parameter NumericFocus to 1
   Prev: 0  Min: 0  Max: 3  Default: 0
Changed value of parameter TimeLimit to 86400.0
   Prev: 1e+100  Min: 0.0  Max: 1e+100  Default: 1e+100
Changed value of parameter Threads to 4
   Prev: 0  Min: 0  Max: 1024  Default: 0
Optimize a model with 143928 rows, 3051766 columns and 10894259 nonzeros
Variable types: 2892487 continuous, 159279 integer (159279 binary)
Coefficient statistics:
  Matrix range     [1e+00, 4e+03]
  Objective range  [4e+01, 1e+08]
  Bounds range     [1e+00, 1e+00]
  RHS range        [1e+00, 6e+00]
Presolve removed 134970 rows and 2911454 columns (presolve time = 5s) ...
Presolve removed 136133 rows and 2913296 columns (presolve time = 12s) ...
Presolve removed 136133 rows and 2919395 columns (presolve time = 52s) ...
Presolve removed 136254 rows and 2919622 columns (presolve time = 56s) ...
Presolve removed 136254 rows and 2919622 columns
Presolve time: 58.38s
Presolved: 7674 rows, 132144 columns, 453518 nonzeros
Variable types: 4833 continuous, 127311 integer (127273 binary)

Root simplex log...

Iteration    Objective       Primal Inf.    Dual Inf.      Time
       0    9.3484069e+09   1.418943e+06   0.000000e+00     60s
   20476    9.9320027e+06   6.277852e+05   0.000000e+00     65s
   26026    8.8135747e+06   4.280948e+04   0.000000e+00     70s
   31548    7.3138891e+06   1.221729e+04   0.000000e+00     75s
   36128    5.6802177e+06   9.880342e+03   0.000000e+00     80s
   37918    5.4882751e+06   0.000000e+00   0.000000e+00     83s

Root relaxation: objective 5.488275e+06, 37918 iterations, 22.54 seconds

    Nodes    |    Current Node    |     Objective Bounds      |     Work
 Expl Unexpl |  Obj  Depth IntInf | Incumbent    BestBd   Gap | It/Node Time

     0     0 5488275.07    0  187          - 5488275.07      -     -   85s
H    0     0                    -766055.1498 5488275.07   816%     -   86s
H    0     0                    1160531.7009 5488275.07   373%     -  138s
     0     0 3637980.86    0  187 1160531.70 3637980.86   213%     -  140s
     0     0 3637980.86    0  156 1160531.70 3637980.86   213%     -  150s
     0     0 3637980.86    0  144 1160531.70 3637980.86   213%     -  158s
     0     0 3637980.86    0  146 1160531.70 3637980.86   213%     -  158s
     0     0 3630186.39    0  165 1160531.70 3630186.39   213%     -  159s
     0     0 3630186.39    0  165 1160531.70 3630186.39   213%     -  163s
     0     0 3630186.39    0  146 1160531.70 3630186.39   213%     -  169s
     0     0 3630186.39    0  166 1160531.70 3630186.39   213%     -  169s
     0     0 3620955.05    0  163 1160531.70 3620955.05   212%     -  170s
     0     0 3613021.68    0  173 1160531.70 3613021.68   211%     -  171s
     0     0 3612147.56    0  180 1160531.70 3612147.56   211%     -  171s
     0     0 3611939.91    0  176 1160531.70 3611939.91   211%     -  172s
     0     0 3611167.98    0  180 1160531.70 3611167.98   211%     -  172s
     0     0 3609836.78    0  180 1160531.70 3609836.78   211%     -  172s
     0     0 3608434.88    0  176 1160531.70 3608434.88   211%     -  172s
     0     0 3608434.88    0  176 1160531.70 3608434.88   211%     -  177s
     0     0 3608434.88    0   85 1160531.70 3608434.88   211%     -  182s
     0     0 3608434.88    0  153 1160531.70 3608434.88   211%     -  185s
     0     0 3596189.97    0  167 1160531.70 3596189.97   210%     -  185s
     0     0 3592667.88    0  173 1160531.70 3592667.88   210%     -  186s
     0     0 3591887.27    0  172 1160531.70 3591887.27   210%     -  186s
     0     0 3591647.52    0  174 1160531.70 3591647.52   209%     -  187s
     0     0 3591595.41    0  175 1160531.70 3591595.41   209%     -  187s
     0     0 3591595.41    0  175 1160531.70 3591595.41   209%     -  190s
     0     2 3591595.41    0  175 1160531.70 3591595.41   209%     -  191s
     3     7 3436734.25    2  141 1160531.70 3588084.58   209%   776  195s
    27    26 3114271.24    7  156 1160531.70 3474719.26   199%   614  207s
    53    47 2939797.54   12  115 1160531.70 3474719.26   199%   515  210s
   136   117 2824236.12   24  154 1160531.70 3474719.26   199%   362  215s
   253   203 2653696.90   38   78 1160531.70 3469917.25   199%   293  220s
   404   268 3336560.09    6   87 1160531.70 3412590.07   194%   295  225s
   528   348     cutoff   41      1160531.70 3380117.89   191%   321  230s
   698   446 2349101.70    9   48 1160531.70 3377061.41   191%   325  235s
   900   549 2588607.02   17   55 1160531.70 3205305.22   176%   330  241s
  1029   632 2579898.09   14  187 1160531.70 3190693.82   175%   319  264s
  1031   633 2805497.18   24   82 1160531.70 3190693.82   175%   319  269s
  1032   634 2707554.51   39  146 1160531.70 3190693.82   175%   319  270s
  1036   637 2895007.46   16  182 1160531.70 3190693.82   175%   317  275s
  1038   641 3190693.82   10  165 1160531.70 3190693.82   175%   337  286s
  1040   644 3190693.82   11  152 1160531.70 3190693.82   175%   338  294s
  1044   647 3182198.95   12  155 1160531.70 3190693.82   175%   342  296s
  1060   659 3097835.51   14  177 1160531.70 3190693.82   175%   346  300s
  1068   656 3082263.50   15  152 1160531.70 3190693.82   175%   348  305s
H 1069   626                    1185896.1031 3190693.82   169%   348  305s
  1094   640 3065462.18   18  141 1185896.10 3190693.82   169%   355  310s
  1193   678 2507818.12   22   60 1185896.10 3190693.82   169%   358  315s
  1329   730 2093140.00   31   36 1185896.10 3190693.82   169%   355  321s
  1443   742 1791984.69   47   24 1185896.10 3190693.82   169%   355  325s
  1653   793     cutoff   34      1185896.10 3090883.64   161%   333  330s
  1904   850 1694365.03   34   60 1185896.10 3004386.18   153%   319  335s
  2000   884 2612042.61   25   87 1185896.10 3004386.18   153%   314  341s
  2143   913 2832375.24   21  145 1185896.10 2966143.59   150%   313  345s
  2378   979 2037981.23   49  152 1185896.10 2943497.91   148%   308  351s
H 2590  1010                    1215540.7969 2912357.52   140%   300  356s
H 2602   983                    1223944.1136 2912357.52   138%   301  356s
  2837  1078 2100985.74   24   57 1223944.11 2855321.26   133%   295  361s
  2990  1147 2818824.30   20   94 1223944.11 2843259.46   132%   298  365s
  3141  1225 2330834.48   33   78 1223944.11 2843259.46   132%   303  370s
  3576  1400 1742806.27   21   84 1223944.11 2801275.60   129%   297  377s
  3837  1562 2636284.70   30  118 1223944.11 2791657.12   128%   295  382s
H 3972  1629                    1260001.3264 2791657.12   122%   294  385s
  4169  1704     cutoff   62      1260001.33 2772318.30   120%   294  390s
  4447  1811 1539870.65   34   89 1260001.33 2753713.96   119%   296  396s
  4770  1990 1795574.91   32   89 1260001.33 2745601.38   118%   296  402s
  4985  2071 1699009.90   25   78 1260001.33 2724077.93   116%   295  406s
  5156  2164     cutoff   36      1260001.33 2716661.56   116%   294  410s
  5419  2265 1953686.47   40   31 1260001.33 2705838.84   115%   292  419s
  5587  2347 1999950.02   34  148 1260001.33 2703925.59   115%   291  423s
  5795  2438     cutoff   25      1260001.33 2695294.61   114%   290  429s
H 5952  2457                    1285365.7288 2693462.14   110%   288  429s
  6047  2516 1532848.69   29   36 1285365.73 2686586.49   109%   288  433s
  6291  2600 1397636.80   29   64 1285365.73 2681855.33   109%   287  438s
  6586  2730 2001660.19   26   24 1285365.73 2672327.31   108%   284  447s
  6851  2850 2487851.44   28   80 1285365.73 2672327.31   108%   281  452s
  7003  2939 1368083.62   61   52 1285365.73 2662029.81   107%   282  457s
  7341  3006 1762287.75   32   92 1285365.73 2660055.86   107%   281  463s
  7807  3252 1890589.88   43   91 1285365.73 2635295.51   105%   277  470s
H 7873  3252                    1285365.7309 2635295.51   105%   276  470s
  8125  3403 2318619.69   38  141 1285365.73 2628929.09   105%   274  476s
  8567  3545 1849568.26   29  112 1285365.73 2614539.05   103%   273  482s
  8891  3691 1544868.45   45   29 1285365.73 2604936.95   103%   272  488s
  9411  3914 1503130.06   33   30 1285365.73 2595345.28   102%   269  496s
  9930  4146 1304425.92   41   42 1285365.73 2581114.16   101%   267  502s
 10428  4390 2056733.11   32   98 1285365.73 2568283.56   100%   264  513s
 10837  4544 2116116.05   29   78 1285365.73 2561859.38  99.3%   264  520s
 11420  4770 2432375.76   21   73 1285365.73 2552100.10  98.6%   263  527s
 12050  5014 1977307.22   34   60 1285365.73 2524839.45  96.4%   263  535s
 12347  5108 1958561.84   23   76 1285365.73 2516408.84  95.8%   262  541s
 12883  5307 infeasible   36      1285365.73 2504633.32  94.9%   262  550s
 13275  5446 1559437.76   32   46 1285365.73 2496036.35  94.2%   261  557s
 13747  5614 1638266.28   37  129 1285365.73 2489033.82  93.6%   262  564s
 14152  5713     cutoff   26      1285365.73 2483578.48  93.2%   261  571s
 14593  5829 2339625.95   24   87 1285365.73 2466919.31  91.9%   262  578s
 15138  5994 1999221.59   28  126 1285365.73 2458143.15  91.2%   262  585s
 15615  6154     cutoff   24      1285365.73 2442893.46  90.1%   263  598s
H15856  6183                    1285365.7316 2442101.80  90.0%   262  598s
 16099  6276 1777309.31   34   94 1285365.73 2432137.59  89.2%   263  605s
 16514  6394 1697363.08   34  121 1285365.73 2425762.89  88.7%   262  612s
 16966  6539 1883464.01   34  110 1285365.73 2421257.85  88.4%   263  619s
 17455  6653 1724543.38   38  100 1285365.73 2410027.91  87.5%   263  627s
 17900  6817 1424104.37   38   62 1285365.73 2399231.18  86.7%   263  634s
 18516  6988     cutoff   28      1285365.73 2389590.94  85.9%   262  640s
 18991  7106 2282188.40   31   58 1285365.73 2380583.30  85.2%   262  647s
 19544  7240 1889894.14   28   81 1285365.73 2359189.71  83.5%   262  655s
 19878  7313     cutoff   29      1285365.73 2355877.20  83.3%   263  661s
 20436  7496 2335599.61   15  102 1285365.73 2350145.55  82.8%   262  668s
 20757  7525 1722848.00   33   99 1285365.73 2333658.57  81.6%   262 1012s
 21338  7713     cutoff   30      1285365.73 2326886.75  81.0%   261 1018s
 21578  7777 1306615.50   28   97 1285365.73 2320234.16  80.5%   262 1023s
 21779  7799 1298684.51   47   69 1285365.73 2314474.17  80.1%   264 1029s
 21942  7862 1652238.60   53  126 1285365.73 2311863.90  79.9%   266 1034s
 22088  7903 1593957.04   26   64 1285365.73 2309293.47  79.7%   268 1040s
 22213  7950 2059495.04   36   36 1285365.73 2309118.39  79.6%   268 1045s
 22379  8001 1852636.88   39  100 1285365.73 2306892.29  79.5%   270 1051s
 22599  8094 2115289.03   28   78 1285365.73 2300925.49  79.0%   272 1057s
 22800  8114 2200093.18   29  110 1285365.73 2297546.31  78.7%   273 1063s
 22997  8181 1297516.91   50  164 1285365.73 2295690.19  78.6%   275 1071s
 23163  8225     cutoff   31      1285365.73 2291772.43  78.3%   277 1077s
 23307  8273     cutoff   31      1285365.73 2289353.90  78.1%   279 1083s
 23522  8312 1801135.94   33   33 1285365.73 2281993.74  77.5%   281 1090s
 23759  8393 1900401.21   28  141 1285365.73 2280331.99  77.4%   283 1096s
 23916  8406 1500525.61   31   74 1285365.73 2277712.56  77.2%   285 1102s
 24106  8464 1548644.11   32  144 1285365.73 2272781.37  76.8%   287 1110s
 24317  8516 2139368.39   33  216 1285365.73 2268991.43  76.5%   290 1116s
 24488  8548 1345413.23   31   78 1285365.73 2267674.19  76.4%   291 1122s
 24678  8593 1940895.54   38  147 1285365.73 2264401.21  76.2%   294 1129s
 24789  8630 1574991.71   68  129 1285365.73 2263556.83  76.1%   295 1136s
 24992  8663 1572609.61   31   61 1285365.73 2256837.41  75.6%   297 1143s
 25214  8715 1824811.90   27  108 1285365.73 2253350.11  75.3%   299 1149s
 25362  8750 1622438.87   30   30 1285365.73 2249976.89  75.0%   300 1156s
 25604  8820 1461325.65   39   41 1285365.73 2247626.74  74.9%   301 1162s
 25882  8897 1727454.70   32   33 1285365.73 2242508.82  74.5%   303 1171s
 26074  8910 2091770.63   25   65 1285365.73 2237040.48  74.0%   305 1180s
 26336  8978 1999622.62   23  172 1285365.73 2233841.62  73.8%   307 1187s
 26602  9033 1527977.05   43   56 1285365.73 2230165.63  73.5%   308 1196s
 26839  9072 1857461.24   29  114 1285365.73 2223620.25  73.0%   310 1203s
 27015  9126     cutoff   46      1285365.73 2220835.01  72.8%   312 1211s
 27236  9169 1645542.94   29  128 1285365.73 2215944.61  72.4%   314 1219s
 27485  9230 1290690.19   44  146 1285365.73 2212835.75  72.2%   316 1227s
 27655  9244     cutoff   26      1285365.73 2209404.21  71.9%   318 1236s
 27848  9290 1460082.12   26  146 1285365.73 2206147.23  71.6%   320 1243s
 28068  9335     cutoff   32      1285365.73 2202008.14  71.3%   322 1251s
 28275  9370 1757531.59   31   61 1285365.73 2199730.30  71.1%   324 1259s
 28582  9466 1917355.89   40  109 1285365.73 2194704.90  70.7%   326 1271s
 28621  9434     cutoff   46      1285365.73 2193175.84  70.6%   326 1279s
 28888  9504 1574893.51   29  160 1285365.73 2189394.19  70.3%   328 1288s
 29120  9550 2070259.78   30   79 1285365.73 2185636.56  70.0%   330 1297s
 29518  9629 1320837.33   38   98 1285365.73 2178687.64  69.5%   331 1305s
 29783  9696     cutoff   37      1285365.73 2175981.64  69.3%   333 1313s
 30034  9742     cutoff   24      1285365.73 2170706.37  68.9%   334 1322s
 30311  9821 1566701.55   40  125 1285365.73 2167638.91  68.6%   336 1330s
 30533  9849 1654207.83   31   39 1285365.73 2163571.53  68.3%   337 1339s
 30844  9932 1544590.56   24   88 1285365.73 2157960.68  67.9%   338 1348s
 31088  9974     cutoff   35      1285365.73 2157167.19  67.8%   340 1361s
 31336 10028 1694271.40   32  120 1285365.73 2151915.52  67.4%   342 1370s
 31604 10088 1698320.79   44  142 1285365.73 2149752.50  67.2%   344 1379s
 31988 10186 1410419.62   34   65 1285365.73 2143710.96  66.8%   345 1388s
 32293 10202     cutoff   34      1285365.73 2136301.44  66.2%   346 1397s
 32736 10313 1976442.33   28   39 1285365.73 2132192.80  65.9%   346 1407s
 33040 10378 1814094.12   27  101 1285365.73 2127985.22  65.6%   348 1416s
 33365 10441     cutoff   37      1285365.73 2124428.10  65.3%   349 1450s
 33629 10473     cutoff   43      1285365.73 2122273.73  65.1%   350 1459s
 33998 10553 1706367.68   31   83 1285365.73 2118527.79  64.8%   351 1469s
 34285 10602 1385595.97   37  167 1285365.73 2115839.39  64.6%   353 1480s
 34582 10627 1961874.12   36  159 1285365.73 2113981.80  64.5%   355 1489s
 34938 10707     cutoff   35      1285365.73 2109350.31  64.1%   356 1499s
 35284 10776 1644134.14   28  148 1285365.73 2105371.97  63.8%   357 1509s
 35653 10869 1497725.15   51   85 1285365.73 2102835.00  63.6%   359 1519s
 35929 10940 2012890.27   34   70 1285365.73 2098783.44  63.3%   360 1530s
 36283 11009     cutoff   44      1285365.73 2094516.51  63.0%   361 1539s
 36642 11088 1632410.23   39  128 1285365.73 2090765.93  62.7%   362 1550s
 36929 11159 1943174.55   38  132 1285365.73 2087727.88  62.4%   363 1561s
 37267 11265 1476410.80   20   75 1285365.73 2085014.29  62.2%   363 1571s
 37612 11331     cutoff   31      1285365.73 2082306.18  62.0%   365 1583s
 37928 11340 1657697.88   32   26 1285365.73 2078312.23  61.7%   366 1594s
 38332 11379 1433993.73   31   48 1285365.73 2072405.28  61.2%   367 1604s
 38631 11395 1998686.13   29  109 1285365.73 2067607.98  60.9%   369 1615s
 38947 11428 1636652.76   40   97 1285365.73 2064599.76  60.6%   370 1625s
 39317 11503 1728242.71   33  146 1285365.73 2059759.02  60.2%   371 1636s
 39525 11526 1998999.06   33   47 1285365.73 2059386.77  60.2%   372 1647s
 39845 11561 1848870.53   39  103 1285365.73 2057119.92  60.0%   374 1658s
 40275 11628 1881196.94   27   95 1285365.73 2051382.18  59.6%   375 1669s
 40606 11668 1406401.15   31   87 1285365.73 2048411.70  59.4%   376 1679s
 40917 11707 1877019.15   23  119 1285365.73 2044285.84  59.0%   378 1690s
 41269 11787     cutoff   31      1285365.73 2041568.45  58.8%   379 1726s
 41461 11810 1605501.76   45   54 1285365.73 2040214.36  58.7%   379 1740s
 41769 11849 1916135.50   42   57 1285365.73 2036841.64  58.5%   381 1752s
 42176 11940 1535437.56   30  119 1285365.73 2034712.55  58.3%   382 1764s
 42597 12024 1722011.52   31   37 1285365.73 2034008.12  58.2%   383 1774s
 42880 12055 1957426.53   32  111 1285365.73 2029898.13  57.9%   384 1786s
 43209 12093 1765328.86   27   72 1285365.73 2026610.09  57.7%   385 1797s
 43593 12097 1913702.71   31   27 1285365.73 2023138.34  57.4%   386 1808s
 44070 12173     cutoff   36      1285365.73 2018885.27  57.1%   387 1820s
 44542 12251     cutoff   30      1285365.73 2014963.50  56.8%   387 1833s
 44815 12296 1847820.74   28  181 1285365.73 2012615.64  56.6%   387 1844s
 45201 12346 infeasible   45      1285365.73 2008866.54  56.3%   388 1855s
 45626 12365 1909012.86   31   41 1285365.73 2004309.78  55.9%   389 1867s
 45979 12401 1429246.48   28   45 1285365.73 2001397.14  55.7%   390 1878s
 46339 12425 1536319.32   41  139 1285365.73 1997794.97  55.4%   391 1889s
 46765 12472     cutoff   29      1285365.73 1995202.76  55.2%   392 1901s
 47187 12528 1553517.86   45  142 1285365.73 1992207.62  55.0%   393 1912s
 47563 12567 1957404.78   35   47 1285365.73 1990783.50  54.9%   394 1924s
 47927 12617 1806068.56   32  138 1285365.73 1987413.49  54.6%   395 1935s
 48389 12668     cutoff   37      1285365.73 1984766.06  54.4%   396 1946s
 48812 12698     cutoff   35      1285365.73 1981702.10  54.2%   397 1958s
 49275 12768 1727832.59   39  137 1285365.73 1977813.63  53.9%   397 1969s
 49749 12836 1482834.55   42   72 1285365.73 1972958.37  53.5%   398 1981s
 50169 12907 1422616.20   31   69 1285365.73 1970003.06  53.3%   399 1993s
 50549 12967 1399733.61   41   96 1285365.73 1966732.45  53.0%   399 2004s
 51029 13105 1928553.21   39  138 1285365.73 1962991.34  52.7%   399 2016s
 51226 13106 1478999.98   32  110 1285365.73 1961032.67  52.6%   400 2027s
 51576 13120 1509403.07   33  132 1285365.73 1959678.64  52.5%   401 2040s
 51943 13147     cutoff   32      1285365.73 1954999.83  52.1%   402 2054s
 52358 13164 1890382.87   37   42 1285365.73 1952314.80  51.9%   402 2066s
 52822 13214     cutoff   27      1285365.73 1949274.14  51.7%   402 2077s
 53183 13219 1462791.75   41   32 1285365.73 1945927.47  51.4%   403 2088s
 53634 13285     cutoff   48      1285365.73 1942239.08  51.1%   404 2100s
 54126 13370     cutoff   35      1285365.73 1938754.98  50.8%   404 2111s
 54488 13383 1700605.24   42   36 1285365.73 1936728.28  50.7%   405 2122s
 54844 13392     cutoff   26      1285365.73 1932656.02  50.4%   406 2134s
 55203 13391     cutoff   32      1285365.73 1930172.88  50.2%   407 2145s
 55615 13449 1728758.91   30   50 1285365.73 1927577.88  50.0%   407 2155s
 56050 13472     cutoff   42      1285365.73 1923618.80  49.7%   407 2167s
 56582 13514     cutoff   35      1285365.73 1920183.68  49.4%   407 2178s
 57051 13538 1869642.05   34   98 1285365.73 1916898.96  49.1%   407 2189s
 57475 13545     cutoff   25      1285365.73 1912888.46  48.8%   407 2200s
 57962 13597 1488665.70   34   78 1285365.73 1910462.39  48.6%   408 2211s
 58417 13677 1802617.50   29   52 1285365.73 1908208.49  48.5%   408 2222s
 58759 13701 1678539.40   46  154 1285365.73 1906449.66  48.3%   408 2232s
 59114 13722 1592649.13   27   23 1285365.73 1903379.51  48.1%   408 2244s
 59460 13768 infeasible   31      1285365.73 1900849.62  47.9%   409 2255s
 59821 13788 1380756.86   33   67 1285365.73 1899596.24  47.8%   409 2265s
 60200 13780     cutoff   21      1285365.73 1896083.84  47.5%   410 2277s
 60694 13806 1591567.85   28   46 1285365.73 1893418.92  47.3%   410 2287s
 61137 13815     cutoff   44      1285365.73 1889707.82  47.0%   410 2298s
 61472 13804     cutoff   29      1285365.73 1888090.54  46.9%   411 2308s
 61880 13791 1437702.84   46   38 1285365.73 1885573.11  46.7%   411 2319s
 62305 13803 1479589.36   40  151 1285365.73 1882339.15  46.4%   411 2333s
 62696 13822     cutoff   23      1285365.73 1879350.87  46.2%   412 2344s
 63156 13870     cutoff   36      1285365.73 1877135.18  46.0%   412 2354s
 63540 13928 1688544.49   35   91 1285365.73 1874867.12  45.9%   413 2366s
 63742 13899 1302124.41   33  105 1285365.73 1873932.15  45.8%   413 2377s
 64134 13910     cutoff   38      1285365.73 1871258.39  45.6%   413 2388s
 64563 13949 1794468.35   35   78 1285365.73 1868902.99  45.4%   413 2398s
 65028 13978     cutoff   35      1285365.73 1866116.85  45.2%   413 2410s
 65496 13979 1854856.40   31  116 1285365.73 1862910.39  44.9%   413 2420s
 65873 13963 1827114.70   29  113 1285365.73 1860270.69  44.7%   414 2431s
 66338 14013     cutoff   19      1285365.73 1857588.07  44.5%   414 2441s
 66716 14012 1800924.32   42  155 1285365.73 1855764.31  44.4%   414 2452s
 67088 14023     cutoff   36      1285365.73 1853560.48  44.2%   415 2461s
 67429 14014 1623977.42   38  134 1285365.73 1852586.23  44.1%   415 2471s
 67902 14062     cutoff   47      1285365.73 1849475.07  43.9%   415 2481s
 68418 14083 1638449.84   38  140 1285365.73 1846226.19  43.6%   415 2491s
 68852 14084     cutoff   45      1285365.73 1843672.72  43.4%   415 2501s
 69242 14055 1576474.76   33   83 1285365.73 1839959.57  43.1%   415 2511s
 69725 14067 1637185.81   31   34 1285365.73 1837755.27  43.0%   414 2520s
 70168 14079     cutoff   51      1285365.73 1835080.41  42.8%   414 2530s
 70576 14093     cutoff   33      1285365.73 1833694.28  42.7%   414 2539s
 70970 14113 1695392.74   42  134 1285365.73 1831310.45  42.5%   414 2549s
 71322 14117     cutoff   46      1285365.73 1828275.58  42.2%   415 2558s
 71731 14134     cutoff   29      1285365.73 1827223.17  42.2%   415 2568s
 72104 14135     cutoff   55      1285365.73 1823158.27  41.8%   415 2577s
 72568 14156 1352444.08   37   65 1285365.73 1821259.81  41.7%   415 2590s
 72993 14157     cutoff   40      1285365.73 1820333.49  41.6%   415 2600s
 73433 14201 1754588.76   35   53 1285365.73 1817306.21  41.4%   414 2609s
 73821 14199     cutoff   19      1285365.73 1815396.17  41.2%   415 2625s
 74274 14203 1515057.12   46   57 1285365.73 1812728.37  41.0%   414 2635s
 74708 14207 1423121.17   37   84 1285365.73 1810655.05  40.9%   414 2643s
 75170 14229 1612943.62   37   38 1285365.73 1808130.83  40.7%   414 2653s
 75692 14266     cutoff   38      1285365.73 1806113.28  40.5%   413 2662s
 76054 14232     cutoff   31      1285365.73 1803929.68  40.3%   414 2671s
 76475 14257     cutoff   37      1285365.73 1801931.79  40.2%   413 2680s
 76817 14244     cutoff   37      1285365.73 1799604.16  40.0%   413 2689s
 77214 14245     cutoff   27      1285365.73 1796747.39  39.8%   413 2698s
 77593 14248 1657609.15   28  161 1285365.73 1795742.22  39.7%   413 2706s
 77928 14240 1626675.53   27  119 1285365.73 1793976.68  39.6%   413 2715s
 78274 14215     cutoff   41      1285365.73 1792045.42  39.4%   413 2724s
 78664 14215 1332285.74   33   77 1285365.73 1789821.94  39.2%   413 2733s
 79007 14187 1761893.44   39   58 1285365.73 1788140.51  39.1%   413 2742s
 79368 14182 1434762.13   48  126 1285365.73 1786169.29  39.0%   413 2750s
 79784 14192 1420141.14   33   88 1285365.73 1783571.10  38.8%   413 2759s
 80175 14178 1674333.68   30   29 1285365.73 1780929.84  38.6%   413 2768s
 80495 14149     cutoff   25      1285365.73 1779387.42  38.4%   414 2777s
 80823 14145     cutoff   42      1285365.73 1776749.48  38.2%   414 2786s
 81242 14151 1564015.04   43  107 1285365.73 1774899.09  38.1%   414 2794s
 81664 14160     cutoff   40      1285365.73 1773167.27  38.0%   414 2802s
 82150 14195 1760209.92   32   53 1285365.73 1770716.40  37.8%   413 2811s
 82460 14146     cutoff   35      1285365.73 1769133.20  37.6%   413 2819s
 82847 14130 1460762.33   37   88 1285365.73 1767634.19  37.5%   413 2827s
 83215 14127     cutoff   40      1285365.73 1764960.80  37.3%   413 2837s
 83450 14072     cutoff   36      1285365.73 1763835.70  37.2%   413 2846s
 83756 14044     cutoff   26      1285365.73 1761423.43  37.0%   414 2854s
 84102 14017     cutoff   38      1285365.73 1759831.79  36.9%   414 2863s
 84477 14019     cutoff   26      1285365.73 1757411.38  36.7%   414 2911s
 84729 13983 1653446.85   37   32 1285365.73 1755320.65  36.6%   414 2920s
 85038 13937 1707702.92   29   59 1285365.73 1753355.57  36.4%   414 2929s
 85381 13926     cutoff   43      1285365.73 1751290.54  36.2%   414 2938s
 85756 13916 1619924.79   42   49 1285365.73 1749764.40  36.1%   414 2947s
 86100 13898     cutoff   37      1285365.73 1747936.18  36.0%   414 2956s
 86452 13884     cutoff   45      1285365.73 1746212.44  35.9%   414 2964s
 86740 13842     cutoff   45      1285365.73 1744332.03  35.7%   415 2972s
 87084 13798     cutoff   21      1285365.73 1742231.23  35.5%   415 2979s
 87377 13744     cutoff   44      1285365.73 1740245.55  35.4%   414 2988s
 87685 13725 1416294.41   29   61 1285365.73 1738306.75  35.2%   415 2996s
 88015 13700 1737994.24   44  161 1285365.73 1737994.24  35.2%   415 3005s
 88360 13693     cutoff   33      1285365.73 1735448.45  35.0%   415 3014s
 88686 13704     cutoff   46      1285365.73 1733948.48  34.9%   415 3023s
 88857 13633     cutoff   42      1285365.73 1732847.12  34.8%   415 3031s
 89257 13618     cutoff   31      1285365.73 1731202.87  34.7%   415 3040s
 89565 13581     cutoff   35      1285365.73 1729282.37  34.5%   415 3048s
 89831 13527     cutoff   29      1285365.73 1727832.59  34.4%   415 3055s
 90173 13490     cutoff   22      1285365.73 1725600.93  34.2%   415 3063s
 90448 13452     cutoff   40      1285365.73 1723574.13  34.1%   415 3072s
 90795 13432 1640552.36   36   97 1285365.73 1722093.17  34.0%   415 3080s
 91122 13386 1570538.03   23   90 1285365.73 1720116.68  33.8%   415 3089s
 91499 13377 1553339.54   35   53 1285365.73 1717829.24  33.6%   415 3098s
 91858 13329 1502525.50   46   85 1285365.73 1716236.87  33.5%   415 3105s
 92236 13300 1468075.61   34   37 1285365.73 1714099.80  33.4%   415 3114s
 92562 13257 1643310.85   66   83 1285365.73 1712221.85  33.2%   415 3122s
 92955 13270 1654901.50   32   57 1285365.73 1710139.79  33.0%   415 3130s
 93246 13221 1658498.25   36  109 1285365.73 1707737.38  32.9%   415 3138s
 93570 13181     cutoff   43      1285365.73 1705819.37  32.7%   415 3146s
 93866 13134 1373818.91   57  114 1285365.73 1704246.09  32.6%   415 3155s
 94199 13112 1565529.59   40   62 1285365.73 1702553.41  32.5%   415 3164s
 94523 13060 1455782.40   41  116 1285365.73 1700781.63  32.3%   415 3172s
 94895 13038     cutoff   30      1285365.73 1698774.35  32.2%   415 3178s
 95221 13001 1290608.01   43   25 1285365.73 1696882.87  32.0%   415 3187s
 95566 12978     cutoff   26      1285365.73 1695338.40  31.9%   415 3194s
 95920 12960     cutoff   23      1285365.73 1693264.97  31.7%   415 3202s
 96212 12915     cutoff   35      1285365.73 1691211.34  31.6%   415 3209s
 96558 12881     cutoff   36      1285365.73 1689431.59  31.4%   415 3217s
 96873 12830     cutoff   45      1285365.73 1687572.10  31.3%   415 3225s
 97242 12794     cutoff   36      1285365.73 1685769.99  31.2%   415 3232s
 97569 12761     cutoff   37      1285365.73 1683883.40  31.0%   415 3240s
 97814 12706 1430411.97   37   93 1285365.73 1683039.87  30.9%   415 3248s
 98141 12683 1652728.13   19  151 1285365.73 1680293.80  30.7%   415 3258s
 98412 12630     cutoff   46      1285365.73 1678811.73  30.6%   415 3265s
 98659 12582     cutoff   21      1285365.73 1676713.49  30.4%   415 3274s
 98875 12530 1564194.59   45   28 1285365.73 1676038.65  30.4%   415 3280s
 99171 12482 1344434.20   38   47 1285365.73 1673458.73  30.2%   415 3285s
 99458 12447     cutoff   42      1285365.73 1671370.68  30.0%   415 3292s
 99797 12413 1407332.71   38  118 1285365.73 1669624.15  29.9%   415 3299s
 100084 12369     cutoff   31      1285365.73 1667786.03  29.8%   414 3308s
 100403 12323     cutoff   34      1285365.73 1666069.90  29.6%   415 3314s
 100720 12296 1586632.16   24  174 1285365.73 1664083.90  29.5%   414 3321s
 101036 12261     cutoff   26      1285365.73 1663388.43  29.4%   414 3329s
 101341 12221     cutoff   31      1285365.73 1661248.45  29.2%   414 3337s
 101686 12191 1594785.38   38   96 1285365.73 1659250.01  29.1%   414 3345s
 101983 12146 1601311.59   45  154 1285365.73 1657433.01  28.9%   414 3352s
 102311 12096     cutoff   33      1285365.73 1655885.56  28.8%   414 3359s
 102555 12024 1407721.70   31   61 1285365.73 1653937.46  28.7%   414 3364s
 102799 11974 1306277.12   45   67 1285365.73 1652276.02  28.5%   414 3372s
 103066 11922     cutoff   39      1285365.73 1651251.87  28.5%   414 3378s
 103294 11852 1321917.52   51   91 1285365.73 1648768.56  28.3%   414 3385s
 103537 11808 1564198.79   29   89 1285365.73 1646484.37  28.1%   414 3390s
 103752 11744 1459845.61   48  115 1285365.73 1644722.70  28.0%   414 3397s
 103963 11681     cutoff   42      1285365.73 1642739.33  27.8%   414 3404s
 104227 11634     cutoff   28      1285365.73 1640994.88  27.7%   415 3413s
 104453 11570     cutoff   38      1285365.73 1639764.35  27.6%   415 3421s
 104717 11513 1620108.83   26   69 1285365.73 1637955.95  27.4%   415 3429s
 105059 11486 1572476.98   38   69 1285365.73 1635999.85  27.3%   415 3435s
 105374 11519     cutoff   35      1285365.73 1634194.24  27.1%   414 3450s
 105406 11433 1484413.39   36   67 1285365.73 1634096.61  27.1%   414 3458s
 105701 11391     cutoff   37      1285365.73 1632478.90  27.0%   414 3466s
 106077 11358 1490504.93   42   97 1285365.73 1630932.72  26.9%   414 3473s
 106302 11297     cutoff   47      1285365.73 1629155.03  26.7%   414 3480s
 106628 11257 1623163.28   42   97 1285365.73 1627193.64  26.6%   414 3486s
 106929 11225 1422155.35   36   39 1285365.73 1625727.29  26.5%   414 3494s
 107168 11169     cutoff   33      1285365.73 1623864.87  26.3%   414 3501s
 107492 11124     cutoff   37      1285365.73 1621998.80  26.2%   414 3509s
 107766 11079 1590208.44   37  127 1285365.73 1620416.23  26.1%   414 3515s
 108071 11018     cutoff   48      1285365.73 1618895.40  25.9%   414 3522s
 108348 10974     cutoff   30      1285365.73 1617320.35  25.8%   414 3527s
 108605 10901     cutoff   49      1285365.73 1615110.22  25.7%   414 3532s
 108883 10837     cutoff   39      1285365.73 1612792.20  25.5%   413 3536s
 109156 10784     cutoff   50      1285365.73 1610750.42  25.3%   413 3544s
 109380 10723     cutoff   36      1285365.73 1609066.59  25.2%   413 3549s
 109629 10656     cutoff   24      1285365.73 1607446.60  25.1%   413 3556s
 109886 10592 1513023.60   28   99 1285365.73 1605864.69  24.9%   413 3561s
 110130 10535     cutoff   41      1285365.73 1604192.87  24.8%   413 3568s
 110347 10478     cutoff   36      1285365.73 1602574.60  24.7%   413 3573s
 110631 10424 1523097.36   48   93 1285365.73 1600729.29  24.5%   413 3577s
 110883 10351     cutoff   55      1285365.73 1599071.93  24.4%   413 3582s
 111151 10287     cutoff   42      1285365.73 1597520.06  24.3%   413 3587s
 111435 10244     cutoff   48      1285365.73 1595959.91  24.2%   413 3592s
 111675 10170     cutoff   38      1285365.73 1594509.08  24.1%   413 3596s
 111916 10105     cutoff   32      1285365.73 1592770.87  23.9%   412 3601s
 112200 10076 1318559.12   42   85 1285365.73 1591146.63  23.8%   412 3608s
 112456 10014 1587083.51   65   99 1285365.73 1589929.71  23.7%   412 3613s
 112687  9947     cutoff   39      1285365.73 1588366.82  23.6%   412 3617s
 112914  9877 1557368.17   27   75 1285365.73 1586766.52  23.4%   412 3622s
 113102  9806     cutoff   34      1285365.73 1584915.23  23.3%   412 3628s
 113418  9759 1519833.23   41  113 1285365.73 1583060.18  23.2%   412 3634s
 113688  9708 1545882.45   36   41 1285365.73 1581641.56  23.0%   412 3641s
 114139  9575 1481080.34   40   47 1285365.73 1578256.75  22.8%   412 3648s
 114397  9518     cutoff   41      1285365.73 1576793.69  22.7%   412 3652s
 114625  9455 1442720.12   31   36 1285365.73 1575551.42  22.6%   412 3657s
 114828  9388     cutoff   42      1285365.73 1574010.03  22.5%   412 3661s
 115067  9321     cutoff   28      1285365.73 1572227.14  22.3%   412 3665s
 115293  9255 1554643.65   39   57 1285365.73 1570421.37  22.2%   411 3670s
 115550  9195 1534636.00   29   54 1285365.73 1568756.89  22.0%   411 3675s
 115797  9129     cutoff   29      1285365.73 1567341.97  21.9%   411 3680s
 116021  9061 1496131.90   29   65 1285365.73 1565755.83  21.8%   411 3685s
 116235  8989     cutoff   32      1285365.73 1564163.07  21.7%   411 3690s
 116673  8852 1326394.74   49    9 1285365.73 1561179.64  21.5%   411 3698s
 116898  8778     cutoff   28      1285365.73 1559699.85  21.3%   411 3702s
 117090  8714 1507654.95   42   37 1285365.73 1558165.03  21.2%   411 3708s
 117331  8649 1415731.44   29   74 1285365.73 1556838.17  21.1%   411 3713s
 117617  8601 1465191.24   27   30 1285365.73 1555216.11  21.0%   411 3716s
 117859  8534     cutoff   46      1285365.73 1553967.89  20.9%   410 3722s
 118101  8465 1481133.71   38  136 1285365.73 1552192.44  20.8%   410 3726s
 118293  8392 1514407.73   50   79 1285365.73 1550610.04  20.6%   410 3732s
 118584  8341     cutoff   40      1285365.73 1548995.53  20.5%   410 3736s
 118760  8266     cutoff   33      1285365.73 1547499.91  20.4%   410 3740s
 119248  8118 1541132.44   36   76 1285365.73 1544357.68  20.1%   410 3749s
 119524  8065     cutoff   48      1285365.73 1542783.05  20.0%   410 3753s
 119775  8007     cutoff   42      1285365.73 1541295.97  19.9%   409 3757s
 120007  7941 1399594.01   43   67 1285365.73 1539736.64  19.8%   409 3763s
 120234  7886 1452142.66   36  118 1285365.73 1538208.44  19.7%   409 3766s
 120418  7806 1483359.23   41   59 1285365.73 1536862.81  19.6%   409 3772s
 120660  7735     cutoff   50      1285365.73 1535481.60  19.5%   409 3776s
 120909  7666     cutoff   36      1285365.73 1534049.90  19.3%   409 3780s
 121113  7603     cutoff   35      1285365.73 1532698.88  19.2%   409 3785s
 121590  7459 1363000.15   44   29 1285365.73 1529384.07  19.0%   408 3792s
 121810  7382     cutoff   27      1285365.73 1528091.24  18.9%   408 3796s
 122212  7235     cutoff   29      1285365.73 1525147.74  18.7%   408 3802s
 122387  7158 1502877.45   35   85 1285365.73 1523597.90  18.5%   408 3807s
 122566  7086     cutoff   35      1285365.73 1521784.33  18.4%   408 3811s
 122727  7004 1408667.93   37  112 1285365.73 1519856.08  18.2%   408 3816s
 122966  6935     cutoff   30      1285365.73 1518001.78  18.1%   408 3821s
 123354  6786     cutoff   35      1285365.73 1514834.65  17.9%   408 3828s
 123537  6708     cutoff   39      1285365.73 1513505.68  17.7%   408 3834s
 123725  6633     cutoff   31      1285365.73 1511537.21  17.6%   408 3838s
 123924  6555     cutoff   44      1285365.73 1509936.48  17.5%   408 3842s
 124152  6481 1508408.41   30   43 1285365.73 1508538.61  17.4%   408 3848s
 124427  6408     cutoff   48      1285365.73 1506740.00  17.2%   407 3852s
 124595  6328     cutoff   36      1285365.73 1505115.32  17.1%   407 3856s
 124829  6275     cutoff   33      1285365.73 1503593.30  17.0%   407 3915s
 125225  6127     cutoff   37      1285365.73 1501128.70  16.8%   407 3922s
 125464  6054 1375401.73   41   88 1285365.73 1499578.42  16.7%   407 3925s
 125878  5916     cutoff   52      1285365.73 1496200.43  16.4%   407 3933s
 126089  5846 1492173.48   50   32 1285365.73 1494423.66  16.3%   406 3936s
 126316  5781 1306963.67   26   24 1285365.73 1492989.62  16.2%   406 3940s
 126698  5652 1414922.31   38   85 1285365.73 1489335.93  15.9%   406 3947s
 126892  5577 1353573.34   46   28 1285365.73 1487925.87  15.8%   406 3951s
 127284  5433     cutoff   39      1285365.73 1484665.32  15.5%   406 3957s
 127473  5360     cutoff   36      1285365.73 1483066.67  15.4%   406 3962s
 127699  5320     cutoff   38      1285365.73 1481579.67  15.3%   405 3972s
 127960  5158 1432090.90   44  138 1285365.73 1478931.81  15.1%   405 3977s
 128172  5081     cutoff   38      1285365.73 1477114.86  14.9%   405 3981s
 128341  5003     cutoff   53      1285365.73 1475399.61  14.8%   405 3985s
 128665  4843     cutoff   49      1285365.73 1472082.82  14.5%   405 3991s
 129078  4694     cutoff   47      1285365.73 1468724.00  14.3%   405 3998s
 129255  4615     cutoff   51      1285365.73 1466949.27  14.1%   405 4002s
 129491  4553 1327529.97   33   65 1285365.73 1464663.60  13.9%   404 4005s
 129883  4422 infeasible   29      1285365.73 1461290.37  13.7%   404 4011s
 130066  4345     cutoff   29      1285365.73 1459714.84  13.6%   404 4016s
 130218  4263 1360885.44   33   79 1285365.73 1457695.26  13.4%   404 4020s
 130584  4120     cutoff   58      1285365.73 1453906.92  13.1%   404 4026s
 130932  3959     cutoff   40      1285365.73 1450257.95  12.8%   403 4032s
 131091  3880 infeasible   33      1285365.73 1447941.20  12.6%   403 4035s
 131439  3716     cutoff   53      1285365.73 1444087.68  12.3%   403 4041s
 131746  3564     cutoff   51      1285365.73 1440287.85  12.1%   403 4046s
 132061  3405     cutoff   39      1285365.73 1436870.08  11.8%   403 4051s
 132424  3254     cutoff   32      1285365.73 1433353.70  11.5%   402 4056s
 132745  3099     cutoff   26      1285365.73 1429464.00  11.2%   402 4061s
 133010  2938     cutoff   30      1285365.73 1425045.95  10.9%   402 4066s
 133303  2777     cutoff   49      1285365.73 1420938.99  10.5%   402 4072s
 133425  2693     cutoff   37      1285365.73 1418688.12  10.4%   402 4075s
 133742  2535     cutoff   57      1285365.73 1415358.26  10.1%   401 4080s
 133889  2457     cutoff   36      1285365.73 1413639.70  10.0%   401 4087s
 134149  2293 1345388.51   35   27 1285365.73 1408771.06  9.60%   401 4093s
 134297  2212     cutoff   38      1285365.73 1406325.41  9.41%   401 4095s
 134703  1970     cutoff   40      1285365.73 1399941.19  8.91%   401 4100s
 135121  1736     cutoff   43      1285365.73 1393308.03  8.40%   400 4106s
 135511  1490 1330040.65   18   52 1285365.73 1385310.52  7.78%   400 4111s
 135951  1249 1360983.60   46   77 1285365.73 1376900.71  7.12%   399 4116s
 136341   998     cutoff   39      1285365.73 1368012.91  6.43%   399 4121s
 136710   748     cutoff   55      1285365.73 1357730.56  5.63%   398 4125s
 137165   413     cutoff   39      1285365.73 1338399.85  4.13%   398 4130s
 137587    78     cutoff   38      1285365.73 1311174.34  2.01%   397 4135s

Cutting planes:
  Gomory: 95
  Implied bound: 16
  Projected implied bound: 1
  MIR: 37
  Flow cover: 275
  Zero half: 2

Explored 137754 nodes (54812736 simplex iterations) in 4140.12 seconds
Thread count was 4 (of 16 available processors)

Solution count 9: 1.28537e+06 1.28537e+06 1.28537e+06 ... -766055

Optimal solution found (tolerance 1.00e-04)
Best objective 1.285365728808e+06, best bound 1.285365731560e+06, gap 0.0000%

***
***  |- Calculation finished, took 4,140.16 (4140.16) sec.
***  |-----------------------------------------------------------------------------------------------------------------------
***
*****************************************************************************************************************************
#############################################################################################################################
###
### Results
###
### The objective of the solution is 1,285,365.7288 (1285365.7288) and is feasible with a Gap of 0.0
###
### Service 81 (MECL1) is operated by 6 vessels from type 30 (PMax35)
###  |- Vessel  9 has the path [9, 332, 326, 342, 333, 324, 4, 294, 284, 7, 298, 196, 0]
###  |  9 (BEANR Out@344.0) - 332 (USEWR In@608.0/Out@618.0) - 326 (USCHS In@656.0/Out@666.0) - 342 (USORF In@691.0/Out@704.0
###  |  ) - 333 (USEWR In@728.0/Out@744.0) - 324 (TRZMK In@1063.0/Out@1077.0) - 4 (AEJEA In@1177.0/Out@1201.0) - 294 (PKBQM I
###  |  n@1258.0/Out@1288.0) - 284 (OMSLL In@1410.0/Out@1423.0) - 7 (AEJEA In@1681.0/Out@1705.0) - 298 (PKBQM In@1762.0/Out@1
###  |  792.0) - 196 (INNSA In@1856.0/Out@1872.0) - 0 (DUMMY_END Ziel-Service 81)
###  |   |- and carried Demand 237,   34.0 containers from 298 to 196
###  |   |- and carried Demand 238,   84.0 containers from   7 to 298
###  |   |- and carried Demand 239,   50.0 containers from   7 to 298
###  |   |- and carried Demand 297,  254.0 containers from 294 to 196
###  |   |- and carried Demand 298,    1.0 containers from 294 to 196
###  |   |- and carried Demand 299,  135.0 containers from 294 to 196
###  |   |- and carried Demand 302,   75.0 containers from   4 to 196
###  |   |- and carried Demand 303,  200.0 containers from   4 to 294
###  |   |- and carried Demand 304,   24.0 containers from   4 to 294
###  |   |- and carried Demand 305,   26.0 containers from   4 to 196
###  |   |- and carried Demand 306,  144.0 containers from   4 to 196
###  |   |- and carried Demand 307,    1.0 containers from   4 to 196
###  |   |- and carried Demand 309,  339.0 containers from 342 to   4
###  |   |- and carried Demand 310,  115.0 containers from 342 to   4
###  |   |- and carried Demand 311,    3.0 containers from 342 to 284
###  |   |- and carried Demand 312,    2.0 containers from 342 to 294
###  |   |- and carried Demand 313,  194.0 containers from 326 to   4
###  |   |- and carried Demand 314,   49.0 containers from 326 to   4
###  |   |- and carried Demand 315,   40.0 containers from 326 to 294
###  |   |- and carried Demand 318,  842.0 containers from 332 to   4
###  |   |- and carried Demand 319,   99.0 containers from 332 to   4
###  |   |- and carried Demand 320,  123.0 containers from 332 to 294
###  |   |- and carried Demand 321,    1.0 containers from 332 to 294
###  |- Vessel 10 has the path [10, 2, 291, 292, 293, 194, 195, 0]
###  |  10 (BEANR Out@512.0) - 2 (AEJEA In@841.0/Out@865.0) - 291 (PKBQM In@922.0/Out@952.0) - 292 (PKBQM In@992.0/Out@1020.0
###  |  ) - 293 (PKBQM In@1090.0/Out@1120.0) - 194 (INNSA In@1590.0/Out@1622.0) - 195 (INNSA In@1688.0/Out@1704.0) - 0 (DUMMY
###  |  _END Ziel-Service 81)
###  |   |- and carried Demand 120,  237.0 containers from 292 to 194
###  |   |- and carried Demand 121,    2.0 containers from 292 to 194
###  |   |- and carried Demand 123,   97.0 containers from 292 to 194
###  |   |- and carried Demand 323,  244.0 containers from 293 to 195
###  |   |- and carried Demand 324,   67.0 containers from 293 to 195
###  |   |- and carried Demand 333,  237.0 containers from 291 to 194
###  |   |- and carried Demand 334,    2.0 containers from 291 to 194
###  |   |- and carried Demand 336,   97.0 containers from 291 to 194
###  |   |- and carried Demand 338,  704.0 containers from   2 to 195
###  |   |- and carried Demand 339,    8.0 containers from   2 to 195
###  |   |- and carried Demand 340,  156.0 containers from   2 to 291
###  |   |- and carried Demand 341,   45.0 containers from   2 to 291
###  |   |- and carried Demand 342,   16.0 containers from   2 to 194
###  |   |- and carried Demand 343,  264.0 containers from   2 to 194
###  |- Vessel 11 has the path [13, 313, 192, 0]
###  |  13 (BEANR Out@680.0) - 313 (TRALI In@946.0/Out@964.0) - 192 (INNSA In@1352.0/Out@1368.0) - 0 (DUMMY_END Ziel-Service 
###  |  81)
###  |- Vessel 12 has the path [16, 314, 5, 295, 193, 0]
###  |  16 (BEANR Out@848.0) - 314 (TRALI In@1114.0/Out@1132.0) - 5 (AEJEA In@1345.0/Out@1369.0) - 295 (PKBQM In@1426.0/Out@1
###  |  456.0) - 193 (INNSA In@1520.0/Out@1536.0) - 0 (DUMMY_END Ziel-Service 81)
###  |   |- and carried Demand 284,   86.0 containers from   5 to 295
###  |   |- and carried Demand 285,  118.0 containers from   5 to 295
###  |- Vessel 17 has the path [158, 270, 323, 191, 0]
###  |  158 (GBFXT Out@580.0) - 270 (NLRTM In@610.0/Out@622.0) - 323 (TRZMK In@895.0/Out@909.0) - 191 (INNSA In@1184.0/Out@12
###  |  00.0) - 0 (DUMMY_END Ziel-Service 81)
###  |- Vessel 20 has the path [200, 190, 0]
###  |  200 (INPAV Out@900.0) - 190 (INNSA In@1016.0/Out@1032.0) - 0 (DUMMY_END Ziel-Service 81)
###  |
### Vessels not used in the solution: [1, 2, 3, 4, 5, 6, 7, 8, 13, 14, 15, 16, 18]
###  |-----------------------------------------------------------------------------------------------------------------------
###
#############################################################################################################################

### Detialed variable overview

### All variables with value greater zero:
rho[81,30] = 1
eta[81,30,1] = 1
eta[81,30,2] = 1
eta[81,30,3] = 1
eta[81,30,4] = 1
eta[81,30,5] = 1
eta[81,30,6] = 1
y[9,4,294] = 1
y[9,332,326] = 1
y[9,294,284] = 1
y[9,284,7] = 1
y[9,342,333] = 1
y[9,9,332] = 1
y[9,324,4] = 1
y[9,7,298] = 1
y[9,196,0] = 1
y[9,333,324] = 1
y[9,298,196] = 1
y[9,326,342] = 1
y[10,293,194] = 1
y[10,195,0] = 1
y[10,292,293] = 1
y[10,10,2] = 1
y[10,194,195] = 1
y[10,291,292] = 1
y[10,2,291] = 1
y[11,192,0] = 1
y[11,313,192] = 1
y[11,13,313] = 1
y[12,5,295] = 1
y[12,193,0] = 1
y[12,16,314] = 1
y[12,295,193] = 1
y[12,314,5] = 1
y[17,270,323] = 1
y[17,158,270] = 1
y[17,191,0] = 1
y[17,323,191] = 1
y[20,190,0] = 1
y[20,200,190] = 1
xD[120,293,194] = 237
xD[120,292,293] = 237
xD[121,293,194] = 2
xD[121,292,293] = 2
xD[123,293,194] = 97
xD[123,292,293] = 97
xD[237,298,196] = 34
xD[238,7,298] = 84
xD[239,7,298] = 50
xD[284,5,295] = 86
xD[285,5,295] = 118
xD[297,294,284] = 254
xD[297,284,7] = 254
xD[297,7,298] = 254
xD[297,298,196] = 254
xD[298,294,284] = 1
xD[298,284,7] = 1
xD[298,7,298] = 1
xD[298,298,196] = 1
xD[299,294,284] = 135
xD[299,284,7] = 135
xD[299,7,298] = 135
xD[299,298,196] = 135
xD[302,4,294] = 75
xD[302,294,284] = 75
xD[302,284,7] = 75
xD[302,7,298] = 75
xD[302,298,196] = 75
xD[303,4,294] = 200
xD[304,4,294] = 24
xD[305,4,294] = 26
xD[305,294,284] = 26
xD[305,284,7] = 26
xD[305,7,298] = 26
xD[305,298,196] = 26
xD[306,4,294] = 144
xD[306,294,284] = 144
xD[306,284,7] = 144
xD[306,7,298] = 144
xD[306,298,196] = 144
xD[307,4,294] = 1
xD[307,294,284] = 1
xD[307,284,7] = 1
xD[307,7,298] = 1
xD[307,298,196] = 1
xD[309,342,333] = 339
xD[309,324,4] = 339
xD[309,333,324] = 339
xD[310,342,333] = 115
xD[310,324,4] = 115
xD[310,333,324] = 115
xD[311,4,294] = 3
xD[311,294,284] = 3
xD[311,342,333] = 3
xD[311,324,4] = 3
xD[311,333,324] = 3
xD[312,4,294] = 2
xD[312,342,333] = 2
xD[312,324,4] = 2
xD[312,333,324] = 2
xD[313,342,333] = 194
xD[313,324,4] = 194
xD[313,333,324] = 194
xD[313,326,342] = 194
xD[314,342,333] = 49
xD[314,324,4] = 49
xD[314,333,324] = 49
xD[314,326,342] = 49
xD[315,4,294] = 40
xD[315,342,333] = 40
xD[315,324,4] = 40
xD[315,333,324] = 40
xD[315,326,342] = 40
xD[318,332,326] = 842
xD[318,342,333] = 842
xD[318,324,4] = 842
xD[318,333,324] = 842
xD[318,326,342] = 842
xD[319,332,326] = 99
xD[319,342,333] = 99
xD[319,324,4] = 99
xD[319,333,324] = 99
xD[319,326,342] = 99
xD[320,4,294] = 123
xD[320,332,326] = 123
xD[320,342,333] = 123
xD[320,324,4] = 123
xD[320,333,324] = 123
xD[320,326,342] = 123
xD[321,4,294] = 1
xD[321,332,326] = 1
xD[321,342,333] = 1
xD[321,324,4] = 1
xD[321,333,324] = 1
xD[321,326,342] = 1
xD[323,293,194] = 244
xD[323,194,195] = 244
xD[324,293,194] = 67
xD[324,194,195] = 67
xD[333,293,194] = 237
xD[333,292,293] = 237
xD[333,291,292] = 237
xD[334,293,194] = 2
xD[334,292,293] = 2
xD[334,291,292] = 2
xD[336,293,194] = 97
xD[336,292,293] = 97
xD[336,291,292] = 97
xD[338,293,194] = 704
xD[338,292,293] = 704
xD[338,194,195] = 704
xD[338,291,292] = 704
xD[338,2,291] = 704
xD[339,293,194] = 8
xD[339,292,293] = 8
xD[339,194,195] = 8
xD[339,291,292] = 8
xD[339,2,291] = 8
xD[340,2,291] = 156
xD[341,2,291] = 45
xD[342,293,194] = 16
xD[342,292,293] = 16
xD[342,291,292] = 16
xD[342,2,291] = 16
xD[343,293,194] = 264
xD[343,292,293] = 264
xD[343,291,292] = 264
xD[343,2,291] = 264
zE[2] = 841
zE[4] = 1177
zE[5] = 1345
zE[7] = 1681
zE[190] = 1016
zE[191] = 1184
zE[192] = 1352
zE[193] = 1520
zE[194] = 1590
zE[195] = 1688
zE[196] = 1856
zE[270] = 610
zE[284] = 1410
zE[291] = 922
zE[292] = 992
zE[293] = 1090
zE[294] = 1258
zE[295] = 1426
zE[298] = 1762
zE[313] = 946
zE[314] = 1114
zE[323] = 895
zE[324] = 1063
zE[326] = 656
zE[332] = 608
zE[333] = 728
zE[342] = 691
zX[2] = 865
zX[4] = 1201
zX[5] = 1369
zX[7] = 1705
zX[9] = 344
zX[10] = 512
zX[13] = 680
zX[16] = 848
zX[158] = 580
zX[190] = 1032
zX[191] = 1200
zX[192] = 1368
zX[193] = 1536
zX[194] = 1622
zX[195] = 1704
zX[196] = 1872
zX[200] = 900
zX[270] = 622
zX[284] = 1423
zX[291] = 952
zX[292] = 1020
zX[293] = 1120
zX[294] = 1288
zX[295] = 1456
zX[298] = 1792
zX[313] = 964
zX[314] = 1132
zX[323] = 909
zX[324] = 1077
zX[326] = 666
zX[332] = 618
zX[333] = 744
zX[342] = 704
phi[9] = 1528
phi[10] = 1192
phi[11] = 688
phi[12] = 688
phi[17] = 620
phi[20] = 132

### All variables with value smaller zero:

### End

real	72m13.376s
user	263m20.302s
sys	12m28.588s
	OpenBLAS 0.2.6 environment removed
	Freetype 2.4.12 environment removed
	Python 3.6.0 environment removed
	Gurobi 8.1.0 environment removed
