	OpenBLAS 0.2.6 environment established
		compiled with gcc for max. 16 cores
	Freetype 2.4.12 environment established
		library to render fonts
	Python 3.6.0 environment established
	Gurobi 8.1.0 environment established
Instance LSFRP: LSFDRP_4_3_3_1_fr.p
Instance LSFDP: LSFDRP_4_3_3_1_fd_13.p

*****************************************************************************************************************************
*** Solve LSFDRP_4_3_3_1_fd_13 with Gurobi
***
*** Graph info
*** |S|: 19
*** |S^E|: 0
*** |S^C|: 1
*** |V|: 347
*** |A|: 8382
*** |A^i|: 8382
*** |A^f|: 0
*** |M|: 343
*** |E|: 0

Changed value of parameter NumericFocus to 1
   Prev: 0  Min: 0  Max: 3  Default: 0
Changed value of parameter TimeLimit to 86400.0
   Prev: 1e+100  Min: 0.0  Max: 1e+100  Default: 1e+100
Changed value of parameter Threads to 4
   Prev: 0  Min: 0  Max: 1024  Default: 0
Optimize a model with 143928 rows, 3051766 columns and 10894259 nonzeros
Variable types: 2892487 continuous, 159279 integer (159279 binary)
Coefficient statistics:
  Matrix range     [1e+00, 4e+03]
  Objective range  [4e+01, 8e+07]
  Bounds range     [1e+00, 1e+00]
  RHS range        [1e+00, 6e+00]
Presolve removed 116747 rows and 2830859 columns (presolve time = 5s) ...
Presolve removed 136133 rows and 2913296 columns (presolve time = 13s) ...
Presolve removed 136133 rows and 2919395 columns (presolve time = 57s) ...
Presolve removed 136254 rows and 2919622 columns (presolve time = 61s) ...
Presolve removed 136254 rows and 2919622 columns
Presolve time: 63.41s
Presolved: 7674 rows, 132144 columns, 453518 nonzeros
Variable types: 4833 continuous, 127311 integer (127273 binary)

Root simplex log...

Iteration    Objective       Primal Inf.    Dual Inf.      Time
       0    9.3484069e+09   1.418943e+06   0.000000e+00     65s
   19857    1.1522680e+07   2.591248e+05   0.000000e+00     70s
   26087    9.2083223e+06   2.225869e+05   0.000000e+00     75s
   31183    7.9185158e+06   1.561730e+04   0.000000e+00     80s
   35513    7.1325002e+06   5.354993e+04   0.000000e+00     85s
   39823    5.7552434e+06   3.573353e+04   0.000000e+00     90s
   41629    5.6400186e+06   0.000000e+00   0.000000e+00     93s

Root relaxation: objective 5.640019e+06, 41629 iterations, 27.63 seconds

    Nodes    |    Current Node    |     Objective Bounds      |     Work
 Expl Unexpl |  Obj  Depth IntInf | Incumbent    BestBd   Gap | It/Node Time

     0     0 5640018.59    0  159          - 5640018.59      -     -   95s
H    0     0                    -878856.6798 5640018.59   742%     -   96s
H    0     0                    1625565.7289 5640018.59   247%     -  176s
     0     0 3936122.33    0  100 1625565.73 3936122.33   142%     -  186s
     0     0 3936122.33    0   81 1625565.73 3936122.33   142%     -  198s
     0     0 3821298.36    0  121 1625565.73 3821298.36   135%     -  201s
     0     0 3820238.16    0  118 1625565.73 3820238.16   135%     -  201s
     0     0 3816969.42    0  118 1625565.73 3816969.42   135%     -  201s
     0     0 3801361.53    0  166 1625565.73 3801361.53   134%     -  202s
     0     0 3792103.84    0  173 1625565.73 3792103.84   133%     -  202s
     0     0 3788533.28    0  166 1625565.73 3788533.28   133%     -  202s
     0     0 3788092.91    0  163 1625565.73 3788092.91   133%     -  202s
     0     0 3787326.31    0  166 1625565.73 3787326.31   133%     -  202s
     0     0 3787311.93    0  166 1625565.73 3787311.93   133%     -  202s
     0     0 3761565.55    0  174 1625565.73 3761565.55   131%     -  203s
     0     0 3759577.11    0  177 1625565.73 3759577.11   131%     -  203s
     0     0 3757798.70    0  182 1625565.73 3757798.70   131%     -  203s
     0     0 3757498.84    0  186 1625565.73 3757498.84   131%     -  203s
     0     0 3757370.93    0  186 1625565.73 3757370.93   131%     -  203s
     0     0 3750379.37    0  196 1625565.73 3750379.37   131%     -  204s
     0     0 3742913.52    0  185 1625565.73 3742913.52   130%     -  204s
     0     0 3742872.51    0  190 1625565.73 3742872.51   130%     -  204s
     0     0 3741729.15    0  186 1625565.73 3741729.15   130%     -  204s
     0     0 3741729.15    0   84 1625565.73 3741729.15   130%     -  207s
H    0     0                    1625566.8532 3741729.15   130%     -  209s
     0     0 3741729.15    0  154 1625566.85 3741729.15   130%     -  210s
     0     0 3741729.15    0  173 1625566.85 3741729.15   130%     -  211s
     0     0 3741729.15    0  165 1625566.85 3741729.15   130%     -  211s
     0     0 3741729.15    0  164 1625566.85 3741729.15   130%     -  211s
     0     0 3741729.15    0  168 1625566.85 3741729.15   130%     -  211s
     0     0 3741729.15    0  179 1625566.85 3741729.15   130%     -  212s
     0     0 3741729.15    0  179 1625566.85 3741729.15   130%     -  212s
     0     0 3739570.46    0  182 1625566.85 3739570.46   130%     -  212s
     0     0 3738778.77    0  180 1625566.85 3738778.77   130%     -  212s
     0     0 3738557.21    0  181 1625566.85 3738557.21   130%     -  212s
     0     0 3738241.52    0  184 1625566.85 3738241.52   130%     -  212s
     0     0 3731632.26    0  189 1625566.85 3731632.26   130%     -  213s
     0     0 3731288.40    0  191 1625566.85 3731288.40   130%     -  213s
     0     0 3730050.19    0  201 1625566.85 3730050.19   129%     -  213s
     0     0 3729869.80    0  196 1625566.85 3729869.80   129%     -  213s
     0     0 3727547.74    0  199 1625566.85 3727547.74   129%     -  213s
     0     0 3726446.54    0  196 1625566.85 3726446.54   129%     -  214s
     0     0 3726335.44    0  197 1625566.85 3726335.44   129%     -  214s
     0     0 3724631.67    0  204 1625566.85 3724631.67   129%     -  214s
     0     0 3722616.61    0  210 1625566.85 3722616.61   129%     -  214s
     0     0 3721732.27    0  208 1625566.85 3721732.27   129%     -  214s
     0     0 3721539.47    0  206 1625566.85 3721539.47   129%     -  214s
     0     0 3721245.33    0  215 1625566.85 3721245.33   129%     -  214s
     0     0 3720758.27    0  217 1625566.85 3720758.27   129%     -  215s
     0     0 3720720.27    0  217 1625566.85 3720720.27   129%     -  215s
     0     0 3720433.53    0  214 1625566.85 3720433.53   129%     -  215s
     0     0 3720333.72    0  215 1625566.85 3720333.72   129%     -  215s
     0     0 3719936.65    0  212 1625566.85 3719936.65   129%     -  215s
     0     0 3719936.65    0  212 1625566.85 3719936.65   129%     -  218s
     0     2 3719936.65    0  212 1625566.85 3719936.65   129%     -  220s
    11    14 3424174.41    4  167 1625566.85 3674948.84   126%  1008  225s
    30    28 3376980.89    7  152 1625566.85 3674948.84   126%   720  231s
    76    56 3207697.76   14  133 1625566.85 3674948.84   126%   578  235s
   200   149 2706999.18   38   82 1625566.85 3671317.11   126%   357  243s
   236   172 2868791.75   47   96 1625566.85 3656582.32   125%   337  245s
   447   278 3231156.69   13   97 1625566.85 3590761.87   121%   284  250s
   668   427 2737854.26    7  128 1625566.85 3405326.41   109%   253  255s
  1021   603 2229252.58   65  100 1625566.85 3395847.29   109%   230  272s
  1023   604 3209298.59   19   83 1625566.85 3395847.29   109%   230  276s
  1032   610 3029952.50   25  184 1625566.85 3395847.29   109%   228  280s
  1042   617 2406122.11   21  197 1625566.85 3227672.78  98.6%   226  285s
  1049   622 3113676.37   16  191 1625566.85 3226522.18  98.5%   224  290s
  1051   623 2727696.31    5  185 1625566.85 3226522.18  98.5%   224  296s
  1054   626 2923809.81   36   84 1625566.85 3226522.18  98.5%   249  300s
  1059   630 3098786.22   36  185 1625566.85 3226522.18  98.5%   248  305s
  1079   643 2522372.58   31  206 1625566.85 3222305.31  98.2%   243  312s
  1082   648 3215718.99   24  199 1625566.85 3222305.31  98.2%   268  323s
  1084   651 2796174.01   25  127 1625566.85 3203177.04  97.0%   270  332s
  1092   657 2671793.93   26   97 1625566.85 3138040.73  93.0%   276  335s
  1123   669 2545089.67   30  123 1625566.85 3103191.84  90.9%   293  340s
  1199   682 2400520.38   36   61 1625566.85 3103191.84  90.9%   310  345s
  1314   689 1689070.24   52   54 1625566.85 3089322.53  90.0%   320  350s
  1469   762 2302798.19   66   32 1625566.85 3089314.57  90.0%   320  355s
  1646   786 2090080.54   36   33 1625566.85 3057135.92  88.1%   315  360s
  1821   824 2426809.52   47   98 1625566.85 3007815.37  85.0%   327  365s
  1913   848 1890561.56   52   21 1625566.85 2986627.23  83.7%   330  370s
  2125   898 2951455.99   32   89 1625566.85 2951455.99  81.6%   332  376s
  2392   966     cutoff   35      1625566.85 2932571.69  80.4%   325  380s
  2685  1037 2510933.48   36   51 1625566.85 2912291.54  79.2%   319  386s
  2984  1099 2876984.02   37   77 1625566.85 2905653.22  78.7%   320  392s
  3122  1152 2857606.69   36   79 1625566.85 2886761.32  77.6%   318  396s
  3346  1234 2275148.28   40   41 1625566.85 2876149.02  76.9%   321  400s
  3557  1324 1699350.29   36  102 1625566.85 2856743.04  75.7%   324  405s
  3834  1388     cutoff   61      1625566.85 2849060.38  75.3%   324  411s
  4112  1471 1737863.44   44  105 1625566.85 2816593.51  73.3%   324  415s
  4434  1575 2568314.20   37   47 1625566.85 2787328.27  71.5%   324  422s
  4512  1585     cutoff   44      1625566.85 2784191.55  71.3%   324  425s
  4788  1656     cutoff   53      1625566.85 2761388.45  69.9%   327  431s
  4937  1710 2547237.82   29  179 1625566.85 2751999.09  69.3%   328  435s
  5221  1825 2404391.52   55   48 1625566.85 2739818.00  68.5%   327  442s
  5318  1857     cutoff   49      1625566.85 2723781.59  67.6%   327  445s
  5814  2009 1971847.67   42  106 1625566.85 2699871.86  66.1%   326  454s
  6050  2090 2411536.68   43   50 1625566.85 2693095.21  65.7%   325  458s
  6318  2196 2590417.61   40   90 1625566.85 2665073.76  63.9%   325  462s
  6629  2306 2227406.66   49   62 1625566.85 2664704.97  63.9%   323  468s
  6781  2347 2476521.25   29  129 1625566.85 2651108.20  63.1%   324  472s
  6998  2392 2198270.11   49   35 1625566.85 2641923.30  62.5%   326  477s
  7298  2503 2050369.03   58   86 1625566.85 2631450.77  61.9%   327  482s
  7631  2569 2104320.49   46   66 1625566.85 2618024.31  61.1%   327  488s
  7915  2619     cutoff   53      1625566.85 2609750.02  60.5%   327  493s
  8293  2729 2158895.34   51   46 1625566.85 2587326.28  59.2%   327  499s
  8509  2772 2385936.87   42   84 1625566.85 2581491.87  58.8%   326  504s
  8752  2816 2312175.94   48   75 1625566.85 2572772.03  58.3%   327  510s
  9097  2899 1629721.94   52   42 1625566.85 2559145.00  57.4%   329  516s
  9359  2946 2429976.95   37   72 1625566.85 2546298.49  56.6%   330  522s
  9787  3110     cutoff   60      1625566.85 2542943.84  56.4%   329  531s
 10087  3209 2054342.10   46  103 1625566.85 2532025.89  55.8%   330  538s
 10351  3241     cutoff   46      1625566.85 2530251.03  55.7%   329  548s
 10927  3359 2035461.26   57   37 1625566.85 2516902.56  54.8%   327  556s
 11388  3468 2157353.67   39   90 1625566.85 2501785.53  53.9%   327  563s
 11805  3604 1736339.04   35  142 1625566.85 2494989.05  53.5%   329  575s
 11809  3567 1712432.48   36  128 1625566.85 2494183.46  53.4%   329  582s
 12250  3680 2089982.79   40   51 1625566.85 2488097.52  53.1%   330  590s
 12801  3807 1986513.06   45   99 1625566.85 2478252.05  52.5%   329  597s
 13399  3982 1967311.81   41   62 1625566.85 2466877.99  51.8%   328  605s
 13503  3987     cutoff   45      1625566.85 2465355.86  51.7%   328  612s
 13874  4066 2053942.42   36  134 1625566.85 2461878.54  51.4%   328  620s
 14387  4182 2423965.54   38   80 1625566.85 2453805.22  51.0%   327  627s
 14749  4278 2000449.73   35   76 1625566.85 2445971.02  50.5%   326  635s
 15257  4394     cutoff   46      1625566.85 2435908.94  49.8%   327  642s
 15726  4488 1958866.58   53   21 1625566.85 2427732.55  49.3%   327  649s
 16132  4571 1816421.64   70  147 1625566.85 2420513.06  48.9%   328  656s
 16618  4647 1820480.25   59   66 1625566.85 2417015.21  48.7%   328  663s
 16998  4670 1926456.46   53   46 1625566.85 2411564.79  48.4%   330  670s
 17457  4759     cutoff   71      1625566.85 2403297.29  47.8%   330  677s
 17976  4887 2029839.40   42   27 1625566.85 2395960.75  47.4%   329  684s
 18497  5028 1834815.87   56   52 1625566.85 2392035.51  47.2%   328  691s
 19044  5167     cutoff   72      1625566.85 2387693.00  46.9%   326  698s
 19588  5248     cutoff   40      1625566.85 2381194.15  46.5%   326  705s
 20125  5383     cutoff   40      1625566.85 2372850.32  46.0%   324  711s
 20662  5500 1959671.78   55   69 1625566.85 2369082.65  45.7%   324  945s
 21126  5612     cutoff   52      1625566.85 2364668.28  45.5%   324  952s
 21518  5702 2177984.29   46   59 1625566.85 2359741.70  45.2%   325  958s
 21860  5772 2129538.43   46   70 1625566.85 2352786.08  44.7%   326  964s
 22101  5788 2084272.12   40  104 1625566.85 2347678.61  44.4%   327  971s
 22441  5858 2112430.95   30  112 1625566.85 2343833.11  44.2%   329  977s
 22781  5917 2003517.77   38  161 1625566.85 2337494.61  43.8%   330  983s
 23088  5974     cutoff   67      1625566.85 2336545.34  43.7%   332  990s
 23407  6062 2098922.65   57   66 1625566.85 2333898.82  43.6%   333  996s
 23710  6150 1872381.63   49  109 1625566.85 2329190.53  43.3%   333 1003s
 24053  6207 1756758.49   48  148 1625566.85 2326016.72  43.1%   334 1009s
 24340  6263 2165142.38   43   63 1625566.85 2323793.58  43.0%   336 1015s
 24601  6298 2223241.59   47   74 1625566.85 2320382.19  42.7%   337 1022s
 24943  6397 infeasible   70      1625566.85 2317526.95  42.6%   338 1028s
 25246  6425 2065033.01   38   60 1625566.85 2313256.08  42.3%   341 1036s
 25626  6481     cutoff   49      1625566.85 2310155.30  42.1%   341 1042s
 26059  6532 1907481.47   55   85 1625566.85 2305416.50  41.8%   342 1049s
 26384  6554     cutoff   47      1625566.85 2299703.28  41.5%   343 1055s
 26685  6586 1816775.93   69   24 1625566.85 2296003.76  41.2%   345 1061s
 27032  6610 2151321.67   58   67 1625566.85 2290201.93  40.9%   346 1068s
 27376  6643     cutoff   47      1625566.85 2286939.77  40.7%   348 1075s
 27746  6722     cutoff   46      1625566.85 2283830.10  40.5%   349 1082s
 27991  6726 1830415.73   46   37 1625566.85 2280613.11  40.3%   350 1089s
 28454  6832     cutoff   54      1625566.85 2275917.73  40.0%   350 1095s
 28845  6871     cutoff   46      1625566.85 2271860.11  39.8%   351 1103s
 29100  6904 1676637.62   42   51 1625566.85 2269451.97  39.6%   352 1109s
 29403  6934 2132964.96   33   99 1625566.85 2266064.21  39.4%   353 1115s
 29693  6955 2117968.09   55   35 1625566.85 2263203.14  39.2%   355 1122s
 29995  6990 1846319.51   41  135 1625566.85 2260501.39  39.1%   356 1129s
 30260  6990 2202815.11   39   70 1625566.85 2257496.61  38.9%   357 1136s
 30672  7070 1899828.90   45   40 1625566.85 2253987.05  38.7%   358 1143s
 30958  7090 1799388.94   49   98 1625566.85 2251691.75  38.5%   359 1153s
 31232  7063 2121965.28   52   94 1625566.85 2247559.24  38.3%   361 1160s
 31625  7109 2154752.28   41   81 1625566.85 2243461.60  38.0%   362 1167s
 32030  7199     cutoff   60      1625566.85 2239454.17  37.8%   363 1174s
 32342  7230 2079554.62   43   69 1625566.85 2235952.87  37.5%   364 1182s
 32724  7304 2115821.48   34   66 1625566.85 2233367.54  37.4%   365 1189s
 33068  7322     cutoff   58      1625566.85 2229070.63  37.1%   366 1196s
 33461  7349 1879902.35   48  104 1625566.85 2223677.63  36.8%   367 1203s
 33836  7401     cutoff   38      1625566.85 2221115.92  36.6%   368 1211s
 34152  7397     cutoff   44      1625566.85 2216458.62  36.3%   369 1219s
 34522  7460 1715999.77   32   82 1625566.85 2212556.52  36.1%   370 1226s
 34840  7490     cutoff   50      1625566.85 2210190.30  36.0%   371 1233s
 35216  7546 2064716.39   44  106 1625566.85 2206400.64  35.7%   372 1248s
 35500  7544 2039737.06   58  146 1625566.85 2204435.46  35.6%   373 1255s
 35940  7620     cutoff   56      1625566.85 2200007.01  35.3%   373 1263s
 36354  7663 1803945.35   50  124 1625566.85 2195213.06  35.0%   374 1297s
 36676  7657 1996437.83   36   91 1625566.85 2193665.34  34.9%   374 1305s
 37116  7676 1884687.76   36   83 1625566.85 2188966.09  34.7%   374 1312s
 37619  7740     cutoff   38      1625566.85 2184708.61  34.4%   374 1320s
 38007  7798 1725569.72   45  124 1625566.85 2180809.81  34.2%   375 1328s
 38385  7792 1734506.35   52   39 1625566.85 2177731.47  34.0%   376 1335s
 38795  7817 1679272.68   45   40 1625566.85 2173665.96  33.7%   376 1343s
 39306  7872 1915497.09   38   57 1625566.85 2169384.85  33.5%   376 1350s
 39701  7894     cutoff   70      1625566.85 2165380.15  33.2%   376 1358s
 40069  7930     cutoff   48      1625566.85 2162421.22  33.0%   377 1365s
 40379  7922 1722586.10   48   89 1625566.85 2157315.19  32.7%   378 1372s
 40790  7952 1891931.77   51  126 1625566.85 2154495.80  32.5%   379 1380s
 41160  7983 1800921.28   51  137 1625566.85 2152602.67  32.4%   380 1391s
 41549  8002 1753186.61   44   25 1625566.85 2147863.00  32.1%   381 1399s
 41980  8023 1673050.26   42  153 1625566.85 2144525.74  31.9%   381 1406s
 42397  8006 1827060.85   49   44 1625566.85 2140090.55  31.7%   382 1414s
 42748  8007 1637253.54   56   56 1625566.85 2137309.21  31.5%   382 1421s
 43155  8010 1789803.40   69  100 1625566.85 2134142.39  31.3%   383 1429s
 43600  8014     cutoff   41      1625566.85 2131109.81  31.1%   383 1437s
 43975  8010 1719215.93   72   39 1625566.85 2126834.30  30.8%   383 1444s
 44414  8025 2037512.35   51  125 1625566.85 2123179.11  30.6%   383 1452s
 44805  8032     cutoff   65      1625566.85 2119737.57  30.4%   383 1460s
 45205  8026 2116020.13   41   55 1625566.85 2116681.76  30.2%   383 1467s
 45585  8016 1752951.39   57   62 1625566.85 2111348.38  29.9%   383 1475s
 45984  8023     cutoff   57      1625566.85 2109167.61  29.7%   384 1485s
 46421  8011 1716092.00   48   63 1625566.85 2105809.31  29.5%   384 1492s
 46803  8010     cutoff   66      1625566.85 2101816.73  29.3%   384 1499s
 47164  7977 2060636.42   55   28 1625566.85 2098908.61  29.1%   385 1506s
 47592  8003     cutoff   44      1625566.85 2094867.70  28.9%   385 1513s
 48033  8021     cutoff   53      1625566.85 2092121.61  28.7%   385 1521s
 48443  8037     cutoff   53      1625566.85 2087730.44  28.4%   385 1528s
 48756  7991     cutoff   55      1625566.85 2086011.88  28.3%   385 1535s
 49131  8004 1979658.37   53   60 1625566.85 2081439.30  28.0%   385 1541s
 49419  7970 1982063.47   43   28 1625566.85 2079388.66  27.9%   385 1548s
 49810  7980     cutoff   43      1625566.85 2075360.18  27.7%   385 1555s
 50164  7983 1918165.15   39   55 1625566.85 2071788.52  27.5%   386 1562s
 50557  7973 1970520.43   61   86 1625566.85 2068635.83  27.3%   386 1568s
 50898  7968 1939885.92   45   60 1625566.85 2065552.60  27.1%   387 1573s
 51222  7970 1895076.42   41   26 1625566.85 2062514.33  26.9%   387 1580s
 51565  7960 1666255.53   61   66 1625566.85 2061351.87  26.8%   388 1592s
 51913  7923 1997542.43   57   55 1625566.85 2058575.82  26.6%   388 1600s
 52283  7909     cutoff   40      1625566.85 2054970.87  26.4%   388 1607s
 52563  7862     cutoff   53      1625566.85 2053043.49  26.3%   388 1613s
 52903  7843 1697058.40   48   97 1625566.85 2049205.14  26.1%   388 1619s
 53265  7837     cutoff   41      1625566.85 2046009.60  25.9%   388 1626s
 53505  7770     cutoff   55      1625566.85 2044469.82  25.8%   389 1632s
 53826  7756     cutoff   55      1625566.85 2040358.40  25.5%   389 1639s
 54191  7716 infeasible   54      1625566.85 2037917.94  25.4%   389 1646s
 54492  7680 1929462.25   36   36 1625566.85 2035088.98  25.2%   390 1653s
 54875  7673 1700632.55   50   45 1625566.85 2031770.69  25.0%   390 1660s
 55204  7622 2006483.80   65   47 1625566.85 2028267.67  24.8%   390 1666s
 55519  7593 1656270.59   64   63 1625566.85 2024894.05  24.6%   390 1672s
 55806  7551 1958660.65   46   56 1625566.85 2021615.85  24.4%   390 1679s
 56166  7531     cutoff   63      1625566.85 2019281.27  24.2%   391 1686s
 56468  7485 1994787.00   55   57 1625566.85 2016624.88  24.1%   391 1691s
 56797  7440 1762941.87   60   46 1625566.85 2013041.46  23.8%   391 1697s
 57211  7435     cutoff   58      1625566.85 2009796.21  23.6%   391 1703s
 57531  7411     cutoff   50      1625566.85 2007089.05  23.5%   391 1710s
 57855  7374 1967968.71   37   56 1625566.85 2004609.56  23.3%   391 1716s
 58205  7361     cutoff   70      1625566.85 2003648.30  23.3%   391 1723s
 58625  7357     cutoff   40      1625566.85 1999833.88  23.0%   391 1729s
 58915  7311 1679036.27   51   19 1625566.85 1997665.56  22.9%   391 1769s
 59226  7320 1968810.02   62   64 1625566.85 1995849.44  22.8%   391 1777s
 59398  7260 1781386.83   49  125 1625566.85 1995407.88  22.8%   391 1783s
 59702  7203     cutoff   48      1625566.85 1991413.10  22.5%   391 1789s
 60028  7162     cutoff   72      1625566.85 1987912.81  22.3%   391 1794s
 60371  7125     cutoff   44      1625566.85 1985751.37  22.2%   391 1801s
 60730  7102 1782876.79   40   44 1625566.85 1983556.77  22.0%   391 1806s
 61052  7074 1981690.68   58   67 1625566.85 1981690.68  21.9%   391 1813s
 61387  7038 1838732.76   34   57 1625566.85 1977064.18  21.6%   391 1818s
 61649  6984     cutoff   54      1625566.85 1974112.67  21.4%   391 1824s
 62012  6957     cutoff   53      1625566.85 1972207.51  21.3%   391 1829s
 62326  6912     cutoff   53      1625566.85 1969312.26  21.1%   391 1836s
 62582  6856     cutoff   50      1625566.85 1966642.66  21.0%   392 1842s
 62875  6802     cutoff   38      1625566.85 1963692.46  20.8%   392 1847s
 63239  6774     cutoff   34      1625566.85 1961059.26  20.6%   392 1852s
 63507  6716     cutoff   50      1625566.85 1958603.09  20.5%   392 1857s
 63818  6653     cutoff   44      1625566.85 1955932.57  20.3%   392 1861s
 64052  6587     cutoff   46      1625566.85 1952289.84  20.1%   392 1867s
 64303  6517     cutoff   43      1625566.85 1949879.27  20.0%   392 1871s
 64525  6443 1867968.01   62   87 1625566.85 1947133.75  19.8%   392 1876s
 64841  6392 1681734.81   51   32 1625566.85 1943691.48  19.6%   392 1881s
 65151  6330     cutoff   63      1625566.85 1941046.47  19.4%   392 1885s
 65598  6203     cutoff   46      1625566.85 1935756.81  19.1%   392 1895s
 65842  6140     cutoff   48      1625566.85 1933326.92  18.9%   392 1900s
 66087  6075     cutoff   43      1625566.85 1930749.75  18.8%   392 1907s
 66330  6017 1794655.35   67   46 1625566.85 1928379.13  18.6%   392 1910s
 66549  5955     cutoff   51      1625566.85 1926281.99  18.5%   392 1916s
 66831  5894     cutoff   55      1625566.85 1923699.07  18.3%   392 1921s
 67107  5827     cutoff   59      1625566.85 1921842.47  18.2%   392 1926s
 67375  5773     cutoff   59      1625566.85 1919205.75  18.1%   392 1932s
 67685  5719     cutoff   47      1625566.85 1916814.77  17.9%   392 1935s
 67888  5652     cutoff   52      1625566.85 1913754.61  17.7%   392 1940s
 68354  5524 1837424.17   55  102 1625566.85 1909190.38  17.4%   392 1948s
 68594  5459     cutoff   65      1625566.85 1906572.16  17.3%   392 1953s
 68829  5392 1847339.25   37   40 1625566.85 1904190.17  17.1%   392 1957s
 69108  5362 1755068.61   51   27 1625566.85 1901553.50  17.0%   392 1961s
 69376  5295     cutoff   65      1625566.85 1899393.83  16.8%   392 1966s
 69562  5228 1852737.96   37   59 1625566.85 1896650.53  16.7%   392 1970s
 69871  5178     cutoff   46      1625566.85 1894329.09  16.5%   392 1975s
 70152  5125     cutoff   47      1625566.85 1890910.29  16.3%   392 1980s
 70399  5076     cutoff   44      1625566.85 1888499.51  16.2%   392 1986s
 70641  5025     cutoff   49      1625566.85 1886380.56  16.0%   392 1991s
 70878  4954 1854930.72   52   55 1625566.85 1883280.31  15.9%   392 1995s
 71111  4945     cutoff   58      1625566.85 1880708.45  15.7%   392 2003s
 71190  4871 1799771.69   56   32 1625566.85 1880159.12  15.7%   392 2007s
 71415  4811     cutoff   56      1625566.85 1877024.38  15.5%   392 2013s
 71604  4742 1778205.92   48   26 1625566.85 1874051.71  15.3%   393 2016s
 71831  4674     cutoff   41      1625566.85 1871069.38  15.1%   392 2020s
 72283  4539     cutoff   41      1625566.85 1865503.49  14.8%   392 2027s
 72518  4479     cutoff   43      1625566.85 1862777.41  14.6%   392 2031s
 72899  4337     cutoff   54      1625566.85 1856813.93  14.2%   392 2038s
 73096  4268 1763390.27   44  118 1625566.85 1853962.33  14.1%   392 2040s
 73483  4132     cutoff   37      1625566.85 1848892.11  13.7%   392 2046s
 73882  3999     cutoff   46      1625566.85 1843189.17  13.4%   392 2052s
 74108  3925     cutoff   63      1625566.85 1839877.08  13.2%   392 2055s
 74526  3782 1812780.69   47  146 1625566.85 1834523.45  12.9%   392 2063s
 74769  3723     cutoff   40      1625566.85 1832061.91  12.7%   392 2066s
 75196  3582     cutoff   70      1625566.85 1827140.17  12.4%   391 2072s
 75379  3512 1724288.75   51   42 1625566.85 1824517.69  12.2%   391 2075s
 75773  3369     cutoff   57      1625566.85 1819813.18  11.9%   391 2080s
 76147  3217 1768399.70   44   98 1625566.85 1815277.21  11.7%   390 2085s
 76556  3087     cutoff   56      1625566.85 1810547.75  11.4%   390 2090s
 76956  2939     cutoff   57      1625566.85 1806023.75  11.1%   390 2095s
 77307  2795     cutoff   46      1625566.85 1800653.72  10.8%   390 2101s
 77685  2654     cutoff   55      1625566.85 1795873.83  10.5%   389 2106s
 78068  2508 1691331.71   41   63 1625566.85 1790054.85  10.1%   389 2111s
 78283  2434     cutoff   37      1625566.85 1787099.90  9.94%   389 2117s
 78594  2274 1678487.29   39   57 1625566.85 1781253.01  9.58%   389 2121s
 78946  2129     cutoff   52      1625566.85 1775957.46  9.25%   388 2125s
 79373  1905     cutoff   60      1625566.85 1766211.01  8.65%   388 2131s
 79709  1751     cutoff   42      1625566.85 1761082.02  8.34%   387 2136s
 80182  1516     cutoff   62      1625566.85 1751504.49  7.75%   387 2141s
 80557  1268     cutoff   53      1625566.85 1741778.69  7.15%   387 2146s
 80928  1101 infeasible   50      1625566.85 1734175.62  6.68%   386 2150s
 81428   774     cutoff   47      1625566.85 1718802.38  5.74%   385 2155s
 81914   444     cutoff   62      1625566.85 1699057.69  4.52%   385 2160s
 82515     0     cutoff   50      1625566.85 1632959.22  0.45%   383 2165s

Cutting planes:
  Gomory: 80
  Cover: 1
  Implied bound: 59
  Projected implied bound: 5
  MIR: 27
  Flow cover: 359
  Zero half: 5

Explored 82541 nodes (31725373 simplex iterations) in 2170.24 seconds
Thread count was 4 (of 16 available processors)

Solution count 3: 1.62557e+06 1.62557e+06 -878857 

Optimal solution found (tolerance 1.00e-04)
Best objective 1.625565728808e+06, best bound 1.625566853233e+06, gap 0.0001%

***
***  |- Calculation finished, took 2,170.28 (2170.28) sec.
***  |-----------------------------------------------------------------------------------------------------------------------
***
*****************************************************************************************************************************
#############################################################################################################################
###
### Results
###
### The objective of the solution is 1,625,565.7288 (1625565.7288) and is feasible with a Gap of 0.0
###
### Service 81 (MECL1) is operated by 6 vessels from type 30 (PMax35)
###  |- Vessel  9 has the path [9, 332, 326, 342, 333, 324, 4, 294, 284, 7, 298, 196, 0]
###  |  9 (BEANR Out@344.0) - 332 (USEWR In@608.0/Out@618.0) - 326 (USCHS In@656.0/Out@666.0) - 342 (USORF In@691.0/Out@704.0
###  |  ) - 333 (USEWR In@728.0/Out@744.0) - 324 (TRZMK In@1063.0/Out@1077.0) - 4 (AEJEA In@1177.0/Out@1201.0) - 294 (PKBQM I
###  |  n@1258.0/Out@1288.0) - 284 (OMSLL In@1410.0/Out@1423.0) - 7 (AEJEA In@1681.0/Out@1705.0) - 298 (PKBQM In@1762.0/Out@1
###  |  792.0) - 196 (INNSA In@1856.0/Out@1872.0) - 0 (DUMMY_END Ziel-Service 81)
###  |   |- and carried Demand 237,   34.0 containers from 298 to 196
###  |   |- and carried Demand 238,   84.0 containers from   7 to 298
###  |   |- and carried Demand 239,   50.0 containers from   7 to 298
###  |   |- and carried Demand 297,  254.0 containers from 294 to 196
###  |   |- and carried Demand 298,    1.0 containers from 294 to 196
###  |   |- and carried Demand 299,  135.0 containers from 294 to 196
###  |   |- and carried Demand 302,   75.0 containers from   4 to 196
###  |   |- and carried Demand 303,  200.0 containers from   4 to 294
###  |   |- and carried Demand 304,   24.0 containers from   4 to 294
###  |   |- and carried Demand 305,   26.0 containers from   4 to 196
###  |   |- and carried Demand 306,  144.0 containers from   4 to 196
###  |   |- and carried Demand 307,    1.0 containers from   4 to 196
###  |   |- and carried Demand 309,  339.0 containers from 342 to   4
###  |   |- and carried Demand 310,  115.0 containers from 342 to   4
###  |   |- and carried Demand 311,    3.0 containers from 342 to 284
###  |   |- and carried Demand 312,    2.0 containers from 342 to 294
###  |   |- and carried Demand 313,  194.0 containers from 326 to   4
###  |   |- and carried Demand 314,   49.0 containers from 326 to   4
###  |   |- and carried Demand 315,   40.0 containers from 326 to 294
###  |   |- and carried Demand 318,  842.0 containers from 332 to   4
###  |   |- and carried Demand 319,   99.0 containers from 332 to   4
###  |   |- and carried Demand 320,  123.0 containers from 332 to 294
###  |   |- and carried Demand 321,    1.0 containers from 332 to 294
###  |- Vessel 10 has the path [10, 2, 291, 292, 293, 194, 195, 0]
###  |  10 (BEANR Out@512.0) - 2 (AEJEA In@841.0/Out@865.0) - 291 (PKBQM In@922.0/Out@952.0) - 292 (PKBQM In@992.0/Out@1020.0
###  |  ) - 293 (PKBQM In@1090.0/Out@1120.0) - 194 (INNSA In@1590.0/Out@1622.0) - 195 (INNSA In@1688.0/Out@1704.0) - 0 (DUMMY
###  |  _END Ziel-Service 81)
###  |   |- and carried Demand 120,  237.0 containers from 292 to 194
###  |   |- and carried Demand 121,    2.0 containers from 292 to 194
###  |   |- and carried Demand 123,   97.0 containers from 292 to 194
###  |   |- and carried Demand 323,  244.0 containers from 293 to 195
###  |   |- and carried Demand 324,   67.0 containers from 293 to 195
###  |   |- and carried Demand 333,  237.0 containers from 291 to 194
###  |   |- and carried Demand 334,    2.0 containers from 291 to 194
###  |   |- and carried Demand 336,   97.0 containers from 291 to 194
###  |   |- and carried Demand 338,  704.0 containers from   2 to 195
###  |   |- and carried Demand 339,    8.0 containers from   2 to 195
###  |   |- and carried Demand 340,  156.0 containers from   2 to 291
###  |   |- and carried Demand 341,   45.0 containers from   2 to 291
###  |   |- and carried Demand 342,   16.0 containers from   2 to 194
###  |   |- and carried Demand 343,  264.0 containers from   2 to 194
###  |- Vessel 11 has the path [13, 313, 192, 0]
###  |  13 (BEANR Out@680.0) - 313 (TRALI In@946.0/Out@964.0) - 192 (INNSA In@1352.0/Out@1368.0) - 0 (DUMMY_END Ziel-Service 
###  |  81)
###  |- Vessel 12 has the path [16, 314, 5, 295, 193, 0]
###  |  16 (BEANR Out@848.0) - 314 (TRALI In@1114.0/Out@1132.0) - 5 (AEJEA In@1345.0/Out@1369.0) - 295 (PKBQM In@1426.0/Out@1
###  |  456.0) - 193 (INNSA In@1520.0/Out@1536.0) - 0 (DUMMY_END Ziel-Service 81)
###  |   |- and carried Demand 284,   86.0 containers from   5 to 295
###  |   |- and carried Demand 285,  118.0 containers from   5 to 295
###  |- Vessel 17 has the path [158, 270, 323, 191, 0]
###  |  158 (GBFXT Out@580.0) - 270 (NLRTM In@610.0/Out@622.0) - 323 (TRZMK In@895.0/Out@909.0) - 191 (INNSA In@1184.0/Out@12
###  |  00.0) - 0 (DUMMY_END Ziel-Service 81)
###  |- Vessel 20 has the path [200, 190, 0]
###  |  200 (INPAV Out@900.0) - 190 (INNSA In@1016.0/Out@1032.0) - 0 (DUMMY_END Ziel-Service 81)
###  |
### Vessels not used in the solution: [1, 2, 3, 4, 5, 6, 7, 8, 13, 14, 15, 16, 18]
###  |-----------------------------------------------------------------------------------------------------------------------
###
#############################################################################################################################

### Detialed variable overview

### All variables with value greater zero:
rho[81,30] = 1
eta[81,30,1] = 1
eta[81,30,2] = 1
eta[81,30,3] = 1
eta[81,30,4] = 1
eta[81,30,5] = 1
eta[81,30,6] = 1
y[9,4,294] = 1
y[9,332,326] = 1
y[9,294,284] = 1
y[9,284,7] = 1
y[9,342,333] = 1
y[9,9,332] = 1
y[9,324,4] = 1
y[9,7,298] = 1
y[9,196,0] = 1
y[9,333,324] = 1
y[9,298,196] = 1
y[9,326,342] = 1
y[10,293,194] = 1
y[10,195,0] = 1
y[10,292,293] = 1
y[10,10,2] = 1
y[10,194,195] = 1
y[10,291,292] = 1
y[10,2,291] = 1
y[11,192,0] = 1
y[11,313,192] = 1
y[11,13,313] = 1
y[12,5,295] = 1
y[12,193,0] = 1
y[12,16,314] = 1
y[12,295,193] = 1
y[12,314,5] = 1
y[17,270,323] = 1
y[17,158,270] = 1
y[17,191,0] = 1
y[17,323,191] = 1
y[20,190,0] = 1
y[20,200,190] = 1
xD[120,293,194] = 237
xD[120,292,293] = 237
xD[121,293,194] = 2
xD[121,292,293] = 2
xD[123,293,194] = 97
xD[123,292,293] = 97
xD[237,298,196] = 34
xD[238,7,298] = 84
xD[239,7,298] = 50
xD[284,5,295] = 86
xD[285,5,295] = 118
xD[297,294,284] = 254
xD[297,284,7] = 254
xD[297,7,298] = 254
xD[297,298,196] = 254
xD[298,294,284] = 1
xD[298,284,7] = 1
xD[298,7,298] = 1
xD[298,298,196] = 1
xD[299,294,284] = 135
xD[299,284,7] = 135
xD[299,7,298] = 135
xD[299,298,196] = 135
xD[302,4,294] = 75
xD[302,294,284] = 75
xD[302,284,7] = 75
xD[302,7,298] = 75
xD[302,298,196] = 75
xD[303,4,294] = 200
xD[304,4,294] = 24
xD[305,4,294] = 26
xD[305,294,284] = 26
xD[305,284,7] = 26
xD[305,7,298] = 26
xD[305,298,196] = 26
xD[306,4,294] = 144
xD[306,294,284] = 144
xD[306,284,7] = 144
xD[306,7,298] = 144
xD[306,298,196] = 144
xD[307,4,294] = 1
xD[307,294,284] = 1
xD[307,284,7] = 1
xD[307,7,298] = 1
xD[307,298,196] = 1
xD[309,342,333] = 339
xD[309,324,4] = 339
xD[309,333,324] = 339
xD[310,342,333] = 115
xD[310,324,4] = 115
xD[310,333,324] = 115
xD[311,4,294] = 3
xD[311,294,284] = 3
xD[311,342,333] = 3
xD[311,324,4] = 3
xD[311,333,324] = 3
xD[312,4,294] = 2
xD[312,342,333] = 2
xD[312,324,4] = 2
xD[312,333,324] = 2
xD[313,342,333] = 194
xD[313,324,4] = 194
xD[313,333,324] = 194
xD[313,326,342] = 194
xD[314,342,333] = 49
xD[314,324,4] = 49
xD[314,333,324] = 49
xD[314,326,342] = 49
xD[315,4,294] = 40
xD[315,342,333] = 40
xD[315,324,4] = 40
xD[315,333,324] = 40
xD[315,326,342] = 40
xD[318,332,326] = 842
xD[318,342,333] = 842
xD[318,324,4] = 842
xD[318,333,324] = 842
xD[318,326,342] = 842
xD[319,332,326] = 99
xD[319,342,333] = 99
xD[319,324,4] = 99
xD[319,333,324] = 99
xD[319,326,342] = 99
xD[320,4,294] = 123
xD[320,332,326] = 123
xD[320,342,333] = 123
xD[320,324,4] = 123
xD[320,333,324] = 123
xD[320,326,342] = 123
xD[321,4,294] = 1
xD[321,332,326] = 1
xD[321,342,333] = 1
xD[321,324,4] = 1
xD[321,333,324] = 1
xD[321,326,342] = 1
xD[323,293,194] = 244
xD[323,194,195] = 244
xD[324,293,194] = 67
xD[324,194,195] = 67
xD[333,293,194] = 237
xD[333,292,293] = 237
xD[333,291,292] = 237
xD[334,293,194] = 2
xD[334,292,293] = 2
xD[334,291,292] = 2
xD[336,293,194] = 97
xD[336,292,293] = 97
xD[336,291,292] = 97
xD[338,293,194] = 704
xD[338,292,293] = 704
xD[338,194,195] = 704
xD[338,291,292] = 704
xD[338,2,291] = 704
xD[339,293,194] = 8
xD[339,292,293] = 8
xD[339,194,195] = 8
xD[339,291,292] = 8
xD[339,2,291] = 8
xD[340,2,291] = 156
xD[341,2,291] = 45
xD[342,293,194] = 16
xD[342,292,293] = 16
xD[342,291,292] = 16
xD[342,2,291] = 16
xD[343,293,194] = 264
xD[343,292,293] = 264
xD[343,291,292] = 264
xD[343,2,291] = 264
zE[2] = 841
zE[4] = 1177
zE[5] = 1345
zE[7] = 1681
zE[190] = 1016
zE[191] = 1184
zE[192] = 1352
zE[193] = 1520
zE[194] = 1590
zE[195] = 1688
zE[196] = 1856
zE[270] = 610
zE[284] = 1410
zE[291] = 922
zE[292] = 992
zE[293] = 1090
zE[294] = 1258
zE[295] = 1426
zE[298] = 1762
zE[313] = 946
zE[314] = 1114
zE[323] = 895
zE[324] = 1063
zE[326] = 656
zE[332] = 608
zE[333] = 728
zE[342] = 691
zX[2] = 865
zX[4] = 1201
zX[5] = 1369
zX[7] = 1705
zX[9] = 344
zX[10] = 512
zX[13] = 680
zX[16] = 848
zX[158] = 580
zX[190] = 1032
zX[191] = 1200
zX[192] = 1368
zX[193] = 1536
zX[194] = 1622
zX[195] = 1704
zX[196] = 1872
zX[200] = 900
zX[270] = 622
zX[284] = 1423
zX[291] = 952
zX[292] = 1020
zX[293] = 1120
zX[294] = 1288
zX[295] = 1456
zX[298] = 1792
zX[313] = 964
zX[314] = 1132
zX[323] = 909
zX[324] = 1077
zX[326] = 666
zX[332] = 618
zX[333] = 744
zX[342] = 704
phi[9] = 1528
phi[10] = 1192
phi[11] = 688
phi[12] = 688
phi[17] = 620
phi[20] = 132

### All variables with value smaller zero:

### End

real	39m31.906s
user	136m8.386s
sys	6m57.995s
	OpenBLAS 0.2.6 environment removed
	Freetype 2.4.12 environment removed
	Python 3.6.0 environment removed
	Gurobi 8.1.0 environment removed
