	OpenBLAS 0.2.6 environment established
		compiled with gcc for max. 16 cores
	Freetype 2.4.12 environment established
		library to render fonts
	Python 3.6.0 environment established
	Gurobi 8.1.0 environment established
Instance LSFRP: LSFDRP_4_3_3_1_fr.p
Instance LSFDP: LSFDRP_4_3_3_1_fd_19.p

*****************************************************************************************************************************
*** Solve LSFDRP_4_3_3_1_fd_19 with Gurobi
***
*** Graph info
*** |S|: 19
*** |S^E|: 0
*** |S^C|: 1
*** |V|: 347
*** |A|: 8382
*** |A^i|: 8382
*** |A^f|: 0
*** |M|: 343
*** |E|: 0

Changed value of parameter NumericFocus to 1
   Prev: 0  Min: 0  Max: 3  Default: 0
Changed value of parameter TimeLimit to 86400.0
   Prev: 1e+100  Min: 0.0  Max: 1e+100  Default: 1e+100
Changed value of parameter Threads to 4
   Prev: 0  Min: 0  Max: 1024  Default: 0
Optimize a model with 143928 rows, 3051766 columns and 10894259 nonzeros
Variable types: 2892487 continuous, 159279 integer (159279 binary)
Coefficient statistics:
  Matrix range     [1e+00, 4e+03]
  Objective range  [4e+01, 1e+08]
  Bounds range     [1e+00, 1e+00]
  RHS range        [1e+00, 6e+00]
Presolve removed 123904 rows and 2876400 columns (presolve time = 5s) ...
Presolve removed 136133 rows and 2913296 columns (presolve time = 12s) ...
Presolve removed 136133 rows and 2919395 columns (presolve time = 53s) ...
Presolve removed 136254 rows and 2919622 columns (presolve time = 56s) ...
Presolve removed 136254 rows and 2919622 columns
Presolve time: 58.55s
Presolved: 7674 rows, 132144 columns, 453518 nonzeros
Variable types: 4833 continuous, 127311 integer (127273 binary)

Root simplex log...

Iteration    Objective       Primal Inf.    Dual Inf.      Time
       0    9.3484069e+09   1.418943e+06   0.000000e+00     60s
   20757    1.0435621e+07   4.789055e+05   0.000000e+00     65s
   26821    9.0726629e+06   5.333177e+04   0.000000e+00     70s
   32228    7.8656414e+06   7.297503e+04   0.000000e+00     75s
   37368    6.3570712e+06   3.967116e+05   0.000000e+00     80s
   39905    5.5193866e+06   0.000000e+00   0.000000e+00     83s

Root relaxation: objective 5.519387e+06, 39905 iterations, 22.88 seconds

    Nodes    |    Current Node    |     Objective Bounds      |     Work
 Expl Unexpl |  Obj  Depth IntInf | Incumbent    BestBd   Gap | It/Node Time

     0     0 5519386.59    0  177          - 5519386.59      -     -   85s
H    0     0                    -652655.1498 5519386.59   946%     -   87s
H    0     0                    1299296.6326 5519386.59   325%     -  110s
     0     0 5413842.37    0  185 1299296.63 5413842.37   317%     -  111s
     0     0 5413842.37    0  159 1299296.63 5413842.37   317%     -  123s
     0     0 3750812.82    0  115 1299296.63 3750812.82   189%     -  132s
     0     0 3749853.98    0  118 1299296.63 3749853.98   189%     -  132s
     0     0 3746194.68    0  112 1299296.63 3746194.68   188%     -  132s
     0     0 3746075.68    0  112 1299296.63 3746075.68   188%     -  132s
     0     0 3706464.66    0  156 1299296.63 3706464.66   185%     -  133s
     0     0 3706464.66    0  160 1299296.63 3706464.66   185%     -  138s
     0     0 3706464.66    0  153 1299296.63 3706464.66   185%     -  144s
     0     0 3701166.47    0  157 1299296.63 3701166.47   185%     -  144s
     0     0 3693027.48    0  155 1299296.63 3693027.48   184%     -  145s
     0     0 3692894.60    0  158 1299296.63 3692894.60   184%     -  145s
     0     0 3686331.23    0  175 1299296.63 3686331.23   184%     -  146s
     0     0 3678805.47    0  180 1299296.63 3678805.47   183%     -  146s
     0     0 3677212.86    0  176 1299296.63 3677212.86   183%     -  146s
     0     0 3672271.43    0  170 1299296.63 3672271.43   183%     -  147s
     0     0 3672257.34    0  173 1299296.63 3672257.34   183%     -  147s
     0     0 3658736.55    0  180 1299296.63 3658736.55   182%     -  147s
     0     0 3657245.48    0  190 1299296.63 3657245.48   181%     -  148s
     0     0 3656071.69    0  193 1299296.63 3656071.69   181%     -  148s
     0     0 3655990.56    0  193 1299296.63 3655990.56   181%     -  148s
     0     0 3654512.57    0  198 1299296.63 3654512.57   181%     -  148s
     0     0 3654512.57    0   85 1299296.63 3654512.57   181%     -  151s
     0     0 3608318.23    0  155 1299296.63 3608318.23   178%     -  155s
     0     0 3591886.86    0  167 1299296.63 3591886.86   176%     -  155s
     0     0 3573650.31    0  182 1299296.63 3573650.31   175%     -  156s
     0     0 3566065.44    0  187 1299296.63 3566065.44   174%     -  156s
     0     0 3565108.18    0  192 1299296.63 3565108.18   174%     -  156s
     0     0 3563505.11    0  200 1299296.63 3563505.11   174%     -  156s
     0     0 3562877.92    0  196 1299296.63 3562877.92   174%     -  156s
     0     0 3562857.83    0  197 1299296.63 3562857.83   174%     -  156s
     0     0 3561948.56    0  199 1299296.63 3561948.56   174%     -  156s
     0     0 3561948.56    0  199 1299296.63 3561948.56   174%     -  156s
     0     0 3518556.48    0  189 1299296.63 3518556.48   171%     -  157s
     0     0 3517031.92    0  191 1299296.63 3517031.92   171%     -  157s
     0     0 3516701.92    0  191 1299296.63 3516701.92   171%     -  158s
     0     0 3516460.76    0  191 1299296.63 3516460.76   171%     -  158s
     0     0 3516284.32    0  193 1299296.63 3516284.32   171%     -  158s
     0     0 3516272.51    0  192 1299296.63 3516272.51   171%     -  158s
     0     0 3515454.83    0  194 1299296.63 3515454.83   171%     -  158s
     0     0 3515334.95    0  190 1299296.63 3515334.95   171%     -  158s
     0     0 3515293.31    0  192 1299296.63 3515293.31   171%     -  158s
     0     0 3512171.28    0  198 1299296.63 3512171.28   170%     -  158s
     0     0 3512165.55    0  202 1299296.63 3512165.55   170%     -  159s
     0     0 3511548.64    0  202 1299296.63 3511548.64   170%     -  159s
     0     0 3510036.00    0  204 1299296.63 3510036.00   170%     -  159s
     0     0 3509906.07    0  206 1299296.63 3509906.07   170%     -  159s
     0     0 3509768.44    0  204 1299296.63 3509768.44   170%     -  159s
     0     0 3509665.22    0  205 1299296.63 3509665.22   170%     -  159s
     0     0 3509587.49    0  205 1299296.63 3509587.49   170%     -  159s
     0     0 3509587.49    0  205 1299296.63 3509587.49   170%     -  159s
     0     0 3509185.48    0  203 1299296.63 3509185.48   170%     -  159s
     0     0 3508714.92    0  201 1299296.63 3508714.92   170%     -  160s
     0     0 3507737.89    0  204 1299296.63 3507737.89   170%     -  160s
     0     0 3507623.42    0  207 1299296.63 3507623.42   170%     -  160s
     0     0 3507612.32    0  207 1299296.63 3507612.32   170%     -  160s
     0     0 3507315.30    0  205 1299296.63 3507315.30   170%     -  160s
     0     0 3507315.30    0  205 1299296.63 3507315.30   170%     -  163s
     0     2 3507315.30    0  205 1299296.63 3507315.30   170%     -  165s
    10    12 3450957.66    4  169 1299296.63 3479803.90   168%   620  170s
    30    27 3398958.06    9  144 1299296.63 3479803.90   168%   478  177s
    60    55 3353616.58   12  162 1299296.63 3479803.90   168%   396  180s
   116    74 3144168.64   18   71 1299296.63 3477455.35   168%   416  185s
   180   120 2990665.00   29   75 1299296.63 3455439.20   166%   483  190s
   195   130 2933209.68   33   47 1299296.63 3455439.20   166%   461  199s
   215   139 2773578.52   42   53 1299296.63 3455439.20   166%   454  200s
   319   186 1794942.03   15   60 1299296.63 3407412.25   162%   405  206s
   451   258 1945349.12   18  126 1299296.63 3352958.47   158%   376  210s
   592   363 1829595.52   54   26 1299296.63 3311281.29   155%   344  215s
   793   488 1848804.50   20   59 1299296.63 3193132.18   146%   314  220s
  1034   616 2760403.59   20  185 1299296.63 3188655.47   145%   286  240s
  1037   618 1879408.94   25  169 1299296.63 3188655.47   145%   286  245s
  1054   629 2220435.35   41  223 1299296.63 3188655.47   145%   281  250s
  1057   631 2097364.38   13  221 1299296.63 3188655.47   145%   280  255s
  1058   635 3188655.47   16  202 1299296.63 3188655.47   145%   302  266s
H 1060   606                    1299296.7168 3188655.47   145%   302  274s
  1064   609 3087355.49   18  194 1299296.72 3188655.47   145%   307  275s
  1076   616 2343222.83   19  139 1299296.72 3188655.47   145%   313  280s
  1085   621 2303727.88   20  169 1299296.72 3188655.47   145%   317  286s
  1112   635 2887028.29   23  164 1299296.72 3176758.66   144%   326  290s
  1174   667 1582040.61   27   98 1299296.72 3156958.66   143%   336  295s
  1288   675 2803142.96   32  148 1299296.72 3156958.66   143%   335  300s
  1461   739 2647114.34   39  127 1299296.72 3156958.66   143%   323  305s
  1659   800 2076462.76   48   67 1299296.72 3142904.31   142%   308  310s
  1899   877 2348116.94   60   99 1299296.72 3142904.31   142%   299  315s
  1965   911 1531875.53   66   85 1299296.72 3142904.31   142%   295  321s
H 1994   879                    1299296.7174 3142904.31   142%   295  321s
  2125   907 1909773.21   89   82 1299296.72 3142904.31   142%   288  325s
  2480   975 1637849.86   27  115 1299296.72 3081463.71   137%   277  331s
  2891  1154 1970240.37   91   59 1299296.72 3077730.81   137%   258  335s
  3087  1278 2033191.21   39  146 1299296.72 3069284.17   136%   261  341s
  3199  1353 2155227.69   51   57 1299296.72 3065790.12   136%   259  345s
H 3300  1381                    1398765.7288 3065790.12   119%   257  345s
  3692  1628 1497273.01   79   27 1398765.73 3031378.10   117%   246  351s
  4079  1834 2456766.95   52   52 1398765.73 3017804.32   116%   238  355s
  4348  1960 2144263.97   38   95 1398765.73 2994900.48   114%   234  361s
  4742  2194 2431046.16   38   37 1398765.73 2966598.41   112%   231  366s
  5212  2420     cutoff   34      1398765.73 2949393.09   111%   228  371s
  5742  2695 2217066.19   25   99 1398765.73 2915924.16   108%   221  376s
H 6119  2862                    1398765.7290 2899675.08   107%   218  379s
  6144  2865 2673710.41   42  140 1398765.73 2899675.08   107%   219  382s
  6413  3011     cutoff   61      1398765.73 2891670.19   107%   218  385s
  6903  3217     cutoff   40      1398765.73 2869489.35   105%   216  392s
  7122  3296 2550325.72   31   73 1398765.73 2862848.49   105%   215  395s
  7698  3480 2710311.53   35   67 1398765.73 2843162.93   103%   216  403s
  8052  3642 2223467.78   37   48 1398765.73 2837719.57   103%   216  407s
  8291  3713     cutoff   33      1398765.73 2827450.93   102%   215  411s
  8662  3859 2221949.10   48   88 1398765.73 2815938.08   101%   215  415s
  9761  4345 1903330.57   53   41 1398765.73 2776717.52  98.5%   209  423s
 10331  4539 1657179.81   57   44 1398765.73 2763675.08  97.6%   207  431s
 10868  4763 1852990.26   58   97 1398765.73 2749793.64  96.6%   206  436s
 11274  4909 2234569.44   45   53 1398765.73 2741222.16  96.0%   206  442s
 11726  5112 2403574.06   41  120 1398765.73 2726486.34  94.9%   204  446s
 12244  5325     cutoff   53      1398765.73 2715490.82  94.1%   202  451s
 12725  5540 2087532.53   65  122 1398765.73 2707141.78  93.5%   201  470s
 12954  5636 2610209.03   28   59 1398765.73 2700713.23  93.1%   202  475s
 13193  5706     cutoff   43      1398765.73 2697378.66  92.8%   201  480s
 13763  5925 2444602.41   32   74 1398765.73 2694475.71  92.6%   201  486s
 14161  6036 1998924.16   44   72 1398765.73 2684102.01  91.9%   201  491s
 14702  6215 2417632.45   39  110 1398765.73 2672474.42  91.1%   200  496s
 15209  6419 2530922.06   34   63 1398765.73 2668710.51  90.8%   199  501s
 15699  6605     cutoff   33      1398765.73 2654937.19  89.8%   199  505s
 16085  6764 2518648.09   26   87 1398765.73 2647638.23  89.3%   199  511s
 16407  6859 1568785.71   34   48 1398765.73 2638883.24  88.7%   200  516s
 16728  6977 2035266.77   46   59 1398765.73 2634164.52  88.3%   201  521s
 17116  7099 1711362.52   51   42 1398765.73 2632978.01  88.2%   201  528s
 17550  7249 2185863.43   51  129 1398765.73 2623245.34  87.5%   201  533s
 18107  7453 1818005.20   46   47 1398765.73 2615344.24  87.0%   200  538s
 18662  7625 1745733.61   58   67 1398765.73 2601123.03  86.0%   200  543s
 19087  7808 2082372.82   31   70 1398765.73 2598562.77  85.8%   200  548s
 19121  7782 1929149.99   35   73 1398765.73 2597923.08  85.7%   200  553s
 19644  7997 2213793.88   30   67 1398765.73 2591442.88  85.3%   199  558s
 20175  8112 2316031.71   35   42 1398765.73 2580881.73  84.5%   199  563s
 20674  8312 1667101.27   63  185 1398765.73 2575316.89  84.1%   199  825s
 20678  8315 1628780.45   57  183 1398765.73 2575316.89  84.1%   199  831s
 20682  8317 2113212.51   51  195 1398765.73 2575316.89  84.1%   199  835s
 20698  8328 2489203.10   44  223 1398765.73 2575316.89  84.1%   199  840s
 20720  8343 2281462.74   48  248 1398765.73 2575316.89  84.1%   198  845s
 20735  8353 2511693.01   32  224 1398765.73 2575316.89  84.1%   198  850s
 20750  8363 2376619.39   57  231 1398765.73 2575316.89  84.1%   198  855s
 20762  8371 2252088.52   35  240 1398765.73 2575316.89  84.1%   198  860s
 20771  8377 2149766.54   82  236 1398765.73 2575316.89  84.1%   198  865s
 20787  8387 1914212.26   35  269 1398765.73 2575316.89  84.1%   198  871s
 20798  8395 2489203.10   44  256 1398765.73 2575316.89  84.1%   198  877s
 20802  8397 2254439.20   68  259 1398765.73 2575316.89  84.1%   198  880s
 20810  8403 1523592.42   63  260 1398765.73 2575316.89  84.1%   198  885s
 20820  8409 2281462.74   48  259 1398765.73 2575316.89  84.1%   198  890s
 20829  8415 1989788.17   53  259 1398765.73 2575316.89  84.1%   197  895s
 20852  8431 2538532.08   55  275 1398765.73 2575316.89  84.1%   197  901s
 20865  8439 2544879.93   30  300 1398765.73 2575316.89  84.1%   197  905s
 20881  8450 1740401.69   41  291 1398765.73 2575316.89  84.1%   197  911s
 20887  8454 1914212.26   35  292 1398765.73 2575316.89  84.1%   197  915s
 20899  8462 2247162.02   35  285 1398765.73 2575316.89  84.1%   197  921s
 20904  8465 1807963.93   58  297 1398765.73 2575316.89  84.1%   197  925s
H20907  8039                    1398765.7322 2575316.89  84.1%   197  927s
 20912  8043 1610699.78   40  276 1398765.73 2575316.89  84.1%   197  930s
 20923  8050 2435590.99   43  292 1398765.73 2575316.89  84.1%   197  936s
 20930  8055 2216886.55   41  301 1398765.73 2575316.89  84.1%   196  940s
 20937  8059 1843197.50   50  298 1398765.73 2575316.89  84.1%   196  945s
 20947  8066 2018808.84   42  266 1398765.73 2575316.89  84.1%   196  951s
 20954  8071 1880641.08   63  279 1398765.73 2575316.89  84.1%   196  955s
 20961  8075 2374037.83   69  282 1398765.73 2575316.89  84.1%   196  960s
 20967  8079 1810126.72   41  275 1398765.73 2575316.89  84.1%   196  965s
 20968  8080 2261648.81   45  278 1398765.73 2575316.89  84.1%   196  970s
 20970  8081 1529024.16   50  278 1398765.73 2575316.89  84.1%   196  980s
 20971  8085 2575316.89   25  279 1398765.73 2575316.89  84.1%   202  994s
 20973  8086 2575316.89   26  280 1398765.73 2575316.89  84.1%   202  999s
 20977  8089 2575316.89   27  272 1398765.73 2575316.89  84.1%   202 1009s
 20981  8090 2575316.89   28  259 1398765.73 2575316.89  84.1%   203 1020s
 20985  8091 2316560.79   28  243 1398765.73 2575316.89  84.1%   203 1029s
 20989  8092 2575316.89   29  243 1398765.73 2575316.89  84.1%   203 1034s
 20993  8091 2267956.03   29  220 1398765.73 2575316.89  84.1%   204 1043s
 20998  8093 2575316.89   30  248 1398765.73 2575316.89  84.1%   204 1048s
 21004  8096 2575316.89   30  157 1398765.73 2575316.89  84.1%   205 1052s
 21010  8093 2575316.89   31  240 1398765.73 2575316.89  84.1%   205 1055s
 21017  8092     cutoff   31      1398765.73 2575316.89  84.1%   205 1061s
 21034  8096 1627430.66   33  115 1398765.73 2575316.89  84.1%   207 1067s
 21050  8096 2226188.38   35  108 1398765.73 2575316.89  84.1%   207 1072s
 21059  8096 2223109.47   36  120 1398765.73 2575316.89  84.1%   208 1075s
 21082  8103 2214778.31   38  102 1398765.73 2575316.89  84.1%   209 1080s
 21123  8103 2208454.04   42  101 1398765.73 2575316.89  84.1%   210 1086s
 21147  8111 2179144.95   44   91 1398765.73 2575316.89  84.1%   211 1091s
 21191  8112 2138132.50   49   95 1398765.73 2575316.89  84.1%   213 1096s
 21245  8117 1892016.10   59   96 1398765.73 2575316.89  84.1%   214 1100s
 21312  8113 2575316.89   32   74 1398765.73 2575316.89  84.1%   216 1106s
 21377  8128 2529414.15   37   57 1398765.73 2575316.89  84.1%   218 1111s
 21474  8163 1768321.52   55   73 1398765.73 2575316.89  84.1%   219 1116s
 21596  8181 2484884.55   37  154 1398765.73 2575316.89  84.1%   220 1121s
 21717  8199 1961437.10   52   78 1398765.73 2575316.89  84.1%   222 1126s
 21858  8241     cutoff   55      1398765.73 2572260.28  83.9%   224 1131s
 21977  8234 2296575.34   41   72 1398765.73 2554262.87  82.6%   227 1136s
 22137  8221 2304265.52   40  110 1398765.73 2532323.41  81.0%   230 1142s
 22339  8246 1895271.88   38   85 1398765.73 2518005.65  80.0%   232 1147s
 22451  8262 2408385.78   36  106 1398765.73 2509343.81  79.4%   233 1151s
 22588  8247 1985747.51   38  121 1398765.73 2500610.80  78.8%   235 1157s
 22696  8261 2466875.38   49  108 1398765.73 2500610.80  78.8%   236 1160s
 22924  8277 1537985.02   50   61 1398765.73 2470167.48  76.6%   240 1167s
 23066  8271 1856536.17   48   50 1398765.73 2466954.01  76.4%   241 1170s
 23339  8246 1517685.88   52   25 1398765.73 2449707.16  75.1%   245 1179s
 23468  8225 1846972.87   48  112 1398765.73 2445424.53  74.8%   247 1182s
 23630  8220 1767811.83   45   52 1398765.73 2440774.84  74.5%   249 1187s
 23831  8182     cutoff   42      1398765.73 2436638.15  74.2%   251 1191s
 23989  8159 1910680.80   43   75 1398765.73 2419258.03  73.0%   253 1195s
 24165  8147 2325200.94   47  120 1398765.73 2410119.91  72.3%   255 1200s
 24309  8156     cutoff   45      1398765.73 2403222.85  71.8%   257 1205s
 24694  8164 1492188.18   46  104 1398765.73 2385949.68  70.6%   261 1214s
 24864  8151 1662763.73   63  101 1398765.73 2377343.75  70.0%   263 1221s
 25125  8132 1925736.68   43   67 1398765.73 2348008.21  67.9%   265 1230s
 25395  8085 1708829.92   45   97 1398765.73 2334609.52  66.9%   267 1239s
 25710  7999 1658569.91   43   73 1398765.73 2309769.58  65.1%   269 1248s
 26015  7943 2078284.57   55   64 1398765.73 2292077.99  63.9%   272 1258s
 26361  7916     cutoff   80      1398765.73 2286134.63  63.4%   273 1268s
 26754  7860 1949181.82   49  105 1398765.73 2271157.67  62.4%   275 1278s
 27145  7797 1813969.49   52   56 1398765.73 2246962.64  60.6%   276 1289s
 27507  7749     cutoff   50      1398765.73 2233367.29  59.7%   278 1311s
 27849  7662 1542397.26   49   36 1398765.73 2226119.24  59.1%   280 1322s
 28246  7671 2185148.23   41   61 1398765.73 2191028.00  56.6%   282 1333s
 28601  7646 2035738.14   49   99 1398765.73 2178702.74  55.8%   284 1344s
 28817  7602 1961174.04   57   57 1398765.73 2171950.76  55.3%   287 1357s
 29192  7532 1942818.81   39  221 1398765.73 2157005.51  54.2%   289 1370s
 29555  7469 infeasible   48      1398765.73 2145271.67  53.4%   291 1382s
 29933  7428 1693338.19   54   51 1398765.73 2137910.14  52.8%   293 1396s
 30311  7379 2123921.36   44  153 1398765.73 2126350.95  52.0%   296 1410s
 30620  7327 1931579.08   48   55 1398765.73 2105804.22  50.5%   299 1423s
 31047  7260     cutoff   47      1398765.73 2100402.80  50.2%   302 1445s
 31561  7193 1670285.92   45   39 1398765.73 2077026.10  48.5%   304 1459s
 32078  7144 1460819.50   56   75 1398765.73 2072987.78  48.2%   306 1474s
 32533  7075 1762910.81   55  125 1398765.73 2055399.16  46.9%   308 1488s
 32985  7031     cutoff   73      1398765.73 2052845.01  46.8%   309 1503s
 33394  6980     cutoff   46      1398765.73 2035073.16  45.5%   311 1532s
 33546  6957 1405144.02   42   92 1398765.73 2030581.52  45.2%   313 1545s
 33643  6884 1603951.47   50   84 1398765.73 2029546.24  45.1%   313 1561s
 34165  6815 1591395.52   57  131 1398765.73 2025168.80  44.8%   315 1574s
 34704  6696 1566588.16   45   85 1398765.73 2006890.83  43.5%   316 1589s
 35254  6634     cutoff   52      1398765.73 1997745.26  42.8%   317 1604s
 35667  6575     cutoff   61      1398765.73 1993720.93  42.5%   319 1614s
 36094  6485 1869857.78   45  120 1398765.73 1984629.88  41.9%   321 1629s
 36529  6419 1944489.98   64   42 1398765.73 1971284.26  40.9%   322 1643s
 37027  6317 1805300.98   45  185 1398765.73 1961694.59  40.2%   323 1657s
 37412  6181     cutoff   66      1398765.73 1953438.50  39.7%   325 1672s
 37923  6040 1670785.75   35  197 1398765.73 1942352.52  38.9%   326 1686s
 38322  5937 1464237.48   61   95 1398765.73 1936295.75  38.4%   328 1700s
 38707  5855 1762636.32   40  148 1398765.73 1929080.06  37.9%   329 1714s
 39176  5728 1594544.54   36   35 1398765.73 1925911.67  37.7%   330 1728s
 39576  5618 1922008.45   43  102 1398765.73 1922008.45  37.4%   332 1741s
 40128  5522 1565307.54   45  113 1398765.73 1922008.45  37.4%   332 1754s
 40681  5422     cutoff   44      1398765.73 1907515.77  36.4%   331 1767s
 41196  5379 1734876.19   59   44 1398765.73 1902438.86  36.0%   331 1781s
 41610  5246 1506530.64   49   43 1398765.73 1893741.43  35.4%   332 1797s
 42045  5094     cutoff   62      1398765.73 1882787.15  34.6%   333 1809s
 42638  4990 1410194.87   55   59 1398765.73 1876694.54  34.2%   332 1820s
 43081  4873     cutoff   56      1398765.73 1873177.38  33.9%   332 1831s
 43457  4761 1741990.28   46   45 1398765.73 1868611.49  33.6%   333 1843s
 43973  4651 1462545.47   42  136 1398765.73 1861007.95  33.0%   332 1854s
 44429  4565 1652501.35   57   57 1398765.73 1853968.64  32.5%   332 1864s
 44778  4507     cutoff   63      1398765.73 1851667.92  32.4%   332 1876s
 45123  4390 1534498.60   70   49 1398765.73 1846822.77  32.0%   333 1887s
 45512  4364 1748466.48   57  125 1398765.73 1839941.27  31.5%   333 1899s
 45917  4403 1707369.59   62   57 1398765.73 1834291.92  31.1%   333 1910s
 46282  4398 1577936.49   49   68 1398765.73 1830726.34  30.9%   333 1922s
 46649  4369     cutoff   59      1398765.73 1822890.67  30.3%   333 1928s
 46983  4346 1797435.27   79   19 1398765.73 1818242.16  30.0%   333 1938s
 47296  4333     cutoff   56      1398765.73 1812580.95  29.6%   333 1949s
 47689  4299 1496405.33   55   74 1398765.73 1807915.91  29.3%   333 1956s
 47970  4241     cutoff   55      1398765.73 1801208.46  28.8%   333 1962s
 48268  4190 1410136.02   46  192 1398765.73 1797151.82  28.5%   333 1968s
 48510  4157     cutoff   70      1398765.73 1791979.68  28.1%   334 1975s
 48858  4112     cutoff   47      1398765.73 1787500.52  27.8%   333 1981s
 49166  4092 1552629.52   75   20 1398765.73 1781738.74  27.4%   333 1991s
 49460  4054     cutoff   48      1398765.73 1779344.62  27.2%   334 2001s
 49751  4024 infeasible   60      1398765.73 1773255.99  26.8%   334 2008s
 50025  3992 1666836.91   53   87 1398765.73 1768733.27  26.4%   334 2019s
 50381  3976 infeasible   57      1398765.73 1765839.93  26.2%   334 2028s
 50717  3958 1764019.39   48  204 1398765.73 1764019.39  26.1%   334 2037s
 51091  3969     cutoff   56      1398765.73 1757832.44  25.7%   334 2044s
 51417  3954     cutoff   66      1398765.73 1750901.05  25.2%   333 2049s
 51716  3932     cutoff   62      1398765.73 1747233.57  24.9%   333 2056s
 52041  3905     cutoff   78      1398765.73 1743207.51  24.6%   333 2064s
 52350  3885     cutoff   65      1398765.73 1738529.36  24.3%   333 2071s
 52644  3884 1685409.13   40   60 1398765.73 1734875.25  24.0%   333 2083s
 52896  3855 1473411.04   76   39 1398765.73 1732908.45  23.9%   333 2093s
 53251  3867     cutoff   53      1398765.73 1732099.19  23.8%   333 2102s
 53538  3832 1453518.21   67   78 1398765.73 1728305.43  23.6%   334 2108s
 53776  3786     cutoff   51      1398765.73 1721391.95  23.1%   334 2114s
 54034  3747 1685877.25   43   63 1398765.73 1718173.82  22.8%   334 2123s
 54367  3726     cutoff   46      1398765.73 1714898.92  22.6%   334 2132s
 54701  3706 infeasible   57      1398765.73 1712034.53  22.4%   334 2141s
 55052  3692 1536720.56   86   30 1398765.73 1705593.29  21.9%   335 2150s
 55291  3660     cutoff   61      1398765.73 1702459.71  21.7%   335 2159s
 55554  3609     cutoff   51      1398765.73 1700553.54  21.6%   335 2168s
 55859  3582     cutoff   91      1398765.73 1693549.59  21.1%   336 2177s
 56165  3544 1593600.66   44   78 1398765.73 1689658.80  20.8%   335 2186s
 56481  3500     cutoff   65      1398765.73 1688045.43  20.7%   336 2195s
 56880  3502     cutoff   33      1398765.73 1683802.09  20.4%   336 2204s
 57148  3464     cutoff   63      1398765.73 1678256.73  20.0%   336 2214s
 57531  3459     cutoff   59      1398765.73 1673903.17  19.7%   336 2222s
 57770  3405     cutoff   42      1398765.73 1670651.23  19.4%   336 2230s
 58097  3388     cutoff   64      1398765.73 1667680.65  19.2%   337 2236s
 58411  3398     cutoff   54      1398765.73 1663488.21  18.9%   336 2244s
 58682  3350     cutoff   65      1398765.73 1658985.40  18.6%   336 2251s
 58898  3318 1625810.30   81   33 1398765.73 1654405.93  18.3%   336 2260s
 59190  3299     cutoff   46      1398765.73 1651853.83  18.1%   337 2265s
 59412  3265     cutoff   62      1398765.73 1647529.10  17.8%   337 2274s
 59704  3255     cutoff   51      1398765.73 1644994.03  17.6%   337 2281s
 60039  3237 1560351.77   53   65 1398765.73 1639876.61  17.2%   337 2289s
 60310  3195     cutoff   50      1398765.73 1636296.97  17.0%   337 2295s
 60534  3146     cutoff   86      1398765.73 1633074.76  16.8%   337 2303s
 60746  3091 1503344.34   55   90 1398765.73 1631226.42  16.6%   337 2310s
 61051  3042 1607559.60   69   96 1398765.73 1626110.07  16.3%   337 2316s
 61297  2980     cutoff   73      1398765.73 1622703.94  16.0%   337 2322s
 61509  2915     cutoff   73      1398765.73 1618649.44  15.7%   338 2329s
 61754  2854     cutoff   48      1398765.73 1614386.63  15.4%   338 2333s
 61898  2771     cutoff   59      1398765.73 1610397.63  15.1%   338 2337s
 62131  2726     cutoff   72      1398765.73 1606300.47  14.8%   338 2343s
 62322  2666     cutoff   58      1398765.73 1603312.51  14.6%   338 2349s
 62563  2628 1596065.74   40   65 1398765.73 1600355.11  14.4%   338 2357s
 62861  2574     cutoff   67      1398765.73 1597028.34  14.2%   338 2364s
 63173  2552     cutoff   49      1398765.73 1592323.42  13.8%   338 2369s
 63346  2487     cutoff   55      1398765.73 1588912.53  13.6%   338 2374s
 63586  2429     cutoff   55      1398765.73 1585216.27  13.3%   338 2379s
 63826  2390     cutoff   44      1398765.73 1582074.91  13.1%   338 2385s
 64092  2331 1536919.64   41   15 1398765.73 1578917.22  12.9%   338 2393s
 64319  2271     cutoff   54      1398765.73 1574436.82  12.6%   338 2398s
 64537  2215     cutoff   49      1398765.73 1571676.91  12.4%   338 2403s
 64759  2159 1493450.33   54   69 1398765.73 1567254.75  12.0%   338 2409s
 65039  2097     cutoff   55      1398765.73 1563982.26  11.8%   338 2413s
 65268  2110     cutoff   56      1398765.73 1560360.05  11.6%   338 2420s
 65283  2023     cutoff   57      1398765.73 1560007.52  11.5%   338 2425s
 65501  1979     cutoff   67      1398765.73 1556553.65  11.3%   339 2430s
 65690  1905 1456400.36   39   65 1398765.73 1552944.15  11.0%   339 2436s
 65894  1845     cutoff   52      1398765.73 1549465.39  10.8%   339 2441s
 66080  1777 1544128.01   34   66 1398765.73 1545998.61  10.5%   339 2447s
 66269  1715     cutoff   43      1398765.73 1542566.77  10.3%   339 2454s
 66482  1651 1499053.55   55   63 1398765.73 1539491.16  10.1%   339 2458s
 66646  1575 1525838.57   57   33 1398765.73 1535997.60  9.81%   339 2461s
 66806  1500     cutoff   63      1398765.73 1532108.66  9.53%   339 2466s
 67026  1452     cutoff   75      1398765.73 1528647.49  9.29%   339 2470s
 67187  1379     cutoff   37      1398765.73 1524989.62  9.02%   339 2475s
 67615  1245 1428305.92   54  106 1398765.73 1517762.27  8.51%   339 2483s
 67826  1177 infeasible   64      1398765.73 1513613.36  8.21%   339 2487s
 67981  1113     cutoff   58      1398765.73 1509912.04  7.95%   339 2493s
 68128  1034     cutoff   61      1398765.73 1506193.79  7.68%   339 2497s
 68269   951     cutoff   73      1398765.73 1502004.07  7.38%   339 2501s
 68597   802     cutoff   57      1398765.73 1492890.82  6.73%   339 2506s
 68746   722     cutoff   57      1398765.73 1487959.77  6.38%   339 2510s
 69111   577 1448368.77   52   93 1398765.73 1477339.29  5.62%   338 2516s
 69386   421     cutoff   56      1398765.73 1465393.82  4.76%   338 2520s
 69713   174     cutoff   45      1398765.73 1443993.89  3.23%   338 2525s

Cutting planes:
  Gomory: 164
  Implied bound: 13
  Projected implied bound: 2
  MIR: 17
  Flow cover: 159
  Zero half: 2

Explored 70027 nodes (23764093 simplex iterations) in 2532.74 seconds
Thread count was 4 (of 16 available processors)

Solution count 7: 1.39877e+06 1.39877e+06 1.39877e+06 ... -652655

Optimal solution found (tolerance 1.00e-04)
Best objective 1.398765728808e+06, best bound 1.398765732156e+06, gap 0.0000%

***
***  |- Calculation finished, took 2,532.79 (2532.79) sec.
***  |-----------------------------------------------------------------------------------------------------------------------
***
*****************************************************************************************************************************
#############################################################################################################################
###
### Results
###
### The objective of the solution is 1,398,765.7288 (1398765.7288) and is feasible with a Gap of 0.0
###
### Service 81 (MECL1) is operated by 6 vessels from type 30 (PMax35)
###  |- Vessel  9 has the path [9, 332, 326, 342, 333, 324, 4, 294, 284, 7, 298, 196, 0]
###  |  9 (BEANR Out@344.0) - 332 (USEWR In@608.0/Out@618.0) - 326 (USCHS In@656.0/Out@666.0) - 342 (USORF In@691.0/Out@704.0
###  |  ) - 333 (USEWR In@728.0/Out@744.0) - 324 (TRZMK In@1063.0/Out@1077.0) - 4 (AEJEA In@1177.0/Out@1201.0) - 294 (PKBQM I
###  |  n@1258.0/Out@1288.0) - 284 (OMSLL In@1410.0/Out@1423.0) - 7 (AEJEA In@1681.0/Out@1705.0) - 298 (PKBQM In@1762.0/Out@1
###  |  792.0) - 196 (INNSA In@1856.0/Out@1872.0) - 0 (DUMMY_END Ziel-Service 81)
###  |   |- and carried Demand 237,   34.0 containers from 298 to 196
###  |   |- and carried Demand 238,   84.0 containers from   7 to 298
###  |   |- and carried Demand 239,   50.0 containers from   7 to 298
###  |   |- and carried Demand 297,  254.0 containers from 294 to 196
###  |   |- and carried Demand 298,    1.0 containers from 294 to 196
###  |   |- and carried Demand 299,  135.0 containers from 294 to 196
###  |   |- and carried Demand 302,   75.0 containers from   4 to 196
###  |   |- and carried Demand 303,  200.0 containers from   4 to 294
###  |   |- and carried Demand 304,   24.0 containers from   4 to 294
###  |   |- and carried Demand 305,   26.0 containers from   4 to 196
###  |   |- and carried Demand 306,  144.0 containers from   4 to 196
###  |   |- and carried Demand 307,    1.0 containers from   4 to 196
###  |   |- and carried Demand 309,  339.0 containers from 342 to   4
###  |   |- and carried Demand 310,  115.0 containers from 342 to   4
###  |   |- and carried Demand 311,    3.0 containers from 342 to 284
###  |   |- and carried Demand 312,    2.0 containers from 342 to 294
###  |   |- and carried Demand 313,  194.0 containers from 326 to   4
###  |   |- and carried Demand 314,   49.0 containers from 326 to   4
###  |   |- and carried Demand 315,   40.0 containers from 326 to 294
###  |   |- and carried Demand 318,  842.0 containers from 332 to   4
###  |   |- and carried Demand 319,   99.0 containers from 332 to   4
###  |   |- and carried Demand 320,  123.0 containers from 332 to 294
###  |   |- and carried Demand 321,    1.0 containers from 332 to 294
###  |- Vessel 10 has the path [10, 2, 291, 292, 293, 194, 195, 0]
###  |  10 (BEANR Out@512.0) - 2 (AEJEA In@841.0/Out@865.0) - 291 (PKBQM In@922.0/Out@952.0) - 292 (PKBQM In@992.0/Out@1020.0
###  |  ) - 293 (PKBQM In@1090.0/Out@1120.0) - 194 (INNSA In@1590.0/Out@1622.0) - 195 (INNSA In@1688.0/Out@1704.0) - 0 (DUMMY
###  |  _END Ziel-Service 81)
###  |   |- and carried Demand 120,  237.0 containers from 292 to 194
###  |   |- and carried Demand 121,    2.0 containers from 292 to 194
###  |   |- and carried Demand 123,   97.0 containers from 292 to 194
###  |   |- and carried Demand 323,  244.0 containers from 293 to 195
###  |   |- and carried Demand 324,   67.0 containers from 293 to 195
###  |   |- and carried Demand 333,  237.0 containers from 291 to 194
###  |   |- and carried Demand 334,    2.0 containers from 291 to 194
###  |   |- and carried Demand 336,   97.0 containers from 291 to 194
###  |   |- and carried Demand 338,  704.0 containers from   2 to 195
###  |   |- and carried Demand 339,    8.0 containers from   2 to 195
###  |   |- and carried Demand 340,  156.0 containers from   2 to 291
###  |   |- and carried Demand 341,   45.0 containers from   2 to 291
###  |   |- and carried Demand 342,   16.0 containers from   2 to 194
###  |   |- and carried Demand 343,  264.0 containers from   2 to 194
###  |- Vessel 11 has the path [13, 313, 192, 0]
###  |  13 (BEANR Out@680.0) - 313 (TRALI In@946.0/Out@964.0) - 192 (INNSA In@1352.0/Out@1368.0) - 0 (DUMMY_END Ziel-Service 
###  |  81)
###  |- Vessel 12 has the path [16, 314, 5, 295, 193, 0]
###  |  16 (BEANR Out@848.0) - 314 (TRALI In@1114.0/Out@1132.0) - 5 (AEJEA In@1345.0/Out@1369.0) - 295 (PKBQM In@1426.0/Out@1
###  |  456.0) - 193 (INNSA In@1520.0/Out@1536.0) - 0 (DUMMY_END Ziel-Service 81)
###  |   |- and carried Demand 284,   86.0 containers from   5 to 295
###  |   |- and carried Demand 285,  118.0 containers from   5 to 295
###  |- Vessel 17 has the path [158, 270, 323, 191, 0]
###  |  158 (GBFXT Out@580.0) - 270 (NLRTM In@610.0/Out@622.0) - 323 (TRZMK In@895.0/Out@909.0) - 191 (INNSA In@1184.0/Out@12
###  |  00.0) - 0 (DUMMY_END Ziel-Service 81)
###  |- Vessel 20 has the path [200, 190, 0]
###  |  200 (INPAV Out@900.0) - 190 (INNSA In@1016.0/Out@1032.0) - 0 (DUMMY_END Ziel-Service 81)
###  |
### Vessels not used in the solution: [1, 2, 3, 4, 5, 6, 7, 8, 13, 14, 15, 16, 18]
###  |-----------------------------------------------------------------------------------------------------------------------
###
#############################################################################################################################

### Detialed variable overview

### All variables with value greater zero:
rho[81,30] = 1
eta[81,30,1] = 1
eta[81,30,2] = 1
eta[81,30,3] = 1
eta[81,30,4] = 1
eta[81,30,5] = 1
eta[81,30,6] = 1
y[9,4,294] = 1
y[9,332,326] = 1
y[9,294,284] = 1
y[9,284,7] = 1
y[9,342,333] = 1
y[9,9,332] = 1
y[9,324,4] = 1
y[9,7,298] = 1
y[9,196,0] = 1
y[9,333,324] = 1
y[9,298,196] = 1
y[9,326,342] = 1
y[10,293,194] = 1
y[10,195,0] = 1
y[10,292,293] = 1
y[10,10,2] = 1
y[10,194,195] = 1
y[10,291,292] = 1
y[10,2,291] = 1
y[11,192,0] = 1
y[11,313,192] = 1
y[11,13,313] = 1
y[12,5,295] = 1
y[12,193,0] = 1
y[12,16,314] = 1
y[12,295,193] = 1
y[12,314,5] = 1
y[17,270,323] = 1
y[17,158,270] = 1
y[17,191,0] = 1
y[17,323,191] = 1
y[20,190,0] = 1
y[20,200,190] = 1
xD[120,293,194] = 237
xD[120,292,293] = 237
xD[121,293,194] = 2
xD[121,292,293] = 2
xD[123,293,194] = 97
xD[123,292,293] = 97
xD[237,298,196] = 34
xD[238,7,298] = 84
xD[239,7,298] = 50
xD[284,5,295] = 86
xD[285,5,295] = 118
xD[297,294,284] = 254
xD[297,284,7] = 254
xD[297,7,298] = 254
xD[297,298,196] = 254
xD[298,294,284] = 1
xD[298,284,7] = 1
xD[298,7,298] = 1
xD[298,298,196] = 1
xD[299,294,284] = 135
xD[299,284,7] = 135
xD[299,7,298] = 135
xD[299,298,196] = 135
xD[302,4,294] = 75
xD[302,294,284] = 75
xD[302,284,7] = 75
xD[302,7,298] = 75
xD[302,298,196] = 75
xD[303,4,294] = 200
xD[304,4,294] = 24
xD[305,4,294] = 26
xD[305,294,284] = 26
xD[305,284,7] = 26
xD[305,7,298] = 26
xD[305,298,196] = 26
xD[306,4,294] = 144
xD[306,294,284] = 144
xD[306,284,7] = 144
xD[306,7,298] = 144
xD[306,298,196] = 144
xD[307,4,294] = 1
xD[307,294,284] = 1
xD[307,284,7] = 1
xD[307,7,298] = 1
xD[307,298,196] = 1
xD[309,342,333] = 339
xD[309,324,4] = 339
xD[309,333,324] = 339
xD[310,342,333] = 115
xD[310,324,4] = 115
xD[310,333,324] = 115
xD[311,4,294] = 3
xD[311,294,284] = 3
xD[311,342,333] = 3
xD[311,324,4] = 3
xD[311,333,324] = 3
xD[312,4,294] = 2
xD[312,342,333] = 2
xD[312,324,4] = 2
xD[312,333,324] = 2
xD[313,342,333] = 194
xD[313,324,4] = 194
xD[313,333,324] = 194
xD[313,326,342] = 194
xD[314,342,333] = 49
xD[314,324,4] = 49
xD[314,333,324] = 49
xD[314,326,342] = 49
xD[315,4,294] = 40
xD[315,342,333] = 40
xD[315,324,4] = 40
xD[315,333,324] = 40
xD[315,326,342] = 40
xD[318,332,326] = 842
xD[318,342,333] = 842
xD[318,324,4] = 842
xD[318,333,324] = 842
xD[318,326,342] = 842
xD[319,332,326] = 99
xD[319,342,333] = 99
xD[319,324,4] = 99
xD[319,333,324] = 99
xD[319,326,342] = 99
xD[320,4,294] = 123
xD[320,332,326] = 123
xD[320,342,333] = 123
xD[320,324,4] = 123
xD[320,333,324] = 123
xD[320,326,342] = 123
xD[321,4,294] = 1
xD[321,332,326] = 1
xD[321,342,333] = 1
xD[321,324,4] = 1
xD[321,333,324] = 1
xD[321,326,342] = 1
xD[323,293,194] = 244
xD[323,194,195] = 244
xD[324,293,194] = 67
xD[324,194,195] = 67
xD[333,293,194] = 237
xD[333,292,293] = 237
xD[333,291,292] = 237
xD[334,293,194] = 2
xD[334,292,293] = 2
xD[334,291,292] = 2
xD[336,293,194] = 97
xD[336,292,293] = 97
xD[336,291,292] = 97
xD[338,293,194] = 704
xD[338,292,293] = 704
xD[338,194,195] = 704
xD[338,291,292] = 704
xD[338,2,291] = 704
xD[339,293,194] = 8
xD[339,292,293] = 8
xD[339,194,195] = 8
xD[339,291,292] = 8
xD[339,2,291] = 8
xD[340,2,291] = 156
xD[341,2,291] = 45
xD[342,293,194] = 16
xD[342,292,293] = 16
xD[342,291,292] = 16
xD[342,2,291] = 16
xD[343,293,194] = 264
xD[343,292,293] = 264
xD[343,291,292] = 264
xD[343,2,291] = 264
zE[2] = 841
zE[4] = 1177
zE[5] = 1345
zE[7] = 1681
zE[190] = 1016
zE[191] = 1184
zE[192] = 1352
zE[193] = 1520
zE[194] = 1590
zE[195] = 1688
zE[196] = 1856
zE[270] = 610
zE[284] = 1410
zE[291] = 922
zE[292] = 992
zE[293] = 1090
zE[294] = 1258
zE[295] = 1426
zE[298] = 1762
zE[313] = 946
zE[314] = 1114
zE[323] = 895
zE[324] = 1063
zE[326] = 656
zE[332] = 608
zE[333] = 728
zE[342] = 691
zX[2] = 865
zX[4] = 1201
zX[5] = 1369
zX[7] = 1705
zX[9] = 344
zX[10] = 512
zX[13] = 680
zX[16] = 848
zX[158] = 580
zX[190] = 1032
zX[191] = 1200
zX[192] = 1368
zX[193] = 1536
zX[194] = 1622
zX[195] = 1704
zX[196] = 1872
zX[200] = 900
zX[270] = 622
zX[284] = 1423
zX[291] = 952
zX[292] = 1020
zX[293] = 1120
zX[294] = 1288
zX[295] = 1456
zX[298] = 1792
zX[313] = 964
zX[314] = 1132
zX[323] = 909
zX[324] = 1077
zX[326] = 666
zX[332] = 618
zX[333] = 744
zX[342] = 704
phi[9] = 1528
phi[10] = 1192
phi[11] = 688
phi[12] = 688
phi[17] = 620
phi[20] = 132

### All variables with value smaller zero:

### End

real	45m18.512s
user	158m9.150s
sys	11m14.130s
	OpenBLAS 0.2.6 environment removed
	Freetype 2.4.12 environment removed
	Python 3.6.0 environment removed
	Gurobi 8.1.0 environment removed
