### Additional Information to the goal services
# Basic costs on route 24: 23337291.608871102
# Basic costs on route 177: -50105077.37056229
# Basic costs on route 121: 18507829.378721282
# Direct costs (not staggered):
# For goal service 24:
# n_min: 2
# n_max: 4
# lowest costs of the goal service 24 with configuration (24, 18, 3) at 0.0
# For goal service 177:
# n_min: 2
# n_max: 3
# lowest costs of the goal service 177 with configuration (177, 19, 3) at 0.0
# For goal service 121:
# n_min: 1
# n_max: 2
# lowest costs of the goal service 121 with configuration (121, 30, 2) at 0.0
# (24, 18, 1): 23192887.649769925
# (24, 18, 2): 12770064.830545142
# (24, 18, 3): 0.0
# (24, 18, 4): 960427.4400000051
# (24, 19, 1): 35819637.96676747
# (24, 19, 2): 20857256.35701771
# (24, 19, 3): 10911785.04889436
# (24, 19, 4): 11968197.608894356
# (24, 30, 1): 35091718.032195725
# (24, 30, 2): 22316264.777966373
# (24, 30, 3): 10313362.71222771
# (24, 30, 4): 11465842.71222771
# (121, 18, 1): 15029310.107922632
# (121, 18, 2): 1699945.9479226284
# (121, 19, 1): 17289613.729672603
# (121, 19, 2): 1370554.9198750556
# (121, 30, 1): 17785158.767755747
# (121, 30, 2): 0.0
# (177, 18, 1): 19147552.409923494
# (177, 18, 2): 13664337.464197464
# (177, 18, 3): 334973.30419748276
# (177, 19, 1): 26504163.85498204
# (177, 19, 2): 17737353.738509998
# (177, 19, 3): 0.0
# (177, 30, 1): 26038571.13489058
# (177, 30, 2): 20517687.577910952
# (177, 30, 3): 2078478.3611889482
# -------------------------------------------
