### Additional Information to the goal services
# Basic costs on route 24: 10477967.661125805
# Direct costs (not staggered):
# For goal service 24:
# n_min: 2
# n_max: 4
# lowest costs of the goal service 24 with configuration (24, 18, 3) at 0.0
# (24, 18, 1): 10413133.230508938
# (24, 18, 2): 5733498.495346792
# (24, 18, 3): 0.0
# (24, 18, 4): 431212.3199999966
# (24, 19, 1): 16082286.434058852
# (24, 19, 2): 9364482.446007952
# (24, 19, 3): 4899168.797462761
# (24, 19, 4): 5373476.477462769
# (24, 30, 1): 15755465.238945011
# (24, 30, 2): 10019547.451331832
# (24, 30, 3): 4630489.3810001835
# (24, 30, 4): 5147929.3810001835
# -------------------------------------------
