### Additional Information to the goal services
# Basic costs on route 24: 6191526.345210705
# Direct costs (not staggered):
# For goal service 24:
# n_min: 2
# n_max: 4
# lowest costs of the goal service 24 with configuration (24, 18, 3) at 0.0
# (24, 18, 1): 6153215.090755282
# (24, 18, 2): 3387976.383614015
# (24, 18, 3): 0.0
# (24, 18, 4): 254807.27999999747
# (24, 19, 1): 9503169.25648932
# (24, 19, 2): 5533557.809004694
# (24, 19, 3): 2894963.380318908
# (24, 19, 4): 3175236.100318907
# (24, 30, 1): 9310047.641194781
# (24, 30, 2): 5920641.675786991
# (24, 30, 3): 2736198.2705910206
# (24, 30, 4): 3041958.270591017
# -------------------------------------------
