	Freetype 2.4.12 environment established
		library to render fonts
	Python 3.6.0 environment established
	Gurobi 8.1.0 environment established
Instance LSFRP: LSFDRP_1_5_0_1_fr.p
Instance LSFDP: LSFDRP_1_5_0_1_fd_25.p

*****************************************************************************************************************************
*** Solve LSFDRP_1_5_0_1_fd_25 with Gurobi
***
*** Graph info
*** |S|: 18
*** |S^E|: 0
*** |S^C|: 0
*** |V|: 278
*** |A|: 6311
*** |A^i|: 6311
*** |A^f|: 0
*** |M|: 220
*** |E|: 0

Changed value of parameter TimeLimit to 86400.0
   Prev: 1e+100  Min: 0.0  Max: 1e+100  Default: 1e+100
Changed value of parameter Threads to 4
   Prev: 0  Min: 0  Max: 1024  Default: 0
Optimize a model with 80020 rows, 1515219 columns and 5494522 nonzeros
Variable types: 1401600 continuous, 113619 integer (113619 binary)
Coefficient statistics:
  Matrix range     [1e+00, 4e+03]
  Objective range  [4e+01, 2e+08]
  Bounds range     [1e+00, 1e+00]
  RHS range        [1e+00, 6e+00]
Presolve removed 73961 rows and 1400154 columns (presolve time = 6s) ...
Presolve removed 73961 rows and 1404023 columns (presolve time = 59s) ...
Presolve removed 74094 rows and 1404258 columns (presolve time = 61s) ...
Presolve removed 74094 rows and 1404258 columns
Presolve time: 60.88s
Presolved: 5926 rows, 110961 columns, 363401 nonzeros
Variable types: 2482 continuous, 108479 integer (108444 binary)
Warning: Failed to open log file 'gurobi.log'

Root simplex log...

Iteration    Objective       Primal Inf.    Dual Inf.      Time
       0    3.5228138e+09   5.398643e+05   0.000000e+00     63s
   12030    8.5507135e+06   7.936924e+04   0.000000e+00     65s
   18760    6.8508446e+06   2.892269e+04   0.000000e+00     70s
   24565    4.7432424e+06   1.528337e+04   0.000000e+00     75s
   25031    4.6252524e+06   0.000000e+00   0.000000e+00     76s

Root relaxation: objective 4.625252e+06, 25031 iterations, 12.91 seconds

    Nodes    |    Current Node    |     Objective Bounds      |     Work
 Expl Unexpl |  Obj  Depth IntInf | Incumbent    BestBd   Gap | It/Node Time

     0     0 4625252.44    0  128          - 4625252.44      -     -   77s
H    0     0                    -2821360.570 4625252.44   264%     -   77s
H    0     0                    -2794844.334 4625252.44   265%     -   78s
H    0     0                    -193110.0127 4625252.44  2495%     -   97s
     0     0 4461843.93    0  148 -193110.01 4461843.93  2411%     -  101s
     0     0 4461843.93    0  113 -193110.01 4461843.93  2411%     -  113s
H    0     0                    -193110.0124 4461843.93  2411%     -  116s
     0     0 2692780.32    0  109 -193110.01 2692780.32  1494%     -  117s
     0     0 2686518.06    0  119 -193110.01 2686518.06  1491%     -  118s
     0     0 2682796.31    0  120 -193110.01 2682796.31  1489%     -  118s
     0     0 2682796.31    0   97 -193110.01 2682796.31  1489%     -  120s
     0     0 2655946.49    0  109 -193110.01 2655946.49  1475%     -  122s
     0     0 2651448.30    0  117 -193110.01 2651448.30  1473%     -  122s
     0     0 2264757.51    0  106 -193110.01 2264757.51  1273%     -  123s
     0     0 2264597.96    0  107 -193110.01 2264597.96  1273%     -  123s
     0     0 2264591.29    0  109 -193110.01 2264591.29  1273%     -  123s
     0     0 2264591.29    0  109 -193110.01 2264591.29  1273%     -  123s
     0     0 2091148.09    0  104 -193110.01 2091148.09  1183%     -  123s
     0     0 2088634.95    0  108 -193110.01 2088634.95  1182%     -  123s
     0     0 2068627.14    0   99 -193110.01 2068627.14  1171%     -  123s
     0     0 2067368.88    0  102 -193110.01 2067368.88  1171%     -  123s
     0     0 2066176.40    0   99 -193110.01 2066176.40  1170%     -  123s
     0     0 2066167.90    0   99 -193110.01 2066167.90  1170%     -  123s
     0     0 2063403.93    0  104 -193110.01 2063403.93  1169%     -  123s
     0     0 2063123.50    0  100 -193110.01 2063123.50  1168%     -  124s
     0     0 2062376.26    0  108 -193110.01 2062376.26  1168%     -  124s
     0     0 2061615.42    0  109 -193110.01 2061615.42  1168%     -  124s
     0     0 2061602.06    0  110 -193110.01 2061602.06  1168%     -  124s
     0     0 2061524.29    0  111 -193110.01 2061524.29  1168%     -  124s
     0     0 2060264.36    0  112 -193110.01 2060264.36  1167%     -  124s
     0     0 2059762.22    0  111 -193110.01 2059762.22  1167%     -  124s
     0     0 2059757.79    0  111 -193110.01 2059757.79  1167%     -  124s
     0     0 2058601.54    0  115 -193110.01 2058601.54  1166%     -  124s
     0     0 2058355.84    0  113 -193110.01 2058355.84  1166%     -  124s
     0     0 2058309.38    0  117 -193110.01 2058309.38  1166%     -  124s
     0     0 2058233.58    0  118 -193110.01 2058233.58  1166%     -  124s
     0     0 2058073.18    0  119 -193110.01 2058073.18  1166%     -  124s
     0     0 2057992.02    0  120 -193110.01 2057992.02  1166%     -  124s
     0     0 2057129.90    0  120 -193110.01 2057129.90  1165%     -  125s
     0     0 2056729.21    0  121 -193110.01 2056729.21  1165%     -  125s
     0     0 2056589.86    0  122 -193110.01 2056589.86  1165%     -  125s
     0     0 2056533.93    0  114 -193110.01 2056533.93  1165%     -  125s
     0     0 2056367.20    0  131 -193110.01 2056367.20  1165%     -  125s
     0     0 2056367.20    0  129 -193110.01 2056367.20  1165%     -  126s
     0     0 2056367.20    0   94 -193110.01 2056367.20  1165%     -  129s
     0     0 2056367.20    0  107 -193110.01 2056367.20  1165%     -  130s
     0     0 2056367.20    0  112 -193110.01 2056367.20  1165%     -  131s
     0     0 2056367.20    0   91 -193110.01 2056367.20  1165%     -  131s
     0     0 2056367.20    0   94 -193110.01 2056367.20  1165%     -  131s
     0     0 2056367.20    0   98 -193110.01 2056367.20  1165%     -  131s
     0     0 2056367.20    0  101 -193110.01 2056367.20  1165%     -  131s
     0     0 2056367.20    0  105 -193110.01 2056367.20  1165%     -  131s
     0     0 2056367.20    0  110 -193110.01 2056367.20  1165%     -  131s
     0     0 2056367.20    0  116 -193110.01 2056367.20  1165%     -  131s
     0     0 2056367.20    0  116 -193110.01 2056367.20  1165%     -  131s
     0     0 2056367.20    0  118 -193110.01 2056367.20  1165%     -  131s
     0     0 2056367.20    0  119 -193110.01 2056367.20  1165%     -  131s
     0     0 2056367.20    0  116 -193110.01 2056367.20  1165%     -  132s
     0     0 2056367.20    0  125 -193110.01 2056367.20  1165%     -  132s
     0     0 2056367.20    0  127 -193110.01 2056367.20  1165%     -  132s
     0     0 2056367.20    0  125 -193110.01 2056367.20  1165%     -  132s
     0     0 2056367.20    0  122 -193110.01 2056367.20  1165%     -  132s
     0     0 2056340.45    0  121 -193110.01 2056340.45  1165%     -  132s
     0     0 2056139.28    0  114 -193110.01 2056139.28  1165%     -  132s
     0     0 2056074.30    0  114 -193110.01 2056074.30  1165%     -  132s
     0     0 2056042.31    0  113 -193110.01 2056042.31  1165%     -  132s
     0     0 2055861.53    0  128 -193110.01 2055861.53  1165%     -  132s
     0     0 2055861.53    0  128 -193110.01 2055861.53  1165%     -  132s
     0     0 2055587.08    0  116 -193110.01 2055587.08  1164%     -  132s
     0     0 2055383.88    0  129 -193110.01 2055383.88  1164%     -  132s
     0     0 2055383.88    0  129 -193110.01 2055383.88  1164%     -  132s
     0     0 2054610.15    0  142 -193110.01 2054610.15  1164%     -  132s
     0     0 2054278.95    0  131 -193110.01 2054278.95  1164%     -  132s
     0     0 2053930.57    0  131 -193110.01 2053930.57  1164%     -  132s
     0     0 2053813.95    0  136 -193110.01 2053813.95  1164%     -  133s
     0     0 2053496.69    0  134 -193110.01 2053496.69  1163%     -  133s
     0     0 2053496.69    0  134 -193110.01 2053496.69  1163%     -  134s
     0     0 2053496.69    0   94 -193110.01 2053496.69  1163%     -  136s
     0     0 2053496.69    0  112 -193110.01 2053496.69  1163%     -  138s
     0     0 2053496.69    0  122 -193110.01 2053496.69  1163%     -  138s
     0     0 2053496.69    0  130 -193110.01 2053496.69  1163%     -  138s
     0     0 2053496.69    0  128 -193110.01 2053496.69  1163%     -  138s
     0     0 2053496.69    0  138 -193110.01 2053496.69  1163%     -  138s
     0     0 2053496.69    0  148 -193110.01 2053496.69  1163%     -  138s
     0     0 2053496.69    0  120 -193110.01 2053496.69  1163%     -  139s
     0     0 2053496.69    0  118 -193110.01 2053496.69  1163%     -  139s
     0     0 2053496.69    0  123 -193110.01 2053496.69  1163%     -  139s
     0     0 2053496.69    0  124 -193110.01 2053496.69  1163%     -  139s
     0     0 2053496.69    0  128 -193110.01 2053496.69  1163%     -  139s
     0     0 2053496.69    0  130 -193110.01 2053496.69  1163%     -  139s
     0     0 2053472.20    0  129 -193110.01 2053472.20  1163%     -  139s
     0     0 2053396.45    0  129 -193110.01 2053396.45  1163%     -  139s
     0     0 2053050.57    0  130 -193110.01 2053050.57  1163%     -  139s
     0     0 2052780.89    0  133 -193110.01 2052780.89  1163%     -  139s
     0     0 2052771.09    0  133 -193110.01 2052771.09  1163%     -  139s
     0     0 2052771.09    0  133 -193110.01 2052771.09  1163%     -  139s
     0     0 2052381.81    0  143 -193110.01 2052381.81  1163%     -  139s
     0     0 2051884.16    0  129 -193110.01 2051884.16  1163%     -  139s
     0     0 2051755.43    0  144 -193110.01 2051755.43  1162%     -  140s
     0     0 2051638.18    0  145 -193110.01 2051638.18  1162%     -  140s
     0     0 2051628.06    0  148 -193110.01 2051628.06  1162%     -  140s
     0     0 2050519.94    0  141 -193110.01 2050519.94  1162%     -  140s
     0     0 2050367.19    0  144 -193110.01 2050367.19  1162%     -  140s
     0     0 2050061.00    0  147 -193110.01 2050061.00  1162%     -  140s
     0     0 2050061.00    0  145 -193110.01 2050061.00  1162%     -  142s
     0     2 2050061.00    0  143 -193110.01 2050061.00  1162%     -  143s
     7    12 1911660.34    3  109 -193110.01 1937139.62  1103%   590  145s
   130    91 1608886.95   17   77 -193110.01 1900319.35  1084%   275  155s
   202   150 1595697.97   29  109 -193110.01 1900319.35  1084%   235  162s
   479   347 1163827.81   50   82 -193110.01 1900319.35  1084%   177  165s
   913   577 1619224.88   16   95 -193110.01 1741893.80  1002%   171  170s
  1054   649 -16439.844   36  148 -193110.01 1741893.80  1002%   183  183s
  1056   650 1055645.56   78  100 -193110.01 1741893.80  1002%   182  185s
  1074   664 1002382.38   20  111 -193110.01 1741893.80  1002%   194  190s
  1089   677 1513493.65   21   87 -193110.01 1561247.29   908%   208  196s
  1103   681 1497528.32   24  126 -193110.01 1497528.32   875%   209  200s
H 1119   655                    -193109.8841 1490539.59   872%   209  201s
  1165   667 1297339.75   30   74 -193109.88 1473939.93   863%   212  205s
  1471   717 1386866.43   31   88 -193109.88 1392992.37   821%   210  210s
  1979   824 1200947.95   35   79 -193109.88 1311621.49   779%   194  215s
  2596   903 1153142.91   37   63 -193109.88 1273987.76   760%   185  220s
H 2914   881                    -193109.8736 1252437.00   749%   180  221s
  3220  1009 1071312.37   30   63 -193109.87 1235270.66   740%   178  225s
  3523  1157 1068977.04   33   94 -193109.87 1219607.56   732%   175  230s
  4282  1486 1078195.22   38   71 -193109.87 1199900.47   721%   171  235s
  5421  1991 991403.043   43   66 -193109.87 1164278.85   703%   164  240s
  6106  2292 262558.760   37   31 -193109.87 1145178.39   693%   160  245s
  6867  2592 668607.511   43   56 -193109.87 1128181.81   684%   157  257s
  6963  2621 736146.688   33  114 -193109.87 1126266.29   683%   157  261s
  7859  2980 270470.322   59   42 -193109.87 1097325.79   668%   154  266s
  8672  3257 410869.973   44   56 -193109.87 1080538.05   660%   152  271s
  9369  3522 145776.767   41   35 -193109.87 1069839.63   654%   151  275s
 10345  3886 75689.9449   51  148 -193109.87 1057736.13   648%   150  286s
 10383  3911 744715.045   41  126 -193109.87 1057736.13   648%   149  290s
 10464  3965 286772.831   64  186 -193109.87 1057736.13   648%   148  295s
 10468  3972 1057736.13   32  161 -193109.87 1057736.13   648%   150  302s
 10472  3972 1057736.13   33  138 -193109.87 1057736.13   648%   150  305s
 10480  3973 1057736.13   34  163 -193109.87 1057736.13   648%   151  310s
 10506  3985 1057736.13   37   74 -193109.87 1057736.13   648%   151  315s
 10593  4003 1057736.13   48   42 -193109.87 1057736.13   648%   152  320s
 10672  4019     cutoff   60      -193109.87 1057736.13   648%   152  325s
 10918  4070 200666.393   56   96 -193109.87 1057736.13   648%   152  330s
 11572  4204 -74553.150   50   64 -193109.87 1057736.13   648%   150  335s
 11910  4230 703480.840   56   31 -193109.87 1057736.13   648%   148  340s
 12628  4355 438102.856   52   42 -193109.87 1057736.13   648%   147  345s
 13605  4497 738962.162   57   72 -193109.87 1057736.13   648%   144  350s
 14691  4584     cutoff   65      -193109.87 1057736.13   648%   140  358s
 15114  4588 206773.028   60   43 -193109.87 1057736.13   648%   140  361s
 15741  4607 539322.703   51   60 -193109.87 1057736.13   648%   138  365s
 16888  4626 954564.408   48   51 -193109.87 1057736.13   648%   137  371s
 17873  4717 983046.689   37   90 -193109.87 1057736.13   648%   135  376s
 18376  4777 -182870.42   71   89 -193109.87 1056908.50   647%   135  380s
 19653  4871 222505.116   48   82 -193109.87 1037478.66   637%   134  385s
 20718  4931 657059.577   52  148 -193109.87 1012875.49   625%   132  456s
 20731  4940 618872.074   60  144 -193109.87 1012875.49   625%   132  460s
 20791  4980 880442.594   54  198 -193109.87 1012875.49   625%   132  465s
 20820  4999 572867.203   43  152 -193109.87 1012875.49   625%   132  470s
 20856  5023 -179081.96   76  174 -193109.87 1012875.49   625%   132  475s
 20882  5040 726396.647   68  180 -193109.87 1012875.49   625%   131  480s
 20907  5057 876124.840   53  196 -193109.87 1012875.49   625%   131  485s
 20926  5070 -95268.581   50  185 -193109.87 1012875.49   625%   131  490s
 20944  5082 816648.201   49  189 -193109.87 1012875.49   625%   131  495s
 20961  5093 838159.293   51  184 -193109.87 1012875.49   625%   131  500s
 20981  5106 895735.404   53  187 -193109.87 1012875.49   625%   131  505s
 20998  5118 558851.102   54  176 -193109.87 1012875.49   625%   131  510s
 21020  5132 572867.203   43  183 -193109.87 1012875.49   625%   131  515s
 21037  5144 771419.790   61  191 -193109.87 1012875.49   625%   130  520s
 21059  5158 428088.116   53  221 -193109.87 1012875.49   625%   130  525s
 21079  5172 280431.090   56  181 -193109.87 1012875.49   625%   130  530s
 21098  5184 558851.102   54  195 -193109.87 1012875.49   625%   130  535s
 21112  5194 622544.625   64  203 -193109.87 1012875.49   625%   130  540s
 21120  5199 572867.203   43  205 -193109.87 1012875.49   625%   130  548s
 21121  5203 1012875.49   40  197 -193109.87 1012875.49   625%   134  554s
 21123  5206 1012875.49   41  212 -193109.87 1012875.49   625%   134  558s
 21127  5209 1012875.49   42  186 -193109.87 1012875.49   625%   134  561s
 21135  5213 1012875.49   43  145 -193109.87 1012875.49   625%   134  565s
 21149  5215 1012875.49   45  130 -193109.87 1012875.49   625%   135  572s
 21164  5223 1012875.49   47  118 -193109.87 1012875.49   625%   135  575s
 21210  5227     cutoff   51      -193109.87 1012875.49   625%   136  580s
 21284  5242 956635.715   58  115 -193109.87 1012875.49   625%   138  585s
 21469  5251 1012875.49   51  149 -193109.87 1012875.49   625%   139  590s
 21700  5249 987717.153   51  117 -193109.87 1012875.49   625%   140  595s
 21901  5254 158938.347   70  126 -193109.87 1012875.49   625%   142  600s
 22133  5258 609330.577   65  165 -193109.87 1012875.49   625%   144  605s
 22288  5256 48638.4069   92  132 -193109.87 1012875.49   625%   145  611s
 22442  5261 987210.616   51  108 -193109.87 1012875.49   625%   146  615s
 22760  5233 105252.724   57   81 -193109.87 1012875.49   625%   148  622s
 23022  5231 657468.341   67  125 -193109.87 992526.732   614%   148  626s
 23109  5228 645248.702   56  140 -193109.87 986671.655   611%   149  630s
 23291  5202 137252.927   50   91 -193109.87 979006.496   607%   149  636s
 23609  5188 641210.244   57   77 -193109.87 955909.940   595%   150  641s
 24109  5111 10579.4786   67   76 -193109.87 916037.426   574%   150  647s
 24269  5105 213598.980   53  126 -193109.87 900378.227   566%   151  650s
 24521  5093 267093.477   56   88 -193109.87 881073.421   556%   152  657s
 24682  5082     cutoff   58      -193109.87 872173.881   552%   152  660s
 25179  5050 615635.620   61   88 -193109.87 832352.814   531%   154  668s
 25369  5057 539661.148   49   93 -193109.87 822371.701   526%   154  671s
 25518  5067 -6030.3977   58   97 -193109.87 820105.779   525%   155  675s
 25921  5034 689163.848   53  147 -193109.87 797423.512   513%   157  684s
 26191  5035 infeasible   55      -193109.87 783519.916   506%   158  688s
 26459  5015 305157.554   52  116 -193109.87 776277.541   502%   159  704s
 26768  4970 364313.555   57   86 -193109.87 758769.309   493%   160  709s
 27015  4958 91345.6674   67   85 -193109.87 749104.235   488%   161  714s
 27309  4953 76308.6629   66   99 -193109.87 732675.812   479%   162  719s
 27612  4933     cutoff   69      -193109.87 724925.154   475%   162  725s
 28030  4932 248202.824   46  131 -193109.87 714167.439   470%   163  731s
 28372  4919 405129.792   72   71 -193109.87 701648.235   463%   165  737s
 28661  4894 72264.1068   60  148 -193109.87 691545.582   458%   165  744s
 29003  4854 319662.349   54   85 -193109.87 686839.969   456%   166  750s
 29396  4821 40048.8605   56  124 -193109.87 669189.395   447%   167  757s
 29905  4793 -67236.992   59   64 -193109.87 657426.941   440%   168  764s
 30341  4742 347151.054   75   76 -193109.87 649085.474   436%   169  771s
 30945  4647 269432.994   58  153 -193109.87 636778.333   430%   170  781s
 31558  4533 528304.858   63   48 -193109.87 620778.807   421%   170  788s
 32125  4424     cutoff   59      -193109.87 604864.888   413%   171  795s
 32642  4365 -116498.81   64   73 -193109.87 595454.544   408%   172  802s
 33195  4266     cutoff   57      -193109.87 587659.647   404%   173  809s
 33731  4174     cutoff   55      -193109.87 570052.478   395%   173  815s
 34152  4109 146881.814   59  161 -193109.87 563714.810   392%   173  821s
 34733  4034 539909.653   46   77 -193109.87 550611.034   385%   174  828s
 35255  3918     cutoff   65      -193109.87 539897.470   380%   174  851s
 35786  3817 2916.44496   63   57 -193109.87 527344.767   373%   174  857s
 36280  3695 323692.981   67   79 -193109.87 521683.804   370%   174  864s
 36880  3657 202826.452   56   84 -193109.87 506645.166   362%   174  871s
 37338  3694 -50221.918   55   71 -193109.87 500196.171   359%   174  877s
 37895  3754 450193.806   54   54 -193109.87 486518.092   352%   174  883s
 38359  3797 219181.437   67   94 -193109.87 478659.136   348%   174  889s
 38919  3901     cutoff   71      -193109.87 470355.328   344%   174  895s
 39441  3936 218328.408   58   73 -193109.87 464569.365   341%   174  901s
 39946  3992 277246.428   58  108 -193109.87 459949.510   338%   174  907s
 40475  4050 -83457.087   82   56 -193109.87 445879.226   331%   174  912s
 40904  4063 274831.442   54   54 -193109.87 436720.942   326%   174  918s
 41448  4141 412955.496   54   38 -193109.87 428391.785   322%   174  926s
 41926  4188 362632.062   68   79 -193109.87 422189.308   319%   174  931s
 42437  4215 -87294.561   81   43 -193109.87 416530.731   316%   174  935s
 42842  4228 141579.003   61  112 -193109.87 406336.250   310%   173  940s
 43742  4230 88384.7898   55  114 -193109.87 395149.860   305%   173  949s
 44214  4280 263840.340   63   66 -193109.87 386050.429   300%   173  954s
 44588  4274 344488.961   63   86 -193109.87 379863.354   297%   173  959s
 45021  4319 122497.778   63  167 -193109.87 376046.309   295%   173  964s
 45563  4335 -1794.7739   61   82 -193109.87 369507.452   291%   173  968s
 45954  4340 77536.0189   68   31 -193109.87 364259.477   289%   173  971s
 46624  4308 291035.322   75   92 -193109.87 349528.018   281%   173  978s
 46913  4282     cutoff   63      -193109.87 347084.692   280%   173  982s
 47308  4278 infeasible   63      -193109.87 339368.667   276%   173  987s
 47754  4304 52779.2721   64   69 -193109.87 335286.173   274%   172  991s
 48184  4313 221807.604   68   65 -193109.87 328696.240   270%   172  996s
 48631  4333     cutoff   72      -193109.87 322483.753   267%   172 1000s
 49343  4296 256696.370   58   82 -193109.87 311591.791   261%   172 1008s
 49765  4294 240649.112   73   69 -193109.87 303989.454   257%   172 1011s
 50102  4255 301255.755   66   67 -193109.87 301255.755   256%   172 1015s
 50525  4285 -93442.350   71   48 -193109.87 300680.214   256%   171 1020s
 51278  4299 -29996.740   92   62 -193109.87 285631.274   248%   171 1027s
 51647  4294     cutoff   74      -193109.87 280007.930   245%   171 1031s
 52081  4285     cutoff   73      -193109.87 274916.687   242%   171 1035s
 52536  4284     cutoff   62      -193109.87 269038.572   239%   170 1041s
 52892  4273 -132059.74   82   32 -193109.87 263140.473   236%   170 1045s
 53642  4223 211068.444   76   40 -193109.87 253200.955   231%   170 1052s
 54110  4247 178808.627   63   77 -193109.87 247576.435   228%   169 1055s
 54776  4202 23769.5737   87   57 -193109.87 238046.614   223%   169 1061s
 55281  4127     cutoff   60      -193109.87 232289.575   220%   169 1067s
 55596  4111 205867.004   64  101 -193109.87 225605.969   217%   169 1071s
 56320  4072     cutoff   69      -193109.87 213970.403   211%   168 1077s
 56661  4051 204890.965   59   73 -193109.87 208568.096   208%   168 1080s
 57397  4004     cutoff   66      -193109.87 200246.610   204%   168 1087s
 57776  3996     cutoff   72      -193109.87 195368.426   201%   167 1090s
 58458  3943     cutoff   91      -193109.87 188674.949   198%   167 1096s
 59043  3873     cutoff   79      -193109.87 178166.486   192%   167 1100s
 59645  3768     cutoff   78      -193109.87 168938.010   187%   166 1105s
 60220  3678 53560.4201   62   32 -193109.87 159740.650   183%   166 1110s
 60775  3591     cutoff   70      -193109.87 149737.271   178%   166 1115s
 61381  3539 28012.7114   57   49 -193109.87 140636.862   173%   165 1120s
 62091  3363     cutoff   79      -193109.87 127525.321   166%   165 1125s
 62706  3165     cutoff   58      -193109.87 115445.656   160%   164 1131s
 63479  3036 76557.2142   83   73 -193109.87 101990.783   153%   164 1135s
 64090  2954     cutoff   71      -193109.87 93314.3222   148%   163 1140s
 64603  2855     cutoff   55      -193109.87 82810.0514   143%   163 1145s
 65342  2708 67531.0318   81  102 -193109.87 69096.7069   136%   163 1150s
 66066  2564 -5029.2547   61   45 -193109.87 54947.6327   128%   162 1155s
 66769  2443     cutoff   56      -193109.87 42055.4226   122%   161 1161s
 67392  2242     cutoff   90      -193109.87 28995.0193   115%   161 1165s
 68251  1978     cutoff   68      -193109.87 8864.10310   105%   160 1171s
 68879  1794 -27133.399   66   84 -193109.87 -5266.6934  97.3%   159 1176s
 69733  1542     cutoff   59      -193109.87 -24589.293  87.3%   159 1180s
 70610  1170     cutoff   81      -193109.87 -49485.292  74.4%   158 1185s
 70944  1048     cutoff   73      -193109.87 -60372.885  68.7%   157 1190s
 72241   259 -153364.72   65   37 -193109.87 -122345.26  36.6%   155 1195s

Cutting planes:
  Gomory: 101
  Implied bound: 8
  MIR: 24
  Flow cover: 228
  Zero half: 2

Explored 72636 nodes (11320784 simplex iterations) in 1197.62 seconds
Thread count was 4 (of 16 available processors)

Solution count 6: -193110 -193110 -193110 ... -2.82136e+06

Optimal solution found (tolerance 1.00e-04)
Best objective -1.931100159500e+05, best bound -1.931098736304e+05, gap 0.0001%

***
***  |- Calculation finished, took 1,197.64 (1197.64) sec.
***  |-----------------------------------------------------------------------------------------------------------------------
***
*****************************************************************************************************************************
#############################################################################################################################
###
### Results
###
### The objective of the solution is -193,110.0159 (-193110.0159) and is feasible with a Gap of 0.0
###
### Service 81 (MECL1) is operated by 6 vessels from type 30 (PMax35)
###  |- Vessel  9 has the path [9, 2, 227, 223, 6, 231, 160, 0]
###  |  9 (BEANR Out@66.0) - 2 (AEJEA In@563.0/Out@587.0) - 227 (PKBQM In@644.0/Out@674.0) - 223 (OMSLL In@889.0/Out@904.0) -
###  |   6 (AEJEA In@1235.0/Out@1259.0) - 231 (PKBQM In@1316.0/Out@1346.0) - 160 (INNSA In@1410.0/Out@1426.0) - 0 (DUMMY_END 
###  |  Ziel-Service 81)
###  |   |- and carried Demand 144,  31.0 containers from 231 to 160
###  |   |- and carried Demand 145,  37.0 containers from   6 to 160
###  |   |- and carried Demand 146, 211.0 containers from   6 to 160
###  |   |- and carried Demand 147, 176.0 containers from   6 to 231
###  |   |- and carried Demand 215, 704.0 containers from   2 to 160
###  |   |- and carried Demand 216,   8.0 containers from   2 to 160
###  |   |- and carried Demand 217, 156.0 containers from   2 to 227
###  |   |- and carried Demand 218,  45.0 containers from   2 to 227
###  |- Vessel 10 has the path [10, 247, 156, 0]
###  |  10 (BEANR Out@234.0) - 247 (TRAMB In@576.0/Out@603.0) - 156 (INNSA In@738.0/Out@754.0) - 0 (DUMMY_END Ziel-Service 81
###  |  )
###  |- Vessel 11 has the path [13, 244, 4, 229, 224, 7, 232, 161, 0]
###  |  13 (BEANR Out@402.0) - 244 (TRALI In@668.0/Out@686.0) - 4 (AEJEA In@899.0/Out@923.0) - 229 (PKBQM In@980.0/Out@1010.0
###  |  ) - 224 (OMSLL In@1132.0/Out@1145.0) - 7 (AEJEA In@1403.0/Out@1427.0) - 232 (PKBQM In@1484.0/Out@1514.0) - 161 (INNSA
###  |   In@1578.0/Out@1594.0) - 0 (DUMMY_END Ziel-Service 81)
###  |   |- and carried Demand 127,  34.0 containers from 232 to 161
###  |   |- and carried Demand 128,  84.0 containers from   7 to 232
###  |   |- and carried Demand 129,  50.0 containers from   7 to 232
###  |   |- and carried Demand 180, 254.0 containers from 229 to 161
###  |   |- and carried Demand 181,   1.0 containers from 229 to 161
###  |   |- and carried Demand 182, 135.0 containers from 229 to 161
###  |   |- and carried Demand 185,  75.0 containers from   4 to 161
###  |   |- and carried Demand 186, 200.0 containers from   4 to 229
###  |   |- and carried Demand 187,  24.0 containers from   4 to 229
###  |   |- and carried Demand 188,  26.0 containers from   4 to 161
###  |   |- and carried Demand 189, 144.0 containers from   4 to 161
###  |   |- and carried Demand 190,   1.0 containers from   4 to 161
###  |- Vessel 12 has the path [16, 245, 5, 230, 159, 0]
###  |  16 (BEANR Out@570.0) - 245 (TRALI In@836.0/Out@854.0) - 5 (AEJEA In@1067.0/Out@1091.0) - 230 (PKBQM In@1148.0/Out@117
###  |  8.0) - 159 (INNSA In@1242.0/Out@1258.0) - 0 (DUMMY_END Ziel-Service 81)
###  |   |- and carried Demand 167,  86.0 containers from   5 to 230
###  |   |- and carried Demand 168, 118.0 containers from   5 to 230
###  |- Vessel 17 has the path [132, 210, 254, 3, 228, 157, 0]
###  |  132 (GBFXT Out@302.0) - 210 (NLRTM In@332.0/Out@344.0) - 254 (TRZMK In@617.0/Out@631.0) - 3 (AEJEA In@731.0/Out@755.0
###  |  ) - 228 (PKBQM In@812.0/Out@842.0) - 157 (INNSA In@906.0/Out@922.0) - 0 (DUMMY_END Ziel-Service 81)
###  |   |- and carried Demand 199,  44.0 containers from 228 to 157
###  |   |- and carried Demand 204, 133.0 containers from   3 to 228
###  |   |- and carried Demand 205,  61.0 containers from   3 to 228
###  |- Vessel 18 has the path [135, 212, 255, 158, 0]
###  |  135 (GBFXT Out@470.0) - 212 (NLRTM In@500.0/Out@512.0) - 255 (TRZMK In@785.0/Out@799.0) - 158 (INNSA In@1074.0/Out@10
###  |  90.0) - 0 (DUMMY_END Ziel-Service 81)
###  |
### Vessels not used in the solution: [1, 2, 3, 4, 5, 6, 7, 8, 13, 14, 15, 16]
###  |-----------------------------------------------------------------------------------------------------------------------
###
#############################################################################################################################

### Detialed variable overview

### All variables with value greater zero:
rho[81,30] = 1
eta[81,30,1] = 1
eta[81,30,2] = 1
eta[81,30,3] = 1
eta[81,30,4] = 1
eta[81,30,5] = 1
eta[81,30,6] = 1
y[9,227,223] = 1
y[9,2,227] = 1
y[9,231,160] = 1
y[9,223,6] = 1
y[9,6,231] = 1
y[9,160,0] = 1
y[9,9,2] = 1
y[10,156,0] = 1
y[10,247,156] = 1
y[10,10,247] = 1
y[11,4,229] = 1
y[11,229,224] = 1
y[11,161,0] = 1
y[11,13,244] = 1
y[11,224,7] = 1
y[11,7,232] = 1
y[11,232,161] = 1
y[11,244,4] = 1
y[12,16,245] = 1
y[12,245,5] = 1
y[12,159,0] = 1
y[12,230,159] = 1
y[12,5,230] = 1
y[17,210,254] = 1
y[17,3,228] = 1
y[17,157,0] = 1
y[17,254,3] = 1
y[17,132,210] = 1
y[17,228,157] = 1
y[18,158,0] = 1
y[18,135,212] = 1
y[18,255,158] = 1
y[18,212,255] = 1
xD[127,232,161] = 34
xD[128,7,232] = 84
xD[129,7,232] = 50
xD[144,231,160] = 31
xD[145,231,160] = 37
xD[145,6,231] = 37
xD[146,231,160] = 211
xD[146,6,231] = 211
xD[147,6,231] = 176
xD[167,5,230] = 86
xD[168,5,230] = 118
xD[180,229,224] = 254
xD[180,224,7] = 254
xD[180,7,232] = 254
xD[180,232,161] = 254
xD[181,229,224] = 1
xD[181,224,7] = 1
xD[181,7,232] = 1
xD[181,232,161] = 1
xD[182,229,224] = 135
xD[182,224,7] = 135
xD[182,7,232] = 135
xD[182,232,161] = 135
xD[185,4,229] = 75
xD[185,229,224] = 75
xD[185,224,7] = 75
xD[185,7,232] = 75
xD[185,232,161] = 75
xD[186,4,229] = 200
xD[187,4,229] = 24
xD[188,4,229] = 26
xD[188,229,224] = 26
xD[188,224,7] = 26
xD[188,7,232] = 26
xD[188,232,161] = 26
xD[189,4,229] = 144
xD[189,229,224] = 144
xD[189,224,7] = 144
xD[189,7,232] = 144
xD[189,232,161] = 144
xD[190,4,229] = 1
xD[190,229,224] = 1
xD[190,224,7] = 1
xD[190,7,232] = 1
xD[190,232,161] = 1
xD[199,228,157] = 44
xD[204,3,228] = 133
xD[205,3,228] = 61
xD[215,227,223] = 704
xD[215,2,227] = 704
xD[215,231,160] = 704
xD[215,223,6] = 704
xD[215,6,231] = 704
xD[216,227,223] = 8
xD[216,2,227] = 8
xD[216,231,160] = 8
xD[216,223,6] = 8
xD[216,6,231] = 8
xD[217,2,227] = 156
xD[218,2,227] = 45
zE[2] = 563
zE[3] = 731
zE[4] = 899
zE[5] = 1067
zE[6] = 1235
zE[7] = 1403
zE[156] = 738
zE[157] = 906
zE[158] = 1074
zE[159] = 1242
zE[160] = 1410
zE[161] = 1578
zE[210] = 332
zE[212] = 500
zE[223] = 889
zE[224] = 1132
zE[227] = 644
zE[228] = 812
zE[229] = 980
zE[230] = 1148
zE[231] = 1316
zE[232] = 1484
zE[244] = 668
zE[245] = 836
zE[247] = 576
zE[254] = 617
zE[255] = 785
zX[2] = 587
zX[3] = 755
zX[4] = 923
zX[5] = 1091
zX[6] = 1259
zX[7] = 1427
zX[9] = 66
zX[10] = 234
zX[13] = 402
zX[16] = 570
zX[132] = 302
zX[135] = 470
zX[156] = 754
zX[157] = 922
zX[158] = 1090
zX[159] = 1258
zX[160] = 1426
zX[161] = 1594
zX[210] = 344
zX[212] = 512
zX[223] = 904
zX[224] = 1145
zX[227] = 674
zX[228] = 842
zX[229] = 1010
zX[230] = 1178
zX[231] = 1346
zX[232] = 1514
zX[244] = 686
zX[245] = 854
zX[247] = 603
zX[254] = 631
zX[255] = 799
phi[9] = 1360
phi[10] = 520
phi[11] = 1192
phi[12] = 688
phi[17] = 620
phi[18] = 620

### All variables with value smaller zero:

### End

real	21m21.709s
user	72m1.613s
sys	4m48.131s
	Freetype 2.4.12 environment removed
	Python 3.6.0 environment removed
	Gurobi 8.1.0 environment removed
