	Freetype 2.4.12 environment established
		library to render fonts
	Python 3.6.0 environment established
	Gurobi 8.1.0 environment established
Instance LSFRP: LSFDRP_1_5_0_1_fr.p
Instance LSFDP: LSFDRP_1_5_0_1_fd_34.p

*****************************************************************************************************************************
*** Solve LSFDRP_1_5_0_1_fd_34 with Gurobi
***
*** Graph info
*** |S|: 18
*** |S^E|: 0
*** |S^C|: 0
*** |V|: 278
*** |A|: 6311
*** |A^i|: 6311
*** |A^f|: 0
*** |M|: 220
*** |E|: 0

Changed value of parameter TimeLimit to 86400.0
   Prev: 1e+100  Min: 0.0  Max: 1e+100  Default: 1e+100
Changed value of parameter Threads to 4
   Prev: 0  Min: 0  Max: 1024  Default: 0
Optimize a model with 80020 rows, 1515219 columns and 5494522 nonzeros
Variable types: 1401600 continuous, 113619 integer (113619 binary)
Coefficient statistics:
  Matrix range     [1e+00, 4e+03]
  Objective range  [4e+01, 2e+08]
  Bounds range     [1e+00, 1e+00]
  RHS range        [1e+00, 6e+00]
Presolve removed 73953 rows and 1400042 columns (presolve time = 5s) ...
Presolve removed 73961 rows and 1404023 columns (presolve time = 64s) ...
Presolve removed 74091 rows and 1404143 columns (presolve time = 65s) ...
Presolve removed 74094 rows and 1404258 columns
Presolve time: 67.03s
Presolved: 5926 rows, 110961 columns, 363401 nonzeros
Variable types: 2482 continuous, 108479 integer (108444 binary)
Warning: Failed to open log file 'gurobi.log'

Root simplex log...

Iteration    Objective       Primal Inf.    Dual Inf.      Time
       0    3.5228138e+09   5.398643e+05   0.000000e+00     69s
    7599    1.8702865e+07   2.109001e+05   0.000000e+00     70s
   17328    7.3103796e+06   1.434732e+04   0.000000e+00     75s
   23768    6.3484979e+06   3.182400e+05   0.000000e+00     80s
   29339    4.6252524e+06   0.000000e+00   0.000000e+00     85s

Root relaxation: objective 4.625252e+06, 29339 iterations, 15.90 seconds
Total elapsed time = 85.10s

    Nodes    |    Current Node    |     Objective Bounds      |     Work
 Expl Unexpl |  Obj  Depth IntInf | Incumbent    BestBd   Gap | It/Node Time

     0     0 4625252.44    0  118          - 4625252.44      -     -   87s
H    0     0                    -2821360.570 4625252.44   264%     -   87s
H    0     0                    -193110.0156 4625252.44  2495%     -  103s
     0     0 2686818.38    0  109 -193110.02 2686818.38  1491%     -  106s
     0     0 2686818.38    0   96 -193110.02 2686818.38  1491%     -  115s
     0     0 2662868.34    0  116 -193110.02 2662868.34  1479%     -  118s
     0     0 2306303.40    0   94 -193110.02 2306303.40  1294%     -  118s
     0     0 2305912.54    0   95 -193110.02 2305912.54  1294%     -  118s
     0     0 2128382.40    0   90 -193110.02 2128382.40  1202%     -  118s
     0     0 2109290.93    0   99 -193110.02 2109290.93  1192%     -  119s
     0     0 2109104.84    0  103 -193110.02 2109104.84  1192%     -  119s
     0     0 2109081.27    0  103 -193110.02 2109081.27  1192%     -  119s
     0     0 2108051.24    0  102 -193110.02 2108051.24  1192%     -  119s
     0     0 2103361.84    0  102 -193110.02 2103361.84  1189%     -  119s
     0     0 2100321.27    0  102 -193110.02 2100321.27  1188%     -  119s
     0     0 2100321.27    0  104 -193110.02 2100321.27  1188%     -  119s
     0     0 2099491.60    0  106 -193110.02 2099491.60  1187%     -  119s
     0     0 2098960.05    0  110 -193110.02 2098960.05  1187%     -  119s
     0     0 2098455.14    0  110 -193110.02 2098455.14  1187%     -  119s
     0     0 2098411.76    0  110 -193110.02 2098411.76  1187%     -  119s
     0     0 2096043.27    0  114 -193110.02 2096043.27  1185%     -  120s
     0     0 2094898.53    0  110 -193110.02 2094898.53  1185%     -  120s
     0     0 2094836.05    0  111 -193110.02 2094836.05  1185%     -  120s
     0     0 2094465.24    0  118 -193110.02 2094465.24  1185%     -  120s
     0     0 2092753.25    0  121 -193110.02 2092753.25  1184%     -  120s
     0     0 2091268.45    0  121 -193110.02 2091268.45  1183%     -  120s
     0     0 2091065.78    0  122 -193110.02 2091065.78  1183%     -  120s
     0     0 2090369.13    0  118 -193110.02 2090369.13  1182%     -  120s
     0     0 2090361.45    0  119 -193110.02 2090361.45  1182%     -  120s
     0     0 2090028.89    0  114 -193110.02 2090028.89  1182%     -  120s
     0     0 2089805.04    0  135 -193110.02 2089805.04  1182%     -  121s
     0     0 2089654.07    0  140 -193110.02 2089654.07  1182%     -  121s
     0     0 2087681.52    0  133 -193110.02 2087681.52  1181%     -  121s
     0     0 2087613.85    0  133 -193110.02 2087613.85  1181%     -  121s
     0     0 2087357.63    0  118 -193110.02 2087357.63  1181%     -  121s
     0     0 2086940.40    0  129 -193110.02 2086940.40  1181%     -  121s
     0     0 2086915.81    0  129 -193110.02 2086915.81  1181%     -  121s
     0     0 2086677.12    0  129 -193110.02 2086677.12  1181%     -  121s
     0     0 2086488.41    0  129 -193110.02 2086488.41  1180%     -  121s
     0     0 2086449.35    0  129 -193110.02 2086449.35  1180%     -  121s
     0     0 2086161.58    0  134 -193110.02 2086161.58  1180%     -  122s
     0     0 2086161.58    0  131 -193110.02 2086161.58  1180%     -  123s
     0     0 2086161.58    0   92 -193110.02 2086161.58  1180%     -  126s
     0     0 2086161.58    0  118 -193110.02 2086161.58  1180%     -  128s
     0     0 2086161.58    0  131 -193110.02 2086161.58  1180%     -  128s
     0     0 2086161.58    0  147 -193110.02 2086161.58  1180%     -  128s
     0     0 2086161.58    0   99 -193110.02 2086161.58  1180%     -  129s
     0     0 2086161.58    0  114 -193110.02 2086161.58  1180%     -  129s
     0     0 2086161.58    0  118 -193110.02 2086161.58  1180%     -  129s
     0     0 2086161.58    0  120 -193110.02 2086161.58  1180%     -  129s
     0     0 2086161.58    0  113 -193110.02 2086161.58  1180%     -  129s
     0     0 2086161.58    0  103 -193110.02 2086161.58  1180%     -  129s
     0     0 2086161.58    0  111 -193110.02 2086161.58  1180%     -  129s
     0     0 2086161.58    0  117 -193110.02 2086161.58  1180%     -  129s
     0     0 2086161.58    0  118 -193110.02 2086161.58  1180%     -  129s
     0     0 2086161.58    0  118 -193110.02 2086161.58  1180%     -  129s
     0     0 2084007.29    0  122 -193110.02 2084007.29  1179%     -  129s
     0     0 2082810.03    0  132 -193110.02 2082810.03  1179%     -  129s
     0     0 2082799.03    0  132 -193110.02 2082799.03  1179%     -  129s
     0     0 2074909.34    0  114 -193110.02 2074909.34  1174%     -  130s
     0     0 2074904.08    0  114 -193110.02 2074904.08  1174%     -  130s
     0     0 2073406.87    0  114 -193110.02 2073406.87  1174%     -  130s
     0     0 2072103.62    0  119 -193110.02 2072103.62  1173%     -  130s
     0     0 2071976.30    0  129 -193110.02 2071976.30  1173%     -  130s
     0     0 2071918.11    0  134 -193110.02 2071918.11  1173%     -  130s
     0     0 2071918.11    0  132 -193110.02 2071918.11  1173%     -  131s
     0     2 2071918.11    0  132 -193110.02 2071918.11  1173%     -  132s
     7    12 1785072.03    3  103 -193110.02 1926416.96  1098%   590  135s
    67    61 1665829.84   10   67 -193110.02 1882867.87  1075%   274  143s
   163   113 1405160.93   23   85 -193110.02 1882867.87  1075%   157  145s
   609   391 1745373.51    8   77 -193110.02 1833734.51  1050%   125  150s
  1039   582 375951.886   13  109 -193110.02 1777115.20  1020%   148  170s
  1045   586 992476.446   21  100 -193110.02 1777115.20  1020%   147  175s
  1093   618 518760.377   20  168 -193110.02 1777115.20  1020%   141  180s
  1140   649 896459.153   14  181 -193110.02 1777115.20  1020%   135  185s
  1154   659 1187778.92   41  193 -193110.02 1777115.20  1020%   133  190s
  1191   683 1140191.88    7  188 -193110.02 1777115.20  1020%   129  195s
  1216   700 1622355.56   10  180 -193110.02 1777115.20  1020%   126  200s
  1218   704 1777115.20   16  136 -193110.02 1777115.20  1020%   152  206s
  1220   708 1777115.20   17  140 -193110.02 1777115.20  1020%   152  210s
  1248   718 1537521.13   21  108 -193110.02 1671535.37   966%   163  218s
  1272   734     cutoff   23      -193110.02 1670905.50   965%   171  220s
  1461   801 679994.148   35   88 -193110.02 1670435.20   965%   185  225s
  1784   855     cutoff   36      -193110.02 1555521.97   906%   186  230s
  2038   895 866250.575   24  155 -193110.02 1486659.02   870%   192  235s
  2329   941 283673.728   34   82 -193110.02 1454662.33   853%   197  240s
  2714   994 773489.837   32  106 -193110.02 1420182.77   835%   196  245s
  3188  1058 277224.607   33   63 -193110.02 1371051.22   810%   197  251s
  3692  1209 1299249.83   29   92 -193110.02 1318950.84   783%   195  256s
  4111  1344 1023631.50   26  117 -193110.02 1283525.51   765%   193  260s
  4496  1456 971344.291   33   51 -193110.02 1248508.69   747%   193  265s
  5067  1594 84221.6971   37   67 -193110.02 1226754.28   735%   187  271s
  5387  1674 159511.157   37   83 -193110.02 1205415.24   724%   186  275s
  5869  1850     cutoff   31      -193110.02 1178148.36   710%   185  289s
  6028  1915     cutoff   26      -193110.02 1176075.94   709%   185  292s
  6222  1980 446918.727   29  114 -193110.02 1162922.08   702%   183  296s
  6733  2169     cutoff   35      -193110.02 1125578.63   683%   182  303s
  7014  2232     cutoff   39      -193110.02 1112811.76   676%   182  307s
  7329  2349     cutoff   36      -193110.02 1104117.19   672%   179  311s
  8144  2629 498052.170   45   26 -193110.02 1089718.98   664%   175  318s
  8493  2689 201363.460   37   56 -193110.02 1069308.26   654%   174  322s
  8908  2832 340593.319   46   96 -193110.02 1055231.24   646%   172  325s
  9347  2984 988676.893   34   64 -193110.02 1035266.11   636%   170  330s
  9946  3131 523662.124   39   60 -193110.02 1011594.51   624%   168  338s
 10293  3217 598988.047   27  102 -193110.02 1006095.76   621%   168  344s
 10753  3327     cutoff   64      -193110.02 984103.930   610%   166  348s
 11354  3500 570659.409   29   38 -193110.02 966539.632   601%   165  352s
 11651  3559 55790.2589   46   37 -193110.02 954766.836   594%   165  356s
 12134  3662 -120031.34   36   76 -193110.02 941068.514   587%   164  360s
 13278  3950 796069.146   49   54 -193110.02 906460.519   569%   161  369s
H13282  3950                    -193109.6436 906460.519   569%   161  369s
 13430  3955 172374.247   48   39 -193109.64 899984.016   566%   161  373s
 13953  4065 566230.242   34   92 -193109.64 890732.805   561%   160  377s
 14542  4208 -169736.20   52   37 -193109.64 876561.572   554%   160  381s
 15260  4326 719505.860   29   60 -193109.64 865237.272   548%   157  385s
 16334  4539     cutoff   36      -193109.64 841620.995   536%   155  392s
 16833  4668 212197.240   36   41 -193109.64 830223.106   530%   155  395s
 17604  4789     cutoff   39      -193109.64 819388.873   524%   154  402s
 18065  4895 665240.237   42   58 -193109.64 810402.093   520%   154  405s
 18817  5013 -18666.017   55   49 -193109.64 794893.736   512%   154  412s
 19292  5096 466047.545   28   77 -193109.64 785234.007   507%   153  416s
 20353  5202 717166.442   39   62 -193109.64 764040.621   496%   152  423s
 20824  5271 524668.593   42   83 -193109.64 756842.736   492%   151  531s
 21700  5436 323352.141   23   89 -193109.64 738572.971   482%   151  537s
 22063  5477 119869.118   39  101 -193109.64 736622.762   481%   152  541s
 22710  5542 9550.75968   28  108 -193109.64 719668.013   473%   153  548s
 23079  5605 -23350.379   35   78 -193109.64 712800.375   469%   153  551s
 23730  5697 680260.561   34   33 -193109.64 699955.647   462%   154  557s
 24120  5749     cutoff   33      -193109.64 691621.482   458%   155  561s
 24536  5842 301180.368   33   36 -193109.64 684391.390   454%   154  566s
 24889  5870     cutoff   25      -193109.64 682101.529   453%   156  572s
 25296  5943 509041.737   41   40 -193109.64 677188.688   451%   156  576s
 25954  5992     cutoff   38      -193109.64 664871.050   444%   156  583s
 26310  6050 14987.4453   25   99 -193109.64 659164.442   441%   157  586s
 26899  6168 113699.385   40   59 -193109.64 651581.248   437%   157  593s
 27149  6199 504751.504   43   34 -193109.64 648602.142   436%   158  596s
 27492  6256     cutoff   36      -193109.64 644159.239   434%   158  600s
 28289  6286     cutoff   32      -193109.64 629693.375   426%   159  608s
 28666  6353 264790.861   40   50 -193109.64 626306.623   424%   159  612s
 29047  6421 infeasible   49      -193109.64 620023.616   421%   159  615s
 29779  6524 -41696.064   37  111 -193109.64 613330.632   418%   160  622s
 30102  6552     cutoff   36      -193109.64 609719.780   416%   160  626s
 30592  6639 143979.291   41   37 -193109.64 602314.088   412%   160  630s
 31277  6697     cutoff   46      -193109.64 592968.437   407%   161  640s
 31648  6774 356091.655   38   97 -193109.64 589063.698   405%   161  645s
 32293  6860     cutoff   30      -193109.64 580964.901   401%   161  652s
 32593  6933 96288.1230   34   42 -193109.64 578002.975   399%   162  656s
 33145  6943 466940.225   48   47 -193109.64 574157.907   397%   162  663s
 33448  6941 495806.469   41   40 -193109.64 567108.894   394%   163  667s
 33888  6980 86841.8587   30   53 -193109.64 560684.934   390%   162  671s
 34242  7015 112507.465   44   55 -193109.64 555955.312   388%   162  675s
 34957  7078 -82470.087   29  116 -193109.64 547985.413   384%   163  682s
 35303  7099 102803.711   39  104 -193109.64 542074.739   381%   163  685s
 35666  7108 419456.226   42   47 -193109.64 537931.763   379%   163  690s
 36545  7217 495493.322   40   31 -193109.64 525402.382   372%   163  697s
 36964  7267     cutoff   38      -193109.64 523482.328   371%   163  701s
 37355  7325 226047.860   45   81 -193109.64 519108.545   369%   163  730s
 37996  7386 448113.399   35   97 -193109.64 513392.426   366%   163  738s
 38423  7447 9078.11170   47   41 -193109.64 511118.514   365%   163  741s
 38884  7486     cutoff   48      -193109.64 506651.950   362%   163  745s
 39590  7588     cutoff   44      -193109.64 500803.292   359%   164  752s
 39932  7649 infeasible   36      -193109.64 497706.680   358%   164  756s
 40218  7672 82299.1834   36   84 -193109.64 495078.446   356%   164  760s
 40952  7747 445698.866   42   15 -193109.64 488338.093   353%   164  767s
 41394  7797 -123790.36   36   13 -193109.64 482655.895   350%   164  771s
 41853  7874     cutoff   49      -193109.64 480142.742   349%   164  779s
H41855  7874                    -193109.6435 480142.742   349%   163  779s
H41950  7901                    -193109.6434 480142.742   349%   163  779s
H42085  7933                    -193109.6432 477346.489   347%   163  783s
 42154  7931 63583.5364   45   51 -193109.64 477126.947   347%   163  790s
H42176  7931                    -193109.6430 477126.947   347%   163  790s
H42228  7943                    -193109.6429 476570.796   347%   164  790s
 42716  8022 45628.4327   53   79 -193109.64 473205.474   345%   163  798s
 43133  8052     cutoff   33      -193109.64 470616.349   344%   164  802s
 43523  8073 19775.7879   39  128 -193109.64 466351.667   341%   164  806s
 44540  8137 -168620.19   33   94 -193109.64 457509.151   337%   163  813s
 44989  8183 401993.866   43   24 -193109.64 452787.986   334%   163  817s
 45464  8251 141178.555   45   52 -193109.64 448975.063   332%   163  821s
 46321  8281 171457.044   36  103 -193109.64 442450.655   329%   163  828s
 46759  8326 98562.2956   49   60 -193109.64 438399.324   327%   162  832s
 47244  8364 321445.750   35   80 -193109.64 433732.315   325%   162  836s
 47641  8415     cutoff   40      -193109.64 431817.777   324%   162  840s
 48385  8479     cutoff   56      -193109.64 427322.615   321%   162  848s
 48835  8520 -141606.18   71   66 -193109.64 423317.784   319%   162  852s
 49248  8574     cutoff   42      -193109.64 420037.562   318%   162  856s
 49669  8624 138771.883   28   66 -193109.64 416822.922   316%   162  860s
 50374  8692 386282.651   40   62 -193109.64 412307.166   314%   162  867s
 50761  8731 -17185.819   44   35 -193109.64 408710.788   312%   162  870s
 51629  8771     cutoff   53      -193109.64 403979.463   309%   161  877s
 52143  8835 363605.857   40   31 -193109.64 399535.346   307%   161  883s
 52547  8878     cutoff   34      -193109.64 395600.292   305%   161  887s
 52952  8894 173464.335   39   80 -193109.64 393828.582   304%   161  890s
 53760  8970 -186272.48   26   61 -193109.64 389442.732   302%   161  897s
 54191  8968     cutoff   40      -193109.64 386882.617   300%   161  901s
 54648  9000 infeasible   54      -193109.64 383394.245   299%   161  905s
 55409  9040     cutoff   39      -193109.64 379269.486   296%   160  912s
 55852  9034 -122685.68   42   49 -193109.64 376247.886   295%   160  916s
 56708  9071 341254.499   28   83 -193109.64 369282.856   291%   160  922s
 57114  9080 -16417.793   36   11 -193109.64 367517.028   290%   160  925s
 57919  9100 134906.653   35   66 -193109.64 359941.376   286%   159  932s
 58395  9110 70072.2161   39   28 -193109.64 355624.635   284%   159  935s
 59164  9137 134973.155   33   71 -193109.64 350932.423   282%   159  944s
 59673  9149 269576.611   36   97 -193109.64 347229.444   280%   159  947s
 60105  9170 -30617.635   33  105 -193109.64 345318.153   279%   159  951s
 60875  9217     cutoff   50      -193109.64 340119.231   276%   159  958s
 61265  9238 -142945.31   41   42 -193109.64 337462.310   275%   158  961s
 62119  9285 156530.314   27   64 -193109.64 331671.232   272%   158  968s
 62463  9286     cutoff   46      -193109.64 330385.635   271%   158  974s
 62827  9295     cutoff   47      -193109.64 326420.742   269%   158  977s
 63219  9307 189884.810   51   76 -193109.64 324025.395   268%   158  980s
 64078  9314     cutoff   34      -193109.64 318484.622   265%   157  987s
 64407  9295     cutoff   61      -193109.64 316806.030   264%   157  990s
 65075  9245     cutoff   46      -193109.64 310135.623   261%   157  997s
 65455  9241 -144116.04   32   60 -193109.64 307833.749   259%   157 1000s
 66199  9238     cutoff   34      -193109.64 302964.373   257%   157 1008s
 66607  9269 -3039.1228   39   43 -193109.64 299416.647   255%   157 1012s
 67009  9255 170522.378   27   80 -193109.64 297513.648   254%   157 1015s
 67850  9253 -28721.289   31  100 -193109.64 293094.323   252%   157 1022s
 68245  9289 20972.1405   43   63 -193109.64 290611.354   250%   156 1025s
 69003  9287     cutoff   34      -193109.64 287267.400   249%   156 1031s
 69819  9278 -104816.19   43   38 -193109.64 281146.224   246%   156 1038s
 70215  9289 115436.646   49   62 -193109.64 278774.350   244%   156 1042s
 70637  9296 200920.298   32   61 -193109.64 276810.552   243%   156 1045s
 71378  9365 58748.3305   32   33 -193109.64 272689.570   241%   156 1052s
 71749  9345 111077.938   48   38 -193109.64 271080.010   240%   156 1055s
 72679  9416 1043.44869   29  105 -193109.64 265231.821   237%   155 1064s
 73046  9417     cutoff   32      -193109.64 263404.222   236%   155 1067s
 73440  9424 187907.891   35   48 -193109.64 260754.504   235%   155 1070s
 74283  9425     cutoff   39      -193109.64 256066.993   233%   155 1076s
 74922  9358 213611.322   40   53 -193109.64 252031.168   231%   155 1082s
 75386  9367 129025.530   42   26 -193109.64 248721.093   229%   155 1085s
 76105  9324 -23073.902   29  103 -193109.64 244310.359   227%   154 1090s
 76832  9305 171651.060   57   50 -193109.64 240378.760   224%   154 1097s
 77251  9302 24990.1135   36   17 -193109.64 237148.536   223%   154 1100s
 78013  9304     cutoff   49      -193109.64 233226.340   221%   154 1105s
 78748  9238     cutoff   46      -193109.64 228033.330   218%   153 1110s
 79546  9221 152649.023   42   83 -193109.64 224446.894   216%   153 1116s
 80240  9208 32508.2121   28   76 -193109.64 221203.979   215%   153 1122s
 80689  9212     cutoff   52      -193109.64 215390.894   212%   153 1126s
 80995  9245 119300.734   39   41 -193109.64 213015.519   210%   153 1130s
 81427  9183 81671.2820   49   29 -193109.64 210548.220   209%   152 1136s
 82123  9129 -5748.7724   59   34 -193109.64 205948.377   207%   152 1142s
 82429  9104 153967.977   51   54 -193109.64 203103.463   205%   152 1145s
 83189  9090 16557.2329   33   82 -193109.64 198844.519   203%   152 1151s
 83894  9050     cutoff   40      -193109.64 193702.589   200%   152 1157s
 84281  9038     cutoff   63      -193109.64 192233.821   200%   152 1160s
 85014  9029 154689.243   36   30 -193109.64 187761.494   197%   152 1165s
 85724  8954 13512.0892   45   29 -193109.64 182547.996   195%   151 1170s
 86403  8901     cutoff   49      -193109.64 179349.541   193%   151 1176s
 86976  8839 -168062.50   43   45 -193109.64 175243.712   191%   151 1182s
 87747  8778     cutoff   52      -193109.64 170534.292   188%   151 1187s
 88055  8733 93574.4933   49   47 -193109.64 169016.459   188%   151 1190s
 88774  8668     cutoff   36      -193109.64 164996.608   185%   150 1196s
 89509  8644     cutoff   37      -193109.64 160083.937   183%   150 1201s
 90235  8577 120614.454   33   47 -193109.64 155571.918   181%   150 1205s
 90936  8526 50838.4447   33   90 -193109.64 151167.823   178%   150 1211s
 91622  8485     cutoff   45      -193109.64 148037.052   177%   149 1215s
 92461  8314 31501.1295   36   81 -193109.64 141461.623   173%   149 1221s
 93118  8229     cutoff   42      -193109.64 137771.412   171%   149 1226s
 93760  8140 133437.943   32   75 -193109.64 133437.943   169%   148 1231s
 94398  8072     cutoff   39      -193109.64 130453.171   168%   148 1236s
 95025  7995 109545.743   50   48 -193109.64 126002.620   165%   148 1241s
 95425  8047     cutoff   45      -193109.64 125278.423   165%   148 1249s
 95436  7957 -177295.74   47   65 -193109.64 124935.090   165%   148 1252s
 96070  7883     cutoff   44      -193109.64 121341.914   163%   148 1257s
 96601  7784 -124167.48   49   32 -193109.64 115823.274   160%   148 1261s
 97188  7702 -26596.413   39   19 -193109.64 112786.825   158%   147 1266s
 97778  7604 94828.2806   44   37 -193109.64 109260.082   157%   147 1270s
 98458  7526     cutoff   48      -193109.64 105652.118   155%   147 1275s
 99324  7402     cutoff   39      -193109.64 99415.7100   151%   147 1281s
 99963  7321     cutoff   51      -193109.64 95168.4555   149%   147 1285s
 100761  7150     cutoff   38      -193109.64 90252.9133   147%   146 1291s
 101298  7051     cutoff   40      -193109.64 86214.9409   145%   146 1295s
 102183  6889     cutoff   38      -193109.64 80460.7466   142%   146 1301s
 103093  6757     cutoff   46      -193109.64 75044.4063   139%   145 1307s
 103629  6641 13403.1061   39   30 -193109.64 71540.6506   137%   145 1310s
 104111  6522     cutoff   39      -193109.64 67905.3413   135%   145 1315s
 104901  6387     cutoff   43      -193109.64 62221.8656   132%   145 1320s
 105895  6154     cutoff   61      -193109.64 54186.6028   128%   144 1326s
 106430  6050 -21575.572   37   33 -193109.64 50507.4051   126%   144 1330s
 107330  5907 29857.4314   33   28 -193109.64 44561.5376   123%   144 1335s
 108119  5748     cutoff   36      -193109.64 38953.0799   120%   143 1340s
 108665  5646     cutoff   38      -193109.64 34863.8080   118%   143 1345s
 109530  5501     cutoff   41      -193109.64 29494.6334   115%   143 1350s
 110463  5241 -71310.591   44   31 -193109.64 22572.5131   112%   142 1356s
 111195  5083     cutoff   47      -193109.64 17164.9751   109%   142 1361s
 111714  4948     cutoff   48      -193109.64 13690.4584   107%   142 1365s
 112662  4738 -120328.11   41   33 -193109.64 6370.33079   103%   141 1371s
 113374  4560     cutoff   27      -193109.64  626.99617   100%   141 1375s
 114315  4294     cutoff   59      -193109.64 -6908.6525  96.4%   140 1380s
 115188  4040 -60901.751   51   39 -193109.64 -15322.553  92.1%   140 1385s
 116115  3672     cutoff   59      -193109.64 -24878.156  87.1%   140 1390s
 117058  3305     cutoff   45      -193109.64 -35175.731  81.8%   139 1395s
 117785  3011     cutoff   52      -193109.64 -43024.479  77.7%   139 1400s
 118723  2630     cutoff   43      -193109.64 -53768.480  72.2%   138 1405s
 119570  2246     cutoff   55      -193109.64 -64551.664  66.6%   138 1410s
 120371  1853     cutoff   49      -193109.64 -76924.031  60.2%   137 1415s
 121399  1295     cutoff   43      -193109.64 -95477.448  50.6%   137 1420s
 122861   395 -141941.14   33   43 -193109.64 -136322.01  29.4%   136 1425s

Cutting planes:
  Gomory: 98
  Cover: 1
  Implied bound: 162
  Projected implied bound: 7
  MIR: 167
  Flow cover: 727
  Zero half: 4

Explored 123429 nodes (16748567 simplex iterations) in 1428.70 seconds
Thread count was 4 (of 16 available processors)

Solution count 8: -193110 -193110 -193110 ... -2.82136e+06
No other solutions better than -193110

Optimal solution found (tolerance 1.00e-04)
Best objective -1.931096429112e+05, best bound -1.931096429112e+05, gap 0.0000%

***
***  |- Calculation finished, took 1,428.72 (1428.72) sec.
***  |-----------------------------------------------------------------------------------------------------------------------
***
*****************************************************************************************************************************
#############################################################################################################################
###
### Results
###
### The objective of the solution is -193,109.6429 (-193109.6429) and is feasible with a Gap of 0.0
###
### Service 81 (MECL1) is operated by 6 vessels from type 30 (PMax35)
###  |- Vessel  9 has the path [9, 2, 227, 223, 6, 231, 160, 0]
###  |  9 (BEANR Out@66.0) - 2 (AEJEA In@563.0/Out@587.0) - 227 (PKBQM In@644.0/Out@674.0) - 223 (OMSLL In@889.0/Out@904.0) -
###  |   6 (AEJEA In@1235.0/Out@1259.0) - 231 (PKBQM In@1316.0/Out@1346.0) - 160 (INNSA In@1410.0/Out@1426.0) - 0 (DUMMY_END 
###  |  Ziel-Service 81)
###  |   |- and carried Demand 144,  31.0 containers from 231 to 160
###  |   |- and carried Demand 145,  37.0 containers from   6 to 160
###  |   |- and carried Demand 146, 211.0 containers from   6 to 160
###  |   |- and carried Demand 147, 176.0 containers from   6 to 231
###  |   |- and carried Demand 215, 704.0 containers from   2 to 160
###  |   |- and carried Demand 216,   8.0 containers from   2 to 160
###  |   |- and carried Demand 217, 156.0 containers from   2 to 227
###  |   |- and carried Demand 218,  45.0 containers from   2 to 227
###  |- Vessel 10 has the path [10, 247, 156, 0]
###  |  10 (BEANR Out@234.0) - 247 (TRAMB In@576.0/Out@603.0) - 156 (INNSA In@738.0/Out@754.0) - 0 (DUMMY_END Ziel-Service 81
###  |  )
###  |- Vessel 11 has the path [13, 244, 4, 229, 224, 7, 232, 161, 0]
###  |  13 (BEANR Out@402.0) - 244 (TRALI In@668.0/Out@686.0) - 4 (AEJEA In@899.0/Out@923.0) - 229 (PKBQM In@980.0/Out@1010.0
###  |  ) - 224 (OMSLL In@1132.0/Out@1145.0) - 7 (AEJEA In@1403.0/Out@1427.0) - 232 (PKBQM In@1484.0/Out@1514.0) - 161 (INNSA
###  |   In@1578.0/Out@1594.0) - 0 (DUMMY_END Ziel-Service 81)
###  |   |- and carried Demand 127,  34.0 containers from 232 to 161
###  |   |- and carried Demand 128,  84.0 containers from   7 to 232
###  |   |- and carried Demand 129,  50.0 containers from   7 to 232
###  |   |- and carried Demand 180, 254.0 containers from 229 to 161
###  |   |- and carried Demand 181,   1.0 containers from 229 to 161
###  |   |- and carried Demand 182, 135.0 containers from 229 to 161
###  |   |- and carried Demand 185,  75.0 containers from   4 to 161
###  |   |- and carried Demand 186, 200.0 containers from   4 to 229
###  |   |- and carried Demand 187,  24.0 containers from   4 to 229
###  |   |- and carried Demand 188,  26.0 containers from   4 to 161
###  |   |- and carried Demand 189, 144.0 containers from   4 to 161
###  |   |- and carried Demand 190,   1.0 containers from   4 to 161
###  |- Vessel 12 has the path [16, 245, 5, 230, 159, 0]
###  |  16 (BEANR Out@570.0) - 245 (TRALI In@836.0/Out@854.0) - 5 (AEJEA In@1067.0/Out@1091.0) - 230 (PKBQM In@1148.0/Out@117
###  |  8.0) - 159 (INNSA In@1242.0/Out@1258.0) - 0 (DUMMY_END Ziel-Service 81)
###  |   |- and carried Demand 167,  86.0 containers from   5 to 230
###  |   |- and carried Demand 168, 118.0 containers from   5 to 230
###  |- Vessel 17 has the path [132, 210, 254, 3, 228, 157, 0]
###  |  132 (GBFXT Out@302.0) - 210 (NLRTM In@332.0/Out@344.0) - 254 (TRZMK In@617.0/Out@631.0) - 3 (AEJEA In@731.0/Out@755.0
###  |  ) - 228 (PKBQM In@812.0/Out@842.0) - 157 (INNSA In@906.0/Out@922.0) - 0 (DUMMY_END Ziel-Service 81)
###  |   |- and carried Demand 199,  44.0 containers from 228 to 157
###  |   |- and carried Demand 204, 133.0 containers from   3 to 228
###  |   |- and carried Demand 205,  61.0 containers from   3 to 228
###  |- Vessel 18 has the path [135, 212, 255, 158, 0]
###  |  135 (GBFXT Out@470.0) - 212 (NLRTM In@500.0/Out@512.0) - 255 (TRZMK In@785.0/Out@799.0) - 158 (INNSA In@1074.0/Out@10
###  |  90.0) - 0 (DUMMY_END Ziel-Service 81)
###  |
### Vessels not used in the solution: [1, 2, 3, 4, 5, 6, 7, 8, 13, 14, 15, 16]
###  |-----------------------------------------------------------------------------------------------------------------------
###
#############################################################################################################################

### Detialed variable overview

### All variables with value greater zero:
rho[81,30] = 1
eta[81,30,1] = 1
eta[81,30,2] = 1
eta[81,30,3] = 1
eta[81,30,4] = 1
eta[81,30,5] = 1
eta[81,30,6] = 1
y[9,227,223] = 0.999999
y[9,2,227] = 1
y[9,231,160] = 1
y[9,223,6] = 0.999999
y[9,6,231] = 1
y[9,160,0] = 1
y[9,9,2] = 1
y[10,156,0] = 1
y[10,247,156] = 1
y[10,10,247] = 1
y[11,4,229] = 1
y[11,229,224] = 0.999999
y[11,161,0] = 1
y[11,13,244] = 1
y[11,224,7] = 0.999999
y[11,7,232] = 1
y[11,232,161] = 1
y[11,244,4] = 1
y[12,16,245] = 1
y[12,245,5] = 1
y[12,159,0] = 1
y[12,230,159] = 1
y[12,5,230] = 1
y[17,210,254] = 1
y[17,3,228] = 1
y[17,157,0] = 1
y[17,254,3] = 1
y[17,132,210] = 1
y[17,228,157] = 1
y[18,158,0] = 1
y[18,135,212] = 1
y[18,255,158] = 1
y[18,212,255] = 1
xD[127,232,161] = 34
xD[128,7,232] = 84
xD[129,7,232] = 50
xD[144,231,160] = 31
xD[145,231,160] = 37
xD[145,6,231] = 37
xD[146,231,160] = 211
xD[146,6,231] = 211
xD[147,6,231] = 176
xD[167,5,230] = 86
xD[168,5,230] = 118
xD[180,229,224] = 254
xD[180,224,7] = 254
xD[180,7,232] = 254
xD[180,232,161] = 254
xD[181,229,224] = 0.999999
xD[181,224,7] = 0.999999
xD[181,7,232] = 1
xD[181,232,161] = 1
xD[182,229,224] = 135
xD[182,224,7] = 135
xD[182,7,232] = 135
xD[182,232,161] = 135
xD[185,4,229] = 75.0001
xD[185,229,224] = 74.9999
xD[185,224,7] = 74.9999
xD[185,7,232] = 75.0001
xD[185,232,161] = 75.0001
xD[186,4,229] = 200
xD[187,4,229] = 24
xD[188,4,229] = 26
xD[188,229,224] = 26
xD[188,224,7] = 26
xD[188,7,232] = 26
xD[188,232,161] = 26
xD[189,4,229] = 144
xD[189,229,224] = 144
xD[189,224,7] = 144
xD[189,7,232] = 144
xD[189,232,161] = 144
xD[190,4,229] = 1
xD[190,229,224] = 0.999999
xD[190,224,7] = 0.999999
xD[190,7,232] = 1
xD[190,232,161] = 1
xD[199,228,157] = 44
xD[204,3,228] = 133
xD[205,3,228] = 61
xD[215,227,223] = 703.999
xD[215,2,227] = 704
xD[215,231,160] = 704
xD[215,223,6] = 703.999
xD[215,6,231] = 704
xD[216,227,223] = 7.99999
xD[216,2,227] = 8
xD[216,231,160] = 8
xD[216,223,6] = 7.99999
xD[216,6,231] = 8
xD[217,2,227] = 156
xD[218,2,227] = 45
zE[2] = 563
zE[3] = 731
zE[4] = 899.001
zE[5] = 1067
zE[6] = 1235
zE[7] = 1403
zE[156] = 738
zE[157] = 906
zE[158] = 1074
zE[159] = 1242
zE[160] = 1410
zE[161] = 1578
zE[210] = 332
zE[212] = 500
zE[223] = 888.999
zE[224] = 1132
zE[227] = 644
zE[228] = 812
zE[229] = 980
zE[230] = 1148
zE[231] = 1316
zE[232] = 1484
zE[244] = 668
zE[245] = 836
zE[247] = 576
zE[254] = 617
zE[255] = 785
zX[2] = 587
zX[3] = 755
zX[4] = 923.001
zX[5] = 1091
zX[6] = 1259
zX[7] = 1427
zX[9] = 66
zX[10] = 234
zX[13] = 402
zX[16] = 570
zX[132] = 302
zX[135] = 470
zX[156] = 754
zX[157] = 922
zX[158] = 1090
zX[159] = 1258
zX[160] = 1426
zX[161] = 1594
zX[210] = 344
zX[212] = 512
zX[223] = 903.999
zX[224] = 1145
zX[227] = 674
zX[228] = 842
zX[229] = 1010
zX[230] = 1178
zX[231] = 1346
zX[232] = 1514
zX[244] = 686
zX[245] = 854
zX[247] = 603
zX[254] = 631
zX[255] = 799
phi[9] = 1360
phi[10] = 520
phi[11] = 1192
phi[12] = 688
phi[17] = 620
phi[18] = 620

### All variables with value smaller zero:

### End

real	25m29.862s
user	87m44.593s
sys	4m32.843s
	Freetype 2.4.12 environment removed
	Python 3.6.0 environment removed
	Gurobi 8.1.0 environment removed
