	Freetype 2.4.12 environment established
		library to render fonts
	Python 3.6.0 environment established
	Gurobi 8.1.0 environment established
Instance LSFRP: LSFDRP_1_5_0_1_fr.p
Instance LSFDP: LSFDRP_1_5_0_1_fd_43.p

*****************************************************************************************************************************
*** Solve LSFDRP_1_5_0_1_fd_43 with Gurobi
***
*** Graph info
*** |S|: 18
*** |S^E|: 0
*** |S^C|: 0
*** |V|: 278
*** |A|: 6311
*** |A^i|: 6311
*** |A^f|: 0
*** |M|: 220
*** |E|: 0

Changed value of parameter TimeLimit to 86400.0
   Prev: 1e+100  Min: 0.0  Max: 1e+100  Default: 1e+100
Changed value of parameter Threads to 4
   Prev: 0  Min: 0  Max: 1024  Default: 0
Optimize a model with 80020 rows, 1515219 columns and 5494522 nonzeros
Variable types: 1401600 continuous, 113619 integer (113619 binary)
Coefficient statistics:
  Matrix range     [1e+00, 4e+03]
  Objective range  [4e+01, 3e+08]
  Bounds range     [1e+00, 1e+00]
  RHS range        [1e+00, 6e+00]
Presolve removed 73961 rows and 1400154 columns (presolve time = 6s) ...
Presolve removed 73961 rows and 1404023 columns (presolve time = 62s) ...
Presolve removed 74094 rows and 1404258 columns
Presolve time: 64.58s
Presolved: 5926 rows, 110961 columns, 363401 nonzeros
Variable types: 2482 continuous, 108479 integer (108444 binary)
Warning: Failed to open log file 'gurobi.log'

Root simplex log...

Iteration    Objective       Primal Inf.    Dual Inf.      Time
       0    3.5228138e+09   5.398643e+05   0.000000e+00     67s
   12598    8.0102256e+06   1.750214e+05   0.000000e+00     70s
   17954    6.8249822e+06   3.422027e+04   0.000000e+00     75s
   23444    5.2513919e+06   1.810336e+04   0.000000e+00     80s
   26429    4.6252524e+06   0.000000e+00   0.000000e+00     83s

Root relaxation: objective 4.625252e+06, 26429 iterations, 16.67 seconds

    Nodes    |    Current Node    |     Objective Bounds      |     Work
 Expl Unexpl |  Obj  Depth IntInf | Incumbent    BestBd   Gap | It/Node Time

     0     0 4625252.44    0  124          - 4625252.44      -     -   85s
H    0     0                    -2615737.890 4625252.44   277%     -   85s
H    0     0                    -193110.0160 4625252.44  2495%     -  100s
     0     0 4344072.27    0  150 -193110.02 4344072.27  2350%     -  101s
     0     0 4344072.27    0  131 -193110.02 4344072.27  2350%     -  117s
H    0     0                    -193110.0159 4344072.27  2350%     -  119s
     0     0 2651044.11    0  114 -193110.02 2651044.11  1473%     -  120s
     0     0 2650796.28    0  123 -193110.02 2650796.28  1473%     -  120s
     0     0 2649014.65    0  129 -193110.02 2649014.65  1472%     -  121s
     0     0 2618030.76    0  139 -193110.02 2618030.76  1456%     -  121s
     0     0 2613558.24    0  130 -193110.02 2613558.24  1453%     -  122s
     0     0 2613429.67    0  130 -193110.02 2613429.67  1453%     -  122s
     0     0 2612543.23    0  134 -193110.02 2612543.23  1453%     -  122s
     0     0 2612395.91    0  139 -193110.02 2612395.91  1453%     -  122s
     0     0 2608911.21    0  144 -193110.02 2608911.21  1451%     -  122s
     0     0 2607627.27    0  145 -193110.02 2607627.27  1450%     -  122s
     0     0 2607579.11    0  141 -193110.02 2607579.11  1450%     -  122s
     0     0 2604795.59    0  143 -193110.02 2604795.59  1449%     -  123s
     0     0 2597764.74    0  147 -193110.02 2597764.74  1445%     -  123s
     0     0 2597717.72    0  147 -193110.02 2597717.72  1445%     -  123s
     0     0 2597172.61    0  141 -193110.02 2597172.61  1445%     -  123s
     0     0 2596880.51    0  150 -193110.02 2596880.51  1445%     -  123s
     0     0 2594191.51    0  145 -193110.02 2594191.51  1443%     -  124s
     0     0 2592106.76    0  137 -193110.02 2592106.76  1442%     -  124s
     0     0 2591697.26    0  140 -193110.02 2591697.26  1442%     -  124s
     0     0 2591372.70    0  143 -193110.02 2591372.70  1442%     -  124s
     0     0 2589542.25    0  142 -193110.02 2589542.25  1441%     -  124s
     0     0 2589542.25    0   93 -193110.02 2589542.25  1441%     -  126s
     0     0 2289209.87    0  132 -193110.02 2289209.87  1285%     -  128s
     0     0 2276202.99    0  155 -193110.02 2276202.99  1279%     -  128s
     0     0 2274466.97    0  158 -193110.02 2274466.97  1278%     -  128s
     0     0 2268169.48    0  141 -193110.02 2268169.48  1275%     -  128s
     0     0 2267970.90    0  145 -193110.02 2267970.90  1274%     -  128s
     0     0 2267486.12    0  143 -193110.02 2267486.12  1274%     -  128s
     0     0 2266516.95    0  148 -193110.02 2266516.95  1274%     -  128s
     0     0 2259841.52    0  162 -193110.02 2259841.52  1270%     -  128s
     0     0 2259837.19    0  162 -193110.02 2259837.19  1270%     -  128s
     0     0 2247577.89    0  166 -193110.02 2247577.89  1264%     -  129s
     0     0 2057897.44    0  166 -193110.02 2057897.44  1166%     -  129s
     0     0 2057770.30    0  166 -193110.02 2057770.30  1166%     -  129s
     0     0 2057488.50    0  171 -193110.02 2057488.50  1165%     -  129s
     0     0 2057488.50    0  171 -193110.02 2057488.50  1165%     -  129s
     0     0 2050337.78    0  177 -193110.02 2050337.78  1162%     -  129s
     0     0 2049773.24    0  172 -193110.02 2049773.24  1161%     -  129s
     0     0 2049535.48    0  177 -193110.02 2049535.48  1161%     -  129s
     0     0 2049443.78    0  177 -193110.02 2049443.78  1161%     -  129s
     0     0 2049329.86    0  178 -193110.02 2049329.86  1161%     -  130s
     0     0 2049327.08    0  178 -193110.02 2049327.08  1161%     -  130s
     0     0 2047743.50    0  187 -193110.02 2047743.50  1160%     -  130s
     0     0 2047613.22    0  187 -193110.02 2047613.22  1160%     -  130s
     0     0 2047402.12    0  189 -193110.02 2047402.12  1160%     -  130s
     0     0 2047400.11    0  189 -193110.02 2047400.11  1160%     -  130s
     0     0 2047281.70    0  197 -193110.02 2047281.70  1160%     -  130s
     0     0 2046996.26    0  199 -193110.02 2046996.26  1160%     -  130s
     0     0 2046898.50    0  198 -193110.02 2046898.50  1160%     -  130s
     0     0 2046837.01    0  198 -193110.02 2046837.01  1160%     -  130s
     0     0 2046837.01    0  197 -193110.02 2046837.01  1160%     -  132s
     0     0 2046837.01    0   95 -193110.02 2046837.01  1160%     -  135s
H    0     0                    -193110.0158 2046837.01  1160%     -  136s
     0     0 2046837.01    0  118 -193110.02 2046837.01  1160%     -  136s
     0     0 2046837.01    0  138 -193110.02 2046837.01  1160%     -  136s
     0     0 2046837.01    0  133 -193110.02 2046837.01  1160%     -  137s
     0     0 2046837.01    0  106 -193110.02 2046837.01  1160%     -  137s
     0     0 2046837.01    0  109 -193110.02 2046837.01  1160%     -  137s
     0     0 2046837.01    0  113 -193110.02 2046837.01  1160%     -  137s
     0     0 2046837.01    0  119 -193110.02 2046837.01  1160%     -  137s
     0     0 2046837.01    0  109 -193110.02 2046837.01  1160%     -  137s
     0     0 2046837.01    0  113 -193110.02 2046837.01  1160%     -  137s
     0     0 2046837.01    0  120 -193110.02 2046837.01  1160%     -  137s
     0     0 2046543.92    0  124 -193110.02 2046543.92  1160%     -  137s
     0     0 2044582.50    0  127 -193110.02 2044582.50  1159%     -  137s
     0     0 2044407.13    0  128 -193110.02 2044407.13  1159%     -  137s
     0     0 2044321.63    0  129 -193110.02 2044321.63  1159%     -  137s
     0     0 2043647.62    0  128 -193110.02 2043647.62  1158%     -  137s
     0     0 2043639.80    0  128 -193110.02 2043639.80  1158%     -  137s
     0     0 2042885.68    0  136 -193110.02 2042885.68  1158%     -  138s
     0     0 2041911.67    0  132 -193110.02 2041911.67  1157%     -  138s
     0     0 2041868.19    0  136 -193110.02 2041868.19  1157%     -  138s
     0     0 2041304.27    0  137 -193110.02 2041304.27  1157%     -  138s
     0     0 2041274.60    0  138 -193110.02 2041274.60  1157%     -  138s
     0     0 2041142.93    0  141 -193110.02 2041142.93  1157%     -  138s
     0     0 2041142.93    0  141 -193110.02 2041142.93  1157%     -  139s
     0     2 2041142.93    0  141 -193110.02 2041142.93  1157%     -  140s
    23    22 1698803.24    5  117 -193110.02 1873251.41  1070%   620  145s
    30    29 1662017.71    6  128 -193110.02 1873251.41  1070%   582  150s
   192   134 931832.444   34   40 -193110.02 1709256.40   985%   263  155s
   620   382 855154.480   12   44 -193110.02 1634021.57   946%   199  160s
  1363   644 1401966.78   19   62 -193110.02 1545115.58   900%   160  165s
  1968   926     cutoff   40      -193110.02 1510455.65   882%   147  173s
  2107   976 561068.849   23  150 -193110.02 1494865.10   874%   148  184s
  2109   977 1345035.02   17   94 -193110.02 1494865.10   874%   148  186s
  2124   987 283017.736   31  108 -193110.02 1494865.10   874%   147  190s
  2136   998 1494865.10   14  137 -193110.02 1494865.10   874%   154  199s
  2138  1002 1494865.10   15  136 -193110.02 1494865.10   874%   154  203s
  2146  1007 1436091.05   16  104 -193110.02 1494865.10   874%   156  205s
  2165  1015 1186858.03   19   95 -193110.02 1494865.10   874%   159  212s
  2239  1056     cutoff   28      -193110.02 1494865.10   874%   164  215s
  2451  1064 416138.197   48   27 -193110.02 1494865.10   874%   170  220s
  2807  1113 695411.697   24   45 -193110.02 1494865.10   874%   173  225s
  3290  1149 857844.263   27  116 -193110.02 1494865.10   874%   175  230s
  3953  1216     cutoff   27      -193110.02 1445418.45   848%   170  235s
  4512  1299 678710.710   28  111 -193110.02 1414608.85   833%   169  240s
  5265  1399 327845.867   54   28 -193110.02 1366589.31   808%   168  245s
  5925  1678 675515.115   34   24 -193110.02 1336585.78   792%   167  251s
  6394  1891 899011.057   30   75 -193110.02 1315962.78   781%   166  256s
  6720  2051 929108.143   25   83 -193110.02 1302169.32   774%   166  260s
  7177  2271 222963.839   41   90 -193110.02 1294473.89   770%   166  266s
  7473  2411 502930.902   30   48 -193110.02 1287813.50   767%   165  270s
  8355  2788 608395.884   36   83 -193110.02 1261058.25   753%   163  276s
  8905  2945 943859.014   38  112 -193110.02 1237549.21   741%   162  282s
  9833  3367 144754.773   45   78 -193110.02 1231861.09   738%   160  297s
  9861  3349     cutoff   48      -193110.02 1220337.56   732%   160  301s
 10221  3470 860560.729   32   35 -193110.02 1197799.28   720%   160  307s
 11164  3830 576098.600   43   87 -193110.02 1167939.71   705%   158  312s
 11484  3945 304475.561   57   87 -193110.02 1159903.38   701%   158  316s
 12014  4127 200593.019   40   55 -193110.02 1150471.07   696%   158  320s
 13040  4547 733669.334   32   94 -193110.02 1126273.35   683%   157  328s
 13162  4562 637888.578   34   81 -193110.02 1119937.27   680%   157  332s
 13700  4714     cutoff   32      -193110.02 1114417.08   677%   157  336s
 14761  5020 349502.383   37   64 -193110.02 1088704.26   664%   155  342s
 15478  5214 -28587.054   33   89 -193110.02 1077632.23   658%   154  345s
 16723  5559 498098.877   30   65 -193110.02 1048860.11   643%   152  351s
 17790  5891 929395.112   32  104 -193110.02 1028795.28   633%   152  356s
 18847  6157     cutoff   25      -193110.02 1015031.49   626%   151  361s
 19912  6432 413879.315   35   87 -193110.02 999928.494   618%   150  366s
 20820  6624 311692.541   50  150 -193110.02 983890.234   609%   149  480s
 20834  6633 303182.417   35  105 -193110.02 983890.234   609%   149  485s
 20889  6670 981526.198   43  182 -193110.02 983890.234   609%   149  490s
 20937  6702 362293.278   37  182 -193110.02 983890.234   609%   148  495s
 20976  6728 353602.758   33  181 -193110.02 983890.234   609%   148  500s
 21013  6753 345445.918   37  205 -193110.02 983890.234   609%   148  505s
 21035  6767 709891.890   45  201 -193110.02 983890.234   609%   148  510s
 21065  6787 54030.7183   39  197 -193110.02 983890.234   609%   147  515s
 21089  6803 981526.198   43  199 -193110.02 983890.234   609%   147  520s
 21117  6822 -131335.77   61  200 -193110.02 983890.234   609%   147  525s
 21141  6838 331222.556   45  193 -193110.02 983890.234   609%   147  530s
 21163  6853 970303.166   26  189 -193110.02 983890.234   609%   147  535s
 21181  6865 124446.788   45  197 -193110.02 983890.234   609%   146  540s
 21204  6880 381817.817   32  198 -193110.02 983890.234   609%   146  545s
 21223  6893 -54529.343   49  194 -193110.02 983890.234   609%   146  550s
 21240  6904 638036.409   40  171 -193110.02 983890.234   609%   146  555s
 21267  6922 -11838.749   52  199 -193110.02 983890.234   609%   146  560s
 21285  6934 260142.061   37  194 -193110.02 983890.234   609%   146  565s
 21307  6949 230926.155   41  216 -193110.02 983890.234   609%   146  570s
 21326  6961 305415.499   34  204 -193110.02 983890.234   609%   145  575s
 21329  6966 983890.234   25  203 -193110.02 983890.234   609%   149  584s
 21331  6970 983890.234   26  151 -193110.02 983890.234   609%   149  588s
 21335  6972 983890.234   27  150 -193110.02 983890.234   609%   150  591s
 21339  6975 983890.234   27  183 -193110.02 983890.234   609%   150  597s
 21343  6978 983890.234   28  192 -193110.02 983890.234   609%   150  602s
 21351  6981 983890.234   29  187 -193110.02 983890.234   609%   150  606s
 21359  6980 983890.234   30  186 -193110.02 983890.234   609%   150  610s
 21379  6991 983890.234   31  127 -193110.02 983890.234   609%   151  615s
 21393  6999 951898.724   32  191 -193110.02 983890.234   609%   151  621s
 21419  6993 981284.425   34  129 -193110.02 983890.234   609%   151  626s
 21452  7002 555423.019   38   95 -193110.02 983890.234   609%   152  630s
 21553  7022 983890.234   49   76 -193110.02 983890.234   609%   153  635s
 21690  7052 983890.234   33  105 -193110.02 983890.234   609%   154  642s
 21798  7073 983890.234   35  117 -193110.02 983890.234   609%   154  646s
 21914  7096 983890.234   57   76 -193110.02 983890.234   609%   155  650s
 22189  7148 907204.602   42   88 -193110.02 983890.234   609%   156  656s
 22413  7147 638123.883   52   43 -193110.02 983890.234   609%   157  661s
 22624  7181 746979.252   37  124 -193110.02 983890.234   609%   157  666s
 22801  7203 362363.812   56  107 -193110.02 983890.234   609%   158  670s
 23063  7215 769619.441   69   66 -193110.02 983890.234   609%   159  676s
 23358  7248 74128.7079   51   81 -193110.02 983890.234   609%   159  680s
 23672  7241 907194.070   33  157 -193110.02 983890.234   609%   160  685s
 23866  7267 -28701.004   48   99 -193110.02 983890.234   609%   160  690s
 24157  7257 923957.469   37   54 -193110.02 983890.234   609%   161  695s
 24512  7291     cutoff   35      -193110.02 983890.234   609%   162  701s
 24956  7302 932542.172   38   61 -193110.02 983890.234   609%   163  707s
 25182  7341     cutoff   35      -193110.02 983890.234   609%   163  710s
 25627  7369 616777.049   35   90 -193110.02 983890.234   609%   165  717s
 25872  7350 734913.730   47  122 -193110.02 979919.926   607%   165  721s
 26371  7325 708785.546   44   77 -193110.02 951893.506   593%   166  728s
 26638  7290 603001.670   50  104 -193110.02 942807.225   588%   167  732s
 26946  7224 684375.231   34  118 -193110.02 935849.157   585%   167  737s
 27231  7211 -84799.745   35   96 -193110.02 917583.536   575%   168  743s
 27483  7204 789065.664   36  178 -193110.02 901932.973   567%   168  747s
 27794  7184 662761.128   62   92 -193110.02 896803.381   564%   168  752s
 28186  7149 671721.942   38   51 -193110.02 882157.979   557%   169  757s
 28654  7170 418870.427   38  149 -193110.02 863603.841   547%   169  762s
 29083  7147 202846.890   43  100 -193110.02 854901.017   543%   169  767s
 29581  7098 421802.910   68   47 -193110.02 838218.656   534%   169  773s
 30113  7091 185522.901   63   71 -193110.02 825867.686   528%   169  779s
 30703  7059 449235.727   40   67 -193110.02 817071.281   523%   169  785s
 31196  7050 431718.393   44   69 -193110.02 792201.458   510%   170  793s
 31685  6960 208479.347   47  162 -193110.02 783508.122   506%   171  800s
 32222  6956     cutoff   43      -193110.02 770591.605   499%   171  807s
 32679  6964 444622.121   37  141 -193110.02 754105.752   491%   172  813s
 33132  6970 253101.069   54  110 -193110.02 750955.044   489%   172  819s
 33691  6959 637101.282   45   60 -193110.02 740424.966   483%   172  825s
 34120  6933 313053.506   42   48 -193110.02 728600.560   477%   173  832s
 34742  6911     cutoff   71      -193110.02 713907.575   470%   173  838s
 35324  6875 658904.429   71  104 -193110.02 700126.291   463%   173  866s
 35683  6838 672011.275   47   72 -193110.02 694791.771   460%   173  872s
 36183  6799 393340.491   56   76 -193110.02 689220.252   457%   173  878s
 36728  6803 670807.293   49   78 -193110.02 678692.211   451%   174  884s
 37292  6780 586448.118   47   54 -193110.02 673591.288   449%   173  890s
 37807  6713 74929.0799   46   92 -193110.02 665009.018   444%   174  896s
 38416  6672 175345.197   45   29 -193110.02 655581.741   439%   174  902s
 38877  6600 188976.343   47  127 -193110.02 646502.500   435%   174  907s
 39357  6560     cutoff   37      -193110.02 638292.460   431%   174  912s
 39817  6475 219539.962   49   54 -193110.02 623641.497   423%   174  917s
 40330  6430 300586.502   37   77 -193110.02 616521.767   419%   174  923s
 40721  6389 575536.050   46  126 -193110.02 612549.798   417%   174  928s
 41225  6356 -156304.17   44   84 -193110.02 606630.416   414%   174  933s
 41756  6331 -98762.493   83   55 -193110.02 601884.957   412%   174  940s
 42333  6293 61938.0748   53   68 -193110.02 591225.808   406%   174  945s
 43287  6468     cutoff   38      -193110.02 575747.061   398%   174  954s
 43742  6520 357019.422   42   43 -193110.02 573352.835   397%   174  959s
 44176  6585 192575.002   48   97 -193110.02 563489.540   392%   174  964s
 44645  6618 -60377.898   41  105 -193110.02 559922.663   390%   173  968s
 45142  6701 -6381.9115   46   84 -193110.02 550989.692   385%   173  973s
 45552  6769 381112.747   54   77 -193110.02 543107.257   381%   173  978s
 45971  6879 289133.000   47   88 -193110.02 539552.474   379%   173  982s
 46333  6976 532565.536   44  132 -193110.02 537231.509   378%   173  987s
 46793  7088 43616.9975   50   64 -193110.02 532668.032   376%   173  992s
 47297  7240 221408.785   71   44 -193110.02 527364.575   373%   173  996s
 47579  7251 286936.604   42   54 -193110.02 524827.602   372%   173 1001s
 48047  7357     cutoff   46      -193110.02 520816.169   370%   173 1007s
 48519  7453 19186.4197   48   73 -193110.02 516185.494   367%   173 1011s
 48987  7523 -170155.57   38   97 -193110.02 510620.576   364%   173 1016s
 49520  7600 144066.913   53   20 -193110.02 504179.261   361%   172 1021s
 49950  7683     cutoff   48      -193110.02 498965.957   358%   172 1025s
 50934  7846 40261.2276   80  139 -193110.02 486639.410   352%   172 1033s
 51402  7860 282042.910   42  168 -193110.02 480830.616   349%   172 1037s
 51822  7942 311595.628   72  138 -193110.02 478663.896   348%   172 1042s
 52304  8055 69284.3396   57   73 -193110.02 473836.608   345%   171 1048s
 52781  8128     cutoff   72      -193110.02 466493.178   342%   171 1053s
 53286  8167 35973.1711   61   58 -193110.02 458877.187   338%   171 1057s
 53707  8216 108055.888   45   74 -193110.02 455844.866   336%   171 1062s
 54141  8238 33236.2705   37  106 -193110.02 451178.221   334%   171 1066s
 54525  8239 -189788.69   49   46 -193110.02 444521.298   330%   171 1070s
 55370  8402     cutoff   47      -193110.02 439903.657   328%   170 1078s
 55859  8483 425287.615   34   75 -193110.02 434940.201   325%   170 1082s
 56340  8596 312053.825   72   61 -193110.02 430388.758   323%   170 1086s
 56739  8642 188822.214   57   75 -193110.02 428719.874   322%   170 1090s
 57569  8747     cutoff   61      -193110.02 418970.199   317%   170 1097s
 57986  8805 317850.597   39   56 -193110.02 415692.424   315%   170 1101s
 58419  8877 200258.636   56  115 -193110.02 411728.607   313%   170 1105s
 59263  8975     cutoff   87      -193110.02 404606.746   310%   169 1113s
 59608  8948 340148.719   38   99 -193110.02 399741.133   307%   169 1117s
 59986  8946 -76257.940   40   52 -193110.02 396850.859   306%   169 1121s
 60791  9013 167424.144   69   52 -193110.02 390638.896   302%   169 1128s
 61197  9042 126477.208   44  116 -193110.02 386939.734   300%   169 1131s
 61553  9075 -35049.582   53  114 -193110.02 381887.434   298%   169 1135s
 62268  9159     cutoff   49      -193110.02 373690.994   294%   169 1142s
 62637  9220     cutoff   69      -193110.02 371809.336   293%   169 1147s
 63015  9239 11384.3015   56   63 -193110.02 367671.395   290%   169 1151s
 63596  9255     cutoff   53      -193110.02 362893.678   288%   168 1157s
 63991  9315     cutoff   48      -193110.02 359123.324   286%   168 1161s
 64685  9284 82769.0216   64   26 -193110.02 351196.820   282%   168 1167s
 65028  9279     cutoff   63      -193110.02 347575.671   280%   168 1171s
 65384  9257 -189013.93   56   37 -193110.02 344004.096   278%   168 1175s
 66112  9284 277976.911   39  100 -193110.02 337649.564   275%   167 1182s
 66407  9268     cutoff   75      -193110.02 335247.527   274%   167 1186s
 67144  9297 169723.897   46   54 -193110.02 328795.033   270%   167 1192s
 67509  9296 171918.328   43   48 -193110.02 324640.605   268%   167 1195s
 68148  9270 -11514.488   59   78 -193110.02 316809.071   264%   167 1201s
 68805  9262     cutoff   45      -193110.02 311829.333   261%   167 1207s
 69447  9218     cutoff   51      -193110.02 304560.753   258%   166 1212s
 69851  9293     cutoff   63      -193110.02 301431.295   256%   166 1215s
 70505  9275 -101669.87   66  111 -193110.02 295898.234   253%   166 1220s
 71180  9283 97004.1247   55   80 -193110.02 290614.952   250%   166 1226s
 71556  9276     cutoff   61      -193110.02 287349.085   249%   166 1230s
 72263  9318     cutoff   54      -193110.02 281657.016   246%   166 1236s
 72968  9289 -34934.569   63   31 -193110.02 275693.609   243%   165 1242s
 73325  9278     cutoff   40      -193110.02 273457.521   242%   165 1245s
 73934  9248     cutoff   48      -193110.02 266050.784   238%   165 1251s
 74257  9286 114476.483   47   93 -193110.02 262836.357   236%   165 1256s
H74293  9286                    -193109.5018 262836.357   236%   165 1256s
 74485  9290     cutoff   48      -193109.50 261476.126   235%   165 1260s
 74875  9180     cutoff   48      -193109.50 257105.270   233%   165 1265s
 75455  9131     cutoff   48      -193109.50 253775.750   231%   164 1271s
 76100  9096 62532.7560   53   31 -193109.50 246960.373   228%   164 1277s
 76356  9064     cutoff   39      -193109.50 244371.037   227%   164 1280s
 76972  9035     cutoff   48      -193109.50 238463.975   223%   164 1285s
 77478  8957     cutoff   48      -193109.50 233120.944   221%   164 1290s
 78019  8864 42849.8549   60  112 -193109.50 227626.339   218%   164 1295s
 78517  8775 -114858.77   71   52 -193109.50 222446.464   215%   163 1300s
 78982  8679 154193.335   48   64 -193109.50 217713.912   213%   163 1306s
 79489  8559     cutoff   71      -193109.50 211353.776   209%   163 1310s
 80035  8481     cutoff   77      -193109.50 206642.953   207%   163 1315s
 80555  8383 121633.747   32   81 -193109.50 201470.245   204%   163 1320s
 81037  8329     cutoff   43      -193109.50 197028.539   202%   162 1325s
 81645  8278     cutoff   56      -193109.50 192064.664   199%   162 1330s
 82145  8213     cutoff   62      -193109.50 187462.606   197%   162 1336s
 82830  8065 -140490.36   68   63 -193109.50 179461.060   193%   162 1341s
 83381  7990     cutoff   51      -193109.50 174422.139   190%   162 1345s
 84149  7848     cutoff   46      -193109.50 166447.699   186%   161 1352s
 84653  7764     cutoff   64      -193109.50 161420.517   184%   161 1357s
 85140  7678     cutoff   48      -193109.50 156198.448   181%   161 1360s
 85798  7500     cutoff   74      -193109.50 148985.980   177%   161 1366s
 86538  7341     cutoff   83      -193109.50 141555.912   173%   160 1370s
 86946  7298     cutoff   43      -193109.50 136556.387   171%   160 1375s
 87670  7053 70023.4302   60   45 -193109.50 128304.781   166%   160 1381s
 88124  6957 -167414.58   58   91 -193109.50 123588.593   164%   159 1385s
 88771  6769     cutoff   46      -193109.50 117003.002   161%   159 1391s
 89306  6565 -107953.97   75   72 -193109.50 110679.257   157%   159 1395s
 89914  6366     cutoff   48      -193109.50 103664.155   154%   159 1401s
 90501  6156 41998.8886   61   27 -193109.50 96581.5597   150%   158 1406s
 91319  5914     cutoff   63      -193109.50 87461.4327   145%   158 1410s
 91988  5746     cutoff   62      -193109.50 80600.5693   142%   157 1415s
 92637  5561 16164.4834   47   87 -193109.50 73454.7455   138%   157 1420s
 93465  5318     cutoff   75      -193109.50 65075.8569   134%   157 1425s
 94138  5035     cutoff   60      -193109.50 56755.1256   129%   156 1430s
 94709  4841     cutoff   52      -193109.50 49524.3323   126%   156 1435s
 95475  4584     cutoff   62      -193109.50 40615.0330   121%   156 1441s
 96002  4395 -60084.871   39   50 -193109.50 34104.8888   118%   155 1445s
 97010  3965     cutoff   57      -193109.50 20017.3103   110%   155 1450s
 97912  3510 -156290.30   67   49 -193109.50 6067.28176   103%   154 1456s
 98604  3242     cutoff   50      -193109.50 -4243.3135  97.8%   154 1460s
 99688  2716     cutoff   42      -193109.50 -21388.823  88.9%   153 1465s
 100655  2173 -45806.414   54   33 -193109.50 -41523.307  78.5%   152 1470s
 101858  1471     cutoff   78      -193109.50 -69340.748  64.1%   151 1475s
 103335   390     cutoff   90      -193109.50 -122386.74  36.6%   150 1480s

Cutting planes:
  Gomory: 106
  Implied bound: 4
  Projected implied bound: 1
  MIR: 32
  Flow cover: 215

Explored 103900 nodes (15541484 simplex iterations) in 1482.94 seconds
Thread count was 4 (of 16 available processors)

Solution count 5: -193110 -193110 -193110 ... -2.61574e+06

Optimal solution found (tolerance 1.00e-04)
Best objective -1.931095018480e+05, best bound -1.931095018480e+05, gap 0.0000%

***
***  |- Calculation finished, took 1,482.97 (1482.97) sec.
***  |-----------------------------------------------------------------------------------------------------------------------
***
*****************************************************************************************************************************
#############################################################################################################################
###
### Results
###
### The objective of the solution is -193,109.5018 (-193109.5018) and is feasible with a Gap of 0.0
###
### Service 81 (MECL1) is operated by 6 vessels from type 30 (PMax35)
###  |- Vessel  9 has the path [9, 2, 227, 223, 6, 231, 160, 0]
###  |  9 (BEANR Out@66.0) - 2 (AEJEA In@563.0/Out@587.0) - 227 (PKBQM In@644.0/Out@674.0) - 223 (OMSLL In@889.0/Out@904.0) -
###  |   6 (AEJEA In@1235.0/Out@1259.0) - 231 (PKBQM In@1316.0/Out@1346.0) - 160 (INNSA In@1410.0/Out@1426.0) - 0 (DUMMY_END 
###  |  Ziel-Service 81)
###  |   |- and carried Demand 144,  31.0 containers from 231 to 160
###  |   |- and carried Demand 145,  37.0 containers from   6 to 160
###  |   |- and carried Demand 146, 211.0 containers from   6 to 160
###  |   |- and carried Demand 147, 176.0 containers from   6 to 231
###  |   |- and carried Demand 215, 704.0 containers from   2 to 160
###  |   |- and carried Demand 216,   8.0 containers from   2 to 160
###  |   |- and carried Demand 217, 156.0 containers from   2 to 227
###  |   |- and carried Demand 218,  45.0 containers from   2 to 227
###  |- Vessel 10 has the path [10, 247, 156, 0]
###  |  10 (BEANR Out@234.0) - 247 (TRAMB In@576.0/Out@603.0) - 156 (INNSA In@738.0/Out@754.0) - 0 (DUMMY_END Ziel-Service 81
###  |  )
###  |- Vessel 11 has the path [13, 244, 4, 229, 224, 7, 232, 161, 0]
###  |  13 (BEANR Out@402.0) - 244 (TRALI In@668.0/Out@686.0) - 4 (AEJEA In@899.0/Out@923.0) - 229 (PKBQM In@980.0/Out@1010.0
###  |  ) - 224 (OMSLL In@1132.0/Out@1145.0) - 7 (AEJEA In@1403.0/Out@1427.0) - 232 (PKBQM In@1484.0/Out@1514.0) - 161 (INNSA
###  |   In@1578.0/Out@1594.0) - 0 (DUMMY_END Ziel-Service 81)
###  |   |- and carried Demand 127,  34.0 containers from 232 to 161
###  |   |- and carried Demand 128,  84.0 containers from   7 to 232
###  |   |- and carried Demand 129,  50.0 containers from   7 to 232
###  |   |- and carried Demand 180, 254.0 containers from 229 to 161
###  |   |- and carried Demand 181,   1.0 containers from 229 to 161
###  |   |- and carried Demand 182, 135.0 containers from 229 to 161
###  |   |- and carried Demand 185,  75.0 containers from   4 to 161
###  |   |- and carried Demand 186, 200.0 containers from   4 to 229
###  |   |- and carried Demand 187,  24.0 containers from   4 to 229
###  |   |- and carried Demand 188,  26.0 containers from   4 to 161
###  |   |- and carried Demand 189, 144.0 containers from   4 to 161
###  |   |- and carried Demand 190,   1.0 containers from   4 to 161
###  |- Vessel 12 has the path [16, 245, 5, 230, 159, 0]
###  |  16 (BEANR Out@570.0) - 245 (TRALI In@836.0/Out@854.0) - 5 (AEJEA In@1067.0/Out@1091.0) - 230 (PKBQM In@1148.0/Out@117
###  |  8.0) - 159 (INNSA In@1242.0/Out@1258.0) - 0 (DUMMY_END Ziel-Service 81)
###  |   |- and carried Demand 167,  86.0 containers from   5 to 230
###  |   |- and carried Demand 168, 118.0 containers from   5 to 230
###  |- Vessel 17 has the path [132, 210, 254, 3, 228, 157, 0]
###  |  132 (GBFXT Out@302.0) - 210 (NLRTM In@332.0/Out@344.0) - 254 (TRZMK In@617.0/Out@631.0) - 3 (AEJEA In@731.0/Out@755.0
###  |  ) - 228 (PKBQM In@812.0/Out@842.0) - 157 (INNSA In@906.0/Out@922.0) - 0 (DUMMY_END Ziel-Service 81)
###  |   |- and carried Demand 199,  44.0 containers from 228 to 157
###  |   |- and carried Demand 204, 133.0 containers from   3 to 228
###  |   |- and carried Demand 205,  61.0 containers from   3 to 228
###  |- Vessel 18 has the path [135, 212, 255, 158, 0]
###  |  135 (GBFXT Out@470.0) - 212 (NLRTM In@500.0/Out@512.0) - 255 (TRZMK In@785.0/Out@799.0) - 158 (INNSA In@1074.0/Out@10
###  |  90.0) - 0 (DUMMY_END Ziel-Service 81)
###  |
### Vessels not used in the solution: [1, 2, 3, 4, 5, 6, 7, 8, 13, 14, 15, 16]
###  |-----------------------------------------------------------------------------------------------------------------------
###
#############################################################################################################################

### Detialed variable overview

### All variables with value greater zero:
rho[81,30] = 1
eta[81,30,1] = 1
eta[81,30,2] = 1
eta[81,30,3] = 1
eta[81,30,4] = 1
eta[81,30,5] = 1
eta[81,30,6] = 1
y[9,227,223] = 0.999997
y[9,2,227] = 0.999997
y[9,231,160] = 0.999998
y[9,223,6] = 0.999997
y[9,6,231] = 0.999998
y[9,160,0] = 0.999999
y[9,9,2] = 0.999997
y[10,156,0] = 0.999999
y[10,247,156] = 0.999999
y[10,10,247] = 0.999999
y[11,4,229] = 1
y[11,229,224] = 1
y[11,161,0] = 0.999999
y[11,13,244] = 1
y[11,224,7] = 0.999999
y[11,7,232] = 0.999999
y[11,232,161] = 0.999999
y[11,244,4] = 1
y[12,16,245] = 1
y[12,245,5] = 1
y[12,159,0] = 1
y[12,230,159] = 1
y[12,5,230] = 1
y[17,210,254] = 0.999997
y[17,3,228] = 0.999997
y[17,157,0] = 0.999999
y[17,254,3] = 0.999997
y[17,132,210] = 0.999997
y[17,228,157] = 0.999999
y[18,158,0] = 1
y[18,135,212] = 1
y[18,255,158] = 1
y[18,212,255] = 1
xD[127,232,161] = 34
xD[128,7,232] = 84
xD[129,7,232] = 50
xD[144,231,160] = 31
xD[145,231,160] = 36.9998
xD[145,6,231] = 36.9998
xD[146,231,160] = 211
xD[146,6,231] = 211
xD[147,6,231] = 176
xD[167,5,230] = 86
xD[168,5,230] = 118
xD[180,229,224] = 254
xD[180,224,7] = 254
xD[180,7,232] = 254
xD[180,232,161] = 254
xD[181,229,224] = 1
xD[181,224,7] = 0.999999
xD[181,7,232] = 1
xD[181,232,161] = 1
xD[182,229,224] = 135
xD[182,224,7] = 135
xD[182,7,232] = 135
xD[182,232,161] = 135
xD[185,4,229] = 75
xD[185,229,224] = 75
xD[185,224,7] = 74.9999
xD[185,7,232] = 75
xD[185,232,161] = 75
xD[186,4,229] = 200
xD[187,4,229] = 24
xD[188,4,229] = 26
xD[188,229,224] = 26
xD[188,224,7] = 26
xD[188,7,232] = 26
xD[188,232,161] = 26
xD[189,4,229] = 144
xD[189,229,224] = 144
xD[189,224,7] = 144
xD[189,7,232] = 144
xD[189,232,161] = 144
xD[190,4,229] = 1
xD[190,229,224] = 1
xD[190,224,7] = 0.999999
xD[190,7,232] = 1
xD[190,232,161] = 1
xD[199,228,157] = 44
xD[204,3,228] = 133
xD[205,3,228] = 60.9999
xD[215,227,223] = 703.998
xD[215,2,227] = 704
xD[215,231,160] = 704
xD[215,223,6] = 703.998
xD[215,6,231] = 704
xD[216,227,223] = 7.99999
xD[216,2,227] = 8
xD[216,231,160] = 8
xD[216,223,6] = 7.99994
xD[216,6,231] = 8
xD[217,2,227] = 156
xD[218,2,227] = 45
zE[2] = 563
zE[3] = 730.999
zE[4] = 899
zE[5] = 1067
zE[6] = 1235
zE[7] = 1403
zE[156] = 738
zE[157] = 906
zE[158] = 1074
zE[159] = 1242
zE[160] = 1410
zE[161] = 1578
zE[210] = 331.999
zE[212] = 500
zE[223] = 888.998
zE[224] = 1132
zE[227] = 644
zE[228] = 812
zE[229] = 980
zE[230] = 1148
zE[231] = 1316
zE[232] = 1484
zE[244] = 668
zE[245] = 836
zE[247] = 576
zE[254] = 617
zE[255] = 785
zX[2] = 587
zX[3] = 754.999
zX[4] = 923
zX[5] = 1091
zX[6] = 1259
zX[7] = 1427
zX[9] = 66
zX[10] = 234
zX[13] = 402
zX[16] = 570
zX[132] = 302
zX[135] = 470
zX[156] = 754
zX[157] = 922
zX[158] = 1090
zX[159] = 1258
zX[160] = 1426
zX[161] = 1594
zX[210] = 343.999
zX[212] = 512
zX[223] = 903.998
zX[224] = 1145
zX[227] = 674
zX[228] = 842
zX[229] = 1010
zX[230] = 1178
zX[231] = 1346
zX[232] = 1514
zX[244] = 686
zX[245] = 854
zX[247] = 603
zX[254] = 631
zX[255] = 799
phi[9] = 1360
phi[10] = 520
phi[11] = 1192
phi[12] = 688
phi[17] = 620.001
phi[18] = 620

### All variables with value smaller zero:

### End

real	26m8.610s
user	90m19.809s
sys	5m30.518s
	Freetype 2.4.12 environment removed
	Python 3.6.0 environment removed
	Gurobi 8.1.0 environment removed
