	Freetype 2.4.12 environment established
		library to render fonts
	Python 3.6.0 environment established
	Gurobi 8.1.0 environment established
Instance LSFRP: LSFDRP_1_5_0_1_fr.p
Instance LSFDP: LSFDRP_1_5_0_1_fd_16.p

*****************************************************************************************************************************
*** Solve LSFDRP_1_5_0_1_fd_16 with Gurobi
***
*** Graph info
*** |S|: 18
*** |S^E|: 0
*** |S^C|: 0
*** |V|: 278
*** |A|: 6311
*** |A^i|: 6311
*** |A^f|: 0
*** |M|: 220
*** |E|: 0

Changed value of parameter TimeLimit to 86400.0
   Prev: 1e+100  Min: 0.0  Max: 1e+100  Default: 1e+100
Changed value of parameter Threads to 4
   Prev: 0  Min: 0  Max: 1024  Default: 0
Optimize a model with 80020 rows, 1515219 columns and 5494522 nonzeros
Variable types: 1401600 continuous, 113619 integer (113619 binary)
Coefficient statistics:
  Matrix range     [1e+00, 4e+03]
  Objective range  [4e+01, 1e+08]
  Bounds range     [1e+00, 1e+00]
  RHS range        [1e+00, 6e+00]
Presolve removed 73909 rows and 1399870 columns (presolve time = 5s) ...
Presolve removed 73961 rows and 1404023 columns (presolve time = 62s) ...
Presolve removed 74094 rows and 1404258 columns (presolve time = 65s) ...
Presolve removed 74094 rows and 1404258 columns
Presolve time: 65.06s
Presolved: 5926 rows, 110961 columns, 363401 nonzeros
Variable types: 2482 continuous, 108479 integer (108444 binary)
Warning: Failed to open log file 'gurobi.log'

Root simplex log...

Iteration    Objective       Primal Inf.    Dual Inf.      Time
       0    3.5228138e+09   5.398643e+05   0.000000e+00     67s
   12005    8.3387613e+06   4.758698e+04   0.000000e+00     70s
   17616    7.2444958e+06   1.266243e+04   0.000000e+00     75s
   22429    5.9504658e+06   2.412326e+05   0.000000e+00     80s
   27269    4.6567659e+06   8.399052e+03   0.000000e+00     85s
   27498    4.6252524e+06   0.000000e+00   0.000000e+00     85s

Root relaxation: objective 4.625252e+06, 27498 iterations, 18.20 seconds

    Nodes    |    Current Node    |     Objective Bounds      |     Work
 Expl Unexpl |  Obj  Depth IntInf | Incumbent    BestBd   Gap | It/Node Time

     0     0 4625252.44    0  122          - 4625252.44      -     -   87s
H    0     0                    -2927716.555 4625252.44   258%     -   88s
H    0     0                    -2608086.599 4625252.44   277%     -   88s
H    0     0                    -193109.2442 4625252.44  2495%     -  110s
     0     0 2691446.93    0  100 -193109.24 2691446.93  1494%     -  111s
     0     0 2691446.93    0   92 -193109.24 2691446.93  1494%     -  118s
     0     0 2645383.22    0  121 -193109.24 2645383.22  1470%     -  119s
     0     0 2645018.27    0  127 -193109.24 2645018.27  1470%     -  119s
     0     0 2310098.69    0   81 -193109.24 2310098.69  1296%     -  120s
     0     0 2306565.88    0   86 -193109.24 2306565.88  1294%     -  120s
     0     0 2289022.37    0   99 -193109.24 2289022.37  1285%     -  120s
     0     0 2285357.40    0   97 -193109.24 2285357.40  1283%     -  120s
     0     0 2281794.46    0  109 -193109.24 2281794.46  1282%     -  120s
     0     0 2273979.39    0   94 -193109.24 2273979.39  1278%     -  120s
     0     0 2273979.39    0   94 -193109.24 2273979.39  1278%     -  120s
     0     0 2223574.54    0  126 -193109.24 2223574.54  1251%     -  120s
     0     0 2223568.35    0  127 -193109.24 2223568.35  1251%     -  121s
     0     0 2221948.71    0  132 -193109.24 2221948.71  1251%     -  121s
     0     0 2221889.52    0  132 -193109.24 2221889.52  1251%     -  121s
     0     0 2220805.27    0  123 -193109.24 2220805.27  1250%     -  121s
     0     0 2220655.99    0  127 -193109.24 2220655.99  1250%     -  121s
     0     0 2220553.15    0  131 -193109.24 2220553.15  1250%     -  121s
     0     0 2220112.66    0  123 -193109.24 2220112.66  1250%     -  121s
     0     0 2220062.79    0  126 -193109.24 2220062.79  1250%     -  121s
     0     0 2218564.76    0  124 -193109.24 2218564.76  1249%     -  121s
     0     0 2216927.48    0  127 -193109.24 2216927.48  1248%     -  121s
     0     0 2216920.46    0  127 -193109.24 2216920.46  1248%     -  121s
     0     0 2216175.95    0  126 -193109.24 2216175.95  1248%     -  121s
     0     0 2215317.99    0  167 -193109.24 2215317.99  1247%     -  121s
     0     0 2215263.14    0  172 -193109.24 2215263.14  1247%     -  121s
     0     0 2215053.15    0  130 -193109.24 2215053.15  1247%     -  122s
     0     0 2215051.47    0  129 -193109.24 2215051.47  1247%     -  122s
     0     0 2215038.56    0  131 -193109.24 2215038.56  1247%     -  122s
     0     0 2214961.27    0  126 -193109.24 2214961.27  1247%     -  122s
     0     0 2214928.27    0  131 -193109.24 2214928.27  1247%     -  122s
     0     0 2214928.27    0  131 -193109.24 2214928.27  1247%     -  123s
     0     0 2214928.27    0   90 -193109.24 2214928.27  1247%     -  125s
     0     0 2214928.27    0  123 -193109.24 2214928.27  1247%     -  126s
     0     0 2214928.27    0  127 -193109.24 2214928.27  1247%     -  127s
     0     0 2214928.27    0  135 -193109.24 2214928.27  1247%     -  127s
     0     0 2214928.27    0  135 -193109.24 2214928.27  1247%     -  127s
     0     0 2214928.27    0  105 -193109.24 2214928.27  1247%     -  127s
     0     0 2214928.27    0  135 -193109.24 2214928.27  1247%     -  127s
     0     0 2214928.27    0  141 -193109.24 2214928.27  1247%     -  127s
     0     0 2214928.27    0  141 -193109.24 2214928.27  1247%     -  127s
     0     0 2214928.27    0  142 -193109.24 2214928.27  1247%     -  127s
     0     0 2214928.27    0  146 -193109.24 2214928.27  1247%     -  127s
     0     0 2214928.27    0  145 -193109.24 2214928.27  1247%     -  127s
     0     0 2214928.27    0  145 -193109.24 2214928.27  1247%     -  127s
     0     0 2214928.27    0  145 -193109.24 2214928.27  1247%     -  127s
     0     0 2214928.27    0  145 -193109.24 2214928.27  1247%     -  127s
     0     0 2214928.27    0  145 -193109.24 2214928.27  1247%     -  127s
     0     0 2061947.39    0  118 -193109.24 2061947.39  1168%     -  128s
     0     0 2061569.60    0  119 -193109.24 2061569.60  1168%     -  128s
     0     0 2044663.79    0  115 -193109.24 2044663.79  1159%     -  128s
     0     0 2044646.18    0  114 -193109.24 2044646.18  1159%     -  128s
     0     0 2044038.12    0  110 -193109.24 2044038.12  1158%     -  128s
     0     0 2043015.31    0  114 -193109.24 2043015.31  1158%     -  128s
     0     0 2042894.33    0  119 -193109.24 2042894.33  1158%     -  128s
     0     0 2042534.84    0  115 -193109.24 2042534.84  1158%     -  128s
     0     0 2041273.60    0  118 -193109.24 2041273.60  1157%     -  128s
     0     0 2041271.18    0  118 -193109.24 2041271.18  1157%     -  128s
     0     0 2040957.94    0  119 -193109.24 2040957.94  1157%     -  128s
     0     0 2040954.36    0  119 -193109.24 2040954.36  1157%     -  128s
     0     0 2040550.90    0  119 -193109.24 2040550.90  1157%     -  128s
     0     0 2040550.90    0  119 -193109.24 2040550.90  1157%     -  130s
     0     2 2040550.90    0  119 -193109.24 2040550.90  1157%     -  130s
    31    29 1698102.23    8  100 -193109.24 1893027.93  1080%   501  135s
    63    56 1084591.34   14   76 -193109.24 1893027.93  1080%   330  140s
   288   182 147034.181   23   75 -193109.24 1792388.42  1028%   220  145s
   803   488 1467205.98   14   49 -193109.24 1655434.67   957%   193  150s
  1051   605 1125316.90   19  100 -193109.24 1630731.69   944%   183  164s
  1053   606 305712.408   36   89 -193109.24 1630731.69   944%   183  166s
  1076   622 1005347.33   44  139 -193109.24 1630731.69   944%   179  170s
  1125   654 1523707.42   21  186 -193109.24 1630731.69   944%   171  175s
  1172   686 308454.884   20  188 -193109.24 1630731.69   944%   165  180s
  1180   694 1630731.69   12  179 -193109.24 1630731.69   944%   183  188s
  1182   696 1630731.69   13  167 -193109.24 1630731.69   944%   186  193s
  1190   698 1467512.98   14   97 -193109.24 1630731.69   944%   190  195s
H 1208   663                    -193109.0501 1630731.69   944%   194  199s
  1210   660 1630731.69   17  128 -193109.05 1630731.69   944%   194  200s
  1325   692 540935.600   27   80 -193109.05 1583625.28   920%   207  205s
  1590   744 1312781.85   21  159 -193109.05 1570446.81   913%   198  210s
  1849   814 384823.534   36   57 -193109.05 1476944.74   865%   197  215s
  2133   856 895025.699   26   96 -193109.05 1421285.22   836%   200  220s
  2568   881 751210.881   26   73 -193109.05 1347667.78   798%   193  225s
  2886   910 763049.689   30  111 -193109.05 1337744.68   793%   191  232s
  3105   925 1144431.75   24   40 -193109.05 1300583.36   773%   189  235s
  3482  1036 546724.095   26  114 -193109.05 1293074.49   770%   185  240s
  4001  1267 -168675.63   61   29 -193109.05 1242559.45   743%   183  246s
  4500  1438 663684.985   27   46 -193109.05 1211216.00   727%   177  250s
  5072  1642 -34659.724   48   26 -193109.05 1176882.46   709%   172  256s
  5646  1891     cutoff   37      -193109.05 1139827.59   690%   169  261s
  5966  1993 201502.593   46   37 -193109.05 1126787.50   683%   168  266s
  6456  2146 -133458.77   38   26 -193109.05 1102646.21   671%   164  270s
  6934  2335 964209.388   39   21 -193109.05 1080383.55   659%   163  275s
  7563  2490     cutoff   36      -193109.05 1062605.01   650%   159  280s
  8298  2715 901528.906   36   63 -193109.05 1026760.03   632%   155  286s
  9054  2956     cutoff   42      -193109.05 1014658.55   625%   152  292s
  9547  3081 829461.592   28   99 -193109.05 998973.493   617%   150  295s
 10488  3338     cutoff   31      -193109.05 975228.051   605%   148  305s
 11220  3522 850509.013   30   97 -193109.05 952465.487   593%   147  312s
 11750  3693 415985.714   42   73 -193109.05 947035.139   590%   146  327s
 12102  3787 871759.713   33   81 -193109.05 941542.404   588%   146  331s
 12596  3939 336347.004   46   58 -193109.05 931936.332   583%   145  335s
 13304  4122 608256.346   46   62 -193109.05 913115.153   573%   145  341s
 13720  4253 892307.592   27   48 -193109.05 907224.863   570%   145  345s
 14405  4438     cutoff   39      -193109.05 893666.144   563%   144  353s
 14877  4541 791594.397   34   70 -193109.05 887449.638   560%   143  355s
 15919  4897 461201.253   29  130 -193109.05 869830.650   550%   142  362s
 16421  5005 399884.418   32   33 -193109.05 864921.234   548%   141  365s
 17513  5184 240570.878   22   80 -193109.05 853581.240   542%   140  371s
 18456  5416 246955.974   50   31 -193109.05 832432.361   531%   140  378s
 18905  5506 357942.921   32   58 -193109.05 828354.511   529%   139  381s
 19691  5692 606846.826   23   94 -193109.05 814883.094   522%   139  387s
 20186  5822 91542.6211   56  102 -193109.05 809548.264   519%   139  390s
 20934  6067 654301.292   31  100 -193109.05 799711.135   514%   139  525s
 20947  6076 -9045.8643   41  211 -193109.05 799711.135   514%   139  530s
 20980  6098 777765.104   39  191 -193109.05 799711.135   514%   139  535s
 21017  6122 651534.821   30  225 -193109.05 799711.135   514%   139  540s
 21041  6138 501878.749   50  236 -193109.05 799711.135   514%   139  545s
 21060  6151 517524.188   32  216 -193109.05 799711.135   514%   138  550s
 21085  6168 408276.125   46  217 -193109.05 799711.135   514%   138  555s
 21105  6181 -121821.44   26  242 -193109.05 799711.135   514%   138  560s
 21128  6196 484180.732   35  227 -193109.05 799711.135   514%   138  565s
 21147  6209 -9045.8643   41  251 -193109.05 799711.135   514%   138  570s
 21164  6220 106032.235   31  252 -193109.05 799711.135   514%   138  575s
 21183  6233 652294.855   40  255 -193109.05 799711.135   514%   138  580s
 21204  6247 394804.048   42  240 -193109.05 799711.135   514%   137  585s
 21216  6255 747683.916   38  248 -193109.05 799711.135   514%   137  590s
 21234  6267 654301.292   31  246 -193109.05 799711.135   514%   137  595s
 21249  6277 634297.814   32  243 -193109.05 799711.135   514%   137  600s
 21267  6289 413816.868   36  246 -193109.05 799711.135   514%   137  605s
 21281  6298 501028.267   37  254 -193109.05 799711.135   514%   137  610s
 21295  6308 389696.404   49  260 -193109.05 799711.135   514%   137  615s
 21315  6321 630362.217   48  255 -193109.05 799711.135   514%   137  620s
 21330  6331 790435.223   41  254 -193109.05 799711.135   514%   137  625s
 21344  6340 6904.49536   42  238 -193109.05 799711.135   514%   137  630s
 21362  6352 461741.044   25  265 -193109.05 799711.135   514%   136  635s
 21371  6358 766507.251   39  259 -193109.05 799711.135   514%   136  640s
 21373  6360 370650.678   35  255 -193109.05 799711.135   514%   136  648s
 21374  6363 799711.135   26  259 -193109.05 799711.135   514%   141  656s
 21376  6365 799711.135   27  254 -193109.05 799711.135   514%   141  660s
 21380  6366 799711.135   28  247 -193109.05 799711.135   514%   141  665s
 21384  6368 799711.135   29  233 -193109.05 799711.135   514%   142  673s
 21388  6370 799711.135   29  199 -193109.05 799711.135   514%   142  677s
 21392  6370 799711.135   30  245 -193109.05 799711.135   514%   142  680s
 21401  6375 799711.135   31  182 -193109.05 799711.135   514%   143  686s
 21417  6377 799711.135   32  183 -193109.05 799711.135   514%   144  692s
 21434  6386 618169.135   33  134 -193109.05 799711.135   514%   144  695s
 21462  6389 799711.135   35  177 -193109.05 799711.135   514%   145  701s
 21514  6381 799711.135   38  189 -193109.05 799711.135   514%   145  707s
 21552  6385 799711.135   40  176 -193109.05 799711.135   514%   146  710s
 21600  6398 799711.135   43  103 -193109.05 799711.135   514%   147  715s
 21681  6425     cutoff   54      -193109.05 799711.135   514%   149  721s
 21756  6434 799711.135   35  117 -193109.05 799711.135   514%   150  726s
 21844  6438 283886.789   38  106 -193109.05 799711.135   514%   152  730s
 21950  6462 466120.078   41   99 -193109.05 799711.135   514%   154  735s
 22059  6485 799711.135   37  138 -193109.05 799711.135   514%   156  740s
 22170  6498     cutoff   38      -193109.05 799711.135   514%   159  746s
 22329  6501 384248.838   57  103 -193109.05 799711.135   514%   160  750s
 22512  6501 730088.089   46  226 -193109.05 799711.135   514%   163  756s
 22659  6525 165347.527   71  152 -193109.05 799711.135   514%   165  761s
 22744  6522 544335.251   46    9 -193109.05 799711.135   514%   166  765s
 22965  6528 -60880.611   42  133 -193109.05 799711.135   514%   168  771s
 23111  6525 799711.135   46   81 -193109.05 799711.135   514%   169  775s
 23332  6486 799711.135   47  169 -193109.05 799711.135   514%   171  782s
 23392  6485 799711.135   55  168 -193109.05 799711.135   514%   172  786s
 23583  6477 631745.225   45  171 -193109.05 799711.135   514%   175  794s
 23669  6477 399851.632   63  150 -193109.05 799711.135   514%   176  799s
 23745  6461 183254.615   46   65 -193109.05 799711.135   514%   176  803s
 23905  6451 766513.803   56  161 -193109.05 799711.135   514%   178  807s
 24016  6458 717433.484   67  160 -193109.05 799711.135   514%   179  812s
 24137  6465     cutoff   60      -193109.05 799711.135   514%   180  816s
 24280  6469 725162.034   41  143 -193109.05 799711.135   514%   181  821s
 24407  6453 463558.250   43  162 -193109.05 799711.135   514%   183  826s
 24538  6460 268356.134   47  145 -193109.05 799711.135   514%   185  832s
 24650  6454 693633.087   48   93 -193109.05 799711.135   514%   187  838s
 24838  6481 42188.5118   49  163 -193109.05 799711.135   514%   188  843s
 25002  6466 775352.456   31  143 -193109.05 799711.135   514%   190  849s
 25174  6470 526872.373   52  130 -193109.05 799711.135   514%   191  856s
 25329  6481 337238.611   90  155 -193109.05 799711.135   514%   192  862s
 25517  6482 181016.966   68  132 -193109.05 799711.135   514%   194  868s
 25680  6463 349655.056   58   86 -193109.05 799711.135   514%   195  873s
 26014  6462 796244.542   41  230 -193109.05 799711.135   514%   196  880s
 26231  6438     cutoff   46      -193109.05 796730.205   513%   198  887s
 26432  6420 374442.728   44  178 -193109.05 782336.253   505%   200  894s
 26695  6411 135704.500   35  187 -193109.05 769280.064   498%   201  901s
 26988  6396 689392.844   49   72 -193109.05 745797.055   486%   203  911s
 27181  6391 478947.686   54  102 -193109.05 742105.414   484%   205  918s
 27472  6366     cutoff   67      -193109.05 724426.018   475%   206  940s
 27703  6339 667225.605   47  192 -193109.05 717035.583   471%   209  949s
 27989  6303 399303.130   49  202 -193109.05 702284.433   464%   211  962s
 28347  6264 328518.282   47  154 -193109.05 691025.106   458%   213  973s
 28655  6211 -133750.74   53   90 -193109.05 677807.001   451%   215  982s
 28913  6164 618351.490   47  127 -193109.05 669617.069   447%   218  997s
 29295  6146 -139918.33   44  184 -193109.05 656913.770   440%   220 1009s
 29594  6121 566910.629   33  177 -193109.05 648608.612   436%   222 1020s
 30096  6101 419337.942   48  181 -193109.05 635711.294   429%   224 1033s
 30468  6037     cutoff   59      -193109.05 626874.638   425%   226 1044s
 30943  5966 442466.840   63  112 -193109.05 622299.773   422%   228 1057s
 31497  5938 304956.693   57  102 -193109.05 601302.302   411%   229 1073s
 32085  5868 403805.933   59   81 -193109.05 590193.466   406%   231 1086s
 32623  5774 364021.219   72  137 -193109.05 573077.763   397%   232 1099s
 33060  5719 -128967.00   55   38 -193109.05 569247.763   395%   232 1111s
 33518  5608 85812.0778   59  132 -193109.05 554193.234   387%   234 1124s
 34006  5553 493624.850   39  141 -193109.05 544629.361   382%   235 1135s
 34547  5456 369693.665   64  154 -193109.05 528666.233   374%   236 1147s
 35054  5365     cutoff   56      -193109.05 521781.593   370%   237 1157s
 35495  5274 109834.250   60   76 -193109.05 513279.703   366%   239 1168s
 35942  5171 314583.916   55   41 -193109.05 501126.751   360%   240 1179s
 36300  5041 275798.725   60   58 -193109.05 493914.081   356%   241 1189s
 36701  4938 308923.341   74   44 -193109.05 488785.397   353%   243 1202s
 37121  4828 -7624.8673   56   87 -193109.05 475562.325   346%   244 1212s
 37520  4710 220839.303   54  153 -193109.05 468207.635   342%   244 1223s
 37954  4598 -42421.300   55   62 -193109.05 455247.899   336%   245 1235s
 38486  4465     cutoff   72      -193109.05 443892.678   330%   245 1244s
 38861  4365     cutoff   37      -193109.05 437285.396   326%   246 1254s
 39223  4274 80867.3691   62  192 -193109.05 430051.493   323%   247 1266s
 39567  4177 -96500.456   59  109 -193109.05 420780.588   318%   248 1274s
 40023  4049     cutoff   72      -193109.05 413239.096   314%   249 1283s
 40505  3968 -1962.9213   77   33 -193109.05 400690.055   307%   249 1292s
 40974  4019 217337.166   65  140 -193109.05 395930.696   305%   250 1302s
 41406  4067     cutoff   46      -193109.05 385920.461   300%   250 1313s
 41880  4145 infeasible   82      -193109.05 377977.919   296%   251 1327s
H41885  4145                    -193108.9189 377977.919   296%   251 1327s
 42104  4137 252351.881   53   61 -193108.92 375754.452   295%   251 1339s
 42539  4162     cutoff   59      -193108.92 366558.468   290%   251 1347s
 42939  4179 -31651.044   64   34 -193108.92 359260.092   286%   252 1355s
 43286  4161     cutoff   49      -193108.92 347566.270   280%   253 1365s
 43572  4138     cutoff   45      -193108.92 338458.793   275%   253 1372s
 43992  4127     cutoff   68      -193108.92 329668.807   271%   253 1378s
 44318  4096     cutoff   65      -193108.92 322712.578   267%   253 1389s
 44702  4109     cutoff   56      -193108.92 316406.846   264%   254 1397s
 45020  4078 271138.676   81   67 -193108.92 310628.270   261%   254 1403s
 45377  4077 115593.323   53   54 -193108.92 302720.289   257%   254 1411s
 45739  4097 -150521.79   64   78 -193108.92 296196.480   253%   254 1418s
 46098  4077     cutoff   65      -193108.92 289353.939   250%   254 1468s
 46491  4073     cutoff   35      -193108.92 283726.301   247%   255 1477s
 46865  4069     cutoff   60      -193108.92 277041.821   243%   255 1484s
 47134  4032     cutoff   47      -193108.92 269441.445   240%   255 1493s
 47447  4008     cutoff   39      -193108.92 266521.433   238%   256 1502s
 47741  3981 216347.444   61   39 -193108.92 258752.810   234%   256 1508s
 48044  3939     cutoff   40      -193108.92 249760.005   229%   256 1515s
 48417  3939 -16231.928   40   76 -193108.92 246113.598   227%   257 1522s
 48779  3950 19692.9661  103   53 -193108.92 240406.342   224%   257 1528s
 49093  3912 202257.594   51  173 -193108.92 233614.332   221%   257 1537s
 49455  3914 82388.1677   63   48 -193108.92 227818.023   218%   257 1543s
 49781  3887     cutoff   64      -193108.92 221793.764   215%   257 1549s
 50129  3883     cutoff   62      -193108.92 213499.421   211%   257 1559s
 50431  3846 93746.6752   92  133 -193108.92 208738.962   208%   257 1562s
 50678  3812     cutoff   52      -193108.92 202287.108   205%   257 1571s
 51014  3784 infeasible   39      -193108.92 196782.811   202%   257 1576s
 51228  3718     cutoff   72      -193108.92 190081.905   198%   257 1582s
 51569  3706 29762.8948   44  114 -193108.92 182694.249   195%   257 1589s
 51873  3672 111052.882   52   88 -193108.92 178327.719   192%   258 1597s
 52097  3630     cutoff   44      -193108.92 172223.383   189%   258 1602s
 52443  3627     cutoff   51      -193108.92 166629.371   186%   258 1610s
 52744  3618 94419.9157   42   47 -193108.92 163159.628   184%   259 1617s
 53065  3585     cutoff   67      -193108.92 157030.797   181%   258 1625s
 53350  3549 122282.238   58  129 -193108.92 152201.907   179%   259 1630s
 53606  3507     cutoff   68      -193108.92 146435.956   176%   259 1635s
 53851  3456     cutoff   47      -193108.92 140655.742   173%   259 1640s
 54171  3441     cutoff   43      -193108.92 137098.819   171%   259 1651s
 54434  3400 infeasible   61      -193108.92 131458.454   168%   259 1655s
 54630  3351     cutoff   69      -193108.92 126012.437   165%   260 1664s
 54833  3310     cutoff   52      -193108.92 124288.607   164%   260 1667s
 55084  3257 94449.7236   87   10 -193108.92 117092.488   161%   259 1676s
 55328  3225     cutoff   67      -193108.92 111247.976   158%   260 1682s
 55634  3215     cutoff   46      -193108.92 108877.176   156%   260 1689s
 55876  3142 -10385.175   56   69 -193108.92 103064.315   153%   260 1695s
 56174  3122     cutoff   43      -193108.92 98246.5525   151%   260 1705s
 56454  3094     cutoff   67      -193108.92 92508.9443   148%   260 1711s
 57060  3058 83338.5620   56    7 -193108.92 83338.5620   143%   260 1717s
 57239  2981     cutoff   54      -193108.92 78588.6794   141%   260 1722s
 57444  2934     cutoff   57      -193108.92 73639.4020   138%   260 1728s
 57720  2908 infeasible   70      -193108.92 71356.5642   137%   260 1732s
 57978  2856     cutoff   63      -193108.92 64818.5336   134%   260 1737s
 58187  2788     cutoff   68      -193108.92 59277.9674   131%   259 1742s
 58415  2736     cutoff   46      -193108.92 53833.1827   128%   260 1747s
 58652  2704     cutoff   79      -193108.92 49968.4064   126%   260 1752s
 58886  2637 44306.9902   48  109 -193108.92 45475.6297   124%   260 1756s
 59139  2607 41792.1560   61  105 -193108.92 41792.1560   122%   260 1761s
 59383  2571     cutoff   64      -193108.92 40527.8923   121%   260 1766s
 59572  2502     cutoff   57      -193108.92 31704.8969   116%   259 1770s
 59808  2445     cutoff   80      -193108.92 26702.3570   114%   259 1776s
 60008  2373     cutoff   62      -193108.92 22724.2167   112%   259 1781s
 60447  2260 infeasible   74      -193108.92 14367.1706   107%   259 1787s
 60764  2108 -18620.461   61   75 -193108.92 4153.69503   102%   259 1792s
 61163  1966     cutoff   64      -193108.92 -3545.6905  98.2%   258 1797s
 61388  1907 -87614.574   57  103 -193108.92 -7128.2129  96.3%   258 1800s
 61728  1770     cutoff   76      -193108.92 -16510.650  91.5%   258 1805s
 61898  1707     cutoff   84      -193108.92 -21361.587  88.9%   258 1848s
 62042  1631     cutoff   57      -193108.92 -24863.297  87.1%   258 1850s
 62421  1499     cutoff   69      -193108.92 -33503.004  82.7%   257 1856s
 62769  1358     cutoff   92      -193108.92 -42466.663  78.0%   257 1860s
 63175  1124     cutoff   68      -193108.92 -58688.612  69.6%   257 1866s
 63485   976     cutoff   67      -193108.92 -69750.503  63.9%   256 1871s
 63893   741     cutoff   57      -193108.92 -84526.985  56.2%   256 1876s
 64320   513     cutoff   59      -193108.92 -102720.16  46.8%   255 1881s
 64776   182     cutoff   80      -193108.92 -131763.58  31.8%   254 1885s

Cutting planes:
  Gomory: 306
  Implied bound: 190
  Projected implied bound: 5
  MIR: 109
  Flow cover: 827
  Inf proof: 3
  Zero half: 1

Explored 65111 nodes (16566464 simplex iterations) in 1889.67 seconds
Thread count was 4 (of 16 available processors)

Solution count 6: -193109 -193109 -193109 ... -2.92772e+06

Optimal solution found (tolerance 1.00e-04)
Warning: max constraint violation (4.1809e-04) exceeds tolerance
Best objective -1.931089188515e+05, best bound -1.931089188515e+05, gap 0.0000%

***
***  |- Calculation finished, took 1,889.7 (1889.7) sec.
***  |-----------------------------------------------------------------------------------------------------------------------
***
*****************************************************************************************************************************
#############################################################################################################################
###
### Results
###
### The objective of the solution is -193,108.9189 (-193108.9189) and is feasible with a Gap of 0.0
###
### Service 81 (MECL1) is operated by 6 vessels from type 30 (PMax35)
###  |- Vessel  9 has the path [9, 2, 227, 223, 6, 231, 160, 0]
###  |  9 (BEANR Out@66.0) - 2 (AEJEA In@563.0/Out@587.0) - 227 (PKBQM In@644.0/Out@674.0) - 223 (OMSLL In@889.0/Out@904.0) -
###  |   6 (AEJEA In@1235.0/Out@1259.0) - 231 (PKBQM In@1316.0/Out@1346.0) - 160 (INNSA In@1410.0/Out@1426.0) - 0 (DUMMY_END 
###  |  Ziel-Service 81)
###  |   |- and carried Demand 144,  31.0 containers from 231 to 160
###  |   |- and carried Demand 145,  37.0 containers from   6 to 160
###  |   |- and carried Demand 146, 211.0 containers from   6 to 160
###  |   |- and carried Demand 147, 176.0 containers from   6 to 231
###  |   |- and carried Demand 215, 704.0 containers from   2 to 160
###  |   |- and carried Demand 216,   8.0 containers from   2 to 160
###  |   |- and carried Demand 217, 156.0 containers from   2 to 227
###  |   |- and carried Demand 218,  45.0 containers from   2 to 227
###  |- Vessel 10 has the path [10, 247, 156, 0]
###  |  10 (BEANR Out@234.0) - 247 (TRAMB In@576.0/Out@603.0) - 156 (INNSA In@738.0/Out@754.0) - 0 (DUMMY_END Ziel-Service 81
###  |  )
###  |- Vessel 11 has the path [13, 244, 4, 229, 224, 7, 232, 161, 0]
###  |  13 (BEANR Out@402.0) - 244 (TRALI In@668.0/Out@686.0) - 4 (AEJEA In@899.0/Out@923.0) - 229 (PKBQM In@980.0/Out@1010.0
###  |  ) - 224 (OMSLL In@1132.0/Out@1145.0) - 7 (AEJEA In@1403.0/Out@1427.0) - 232 (PKBQM In@1484.0/Out@1514.0) - 161 (INNSA
###  |   In@1578.0/Out@1594.0) - 0 (DUMMY_END Ziel-Service 81)
###  |   |- and carried Demand 127,  34.0 containers from 232 to 161
###  |   |- and carried Demand 128,  84.0 containers from   7 to 232
###  |   |- and carried Demand 129,  50.0 containers from   7 to 232
###  |   |- and carried Demand 180, 254.0 containers from 229 to 161
###  |   |- and carried Demand 181,   1.0 containers from 229 to 161
###  |   |- and carried Demand 182, 135.0 containers from 229 to 161
###  |   |- and carried Demand 185,  75.0 containers from   4 to 161
###  |   |- and carried Demand 186, 200.0 containers from   4 to 229
###  |   |- and carried Demand 187,  24.0 containers from   4 to 229
###  |   |- and carried Demand 188,  26.0 containers from   4 to 161
###  |   |- and carried Demand 189, 144.0 containers from   4 to 161
###  |   |- and carried Demand 190,   1.0 containers from   4 to 161
###  |- Vessel 12 has the path [16, 245, 5, 230, 159, 0]
###  |  16 (BEANR Out@570.0) - 245 (TRALI In@836.0/Out@854.0) - 5 (AEJEA In@1067.0/Out@1091.0) - 230 (PKBQM In@1148.0/Out@117
###  |  8.0) - 159 (INNSA In@1242.0/Out@1258.0) - 0 (DUMMY_END Ziel-Service 81)
###  |   |- and carried Demand 167,  86.0 containers from   5 to 230
###  |   |- and carried Demand 168, 118.0 containers from   5 to 230
###  |- Vessel 17 has the path [132, 210, 254, 3, 228, 157, 0]
###  |  132 (GBFXT Out@302.0) - 210 (NLRTM In@332.0/Out@344.0) - 254 (TRZMK In@617.0/Out@631.0) - 3 (AEJEA In@731.0/Out@755.0
###  |  ) - 228 (PKBQM In@812.0/Out@842.0) - 157 (INNSA In@906.0/Out@922.0) - 0 (DUMMY_END Ziel-Service 81)
###  |   |- and carried Demand 199,  44.0 containers from 228 to 157
###  |   |- and carried Demand 204, 133.0 containers from   3 to 228
###  |   |- and carried Demand 205,  61.0 containers from   3 to 228
###  |- Vessel 18 has the path [135, 212, 255, 158, 0]
###  |  135 (GBFXT Out@470.0) - 212 (NLRTM In@500.0/Out@512.0) - 255 (TRZMK In@785.0/Out@799.0) - 158 (INNSA In@1074.0/Out@10
###  |  90.0) - 0 (DUMMY_END Ziel-Service 81)
###  |
### Vessels not used in the solution: [1, 2, 3, 4, 5, 6, 7, 8, 13, 14, 15, 16]
###  |-----------------------------------------------------------------------------------------------------------------------
###
#############################################################################################################################

### Detialed variable overview

### All variables with value greater zero:
rho[81,30] = 1
eta[81,30,1] = 1
eta[81,30,2] = 1
eta[81,30,3] = 1
eta[81,30,4] = 1
eta[81,30,5] = 1
eta[81,30,6] = 1
y[9,227,223] = 1
y[9,2,227] = 1
y[9,231,160] = 1
y[9,223,6] = 1
y[9,6,231] = 1
y[9,160,0] = 1
y[9,9,2] = 1
y[10,156,0] = 1
y[10,247,156] = 1
y[10,10,247] = 1
y[11,4,229] = 0.999999
y[11,229,224] = 0.999999
y[11,161,0] = 1
y[11,13,244] = 1
y[11,224,7] = 1
y[11,7,232] = 1
y[11,232,161] = 1
y[11,244,4] = 1
y[12,16,245] = 1
y[12,245,5] = 1
y[12,159,0] = 1
y[12,230,159] = 1
y[12,5,230] = 1
y[17,210,254] = 1
y[17,3,228] = 1
y[17,157,0] = 1
y[17,254,3] = 1
y[17,132,210] = 1
y[17,228,157] = 1
y[18,158,0] = 1
y[18,135,212] = 0.999999
y[18,255,158] = 0.999999
y[18,212,255] = 0.999999
xD[127,232,161] = 34
xD[128,7,232] = 84
xD[129,7,232] = 50
xD[144,231,160] = 31
xD[145,231,160] = 37
xD[145,6,231] = 37
xD[146,231,160] = 211
xD[146,6,231] = 211
xD[147,6,231] = 176
xD[167,5,230] = 86
xD[168,5,230] = 118
xD[180,229,224] = 254
xD[180,224,7] = 254
xD[180,7,232] = 254
xD[180,232,161] = 254
xD[181,229,224] = 1
xD[181,224,7] = 1
xD[181,7,232] = 1
xD[181,232,161] = 1
xD[182,229,224] = 135
xD[182,224,7] = 135
xD[182,7,232] = 135
xD[182,232,161] = 135
xD[185,4,229] = 74.9999
xD[185,229,224] = 74.9999
xD[185,224,7] = 75
xD[185,7,232] = 75
xD[185,232,161] = 75
xD[186,4,229] = 200
xD[187,4,229] = 24
xD[188,4,229] = 25.9999
xD[188,229,224] = 25.9999
xD[188,224,7] = 26
xD[188,7,232] = 26
xD[188,232,161] = 26
xD[189,4,229] = 144
xD[189,229,224] = 144
xD[189,224,7] = 144
xD[189,7,232] = 144
xD[189,232,161] = 144
xD[190,4,229] = 1
xD[190,229,224] = 1
xD[190,224,7] = 1
xD[190,7,232] = 1
xD[190,232,161] = 1
xD[199,228,157] = 44
xD[204,3,228] = 133
xD[205,3,228] = 61
xD[215,227,223] = 704
xD[215,2,227] = 704
xD[215,231,160] = 704
xD[215,223,6] = 704
xD[215,6,231] = 704
xD[216,227,223] = 8
xD[216,2,227] = 8
xD[216,231,160] = 8
xD[216,223,6] = 8
xD[216,6,231] = 8
xD[217,2,227] = 156
xD[218,2,227] = 45
zE[2] = 563
zE[3] = 731
zE[4] = 899
zE[5] = 1067
zE[6] = 1235
zE[7] = 1403
zE[156] = 738
zE[157] = 906
zE[158] = 1074
zE[159] = 1242
zE[160] = 1410
zE[161] = 1578
zE[210] = 332
zE[212] = 500
zE[223] = 889
zE[224] = 1132
zE[227] = 644
zE[228] = 812
zE[229] = 979.999
zE[230] = 1148
zE[231] = 1316
zE[232] = 1484
zE[244] = 668
zE[245] = 836
zE[247] = 576
zE[254] = 617
zE[255] = 784.999
zX[2] = 587
zX[3] = 755
zX[4] = 923
zX[5] = 1091
zX[6] = 1259
zX[7] = 1427
zX[9] = 66
zX[10] = 234
zX[13] = 402
zX[16] = 570
zX[132] = 302
zX[135] = 470
zX[156] = 754
zX[157] = 922
zX[158] = 1090
zX[159] = 1258
zX[160] = 1426
zX[161] = 1594
zX[210] = 344
zX[212] = 512
zX[223] = 904
zX[224] = 1145
zX[227] = 674
zX[228] = 842
zX[229] = 1010
zX[230] = 1178
zX[231] = 1346
zX[232] = 1514
zX[244] = 686
zX[245] = 854
zX[247] = 603
zX[254] = 631
zX[255] = 798.999
phi[9] = 1360
phi[10] = 520
phi[11] = 1192
phi[12] = 688
phi[17] = 620
phi[18] = 620

### All variables with value smaller zero:

### End

real	33m6.666s
user	114m32.354s
sys	8m15.256s
	Freetype 2.4.12 environment removed
	Python 3.6.0 environment removed
	Gurobi 8.1.0 environment removed
