	Freetype 2.4.12 environment established
		library to render fonts
	Python 3.6.0 environment established
	Gurobi 8.1.0 environment established
Instance LSFRP: LSFDRP_1_5_0_1_fr.p
Instance LSFDP: LSFDRP_1_5_0_1_fd_22.p

*****************************************************************************************************************************
*** Solve LSFDRP_1_5_0_1_fd_22 with Gurobi
***
*** Graph info
*** |S|: 18
*** |S^E|: 0
*** |S^C|: 0
*** |V|: 278
*** |A|: 6311
*** |A^i|: 6311
*** |A^f|: 0
*** |M|: 220
*** |E|: 0

Changed value of parameter TimeLimit to 86400.0
   Prev: 1e+100  Min: 0.0  Max: 1e+100  Default: 1e+100
Changed value of parameter Threads to 4
   Prev: 0  Min: 0  Max: 1024  Default: 0
Optimize a model with 80020 rows, 1515219 columns and 5494522 nonzeros
Variable types: 1401600 continuous, 113619 integer (113619 binary)
Coefficient statistics:
  Matrix range     [1e+00, 4e+03]
  Objective range  [4e+01, 1e+08]
  Bounds range     [1e+00, 1e+00]
  RHS range        [1e+00, 6e+00]
Presolve removed 73909 rows and 1399946 columns (presolve time = 5s) ...
Presolve removed 73961 rows and 1404023 columns (presolve time = 53s) ...
Presolve removed 74094 rows and 1404258 columns (presolve time = 55s) ...
Presolve removed 74094 rows and 1404258 columns
Presolve time: 55.50s
Presolved: 5926 rows, 110961 columns, 363401 nonzeros
Variable types: 2482 continuous, 108479 integer (108444 binary)
Warning: Failed to open log file 'gurobi.log'

Root simplex log...

Iteration    Objective       Primal Inf.    Dual Inf.      Time
       0    3.5228138e+09   5.398643e+05   0.000000e+00     57s
   12628    8.1654251e+06   1.121882e+05   0.000000e+00     60s
   19158    6.7060706e+06   2.581542e+04   0.000000e+00     65s
   24820    5.3166568e+06   3.427751e+05   0.000000e+00     70s
   26879    4.6252524e+06   0.000000e+00   0.000000e+00     72s

Root relaxation: objective 4.625252e+06, 26879 iterations, 14.88 seconds

    Nodes    |    Current Node    |     Objective Bounds      |     Work
 Expl Unexpl |  Obj  Depth IntInf | Incumbent    BestBd   Gap | It/Node Time

     0     0 4625252.44    0  128          - 4625252.44      -     -   74s
H    0     0                    -2821360.570 4625252.44   264%     -   74s
H    0     0                    -2738560.848 4625252.44   269%     -   74s
H    0     0                    -193110.0159 4625252.44  2495%     -   95s
     0     0 2691236.81    0  101 -193110.02 2691236.81  1494%     -   97s
     0     0 2691236.81    0   89 -193110.02 2691236.81  1494%     -  105s
     0     0 2688209.19    0  113 -193110.02 2688209.19  1492%     -  106s
     0     0 2686569.80    0  116 -193110.02 2686569.80  1491%     -  106s
     0     0 2317068.39    0  102 -193110.02 2317068.39  1300%     -  106s
     0     0 2136068.81    0   87 -193110.02 2136068.81  1206%     -  106s
     0     0 2124709.57    0  102 -193110.02 2124709.57  1200%     -  107s
     0     0 2118489.31    0   97 -193110.02 2118489.31  1197%     -  107s
     0     0 2118481.99    0   98 -193110.02 2118481.99  1197%     -  107s
     0     0 2115081.18    0  101 -193110.02 2115081.18  1195%     -  107s
     0     0 2112645.60    0  106 -193110.02 2112645.60  1194%     -  107s
     0     0 2111851.36    0  106 -193110.02 2111851.36  1194%     -  107s
     0     0 2111713.44    0  106 -193110.02 2111713.44  1194%     -  107s
     0     0 2111593.24    0  107 -193110.02 2111593.24  1193%     -  107s
     0     0 2111593.24    0  107 -193110.02 2111593.24  1193%     -  107s
     0     0 2111437.14    0  107 -193110.02 2111437.14  1193%     -  107s
     0     0 2111184.43    0  110 -193110.02 2111184.43  1193%     -  107s
     0     0 2108886.12    0  108 -193110.02 2108886.12  1192%     -  107s
     0     0 2108826.25    0  110 -193110.02 2108826.25  1192%     -  107s
     0     0 2105104.77    0  122 -193110.02 2105104.77  1190%     -  107s
     0     0 2104763.17    0  115 -193110.02 2104763.17  1190%     -  108s
     0     0 2104454.51    0  115 -193110.02 2104454.51  1190%     -  108s
     0     0 2104410.55    0  121 -193110.02 2104410.55  1190%     -  108s
     0     0 2099588.59    0  124 -193110.02 2099588.59  1187%     -  108s
     0     0 2099305.50    0  123 -193110.02 2099305.50  1187%     -  108s
     0     0 2099150.27    0  123 -193110.02 2099150.27  1187%     -  108s
     0     0 2099138.99    0  123 -193110.02 2099138.99  1187%     -  108s
     0     0 2098680.27    0  125 -193110.02 2098680.27  1187%     -  108s
     0     0 2097350.71    0  130 -193110.02 2097350.71  1186%     -  108s
     0     0 2095956.41    0  130 -193110.02 2095956.41  1185%     -  108s
     0     0 2095551.50    0  130 -193110.02 2095551.50  1185%     -  108s
     0     0 2095013.43    0  124 -193110.02 2095013.43  1185%     -  108s
     0     0 2095013.43    0  124 -193110.02 2095013.43  1185%     -  108s
     0     0 2093405.75    0  125 -193110.02 2093405.75  1184%     -  108s
     0     0 2093204.01    0  128 -193110.02 2093204.01  1184%     -  108s
     0     0 2093001.78    0  128 -193110.02 2093001.78  1184%     -  108s
     0     0 2092940.84    0  131 -193110.02 2092940.84  1184%     -  108s
     0     0 2092566.07    0  131 -193110.02 2092566.07  1184%     -  109s
     0     0 2092231.18    0  125 -193110.02 2092231.18  1183%     -  109s
     0     0 2092231.18    0  125 -193110.02 2092231.18  1183%     -  109s
     0     0 2091850.69    0  127 -193110.02 2091850.69  1183%     -  109s
     0     0 2091850.69    0  127 -193110.02 2091850.69  1183%     -  110s
     0     0 2091850.69    0   96 -193110.02 2091850.69  1183%     -  111s
     0     0 2091850.69    0  119 -193110.02 2091850.69  1183%     -  113s
     0     0 1915564.95    0   94 -193110.02 1915564.95  1092%     -  113s
     0     0 1914015.86    0   99 -193110.02 1914015.86  1091%     -  113s
     0     0 1913882.77    0  103 -193110.02 1913882.77  1091%     -  113s
     0     0 1913429.98    0  105 -193110.02 1913429.98  1091%     -  113s
     0     0 1909389.87    0  104 -193110.02 1909389.87  1089%     -  113s
     0     0 1908376.59    0  104 -193110.02 1908376.59  1088%     -  113s
     0     0 1908008.28    0  108 -193110.02 1908008.28  1088%     -  113s
     0     0 1906349.69    0  105 -193110.02 1906349.69  1087%     -  113s
     0     0 1900177.87    0  121 -193110.02 1900177.87  1084%     -  113s
     0     0 1896395.61    0  119 -193110.02 1896395.61  1082%     -  114s
     0     0 1895875.70    0  120 -193110.02 1895875.70  1082%     -  114s
     0     0 1895870.38    0  120 -193110.02 1895870.38  1082%     -  114s
     0     0 1885543.28    0  124 -193110.02 1885543.28  1076%     -  114s
     0     0 1826347.90    0  106 -193110.02 1826347.90  1046%     -  114s
     0     0 1826330.37    0  106 -193110.02 1826330.37  1046%     -  114s
     0     0 1817380.89    0  107 -193110.02 1817380.89  1041%     -  114s
     0     0 1817352.26    0  113 -193110.02 1817352.26  1041%     -  114s
     0     0 1815614.73    0  110 -193110.02 1815614.73  1040%     -  114s
     0     0 1804228.93    0  109 -193110.02 1804228.93  1034%     -  114s
     0     0 1803962.67    0  111 -193110.02 1803962.67  1034%     -  114s
     0     0 1778135.93    0  112 -193110.02 1778135.93  1021%     -  114s
     0     0 1777690.98    0  111 -193110.02 1777690.98  1021%     -  115s
     0     0 1777631.16    0  111 -193110.02 1777631.16  1021%     -  115s
     0     0 1771938.73    0  104 -193110.02 1771938.73  1018%     -  115s
     0     0 1771759.01    0  106 -193110.02 1771759.01  1017%     -  115s
     0     0 1771575.58    0  106 -193110.02 1771575.58  1017%     -  115s
     0     0 1771544.07    0  106 -193110.02 1771544.07  1017%     -  115s
     0     0 1771503.32    0  105 -193110.02 1771503.32  1017%     -  115s
     0     0 1771498.74    0  107 -193110.02 1771498.74  1017%     -  115s
     0     0 1771498.74    0  107 -193110.02 1771498.74  1017%     -  115s
     0     0 1771498.74    0  107 -193110.02 1771498.74  1017%     -  116s
     0     0 1771498.74    0   92 -193110.02 1771498.74  1017%     -  118s
     0     0 1771498.74    0  110 -193110.02 1771498.74  1017%     -  119s
     0     0 1771498.74    0  119 -193110.02 1771498.74  1017%     -  119s
     0     0 1771498.74    0   96 -193110.02 1771498.74  1017%     -  119s
     0     0 1771498.74    0  106 -193110.02 1771498.74  1017%     -  119s
     0     0 1771498.74    0  106 -193110.02 1771498.74  1017%     -  119s
     0     0 1771194.39    0  107 -193110.02 1771194.39  1017%     -  119s
     0     0 1770020.13    0  110 -193110.02 1770020.13  1017%     -  119s
     0     0 1769978.21    0  111 -193110.02 1769978.21  1017%     -  119s
     0     0 1769971.78    0  111 -193110.02 1769971.78  1017%     -  119s
     0     0 1769971.00    0  113 -193110.02 1769971.00  1017%     -  120s
     0     0 1769575.27    0  110 -193110.02 1769575.27  1016%     -  120s
     0     0 1769546.38    0  110 -193110.02 1769546.38  1016%     -  120s
     0     0 1769545.65    0  110 -193110.02 1769545.65  1016%     -  120s
     0     0 1769500.39    0  110 -193110.02 1769500.39  1016%     -  120s
     0     0 1769500.39    0  110 -193110.02 1769500.39  1016%     -  120s
     0     0 1769391.24    0  110 -193110.02 1769391.24  1016%     -  120s
     0     0 1769343.77    0  109 -193110.02 1769343.77  1016%     -  120s
     0     0 1769343.77    0  105 -193110.02 1769343.77  1016%     -  121s
     0     2 1769343.77    0  105 -193110.02 1769343.77  1016%     -  121s
    11    16 1688242.23    4  100 -193110.02 1711133.23   986%   366  125s
H   29    25                    -193110.0158 1711133.23   986%   324  128s
    69    61 1485119.24   13   73 -193110.02 1711133.23   986%   235  130s
   292   175 1564777.59    5   92 -193110.02 1623563.58   941%   184  135s
   753   371 1264408.49   13   98 -193110.02 1544955.94   900%   150  140s
  1637   769 585223.781   35   45 -193110.02 1365575.00   807%   138  145s
  2083   964 -95657.315   30  101 -193110.02 1321187.84   784%   134  154s
  2085   965 343120.295   22   97 -193110.02 1321187.84   784%   134  156s
  2101   976 540749.648   24   95 -193110.02 1321187.84   784%   133  160s
  2161  1016 324536.962   10  165 -193110.02 1321187.84   784%   129  165s
  2180  1030 616061.671   22  127 -193110.02 1321187.84   784%   139  170s
  2214  1053 -95657.315   30  183 -193110.02 1321187.84   784%   137  176s
  2217  1058 1321187.84   21  133 -193110.02 1321187.84   784%   145  182s
  2219  1059 1321187.84   22  135 -193110.02 1321187.84   784%   145  185s
  2260  1064 1233055.52   28  160 -193110.02 1321187.84   784%   152  190s
  2465  1088 445269.627   59   20 -193110.02 1321187.84   784%   156  195s
  2713  1106 930949.511   38   92 -193110.02 1321187.84   784%   157  200s
H 2958  1073                    -193110.0150 1321187.84   784%   159  203s
  3061  1077 899809.545   30   36 -193110.02 1321187.84   784%   158  205s
  3516  1061 497117.883   37   40 -193110.02 1275479.59   760%   158  210s
  4144  1131 255840.829   53   33 -193110.02 1250628.50   748%   156  215s
  4714  1175     cutoff   35      -193110.02 1224138.01   734%   157  222s
  4988  1151 427208.645   40   67 -193110.02 1203152.32   723%   158  225s
  5703  1358     cutoff   41      -193110.02 1165289.26   703%   157  230s
  6183  1486     cutoff   38      -193110.02 1150115.28   696%   156  235s
  6825  1709 387780.591   48   88 -193110.02 1114900.51   677%   153  245s
  7587  1909 1010466.35   44   75 -193110.02 1091954.17   665%   151  251s
  8119  2060 307551.319   42   46 -193110.02 1066406.81   652%   150  255s
  8829  2235     cutoff   46      -193110.02 1047436.77   642%   147  260s
  9304  2365 484323.798   45  115 -193110.02 1038241.47   638%   146  265s
 10060  2628 603637.953   49   59 -193110.02 1018643.24   627%   145  270s
 10477  2752 836868.474   37   50 -193110.02 1011785.19   624%   144  275s
 11395  2886 915651.933   41   76 -193110.02 983077.146   609%   142  280s
 12500  3090     cutoff   42      -193110.02 944914.796   589%   140  286s
 13386  3266 382895.686   53   37 -193110.02 921839.698   577%   139  292s
 13792  3373     cutoff   35      -193110.02 915560.231   574%   138  295s
 14719  3594 819292.871   37   83 -193110.02 893857.571   563%   138  301s
 15745  3806     cutoff   33      -193110.02 872800.003   552%   136  307s
 16339  3974 686707.434   45   42 -193110.02 859344.168   545%   136  311s
H16372  3975                    -193109.9218 858837.322   545%   136  311s
 16384  3983 744881.850   40   73 -193109.92 858154.533   544%   136  321s
 16888  4049 592931.686   43   54 -193109.92 850538.467   540%   135  327s
 17370  4178 736193.051   48   48 -193109.92 838488.060   534%   135  330s
 18380  4345     cutoff   42      -193109.92 825220.698   527%   135  335s
 19484  4517 467587.229   57   19 -193109.92 799929.430   514%   134  341s
 20581  4756 655294.544   35   48 -193109.92 779402.409   504%   133  356s
 20836  4835 395904.945   50  101 -193109.92 775587.469   502%   133  500s
 20845  4841 443934.548   35  143 -193109.92 775587.469   502%   132  505s
 20893  4873 605727.459   40  186 -193109.92 775587.469   502%   132  510s
 20928  4896 355244.226   39  187 -193109.92 775587.469   502%   132  515s
 20951  4912 741927.155   36  177 -193109.92 775587.469   502%   132  520s
 20992  4939 140199.935   53  191 -193109.92 775587.469   502%   132  525s
 21025  4961 533438.792   47  187 -193109.92 775587.469   502%   131  530s
 21045  4974 443934.548   35  193 -193109.92 775587.469   502%   131  535s
 21061  4985 760097.908   38  188 -193109.92 775587.469   502%   131  540s
 21079  4997 621778.317   43  163 -193109.92 775587.469   502%   131  545s
 21099  5010 691742.177   49  188 -193109.92 775587.469   502%   131  550s
 21126  5028 313757.209   42  155 -193109.92 775587.469   502%   131  555s
 21159  5050 558014.533   53  179 -193109.92 775587.469   502%   130  560s
 21175  5061 474220.872   41  188 -193109.92 775587.469   502%   130  565s
 21198  5076 50357.3215   44  198 -193109.92 775587.469   502%   130  570s
 21224  5094 395778.752   49  194 -193109.92 775587.469   502%   130  575s
 21243  5106 221245.682   39  236 -193109.92 775587.469   502%   130  580s
 21262  5119 37322.4817   42  199 -193109.92 775587.469   502%   130  585s
 21280  5131 321695.461   48  222 -193109.92 775587.469   502%   130  590s
 21289  5137 515486.535   44  217 -193109.92 775587.469   502%   130  596s
 21290  5141 775587.469   35  222 -193109.92 775587.469   502%   134  602s
 21292  5144 775587.469   36  221 -193109.92 775587.469   502%   134  605s
 21300  5145 775587.469   37  165 -193109.92 775587.469   502%   134  612s
 21304  5147 775587.469   38  177 -193109.92 775587.469   502%   134  615s
 21312  5149 775587.469   39  158 -193109.92 775587.469   502%   135  620s
 21321  5153 775587.469   40  166 -193109.92 775587.469   502%   135  625s
 21339  5158 775587.469   42  177 -193109.92 775587.469   502%   135  630s
 21363  5162 775587.469   44  154 -193109.92 775587.469   502%   136  635s
 21415  5172 635587.440   49  156 -193109.92 775587.469   502%   137  640s
 21467  5167 363766.971   60  114 -193109.92 775587.469   502%   138  645s
 21565  5162     cutoff   48      -193109.92 775587.469   502%   139  650s
 21664  5173     cutoff   50      -193109.92 775587.469   502%   140  655s
 21747  5159 775587.469   45  153 -193109.92 775587.469   502%   142  660s
 21854  5158 -17917.172   47   66 -193109.92 775587.469   502%   144  666s
 21981  5169 647306.955   55  194 -193109.92 775587.469   502%   146  672s
 22040  5167 478787.869   73  181 -193109.92 775587.469   502%   147  675s
 22135  5166 775587.469   43  126 -193109.92 775587.469   502%   149  680s
 22197  5149 451754.622   49  103 -193109.92 775587.469   502%   151  685s
 22314  5124 775587.469   45  146 -193109.92 775587.469   502%   154  692s
 22423  5134 -167848.15   61   85 -193109.92 775587.469   502%   157  697s
 22450  5133 768853.654   46  157 -193109.92 775587.469   502%   158  700s
 22570  5137 477006.114   45   94 -193109.92 775587.469   502%   162  707s
 22645  5124     cutoff   46      -193109.92 775587.469   502%   163  712s
 22671  5109 67145.4286   67  112 -193109.92 775587.469   502%   163  715s
 22835  5096 714540.437   47  121 -193109.92 775587.469   502%   167  723s
 22920  5088 -21115.327   62  122 -193109.92 775587.469   502%   169  728s
 23002  5086 19745.2164   51  111 -193109.92 775587.469   502%   170  731s
 23083  5091     cutoff   54      -193109.92 775587.469   502%   172  735s
 23269  5072 49575.7008   44   53 -193109.92 775587.469   502%   176  742s
 23343  5040 581447.567   43  155 -193109.92 775587.469   502%   178  747s
 23468  5020 60268.3161   47  117 -193109.92 775587.469   502%   180  751s
 23570  5029 775587.469   50  169 -193109.92 775587.469   502%   182  758s
 23682  5029 169477.043   82  155 -193109.92 775587.469   502%   184  762s
 23818  5049 754168.572   56  135 -193109.92 775587.469   502%   186  768s
 23949  5046 313090.462   85  103 -193109.92 775587.469   502%   188  773s
 24128  5072     cutoff   53      -193109.92 775587.469   502%   190  779s
 24280  5044 35306.4205   63  166 -193109.92 775587.469   502%   192  785s
 24415  5050 592799.408   57  113 -193109.92 775587.469   502%   193  790s
 24576  5070 533667.002   79  140 -193109.92 775587.469   502%   196  796s
 24648  5068     cutoff   88      -193109.92 775587.469   502%   196  802s
 24824  5036 607982.614   59  187 -193109.92 772650.886   500%   199  808s
 24982  5029 81515.9292   78  135 -193109.92 769569.634   499%   202  816s
 25209  5007 -156166.00   59   91 -193109.92 753680.011   490%   204  825s
 25443  5014 529141.467   42  111 -193109.92 735384.782   481%   207  835s
 25627  5004     cutoff   51      -193109.92 726473.402   476%   209  845s
 25857  5017     cutoff   87      -193109.92 718978.134   472%   212  853s
 26166  4981     cutoff   51      -193109.92 709053.589   467%   214  861s
 26436  4970 526574.181   61  121 -193109.92 681006.146   453%   217  872s
 26629  4966 330582.308   55  136 -193109.92 671889.915   448%   219  882s
 26919  4911 398879.211   56  142 -193109.92 653448.430   438%   222  893s
 27190  4923 -122779.04  114  121 -193109.92 651198.269   437%   224  906s
 27449  4929 113502.505   60  186 -193109.92 640205.580   432%   227  918s
 27789  4894 216002.309   59  155 -193109.92 624721.326   424%   230  929s
 28125  4901 91058.6090   58  149 -193109.92 613107.911   417%   233  941s
 28523  4889 121173.943   66  119 -193109.92 593613.773   407%   236  953s
 28764  4882     cutoff   54      -193109.92 589480.942   405%   238  965s
 29132  4885 171661.114   64  153 -193109.92 582974.997   402%   240  978s
 29278  4843     cutoff   58      -193109.92 580171.802   400%   242  992s
 29729  4820     cutoff   56      -193109.92 565455.517   393%   245 1007s
 30156  4768 233276.972   54   73 -193109.92 554510.694   387%   247 1021s
 30734  4727 -87819.114   94   81 -193109.92 543110.019   381%   249 1035s
 31221  4622 -123892.67   64  108 -193109.92 527862.586   373%   252 1056s
 31706  4582 -18843.783   61   41 -193109.92 517965.432   368%   255 1074s
 32139  4432 208539.316   58  161 -193109.92 505405.950   362%   259 1086s
 32646  4345 339483.059   72   63 -193109.92 489035.644   353%   260 1099s
 33128  4220 -79232.741   47  133 -193109.92 474477.117   346%   263 1116s
 33635  4103 81528.5256   60  143 -193109.92 460017.484   338%   265 1131s
 34056  3949 -47696.341   55   94 -193109.92 452071.905   334%   267 1145s
 34530  3813 132785.256   50   64 -193109.92 435429.447   325%   269 1160s
 34945  3702     cutoff   70      -193109.92 426757.146   321%   270 1175s
 35489  3555     cutoff   56      -193109.92 415422.562   315%   272 1192s
 35926  3403 45098.6653   52  125 -193109.92 404716.230   310%   274 1203s
 36352  3340     cutoff   62      -193109.92 399618.395   307%   276 1245s
 36468  3257 4785.40589   95   87 -193109.92 392361.921   303%   277 1256s
 36949  3222 94160.3336   68  100 -193109.92 377700.314   296%   277 1270s
 37399  3248 165961.110   56  132 -193109.92 370131.318   292%   279 1280s
 37712  3234 33963.7869   51   84 -193109.92 360623.856   287%   280 1296s
 38143  3283 314873.378   71  165 -193109.92 350794.814   282%   281 1308s
 38507  3285 15373.7792   52  119 -193109.92 343500.636   278%   281 1319s
 38881  3264 18575.6843   49  135 -193109.92 328910.344   270%   282 1330s
 39274  3287     cutoff   77      -193109.92 319741.735   266%   282 1340s
 39606  3249 101329.061   81  106 -193109.92 313457.590   262%   284 1355s
 40007  3289 169282.684   65   20 -193109.92 306163.435   259%   285 1366s
 40385  3317 163785.102   57  105 -193109.92 294566.483   253%   286 1375s
 40661  3272 -101302.09   71  122 -193109.92 286593.532   248%   287 1384s
 40972  3235     cutoff   77      -193109.92 273238.210   241%   288 1398s
 41296  3190 188352.953   59   99 -193109.92 264598.083   237%   289 1406s
 41616  3164     cutoff   68      -193109.92 255801.002   232%   289 1416s
 41866  3108 -146499.23   59   32 -193109.92 247840.697   228%   290 1431s
 42227  3112 184329.034   73  122 -193109.92 240971.816   225%   290 1439s
 42533  3077 infeasible   60      -193109.92 232703.496   221%   291 1446s
 42846  3029 -165644.70  108   77 -193109.92 223962.754   216%   291 1457s
 43203  3028 -14656.704   60   20 -193109.92 215819.757   212%   292 1467s
 43540  3025 185013.506   78  200 -193109.92 206819.124   207%   293 1478s
 43970  3064 -190875.24   60   37 -193109.92 200479.657   204%   293 1487s
 44256  3052     cutoff   78      -193109.92 190846.462   199%   293 1497s
 44574  3026 112606.692   61  117 -193109.92 183465.942   195%   294 1508s
 44931  3013     cutoff   73      -193109.92 175366.733   191%   294 1515s
 45222  2978     cutoff   65      -193109.92 167972.633   187%   294 1524s
 45552  2923     cutoff   74      -193109.92 160918.885   183%   295 1530s
 45805  2872     cutoff   71      -193109.92 152253.686   179%   294 1537s
 46056  2824     cutoff   75      -193109.92 142107.769   174%   295 1546s
 46359  2783 110728.067   63  114 -193109.92 135103.579   170%   295 1552s
 46702  2754 -13795.879   62  125 -193109.92 128196.644   166%   295 1557s
 46933  2695     cutoff   58      -193109.92 120636.624   162%   295 1563s
 47153  2635     cutoff   73      -193109.92 114962.579   160%   295 1573s
 47411  2586     cutoff   64      -193109.92 109333.101   157%   295 1580s
 47625  2518 -16249.890   75   68 -193109.92 103750.102   154%   296 1587s
 47863  2463     cutoff   63      -193109.92 98171.2287   151%   296 1594s
 48201  2457     cutoff   59      -193109.92 91974.2831   148%   297 1598s
 48391  2386     cutoff   69      -193109.92 84462.5538   144%   297 1605s
 48681  2331 infeasible   67      -193109.92 77887.0282   140%   297 1611s
 48931  2275     cutoff   89      -193109.92 72790.9206   138%   297 1615s
 49143  2210     cutoff   65      -193109.92 65907.5073   134%   297 1620s
 49324  2141     cutoff   62      -193109.92 60054.6786   131%   296 1625s
 49730  2010     cutoff   84      -193109.92 48441.0706   125%   296 1633s
 49928  1945 infeasible   74      -193109.92 42966.4512   122%   296 1636s
 50110  1872     cutoff   60      -193109.92 36914.8381   119%   296 1640s
 50535  1740 -59995.967   86  132 -193109.92 26872.6259   114%   295 1649s
 50707  1662     cutoff   64      -193109.92 21254.9546   111%   295 1654s
 50968  1602     cutoff   71      -193109.92 15719.1570   108%   295 1659s
 51143  1529     cutoff   64      -193109.92 10652.0892   106%   295 1662s
 51361  1457     cutoff   67      -193109.92 4373.54618   102%   295 1665s
 51707  1306     cutoff   87      -193109.92 -5876.8053  97.0%   294 1676s
 52047  1153 -175885.25   59   26 -193109.92 -18192.635  90.6%   294 1682s
 52222  1080     cutoff   75      -193109.92 -24086.428  87.5%   294 1685s
 52609   944     cutoff   58      -193109.92 -37901.820  80.4%   294 1691s
 52913   784     cutoff   65      -193109.92 -51928.943  73.1%   293 1696s
 53398   552     cutoff   75      -193109.92 -78154.044  59.5%   292 1700s
 53846   217     cutoff   61      -193109.92 -113735.65  41.1%   291 1705s

Cutting planes:
  Gomory: 285
  Implied bound: 129
  Projected implied bound: 5
  MIR: 125
  Flow cover: 743
  Inf proof: 1
  Zero half: 2

Explored 54245 nodes (15761719 simplex iterations) in 1709.10 seconds
Thread count was 4 (of 16 available processors)

Solution count 7: -193110 -193110 -193110 ... -2.82136e+06

Optimal solution found (tolerance 1.00e-04)
Best objective -1.931100159500e+05, best bound -1.931099217570e+05, gap 0.0000%

***
***  |- Calculation finished, took 1,709.12 (1709.12) sec.
***  |-----------------------------------------------------------------------------------------------------------------------
***
*****************************************************************************************************************************
#############################################################################################################################
###
### Results
###
### The objective of the solution is -193,110.0159 (-193110.0159) and is feasible with a Gap of 0.0
###
### Service 81 (MECL1) is operated by 6 vessels from type 30 (PMax35)
###  |- Vessel  9 has the path [9, 2, 227, 223, 6, 231, 160, 0]
###  |  9 (BEANR Out@66.0) - 2 (AEJEA In@563.0/Out@587.0) - 227 (PKBQM In@644.0/Out@674.0) - 223 (OMSLL In@889.0/Out@904.0) -
###  |   6 (AEJEA In@1235.0/Out@1259.0) - 231 (PKBQM In@1316.0/Out@1346.0) - 160 (INNSA In@1410.0/Out@1426.0) - 0 (DUMMY_END 
###  |  Ziel-Service 81)
###  |   |- and carried Demand 144,  31.0 containers from 231 to 160
###  |   |- and carried Demand 145,  37.0 containers from   6 to 160
###  |   |- and carried Demand 146, 211.0 containers from   6 to 160
###  |   |- and carried Demand 147, 176.0 containers from   6 to 231
###  |   |- and carried Demand 215, 704.0 containers from   2 to 160
###  |   |- and carried Demand 216,   8.0 containers from   2 to 160
###  |   |- and carried Demand 217, 156.0 containers from   2 to 227
###  |   |- and carried Demand 218,  45.0 containers from   2 to 227
###  |- Vessel 10 has the path [10, 247, 156, 0]
###  |  10 (BEANR Out@234.0) - 247 (TRAMB In@576.0/Out@603.0) - 156 (INNSA In@738.0/Out@754.0) - 0 (DUMMY_END Ziel-Service 81
###  |  )
###  |- Vessel 11 has the path [13, 244, 4, 229, 224, 7, 232, 161, 0]
###  |  13 (BEANR Out@402.0) - 244 (TRALI In@668.0/Out@686.0) - 4 (AEJEA In@899.0/Out@923.0) - 229 (PKBQM In@980.0/Out@1010.0
###  |  ) - 224 (OMSLL In@1132.0/Out@1145.0) - 7 (AEJEA In@1403.0/Out@1427.0) - 232 (PKBQM In@1484.0/Out@1514.0) - 161 (INNSA
###  |   In@1578.0/Out@1594.0) - 0 (DUMMY_END Ziel-Service 81)
###  |   |- and carried Demand 127,  34.0 containers from 232 to 161
###  |   |- and carried Demand 128,  84.0 containers from   7 to 232
###  |   |- and carried Demand 129,  50.0 containers from   7 to 232
###  |   |- and carried Demand 180, 254.0 containers from 229 to 161
###  |   |- and carried Demand 181,   1.0 containers from 229 to 161
###  |   |- and carried Demand 182, 135.0 containers from 229 to 161
###  |   |- and carried Demand 185,  75.0 containers from   4 to 161
###  |   |- and carried Demand 186, 200.0 containers from   4 to 229
###  |   |- and carried Demand 187,  24.0 containers from   4 to 229
###  |   |- and carried Demand 188,  26.0 containers from   4 to 161
###  |   |- and carried Demand 189, 144.0 containers from   4 to 161
###  |   |- and carried Demand 190,   1.0 containers from   4 to 161
###  |- Vessel 12 has the path [16, 245, 5, 230, 159, 0]
###  |  16 (BEANR Out@570.0) - 245 (TRALI In@836.0/Out@854.0) - 5 (AEJEA In@1067.0/Out@1091.0) - 230 (PKBQM In@1148.0/Out@117
###  |  8.0) - 159 (INNSA In@1242.0/Out@1258.0) - 0 (DUMMY_END Ziel-Service 81)
###  |   |- and carried Demand 167,  86.0 containers from   5 to 230
###  |   |- and carried Demand 168, 118.0 containers from   5 to 230
###  |- Vessel 17 has the path [132, 210, 254, 3, 228, 157, 0]
###  |  132 (GBFXT Out@302.0) - 210 (NLRTM In@332.0/Out@344.0) - 254 (TRZMK In@617.0/Out@631.0) - 3 (AEJEA In@731.0/Out@755.0
###  |  ) - 228 (PKBQM In@812.0/Out@842.0) - 157 (INNSA In@906.0/Out@922.0) - 0 (DUMMY_END Ziel-Service 81)
###  |   |- and carried Demand 199,  44.0 containers from 228 to 157
###  |   |- and carried Demand 204, 133.0 containers from   3 to 228
###  |   |- and carried Demand 205,  61.0 containers from   3 to 228
###  |- Vessel 18 has the path [135, 212, 255, 158, 0]
###  |  135 (GBFXT Out@470.0) - 212 (NLRTM In@500.0/Out@512.0) - 255 (TRZMK In@785.0/Out@799.0) - 158 (INNSA In@1074.0/Out@10
###  |  90.0) - 0 (DUMMY_END Ziel-Service 81)
###  |
### Vessels not used in the solution: [1, 2, 3, 4, 5, 6, 7, 8, 13, 14, 15, 16]
###  |-----------------------------------------------------------------------------------------------------------------------
###
#############################################################################################################################

### Detialed variable overview

### All variables with value greater zero:
rho[81,30] = 1
eta[81,30,1] = 1
eta[81,30,2] = 1
eta[81,30,3] = 1
eta[81,30,4] = 1
eta[81,30,5] = 1
eta[81,30,6] = 1
y[9,227,223] = 1
y[9,2,227] = 1
y[9,231,160] = 1
y[9,223,6] = 1
y[9,6,231] = 1
y[9,160,0] = 1
y[9,9,2] = 1
y[10,156,0] = 1
y[10,247,156] = 1
y[10,10,247] = 1
y[11,4,229] = 1
y[11,229,224] = 1
y[11,161,0] = 1
y[11,13,244] = 1
y[11,224,7] = 1
y[11,7,232] = 1
y[11,232,161] = 1
y[11,244,4] = 1
y[12,16,245] = 1
y[12,245,5] = 1
y[12,159,0] = 1
y[12,230,159] = 1
y[12,5,230] = 1
y[17,210,254] = 1
y[17,3,228] = 1
y[17,157,0] = 1
y[17,254,3] = 1
y[17,132,210] = 1
y[17,228,157] = 1
y[18,158,0] = 1
y[18,135,212] = 1
y[18,255,158] = 1
y[18,212,255] = 1
xD[127,232,161] = 34
xD[128,7,232] = 84
xD[129,7,232] = 50
xD[144,231,160] = 31
xD[145,231,160] = 37
xD[145,6,231] = 37
xD[146,231,160] = 211
xD[146,6,231] = 211
xD[147,6,231] = 176
xD[167,5,230] = 86
xD[168,5,230] = 118
xD[180,229,224] = 254
xD[180,224,7] = 254
xD[180,7,232] = 254
xD[180,232,161] = 254
xD[181,229,224] = 1
xD[181,224,7] = 1
xD[181,7,232] = 1
xD[181,232,161] = 1
xD[182,229,224] = 135
xD[182,224,7] = 135
xD[182,7,232] = 135
xD[182,232,161] = 135
xD[185,4,229] = 75
xD[185,229,224] = 75
xD[185,224,7] = 75
xD[185,7,232] = 75
xD[185,232,161] = 75
xD[186,4,229] = 200
xD[187,4,229] = 24
xD[188,4,229] = 26
xD[188,229,224] = 26
xD[188,224,7] = 26
xD[188,7,232] = 26
xD[188,232,161] = 26
xD[189,4,229] = 144
xD[189,229,224] = 144
xD[189,224,7] = 144
xD[189,7,232] = 144
xD[189,232,161] = 144
xD[190,4,229] = 1
xD[190,229,224] = 1
xD[190,224,7] = 1
xD[190,7,232] = 1
xD[190,232,161] = 1
xD[199,228,157] = 44
xD[204,3,228] = 133
xD[205,3,228] = 61
xD[215,227,223] = 704
xD[215,2,227] = 704
xD[215,231,160] = 704
xD[215,223,6] = 704
xD[215,6,231] = 704
xD[216,227,223] = 8
xD[216,2,227] = 8
xD[216,231,160] = 8
xD[216,223,6] = 8
xD[216,6,231] = 8
xD[217,2,227] = 156
xD[218,2,227] = 45
zE[2] = 563
zE[3] = 731
zE[4] = 899
zE[5] = 1067
zE[6] = 1235
zE[7] = 1403
zE[156] = 738
zE[157] = 906
zE[158] = 1074
zE[159] = 1242
zE[160] = 1410
zE[161] = 1578
zE[210] = 332
zE[212] = 500
zE[223] = 889
zE[224] = 1132
zE[227] = 644
zE[228] = 812
zE[229] = 980
zE[230] = 1148
zE[231] = 1316
zE[232] = 1484
zE[244] = 668
zE[245] = 836
zE[247] = 576
zE[254] = 617
zE[255] = 785
zX[2] = 587
zX[3] = 755
zX[4] = 923
zX[5] = 1091
zX[6] = 1259
zX[7] = 1427
zX[9] = 66
zX[10] = 234
zX[13] = 402
zX[16] = 570
zX[132] = 302
zX[135] = 470
zX[156] = 754
zX[157] = 922
zX[158] = 1090
zX[159] = 1258
zX[160] = 1426
zX[161] = 1594
zX[210] = 344
zX[212] = 512
zX[223] = 904
zX[224] = 1145
zX[227] = 674
zX[228] = 842
zX[229] = 1010
zX[230] = 1178
zX[231] = 1346
zX[232] = 1514
zX[244] = 686
zX[245] = 854
zX[247] = 603
zX[254] = 631
zX[255] = 799
phi[9] = 1360
phi[10] = 520
phi[11] = 1192
phi[12] = 688
phi[17] = 620
phi[18] = 620

### All variables with value smaller zero:

### End

real	29m52.894s
user	104m30.392s
sys	6m39.020s
	Freetype 2.4.12 environment removed
	Python 3.6.0 environment removed
	Gurobi 8.1.0 environment removed
