	Freetype 2.4.12 environment established
		library to render fonts
	Python 3.6.0 environment established
	Gurobi 8.1.0 environment established
Instance LSFRP: LSFDRP_1_5_0_1_fr.p
Instance LSFDP: LSFDRP_1_5_0_1_fd_31.p

*****************************************************************************************************************************
*** Solve LSFDRP_1_5_0_1_fd_31 with Gurobi
***
*** Graph info
*** |S|: 18
*** |S^E|: 0
*** |S^C|: 0
*** |V|: 278
*** |A|: 6311
*** |A^i|: 6311
*** |A^f|: 0
*** |M|: 220
*** |E|: 0

Changed value of parameter TimeLimit to 86400.0
   Prev: 1e+100  Min: 0.0  Max: 1e+100  Default: 1e+100
Changed value of parameter Threads to 4
   Prev: 0  Min: 0  Max: 1024  Default: 0
Optimize a model with 80020 rows, 1515219 columns and 5494522 nonzeros
Variable types: 1401600 continuous, 113619 integer (113619 binary)
Coefficient statistics:
  Matrix range     [1e+00, 4e+03]
  Objective range  [4e+01, 2e+08]
  Bounds range     [1e+00, 1e+00]
  RHS range        [1e+00, 6e+00]
Presolve removed 73911 rows and 1400000 columns (presolve time = 5s) ...
Presolve removed 73961 rows and 1404023 columns (presolve time = 65s) ...
Presolve removed 74094 rows and 1404258 columns
Presolve time: 67.83s
Presolved: 5926 rows, 110961 columns, 363401 nonzeros
Variable types: 2482 continuous, 108479 integer (108444 binary)
Warning: Failed to open log file 'gurobi.log'

Root simplex log...

Iteration    Objective       Primal Inf.    Dual Inf.      Time
       0    3.5228138e+09   5.398643e+05   0.000000e+00     70s
    1208    3.3265255e+08   2.587332e+05   0.000000e+00     70s
   15189    7.3358643e+06   3.053966e+04   0.000000e+00     75s
   21951    5.4808310e+06   2.573260e+05   0.000000e+00     80s
   25481    4.6252524e+06   0.000000e+00   0.000000e+00     84s

Root relaxation: objective 4.625252e+06, 25481 iterations, 13.94 seconds

    Nodes    |    Current Node    |     Objective Bounds      |     Work
 Expl Unexpl |  Obj  Depth IntInf | Incumbent    BestBd   Gap | It/Node Time

     0     0 4625252.44    0  121          - 4625252.44      -     -   85s
H    0     0                    -2615737.890 4625252.44   277%     -   86s
H    0     0                    -193110.0159 4625252.44  2495%     -  107s
     0     0 2687437.35    0  117 -193110.02 2687437.35  1492%     -  108s
     0     0 2687437.35    0   89 -193110.02 2687437.35  1492%     -  116s
     0     0 2656840.31    0  115 -193110.02 2656840.31  1476%     -  118s
     0     0 2653340.61    0  123 -193110.02 2653340.61  1474%     -  118s
     0     0 2301416.33    0   99 -193110.02 2301416.33  1292%     -  118s
     0     0 2298659.72    0  102 -193110.02 2298659.72  1290%     -  118s
     0     0 2298636.64    0  104 -193110.02 2298636.64  1290%     -  118s
     0     0 2103956.61    0  125 -193110.02 2103956.61  1190%     -  119s
     0     0 2100435.68    0  132 -193110.02 2100435.68  1188%     -  119s
     0     0 2100175.43    0  125 -193110.02 2100175.43  1188%     -  119s
     0     0 2098872.59    0  126 -193110.02 2098872.59  1187%     -  119s
     0     0 2098233.09    0  129 -193110.02 2098233.09  1187%     -  119s
     0     0 2087251.09    0  128 -193110.02 2087251.09  1181%     -  119s
     0     0 2087126.33    0  128 -193110.02 2087126.33  1181%     -  119s
     0     0 2087126.33    0  128 -193110.02 2087126.33  1181%     -  119s
     0     0 2084687.54    0  132 -193110.02 2084687.54  1180%     -  119s
     0     0 2074186.76    0  136 -193110.02 2074186.76  1174%     -  120s
     0     0 2073250.41    0  141 -193110.02 2073250.41  1174%     -  120s
     0     0 2072282.24    0  135 -193110.02 2072282.24  1173%     -  120s
     0     0 2072198.56    0  138 -193110.02 2072198.56  1173%     -  120s
     0     0 2072094.00    0  135 -193110.02 2072094.00  1173%     -  120s
     0     0 2071964.51    0  141 -193110.02 2071964.51  1173%     -  120s
     0     0 2071664.77    0  143 -193110.02 2071664.77  1173%     -  120s
     0     0 2071519.40    0  141 -193110.02 2071519.40  1173%     -  120s
     0     0 2071382.72    0  142 -193110.02 2071382.72  1173%     -  120s
     0     0 2071205.35    0  143 -193110.02 2071205.35  1173%     -  120s
     0     0 2070583.31    0  142 -193110.02 2070583.31  1172%     -  120s
     0     0 2070318.06    0  141 -193110.02 2070318.06  1172%     -  120s
     0     0 2070299.18    0  141 -193110.02 2070299.18  1172%     -  120s
     0     0 2070222.39    0  142 -193110.02 2070222.39  1172%     -  120s
     0     0 2070003.54    0  150 -193110.02 2070003.54  1172%     -  121s
     0     0 2069729.61    0  153 -193110.02 2069729.61  1172%     -  121s
     0     0 2069717.55    0  151 -193110.02 2069717.55  1172%     -  121s
     0     0 2069389.02    0  151 -193110.02 2069389.02  1172%     -  121s
     0     0 2069277.45    0  152 -193110.02 2069277.45  1172%     -  121s
     0     0 2069263.37    0  153 -193110.02 2069263.37  1172%     -  121s
     0     0 2069058.59    0  153 -193110.02 2069058.59  1171%     -  121s
     0     0 2068949.89    0  150 -193110.02 2068949.89  1171%     -  121s
     0     0 2068401.62    0  155 -193110.02 2068401.62  1171%     -  121s
     0     0 2068401.62    0  154 -193110.02 2068401.62  1171%     -  123s
     0     2 2068401.62    0  154 -193110.02 2068401.62  1171%     -  123s
     3     8 1902319.36    2  121 -193110.02 2020555.60  1146%   367  125s
    85    70 1392404.81   14   89 -193110.02 1897855.46  1083%   310  131s
   276   177 -66913.224   59   90 -193110.02 1734962.52   998%   191  135s
   776   401 1602277.68   13   73 -193110.02 1606366.68   932%   170  140s
H 1036   540                    -193110.0159 1599569.63   928%   161  141s
  1037   541 1291999.88   27  117 -193110.02 1599569.63   928%   161  152s
  1039   542 1321994.69    8   96 -193110.02 1599569.63   928%   160  155s
  1063   558 1461490.47   15  138 -193110.02 1599569.63   928%   157  160s
  1097   581 1039184.48   25  162 -193110.02 1599569.63   928%   152  165s
  1134   606 572905.337   28  163 -193110.02 1599569.63   928%   147  170s
  1152   619 1569305.67   14  117 -193110.02 1599569.63   928%   168  175s
  1166   628 1169589.38   25  174 -193110.02 1599569.63   928%   166  180s
  1193   646 971663.323   27  128 -193110.02 1408753.06   830%   163  185s
  1234   674 572905.337   28  176 -193110.02 1387019.24   818%   157  191s
  1245   682 1387019.24   17  129 -193110.02 1387019.24   818%   176  195s
  1290   712 1268091.23   21  211 -193110.02 1382236.77   816%   170  200s
  1293   717 1364876.82   39  144 -193110.02 1369287.73   809%   185  205s
  1295   721 1270293.25   40  138 -193110.02 1347963.18   798%   187  210s
  1338   734 1073425.92   45  108 -193110.02 1328390.52   788%   198  215s
  1474   752 1121819.23   52  101 -193110.02 1324716.03   786%   202  220s
  1773   777     cutoff   50      -193110.02 1283281.94   765%   199  225s
  2160   753 512558.039   50   12 -193110.02 1257891.11   751%   199  230s
  2645   806 747945.902   60   59 -193110.02 1231112.16   738%   196  235s
  2997   852 833106.939   54   81 -193110.02 1212600.41   728%   195  240s
  3593   963 -51671.346   61   26 -193110.02 1179473.57   711%   196  245s
  3936  1106 353181.681   52   45 -193110.02 1169683.67   706%   193  250s
  4473  1304 983756.172   58   45 -193110.02 1142991.18   692%   190  255s
  5160  1555 infeasible   55      -193110.02 1110337.90   675%   185  261s
H 5210  1575                    -193110.0158 1110337.90   675%   185  261s
  5468  1656 396234.303   56   65 -193110.02 1097566.16   668%   184  265s
  6081  1823 1019007.96   58   71 -193110.02 1082012.23   660%   181  270s
  6467  1933 786114.736   47  119 -193110.02 1070279.62   654%   181  275s
  7275  2179 286759.091   55   91 -193110.02 1050097.43   644%   178  281s
  7677  2286 757163.955   56   72 -193110.02 1038200.77   638%   178  287s
  8074  2390 349642.526   56   69 -193110.02 1032452.13   635%   176  290s
  8848  2619 413292.146   54   77 -193110.02 1008300.73   622%   174  307s
  8964  2640 194440.853   62   75 -193110.02 1007497.82   622%   174  310s
  9591  2776 921732.126   57   68 -193110.02 990074.786   613%   172  316s
 10217  2935     cutoff   70      -193110.02 979098.925   607%   169  322s
 10600  2994     cutoff   61      -193110.02 966472.908   600%   169  325s
 11564  3175 128005.869   70   23 -193110.02 938507.096   586%   167  333s
 12021  3272 921861.771   52   40 -193110.02 928268.511   581%   167  336s
 13024  3538 628058.213   67   42 -193110.02 911856.328   572%   166  342s
 13563  3687 278988.469   60   31 -193110.02 903959.953   568%   165  346s
 14010  3819 715927.327   51  108 -193110.02 895982.397   564%   165  350s
 15042  4098 409840.269   58   36 -193110.02 874689.979   553%   164  356s
 15917  4337     cutoff   53      -193110.02 861120.721   546%   163  362s
 16389  4433 719492.549   65   47 -193110.02 855935.352   543%   163  365s
 17339  4652 328232.993   59   65 -193110.02 838748.633   534%   162  371s
 17875  4757 513375.146   52   59 -193110.02 828519.853   529%   161  375s
 18267  4911 -64636.582   62   30 -193110.02 823766.727   527%   161  380s
 18751  4976 562261.803   56   49 -193110.02 816240.910   523%   161  386s
 19729  5186 280533.002   66   70 -193110.02 796964.560   513%   160  392s
 20176  5279 62158.2859   64   86 -193110.02 790417.211   509%   160  395s
H20741  5423                    -193110.0152 781474.509   505%   159  498s
 20742  5424 196106.302   62  117 -193110.02 781474.509   505%   159  508s
 20746  5427 600616.552   55  170 -193110.02 781474.509   505%   159  510s
 20784  5452 394144.663   62  209 -193110.02 781474.509   505%   159  515s
 20825  5479 294162.989   64  198 -193110.02 781474.509   505%   158  520s
 20851  5497 679903.715   58  193 -193110.02 781474.509   505%   158  525s
 20877  5514 645544.038   65  183 -193110.02 781474.509   505%   158  530s
 20907  5534 386745.793   65  198 -193110.02 781474.509   505%   158  535s
 20935  5553 166524.447   53  195 -193110.02 781474.509   505%   158  540s
 20963  5571 255894.216   54  192 -193110.02 781474.509   505%   157  545s
 20982  5584 -72440.671   58  201 -193110.02 781474.509   505%   157  550s
 21007  5601 386745.793   65  219 -193110.02 781474.509   505%   157  555s
 21021  5610 145124.580   62  214 -193110.02 781474.509   505%   157  560s
 21044  5625 657326.912   56  220 -193110.02 781474.509   505%   157  565s
 21067  5641 51396.8764   81  220 -193110.02 781474.509   505%   157  570s
 21083  5651 757397.712   52  196 -193110.02 781474.509   505%   157  575s
 21107  5667 386745.793   65  220 -193110.02 781474.509   505%   156  580s
 21130  5683 708026.517   64  216 -193110.02 781474.509   505%   156  585s
 21142  5691 196106.302   62  217 -193110.02 781474.509   505%   156  590s
 21159  5702 31231.3249   65  212 -193110.02 781474.509   505%   156  595s
 21171  5710 299393.539   72  215 -193110.02 781474.509   505%   156  601s
 21174  5715 781474.509   49  204 -193110.02 781474.509   505%   162  608s
 21176  5718 781474.509   50  203 -193110.02 781474.509   505%   162  614s
 21180  5719 781474.509   51  218 -193110.02 781474.509   505%   162  618s
 21184  5722 657601.575   51  168 -193110.02 781474.509   505%   162  621s
 21192  5725 781474.509   52  187 -193110.02 781474.509   505%   163  627s
 21200  5730 650250.360   53  168 -193110.02 781474.509   505%   163  632s
 21210  5728 642486.628   54   95 -193110.02 781474.509   505%   164  637s
 21227  5732 781474.509   56   94 -193110.02 781474.509   505%   164  640s
 21271  5749 781474.509   61   75 -193110.02 781474.509   505%   165  645s
 21375  5756 559586.292   75   30 -193110.02 781474.509   505%   166  650s
 21472  5753 781474.509   59  185 -193110.02 781474.509   505%   167  655s
 21535  5767 781474.509   66   99 -193110.02 781474.509   505%   168  660s
 21624  5785 418421.010   73   95 -193110.02 781474.509   505%   169  665s
 21687  5793 538883.596   76   65 -193110.02 781474.509   505%   170  670s
 21879  5795     cutoff   58      -193110.02 781474.509   505%   171  676s
 21972  5786 409750.732   60   72 -193110.02 781474.509   505%   173  681s
 22058  5796 -13482.341   63   72 -193110.02 781474.509   505%   174  686s
 22230  5792 781474.509   60  108 -193110.02 781474.509   505%   176  692s
 22299  5802 737933.847   71  125 -193110.02 781474.509   505%   176  695s
 22461  5795 -80935.472   61  107 -193110.02 781474.509   505%   179  701s
 22603  5798     cutoff   63      -193110.02 781474.509   505%   180  705s
 22760  5799 766072.587   60  138 -193110.02 781474.509   505%   182  710s
 22894  5806 499732.103   76  155 -193110.02 781474.509   505%   183  716s
 23126  5811     cutoff   70      -193110.02 781474.509   505%   184  722s
 23193  5788 781474.509   67   62 -193110.02 781474.509   505%   186  725s
 23382  5817 -160097.61   62   37 -193110.02 781474.509   505%   188  732s
 23490  5816 673912.356   64   99 -193110.02 781474.509   505%   189  737s
 23559  5802 112687.790   71   55 -193110.02 781474.509   505%   191  742s
 23638  5799 462941.581   63   60 -193110.02 781474.509   505%   192  746s
 23725  5806     cutoff   71      -193110.02 781474.509   505%   193  751s
 23815  5807 562131.655   72  131 -193110.02 781474.509   505%   195  755s
 24005  5816 635490.332   64   94 -193110.02 781474.509   505%   198  764s
 24092  5811 781474.509   71  111 -193110.02 781474.509   505%   199  771s
 24217  5841     cutoff   65      -193110.02 781474.509   505%   200  777s
 24384  5845 323407.877   61  121 -193110.02 781474.509   505%   201  782s
 24518  5840 145283.235   74  125 -193110.02 781474.509   505%   203  789s
 24630  5824     cutoff   66      -193110.02 781474.509   505%   204  796s
 24768  5861 781474.509   61   95 -193110.02 781474.509   505%   206  804s
 24870  5865 21064.5823   81   82 -193110.02 781474.509   505%   208  811s
 25042  5855 436601.498   63   88 -193110.02 781474.509   505%   209  820s
 25166  5840     cutoff   63      -193110.02 781474.509   505%   211  829s
 25337  5816 430793.058   72   61 -193110.02 781474.509   505%   213  836s
 25563  5835 -28386.006   65   74 -193110.02 781474.509   505%   215  846s
 25652  5832 545282.849   63   53 -193110.02 781474.509   505%   216  853s
 25839  5810 48963.5707   85   83 -193110.02 781474.509   505%   217  862s
 26004  5797     cutoff   68      -193110.02 781474.509   505%   220  871s
 26156  5801 513160.613   69  102 -193110.02 781474.509   505%   222  880s
 26373  5804     cutoff   83      -193110.02 781474.509   505%   223  888s
 26632  5810 41847.5818   71  100 -193110.02 781474.509   505%   224  900s
 26797  5794 426835.983   72   82 -193110.02 781474.509   505%   227  914s
 26973  5791 385495.526   88  105 -193110.02 781474.509   505%   229  923s
 27223  5761 65670.5933   64  100 -193110.02 781474.509   505%   231  933s
 27452  5719 26924.8335   65  127 -193110.02 781474.509   505%   233  946s
 27697  5705 -20667.358   69  108 -193110.02 781474.509   505%   236  963s
 27940  5703 154509.920   74  103 -193110.02 777955.705   503%   238  978s
 28248  5671 469705.035   63  123 -193110.02 770362.400   499%   240  994s
 28620  5681 332996.072   78   71 -193110.02 760436.036   494%   242 1008s
 28908  5660 602192.479   73  101 -193110.02 748003.711   487%   244 1025s
 29267  5649 -188963.80   86   64 -193110.02 735773.295   481%   246 1038s
 29546  5652 -171710.73   69   60 -193110.02 723976.405   475%   249 1055s
 29809  5601 661709.097   63  177 -193110.02 712620.745   469%   251 1073s
 30085  5558 590489.373   67  138 -193110.02 703189.478   464%   254 1091s
 30449  5499 198578.238   74  158 -193110.02 694603.107   460%   257 1123s
 30617  5465 -20568.108   69   84 -193110.02 691734.496   458%   259 1143s
 31004  5449 336915.516   64  106 -193110.02 672926.103   448%   261 1166s
 31345  5428 500142.327   89   80 -193110.02 661042.275   442%   264 1188s
 31746  5433 -64168.954   74  139 -193110.02 651768.504   438%   267 1208s
 32090  5386 426962.769   72   92 -193110.02 642183.613   433%   270 1228s
 32598  5349 -185277.82   76   49 -193110.02 630803.594   427%   271 1246s
 32935  5309 198223.581   69  164 -193110.02 623136.622   423%   275 1267s
 33190  5286 269083.242   78   68 -193110.02 618373.720   420%   278 1289s
 33571  5291 539657.340   71   87 -193110.02 609181.129   415%   280 1310s
 34018  5266 -57998.756   71   93 -193110.02 601061.264   411%   282 1336s
 34340  5239 29273.2471   89   69 -193110.02 591051.151   406%   285 1361s
 34738  5226 297201.100   65  185 -193110.02 582921.285   402%   287 1383s
 34998  5179 316592.945   64   80 -193110.02 574878.735   398%   290 1405s
 35449  5122 298964.035   67   63 -193110.02 565677.791   393%   292 1429s
 35879  5088 21335.6038   79  172 -193110.02 545154.460   382%   294 1451s
 36219  5054 440580.196   61  109 -193110.02 537682.313   378%   297 1475s
 36680  5028 157705.617   77  127 -193110.02 531929.172   375%   298 1495s
 37112  5028 94963.4762   70  126 -193110.02 523440.986   371%   300 1521s
 37512  5016 241564.012  111  157 -193110.02 518547.759   369%   301 1541s
 37997  5044 326349.568   64  134 -193110.02 510233.589   364%   302 1565s
 38360  5038 215408.795   66  137 -193110.02 503900.715   361%   304 1587s
 38733  5186 304426.504   79  128 -193110.02 497644.596   358%   306 1611s
 39133  5324     cutoff   74      -193110.02 492857.411   355%   307 1633s
 39500  5391 -105257.39   88   65 -193110.02 487449.385   352%   309 1653s
 39827  5446 -88615.760   74   80 -193110.02 483309.146   350%   312 1674s
 40120  5467     cutoff   72      -193110.02 473398.881   345%   314 1693s
 40547  5557 -66256.239   78  124 -193110.02 468781.991   343%   315 1717s
 40986  5633     cutoff   77      -193110.02 458139.850   337%   317 1737s
 41385  5737     cutoff   73      -193110.02 452777.478   334%   318 1760s
 41687  5796 -155289.58   82  176 -193110.02 449951.941   333%   320 1783s
 42024  5831     cutoff   74      -193110.02 445469.770   331%   322 1805s
 42360  5861 195152.987   74   87 -193110.02 436778.361   326%   324 1821s
 42727  5907     cutoff   79      -193110.02 428890.088   322%   325 1846s
 43076  5990 -46892.928   78   72 -193110.02 423605.052   319%   327 1870s
 43529  6108 126822.390   87   82 -193110.02 417286.948   316%   328 1892s
 43890  6191 105762.078   87  114 -193110.02 411724.521   313%   330 1912s
 44281  6271     cutoff   80      -193110.02 407884.307   311%   331 1933s
 44558  6269 57889.5852   78   61 -193110.02 398260.242   306%   333 1953s
 44918  6288 223114.263   72  113 -193110.02 391427.138   303%   334 1977s
 45431  6430     cutoff   61      -193110.02 385255.221   300%   335 1995s
 45753  6453     cutoff   83      -193110.02 379853.633   297%   337 2012s
 46097  6492 110620.246   75  101 -193110.02 374930.716   294%   338 2035s
 46439  6518 142545.080   82   90 -193110.02 366624.143   290%   340 2061s
 46798  6613     cutoff   72      -193110.02 363814.413   288%   341 2083s
 47181  6707 -114495.82   61   40 -193110.02 358001.837   285%   342 2118s
 47364  6682     cutoff  120      -193110.02 356844.966   285%   343 2138s
 47809  6752     cutoff   85      -193110.02 353512.314   283%   343 2157s
 48196  6791     cutoff   94      -193110.02 343769.580   278%   345 2180s
 48582  6875 32791.6280   69  104 -193110.02 338930.081   276%   345 2203s
 49017  6929     cutoff   68      -193110.02 330192.727   271%   346 2222s
 49332  6899     cutoff   85      -193110.02 325603.201   269%   347 2243s
 49749  6919 148012.288   76   85 -193110.02 320109.656   266%   348 2259s
 50130  6943     cutoff   78      -193110.02 312328.422   262%   348 2277s
 50541  6981 -7448.9004   70  101 -193110.02 307787.788   259%   349 2296s
 50903  7028     cutoff   83      -193110.02 302112.705   256%   350 2317s
 51266  7068     cutoff   69      -193110.02 297865.363   254%   351 2336s
 51671  7109 29267.1299   85   97 -193110.02 289507.315   250%   352 2359s
 52016  7102     cutoff   67      -193110.02 282254.885   246%   353 2382s
 52392  7120 244597.886   72  112 -193110.02 277253.769   244%   353 2404s
 52702  7133     cutoff   70      -193110.02 270110.099   240%   354 2426s
 53098  7159     cutoff   77      -193110.02 267854.916   239%   355 2445s
 53464  7146 -98986.020   84   50 -193110.02 260547.776   235%   356 2467s
 53861  7174 -39759.149   74   87 -193110.02 255333.828   232%   356 2489s
 54212  7190 -38546.948   76  103 -193110.02 251219.689   230%   357 2508s
 54519  7204     cutoff   70      -193110.02 246905.606   228%   358 2527s
 54824  7221 111579.583   73   27 -193110.02 241913.813   225%   359 2546s
 55173  7235 -125536.71   79  102 -193110.02 238262.594   223%   360 2570s
 55564  7287     cutoff   72      -193110.02 234269.352   221%   360 2593s
 55872  7276     cutoff  110      -193110.02 228352.874   218%   361 2614s
 56138  7269 150701.817   83  116 -193110.02 224446.890   216%   361 2636s
 56697  7401     cutoff   89      -193110.02 219593.540   214%   361 2658s
 57041  7419     cutoff   89      -193110.02 214803.422   211%   362 2680s
 57359  7426     cutoff   84      -193110.02 210840.026   209%   362 2697s
 57684  7452 50975.8478   69  149 -193110.02 206061.448   207%   362 2716s
 57964  7486     cutoff   77      -193110.02 202786.568   205%   363 2763s
 58190  7462     cutoff   91      -193110.02 200243.505   204%   364 2785s
 58485  7418 -5619.8951   79  142 -193110.02 196664.389   202%   365 2799s
 58834  7410     cutoff   88      -193110.02 190786.806   199%   365 2821s
 59223  7415     cutoff   67      -193110.02 186166.808   196%   365 2844s
 59564  7426     cutoff   84      -193110.02 182097.341   194%   365 2860s
 59841  7414   75.06549   81   83 -193110.02 179005.227   193%   365 2883s
 60233  7421 42670.9785   88   80 -193110.02 174815.406   191%   366 2903s
 60544  7422 -50834.515   75   69 -193110.02 170252.624   188%   366 2927s
 60830  7387     cutoff   71      -193110.02 167790.443   187%   367 2946s
 61099  7347     cutoff   90      -193110.02 163746.288   185%   367 2966s
 61336  7281     cutoff   75      -193110.02 159628.387   183%   368 2976s
 61584  7242     cutoff   75      -193110.02 154875.986   180%   368 2987s
 61853  7219 -5920.6633   89   58 -193110.02 150588.295   178%   368 3002s
 62166  7225     cutoff   78      -193110.02 147138.799   176%   368 3016s
 62458  7218 99606.1173   77  155 -193110.02 144880.638   175%   369 3034s
 62826  7241 -69016.633   69   99 -193110.02 142130.386   174%   369 3049s
 63183  7239 110539.690   87   85 -193110.02 137110.492   171%   369 3063s
 63540  7223 -73823.510   83  136 -193110.02 133761.371   169%   369 3076s
 63803  7201 66337.9521   83   64 -193110.02 129773.836   167%   369 3095s
 64097  7161 -62226.834   78   67 -193110.02 127644.032   166%   369 3114s
 64305  7108 -84092.558   71  134 -193110.02 125423.438   165%   369 3134s
 64627  7118     cutoff   88      -193110.02 120203.231   162%   370 3153s
 64967  7128     cutoff   72      -193110.02 117659.731   161%   370 3162s
 65212  7084 74689.1918   75   61 -193110.02 114175.201   159%   370 3175s
 65499  7052     cutoff   88      -193110.02 111233.086   158%   370 3194s
 65717  7015     cutoff   85      -193110.02 109471.755   157%   370 3214s
 65974  6981     cutoff   80      -193110.02 105436.340   155%   371 3229s
 66166  6928 82910.6155   81   86 -193110.02 101620.588   153%   371 3243s
 66448  6922     cutoff   80      -193110.02 98332.9636   151%   371 3263s
 66710  6879 10903.1328   73  101 -193110.02 94789.3190   149%   371 3277s
 66982  6876     cutoff  102      -193110.02 91382.5650   147%   371 3292s
 67252  6853     cutoff   76      -193110.02 89221.6335   146%   372 3308s
 67502  6808     cutoff   76      -193110.02 85661.1101   144%   372 3325s
 67802  6776     cutoff   78      -193110.02 83359.4945   143%   372 3339s
 68065  6747 -15637.695   85   65 -193110.02 79834.1530   141%   373 3350s
 68338  6720     cutoff  102      -193110.02 76995.7144   140%   373 3359s
 68580  6679 -135195.54   78   67 -193110.02 73375.5237   138%   372 3370s
 68751  6610     cutoff   67      -193110.02 70461.5584   136%   372 3381s
 69028  6583     cutoff   65      -193110.02 67421.9882   135%   372 3389s
 69200  6510     cutoff   72      -193110.02 64338.6821   133%   372 3400s
 69398  6453     cutoff   92      -193110.02 61378.9465   132%   373 3410s
 69573  6387 -185203.15   76   74 -193110.02 58368.8596   130%   373 3419s
 69767  6334     cutoff   72      -193110.02 55561.2423   129%   372 3436s
 70013  6278     cutoff  139      -193110.02 53213.5355   128%   373 3444s
 70219  6232     cutoff  117      -193110.02 50676.2333   126%   373 3455s
 70427  6174     cutoff   79      -193110.02 47990.9140   125%   373 3469s
 70698  6130 -3335.2166   84  110 -193110.02 45242.3945   123%   373 3479s
 70943  6077     cutoff   73      -193110.02 42534.0744   122%   373 3490s
 71181  6016     cutoff   66      -193110.02 39851.7970   121%   373 3503s
 71366  5947     cutoff   89      -193110.02 36723.4662   119%   373 3512s
 71504  5867     cutoff  101      -193110.02 34375.4575   118%   373 3521s
 71640  5785     cutoff  113      -193110.02 32031.1382   117%   373 3530s
 71813  5710     cutoff   92      -193110.02 29168.9187   115%   373 3539s
 72020  5651     cutoff   70      -193110.02 26484.3642   114%   373 3547s
 72223  5607     cutoff   98      -193110.02 23524.4179   112%   373 3561s
 72421  5544     cutoff   89      -193110.02 21029.4012   111%   373 3568s
 72584  5470 -116014.73   79   84 -193110.02 18179.3516   109%   373 3578s
 72826  5418     cutoff   78      -193110.02 15087.9397   108%   373 3585s
 72960  5337     cutoff   76      -193110.02 12597.6270   107%   373 3597s
 73127  5267     cutoff  124      -193110.02 9666.55840   105%   373 3605s
 73315  5215     cutoff  123      -193110.02 7444.28081   104%   373 3612s
 73492  5149     cutoff   81      -193110.02 4676.05651   102%   373 3620s
 73628  5076     cutoff   72      -193110.02 2155.17345   101%   373 3626s
 73759  4996 -184473.48   79   85 -193110.02 -814.79953   100%   373 3639s
 73966  4946     cutoff   83      -193110.02 -3102.5785  98.4%   373 3648s
 74126  4873     cutoff   82      -193110.02 -5676.4123  97.1%   373 3655s
 74265  4808     cutoff   72      -193110.02 -8437.9325  95.6%   373 3665s
 74434  4729 -157957.28   74  108 -193110.02 -10817.724  94.4%   373 3671s
 74607  4668     cutoff   83      -193110.02 -12820.932  93.4%   373 3677s
 74767  4602     cutoff   76      -193110.02 -15902.338  91.8%   373 3684s
 74930  4535     cutoff   81      -193110.02 -18133.925  90.6%   373 3693s
 75081  4469     cutoff   86      -193110.02 -20462.651  89.4%   373 3701s
 75215  4386     cutoff   66      -193110.02 -22563.280  88.3%   373 3711s
 75411  4325     cutoff  101      -193110.02 -25281.045  86.9%   373 3725s
 75602  4257     cutoff   97      -193110.02 -28269.115  85.4%   373 3737s
 75873  4252     cutoff   94      -193110.02 -31055.133  83.9%   373 3744s
 76006  4172     cutoff   85      -193110.02 -34091.486  82.3%   373 3750s
 76269  4017     cutoff   89      -193110.02 -39215.939  79.7%   372 3760s
 76404  3936     cutoff   84      -193110.02 -41828.498  78.3%   372 3767s
 76590  3870 -97499.901   91   99 -193110.02 -44028.066  77.2%   372 3773s
 76770  3796     cutoff   90      -193110.02 -46285.260  76.0%   372 3782s
 76955  3744 -99265.240   97   89 -193110.02 -48923.699  74.7%   372 3789s
 77100  3668     cutoff   99      -193110.02 -51821.772  73.2%   372 3797s
 77277  3605     cutoff   88      -193110.02 -54175.366  71.9%   372 3802s
 77405  3529     cutoff   86      -193110.02 -56650.953  70.7%   372 3809s
 77558  3455     cutoff   76      -193110.02 -58883.072  69.5%   372 3815s
 77688  3374     cutoff   84      -193110.02 -61289.335  68.3%   372 3820s
 77829  3301     cutoff   82      -193110.02 -63564.505  67.1%   371 3827s
 77998  3254     cutoff   72      -193110.02 -65803.796  65.9%   371 3833s
 78163  3192     cutoff   83      -193110.02 -68634.504  64.5%   371 3837s
 78314  3115     cutoff   73      -193110.02 -70747.664  63.4%   371 3843s
 78449  3038     cutoff   87      -193110.02 -73520.665  61.9%   371 3849s
 78589  2962     cutoff   73      -193110.02 -75327.029  61.0%   371 3857s
 78774  2901     cutoff  103      -193110.02 -77813.193  59.7%   371 3866s
 79041  2748     cutoff   77      -193110.02 -82823.238  57.1%   370 3878s
 79202  2678     cutoff   81      -193110.02 -85281.284  55.8%   370 3885s
 79354  2607 -141501.39   85   69 -193110.02 -87905.630  54.5%   370 3890s
 79613  2450     cutoff   71      -193110.02 -92728.131  52.0%   370 3898s
 79753  2370 -171531.95   86   90 -193110.02 -95272.384  50.7%   370 3903s
 79875  2287     cutoff   96      -193110.02 -97762.709  49.4%   370 3907s
 79983  2203     cutoff   92      -193110.02 -100254.50  48.1%   369 3912s
 80127  2123 -180827.30  105   77 -193110.02 -102469.95  46.9%   369 3917s
 80267  2052     cutoff   81      -193110.02 -105090.64  45.6%   369 3921s
 80529  1889     cutoff   83      -193110.02 -109753.74  43.2%   369 3927s
 80802  1734     cutoff  124      -193110.02 -115080.68  40.4%   368 3933s
 80925  1651 -118585.97   64  104 -193110.02 -117482.63  39.2%   368 3935s
 81159  1484     cutoff   74      -193110.02 -122481.93  36.6%   367 3942s
 81271  1402     cutoff   81      -193110.02 -125237.44  35.1%   367 3946s
 81533  1247     cutoff   96      -193110.02 -130438.90  32.5%   367 3951s
 81763  1082     cutoff   91      -193110.02 -135262.07  30.0%   366 3958s
 81884   998     cutoff   82      -193110.02 -137902.84  28.6%   366 3960s
 82119   837     cutoff   87      -193110.02 -143670.23  25.6%   366 3966s
 82427   589     cutoff   67      -193110.02 -152487.23  21.0%   365 3971s
 82729   337     cutoff   87      -193110.02 -162859.64  15.7%   364 3975s

Cutting planes:
  Gomory: 297
  Implied bound: 213
  Projected implied bound: 4
  MIR: 131
  Flow cover: 800
  Zero half: 2

Explored 83223 nodes (30176087 simplex iterations) in 3981.01 seconds
Thread count was 4 (of 16 available processors)

Solution count 6: -193110 -193110 -193110 ... -2.61574e+06

Optimal solution found (tolerance 1.00e-04)
Best objective -1.931100159500e+05, best bound -1.931100151996e+05, gap 0.0000%

***
***  |- Calculation finished, took 3,981.03 (3981.03) sec.
***  |-----------------------------------------------------------------------------------------------------------------------
***
*****************************************************************************************************************************
#############################################################################################################################
###
### Results
###
### The objective of the solution is -193,110.016 (-193110.016) and is feasible with a Gap of 0.0
###
### Service 81 (MECL1) is operated by 6 vessels from type 30 (PMax35)
###  |- Vessel  9 has the path [9, 2, 227, 223, 6, 231, 160, 0]
###  |  9 (BEANR Out@66.0) - 2 (AEJEA In@563.0/Out@587.0) - 227 (PKBQM In@644.0/Out@674.0) - 223 (OMSLL In@889.0/Out@904.0) -
###  |   6 (AEJEA In@1235.0/Out@1259.0) - 231 (PKBQM In@1316.0/Out@1346.0) - 160 (INNSA In@1410.0/Out@1426.0) - 0 (DUMMY_END 
###  |  Ziel-Service 81)
###  |   |- and carried Demand 144,  31.0 containers from 231 to 160
###  |   |- and carried Demand 145,  37.0 containers from   6 to 160
###  |   |- and carried Demand 146, 211.0 containers from   6 to 160
###  |   |- and carried Demand 147, 176.0 containers from   6 to 231
###  |   |- and carried Demand 215, 704.0 containers from   2 to 160
###  |   |- and carried Demand 216,   8.0 containers from   2 to 160
###  |   |- and carried Demand 217, 156.0 containers from   2 to 227
###  |   |- and carried Demand 218,  45.0 containers from   2 to 227
###  |- Vessel 10 has the path [10, 247, 156, 0]
###  |  10 (BEANR Out@234.0) - 247 (TRAMB In@576.0/Out@603.0) - 156 (INNSA In@738.0/Out@754.0) - 0 (DUMMY_END Ziel-Service 81
###  |  )
###  |- Vessel 11 has the path [13, 244, 4, 229, 224, 7, 232, 161, 0]
###  |  13 (BEANR Out@402.0) - 244 (TRALI In@668.0/Out@686.0) - 4 (AEJEA In@899.0/Out@923.0) - 229 (PKBQM In@980.0/Out@1010.0
###  |  ) - 224 (OMSLL In@1132.0/Out@1145.0) - 7 (AEJEA In@1403.0/Out@1427.0) - 232 (PKBQM In@1484.0/Out@1514.0) - 161 (INNSA
###  |   In@1578.0/Out@1594.0) - 0 (DUMMY_END Ziel-Service 81)
###  |   |- and carried Demand 127,  34.0 containers from 232 to 161
###  |   |- and carried Demand 128,  84.0 containers from   7 to 232
###  |   |- and carried Demand 129,  50.0 containers from   7 to 232
###  |   |- and carried Demand 180, 254.0 containers from 229 to 161
###  |   |- and carried Demand 181,   1.0 containers from 229 to 161
###  |   |- and carried Demand 182, 135.0 containers from 229 to 161
###  |   |- and carried Demand 185,  75.0 containers from   4 to 161
###  |   |- and carried Demand 186, 200.0 containers from   4 to 229
###  |   |- and carried Demand 187,  24.0 containers from   4 to 229
###  |   |- and carried Demand 188,  26.0 containers from   4 to 161
###  |   |- and carried Demand 189, 144.0 containers from   4 to 161
###  |   |- and carried Demand 190,   1.0 containers from   4 to 161
###  |- Vessel 12 has the path [16, 245, 5, 230, 159, 0]
###  |  16 (BEANR Out@570.0) - 245 (TRALI In@836.0/Out@854.0) - 5 (AEJEA In@1067.0/Out@1091.0) - 230 (PKBQM In@1148.0/Out@117
###  |  8.0) - 159 (INNSA In@1242.0/Out@1258.0) - 0 (DUMMY_END Ziel-Service 81)
###  |   |- and carried Demand 167,  86.0 containers from   5 to 230
###  |   |- and carried Demand 168, 118.0 containers from   5 to 230
###  |- Vessel 17 has the path [132, 210, 254, 3, 228, 157, 0]
###  |  132 (GBFXT Out@302.0) - 210 (NLRTM In@332.0/Out@344.0) - 254 (TRZMK In@617.0/Out@631.0) - 3 (AEJEA In@731.0/Out@755.0
###  |  ) - 228 (PKBQM In@812.0/Out@842.0) - 157 (INNSA In@906.0/Out@922.0) - 0 (DUMMY_END Ziel-Service 81)
###  |   |- and carried Demand 199,  44.0 containers from 228 to 157
###  |   |- and carried Demand 204, 133.0 containers from   3 to 228
###  |   |- and carried Demand 205,  61.0 containers from   3 to 228
###  |- Vessel 18 has the path [135, 212, 255, 158, 0]
###  |  135 (GBFXT Out@470.0) - 212 (NLRTM In@500.0/Out@512.0) - 255 (TRZMK In@785.0/Out@799.0) - 158 (INNSA In@1074.0/Out@10
###  |  90.0) - 0 (DUMMY_END Ziel-Service 81)
###  |
### Vessels not used in the solution: [1, 2, 3, 4, 5, 6, 7, 8, 13, 14, 15, 16]
###  |-----------------------------------------------------------------------------------------------------------------------
###
#############################################################################################################################

### Detialed variable overview

### All variables with value greater zero:
rho[81,30] = 1
eta[81,30,1] = 1
eta[81,30,2] = 1
eta[81,30,3] = 1
eta[81,30,4] = 1
eta[81,30,5] = 1
eta[81,30,6] = 1
y[9,227,223] = 1
y[9,2,227] = 1
y[9,231,160] = 1
y[9,223,6] = 1
y[9,6,231] = 1
y[9,160,0] = 1
y[9,9,2] = 1
y[10,156,0] = 1
y[10,247,156] = 1
y[10,10,247] = 1
y[11,4,229] = 1
y[11,229,224] = 1
y[11,161,0] = 1
y[11,13,244] = 1
y[11,224,7] = 1
y[11,7,232] = 1
y[11,232,161] = 1
y[11,244,4] = 1
y[12,16,245] = 1
y[12,245,5] = 1
y[12,159,0] = 1
y[12,230,159] = 1
y[12,5,230] = 1
y[17,210,254] = 1
y[17,3,228] = 1
y[17,157,0] = 1
y[17,254,3] = 1
y[17,132,210] = 1
y[17,228,157] = 1
y[18,158,0] = 1
y[18,135,212] = 1
y[18,255,158] = 1
y[18,212,255] = 1
xD[127,232,161] = 34
xD[128,7,232] = 84
xD[129,7,232] = 50
xD[144,231,160] = 31
xD[145,231,160] = 37
xD[145,6,231] = 37
xD[146,231,160] = 211
xD[146,6,231] = 211
xD[147,6,231] = 176
xD[167,5,230] = 86
xD[168,5,230] = 118
xD[180,229,224] = 254
xD[180,224,7] = 254
xD[180,7,232] = 254
xD[180,232,161] = 254
xD[181,229,224] = 1
xD[181,224,7] = 1
xD[181,7,232] = 1
xD[181,232,161] = 1
xD[182,229,224] = 135
xD[182,224,7] = 135
xD[182,7,232] = 135
xD[182,232,161] = 135
xD[185,4,229] = 75
xD[185,229,224] = 75
xD[185,224,7] = 75
xD[185,7,232] = 75
xD[185,232,161] = 75
xD[186,4,229] = 200
xD[187,4,229] = 24
xD[188,4,229] = 26
xD[188,229,224] = 26
xD[188,224,7] = 26
xD[188,7,232] = 26
xD[188,232,161] = 26
xD[189,4,229] = 144
xD[189,229,224] = 144
xD[189,224,7] = 144
xD[189,7,232] = 144
xD[189,232,161] = 144
xD[190,4,229] = 1
xD[190,229,224] = 1
xD[190,224,7] = 1
xD[190,7,232] = 1
xD[190,232,161] = 1
xD[199,228,157] = 44
xD[204,3,228] = 133
xD[205,3,228] = 61
xD[215,227,223] = 704
xD[215,2,227] = 704
xD[215,231,160] = 704
xD[215,223,6] = 704
xD[215,6,231] = 704
xD[216,227,223] = 8
xD[216,2,227] = 8
xD[216,231,160] = 8
xD[216,223,6] = 8
xD[216,6,231] = 8
xD[217,2,227] = 156
xD[218,2,227] = 45
zE[2] = 563
zE[3] = 731
zE[4] = 899
zE[5] = 1067
zE[6] = 1235
zE[7] = 1403
zE[156] = 738
zE[157] = 906
zE[158] = 1074
zE[159] = 1242
zE[160] = 1410
zE[161] = 1578
zE[210] = 332
zE[212] = 500
zE[223] = 889
zE[224] = 1132
zE[227] = 644
zE[228] = 812
zE[229] = 980
zE[230] = 1148
zE[231] = 1316
zE[232] = 1484
zE[244] = 668
zE[245] = 836
zE[247] = 576
zE[254] = 617
zE[255] = 785
zX[2] = 587
zX[3] = 755
zX[4] = 923
zX[5] = 1091
zX[6] = 1259
zX[7] = 1427
zX[9] = 66
zX[10] = 234
zX[13] = 402
zX[16] = 570
zX[132] = 302
zX[135] = 470
zX[156] = 754
zX[157] = 922
zX[158] = 1090
zX[159] = 1258
zX[160] = 1426
zX[161] = 1594
zX[210] = 344
zX[212] = 512
zX[223] = 904
zX[224] = 1145
zX[227] = 674
zX[228] = 842
zX[229] = 1010
zX[230] = 1178
zX[231] = 1346
zX[232] = 1514
zX[244] = 686
zX[245] = 854
zX[247] = 603
zX[254] = 631
zX[255] = 799
phi[9] = 1360
phi[10] = 520
phi[11] = 1192
phi[12] = 688
phi[17] = 620
phi[18] = 620

### All variables with value smaller zero:

### End

real	68m2.847s
user	248m9.797s
sys	14m18.196s
	Freetype 2.4.12 environment removed
	Python 3.6.0 environment removed
	Gurobi 8.1.0 environment removed
