	Freetype 2.4.12 environment established
		library to render fonts
	Python 3.6.0 environment established
	Gurobi 8.1.0 environment established
Instance LSFRP: LSFDRP_1_5_0_1_fr.p
Instance LSFDP: LSFDRP_1_5_0_1_fd_46.p

*****************************************************************************************************************************
*** Solve LSFDRP_1_5_0_1_fd_46 with Gurobi
***
*** Graph info
*** |S|: 18
*** |S^E|: 0
*** |S^C|: 0
*** |V|: 278
*** |A|: 6311
*** |A^i|: 6311
*** |A^f|: 0
*** |M|: 220
*** |E|: 0

Changed value of parameter TimeLimit to 86400.0
   Prev: 1e+100  Min: 0.0  Max: 1e+100  Default: 1e+100
Changed value of parameter Threads to 4
   Prev: 0  Min: 0  Max: 1024  Default: 0
Optimize a model with 80020 rows, 1515219 columns and 5494522 nonzeros
Variable types: 1401600 continuous, 113619 integer (113619 binary)
Coefficient statistics:
  Matrix range     [1e+00, 4e+03]
  Objective range  [4e+01, 3e+08]
  Bounds range     [1e+00, 1e+00]
  RHS range        [1e+00, 6e+00]
Presolve removed 73909 rows and 1399870 columns (presolve time = 5s) ...
Presolve removed 73961 rows and 1404023 columns (presolve time = 64s) ...
Presolve removed 74094 rows and 1404258 columns (presolve time = 65s) ...
Presolve removed 74094 rows and 1404258 columns
Presolve time: 66.71s
Presolved: 5926 rows, 110961 columns, 363401 nonzeros
Variable types: 2482 continuous, 108479 integer (108444 binary)
Warning: Failed to open log file 'gurobi.log'

Root simplex log...

Iteration    Objective       Primal Inf.    Dual Inf.      Time
       0    3.5228138e+09   5.398643e+05   0.000000e+00     69s
    8650    1.1979273e+07   1.083135e+05   0.000000e+00     70s
   16155    7.4368693e+06   2.256747e+05   0.000000e+00     75s
   21353    6.6436040e+06   8.970158e+04   0.000000e+00     80s
   26643    4.7577585e+06   1.976496e+04   0.000000e+00     85s
   27228    4.6252524e+06   0.000000e+00   0.000000e+00     86s

Root relaxation: objective 4.625252e+06, 27228 iterations, 16.97 seconds

    Nodes    |    Current Node    |     Objective Bounds      |     Work
 Expl Unexpl |  Obj  Depth IntInf | Incumbent    BestBd   Gap | It/Node Time

     0     0 4625252.44    0  124          - 4625252.44      -     -   87s
H    0     0                    -2615737.890 4625252.44   277%     -   88s
H    0     0                    -193110.0160 4625252.44  2495%     -  112s
     0     0 2692601.07    0  107 -193110.02 2692601.07  1494%     -  114s
     0     0 2692601.07    0   89 -193110.02 2692601.07  1494%     -  123s
     0     0 2677263.56    0  108 -193110.02 2677263.56  1486%     -  125s
     0     0 2674747.06    0  106 -193110.02 2674747.06  1485%     -  125s
     0     0 2290827.54    0   97 -193110.02 2290827.54  1286%     -  125s
     0     0 2290565.97    0   97 -193110.02 2290565.97  1286%     -  125s
     0     0 2115437.45    0   86 -193110.02 2115437.45  1195%     -  125s
     0     0 2048861.68    0   90 -193110.02 2048861.68  1161%     -  125s
     0     0 2048363.13    0   88 -193110.02 2048363.13  1161%     -  125s
     0     0 2048282.42    0   90 -193110.02 2048282.42  1161%     -  125s
     0     0 2043236.72    0   98 -193110.02 2043236.72  1158%     -  126s
     0     0 2042814.17    0   98 -193110.02 2042814.17  1158%     -  126s
     0     0 2023054.27    0   99 -193110.02 2023054.27  1148%     -  126s
     0     0 2023048.06    0   99 -193110.02 2023048.06  1148%     -  126s
     0     0 2022481.50    0  100 -193110.02 2022481.50  1147%     -  126s
     0     0 2022132.93    0  100 -193110.02 2022132.93  1147%     -  126s
     0     0 2022130.82    0  100 -193110.02 2022130.82  1147%     -  126s
     0     0 2021693.11    0  111 -193110.02 2021693.11  1147%     -  126s
     0     0 2021692.93    0  116 -193110.02 2021692.93  1147%     -  126s
     0     0 2021692.93    0  116 -193110.02 2021692.93  1147%     -  126s
     0     0 2020794.06    0  115 -193110.02 2020794.06  1146%     -  126s
     0     0 2020745.73    0  117 -193110.02 2020745.73  1146%     -  126s
     0     0 2020659.74    0  116 -193110.02 2020659.74  1146%     -  127s
     0     0 2020659.74    0  112 -193110.02 2020659.74  1146%     -  128s
     0     2 2020659.74    0  111 -193110.02 2020659.74  1146%     -  129s
     3     8 1812684.89    2   74 -193110.02 1878733.90  1073%   730  130s
    70    62 1677292.59   13  120 -193110.02 1823158.45  1044%   312  135s
   106    85 1638558.76   18   80 -193110.02 1823158.45  1044%   275  144s
   175   125 661652.594   28   52 -193110.02 1823158.45  1044%   202  145s
   701   345 1211823.28   12   45 -193110.02 1627159.74   943%   141  150s
  1052   542 208412.426   46  107 -193110.02 1599348.57   928%   150  167s
H 1053   515                    -193110.0159 1599348.57   928%   150  169s
  1055   516 1059903.80   10  119 -193110.02 1599348.57   928%   149  170s
  1093   541 1283522.86   13  182 -193110.02 1599348.57   928%   144  175s
  1135   569 812830.757   37  209 -193110.02 1599348.57   928%   139  180s
  1152   582 208412.426   46  153 -193110.02 1599348.57   928%   154  185s
  1185   604 1485258.08    9  200 -193110.02 1599348.57   928%   149  190s
  1188   609 1599348.57   31  193 -193110.02 1599348.57   928%   165  197s
  1194   613 1522249.11   33  147 -193110.02 1572347.24   914%   168  200s
  1251   634 1227465.76   39   84 -193110.02 1509146.34   881%   178  205s
  1628   706 -33117.053   43   67 -193110.02 1433064.98   842%   175  210s
  1868   729 781584.128   43   75 -193110.02 1416168.96   833%   176  215s
H 1975   718                    -193110.0154 1415462.12   833%   176  218s
  2076   738 827127.794   58   70 -193110.02 1403045.40   827%   176  220s
  2511   823 1315990.88   40   60 -193110.02 1361204.00   805%   168  225s
  3063   935 168967.121   48   32 -193110.02 1325701.50   787%   167  230s
  3604  1146 747135.905   41  134 -193110.02 1283173.31   764%   170  236s
  3891  1242 137495.645   52   50 -193110.02 1268922.54   757%   170  240s
  4434  1477 382266.997   40   65 -193110.02 1247345.97   746%   169  245s
  4770  1601 678042.701   46  103 -193110.02 1234746.24   739%   169  251s
  5242  1801 777697.866   41   38 -193110.02 1205289.24   724%   168  256s
  5510  1878 514149.519   47  111 -193110.02 1197564.43   720%   168  260s
  5892  2029 104094.874   54   37 -193110.02 1188227.81   715%   167  268s
  5956  2053 -33823.157   50   84 -193110.02 1180860.36   711%   166  271s
  6350  2189 76042.3900   53   52 -193110.02 1169476.10   706%   165  275s
  6888  2359     cutoff   50      -193110.02 1149122.66   695%   163  280s
  7279  2511 575566.475   43   72 -193110.02 1144718.43   693%   164  286s
  7882  2738 504057.117   51  153 -193110.02 1120829.08   680%   163  292s
  8613  3063 -26905.870   46   97 -193110.02 1103993.42   672%   162  297s
  9039  3228 491508.220   47   89 -193110.02 1091240.30   665%   161  301s
  9973  3468 230392.158   45   34 -193110.02 1061350.94   650%   158  309s
 10257  3531 719109.419   42   70 -193110.02 1055798.45   647%   158  316s
 10719  3665 -99885.935   52   58 -193110.02 1039975.80   639%   158  320s
 11593  3832 490826.409   54   43 -193110.02 1018802.93   628%   157  326s
 12221  4036     cutoff   44      -193110.02 1001396.47   619%   155  330s
 13125  4232 328341.598   50   45 -193110.02 981087.865   608%   154  336s
 13572  4293 -102307.07   42   93 -193110.02 972360.955   604%   154  340s
 14581  4544 332608.063   53   77 -193110.02 950924.904   592%   154  347s
 15100  4706 121755.382   59   55 -193110.02 943639.540   589%   153  351s
 15696  4798 373823.108   53   85 -193110.02 927505.494   580%   153  357s
 16170  4918 292075.566   63   35 -193110.02 923858.689   578%   153  360s
 17177  5181 403020.295   52   51 -193110.02 900927.057   567%   152  366s
 18251  5390 199056.336   51   41 -193110.02 884217.229   558%   151  371s
 19264  5585 443504.997   46   51 -193110.02 864433.664   548%   149  377s
 19801  5711 613276.713   44   65 -193110.02 858237.228   544%   149  380s
 20671  5919 449139.587   57  107 -193110.02 846331.033   538%   148  451s
H20672  5624                    -193109.7768 846331.033   538%   148  451s
 20688  5634 153246.003   54  119 -193109.78 846331.033   538%   148  455s
 20724  5658 824224.618   53  147 -193109.78 846331.033   538%   148  460s
 20765  5686 119340.734   67  144 -193109.78 846331.033   538%   147  465s
H20773  5404                    -193109.3173 846331.033   538%   147  466s
 20798  5421 596691.438   51  156 -193109.32 846331.033   538%   147  470s
 20824  5438 824224.618   53  222 -193109.32 846331.033   538%   147  475s
 20850  5455 535596.159   52  216 -193109.32 846331.033   538%   147  480s
 20874  5471 837078.189   47  211 -193109.32 846331.033   538%   146  485s
 20894  5485 515274.426   52  215 -193109.32 846331.033   538%   146  490s
 20918  5501 450926.741   40  217 -193109.32 846331.033   538%   146  495s
 20944  5518 13823.2620   77  202 -193109.32 846331.033   538%   146  500s
 20968  5534 128573.368   54  212 -193109.32 846331.033   538%   146  505s
 20985  5545 648484.471   49  201 -193109.32 846331.033   538%   146  510s
 21001  5556 25013.0659   51  203 -193109.32 846331.033   538%   146  515s
 21021  5569 453078.512   51  195 -193109.32 846331.033   538%   145  520s
 21036  5579 316991.137   50  168 -193109.32 846331.033   538%   145  525s
 21056  5593 546833.106   46  193 -193109.32 846331.033   538%   145  530s
 21070  5602 234461.840   66  196 -193109.32 846331.033   538%   145  535s
 21083  5611 248930.017   51  204 -193109.32 846331.033   538%   145  540s
 21086  5616 846331.033   46  197 -193109.32 846331.033   538%   149  549s
 21088  5619 846331.033   47  135 -193109.32 846331.033   538%   149  553s
 21092  5622 846331.033   48  187 -193109.32 846331.033   538%   149  557s
 21096  5622     cutoff   48      -193109.32 846331.033   538%   149  560s
 21108  5629 846331.033   50  195 -193109.32 846331.033   538%   150  567s
 21114  5632 846331.033   50  156 -193109.32 846331.033   538%   150  570s
 21141  5640 846331.033   53  160 -193109.32 846331.033   538%   151  575s
 21157  5641 846331.033   54   97 -193109.32 846331.033   538%   151  580s
 21209  5652 846331.033   59   53 -193109.32 846331.033   538%   153  585s
 21271  5658     cutoff   65      -193109.32 846331.033   538%   154  591s
 21323  5664 846331.033   52  155 -193109.32 846331.033   538%   154  595s
 21346  5662 846331.033   55  122 -193109.32 846331.033   538%   155  600s
 21501  5703 846331.033   94  118 -193109.32 846331.033   538%   156  606s
 21641  5708 836720.359   59   78 -193109.32 846331.033   538%   157  610s
 21872  5700     cutoff   69      -193109.32 846331.033   538%   158  616s
 22058  5727 578481.338   96   70 -193109.32 846331.033   538%   159  620s
 22229  5748 648566.331   64   90 -193109.32 846331.033   538%   160  625s
 22384  5756 273305.587   80  177 -193109.32 846331.033   538%   161  631s
 22494  5762 734488.669   83   17 -193109.32 846331.033   538%   162  635s
 22836  5791 3824.88109   72   30 -193109.32 846331.033   538%   163  642s
 22947  5792 366693.589   70   69 -193109.32 846331.033   538%   164  647s
 23085  5806 846331.033   63   81 -193109.32 846331.033   538%   164  650s
 23255  5806 227802.373   68   74 -193109.32 846331.033   538%   165  658s
 23392  5831 -76578.493   67   54 -193109.32 846331.033   538%   166  662s
 23479  5823 784093.733   66  151 -193109.32 846331.033   538%   167  665s
 23779  5839 149248.928   51   93 -193109.32 846331.033   538%   169  671s
 23880  5844     cutoff   67      -193109.32 846331.033   538%   169  675s
 24139  5815 460682.467   87  136 -193109.32 846331.033   538%   171  682s
 24278  5818     cutoff   66      -193109.32 846331.033   538%   171  686s
 24454  5806 576099.253   59  144 -193109.32 846331.033   538%   172  691s
 24566  5820 175868.477   60   93 -193109.32 846331.033   538%   173  699s
H24642  5538                    -193109.3106 846331.033   538%   173  704s
 24802  5538 524038.608   55   95 -193109.31 846331.033   538%   174  709s
 25002  5554 230236.716   87   43 -193109.31 846331.033   538%   174  714s
 25200  5554 512898.288   77   52 -193109.31 846331.033   538%   175  718s
 25399  5544 126857.420   77   38 -193109.31 846331.033   538%   176  723s
 25667  5532     cutoff   58      -193109.31 846331.033   538%   177  728s
 25943  5578 325255.248   58   64 -193109.31 846331.033   538%   177  736s
 26013  5563 158139.936   77   67 -193109.31 846331.033   538%   178  743s
 26226  5563 770237.678   57  169 -193109.31 846331.033   538%   179  748s
 26379  5538 130570.599   76  115 -193109.31 846331.033   538%   180  753s
 26554  5559 94944.1249   55  127 -193109.31 846331.033   538%   182  761s
 26758  5520     cutoff   58      -193109.31 846248.784   538%   183  768s
 27038  5513 36213.5549   96   47 -193109.31 834491.118   532%   184  776s
 27348  5511     cutoff   61      -193109.31 819996.595   525%   185  782s
 27652  5509 445175.625   62  123 -193109.31 809125.379   519%   186  790s
 27928  5562 496330.969   89   79 -193109.31 791570.143   510%   187  797s
 28164  5592     cutoff   61      -193109.31 783726.081   506%   188  804s
 28496  5627 656710.363   72   65 -193109.31 775785.329   502%   189  814s
 28832  5610 318321.473   60   99 -193109.31 765383.001   496%   191  823s
 29210  5622 593362.756   61  158 -193109.31 753665.521   490%   191  832s
 29481  5654 1772.00333   70   51 -193109.31 748624.348   488%   193  842s
 29711  5648 420264.564   67  102 -193109.31 747362.478   487%   195  852s
 30063  5638     cutoff   65      -193109.31 739691.131   483%   195  864s
 30505  5645     cutoff   60      -193109.31 730908.040   478%   196  873s
 30849  5587 207574.608   68   67 -193109.31 718305.552   472%   198  887s
 31246  5580 529148.194   58   86 -193109.31 714500.800   470%   198  899s
 31791  5618 361044.752   78   58 -193109.31 701101.558   463%   199  913s
 32153  5619 525254.596   72  142 -193109.31 693670.578   459%   200  926s
 32557  5551 613049.394   65   96 -193109.31 687636.340   456%   202  939s
 32962  5509     cutoff   65      -193109.31 679530.253   452%   203  950s
H33248  5202                    -193109.2457 678312.470   451%   204  950s
 33312  5156 440484.559   63  120 -193109.25 674126.044   449%   204  978s
 33705  5194 392076.784   66  107 -193109.25 662912.785   443%   205  992s
 34024  5179 -156211.08   88   82 -193109.25 658693.248   441%   207 1004s
H34347  4938                    -193109.2009 656580.227   440%   207 1004s
 34441  4924     cutoff   65      -193109.20 649770.042   436%   207 1020s
 34858  4915 145642.551   61   41 -193109.20 645047.216   434%   208 1032s
 35305  4857 534464.334   59  104 -193109.20 633501.484   428%   208 1043s
 35766  4920 238879.110   61   66 -193109.20 626301.393   424%   209 1056s
 36167  5015 441900.714   50  134 -193109.20 620871.743   422%   210 1071s
 36560  5049     cutoff   69      -193109.20 616226.034   419%   211 1080s
 37117  5189 298531.956   64  111 -193109.20 602227.055   412%   211 1094s
 37505  5286 154319.809   72   65 -193109.20 597419.855   409%   212 1104s
 37961  5408     cutoff   72      -193109.20 589112.916   405%   212 1116s
 38335  5503 -130905.40   77   51 -193109.20 585912.321   403%   213 1125s
 38667  5590 572712.440   67  100 -193109.20 582088.533   401%   214 1135s
 39091  5725     cutoff   74      -193109.20 573420.407   397%   215 1147s
 39641  5851     cutoff   64      -193109.20 566984.733   394%   215 1157s
 40060  5950     cutoff   74      -193109.20 561247.967   391%   215 1167s
 40300  6033 411641.520   73   65 -193109.20 557976.219   389%   215 1193s
 40352  5998     cutoff   66      -193109.20 556773.444   388%   215 1206s
 40737  6060 376397.447   79  108 -193109.20 550279.720   385%   216 1219s
 41204  6148     cutoff   70      -193109.20 544791.308   382%   216 1229s
 41643  6223     cutoff   64      -193109.20 540746.758   380%   217 1240s
 42055  6242 420082.332   67   79 -193109.20 532997.340   376%   218 1252s
 42412  6242     cutoff   75      -193109.20 523830.264   371%   218 1264s
 42861  6306 95965.0537   81   48 -193109.20 520636.670   370%   219 1275s
 43289  6356 39343.7889   71   65 -193109.20 512019.103   365%   219 1284s
 43750  6430 204819.047   67   44 -193109.20 505767.999   362%   219 1295s
 44115  6453 infeasible   63      -193109.20 500192.877   359%   219 1305s
 44534  6491 36429.1344   65  185 -193109.20 495257.213   356%   220 1314s
 44954  6566 98040.2843   62   95 -193109.20 489473.008   353%   220 1327s
 45369  6665 413287.131   64  152 -193109.20 484154.778   351%   221 1338s
 45693  6684 336249.884   73   90 -193109.20 483138.698   350%   222 1348s
 46078  6727 389647.036   79  100 -193109.20 477519.839   347%   222 1359s
 46555  6818 407761.284   69   46 -193109.20 470230.988   344%   223 1369s
 46994  6864 112364.583   96   76 -193109.20 467150.721   342%   223 1381s
 47418  7014     cutoff   70      -193109.20 462069.485   339%   223 1395s
 47443  6942     cutoff   89      -193109.20 460936.911   339%   223 1410s
 47883  7049 -121870.75   74   95 -193109.20 455807.633   336%   224 1422s
 48195  7043 45101.4765   67   75 -193109.20 453345.784   335%   225 1434s
 48632  7166 177335.775   53   27 -193109.20 447930.577   332%   225 1447s
 49038  7249 -95792.799   71   30 -193109.20 443422.836   330%   226 1458s
 49420  7300 179870.169   68   66 -193109.20 441953.794   329%   226 1468s
 49832  7347 376965.970   61   95 -193109.20 434970.871   325%   226 1480s
 50228  7410 -52962.223   69   61 -193109.20 431971.475   324%   227 1490s
 50665  7472 285735.039   64  102 -193109.20 429389.857   322%   227 1498s
 50972  7478     cutoff   63      -193109.20 423974.906   320%   228 1510s
 51374  7475 -130277.76   76    8 -193109.20 420938.811   318%   228 1518s
 51771  7522 87062.5862   78   82 -193109.20 415971.192   315%   229 1529s
 52101  7558 -173446.08   82   47 -193109.20 414252.068   315%   229 1543s
 52544  7618     cutoff   61      -193109.20 408738.224   312%   230 1555s
 52924  7694     cutoff   75      -193109.20 405350.001   310%   230 1568s
 53245  7728 -80758.333   74   68 -193109.20 400616.074   307%   231 1577s
 53658  7800 215547.481   71   65 -193109.20 397858.125   306%   231 1589s
 54038  7831 -62441.252   77  125 -193109.20 391276.203   303%   232 1599s
 54406  7871     cutoff   62      -193109.20 388237.094   301%   232 1609s
 54769  7913 278274.371   78  112 -193109.20 384956.810   299%   232 1617s
 55148  7935     cutoff   76      -193109.20 381358.990   297%   233 1625s
 55482  7963 275125.496   70   35 -193109.20 376409.893   295%   233 1638s
 55870  8025 147059.407   62   84 -193109.20 372100.714   293%   233 1649s
 56250  7996     cutoff   71      -193109.20 367771.523   290%   233 1659s
 56645  7964     cutoff   66      -193109.20 361533.598   287%   233 1667s
 56982  7953 -32291.497   74   49 -193109.20 356861.533   285%   233 1676s
 57418  7986 74652.1602   75   92 -193109.20 353188.602   283%   233 1686s
 57827  8041     cutoff   93      -193109.20 351368.281   282%   234 1695s
 58207  8087 58195.7090   64  177 -193109.20 345999.209   279%   234 1702s
 58557  8093     cutoff   61      -193109.20 342527.967   277%   234 1713s
 58942  8087 189705.044   70   72 -193109.20 340813.188   276%   234 1720s
 59334  8086 -90747.261   80   22 -193109.20 332987.861   272%   234 1731s
 59686  8101     cutoff   86      -193109.20 331282.522   272%   234 1748s
H59880  8125                    -193109.1743 331005.477   271%   234 1748s
 59948  8102 122481.975   71   67 -193109.17 327668.449   270%   234 1758s
H60005  8114                    -193109.1117 327668.449   270%   235 1758s
 60150  8081 29224.2447   69  103 -193109.11 325253.028   268%   235 1768s
 60384  8027 226275.078   71   43 -193109.11 323892.391   268%   234 1778s
 60783  8029 -159275.80   66   32 -193109.11 316707.336   264%   234 1789s
 61102  8006     cutoff   70      -193109.11 312077.434   262%   235 1801s
 61439  7990     cutoff   74      -193109.11 308278.171   260%   235 1814s
H61534  8012                    -193109.1116 308007.110   259%   235 1814s
 61774  7964     cutoff   76      -193109.11 305613.499   258%   235 1823s
 62148  7989 89124.1777   79   36 -193109.11 299921.814   255%   235 1835s
 62468  7969     cutoff   88      -193109.11 298259.217   254%   236 1843s
 62783  7944     cutoff   86      -193109.11 291811.109   251%   236 1855s
 63222  7963 108689.609   57  152 -193109.11 288183.585   249%   236 1864s
 63576  7960 -100217.68   66   87 -193109.11 285345.722   248%   236 1871s
 63882  7938     cutoff   74      -193109.11 280096.168   245%   236 1878s
 64170  7929     cutoff   64      -193109.11 279102.928   245%   236 1891s
 64536  7926 -135311.68   77   46 -193109.11 273299.342   242%   236 1899s
 64873  7905     cutoff   65      -193109.11 271328.293   241%   236 1909s
 65179  7877     cutoff   72      -193109.11 265856.770   238%   237 1916s
 65513  7858     cutoff   69      -193109.11 262549.577   236%   237 1925s
 65806  7817     cutoff   76      -193109.11 259084.191   234%   237 1932s
 66187  7794 -171542.65  103   66 -193109.11 256219.723   233%   237 1940s
 66504  7781     cutoff   70      -193109.11 252132.422   231%   237 1948s
 66779  7736     cutoff   73      -193109.11 248893.937   229%   237 1960s
 67124  7720     cutoff   81      -193109.11 245903.975   227%   237 1969s
 67402  7664 53365.2102   70  110 -193109.11 242198.592   225%   237 1978s
 67763  7673 209280.269   69  111 -193109.11 238440.989   223%   237 1985s
 68050  7618     cutoff   63      -193109.11 235102.668   222%   237 1992s
 68375  7597     cutoff   72      -193109.11 231388.306   220%   237 2005s
H68644  7627                    -193109.0200 228585.583   218%   237 2005s
 68645  7565     cutoff   68      -193109.02 228497.345   218%   237 2014s
 68961  7531     cutoff   74      -193109.02 226086.349   217%   237 2023s
 69241  7493 -14412.815   63   86 -193109.02 221994.182   215%   237 2030s
 69502  7460 148540.532   63   69 -193109.02 218962.413   213%   237 2041s
 69787  7433     cutoff   65      -193109.02 216179.549   212%   237 2049s
 70098  7410 -140895.97   65   43 -193109.02 213517.505   211%   237 2059s
 70344  7367 -1619.6181   60   81 -193109.02 209750.496   209%   237 2066s
 70652  7346     cutoff   73      -193109.02 206468.008   207%   237 2075s
 70949  7318 -121143.54   65   77 -193109.02 204949.438   206%   238 2082s
 71251  7277     cutoff   55      -193109.02 201002.537   204%   237 2090s
 71488  7220     cutoff   82      -193109.02 197577.815   202%   237 2101s
 71769  7184     cutoff   74      -193109.02 194318.393   201%   237 2109s
 72048  7147 103444.563   68   56 -193109.02 190598.529   199%   237 2118s
 72376  7125     cutoff   73      -193109.02 186826.568   197%   237 2126s
 72611  7057     cutoff   79      -193109.02 183026.326   195%   237 2132s
 72861  7024 -155345.34   73   38 -193109.02 180192.962   193%   237 2144s
 73066  6986 -159754.18   77   88 -193109.02 178413.654   192%   238 2152s
 73333  6941     cutoff   70      -193109.02 174045.390   190%   238 2160s
 73609  6925     cutoff   85      -193109.02 171239.480   189%   238 2169s
 73893  6867     cutoff   96      -193109.02 168430.025   187%   237 2177s
 74194  6809     cutoff   86      -193109.02 165441.426   186%   237 2185s
 74514  6766     cutoff   71      -193109.02 162886.812   184%   237 2193s
 74837  6757 76642.1257   70   56 -193109.02 161113.596   183%   237 2197s
 75054  6702     cutoff   70      -193109.02 157377.836   181%   237 2202s
 75286  6649 -53655.370   56   54 -193109.02 155181.359   180%   237 2208s
 75492  6592     cutoff   68      -193109.02 152347.687   179%   237 2216s
 75682  6525     cutoff   72      -193109.02 149571.244   177%   237 2221s
 75941  6483 -6538.1368   73   89 -193109.02 147319.014   176%   237 2227s
 76207  6433 -67420.260   68   37 -193109.02 144544.702   175%   237 2233s
 76495  6384     cutoff   59      -193109.02 142045.315   174%   237 2237s
 76743  6342     cutoff   92      -193109.02 139784.012   172%   237 2243s
 77031  6290 infeasible   62      -193109.02 137101.668   171%   237 2251s
 77278  6279     cutoff   85      -193109.02 134387.852   170%   237 2259s
 77432  6210     cutoff   79      -193109.02 133470.200   169%   237 2264s
 77633  6148 infeasible   69      -193109.02 129602.874   167%   237 2272s
 77921  6107     cutoff   78      -193109.02 126429.695   165%   237 2278s
 78098  6029 8868.84730   74   49 -193109.02 123805.595   164%   237 2283s
 78383  5984 infeasible   66      -193109.02 120895.380   163%   237 2292s
 78631  5949     cutoff   66      -193109.02 118162.188   161%   237 2297s
 78896  5913 62283.7410   69  106 -193109.02 115344.554   160%   237 2303s
 79079  5852 56043.5650   67   98 -193109.02 112611.044   158%   237 2312s
 79376  5807 15224.2999   70   78 -193109.02 108937.880   156%   237 2319s
 79666  5790 -96856.152   68   35 -193109.02 106580.817   155%   236 2323s
 79840  5710 -103020.86   94   24 -193109.02 103685.798   154%   236 2327s
 80003  5633     cutoff   68      -193109.02 100995.041   152%   236 2331s
 80253  5606     cutoff   78      -193109.02 98461.1832   151%   236 2337s
 80457  5562 -135124.44   74   38 -193109.02 96141.4496   150%   236 2344s
 80730  5506     cutoff   62      -193109.02 93488.1128   148%   236 2348s
 80959  5456     cutoff   69      -193109.02 90764.1217   147%   236 2355s
 81186  5412     cutoff   87      -193109.02 87216.5320   145%   236 2362s
 81396  5354     cutoff   80      -193109.02 84053.4527   144%   236 2367s
 81654  5322 -32645.148   69   27 -193109.02 80827.7334   142%   236 2371s
 81820  5250 -26734.410   67   31 -193109.02 78293.2231   141%   235 2375s
 82217  5133     cutoff   67      -193109.02 72372.2206   137%   235 2391s
 82391  5063 45452.0572   82   88 -193109.02 69632.5877   136%   235 2402s
 82644  5025 -152740.60   82   44 -193109.02 67069.0755   135%   235 2406s
 83013  4895     cutoff   61      -193109.02 61362.2537   132%   235 2414s
 83235  4826     cutoff  100      -193109.02 58621.9531   130%   235 2420s
 83568  4678     cutoff   64      -193109.02 52639.5955   127%   235 2426s
 83739  4606     cutoff   75      -193109.02 49957.0415   126%   234 2433s
 83951  4541     cutoff   67      -193109.02 47222.5368   124%   234 2436s
 84128  4466     cutoff   69      -193109.02 44738.1616   123%   234 2440s
 84443  4309     cutoff   72      -193109.02 39264.5248   120%   234 2449s
 84661  4242     cutoff   68      -193109.02 37072.9827   119%   234 2459s
 84851  4181     cutoff   65      -193109.02 34735.9387   118%   234 2461s
 85015  4103 -26528.253   68  146 -193109.02 32178.6261   117%   234 2465s
 85407  3973 -175841.49   69   85 -193109.02 26006.5774   113%   234 2475s
 85749  3829     cutoff   87      -193109.02 20768.4619   111%   234 2483s
 85946  3761     cutoff   76      -193109.02 17855.5525   109%   234 2487s
 86128  3683     cutoff   68      -193109.02 15540.9885   108%   234 2490s
 86278  3610 infeasible   74      -193109.02 12998.7438   107%   234 2497s
 86466  3540     cutoff   57      -193109.02 10377.0071   105%   234 2501s
 86681  3490     cutoff   75      -193109.02 7818.68607   104%   234 2507s
 86854  3410 infeasible   78      -193109.02 4629.99837   102%   234 2512s
 87079  3354     cutoff   69      -193109.02 1641.18513   101%   234 2518s
 87244  3279 -156925.05   74   41 -193109.02 -1102.9492  99.4%   234 2520s
 87546  3136     cutoff   87      -193109.02 -6967.9556  96.4%   233 2529s
 87719  3057     cutoff   73      -193109.02 -9428.9987  95.1%   233 2532s
 87896  2987     cutoff   70      -193109.02 -11727.482  93.9%   233 2538s
 88147  2938     cutoff   78      -193109.02 -14753.648  92.4%   233 2542s
 88332  2873 -88269.913   61  134 -193109.02 -17805.958  90.8%   233 2545s
 88689  2720     cutoff   72      -193109.02 -23435.996  87.9%   233 2552s
 88863  2651     cutoff   66      -193109.02 -26281.917  86.4%   232 2556s
 89007  2573     cutoff   68      -193109.02 -28792.441  85.1%   232 2561s
 89317  2429     cutoff   78      -193109.02 -35102.969  81.8%   232 2566s
 89587  2273     cutoff   70      -193109.02 -40637.083  79.0%   232 2571s
 89888  2117     cutoff  100      -193109.02 -47303.317  75.5%   232 2577s
 90128  1954     cutoff   77      -193109.02 -52723.529  72.7%   231 2584s
 90270  1877 -192654.64   75   46 -193109.02 -55506.537  71.3%   231 2586s
 90501  1713 -83821.772   62   81 -193109.02 -61789.834  68.0%   231 2590s
 91078  1402     cutoff   63      -193109.02 -75829.548  60.7%   230 2596s
 91202  1318 -79052.211   67   79 -193109.02 -78725.123  59.2%   230 2600s
 91708   996     cutoff   68      -193109.02 -92856.277  51.9%   229 2608s
 91940   836     cutoff   78      -193109.02 -101194.82  47.6%   229 2610s
 92597   352     cutoff   62      -193109.02 -129938.58  32.7%   228 2615s

Cutting planes:
  Gomory: 299
  Implied bound: 221
  Projected implied bound: 2
  MIR: 147
  Flow cover: 1039
  Zero half: 5

Explored 93096 nodes (21189546 simplex iterations) in 2619.94 seconds
Thread count was 4 (of 16 available processors)

Solution count 10: -193109 -193109 -193109 ... -193110
No other solutions better than -193109

Optimal solution found (tolerance 1.00e-04)
Best objective -1.931090200266e+05, best bound -1.931090200266e+05, gap 0.0000%

***
***  |- Calculation finished, took 2,619.96 (2619.96) sec.
***  |-----------------------------------------------------------------------------------------------------------------------
***
*****************************************************************************************************************************
#############################################################################################################################
###
### Results
###
### The objective of the solution is -193,109.02 (-193109.02) and is feasible with a Gap of 0.0
###
### Service 81 (MECL1) is operated by 6 vessels from type 30 (PMax35)
###  |- Vessel  9 has the path [9, 2, 227, 223, 6, 231, 160, 0]
###  |  9 (BEANR Out@66.0) - 2 (AEJEA In@563.0/Out@587.0) - 227 (PKBQM In@644.0/Out@674.0) - 223 (OMSLL In@889.0/Out@904.0) -
###  |   6 (AEJEA In@1235.0/Out@1259.0) - 231 (PKBQM In@1316.0/Out@1346.0) - 160 (INNSA In@1410.0/Out@1426.0) - 0 (DUMMY_END 
###  |  Ziel-Service 81)
###  |   |- and carried Demand 144,  31.0 containers from 231 to 160
###  |   |- and carried Demand 145,  37.0 containers from   6 to 160
###  |   |- and carried Demand 146, 211.0 containers from   6 to 160
###  |   |- and carried Demand 147, 176.0 containers from   6 to 231
###  |   |- and carried Demand 215, 704.0 containers from   2 to 160
###  |   |- and carried Demand 216,   8.0 containers from   2 to 160
###  |   |- and carried Demand 217, 156.0 containers from   2 to 227
###  |   |- and carried Demand 218,  45.0 containers from   2 to 227
###  |- Vessel 10 has the path [10, 247, 156, 0]
###  |  10 (BEANR Out@234.0) - 247 (TRAMB In@576.0/Out@603.0) - 156 (INNSA In@738.0/Out@754.0) - 0 (DUMMY_END Ziel-Service 81
###  |  )
###  |- Vessel 11 has the path [13, 244, 4, 229, 224, 7, 232, 161, 0]
###  |  13 (BEANR Out@402.0) - 244 (TRALI In@668.0/Out@686.0) - 4 (AEJEA In@899.0/Out@923.0) - 229 (PKBQM In@980.0/Out@1010.0
###  |  ) - 224 (OMSLL In@1132.0/Out@1145.0) - 7 (AEJEA In@1403.0/Out@1427.0) - 232 (PKBQM In@1484.0/Out@1514.0) - 161 (INNSA
###  |   In@1578.0/Out@1594.0) - 0 (DUMMY_END Ziel-Service 81)
###  |   |- and carried Demand 127,  34.0 containers from 232 to 161
###  |   |- and carried Demand 128,  84.0 containers from   7 to 232
###  |   |- and carried Demand 129,  50.0 containers from   7 to 232
###  |   |- and carried Demand 180, 254.0 containers from 229 to 161
###  |   |- and carried Demand 181,   1.0 containers from 229 to 161
###  |   |- and carried Demand 182, 135.0 containers from 229 to 161
###  |   |- and carried Demand 185,  75.0 containers from   4 to 161
###  |   |- and carried Demand 186, 200.0 containers from   4 to 229
###  |   |- and carried Demand 187,  24.0 containers from   4 to 229
###  |   |- and carried Demand 188,  26.0 containers from   4 to 161
###  |   |- and carried Demand 189, 144.0 containers from   4 to 161
###  |   |- and carried Demand 190,   1.0 containers from   4 to 161
###  |- Vessel 12 has the path [16, 245, 5, 230, 159, 0]
###  |  16 (BEANR Out@570.0) - 245 (TRALI In@836.0/Out@854.0) - 5 (AEJEA In@1067.0/Out@1091.0) - 230 (PKBQM In@1148.0/Out@117
###  |  8.0) - 159 (INNSA In@1242.0/Out@1258.0) - 0 (DUMMY_END Ziel-Service 81)
###  |   |- and carried Demand 167,  86.0 containers from   5 to 230
###  |   |- and carried Demand 168, 118.0 containers from   5 to 230
###  |- Vessel 17 has the path [132, 210, 254, 3, 228, 157, 0]
###  |  132 (GBFXT Out@302.0) - 210 (NLRTM In@332.0/Out@344.0) - 254 (TRZMK In@617.0/Out@631.0) - 3 (AEJEA In@731.0/Out@755.0
###  |  ) - 228 (PKBQM In@812.0/Out@842.0) - 157 (INNSA In@906.0/Out@922.0) - 0 (DUMMY_END Ziel-Service 81)
###  |   |- and carried Demand 199,  44.0 containers from 228 to 157
###  |   |- and carried Demand 204, 133.0 containers from   3 to 228
###  |   |- and carried Demand 205,  61.0 containers from   3 to 228
###  |- Vessel 18 has the path [135, 212, 255, 158, 0]
###  |  135 (GBFXT Out@470.0) - 212 (NLRTM In@500.0/Out@512.0) - 255 (TRZMK In@785.0/Out@799.0) - 158 (INNSA In@1074.0/Out@10
###  |  90.0) - 0 (DUMMY_END Ziel-Service 81)
###  |
### Vessels not used in the solution: [1, 2, 3, 4, 5, 6, 7, 8, 13, 14, 15, 16]
###  |-----------------------------------------------------------------------------------------------------------------------
###
#############################################################################################################################

### Detialed variable overview

### All variables with value greater zero:
rho[81,30] = 1
eta[81,30,1] = 1
eta[81,30,2] = 1
eta[81,30,3] = 1
eta[81,30,4] = 1
eta[81,30,5] = 1
eta[81,30,6] = 1
y[9,227,223] = 1
y[9,2,227] = 1
y[9,231,160] = 1
y[9,223,6] = 1
y[9,6,231] = 1
y[9,160,0] = 1
y[9,9,2] = 1
y[10,156,0] = 1
y[10,247,156] = 1
y[10,10,247] = 1
y[11,4,229] = 1
y[11,229,224] = 0.999999
y[11,161,0] = 0.999998
y[11,13,244] = 1
y[11,224,7] = 0.999998
y[11,7,232] = 0.999998
y[11,232,161] = 0.999998
y[11,244,4] = 1
y[12,16,245] = 1
y[12,245,5] = 0.999999
y[12,159,0] = 0.999999
y[12,230,159] = 0.999999
y[12,5,230] = 0.999999
y[17,210,254] = 1
y[17,3,228] = 1
y[17,157,0] = 1
y[17,254,3] = 1
y[17,132,210] = 1
y[17,228,157] = 1
y[18,158,0] = 0.999999
y[18,135,212] = 1
y[18,255,158] = 0.999999
y[18,212,255] = 1
xD[127,232,161] = 34
xD[128,7,232] = 84
xD[129,7,232] = 50
xD[144,231,160] = 31
xD[145,231,160] = 37
xD[145,6,231] = 37
xD[146,231,160] = 211
xD[146,6,231] = 211
xD[147,6,231] = 176
xD[167,5,230] = 86
xD[168,5,230] = 118
xD[180,229,224] = 254
xD[180,224,7] = 254
xD[180,7,232] = 254
xD[180,232,161] = 254
xD[181,229,224] = 1
xD[181,224,7] = 1
xD[181,7,232] = 1
xD[181,232,161] = 1
xD[182,229,224] = 135
xD[182,224,7] = 135
xD[182,7,232] = 135
xD[182,232,161] = 135
xD[185,4,229] = 75
xD[185,229,224] = 75
xD[185,224,7] = 75
xD[185,7,232] = 75
xD[185,232,161] = 75
xD[186,4,229] = 200
xD[187,4,229] = 24
xD[188,4,229] = 26
xD[188,229,224] = 26
xD[188,224,7] = 26
xD[188,7,232] = 26
xD[188,232,161] = 26
xD[189,4,229] = 144
xD[189,229,224] = 144
xD[189,224,7] = 144
xD[189,7,232] = 144
xD[189,232,161] = 144
xD[190,4,229] = 0.999999
xD[190,229,224] = 0.999999
xD[190,224,7] = 0.999999
xD[190,7,232] = 0.999999
xD[190,232,161] = 0.999999
xD[199,228,157] = 44
xD[204,3,228] = 133
xD[205,3,228] = 61
xD[215,227,223] = 704
xD[215,2,227] = 704
xD[215,231,160] = 704
xD[215,223,6] = 704
xD[215,6,231] = 704
xD[216,227,223] = 8
xD[216,2,227] = 8
xD[216,231,160] = 8
xD[216,223,6] = 8
xD[216,6,231] = 8
xD[217,2,227] = 156
xD[218,2,227] = 45
zE[2] = 563
zE[3] = 731
zE[4] = 899
zE[5] = 1067
zE[6] = 1235
zE[7] = 1403
zE[156] = 738
zE[157] = 906
zE[158] = 1074
zE[159] = 1242
zE[160] = 1410
zE[161] = 1578
zE[210] = 332
zE[212] = 500
zE[223] = 889
zE[224] = 1132
zE[227] = 644
zE[228] = 812
zE[229] = 980
zE[230] = 1148
zE[231] = 1316
zE[232] = 1484
zE[244] = 668
zE[245] = 836
zE[247] = 576
zE[254] = 617
zE[255] = 785
zX[2] = 587
zX[3] = 755
zX[4] = 923
zX[5] = 1091
zX[6] = 1259
zX[7] = 1427
zX[9] = 66
zX[10] = 234
zX[13] = 402
zX[16] = 570
zX[132] = 302
zX[135] = 470
zX[156] = 754
zX[157] = 922
zX[158] = 1090
zX[159] = 1258
zX[160] = 1426
zX[161] = 1594
zX[210] = 344
zX[212] = 512
zX[223] = 904
zX[224] = 1145
zX[227] = 674
zX[228] = 842
zX[229] = 1010
zX[230] = 1178
zX[231] = 1346
zX[232] = 1514
zX[244] = 686
zX[245] = 853.999
zX[247] = 603
zX[254] = 631
zX[255] = 798.999
phi[9] = 1360
phi[10] = 520
phi[11] = 1192
phi[12] = 688
phi[17] = 620
phi[18] = 620

### All variables with value smaller zero:

### End

real	45m24.461s
user	161m36.125s
sys	9m54.339s
	Freetype 2.4.12 environment removed
	Python 3.6.0 environment removed
	Gurobi 8.1.0 environment removed
