	Freetype 2.4.12 environment established
		library to render fonts
	Python 3.6.0 environment established
	Gurobi 8.1.0 environment established
Instance LSFRP: LSFDRP_1_5_0_1_fr.p
Instance LSFDP: LSFDRP_1_5_0_1_fd_28.p

*****************************************************************************************************************************
*** Solve LSFDRP_1_5_0_1_fd_28 with Gurobi
***
*** Graph info
*** |S|: 18
*** |S^E|: 0
*** |S^C|: 0
*** |V|: 278
*** |A|: 6311
*** |A^i|: 6311
*** |A^f|: 0
*** |M|: 220
*** |E|: 0

Changed value of parameter TimeLimit to 86400.0
   Prev: 1e+100  Min: 0.0  Max: 1e+100  Default: 1e+100
Changed value of parameter Threads to 4
   Prev: 0  Min: 0  Max: 1024  Default: 0
Optimize a model with 80020 rows, 1515219 columns and 5494522 nonzeros
Variable types: 1401600 continuous, 113619 integer (113619 binary)
Coefficient statistics:
  Matrix range     [1e+00, 4e+03]
  Objective range  [4e+01, 2e+08]
  Bounds range     [1e+00, 1e+00]
  RHS range        [1e+00, 6e+00]
Presolve removed 73961 rows and 1400154 columns (presolve time = 6s) ...
Presolve removed 73961 rows and 1404023 columns (presolve time = 53s) ...
Presolve removed 74094 rows and 1404258 columns (presolve time = 56s) ...
Presolve removed 74094 rows and 1404258 columns
Presolve time: 55.85s
Presolved: 5926 rows, 110961 columns, 363401 nonzeros
Variable types: 2482 continuous, 108479 integer (108444 binary)
Warning: Failed to open log file 'gurobi.log'

Root simplex log...

Iteration    Objective       Primal Inf.    Dual Inf.      Time
       0    3.5228138e+09   5.398643e+05   0.000000e+00     58s
   11967    8.1489706e+06   5.101315e+04   0.000000e+00     60s
   17794    6.9854376e+06   2.790683e+04   0.000000e+00     65s
   23588    5.2756158e+06   1.412849e+05   0.000000e+00     70s
   26306    4.6252524e+06   0.000000e+00   0.000000e+00     73s

Root relaxation: objective 4.625252e+06, 26306 iterations, 14.89 seconds

    Nodes    |    Current Node    |     Objective Bounds      |     Work
 Expl Unexpl |  Obj  Depth IntInf | Incumbent    BestBd   Gap | It/Node Time

     0     0 4625252.44    0  123          - 4625252.44      -     -   74s
H    0     0                    -2821360.570 4625252.44   264%     -   75s
H    0     0                    -193110.0152 4625252.44  2495%     -   96s
     0     0 2678823.82    0  100 -193110.02 2678823.82  1487%     -   97s
     0     0 2678823.82    0   90 -193110.02 2678823.82  1487%     -  100s
     0     0 2307395.10    0   86 -193110.02 2307395.10  1295%     -  101s
     0     0 2298135.51    0   98 -193110.02 2298135.51  1290%     -  101s
     0     0 2298097.99    0   98 -193110.02 2298097.99  1290%     -  101s
     0     0 2113772.07    0   95 -193110.02 2113772.07  1195%     -  101s
     0     0 2112526.85    0   96 -193110.02 2112526.85  1194%     -  101s
     0     0 2101516.14    0   96 -193110.02 2101516.14  1188%     -  102s
     0     0 2101516.14    0   96 -193110.02 2101516.14  1188%     -  102s
     0     0 2097884.59    0   92 -193110.02 2097884.59  1186%     -  102s
     0     0 2096252.87    0  104 -193110.02 2096252.87  1186%     -  102s
     0     0 2095838.37    0  101 -193110.02 2095838.37  1185%     -  102s
     0     0 2095818.82    0  103 -193110.02 2095818.82  1185%     -  102s
     0     0 2095562.79    0  104 -193110.02 2095562.79  1185%     -  102s
     0     0 2094276.90    0  108 -193110.02 2094276.90  1184%     -  102s
     0     0 2094253.16    0  108 -193110.02 2094253.16  1184%     -  102s
     0     0 2092942.08    0  107 -193110.02 2092942.08  1184%     -  102s
     0     0 2092676.70    0  101 -193110.02 2092676.70  1184%     -  102s
     0     0 2092644.13    0  109 -193110.02 2092644.13  1184%     -  102s
     0     0 2092324.96    0  108 -193110.02 2092324.96  1183%     -  102s
     0     0 2092032.87    0  106 -193110.02 2092032.87  1183%     -  102s
     0     0 2091721.07    0  107 -193110.02 2091721.07  1183%     -  102s
     0     0 2091310.11    0  107 -193110.02 2091310.11  1183%     -  102s
     0     0 2089810.82    0  107 -193110.02 2089810.82  1182%     -  102s
     0     0 2089800.96    0  107 -193110.02 2089800.96  1182%     -  102s
     0     0 2089544.69    0  107 -193110.02 2089544.69  1182%     -  102s
     0     0 2089059.76    0  109 -193110.02 2089059.76  1182%     -  103s
     0     0 2088521.95    0  111 -193110.02 2088521.95  1182%     -  103s
     0     0 2088513.25    0  110 -193110.02 2088513.25  1182%     -  103s
     0     0 2088330.57    0  109 -193110.02 2088330.57  1181%     -  103s
     0     0 2088228.74    0  109 -193110.02 2088228.74  1181%     -  103s
     0     0 2088190.20    0  111 -193110.02 2088190.20  1181%     -  103s
     0     0 2087509.90    0  125 -193110.02 2087509.90  1181%     -  103s
     0     0 2087480.52    0  127 -193110.02 2087480.52  1181%     -  103s
     0     0 2087480.52    0  127 -193110.02 2087480.52  1181%     -  103s
     0     0 2087480.52    0  125 -193110.02 2087480.52  1181%     -  104s
     0     0 2087480.52    0   94 -193110.02 2087480.52  1181%     -  106s
     0     0 2087480.52    0  116 -193110.02 2087480.52  1181%     -  107s
     0     0 2087480.52    0  120 -193110.02 2087480.52  1181%     -  108s
     0     0 2087480.52    0  126 -193110.02 2087480.52  1181%     -  108s
     0     0 2087480.52    0  128 -193110.02 2087480.52  1181%     -  108s
     0     0 2087480.52    0  100 -193110.02 2087480.52  1181%     -  108s
     0     0 2087480.52    0  102 -193110.02 2087480.52  1181%     -  108s
     0     0 2087480.52    0  106 -193110.02 2087480.52  1181%     -  108s
     0     0 2087480.52    0   98 -193110.02 2087480.52  1181%     -  108s
     0     0 2087480.52    0  107 -193110.02 2087480.52  1181%     -  108s
     0     0 2087480.52    0  108 -193110.02 2087480.52  1181%     -  108s
     0     0 2087480.52    0  108 -193110.02 2087480.52  1181%     -  108s
     0     0 2086500.69    0  112 -193110.02 2086500.69  1180%     -  108s
     0     0 2085800.85    0  114 -193110.02 2085800.85  1180%     -  108s
     0     0 2085224.77    0  114 -193110.02 2085224.77  1180%     -  108s
     0     0 2084952.95    0  115 -193110.02 2084952.95  1180%     -  108s
     0     0 2084842.59    0  115 -193110.02 2084842.59  1180%     -  108s
     0     0 2084739.51    0  115 -193110.02 2084739.51  1180%     -  108s
     0     0 2083229.55    0  117 -193110.02 2083229.55  1179%     -  108s
     0     0 2083212.83    0  117 -193110.02 2083212.83  1179%     -  108s
     0     0 2082769.43    0  111 -193110.02 2082769.43  1179%     -  108s
     0     0 2045303.14    0  124 -193110.02 2045303.14  1159%     -  108s
     0     0 2031858.18    0  137 -193110.02 2031858.18  1152%     -  108s
     0     0 2031319.82    0  138 -193110.02 2031319.82  1152%     -  108s
     0     0 2031311.24    0  138 -193110.02 2031311.24  1152%     -  108s
     0     0 2029740.26    0  139 -193110.02 2029740.26  1151%     -  108s
     0     0 2029457.93    0  138 -193110.02 2029457.93  1151%     -  109s
     0     0 2029454.14    0  138 -193110.02 2029454.14  1151%     -  109s
     0     0 2028700.60    0  120 -193110.02 2028700.60  1151%     -  109s
     0     0 2028621.85    0  121 -193110.02 2028621.85  1151%     -  109s
     0     0 2028500.00    0  121 -193110.02 2028500.00  1150%     -  109s
     0     0 2028325.30    0  122 -193110.02 2028325.30  1150%     -  109s
     0     0 2028297.18    0  136 -193110.02 2028297.18  1150%     -  109s
     0     0 2028089.91    0  137 -193110.02 2028089.91  1150%     -  109s
     0     0 2028089.91    0  132 -193110.02 2028089.91  1150%     -  110s
     0     2 2028089.91    0  132 -193110.02 2028089.91  1150%     -  111s
    43    35 1828513.89   12  102 -193110.02 1912499.60  1090%   253  115s
   197   142 1688703.40   35  120 -193110.02 1899175.74  1083%   171  122s
   201   139 1667926.03   36  105 -193110.02 1899175.74  1083%   171  127s
   529   351 45087.7050   39   44 -193110.02 1806574.40  1036%   127  130s
  1024   666 1164908.50   31  100 -193110.02 1752669.76  1008%   116  142s
  1028   669 689536.762   33  103 -193110.02 1752669.76  1008%   116  145s
  1082   705 785830.353   62  114 -193110.02 1655229.08   957%   110  150s
  1129   736 1573929.41   37  165 -193110.02 1573929.41   915%   105  156s
  1144   747 209913.013   69  104 -193110.02 1573929.41   915%   124  160s
  1191   778 134438.837   34  186 -193110.02 1455819.22   854%   119  165s
  1203   788 877655.247   26  107 -193110.02 1455600.08   854%   135  170s
  1223   804 1408758.03   42  139 -193110.02 1434336.11   843%   147  178s
  1225   808 1386642.65   43  126 -193110.02 1386642.65   818%   147  180s
  1279   824 1235419.38   50  128 -193110.02 1373069.05   811%   162  186s
  1423   874 -159585.24   64   25 -193110.02 1373069.05   811%   169  190s
  1956   931 696285.020   55   33 -193110.02 1289130.48   768%   165  195s
  2598   965 1199221.90   52  110 -193110.02 1235669.19   740%   161  200s
  3215  1004 166746.066   66   21 -193110.02 1196804.50   720%   160  205s
  3986  1179 627184.736   55   39 -193110.02 1170328.47   706%   155  210s
  4444  1348 393814.691   53  121 -193110.02 1148316.39   695%   152  217s
  4730  1447 387523.534   57   54 -193110.02 1139503.06   690%   151  220s
  5333  1640     cutoff   56      -193110.02 1110333.36   675%   151  226s
  5829  1789 -101752.38   65   43 -193110.02 1097656.36   668%   151  231s
  6392  2005 201362.007   64   18 -193110.02 1077279.00   658%   151  236s
  7205  2253 587673.054   60   62 -193110.02 1056829.83   647%   149  241s
H 7537  2396                    -193110.0151 1050317.59   644%   149  243s
  7632  2411 826038.494   62  106 -193110.02 1050317.59   644%   148  245s
  8616  2723 7015.54514   66   82 -193110.02 1027223.17   632%   147  251s
  9363  2960 235532.227   64   49 -193110.02 1017269.43   627%   147  255s
 10064  3185 240343.221   65   57 -193110.02 1005118.55   620%   147  261s
 10571  3357 762736.382   61   79 -193110.02 995442.064   615%   146  267s
 10733  3382 890780.437   57   85 -193110.02 994356.572   615%   146  279s
 11093  3472 -11043.148   64   63 -193110.02 985195.471   610%   146  282s
 12056  3720 443856.925   63   69 -193110.02 963058.164   599%   145  287s
 12528  3831 521691.507   52  122 -193110.02 952628.077   593%   145  290s
 13528  4107 512183.070   69   24 -193110.02 934161.759   584%   144  296s
 14457  4244     cutoff   60      -193110.02 916927.992   575%   143  302s
 15681  4529     cutoff   68      -193110.02 887228.206   559%   142  307s
 16178  4678     cutoff   61      -193110.02 883927.311   558%   142  310s
 17748  4988 531892.174   62   38 -193110.02 857300.919   544%   140  317s
 18590  5126 801343.636   85   51 -193110.02 839505.880   535%   139  322s
 19559  5313 33135.4281   65   35 -193110.02 827808.881   529%   139  326s
 20475  5544 718254.199   58   83 -193110.02 814116.670   522%   139  333s
 20488  5500 539250.961   60   98 -193110.02 813838.901   521%   139  335s
 20933  5685 522749.406   64  100 -193110.02 807709.753   518%   139  419s
 20935  5686 687953.038   53   89 -193110.02 807709.753   518%   139  420s
 20965  5706 674298.739   72  179 -193110.02 807709.753   518%   139  425s
 20998  5728 582225.801   63  193 -193110.02 807709.753   518%   138  430s
 21025  5746 413299.238   64  204 -193110.02 807709.753   518%   138  435s
 21047  5761 694467.684   62  216 -193110.02 807709.753   518%   138  440s
 21076  5780 693577.161   62  232 -193110.02 807709.753   518%   138  445s
 21097  5794 437204.118   62  202 -193110.02 807709.753   518%   138  450s
 21117  5808 -115795.95   58  197 -193110.02 807709.753   518%   138  455s
H21137  5526                    -193110.0146 807709.753   518%   137  459s
 21141  5529 79013.4766   83  207 -193110.01 807709.753   518%   137  460s
 21160  5541 513047.982   67  177 -193110.01 807709.753   518%   137  465s
 21180  5555 63790.2723   59  141 -193110.01 807709.753   518%   137  470s
 21203  5570 666507.840   57  157 -193110.01 807709.753   518%   137  475s
 21220  5581 -142324.35   67  187 -193110.01 807709.753   518%   137  480s
 21243  5597 783981.260   60  171 -193110.01 807709.753   518%   137  485s
 21261  5609 -142426.81   70  207 -193110.01 807709.753   518%   137  490s
H21262  5323                    -193110.0145 807709.753   518%   137  491s
 21278  5334 279273.648   77  164 -193110.01 807709.753   518%   137  495s
 21293  5344 266849.148   68  203 -193110.01 807709.753   518%   136  500s
 21310  5355 63272.2104   54  215 -193110.01 807709.753   518%   136  505s
 21320  5362 -142324.35   67  210 -193110.01 807709.753   518%   136  510s
 21321  5366 807709.753   53  225 -193110.01 807709.753   518%   140  516s
 21323  5369 807709.753   54  217 -193110.01 807709.753   518%   140  520s
 21331  5373 807709.753   55  208 -193110.01 807709.753   518%   141  528s
 21335  5376 807709.753   56  194 -193110.01 807709.753   518%   141  530s
 21348  5381 807709.753   57  190 -193110.01 807709.753   518%   142  536s
 21366  5382 807709.753   59  156 -193110.01 807709.753   518%   142  541s
 21401  5389 807709.753   62  144 -193110.01 807709.753   518%   143  545s
 21474  5379 807709.753   66  131 -193110.01 807709.753   518%   143  550s
H21499  5109                    -193110.0132 807709.753   518%   144  553s
 21521  5107 797936.113   76  115 -193110.01 807709.753   518%   144  556s
 21604  5114 807709.753   58  145 -193110.01 807709.753   518%   145  561s
H21652  4864                    -193110.0127 807709.753   518%   145  562s
 21727  4887 706060.448   75  129 -193110.01 807709.753   518%   145  566s
 21961  4949     cutoff   91      -193110.01 807709.753   518%   146  570s
H22053  4693                    -193110.0122 807709.753   518%   147  574s
 22054  4699 479002.132   68  123 -193110.01 807709.753   518%   147  575s
 22171  4711 227723.370   71  139 -193110.01 807709.753   518%   148  580s
 22269  4740 807709.753   58  106 -193110.01 807709.753   518%   150  585s
 22415  4755 594746.068   71   35 -193110.01 807709.753   518%   151  590s
 22588  4762 807709.753   71  189 -193110.01 807709.753   518%   153  596s
 22733  4801 586252.869  105   98 -193110.01 807709.753   518%   154  600s
 22892  4811 444740.520   65  119 -193110.01 807709.753   518%   155  606s
 23036  4838 73037.2372   88  121 -193110.01 807709.753   518%   156  611s
 23182  4847     cutoff   63      -193110.01 807709.753   518%   157  617s
 23311  4850 713437.798   64  155 -193110.01 807709.753   518%   158  620s
 23497  4861 551953.981   82  124 -193110.01 807709.753   518%   160  626s
 23695  4873 515423.721   69   31 -193110.01 807709.753   518%   162  633s
 23869  4888 807709.753   61   34 -193110.01 807709.753   518%   162  642s
 23911  4872 665752.991   65   49 -193110.01 807709.753   518%   162  646s
 24028  4870 807709.753   65  170 -193110.01 807709.753   518%   163  650s
 24290  4860 307921.311   79   47 -193110.01 807709.753   518%   165  659s
 24493  4853 606291.551   66  138 -193110.01 807709.753   518%   166  663s
 24636  4845 687203.263   85  117 -193110.01 807709.753   518%   167  668s
 24777  4845 360077.336   72  123 -193110.01 807709.753   518%   168  672s
 24965  4848 -3446.3201   73  128 -193110.01 807709.753   518%   169  677s
 25154  4825 349963.262   66  103 -193110.01 807709.753   518%   170  681s
 25326  4782 -23961.894   74  153 -193110.01 807709.753   518%   171  687s
 25526  4774 184020.549   66  122 -193110.01 807709.753   518%   172  694s
 25704  4783 520002.308   65  140 -193110.01 807709.753   518%   173  699s
 25832  4770 52931.6295   65   87 -193110.01 807709.753   518%   174  706s
 26050  4744 338368.982   83   82 -193110.01 807709.753   518%   176  713s
 26222  4750 7323.06572  103   71 -193110.01 807709.753   518%   177  719s
 26418  4708 -140359.13   70   51 -193110.01 807709.753   518%   179  727s
 26601  4684 450077.817   65   57 -193110.01 807709.753   518%   180  736s
 26789  4637     cutoff   77      -193110.01 807709.753   518%   182  744s
 27062  4583 448914.929   74   80 -193110.01 807709.753   518%   183  750s
 27305  4586 336408.976   77  104 -193110.01 807436.409   518%   185  759s
 27460  4561     cutoff   71      -193110.01 800132.800   514%   186  775s
 27676  4525 597404.762   78  134 -193110.01 796554.602   512%   188  785s
 28045  4490 518481.277   61  182 -193110.01 782712.911   505%   189  796s
 28223  4445 217137.665   65  128 -193110.01 777762.873   503%   191  804s
 28436  4455 -144174.51   82  153 -193110.01 767699.490   498%   192  815s
 28654  4450 424014.306   77  124 -193110.01 756815.519   492%   194  826s
 28960  4486 178919.886   69  143 -193110.01 752857.016   490%   196  837s
 29198  4459 -82826.670   71  101 -193110.01 749806.835   488%   198  849s
 29471  4431     cutoff   78      -193110.01 742348.405   484%   200  874s
H29472  4195                    -193109.9674 742348.405   484%   200  874s
H29638  3946                    -193109.8950 738249.771   482%   201  884s
 29730  3914 550791.003   69  138 -193109.90 732763.670   479%   201  896s
 30118  3917 583027.065   82  150 -193109.90 726578.312   476%   202  909s
 30385  3897 403544.831   66  156 -193109.90 715626.166   471%   205  927s
 30723  3872 514405.522   62  149 -193109.90 705562.119   465%   207  942s
 31032  3894 365945.211   72  105 -193109.90 698441.242   462%   209  958s
 31343  3864 671409.850   69  157 -193109.90 684681.046   455%   212  977s
 31652  3881 320457.179   67  166 -193109.90 675163.136   450%   214  993s
 32025  3896 268912.372   68  119 -193109.90 667231.272   446%   216 1004s
 32364  3851 -186165.09   77  140 -193109.90 661434.014   443%   219 1020s
 32853  3776 51319.9185   69  140 -193109.90 647520.617   435%   220 1035s
 33248  3731 -31477.830   72  120 -193109.90 641555.509   432%   223 1052s
 33548  3698 462692.901   69  152 -193109.90 633292.595   428%   224 1068s
 33892  3789 230661.566   67  103 -193109.90 628179.388   425%   226 1083s
 34235  3846 330205.843   60   88 -193109.90 623440.207   423%   229 1100s
 34647  4012     cutoff   78      -193109.90 611878.062   417%   231 1119s
 35067  4136 325316.541   81  106 -193109.90 606533.921   414%   232 1136s
 35468  4269 167100.335   79  127 -193109.90 600869.458   411%   234 1153s
 35787  4313 14179.4287   72  177 -193109.90 593023.602   407%   236 1168s
 36208  4438 307951.711   73  149 -193109.90 589364.615   405%   238 1183s
H36323  4468                    -193109.7404 584487.046   403%   238 1183s
 36409  4473     cutoff   68      -193109.74 582963.725   402%   239 1200s
 36797  4522 369439.239   77  102 -193109.74 574502.963   398%   241 1216s
 37097  4590     cutoff   76      -193109.74 570811.055   396%   243 1233s
 37408  4638     cutoff   94      -193109.74 565398.626   393%   245 1250s
 37786  4759     cutoff   83      -193109.74 559032.868   389%   246 1266s
 38158  4847 168002.228   75  160 -193109.74 553382.029   387%   248 1282s
 38511  4976     cutoff   90      -193109.74 550515.544   385%   250 1297s
 38882  5041 484902.603   76   67 -193109.74 541961.728   381%   251 1313s
 39304  5122 191763.786   83  112 -193109.74 537124.726   378%   253 1328s
 39666  5200 infeasible   81      -193109.74 531303.639   375%   254 1345s
 40052  5246 167516.477   73   84 -193109.74 528181.824   374%   256 1365s
 40449  5354     cutoff   83      -193109.74 519776.597   369%   257 1383s
 40900  5446 295046.003   75  178 -193109.74 513638.905   366%   259 1399s
H41084  5508                    -193109.5670 513115.319   366%   259 1399s
 41150  5482 28365.3743   79  117 -193109.57 511634.739   365%   260 1418s
 41555  5538 443418.204   87  172 -193109.57 506238.780   362%   261 1438s
 41876  5613 354088.962   87  132 -193109.57 500679.861   359%   263 1455s
 42323  5702 -146421.01   89   93 -193109.57 496988.883   357%   264 1472s
 42671  5735 -105000.76   88  116 -193109.57 493943.030   356%   266 1487s
 43051  5822 99866.2398   75   99 -193109.57 488854.869   353%   267 1505s
 43370  5872 -71028.018   78   21 -193109.57 482669.929   350%   269 1524s
 43745  5958     cutoff   72      -193109.57 478272.636   348%   270 1540s
 44181  6019 132174.385   60   86 -193109.57 474244.375   346%   271 1591s
 44563  6018 302265.533   90   82 -193109.57 469172.005   343%   271 1609s
 44948  6042 75531.9955   76  127 -193109.57 463215.530   340%   272 1629s
 45362  6096     cutoff   93      -193109.57 452710.120   334%   273 1648s
 45769  6138 385411.958   83  121 -193109.57 448560.709   332%   274 1670s
H45987  6203                    -193109.5382 447476.800   332%   275 1670s
 46085  6179 161778.416   75  170 -193109.54 446212.345   331%   276 1690s
 46387  6166 332564.246   93  118 -193109.54 443166.826   329%   277 1709s
 46778  6207 397382.317   79  183 -193109.54 435413.025   325%   278 1727s
 47179  6247     cutoff  101      -193109.54 428574.981   322%   279 1745s
 47585  6258     cutoff   84      -193109.54 421594.307   318%   280 1765s
 48040  6320 -171753.73   88   49 -193109.54 416621.156   316%   281 1785s
 48499  6359 32732.5231   88  211 -193109.54 410575.366   313%   282 1804s
 48903  6430 262371.196   80  128 -193109.54 408003.894   311%   283 1824s
 49261  6416 96410.9499   88  175 -193109.54 401741.230   308%   284 1844s
 49719  6492 -91049.574   69  149 -193109.54 395411.292   305%   285 1864s
H49877  6544                    -193109.5373 395411.292   305%   285 1864s
 50025  6513 19395.7621   77  124 -193109.54 392649.339   303%   286 1883s
 50442  6520 10669.7855   98  164 -193109.54 388007.448   301%   287 1900s
 50800  6563 181535.285   87  101 -193109.54 380433.778   297%   287 1919s
 51165  6578 31364.8358   84   70 -193109.54 376595.715   295%   289 1937s
H51465  6656                    -193109.5369 371089.712   292%   289 1937s
 51545  6601 254332.865   68   64 -193109.54 370883.442   292%   289 1956s
 51890  6578 -36279.055   74   71 -193109.54 365699.543   289%   291 1973s
 52309  6599 338668.979   94  136 -193109.54 359856.718   286%   291 1991s
 52652  6593 -13316.178   76   85 -193109.54 356255.773   284%   292 2008s
 53081  6637 infeasible   71      -193109.54 349670.455   281%   293 2028s
 53371  6633 -157325.28   84  176 -193109.54 347333.268   280%   294 2046s
 53619  6647 -65989.954   81  109 -193109.54 345259.088   279%   295 2064s
 54001  6642 infeasible   72      -193109.54 339870.102   276%   295 2081s
 54360  6643     cutoff   71      -193109.54 334611.646   273%   296 2097s
 54743  6713 -192393.45   87  126 -193109.54 332814.360   272%   297 2113s
 55076  6714     cutoff   83      -193109.54 328965.551   270%   297 2126s
 55351  6678 232018.735   78  120 -193109.54 322624.486   267%   298 2140s
 55678  6672 116633.124   92   71 -193109.54 319475.380   265%   299 2151s
 55941  6647 7723.20056   84   78 -193109.54 316508.165   264%   299 2167s
 56300  6645 -16884.187   75   90 -193109.54 309770.402   260%   299 2184s
 56682  6686 83835.0879   85  111 -193109.54 306795.128   259%   300 2202s
 57078  6663 -161119.96   71  175 -193109.54 301972.331   256%   300 2218s
 57453  6698     cutoff   74      -193109.54 295718.484   253%   301 2234s
 57854  6754     cutoff   75      -193109.54 291079.873   251%   301 2252s
H58072  6774                    -193109.5364 290003.092   250%   302 2252s
 58080  6700 -96178.120   75  100 -193109.54 290003.092   250%   302 2267s
 58476  6740 -158170.95   74   94 -193109.54 285813.332   248%   302 2284s
 58766  6716 237373.946   87  114 -193109.54 280630.163   245%   303 2299s
 59072  6698     cutoff   72      -193109.54 276916.449   243%   303 2314s
 59398  6663 -95397.595   73   60 -193109.54 273129.112   241%   303 2324s
 59728  6620     cutoff   74      -193109.54 268669.738   239%   304 2338s
 60057  6626 223963.482   80  107 -193109.54 264085.038   237%   304 2358s
 60400  6631     cutoff   71      -193109.54 260817.287   235%   305 2371s
 60740  6634 -148512.37   77  123 -193109.54 256964.497   233%   305 2385s
 61009  6601     cutoff   71      -193109.54 253780.899   231%   306 2402s
 61343  6589     cutoff   85      -193109.54 249549.211   229%   306 2413s
 61683  6607     cutoff   79      -193109.54 244657.490   227%   306 2427s
 62034  6609     cutoff  109      -193109.54 240362.208   224%   306 2441s
 62390  6621     cutoff   78      -193109.54 236319.956   222%   306 2456s
 62617  6586     cutoff   85      -193109.54 234427.865   221%   307 2474s
 62984  6581 159945.086   79  116 -193109.54 228718.755   218%   308 2484s
 63229  6542 60893.1329  100   62 -193109.54 224676.597   216%   307 2499s
 63517  6514 -69290.604   77   65 -193109.54 221548.957   215%   308 2511s
 63777  6486     cutoff  110      -193109.54 217883.876   213%   308 2528s
 64118  6498     cutoff   84      -193109.54 212873.489   210%   309 2544s
 64445  6525 -60345.295   87   31 -193109.54 208836.362   208%   309 2560s
 64745  6500     cutoff   83      -193109.54 204197.676   206%   309 2568s
 64985  6454     cutoff   72      -193109.54 200479.048   204%   309 2578s
 65230  6413     cutoff  103      -193109.54 196892.647   202%   309 2588s
 65442  6344     cutoff   86      -193109.54 193586.425   200%   310 2603s
 65696  6287 -49110.510   62   26 -193109.54 189212.552   198%   310 2621s
 65966  6250     cutoff   73      -193109.54 185565.618   196%   310 2635s
 66183  6187     cutoff   76      -193109.54 183725.696   195%   311 2648s
 66453  6164     cutoff   84      -193109.54 178922.518   193%   311 2661s
 66761  6123 98937.3943   81  103 -193109.54 175299.037   191%   310 2678s
 67049  6088     cutoff   65      -193109.54 172226.739   189%   311 2689s
 67256  6027     cutoff   77      -193109.54 168915.222   187%   311 2700s
 67501  5958 72628.9312   76   97 -193109.54 164773.694   185%   311 2714s
 67807  5947     cutoff   91      -193109.54 160805.192   183%   311 2727s
 68053  5919     cutoff   92      -193109.54 157567.951   182%   312 2738s
 68290  5889     cutoff   98      -193109.54 154085.547   180%   312 2749s
 68519  5856     cutoff   77      -193109.54 151309.288   178%   312 2765s
 68824  5823     cutoff   70      -193109.54 148571.826   177%   313 2775s
 69079  5764 infeasible   89      -193109.54 143827.584   174%   313 2782s
 69244  5686     cutoff   95      -193109.54 139786.894   172%   312 2791s
 69431  5614 116741.707   79   58 -193109.54 136741.317   171%   313 2799s
 69615  5539 94641.1892   77   86 -193109.54 132696.978   169%   313 2805s
 69814  5483     cutoff   80      -193109.54 129794.345   167%   313 2817s
 69992  5417     cutoff   97      -193109.54 126113.514   165%   313 2829s
 70212  5354 -57583.371  105  131 -193109.54 123437.636   164%   313 2835s
 70383  5283     cutoff   71      -193109.54 119724.329   162%   313 2845s
 70610  5238 75658.8970   83   54 -193109.54 115908.959   160%   313 2856s
 70816  5254 57840.4302  101   36 -193109.54 112671.797   158%   313 2873s
 70846  5161 -151656.96   98   72 -193109.54 112356.138   158%   313 2887s
 71120  5131     cutoff   75      -193109.54 109162.145   157%   313 2892s
 71307  5067     cutoff   88      -193109.54 106415.676   155%   313 2904s
 71554  5037     cutoff   85      -193109.54 103114.794   153%   313 2917s
 71735  4984     cutoff   70      -193109.54 100264.369   152%   313 2925s
 71919  4910 -133542.18   87  116 -193109.54 97336.1684   150%   313 2930s
 72079  4830     cutoff  105      -193109.54 94048.5404   149%   313 2936s
 72301  4795     cutoff   89      -193109.54 91025.4392   147%   312 2944s
 72477  4738     cutoff   73      -193109.54 87868.5840   146%   312 2949s
 72680  4674     cutoff   79      -193109.54 84571.1449   144%   312 2962s
 72876  4607     cutoff   71      -193109.54 81744.5874   142%   312 2970s
 73071  4546 -149727.62   92  143 -193109.54 79062.0555   141%   312 2976s
 73287  4500 53845.7569   69  118 -193109.54 77067.9112   140%   312 2986s
 73521  4440     cutoff   85      -193109.54 72336.3065   137%   312 2999s
 73735  4397 -156583.74   84   87 -193109.54 69702.2796   136%   313 3008s
 73934  4339     cutoff   77      -193109.54 66076.2499   134%   313 3015s
 74113  4278     cutoff   89      -193109.54 62856.3379   133%   313 3024s
 74284  4210     cutoff   83      -193109.54 59688.5650   131%   313 3030s
 74453  4154     cutoff   98      -193109.54 56745.0332   129%   312 3039s
 74692  4099     cutoff   87      -193109.54 53282.1444   128%   312 3045s
 74833  4030     cutoff   93      -193109.54 50275.5639   126%   312 3051s
 74998  3950     cutoff   84      -193109.54 46385.1696   124%   312 3058s
 75167  3881     cutoff   73      -193109.54 43279.0646   122%   312 3067s
 75313  3813     cutoff   84      -193109.54 40382.4464   121%   312 3078s
 75565  3776 -34119.930   97  120 -193109.54 37276.4417   119%   313 3085s
 75731  3708     cutoff   96      -193109.54 34168.3379   118%   313 3092s
 75917  3651     cutoff   76      -193109.54 31466.7265   116%   312 3100s
 76142  3598     cutoff   72      -193109.54 28969.5830   115%   312 3108s
 76332  3547     cutoff   75      -193109.54 25824.6547   113%   312 3113s
 76467  3471 -48506.952   99   96 -193109.54 22773.6011   112%   312 3118s
 76628  3400 -101511.74   86   79 -193109.54 19890.1406   110%   312 3124s
 76829  3341     cutoff   73      -193109.54 16655.7121   109%   312 3129s
 76992  3266     cutoff   76      -193109.54 13435.6371   107%   312 3137s
 77131  3199     cutoff  106      -193109.54 10167.4698   105%   312 3144s
 77299  3134     cutoff   85      -193109.54 6729.42790   103%   312 3152s
 77457  3072 -28697.810   90  166 -193109.54 3813.03086   102%   311 3159s
 77650  3002     cutoff   74      -193109.54  737.46844   100%   311 3165s
 77862  2958     cutoff   77      -193109.54 -2559.5567  98.7%   311 3173s
 78012  2887     cutoff   93      -193109.54 -5866.7178  97.0%   311 3177s
 78156  2812     cutoff   89      -193109.54 -9057.4815  95.3%   311 3181s
 78339  2738     cutoff   79      -193109.54 -12389.492  93.6%   311 3185s
 78505  2675     cutoff   74      -193109.54 -14682.942  92.4%   311 3193s
 78721  2616     cutoff  105      -193109.54 -18191.636  90.6%   311 3197s
 78883  2549     cutoff   67      -193109.54 -21361.910  88.9%   311 3201s
 79068  2478     cutoff   78      -193109.54 -25003.199  87.1%   310 3206s
 79237  2407     cutoff   65      -193109.54 -28596.054  85.2%   310 3212s
 79518  2260     cutoff   90      -193109.54 -35314.920  81.7%   310 3222s
 79682  2185     cutoff  104      -193109.54 -38829.208  79.9%   310 3226s
 79833  2122     cutoff   86      -193109.54 -41896.123  78.3%   310 3230s
 80112  1968     cutoff   90      -193109.54 -48506.952  74.9%   310 3235s
 80364  1810     cutoff   78      -193109.54 -56569.259  70.7%   310 3241s
 80482  1727     cutoff   88      -193109.54 -59724.158  69.1%   309 3245s
 80879  1491     cutoff   86      -193109.54 -70809.534  63.3%   309 3251s
 80980  1409     cutoff   90      -193109.54 -74228.108  61.6%   309 3255s
 81236  1260     cutoff   90      -193109.54 -80836.556  58.1%   308 3260s
 81487  1099     cutoff   91      -193109.54 -87153.811  54.9%   308 3266s
 81736   935     cutoff  104      -193109.54 -94888.182  50.9%   307 3271s
 81851   851     cutoff   80      -193109.54 -99382.251  48.5%   307 3275s
 82065   684     cutoff   75      -193109.54 -108957.07  43.6%   307 3281s
 82287   520 infeasible   73      -193109.54 -117876.99  39.0%   306 3285s
 82711   190     cutoff   87      -193109.54 -141595.47  26.7%   306 3291s

Cutting planes:
  Gomory: 404
  Cover: 2
  Implied bound: 182
  Projected implied bound: 7
  MIR: 130
  Flow cover: 971
  Zero half: 3

Explored 83043 nodes (25357862 simplex iterations) in 3295.03 seconds
Thread count was 4 (of 16 available processors)

Solution count 10: -193110 -193110 -193110 ... -193110
No other solutions better than -193110

Optimal solution found (tolerance 1.00e-04)
Best objective -1.931095364417e+05, best bound -1.931095364417e+05, gap 0.0000%

***
***  |- Calculation finished, took 3,295.05 (3295.05) sec.
***  |-----------------------------------------------------------------------------------------------------------------------
***
*****************************************************************************************************************************
#############################################################################################################################
###
### Results
###
### The objective of the solution is -193,109.5364 (-193109.5364) and is feasible with a Gap of 0.0
###
### Service 81 (MECL1) is operated by 6 vessels from type 30 (PMax35)
###  |- Vessel  9 has the path [9, 2, 227, 223, 6, 231, 160, 0]
###  |  9 (BEANR Out@66.0) - 2 (AEJEA In@563.0/Out@587.0) - 227 (PKBQM In@644.0/Out@674.0) - 223 (OMSLL In@889.0/Out@904.0) -
###  |   6 (AEJEA In@1235.0/Out@1259.0) - 231 (PKBQM In@1316.0/Out@1346.0) - 160 (INNSA In@1410.0/Out@1426.0) - 0 (DUMMY_END 
###  |  Ziel-Service 81)
###  |   |- and carried Demand 144,  31.0 containers from 231 to 160
###  |   |- and carried Demand 145,  37.0 containers from   6 to 160
###  |   |- and carried Demand 146, 211.0 containers from   6 to 160
###  |   |- and carried Demand 147, 176.0 containers from   6 to 231
###  |   |- and carried Demand 215, 704.0 containers from   2 to 160
###  |   |- and carried Demand 216,   8.0 containers from   2 to 160
###  |   |- and carried Demand 217, 156.0 containers from   2 to 227
###  |   |- and carried Demand 218,  45.0 containers from   2 to 227
###  |- Vessel 10 has the path [10, 247, 156, 0]
###  |  10 (BEANR Out@234.0) - 247 (TRAMB In@576.0/Out@603.0) - 156 (INNSA In@738.0/Out@754.0) - 0 (DUMMY_END Ziel-Service 81
###  |  )
###  |- Vessel 11 has the path [13, 244, 4, 229, 224, 7, 232, 161, 0]
###  |  13 (BEANR Out@402.0) - 244 (TRALI In@668.0/Out@686.0) - 4 (AEJEA In@899.0/Out@923.0) - 229 (PKBQM In@980.0/Out@1010.0
###  |  ) - 224 (OMSLL In@1132.0/Out@1145.0) - 7 (AEJEA In@1403.0/Out@1427.0) - 232 (PKBQM In@1484.0/Out@1514.0) - 161 (INNSA
###  |   In@1578.0/Out@1594.0) - 0 (DUMMY_END Ziel-Service 81)
###  |   |- and carried Demand 127,  34.0 containers from 232 to 161
###  |   |- and carried Demand 128,  84.0 containers from   7 to 232
###  |   |- and carried Demand 129,  50.0 containers from   7 to 232
###  |   |- and carried Demand 180, 254.0 containers from 229 to 161
###  |   |- and carried Demand 181,   1.0 containers from 229 to 161
###  |   |- and carried Demand 182, 135.0 containers from 229 to 161
###  |   |- and carried Demand 185,  75.0 containers from   4 to 161
###  |   |- and carried Demand 186, 200.0 containers from   4 to 229
###  |   |- and carried Demand 187,  24.0 containers from   4 to 229
###  |   |- and carried Demand 188,  26.0 containers from   4 to 161
###  |   |- and carried Demand 189, 144.0 containers from   4 to 161
###  |   |- and carried Demand 190,   1.0 containers from   4 to 161
###  |- Vessel 12 has the path [16, 245, 5, 230, 159, 0]
###  |  16 (BEANR Out@570.0) - 245 (TRALI In@836.0/Out@854.0) - 5 (AEJEA In@1067.0/Out@1091.0) - 230 (PKBQM In@1148.0/Out@117
###  |  8.0) - 159 (INNSA In@1242.0/Out@1258.0) - 0 (DUMMY_END Ziel-Service 81)
###  |   |- and carried Demand 167,  86.0 containers from   5 to 230
###  |   |- and carried Demand 168, 118.0 containers from   5 to 230
###  |- Vessel 17 has the path [132, 210, 254, 3, 228, 157, 0]
###  |  132 (GBFXT Out@302.0) - 210 (NLRTM In@332.0/Out@344.0) - 254 (TRZMK In@617.0/Out@631.0) - 3 (AEJEA In@731.0/Out@755.0
###  |  ) - 228 (PKBQM In@812.0/Out@842.0) - 157 (INNSA In@906.0/Out@922.0) - 0 (DUMMY_END Ziel-Service 81)
###  |   |- and carried Demand 199,  44.0 containers from 228 to 157
###  |   |- and carried Demand 204, 133.0 containers from   3 to 228
###  |   |- and carried Demand 205,  61.0 containers from   3 to 228
###  |- Vessel 18 has the path [135, 212, 255, 158, 0]
###  |  135 (GBFXT Out@470.0) - 212 (NLRTM In@500.0/Out@512.0) - 255 (TRZMK In@785.0/Out@799.0) - 158 (INNSA In@1074.0/Out@10
###  |  90.0) - 0 (DUMMY_END Ziel-Service 81)
###  |
### Vessels not used in the solution: [1, 2, 3, 4, 5, 6, 7, 8, 13, 14, 15, 16]
###  |-----------------------------------------------------------------------------------------------------------------------
###
#############################################################################################################################

### Detialed variable overview

### All variables with value greater zero:
rho[81,30] = 1
eta[81,30,1] = 1
eta[81,30,2] = 1
eta[81,30,3] = 1
eta[81,30,4] = 1
eta[81,30,5] = 1
eta[81,30,6] = 1
y[9,227,223] = 0.999999
y[9,2,227] = 1
y[9,231,160] = 1
y[9,223,6] = 0.999999
y[9,6,231] = 1
y[9,160,0] = 1
y[9,9,2] = 1
y[10,156,0] = 1
y[10,247,156] = 1
y[10,10,247] = 1
y[11,4,229] = 0.999997
y[11,229,224] = 0.999997
y[11,161,0] = 0.999997
y[11,13,244] = 1
y[11,224,7] = 0.999997
y[11,7,232] = 0.999997
y[11,232,161] = 0.999997
y[11,244,4] = 0.999997
y[12,16,245] = 1
y[12,245,5] = 1
y[12,159,0] = 1
y[12,230,159] = 1
y[12,5,230] = 1
y[17,210,254] = 1
y[17,3,228] = 0.999997
y[17,157,0] = 0.999997
y[17,254,3] = 1
y[17,132,210] = 1
y[17,228,157] = 0.999997
y[18,158,0] = 0.999997
y[18,135,212] = 1
y[18,255,158] = 0.999997
y[18,212,255] = 1
xD[127,232,161] = 34
xD[128,7,232] = 84
xD[129,7,232] = 50
xD[144,231,160] = 31
xD[145,231,160] = 37
xD[145,6,231] = 37
xD[146,231,160] = 211
xD[146,6,231] = 211
xD[147,6,231] = 176
xD[167,5,230] = 86
xD[168,5,230] = 118
xD[180,229,224] = 254
xD[180,224,7] = 254
xD[180,7,232] = 254
xD[180,232,161] = 254
xD[181,229,224] = 1
xD[181,224,7] = 1
xD[181,7,232] = 1
xD[181,232,161] = 1
xD[182,229,224] = 135
xD[182,224,7] = 135
xD[182,7,232] = 135
xD[182,232,161] = 135
xD[185,4,229] = 75
xD[185,229,224] = 75
xD[185,224,7] = 75
xD[185,7,232] = 75
xD[185,232,161] = 75
xD[186,4,229] = 200
xD[187,4,229] = 24
xD[188,4,229] = 26
xD[188,229,224] = 26
xD[188,224,7] = 26
xD[188,7,232] = 26
xD[188,232,161] = 26
xD[189,4,229] = 144
xD[189,229,224] = 144
xD[189,224,7] = 144
xD[189,7,232] = 144
xD[189,232,161] = 144
xD[190,4,229] = 1
xD[190,229,224] = 1
xD[190,224,7] = 1
xD[190,7,232] = 1
xD[190,232,161] = 1
xD[199,228,157] = 43.9999
xD[204,3,228] = 133
xD[205,3,228] = 60.9998
xD[215,227,223] = 703.999
xD[215,2,227] = 704
xD[215,231,160] = 704
xD[215,223,6] = 703.999
xD[215,6,231] = 704
xD[216,227,223] = 7.99999
xD[216,2,227] = 8
xD[216,231,160] = 8
xD[216,223,6] = 7.99999
xD[216,6,231] = 8
xD[217,2,227] = 156
xD[218,2,227] = 45
zE[2] = 563
zE[3] = 731
zE[4] = 899
zE[5] = 1067
zE[6] = 1235
zE[7] = 1403
zE[156] = 738
zE[157] = 906
zE[158] = 1074
zE[159] = 1242
zE[160] = 1410
zE[161] = 1578
zE[210] = 332
zE[212] = 500
zE[223] = 889
zE[224] = 1132
zE[227] = 644
zE[228] = 811.998
zE[229] = 980
zE[230] = 1148
zE[231] = 1316
zE[232] = 1484
zE[244] = 668
zE[245] = 836
zE[247] = 576
zE[254] = 617
zE[255] = 785
zX[2] = 587
zX[3] = 755
zX[4] = 923
zX[5] = 1091
zX[6] = 1259
zX[7] = 1427
zX[9] = 66
zX[10] = 234
zX[13] = 402
zX[16] = 570
zX[132] = 302
zX[135] = 470
zX[156] = 754
zX[157] = 922
zX[158] = 1090
zX[159] = 1258
zX[160] = 1426
zX[161] = 1594
zX[210] = 344
zX[212] = 512
zX[223] = 904
zX[224] = 1145
zX[227] = 674
zX[228] = 841.998
zX[229] = 1010
zX[230] = 1178
zX[231] = 1346
zX[232] = 1514
zX[244] = 686
zX[245] = 854
zX[247] = 603
zX[254] = 631
zX[255] = 799
phi[9] = 1360
phi[10] = 520
phi[11] = 1192
phi[12] = 688
phi[17] = 620
phi[18] = 620.001

### All variables with value smaller zero:

### End

real	56m28.184s
user	205m33.452s
sys	11m30.054s
	Freetype 2.4.12 environment removed
	Python 3.6.0 environment removed
	Gurobi 8.1.0 environment removed
