### Additional Information to the goal services
# Basic costs on route 177: -20679587.981277738
# Direct costs (not staggered):
# For goal service 177:
# n_min: 2
# n_max: 3
# lowest costs of the goal service 177 with configuration (177, 19, 3) at 0.0
# (177, 18, 1): 6370373.489448365
# (177, 18, 2): 4579935.956150074
# (177, 18, 3): 227490.51615007594
# (177, 19, 1): 8654420.85060637
# (177, 19, 2): 5791788.975839991
# (177, 19, 3): 0.0
# (177, 30, 1): 8249245.568188783
# (177, 30, 2): 6446508.080195434
# (177, 30, 3): 425541.8053474352
# -------------------------------------------
