### Additional Information to the goal services
# Basic costs on route 177: -63331238.192663096
# Direct costs (not staggered):
# For goal service 177:
# n_min: 2
# n_max: 3
# lowest costs of the goal service 177 with configuration (177, 19, 3) at 0.0
# (177, 18, 1): 19509268.81143564
# (177, 18, 2): 14026053.86570961
# (177, 18, 3): 696689.7057096288
# (177, 19, 1): 26504163.85498204
# (177, 19, 2): 17737353.738509998
# (177, 19, 3): 0.0
# (177, 30, 1): 25263314.552578174
# (177, 30, 2): 19742430.995598547
# (177, 30, 3): 1303221.778876543
# -------------------------------------------
