### Additional Information to the goal services
# Basic costs on route 177: -55576392.69968392
# Direct costs (not staggered):
# For goal service 177:
# n_min: 2
# n_max: 3
# lowest costs of the goal service 177 with configuration (177, 19, 3) at 0.0
# (177, 18, 1): 17120378.75289248
# (177, 18, 2): 12308577.88215331
# (177, 18, 3): 611380.7621533275
# (177, 19, 1): 23258756.036004625
# (177, 19, 2): 15565432.872569993
# (177, 19, 3): 0.0
# (177, 30, 1): 22169847.46450735
# (177, 30, 2): 17324990.465525217
# (177, 30, 3): 1143643.6018712074
# -------------------------------------------
