### Additional Information to the goal services
# Basic costs on route 177: 26689410.120138265
# Direct costs (not staggered):
# For goal service 177:
# n_min: 2
# n_max: 3
# lowest costs of the goal service 177 with configuration (177, 18, 3) at 0.0
# (177, 18, 1): 11901835.76076544
# (177, 18, 2): 8432863.04
# (177, 18, 3): 0.0
# (177, 19, 1): 17715511.21184703
# (177, 19, 2): 12169161.954487175
# (177, 19, 3): 947570.8137971759
# (177, 30, 1): 17420952.552197337
# (177, 30, 2): 13928148.669210218
# (177, 30, 3): 2262526.5116922185
# -------------------------------------------
