### Additional Information to the goal services
# Basic costs on route 177: 29272256.26079681
# Direct costs (not staggered):
# For goal service 177:
# n_min: 2
# n_max: 3
# lowest costs of the goal service 177 with configuration (177, 18, 3) at 0.0
# (177, 18, 1): 13053626.31825887
# (177, 18, 2): 9248946.559999991
# (177, 18, 3): 0.0
# (177, 19, 1): 19429915.522670936
# (177, 19, 2): 13346822.78879239
# (177, 19, 3): 1039271.2151323892
# (177, 30, 1): 19106851.186280947
# (177, 30, 2): 15276034.02429508
# (177, 30, 3): 2481480.6902430765
# -------------------------------------------
