### Additional Information to the goal services
# Basic costs on route 177: 18940871.69816264
# Direct costs (not staggered):
# For goal service 177:
# n_min: 2
# n_max: 3
# lowest costs of the goal service 177 with configuration (177, 18, 3) at 0.0
# (177, 18, 1): 8446464.088285156
# (177, 18, 2): 5984612.479999997
# (177, 18, 3): 0.0
# (177, 19, 1): 12572298.279375307
# (177, 19, 2): 8636179.451571539
# (177, 19, 3): 672469.6097915433
# (177, 30, 1): 12363256.6499465
# (177, 30, 2): 9884492.603955645
# (177, 30, 3): 1605663.9760396369
# -------------------------------------------
