### Additional Information to the goal services
# Basic costs on route 177: 16358025.557504097
# Direct costs (not staggered):
# For goal service 177:
# n_min: 2
# n_max: 3
# lowest costs of the goal service 177 with configuration (177, 18, 3) at 0.0
# (177, 18, 1): 7294673.530791728
# (177, 18, 2): 5168528.960000003
# (177, 18, 3): 0.0
# (177, 19, 1): 10857893.968551403
# (177, 19, 2): 7458518.617266333
# (177, 19, 3): 580769.2084563356
# (177, 30, 1): 10677358.015862884
# (177, 30, 2): 8536607.24887078
# (177, 30, 3): 1386709.7974887807
# -------------------------------------------
