### Additional Information to the goal services
# Basic costs on route 177: 13775179.41684556
# Direct costs (not staggered):
# For goal service 177:
# n_min: 2
# n_max: 3
# lowest costs of the goal service 177 with configuration (177, 18, 3) at 0.0
# (177, 18, 1): 6142882.973298289
# (177, 18, 2): 4352445.439999998
# (177, 18, 3): 0.0
# (177, 19, 1): 9143489.657727495
# (177, 19, 2): 6280857.782961115
# (177, 19, 3): 489068.8071211241
# (177, 30, 1): 8991459.381779268
# (177, 30, 2): 7188721.89378592
# (177, 30, 3): 1167755.6189379208
# -------------------------------------------
