	Freetype 2.4.12 environment established
		library to render fonts
	Python 3.6.0 environment established
	Gurobi 8.1.0 environment established
Instance LSFRP: LSFDRP_3_3_1_1_fr.p
Instance LSFDP: LSFDRP_3_3_1_1_fd_16.p

*****************************************************************************************************************************
*** Solve LSFDRP_3_3_1_1_fd_16 with Gurobi
***
*** Graph info
*** |S|: 24
*** |S^E|: 0
*** |S^C|: 6
*** |V|: 482
*** |A|: 22408
*** |A^i|: 22261
*** |A^f|: 147
*** |M|: 380
*** |E|: 28

Changed value of parameter TimeLimit to 86400.0
   Prev: 1e+100  Min: 0.0  Max: 1e+100  Default: 1e+100
Changed value of parameter Threads to 4
   Prev: 0  Min: 0  Max: 1024  Default: 0
Optimize a model with 253050 rows, 9102183 columns and 32933900 nonzeros
Variable types: 8564334 continuous, 537849 integer (537849 binary)
Coefficient statistics:
  Matrix range     [1e+00, 5e+03]
  Objective range  [2e+00, 2e+07]
  Bounds range     [1e+00, 1e+00]
  RHS range        [1e+00, 5e+03]
Presolve removed 10951 rows and 1418 columns (presolve time = 6s) ...
Presolve removed 35293 rows and 1990867 columns (presolve time = 10s) ...
Presolve removed 76584 rows and 4875112 columns (presolve time = 15s) ...
Presolve removed 92519 rows and 5726498 columns (presolve time = 20s) ...
Presolve removed 96631 rows and 5821764 columns (presolve time = 28s) ...
Presolve removed 96631 rows and 5832931 columns (presolve time = 30s) ...
Presolve removed 102477 rows and 5848354 columns (presolve time = 37s) ...
Presolve removed 102909 rows and 5848354 columns (presolve time = 40s) ...
Presolve removed 105402 rows and 5874425 columns (presolve time = 45s) ...
Presolve removed 105402 rows and 5874425 columns (presolve time = 50s) ...
Presolve removed 106443 rows and 5875874 columns (presolve time = 57s) ...
Presolve removed 106444 rows and 5875874 columns (presolve time = 60s) ...
Presolve removed 106444 rows and 5875874 columns (presolve time = 67s) ...
Presolve removed 106450 rows and 5876627 columns (presolve time = 71s) ...
Presolve removed 106450 rows and 5876627 columns (presolve time = 75s) ...
Warning: Failed to open log file 'gurobi.log'
Presolve removed 106482 rows and 5876627 columns (presolve time = 86s) ...
Presolve removed 106482 rows and 6076286 columns (presolve time = 2015s) ...
Presolve removed 172128 rows and 8149967 columns (presolve time = 2020s) ...
Presolve removed 175532 rows and 8154332 columns (presolve time = 2026s) ...
Presolve removed 175577 rows and 8155022 columns (presolve time = 2031s) ...
Presolve removed 175723 rows and 8155456 columns (presolve time = 2035s) ...
Presolve removed 178585 rows and 8187810 columns (presolve time = 2049s) ...
Presolve removed 178623 rows and 8187845 columns (presolve time = 2844s) ...
Presolve removed 178591 rows and 8187813 columns
Presolve time: 2844.03s
Presolved: 74459 rows, 914370 columns, 5843164 nonzeros
Variable types: 574873 continuous, 339497 integer (339434 binary)

Deterministic concurrent LP optimizer: primal simplex, dual simplex, and barrier
Showing barrier log only...

Presolve removed 417 rows and 787 columns
Presolved: 74042 rows, 913583 columns, 5822241 nonzeros

Root barrier log...

Ordering time: 0.00s

Barrier statistics:
 Dense cols : 106
 AA' NZ     : 6.304e+06
 Factor NZ  : 1.406e+08 (roughly 1.5 GBytes of memory)
 Factor Ops : 8.657e+11 (roughly 50 seconds per iteration)
 Threads    : 1

                  Objective                Residual
Iter       Primal          Dual         Primal    Dual     Compl     Time
   0  -3.59922217e+15  1.70961306e+16  1.04e+09 1.80e+06  1.76e+12  2942s
   1  -2.14620624e+15  1.67581289e+16  6.19e+08 9.79e+06  1.07e+12  2998s
   2  -1.27909693e+15  1.60132412e+16  3.69e+08 4.53e+06  6.35e+11  3058s
   3  -7.47816585e+14  1.52893585e+16  2.16e+08 3.01e+06  3.79e+11  3112s
   4  -3.93899303e+14  1.38472168e+16  1.14e+08 1.82e+06  2.06e+11  3166s
   5  -1.42052370e+14  1.01873981e+16  4.07e+07 4.34e+05  7.65e+10  3224s
   6  -2.21169796e+13  5.29483749e+15  6.26e+06 5.37e+04  1.38e+10  3280s
   7  -2.80383973e+12  1.67803519e+15  7.93e+05 1.38e-05  2.22e+09  3340s
   8  -1.15121605e+12  3.56362138e+14  3.26e+05 7.33e-07  6.48e+08  3395s
   9  -2.66451027e+11  8.07517160e+13  7.53e+04 4.77e-07  1.42e+08  3451s
  10  -1.78246166e+11  5.61765418e+13  5.03e+04 7.15e-07  9.51e+07  3506s
  11  -4.82660272e+10  1.95553154e+13  1.36e+04 6.73e-07  2.83e+07  3565s
  12  -1.53356606e+10  8.37113414e+12  4.27e+03 3.80e-07  1.01e+07  3622s
  13  -8.30749993e+09  5.88501472e+12  2.29e+03 2.38e-07  6.15e+06  3679s
  14  -4.04698252e+09  2.97288695e+12  1.10e+03 3.05e-07  3.02e+06  3734s
  15  -1.46486453e+09  1.94428709e+12  3.77e+02 3.79e-07  1.56e+06  3791s
  16  -7.49679094e+08  1.17262535e+12  1.80e+02 4.56e-07  8.78e+05  3848s
  17  -4.10774745e+08  7.33507225e+11  8.80e+01 1.91e-07  5.14e+05  3903s
  18  -2.36511891e+08  4.50538110e+11  4.21e+01 3.79e-07  2.99e+05  3961s
  19  -1.71012562e+08  3.33184924e+11  2.61e+01 4.68e-07  2.14e+05  4016s
  20  -1.31784489e+08  2.62492623e+11  1.78e+01 3.48e-07  1.66e+05  4070s
  21  -1.00798939e+08  1.98797348e+11  1.19e+01 2.94e-07  1.24e+05  4125s
  22  -8.02346173e+07  1.60381085e+11  8.27e+00 2.17e-07  9.85e+04  4179s
  23  -6.45017299e+07  1.14351238e+11  5.61e+00 2.40e-07  6.99e+04  4240s
  24  -5.00848782e+07  9.19258096e+10  2.74e+00 2.01e-07  5.45e+04  4294s
  25  -4.09812272e+07  7.47711711e+10  1.60e+00 2.29e-07  4.31e+04  4349s
  26  -3.76629550e+07  5.45043527e+10  1.20e+00 2.12e-07  3.14e+04  4403s
  27  -3.18641842e+07  2.89265110e+10  5.48e-01 2.71e-07  1.65e+04  4458s
  28  -3.03566672e+07  1.86784537e+10  3.97e-01 1.79e-07  1.07e+04  4511s
  29  -2.93946193e+07  1.33868025e+10  3.26e-01 1.91e-07  7.74e+03  4567s
  30  -2.83140263e+07  1.04237120e+10  2.57e-01 2.28e-07  6.03e+03  4623s
  31  -2.73124161e+07  8.18091164e+09  2.08e-01 2.01e-07  4.73e+03  4680s
  32  -2.60499131e+07  6.16161826e+09  1.58e-01 1.74e-07  3.56e+03  4735s
  33  -2.40743868e+07  4.48919215e+09  9.37e-02 1.80e-07  2.57e+03  4793s
  34  -2.22737024e+07  2.56436719e+09  6.37e-02 1.92e-07  1.49e+03  4848s
  35  -1.82361576e+07  1.50218991e+09  1.80e-02 1.94e-07  8.51e+02  4906s
  36  -1.57373412e+07  1.42421903e+09  1.38e-02 2.65e-07  8.01e+02  4961s
  37  -1.17196292e+07  7.40658481e+08  8.33e-03 2.81e-07  4.20e+02  5020s
  38  -9.57604559e+06  5.65852604e+08  6.39e-03 2.57e-07  3.22e+02  5076s
  39  -7.18701645e+06  3.60375956e+08  4.55e-03 2.52e-07  2.06e+02  5132s
  40  -4.48263665e+06  2.81899435e+08  2.86e-03 2.76e-07  1.60e+02  5191s
  41  -2.40797025e+06  2.22084374e+08  2.20e-03 2.49e-07  1.25e+02  5249s
  42  -2.36176047e+05  2.01485849e+08  1.63e-03 2.82e-07  1.12e+02  5305s
  43   2.72535332e+06  1.49104940e+08  5.99e-04 2.75e-07  8.03e+01  5367s
  44   4.49258415e+06  1.00985893e+08  4.23e-04 2.56e-07  5.30e+01  5426s
  45   5.50746440e+06  6.55428519e+07  3.13e-04 3.01e-07  3.31e+01  5482s
  46   7.12798789e+06  4.88042488e+07  1.63e-04 2.56e-07  2.29e+01  5541s
  47   7.53877248e+06  4.06720847e+07  1.38e-04 2.54e-07  1.82e+01  5596s
  48   7.95597550e+06  3.74423923e+07  1.19e-04 3.22e-07  1.62e+01  5653s
  49   8.13490098e+06  3.52566376e+07  1.12e-04 3.91e-07  1.49e+01  5709s
  50   8.59612665e+06  3.07433806e+07  8.83e-05 3.47e-07  1.22e+01  5767s
  51   9.00791627e+06  2.72105778e+07  7.52e-05 3.81e-07  1.00e+01  5827s
  52   9.25459101e+06  2.48610798e+07  6.69e-05 4.00e-07  8.59e+00  5885s
  53   9.54283626e+06  2.24360110e+07  5.62e-05 3.37e-07  7.10e+00  5943s
  54   9.96866822e+06  2.12927881e+07  4.11e-05 4.02e-07  6.22e+00  6001s
  55   1.01066551e+07  1.97959619e+07  3.69e-05 4.02e-07  5.33e+00  6058s
  56   1.02376773e+07  1.92347510e+07  3.40e-05 4.02e-07  4.95e+00  6114s
  57   1.03973758e+07  1.86669591e+07  3.10e-05 4.05e-07  4.55e+00  6171s
  58   1.05110305e+07  1.83131854e+07  2.93e-05 3.95e-07  4.29e+00  6227s
  59   1.07902475e+07  1.74908595e+07  2.51e-05 4.28e-07  3.69e+00  6282s
  60   1.09994422e+07  1.65036601e+07  2.23e-05 3.93e-07  3.03e+00  6338s
  61   1.12561527e+07  1.63002282e+07  1.89e-05 4.05e-07  2.78e+00  6392s
  62   1.13912936e+07  1.60691287e+07  1.71e-05 4.12e-07  2.57e+00  6447s
  63   1.15012357e+07  1.54399898e+07  1.57e-05 8.93e-04  2.17e+00  6503s
  64   1.16422059e+07  1.49863262e+07  1.39e-05 9.18e-04  1.84e+00  6560s
  65   1.20955742e+07  1.42899261e+07  8.26e-06 8.50e-04  1.21e+00  6617s
  66   1.22360926e+07  1.40693808e+07  6.56e-06 8.45e-04  1.01e+00  6671s
  67   1.23221805e+07  1.36734286e+07  5.54e-06 6.60e-04  7.45e-01  6728s
  68   1.24414690e+07  1.34179118e+07  4.10e-06 9.16e-04  5.40e-01  6784s
  69   1.25487950e+07  1.32920741e+07  2.84e-06 1.17e-03  4.10e-01  6840s
  70   1.26451820e+07  1.31771697e+07  9.29e-06 1.29e-03  2.93e-01  6895s
  71   1.26690185e+07  1.30507094e+07  7.39e-06 9.97e-04  2.11e-01  6952s
  72   1.26815888e+07  1.30022889e+07  6.62e-06 8.85e-04  1.78e-01  7010s
  73   1.27141633e+07  1.29341047e+07  4.67e-06 9.96e-04  1.22e-01  7065s
  74   1.27271352e+07  1.29232528e+07  3.84e-06 1.20e-03  1.09e-01  7120s
  75   1.27425324e+07  1.28906605e+07  2.97e-06 9.88e-04  8.21e-02  7176s
  76   1.27508280e+07  1.28592496e+07  3.83e-06 7.19e-04  6.04e-02  7232s
  77   1.27597008e+07  1.28482803e+07  2.98e-06 9.02e-04  4.93e-02  7288s
  78   1.27697210e+07  1.28296837e+07  2.06e-06 6.57e-04  3.34e-02  7343s
  79   1.27802196e+07  1.28082821e+07  1.19e-06 5.83e-04  1.58e-02  7400s
  80   1.27851245e+07  1.28054579e+07  7.11e-07 8.09e-04  1.13e-02  7455s
  81   1.27880675e+07  1.28009122e+07  4.22e-07 6.38e-04  7.16e-03  7510s
  82   1.27896058e+07  1.27992817e+07  2.85e-07 8.35e-04  5.38e-03  7565s
  83   1.27910579e+07  1.27949826e+07  1.43e-07 6.80e-04  2.20e-03  7621s
  84   1.27918279e+07  1.27942533e+07  6.51e-08 7.15e-04  1.35e-03  7677s
  85   1.27919444e+07  1.27934077e+07  5.38e-08 7.05e-04  8.20e-04  7731s
  86   1.27922116e+07  1.27930053e+07  2.74e-08 6.72e-04  4.45e-04  7789s
  87   1.27922335e+07  1.27926997e+07  2.54e-08 5.96e-04  2.66e-04  7843s
  88   1.27924276e+07  1.27926238e+07  6.62e-09 7.34e-04  1.10e-04  7899s
  89   1.27924675e+07  1.27925555e+07  2.07e-08 6.28e-04  4.93e-05  7953s
  90   1.27924889e+07  1.27925083e+07  5.52e-08 5.28e-04  1.10e-05  8007s
  91   1.27924953e+07  1.27924968e+07  2.59e-07 4.76e-04  8.99e-07  8060s
  92   1.27924953e+07  1.27924968e+07  2.00e-05 7.54e-04  8.96e-07  8114s
  93   1.27924953e+07  1.27924968e+07  2.03e-05 9.13e-04  9.05e-07  8166s
  94   1.27924953e+07  1.27924969e+07  2.03e-05 1.10e-03  9.16e-07  8220s
  95   1.27924953e+07  1.27924969e+07  2.04e-05 1.50e-03  9.22e-07  8274s
  96   1.27924953e+07  1.27924969e+07  2.04e-05 1.27e-03  9.29e-07  8330s
  97   1.27924953e+07  1.27924969e+07  2.04e-05 1.47e-03  9.33e-07  8386s
  98   1.27924952e+07  1.27924969e+07  1.98e-05 1.31e-03  9.41e-07  8442s
  99   1.27924955e+07  1.27924968e+07  1.46e-05 8.00e-04  7.16e-07  8497s
 100   1.27924874e+07  1.27924968e+07  1.51e-05 7.35e-04  6.52e-07  8551s
 101   1.27924967e+07  1.27924967e+07  7.68e-08 4.67e-04  1.34e-09  8609s

Barrier solved model in 101 iterations and 8609.04 seconds
Optimal objective 1.27924967e+07


Root crossover log...

   70630 DPushes remaining with DInf 0.0000000e+00              8610s
    5328 DPushes remaining with DInf 1.9073486e-05              8610s
     129 DPushes remaining with DInf 6.5791735e-04              8616s
       0 DPushes remaining with DInf 3.0230642e+12              8619s

     139 PPushes remaining with PInf 0.0000000e+00              8619s
       0 PPushes remaining with PInf 6.0019119e-03              8619s

  Push phase complete: Pinf 6.0019119e-03, Dinf 1.7982788e+04   8619s


Root simplex log...

Iteration    Objective       Primal Inf.    Dual Inf.      Time
   57889    1.2792497e+07   0.000000e+00   1.798279e+04   8619s
   58201    1.2792497e+07   0.000000e+00   1.751906e+08   8621s
   58981    1.2792498e+07   0.000000e+00   3.790934e+09   8625s
   59761    1.2792499e+07   0.000000e+00   4.585125e+09   8631s
   60697    1.2792523e+07   0.000000e+00   3.124423e+10   8636s
   61789    1.2792542e+07   0.000000e+00   4.044476e+09   8640s
   63193    1.2792773e+07   0.000000e+00   2.590873e+09   8645s
   64597    1.2793018e+07   0.000000e+00   1.113935e+09   8650s
   66001    1.2793231e+07   0.000000e+00   4.122589e+09   8655s
   67565    1.2793391e+07   0.000000e+00   2.257592e+09   8661s
   68983    1.2793488e+07   0.000000e+00   2.960202e+09   8665s
   70387    1.2793563e+07   0.000000e+00   2.534092e+10   8670s
   71791    1.2793596e+07   0.000000e+00   2.682864e+09   8675s
   73351    1.2793640e+07   0.000000e+00   1.001552e+09   8680s
   74911    1.2793690e+07   0.000000e+00   5.840486e+09   8686s
   76471    1.2793868e+07   0.000000e+00   1.120797e+09   8691s
   77719    1.2793933e+07   0.000000e+00   2.918446e+09   8695s
   78811    1.2793974e+07   0.000000e+00   6.139917e+08   8700s
   80215    1.2794018e+07   0.000000e+00   2.278100e+09   8705s
   81463    1.2794055e+07   0.000000e+00   6.374525e+11   8710s
   82867    1.2794136e+07   0.000000e+00   2.244605e+09   8715s
   84115    1.2794158e+07   0.000000e+00   6.207328e+08   8721s
   85051    1.2794180e+07   0.000000e+00   2.348162e+09   8725s
   86455    1.2794212e+07   0.000000e+00   1.986980e+09   8730s
   87859    1.2794227e+07   0.000000e+00   7.294304e+08   8735s
   89107    1.2794281e+07   0.000000e+00   1.413140e+09   8740s
   90667    1.2794343e+07   0.000000e+00   1.099418e+09   8745s
   92227    1.2794363e+07   0.000000e+00   8.111738e+08   8751s
   93475    1.2794370e+07   0.000000e+00   5.637775e+08   8755s
   94879    1.2794384e+07   0.000000e+00   8.461029e+08   8760s
   96283    1.2794390e+07   0.000000e+00   1.556746e+09   8765s
   97687    1.2794394e+07   0.000000e+00   1.642456e+09   8770s
   99091    1.2794398e+07   0.000000e+00   6.189581e+08   8775s
  100339    1.2794407e+07   0.000000e+00   5.682618e+08   8780s
  101743    1.2794424e+07   0.000000e+00   8.541133e+08   8785s
  102991    1.2794454e+07   0.000000e+00   3.847473e+08   8790s
  104239    1.2794478e+07   0.000000e+00   1.181192e+09   8795s
  105331    1.2794496e+07   0.000000e+00   9.608609e+08   8800s
  106579    1.2794518e+07   0.000000e+00   7.012562e+08   8806s
  107671    1.2794538e+07   0.000000e+00   8.421153e+08   8810s
  108919    1.2794571e+07   0.000000e+00   1.292227e+09   8816s
  110011    1.2794577e+07   0.000000e+00   3.982242e+09   8821s
  111103    1.2794582e+07   0.000000e+00   5.291931e+08   8825s
  112351    1.2794584e+07   0.000000e+00   1.365083e+09   8830s
  113755    1.2794634e+07   0.000000e+00   1.804694e+09   8835s
  115003    1.2794670e+07   0.000000e+00   5.187650e+08   8840s
  116407    1.2794698e+07   0.000000e+00   9.994671e+08   8845s
  117811    1.2794722e+07   0.000000e+00   7.392837e+08   8850s
  119059    1.2794741e+07   0.000000e+00   6.780842e+08   8855s
  120463    1.2794744e+07   0.000000e+00   6.559800e+08   8860s
  121867    1.2794767e+07   0.000000e+00   3.899624e+08   8865s
  123115    1.2794779e+07   0.000000e+00   3.758657e+08   8870s
  124519    1.2794789e+07   0.000000e+00   4.542456e+09   8875s
  125923    1.2794830e+07   0.000000e+00   4.390094e+08   8881s
  127015    1.2794847e+07   0.000000e+00   4.492448e+09   8885s
  128263    1.2794859e+07   0.000000e+00   6.713326e+09   8890s
  129511    1.2794869e+07   0.000000e+00   2.020067e+09   8896s
  130759    1.2794890e+07   0.000000e+00   8.224062e+08   8901s
  132007    1.2794899e+07   0.000000e+00   3.049591e+08   8905s
  133411    1.2794907e+07   0.000000e+00   2.668256e+09   8910s
  134815    1.2794917e+07   0.000000e+00   3.845629e+08   8915s
  136375    1.2794948e+07   0.000000e+00   3.183659e+09   8920s
  137467    1.2794950e+07   0.000000e+00   1.509458e+10   8925s
  138715    1.2794955e+07   0.000000e+00   3.684434e+09   8930s
  139807    1.2794961e+07   0.000000e+00   4.964713e+08   8936s
  140743    1.2794978e+07   0.000000e+00   1.750040e+09   8940s
  141835    1.2794985e+07   0.000000e+00   1.165799e+09   8945s
  143083    1.2794989e+07   0.000000e+00   3.817110e+08   8950s
  144487    1.2794994e+07   0.000000e+00   8.542184e+08   8955s
  145891    1.2794998e+07   0.000000e+00   3.165133e+09   8960s
  147139    1.2795005e+07   0.000000e+00   4.043586e+08   8966s
  148543    1.2795012e+07   0.000000e+00   1.087585e+09   8971s
  149791    1.2795027e+07   0.000000e+00   3.756408e+08   8975s
  151351    1.2795036e+07   0.000000e+00   1.306074e+09   8981s
  152443    1.2795038e+07   0.000000e+00   4.900581e+08   8985s
  153847    1.2795047e+07   0.000000e+00   5.202884e+08   8990s
  155095    1.2795063e+07   0.000000e+00   7.935737e+08   8995s
  156499    1.2795072e+07   0.000000e+00   6.660618e+08   9001s
  157747    1.2795076e+07   0.000000e+00   1.024124e+09   9006s
  158995    1.2795085e+07   0.000000e+00   1.107401e+09   9010s
  160243    1.2795093e+07   0.000000e+00   1.279235e+09   9015s
  161491    1.2795100e+07   0.000000e+00   4.243241e+09   9020s
  162739    1.2795104e+07   0.000000e+00   1.086851e+09   9026s
  163987    1.2795125e+07   0.000000e+00   3.818328e+08   9031s
  165235    1.2795131e+07   0.000000e+00   4.660675e+08   9036s
  166483    1.2795133e+07   0.000000e+00   7.154201e+08   9040s
  167887    1.2795154e+07   0.000000e+00   1.808470e+08   9045s
  169291    1.2795156e+07   0.000000e+00   6.107117e+08   9050s
  170695    1.2795158e+07   0.000000e+00   2.305555e+09   9056s
  171475    1.2795160e+07   0.000000e+00   1.092730e+09   9060s
  172411    1.2795165e+07   0.000000e+00   3.399708e+08   9065s
  174283    1.2795179e+07   0.000000e+00   7.668792e+08   9070s
  175999    1.2795202e+07   0.000000e+00   1.857923e+09   9075s
  177871    1.2795207e+07   0.000000e+00   6.844943e+08   9080s
  179431    1.2795226e+07   0.000000e+00   8.567292e+08   9085s
  181147    1.2795238e+07   0.000000e+00   5.181973e+09   9090s
  182863    1.2795243e+07   0.000000e+00   2.416587e+08   9095s
  184423    1.2795244e+07   0.000000e+00   8.631873e+09   9100s
  185671    1.2795245e+07   0.000000e+00   3.615935e+08   9105s
  187231    1.2795253e+07   0.000000e+00   6.422769e+08   9110s
  188947    1.2795257e+07   0.000000e+00   3.548839e+08   9115s
  190663    1.2795258e+07   0.000000e+00   2.867255e+08   9120s
  192223    1.2795267e+07   0.000000e+00   1.104200e+09   9125s
  193939    1.2795269e+07   0.000000e+00   7.631350e+08   9130s
  195187    1.2795276e+07   0.000000e+00   1.646305e+09   9135s
  196123    1.2795276e+07   0.000000e+00   5.390941e+08   9140s
  197683    1.2795280e+07   0.000000e+00   4.720287e+09   9145s
  199087    1.2795293e+07   0.000000e+00   2.504289e+08   9150s
  200647    1.2795295e+07   0.000000e+00   1.618321e+08   9155s
  202207    1.2795297e+07   0.000000e+00   4.167362e+09   9160s
  203299    1.2795303e+07   0.000000e+00   5.065525e+08   9165s
  204859    1.2795323e+07   0.000000e+00   4.622735e+08   9170s
  206419    1.2795327e+07   0.000000e+00   9.051635e+08   9175s
  207823    1.2795332e+07   0.000000e+00   2.471895e+08   9180s
  208915    1.2795336e+07   0.000000e+00   1.634762e+10   9185s
  210319    1.2795340e+07   0.000000e+00   6.365191e+08   9191s
  211567    1.2795342e+07   0.000000e+00   3.028093e+08   9195s
  212971    1.2795348e+07   0.000000e+00   2.934787e+09   9200s
  214375    1.2795354e+07   0.000000e+00   7.770414e+08   9205s
  215623    1.2795358e+07   0.000000e+00   1.875994e+08   9210s
  217183    1.2795361e+07   0.000000e+00   3.787969e+08   9215s
  218743    1.2795368e+07   0.000000e+00   1.986015e+08   9220s
  220459    1.2795377e+07   0.000000e+00   4.738418e+09   9225s
  221551    1.2795379e+07   0.000000e+00   4.863462e+08   9230s
  222955    1.2795382e+07   0.000000e+00   1.393626e+09   9235s
  224203    1.2795388e+07   0.000000e+00   2.356647e+08   9240s
  225139    1.2795390e+07   0.000000e+00   7.490651e+08   9245s
  226231    1.2795393e+07   0.000000e+00   1.978096e+08   9250s
  227167    1.2795397e+07   0.000000e+00   1.288820e+09   9255s
  228727    1.2795402e+07   0.000000e+00   6.609469e+08   9260s
  230131    1.2795410e+07   0.000000e+00   9.667937e+08   9265s
  231379    1.2795413e+07   0.000000e+00   8.835028e+08   9270s
  232627    1.2795417e+07   0.000000e+00   2.727757e+08   9275s
  234031    1.2795419e+07   0.000000e+00   1.564758e+08   9280s
  235435    1.2795420e+07   0.000000e+00   5.982265e+08   9286s
  236371    1.2795422e+07   0.000000e+00   2.015078e+08   9291s
  237307    1.2795428e+07   0.000000e+00   8.133102e+08   9295s
  238555    1.2795462e+07   0.000000e+00   6.704456e+08   9300s
  239959    1.2795478e+07   0.000000e+00   1.898439e+09   9305s
  241363    1.2795482e+07   0.000000e+00   3.323885e+08   9310s
  242767    1.2795490e+07   0.000000e+00   6.184866e+08   9316s
  243703    1.2795496e+07   0.000000e+00   2.831329e+08   9320s
  245107    1.2795502e+07   0.000000e+00   8.669802e+08   9326s
  246043    1.2795505e+07   0.000000e+00   3.302114e+08   9331s
  246823    1.2795507e+07   0.000000e+00   2.154935e+08   9335s
  247915    1.2795509e+07   0.000000e+00   1.936062e+08   9341s
  249007    1.2795521e+07   0.000000e+00   3.569748e+08   9345s
  250099    1.2795523e+07   0.000000e+00   6.010477e+08   9350s
  251035    1.2795536e+07   0.000000e+00   9.165821e+09   9355s
  251971    1.2795608e+07   0.000000e+00   1.767566e+10   9360s
  253063    1.2795650e+07   0.000000e+00   2.158313e+08   9365s
  254155    1.2795656e+07   0.000000e+00   2.051512e+09   9370s
  255247    1.2795663e+07   0.000000e+00   1.026885e+09   9376s
  256027    1.2795664e+07   0.000000e+00   8.941374e+08   9381s
  257119    1.2795667e+07   0.000000e+00   3.723334e+08   9385s
  258055    1.2795679e+07   0.000000e+00   1.007368e+09   9391s
  258991    1.2795680e+07   0.000000e+00   5.981665e+08   9395s
  259927    1.2795693e+07   0.000000e+00   1.238819e+09   9400s
  261331    1.2795698e+07   0.000000e+00   1.764915e+08   9406s
  262267    1.2795700e+07   0.000000e+00   5.682889e+08   9410s
  263671    1.2795710e+07   0.000000e+00   5.422654e+08   9416s
  264763    1.2795721e+07   0.000000e+00   2.207557e+08   9420s
  266011    1.2795728e+07   0.000000e+00   3.711810e+08   9426s
  267103    1.2795741e+07   0.000000e+00   2.549069e+09   9430s
  268195    1.2795747e+07   0.000000e+00   4.040386e+08   9435s
  269443    1.2795751e+07   0.000000e+00   7.487467e+08   9440s
  270535    1.2795754e+07   0.000000e+00   1.218840e+08   9445s
  271783    1.2795761e+07   0.000000e+00   6.149052e+08   9451s
  272875    1.2795769e+07   0.000000e+00   4.020750e+08   9456s
  273811    1.2795770e+07   0.000000e+00   4.896971e+10   9460s
  274591    1.2795790e+07   0.000000e+00   3.669415e+08   9465s
  275527    1.2795793e+07   0.000000e+00   4.160239e+08   9470s
  276463    1.2795824e+07   0.000000e+00   1.339711e+11   9475s
  277555    1.2795837e+07   0.000000e+00   3.089092e+10   9480s
  278647    1.2795840e+07   0.000000e+00   2.834319e+08   9485s
  279739    1.2795855e+07   0.000000e+00   2.701311e+08   9490s
  280831    1.2795857e+07   0.000000e+00   1.629775e+09   9496s
  281455    1.2795860e+07   0.000000e+00   1.635752e+09   9500s
  282235    1.2795862e+07   0.000000e+00   2.436354e+08   9506s
  283015    1.2795863e+07   0.000000e+00   4.220354e+08   9510s
  284107    1.2795868e+07   0.000000e+00   1.540089e+09   9515s
  285199    1.2795870e+07   0.000000e+00   6.057924e+09   9520s
  286447    1.2795892e+07   0.000000e+00   2.159533e+09   9525s
  287695    1.2795894e+07   0.000000e+00   8.149193e+08   9530s
  288943    1.2795911e+07   0.000000e+00   1.584831e+10   9535s
  290191    1.2795931e+07   0.000000e+00   3.460708e+08   9541s
  290971    1.2795934e+07   0.000000e+00   3.846525e+08   9545s
  291751    1.2795940e+07   0.000000e+00   6.747277e+08   9550s
  292531    1.2795941e+07   0.000000e+00   2.060526e+08   9555s
  293623    1.2795953e+07   0.000000e+00   1.517260e+09   9560s
  294871    1.2795965e+07   0.000000e+00   2.097630e+09   9566s
  296119    1.2796055e+07   0.000000e+00   3.662818e+09   9570s
  297211    1.2796057e+07   0.000000e+00   5.286409e+08   9576s
  298303    1.2796058e+07   0.000000e+00   3.144279e+08   9580s
  299707    1.2796063e+07   0.000000e+00   3.252122e+08   9585s
  301111    1.2796068e+07   0.000000e+00   5.551532e+08   9591s
  302359    1.2796071e+07   0.000000e+00   4.032911e+08   9595s
  303607    1.2796072e+07   0.000000e+00   1.575177e+08   9600s
  304855    1.2796074e+07   0.000000e+00   2.766662e+09   9606s
  306103    1.2796077e+07   0.000000e+00   1.883334e+08   9610s
  307351    1.2796078e+07   0.000000e+00   3.574812e+08   9616s
  308443    1.2796079e+07   0.000000e+00   2.051295e+09   9620s
  309691    1.2796085e+07   0.000000e+00   8.619293e+08   9625s
  310783    1.2796086e+07   0.000000e+00   6.401630e+08   9630s
  311875    1.2796088e+07   0.000000e+00   2.559865e+08   9635s
  312811    1.2796094e+07   0.000000e+00   3.657601e+08   9640s
  313591    1.2796094e+07   0.000000e+00   6.639329e+08   9645s
  314839    1.2796096e+07   0.000000e+00   2.111573e+09   9650s
  316087    1.2796099e+07   0.000000e+00   2.227307e+08   9655s
  317023    1.2796102e+07   0.000000e+00   2.694476e+08   9660s
  318115    1.2796104e+07   0.000000e+00   1.603015e+08   9666s
  319363    1.2796111e+07   0.000000e+00   1.922180e+08   9671s
  320299    1.2796112e+07   0.000000e+00   4.205699e+09   9676s
  321079    1.2796112e+07   0.000000e+00   2.486891e+08   9681s
  322015    1.2796113e+07   0.000000e+00   2.665759e+08   9685s
  323107    1.2796116e+07   0.000000e+00   3.677695e+08   9691s
  323887    1.2796122e+07   0.000000e+00   1.732867e+08   9695s
  324979    1.2796124e+07   0.000000e+00   1.775813e+08   9700s
  326071    1.2796126e+07   0.000000e+00   1.312940e+09   9706s
  327007    1.2796129e+07   0.000000e+00   8.715302e+07   9710s
  328099    1.2796174e+07   0.000000e+00   6.082272e+08   9716s
  329191    1.2796179e+07   0.000000e+00   1.213110e+09   9721s
  330127    1.2796181e+07   0.000000e+00   2.438418e+08   9725s
  331219    1.2796182e+07   0.000000e+00   3.032725e+08   9731s
  331843    1.2796182e+07   0.000000e+00   3.724147e+08   9735s
  333091    1.2796186e+07   0.000000e+00   1.272717e+08   9740s
  334339    1.2796202e+07   0.000000e+00   1.605643e+09   9745s
  335275    1.2796203e+07   0.000000e+00   1.299512e+09   9751s
  335899    1.2796204e+07   0.000000e+00   2.887287e+08   9756s
  336523    1.2796207e+07   0.000000e+00   3.020310e+09   9760s
  337303    1.2796208e+07   0.000000e+00   3.248089e+08   9766s
  338083    1.2796209e+07   0.000000e+00   8.079138e+08   9770s
  339331    1.2796215e+07   0.000000e+00   3.204519e+08   9775s
  340111    1.2796216e+07   0.000000e+00   7.430651e+07   9780s
  341359    1.2796220e+07   0.000000e+00   1.110513e+08   9786s
  342295    1.2796223e+07   0.000000e+00   9.384780e+07   9791s
  343231    1.2796224e+07   0.000000e+00   1.247871e+08   9796s
  344011    1.2796233e+07   0.000000e+00   7.677382e+08   9800s
  345103    1.2796236e+07   0.000000e+00   2.933436e+08   9805s
  346195    1.2796245e+07   0.000000e+00   1.143275e+09   9810s
  347131    1.2796247e+07   0.000000e+00   3.137781e+08   9816s
  347911    1.2796249e+07   0.000000e+00   8.268149e+07   9821s
  348691    1.2796250e+07   0.000000e+00   1.983475e+08   9825s
  349471    1.2796251e+07   0.000000e+00   2.985077e+08   9831s
  350563    1.2796256e+07   0.000000e+00   7.761967e+08   9835s
  351499    1.2796257e+07   0.000000e+00   1.148830e+09   9840s
  352747    1.2796258e+07   0.000000e+00   3.186234e+09   9845s
  353995    1.2796264e+07   0.000000e+00   1.305611e+08   9850s
  355087    1.2796264e+07   0.000000e+00   2.987919e+09   9856s
  356023    1.2796267e+07   0.000000e+00   1.661830e+08   9860s
  357271    1.2796268e+07   0.000000e+00   2.369495e+09   9865s
  358519    1.2796268e+07   0.000000e+00   3.224477e+08   9871s
  359299    1.2796269e+07   0.000000e+00   3.139698e+08   9876s
  359923    1.2796269e+07   0.000000e+00   8.972126e+08   9880s
  360703    1.2796269e+07   0.000000e+00   2.188189e+09   9885s
  361951    1.2796271e+07   0.000000e+00   3.136292e+10   9891s
  362731    1.2796272e+07   0.000000e+00   8.011222e+07   9895s
  363511    1.2796273e+07   0.000000e+00   1.607617e+08   9900s
  364291    1.2796274e+07   0.000000e+00   8.631981e+07   9905s
  365227    1.2796277e+07   0.000000e+00   2.216116e+08   9910s
  366007    1.2796278e+07   0.000000e+00   2.696138e+08   9915s
  367099    1.2796280e+07   0.000000e+00   4.881549e+09   9921s
  367879    1.2796280e+07   0.000000e+00   1.163590e+08   9926s
  368659    1.2796281e+07   0.000000e+00   9.850851e+09   9931s
  369595    1.2796281e+07   0.000000e+00   1.416516e+09   9935s
  370375    1.2796282e+07   0.000000e+00   2.058605e+08   9941s
  371155    1.2796282e+07   0.000000e+00   1.473049e+08   9945s
  372091    1.2796285e+07   0.000000e+00   3.052135e+10   9950s
  372871    1.2796288e+07   0.000000e+00   1.241544e+08   9955s
  373963    1.2796288e+07   0.000000e+00   1.217076e+08   9961s
  374899    1.2796295e+07   0.000000e+00   7.610819e+10   9965s
  375679    1.2796299e+07   0.000000e+00   1.705518e+08   9970s
  376615    1.2796300e+07   0.000000e+00   9.391960e+10   9975s
  377395    1.2796303e+07   0.000000e+00   2.915938e+08   9981s
  378175    1.2796303e+07   0.000000e+00   1.200813e+08   9986s
  378955    1.2796305e+07   0.000000e+00   6.145349e+09   9990s
  379735    1.2796307e+07   0.000000e+00   1.343587e+09   9995s
  380671    1.2796308e+07   0.000000e+00   2.231152e+08  10001s
  381451    1.2796309e+07   0.000000e+00   2.686526e+09  10005s
  382387    1.2796310e+07   0.000000e+00   7.175391e+08  10010s
  383167    1.2796313e+07   0.000000e+00   4.224327e+08  10016s
  383947    1.2796313e+07   0.000000e+00   2.415675e+09  10020s
  384727    1.2796314e+07   0.000000e+00   7.098836e+07  10025s
  385507    1.2796318e+07   0.000000e+00   1.307290e+08  10030s
  386287    1.2796318e+07   0.000000e+00   8.302279e+08  10035s
  387223    1.2796323e+07   0.000000e+00   3.323758e+09  10041s
  387847    1.2796324e+07   0.000000e+00   2.737986e+08  10045s
  388783    1.2796325e+07   0.000000e+00   1.472839e+08  10050s
  389563    1.2796325e+07   0.000000e+00   3.623668e+08  10055s
  390343    1.2796326e+07   0.000000e+00   1.124450e+08  10060s
  391123    1.2796329e+07   0.000000e+00   1.542839e+09  10065s
  392059    1.2796330e+07   0.000000e+00   3.771009e+08  10070s
  392839    1.2796332e+07   0.000000e+00   1.365026e+08  10075s
  393619    1.2796334e+07   0.000000e+00   9.600083e+08  10080s
  394555    1.2796336e+07   0.000000e+00   9.488440e+08  10086s
  395179    1.2796336e+07   0.000000e+00   1.354609e+08  10090s
  396115    1.2796337e+07   0.000000e+00   5.051094e+08  10095s
  397051    1.2796337e+07   0.000000e+00   2.083562e+08  10101s
  397831    1.2796339e+07   0.000000e+00   1.523691e+08  10106s
  398767    1.2796340e+07   0.000000e+00   1.091914e+08  10111s
  399547    1.2796342e+07   0.000000e+00   8.726024e+07  10115s
  400639    1.2796345e+07   0.000000e+00   4.554601e+08  10121s
  401575    1.2796347e+07   0.000000e+00   1.794848e+08  10126s
  402511    1.2796349e+07   0.000000e+00   8.032684e+08  10131s
  403447    1.2796351e+07   0.000000e+00   3.080980e+08  10135s
  404539    1.2796353e+07   0.000000e+00   4.563785e+08  10141s
  405319    1.2796360e+07   0.000000e+00   3.610916e+08  10145s
  406255    1.2796361e+07   0.000000e+00   1.346853e+09  10150s
  407191    1.2796361e+07   0.000000e+00   1.480148e+08  10155s
  408127    1.2796362e+07   0.000000e+00   3.688640e+08  10160s
  409063    1.2796363e+07   0.000000e+00   3.705034e+08  10165s
  409999    1.2796364e+07   0.000000e+00   1.345156e+08  10171s
  410935    1.2796364e+07   0.000000e+00   2.624308e+09  10176s
  411715    1.2796366e+07   0.000000e+00   5.356438e+08  10181s
  412651    1.2796367e+07   0.000000e+00   1.091370e+09  10186s
  413587    1.2796368e+07   0.000000e+00   1.224218e+08  10191s
  414523    1.2796368e+07   0.000000e+00   1.454110e+08  10196s
  415303    1.2796368e+07   0.000000e+00   8.960959e+07  10200s
  416239    1.2796369e+07   0.000000e+00   1.151823e+08  10206s
  417175    1.2796369e+07   0.000000e+00   9.930208e+07  10210s
  418111    1.2796370e+07   0.000000e+00   1.393323e+08  10216s
  418891    1.2796370e+07   0.000000e+00   1.567564e+08  10220s
  419827    1.2796373e+07   0.000000e+00   2.993043e+09  10225s
  420763    1.2796379e+07   0.000000e+00   8.838246e+07  10230s
  421699    1.2796380e+07   0.000000e+00   4.178697e+10  10235s
  422635    1.2796387e+07   0.000000e+00   9.756585e+08  10241s
  423571    1.2796387e+07   0.000000e+00   7.228259e+07  10245s
  424351    1.2796388e+07   0.000000e+00   1.844398e+08  10250s
  425287    1.2796389e+07   0.000000e+00   5.266202e+10  10255s
  426379    1.2796391e+07   0.000000e+00   7.746363e+08  10261s
  427315    1.2796391e+07   0.000000e+00   7.452955e+07  10266s
  428251    1.2796393e+07   0.000000e+00   2.362293e+09  10271s
  429187    1.2796393e+07   0.000000e+00   6.460546e+08  10276s
  429967    1.2796393e+07   0.000000e+00   8.474661e+07  10280s
  430903    1.2796394e+07   0.000000e+00   2.881523e+08  10286s
  431839    1.2796395e+07   0.000000e+00   2.182498e+08  10291s
  432775    1.2796402e+07   0.000000e+00   6.598184e+07  10296s
  433555    1.2796403e+07   0.000000e+00   1.224396e+09  10300s
  434491    1.2796403e+07   0.000000e+00   1.229751e+08  10306s
  435271    1.2796404e+07   0.000000e+00   4.413185e+07  10310s
  436207    1.2796405e+07   0.000000e+00   1.757313e+08  10315s
  437143    1.2796414e+07   0.000000e+00   1.179908e+08  10321s
  437923    1.2796417e+07   0.000000e+00   3.476142e+08  10325s
  438859    1.2796418e+07   0.000000e+00   4.598579e+07  10330s
  439795    1.2796419e+07   0.000000e+00   1.384885e+08  10335s
  440731    1.2796420e+07   0.000000e+00   2.568382e+08  10340s
  441667    1.2796421e+07   0.000000e+00   1.641805e+08  10346s
  442603    1.2796421e+07   0.000000e+00   1.191876e+08  10351s
  443539    1.2796422e+07   0.000000e+00   5.713395e+09  10356s
  444319    1.2796423e+07   0.000000e+00   6.332066e+09  10360s
  445255    1.2796425e+07   0.000000e+00   4.639166e+10  10366s
  446191    1.2796426e+07   0.000000e+00   3.083637e+08  10370s
  447127    1.2796426e+07   0.000000e+00   9.095711e+07  10376s
  447907    1.2796429e+07   0.000000e+00   1.895099e+08  10380s
  448687    1.2796430e+07   0.000000e+00   2.608032e+08  10385s
  449467    1.2796430e+07   0.000000e+00   1.278292e+08  10390s
  450403    1.2796430e+07   0.000000e+00   6.521771e+07  10395s
  451339    1.2796431e+07   0.000000e+00   6.421547e+07  10400s
  452275    1.2796431e+07   0.000000e+00   3.220747e+08  10406s
  453055    1.2796431e+07   0.000000e+00   2.172081e+10  10410s
  453991    1.2796432e+07   0.000000e+00   1.098151e+08  10416s
  454771    1.2796433e+07   0.000000e+00   7.777121e+07  10420s
  455707    1.2796433e+07   0.000000e+00   2.281196e+08  10426s
  456487    1.2796433e+07   0.000000e+00   2.903820e+08  10430s
  457579    1.2796436e+07   0.000000e+00   1.752325e+08  10436s
  458359    1.2796436e+07   0.000000e+00   1.115726e+08  10440s
  459295    1.2796436e+07   0.000000e+00   8.720914e+07  10446s
  460231    1.2796437e+07   0.000000e+00   1.106862e+08  10451s
  461167    1.2796437e+07   0.000000e+00   1.349958e+08  10456s
  461791    1.2796437e+07   0.000000e+00   1.907943e+08  10460s
  462571    1.2796437e+07   0.000000e+00   5.034328e+08  10465s
  463507    1.2796437e+07   0.000000e+00   7.047556e+07  10471s
  464443    1.2796438e+07   0.000000e+00   1.382053e+08  10476s
  465223    1.2796439e+07   0.000000e+00   2.894087e+08  10481s
  466003    1.2796439e+07   0.000000e+00   4.128274e+07  10485s
  466939    1.2796440e+07   0.000000e+00   7.631061e+07  10490s
  467719    1.2796440e+07   0.000000e+00   8.349935e+07  10495s
  468655    1.2796441e+07   0.000000e+00   1.099481e+08  10501s
  469591    1.2796441e+07   0.000000e+00   4.814059e+07  10505s
  470527    1.2796444e+07   0.000000e+00   2.333783e+08  10510s
  471619    1.2796446e+07   0.000000e+00   3.224391e+08  10516s
  472555    1.2796450e+07   0.000000e+00   3.079400e+08  10521s
  473335    1.2796453e+07   0.000000e+00   5.166422e+08  10525s
  474271    1.2796454e+07   0.000000e+00   4.800445e+07  10531s
  475207    1.2796454e+07   0.000000e+00   5.363401e+07  10535s
  476143    1.2796455e+07   0.000000e+00   8.858987e+07  10540s
  477079    1.2796455e+07   0.000000e+00   1.062547e+08  10545s
  478171    1.2796456e+07   0.000000e+00   5.454867e+07  10551s
  479107    1.2796457e+07   0.000000e+00   1.502617e+08  10556s
  479887    1.2796457e+07   0.000000e+00   1.034368e+09  10561s
  480823    1.2796458e+07   0.000000e+00   5.662229e+07  10566s
  481759    1.2796459e+07   0.000000e+00   1.200738e+08  10570s
  482695    1.2796462e+07   0.000000e+00   9.529437e+07  10575s
  483631    1.2796463e+07   0.000000e+00   2.449292e+09  10580s
  484567    1.2796464e+07   0.000000e+00   2.587895e+09  10585s
  485503    1.2796466e+07   0.000000e+00   1.951877e+08  10590s
  486439    1.2796466e+07   0.000000e+00   1.487663e+08  10595s
  487375    1.2796467e+07   0.000000e+00   1.078400e+08  10600s
  488311    1.2796469e+07   0.000000e+00   3.823122e+09  10606s
  489247    1.2796469e+07   0.000000e+00   7.080547e+07  10611s
  490183    1.2796469e+07   0.000000e+00   9.060526e+08  10616s
  491119    1.2796470e+07   0.000000e+00   1.977040e+08  10621s
  492055    1.2796470e+07   0.000000e+00   6.501309e+08  10625s
  492991    1.2796472e+07   0.000000e+00   3.021748e+08  10631s
  493771    1.2796472e+07   0.000000e+00   6.121152e+08  10635s
  494707    1.2796472e+07   0.000000e+00   6.122734e+08  10640s
  495643    1.2796475e+07   0.000000e+00   7.847597e+10  10645s
  496579    1.2796481e+07   0.000000e+00   1.970124e+08  10651s
  497359    1.2796489e+07   0.000000e+00   7.153260e+07  10655s
  498451    1.2796492e+07   0.000000e+00   1.600278e+08  10660s
  499387    1.2796492e+07   0.000000e+00   2.313111e+08  10665s
  500167    1.2796493e+07   0.000000e+00   1.760899e+08  10670s
  501103    1.2796496e+07   0.000000e+00   1.539987e+10  10675s
  502039    1.2796496e+07   0.000000e+00   2.663488e+08  10681s
  502819    1.2796496e+07   0.000000e+00   7.191204e+07  10686s
  503599    1.2796497e+07   0.000000e+00   4.452213e+07  10690s
  504535    1.2796502e+07   0.000000e+00   8.599534e+08  10695s
  505315    1.2796503e+07   0.000000e+00   4.323803e+08  10700s
  506251    1.2796504e+07   0.000000e+00   3.525656e+07  10706s
  507187    1.2796506e+07   0.000000e+00   1.088382e+08  10710s
  508123    1.2796509e+07   0.000000e+00   2.114522e+08  10716s
  508903    1.2796510e+07   0.000000e+00   2.198996e+08  10720s
  509995    1.2796510e+07   0.000000e+00   6.942521e+08  10726s
  510775    1.2796510e+07   0.000000e+00   1.292120e+09  10730s
  511711    1.2796512e+07   0.000000e+00   5.822956e+07  10736s
  512647    1.2796513e+07   0.000000e+00   7.866116e+07  10740s
  513583    1.2796513e+07   0.000000e+00   3.448007e+10  10745s
  514519    1.2796514e+07   0.000000e+00   6.829950e+07  10751s
  515299    1.2796515e+07   0.000000e+00   2.624062e+08  10756s
  516235    1.2796515e+07   0.000000e+00   5.060421e+07  10761s
  517327    1.2796522e+07   0.000000e+00   6.496539e+07  10766s
  518107    1.2796523e+07   0.000000e+00   1.104660e+08  10770s
  518887    1.2796524e+07   0.000000e+00   4.216798e+08  10776s
  519823    1.2796525e+07   0.000000e+00   2.158491e+08  10781s
  520603    1.2796525e+07   0.000000e+00   4.834529e+08  10785s
  521539    1.2796526e+07   0.000000e+00   3.781464e+08  10791s
  522475    1.2796526e+07   0.000000e+00   1.151060e+08  10795s
  523567    1.2796526e+07   0.000000e+00   6.159436e+08  10800s
  524503    1.2796530e+07   0.000000e+00   8.076199e+07  10805s
  525595    1.2796533e+07   0.000000e+00   3.515706e+07  10810s
  526687    1.2796534e+07   0.000000e+00   1.221955e+08  10816s
  527467    1.2796534e+07   0.000000e+00   1.202246e+08  10820s
  528247    1.2796534e+07   0.000000e+00   2.176833e+08  10825s
  529183    1.2796534e+07   0.000000e+00   9.563153e+07  10830s
  530275    1.2796536e+07   0.000000e+00   1.293233e+08  10836s
  531055    1.2796537e+07   0.000000e+00   1.160147e+08  10840s
  531991    1.2796537e+07   0.000000e+00   2.035720e+08  10845s
  532771    1.2796537e+07   0.000000e+00   6.641033e+07  10850s
  533707    1.2796538e+07   0.000000e+00   9.271726e+08  10855s
  534487    1.2796539e+07   0.000000e+00   5.427835e+07  10860s
  535735    1.2796540e+07   0.000000e+00   4.480484e+07  10866s
  536671    1.2796541e+07   0.000000e+00   7.383829e+07  10871s
  537607    1.2796542e+07   0.000000e+00   9.102049e+07  10876s
  538387    1.2796544e+07   0.000000e+00   4.216340e+07  10880s
  539479    1.2796544e+07   0.000000e+00   1.882160e+08  10885s
  540571    1.2796545e+07   0.000000e+00   1.231611e+08  10891s
  541351    1.2796545e+07   0.000000e+00   9.292772e+07  10895s
  542287    1.2796546e+07   0.000000e+00   6.651265e+07  10900s
  543223    1.2796546e+07   0.000000e+00   9.344524e+07  10906s
  544003    1.2796546e+07   0.000000e+00   4.774179e+07  10910s
  545095    1.2796546e+07   0.000000e+00   1.267561e+08  10916s
  546031    1.2796546e+07   0.000000e+00   8.655683e+07  10920s
  546967    1.2796546e+07   0.000000e+00   4.190953e+08  10925s
  547903    1.2796547e+07   0.000000e+00   5.363305e+07  10931s
  548683    1.2796547e+07   0.000000e+00   7.177131e+07  10935s
  549619    1.2796547e+07   0.000000e+00   1.476687e+08  10940s
  550555    1.2796547e+07   0.000000e+00   5.640534e+07  10946s
  551491    1.2796547e+07   0.000000e+00   8.958010e+07  10950s
  552427    1.2796548e+07   0.000000e+00   5.107946e+08  10955s
  553363    1.2796548e+07   0.000000e+00   2.381241e+07  10960s
  554299    1.2796548e+07   0.000000e+00   6.125810e+07  10965s
  555235    1.2796548e+07   0.000000e+00   1.981326e+08  10971s
  556015    1.2796548e+07   0.000000e+00   8.307416e+07  10975s
  556951    1.2796548e+07   0.000000e+00   4.229047e+08  10981s
  557887    1.2796548e+07   0.000000e+00   1.861526e+07  10986s
  558823    1.2796549e+07   0.000000e+00   1.345320e+08  10991s
  559603    1.2796549e+07   0.000000e+00   5.079802e+07  10995s
  560539    1.2796549e+07   0.000000e+00   4.765876e+07  11000s
  561475    1.2796549e+07   0.000000e+00   1.861737e+08  11006s
  562411    1.2796550e+07   0.000000e+00   1.215112e+08  11011s
  563191    1.2796550e+07   0.000000e+00   3.533194e+07  11016s
  563971    1.2796550e+07   0.000000e+00   5.918361e+07  11021s
  564751    1.2796550e+07   0.000000e+00   2.271296e+07  11025s
  565687    1.2796550e+07   0.000000e+00   2.643861e+07  11030s
  566467    1.2796550e+07   0.000000e+00   7.533491e+07  11035s
  567403    1.2796550e+07   0.000000e+00   1.833417e+07  11041s
  568183    1.2796550e+07   0.000000e+00   5.587226e+07  11045s
  569119    1.2796551e+07   0.000000e+00   4.901660e+07  11051s
  569899    1.2796551e+07   0.000000e+00   1.690892e+07  11055s
  570835    1.2796551e+07   0.000000e+00   3.005459e+08  11061s
  571615    1.2796551e+07   0.000000e+00   1.408065e+08  11065s
  572395    1.2796551e+07   0.000000e+00   2.958304e+07  11070s
  573331    1.2796551e+07   0.000000e+00   3.502483e+07  11076s
  574111    1.2796551e+07   0.000000e+00   4.365964e+07  11080s
  574891    1.2796551e+07   0.000000e+00   1.780373e+07  11085s
  575827    1.2796551e+07   0.000000e+00   2.357978e+07  11090s
  576763    1.2796552e+07   0.000000e+00   3.392243e+07  11096s
  577543    1.2796552e+07   0.000000e+00   8.520438e+07  11100s
  578479    1.2796552e+07   0.000000e+00   2.042480e+07  11106s
  579259    1.2796552e+07   0.000000e+00   4.640010e+09  11110s
  580039    1.2796552e+07   0.000000e+00   4.263530e+07  11115s
  580975    1.2796552e+07   0.000000e+00   4.393420e+07  11121s
  581755    1.2796552e+07   0.000000e+00   5.304502e+07  11125s
  582535    1.2796553e+07   0.000000e+00   2.240994e+07  11130s
  583471    1.2796553e+07   0.000000e+00   2.534729e+07  11136s
  584251    1.2796553e+07   0.000000e+00   4.631995e+07  11140s
  585187    1.2796553e+07   0.000000e+00   3.867464e+07  11146s
  585967    1.2796554e+07   0.000000e+00   1.014606e+07  11150s
  586747    1.2796554e+07   0.000000e+00   1.680061e+07  11155s
  587683    1.2796554e+07   0.000000e+00   1.505019e+08  11161s
  588463    1.2796554e+07   0.000000e+00   1.441951e+09  11166s
  589243    1.2796554e+07   0.000000e+00   1.778014e+07  11170s
  590179    1.2796554e+07   0.000000e+00   1.894802e+07  11176s
  590959    1.2796554e+07   0.000000e+00   1.912029e+08  11180s
  591739    1.2796554e+07   0.000000e+00   3.747356e+07  11185s
  592675    1.2796554e+07   0.000000e+00   1.197054e+07  11190s
  593455    1.2796554e+07   0.000000e+00   9.275570e+07  11195s
  594235    1.2796554e+07   0.000000e+00   1.506828e+07  11200s
  595015    1.2796555e+07   0.000000e+00   1.051932e+09  11205s
  595951    1.2796555e+07   0.000000e+00   6.504445e+07  11211s
  596731    1.2796556e+07   0.000000e+00   7.671960e+07  11215s
  597667    1.2796556e+07   0.000000e+00   1.317799e+07  11221s
  598447    1.2796556e+07   0.000000e+00   4.215614e+07  11225s
  599383    1.2796556e+07   0.000000e+00   1.495636e+07  11231s
  600163    1.2796556e+07   0.000000e+00   1.547343e+08  11235s
  601099    1.2796556e+07   0.000000e+00   1.801694e+07  11240s
  602035    1.2796556e+07   0.000000e+00   2.827705e+07  11246s
  602815    1.2796556e+07   0.000000e+00   2.584461e+07  11250s
  603595    1.2796556e+07   0.000000e+00   4.760973e+07  11255s
  604531    1.2796556e+07   0.000000e+00   4.278047e+07  11260s
  605467    1.2796557e+07   0.000000e+00   4.302897e+07  11266s
  606247    1.2796557e+07   0.000000e+00   3.143927e+07  11271s
  607027    1.2796557e+07   0.000000e+00   9.547135e+06  11275s
  607963    1.2796557e+07   0.000000e+00   8.616456e+06  11281s
  608743    1.2796557e+07   0.000000e+00   1.344137e+07  11285s
  609679    1.2796557e+07   0.000000e+00   1.854718e+07  11291s
  610459    1.2796557e+07   0.000000e+00   2.609378e+07  11295s
  611239    1.2796557e+07   0.000000e+00   1.783965e+07  11300s
  612019    1.2796557e+07   0.000000e+00   7.109220e+06  11305s
  612799    1.2796557e+07   0.000000e+00   1.252900e+07  11310s
  613735    1.2796557e+07   0.000000e+00   4.231884e+07  11316s
  614515    1.2796557e+07   0.000000e+00   9.312238e+06  11320s
  615295    1.2796557e+07   0.000000e+00   2.151751e+07  11325s
  616075    1.2796557e+07   0.000000e+00   1.097604e+07  11330s
  617011    1.2796557e+07   0.000000e+00   7.961869e+06  11336s
  617791    1.2796557e+07   0.000000e+00   1.154780e+07  11340s
  618571    1.2796557e+07   0.000000e+00   7.457498e+06  11345s
  619507    1.2796558e+07   0.000000e+00   7.464019e+07  11351s
  620131    1.2796558e+07   0.000000e+00   1.936436e+07  11355s
  621067    1.2796558e+07   0.000000e+00   8.060836e+07  11361s
  621847    1.2796558e+07   0.000000e+00   9.818249e+06  11366s
  622627    1.2796558e+07   0.000000e+00   1.774388e+07  11371s
  623407    1.2796558e+07   0.000000e+00   1.527664e+07  11376s
  624187    1.2796558e+07   0.000000e+00   5.819687e+06  11380s
  624967    1.2796558e+07   0.000000e+00   1.712035e+07  11385s
  625747    1.2796558e+07   0.000000e+00   2.793001e+07  11390s
  626683    1.2796559e+07   0.000000e+00   4.342837e+07  11396s
  627463    1.2796559e+07   0.000000e+00   6.508966e+06  11400s
  628243    1.2796559e+07   0.000000e+00   8.420571e+06  11405s
  629179    1.2796559e+07   0.000000e+00   1.285149e+07  11411s
  629959    1.2796559e+07   0.000000e+00   7.579609e+06  11416s
  630739    1.2796559e+07   0.000000e+00   7.400113e+07  11421s
  631519    1.2796559e+07   0.000000e+00   1.826855e+07  11426s
  632299    1.2796559e+07   0.000000e+00   4.721555e+07  11430s
  633079    1.2796559e+07   0.000000e+00   7.268405e+06  11435s
  634015    1.2796559e+07   0.000000e+00   2.112703e+07  11441s
  634795    1.2796559e+07   0.000000e+00   1.606078e+07  11446s
  635575    1.2796559e+07   0.000000e+00   9.578782e+06  11450s
  636511    1.2796560e+07   0.000000e+00   3.878830e+07  11456s
  637291    1.2796560e+07   0.000000e+00   2.010267e+07  11461s
  638071    1.2796560e+07   0.000000e+00   2.328170e+07  11465s
  638851    1.2796560e+07   0.000000e+00   5.850429e+07  11470s
  639787    1.2796560e+07   0.000000e+00   2.664917e+07  11476s
  640567    1.2796560e+07   0.000000e+00   3.016655e+07  11481s
  641347    1.2796560e+07   0.000000e+00   2.287899e+07  11486s
  642127    1.2796560e+07   0.000000e+00   6.347056e+06  11491s
  642907    1.2796560e+07   0.000000e+00   2.819804e+07  11496s
  643687    1.2796560e+07   0.000000e+00   5.843546e+06  11501s
  644467    1.2796560e+07   0.000000e+00   8.638369e+06  11505s
  645247    1.2796560e+07   0.000000e+00   2.902580e+07  11511s
  646027    1.2796560e+07   0.000000e+00   5.166420e+06  11515s
  646807    1.2796560e+07   0.000000e+00   2.401822e+07  11520s
  647587    1.2796560e+07   0.000000e+00   5.279938e+06  11525s
  648523    1.2796561e+07   0.000000e+00   3.353533e+07  11531s
  649303    1.2796561e+07   0.000000e+00   4.765200e+06  11535s
  650083    1.2796561e+07   0.000000e+00   6.934687e+06  11540s
  651019    1.2796561e+07   0.000000e+00   6.348136e+06  11546s
  651799    1.2796561e+07   0.000000e+00   3.355181e+06  11550s
  652579    1.2796561e+07   0.000000e+00   4.348016e+06  11555s
  653515    1.2796561e+07   0.000000e+00   2.000038e+07  11561s
  654295    1.2796561e+07   0.000000e+00   7.932699e+06  11566s
  655075    1.2796561e+07   0.000000e+00   1.053289e+07  11571s
  655855    1.2796561e+07   0.000000e+00   5.527058e+06  11575s
  656635    1.2796561e+07   0.000000e+00   6.489128e+06  11580s
  657571    1.2796561e+07   0.000000e+00   8.685217e+06  11586s
  658351    1.2796561e+07   0.000000e+00   9.275275e+06  11591s
  659131    1.2796561e+07   0.000000e+00   7.307644e+06  11596s
  659911    1.2796561e+07   0.000000e+00   3.871720e+06  11600s
  660847    1.2796561e+07   0.000000e+00   4.610803e+07  11606s
  661627    1.2796561e+07   0.000000e+00   6.329706e+06  11611s
  662407    1.2796561e+07   0.000000e+00   3.495635e+06  11616s
  663187    1.2796561e+07   0.000000e+00   3.676741e+06  11620s
  663967    1.2796561e+07   0.000000e+00   6.145927e+06  11625s
  664747    1.2796561e+07   0.000000e+00   3.748522e+06  11630s
  665527    1.2796561e+07   0.000000e+00   8.823549e+06  11635s
  666307    1.2796561e+07   0.000000e+00   5.455190e+06  11640s
  667087    1.2796561e+07   0.000000e+00   3.935722e+06  11645s
  667867    1.2796561e+07   0.000000e+00   2.380686e+06  11650s
  668647    1.2796561e+07   0.000000e+00   4.226988e+06  11655s
  669427    1.2796561e+07   0.000000e+00   4.562007e+06  11660s
  670207    1.2796561e+07   0.000000e+00   2.197782e+07  11665s
  671143    1.2796561e+07   0.000000e+00   3.991891e+06  11671s
  671767    1.2796561e+07   0.000000e+00   5.697691e+06  11675s
  672703    1.2796561e+07   0.000000e+00   6.355508e+06  11681s
  673483    1.2796561e+07   0.000000e+00   4.458254e+06  11686s
  674263    1.2796561e+07   0.000000e+00   1.590590e+06  11691s
  674887    1.2796562e+07   0.000000e+00   1.025584e+08  11696s
  675667    1.2796562e+07   0.000000e+00   4.075991e+06  11700s
  676447    1.2796562e+07   0.000000e+00   1.989918e+06  11705s
  677383    1.2796562e+07   0.000000e+00   3.406886e+06  11711s
  678163    1.2796562e+07   0.000000e+00   1.948740e+06  11716s
  678943    1.2796562e+07   0.000000e+00   1.594291e+07  11721s
  679723    1.2796562e+07   0.000000e+00   1.613518e+06  11726s
  680503    1.2796562e+07   0.000000e+00   6.003047e+06  11731s
  681283    1.2796563e+07   0.000000e+00   9.190985e+06  11736s
  682063    1.2796563e+07   0.000000e+00   5.249346e+06  11740s
  682843    1.2796563e+07   0.000000e+00   3.170776e+06  11745s
  683623    1.2796563e+07   0.000000e+00   3.532565e+07  11750s
  684559    1.2796563e+07   0.000000e+00   1.263088e+07  11756s
  685339    1.2796563e+07   0.000000e+00   4.048269e+06  11761s
  685963    1.2796563e+07   0.000000e+00   5.655497e+06  11765s
  686743    1.2796563e+07   0.000000e+00   5.457811e+06  11770s
  687523    1.2796563e+07   0.000000e+00   1.450204e+06  11776s
  688303    1.2796563e+07   0.000000e+00   2.634000e+06  11781s
  688927    1.2796563e+07   0.000000e+00   4.859263e+06  11785s
  689707    1.2796563e+07   0.000000e+00   3.292431e+07  11790s
  690487    1.2796563e+07   0.000000e+00   2.470520e+06  11796s
  691267    1.2796563e+07   0.000000e+00   5.636884e+06  11801s
  692047    1.2796563e+07   0.000000e+00   1.424625e+06  11806s
  692827    1.2796563e+07   0.000000e+00   4.277926e+06  11811s
  693607    1.2796563e+07   0.000000e+00   2.210943e+06  11816s
  694387    1.2796563e+07   0.000000e+00   5.701138e+06  11821s
  695167    1.2796563e+07   0.000000e+00   5.949901e+06  11826s
  695947    1.2796564e+07   0.000000e+00   2.968490e+06  11830s
  696727    1.2796564e+07   0.000000e+00   3.104820e+06  11835s
  697507    1.2796564e+07   0.000000e+00   6.977888e+06  11840s
  698287    1.2796564e+07   0.000000e+00   1.933251e+06  11845s
  699067    1.2796564e+07   0.000000e+00   2.949614e+06  11850s
  699847    1.2796564e+07   0.000000e+00   2.544160e+06  11855s
  700783    1.2796564e+07   0.000000e+00   3.185820e+06  11861s
  701563    1.2796564e+07   0.000000e+00   1.295802e+06  11866s
  702187    1.2796564e+07   0.000000e+00   1.718248e+06  11870s
  702967    1.2796564e+07   0.000000e+00   2.070965e+06  11875s
  703747    1.2796564e+07   0.000000e+00   2.273598e+06  11880s
  704527    1.2796564e+07   0.000000e+00   1.281904e+06  11885s
  705307    1.2796564e+07   0.000000e+00   8.254190e+05  11890s
  706087    1.2796564e+07   0.000000e+00   1.396324e+06  11895s
  706867    1.2796564e+07   0.000000e+00   1.784745e+06  11900s
  707647    1.2796564e+07   0.000000e+00   1.362743e+06  11906s
  708427    1.2796564e+07   0.000000e+00   1.079066e+06  11911s
  709051    1.2796564e+07   0.000000e+00   1.064173e+07  11915s
  709831    1.2796564e+07   0.000000e+00   2.271259e+07  11920s
  710611    1.2796564e+07   0.000000e+00   1.288252e+07  11925s
  711391    1.2796564e+07   0.000000e+00   1.029345e+07  11930s
  712171    1.2796564e+07   0.000000e+00   1.996787e+08  11936s
  712795    1.2796564e+07   0.000000e+00   1.064421e+07  11940s
  713575    1.2796565e+07   0.000000e+00   2.830050e+07  11945s
  714355    1.2796565e+07   0.000000e+00   1.296723e+07  11950s
  715291    1.2796565e+07   0.000000e+00   2.549912e+07  11956s
  716071    1.2796565e+07   0.000000e+00   9.227158e+06  11961s
  716695    1.2796565e+07   0.000000e+00   8.787774e+06  11966s
  717475    1.2796565e+07   0.000000e+00   1.403956e+07  11970s
  718255    1.2796565e+07   0.000000e+00   4.818647e+06  11976s
  718879    1.2796565e+07   0.000000e+00   8.660559e+06  11980s
  719659    1.2796565e+07   0.000000e+00   4.911401e+06  11985s
  720439    1.2796565e+07   0.000000e+00   8.145746e+06  11990s
  721219    1.2796565e+07   0.000000e+00   6.770822e+06  11995s
  721999    1.2796565e+07   0.000000e+00   1.614767e+07  12000s
  722779    1.2796566e+07   0.000000e+00   8.198799e+06  12006s
  723403    1.2796566e+07   0.000000e+00   5.073595e+07  12010s
  724183    1.2796566e+07   0.000000e+00   3.509924e+07  12015s
  724963    1.2796566e+07   0.000000e+00   4.032760e+06  12021s
  725743    1.2796566e+07   0.000000e+00   6.814902e+06  12026s
  726523    1.2796566e+07   0.000000e+00   6.148001e+06  12031s
  727147    1.2796566e+07   0.000000e+00   1.263321e+07  12035s
  727927    1.2796566e+07   0.000000e+00   1.051011e+07  12041s
  728707    1.2796566e+07   0.000000e+00   3.678890e+06  12046s
  729487    1.2796566e+07   0.000000e+00   2.068248e+07  12051s
  730111    1.2796566e+07   0.000000e+00   4.275354e+06  12055s
  730891    1.2796566e+07   0.000000e+00   3.819032e+07  12060s
  731671    1.2796566e+07   0.000000e+00   2.086910e+07  12066s
  732451    1.2796566e+07   0.000000e+00   1.890792e+07  12071s
  733075    1.2796566e+07   0.000000e+00   1.116325e+07  12075s
  733855    1.2796566e+07   0.000000e+00   2.534493e+06  12080s
  734635    1.2796566e+07   0.000000e+00   2.839485e+06  12086s
  735415    1.2796566e+07   0.000000e+00   3.363695e+06  12091s
  736039    1.2796566e+07   0.000000e+00   5.118482e+06  12095s
  736819    1.2796566e+07   0.000000e+00   3.035048e+06  12101s
  737599    1.2796566e+07   0.000000e+00   4.469491e+06  12106s
  738223    1.2796566e+07   0.000000e+00   1.878658e+06  12110s
  739003    1.2796566e+07   0.000000e+00   3.209337e+07  12116s
  739627    1.2796566e+07   0.000000e+00   5.925772e+06  12120s
  740407    1.2796567e+07   0.000000e+00   3.795830e+06  12125s
  741187    1.2796567e+07   0.000000e+00   2.065172e+06  12131s
  741967    1.2796567e+07   0.000000e+00   1.778396e+06  12136s
  742591    1.2796567e+07   0.000000e+00   3.698025e+06  12140s
  743371    1.2796567e+07   0.000000e+00   7.882202e+06  12145s
  744151    1.2796567e+07   0.000000e+00   6.259115e+06  12151s
  744775    1.2796567e+07   0.000000e+00   2.300647e+06  12155s
  745555    1.2796567e+07   0.000000e+00   2.106792e+06  12160s
  746335    1.2796567e+07   0.000000e+00   2.587925e+06  12166s
  747115    1.2796567e+07   0.000000e+00   2.230229e+06  12171s
  747739    1.2796567e+07   0.000000e+00   2.336673e+06  12175s
  748519    1.2796567e+07   0.000000e+00   1.136469e+07  12180s
  749299    1.2796567e+07   0.000000e+00   1.029541e+07  12185s
  750079    1.2796567e+07   0.000000e+00   2.204367e+06  12190s
  750859    1.2796567e+07   0.000000e+00   1.776543e+06  12196s
  751639    1.2796567e+07   0.000000e+00   2.647747e+06  12201s
  752263    1.2796567e+07   0.000000e+00   2.982197e+06  12205s
  753043    1.2796567e+07   0.000000e+00   1.413611e+06  12210s
  753823    1.2796567e+07   0.000000e+00   1.415414e+06  12215s
  754603    1.2796567e+07   0.000000e+00   1.421688e+06  12221s
  755383    1.2796567e+07   0.000000e+00   1.397098e+06  12226s
  756007    1.2796567e+07   0.000000e+00   2.439405e+06  12230s
  756787    1.2796567e+07   0.000000e+00   2.069417e+06  12235s
  757567    1.2796567e+07   0.000000e+00   7.973110e+05  12241s
  758191    1.2796567e+07   0.000000e+00   5.163725e+06  12245s
  758971    1.2796567e+07   0.000000e+00   1.546860e+06  12251s
  759595    1.2796567e+07   0.000000e+00   4.899250e+06  12255s
  760375    1.2796567e+07   0.000000e+00   1.348441e+06  12260s
  761155    1.2796567e+07   0.000000e+00   5.438250e+06  12266s
  761779    1.2796567e+07   0.000000e+00   8.079223e+06  12270s
  762559    1.2796567e+07   0.000000e+00   6.896911e+05  12276s
  763183    1.2796567e+07   0.000000e+00   1.515244e+06  12280s
  763963    1.2796567e+07   0.000000e+00   1.358516e+06  12286s
  764743    1.2796567e+07   0.000000e+00   1.008550e+07  12291s
  765367    1.2796567e+07   0.000000e+00   1.432690e+06  12295s
  766147    1.2796567e+07   0.000000e+00   1.418304e+06  12301s
  766771    1.2796567e+07   0.000000e+00   2.885416e+06  12305s
  767551    1.2796567e+07   0.000000e+00   1.275725e+06  12311s
  768175    1.2796567e+07   0.000000e+00   1.405543e+06  12315s
  768955    1.2796567e+07   0.000000e+00   1.033883e+06  12320s
  769735    1.2796567e+07   0.000000e+00   2.690714e+06  12326s
  770515    1.2796567e+07   0.000000e+00   1.836256e+06  12331s
  771295    1.2796567e+07   0.000000e+00   3.549881e+06  12336s
  772075    1.2796567e+07   0.000000e+00   1.430793e+06  12341s
  772699    1.2796567e+07   0.000000e+00   5.413067e+05  12345s
  773479    1.2796567e+07   0.000000e+00   5.657009e+06  12351s
  774259    1.2796568e+07   0.000000e+00   6.360660e+05  12356s
  775039    1.2796568e+07   0.000000e+00   9.383043e+05  12361s
  775663    1.2796568e+07   0.000000e+00   6.319906e+05  12365s
  776443    1.2796568e+07   0.000000e+00   1.692228e+06  12370s
  777223    1.2796568e+07   0.000000e+00   4.700615e+05  12376s
  777847    1.2796568e+07   0.000000e+00   6.674196e+05  12380s
  778627    1.2796568e+07   0.000000e+00   9.675756e+05  12385s
  779407    1.2796568e+07   0.000000e+00   7.824296e+05  12391s
  780031    1.2796568e+07   0.000000e+00   7.626177e+05  12395s
  780811    1.2796568e+07   0.000000e+00   5.847987e+05  12401s
  781591    1.2796568e+07   0.000000e+00   6.403712e+05  12406s
  782063    1.2796568e+07   0.000000e+00   2.359647e+06  12412s
  782223    1.2796568e+07   0.000000e+00   1.010573e+06  12417s
  782383    1.2796568e+07   0.000000e+00   2.950109e+06  12422s
  782553    1.2796568e+07   0.000000e+00   1.329549e+06  12426s
  782733    1.2796568e+07   0.000000e+00   6.833198e+05  12431s
  782913    1.2796568e+07   0.000000e+00   7.931119e+05  12436s
  783083    1.2796568e+07   0.000000e+00   8.572471e+05  12441s
  783243    1.2796568e+07   0.000000e+00   2.532257e+06  12446s
  783403    1.2796568e+07   0.000000e+00   4.259750e+06  12450s
  783593    1.2796568e+07   0.000000e+00   9.896573e+05  12455s
  783793    1.2796568e+07   0.000000e+00   1.183960e+06  12461s
  783973    1.2796568e+07   0.000000e+00   1.156971e+06  12466s
  784133    1.2796568e+07   0.000000e+00   1.128691e+06  12470s
  784313    1.2796568e+07   0.000000e+00   2.412792e+06  12475s
  784493    1.2796568e+07   0.000000e+00   7.572487e+06  12480s
  784673    1.2796568e+07   0.000000e+00   8.439940e+05  12485s
  784853    1.2796568e+07   0.000000e+00   9.756266e+05  12490s
  785033    1.2796568e+07   0.000000e+00   6.082800e+06  12495s
  785313    1.2796568e+07   0.000000e+00   1.131615e+06  12503s
  785473    1.2796568e+07   0.000000e+00   6.502999e+05  12508s
  785633    1.2796568e+07   0.000000e+00   2.421949e+06  12512s
  785793    1.2796568e+07   0.000000e+00   4.950677e+05  12517s
  785973    1.2796568e+07   0.000000e+00   4.490202e+05  12522s
  786143    1.2796568e+07   0.000000e+00   6.163724e+05  12526s
  786303    1.2796568e+07   0.000000e+00   1.748901e+06  12531s
  786463    1.2796568e+07   0.000000e+00   1.291519e+06  12535s
  786803    1.2796568e+07   0.000000e+00   3.927469e+06  12544s
  786983    1.2796568e+07   0.000000e+00   9.714253e+05  12549s
  787153    1.2796568e+07   0.000000e+00   2.002970e+06  12554s
  787333    1.2796568e+07   0.000000e+00   8.873263e+05  12559s
  787433    1.2796568e+07   0.000000e+00   7.927897e+05  12561s
  787713    1.2796568e+07   0.000000e+00   7.622493e+06  12569s
  787893    1.2796568e+07   0.000000e+00   7.128134e+05  12574s
  788073    1.2796568e+07   0.000000e+00   2.446857e+06  12579s
  788253    1.2796568e+07   0.000000e+00   7.412059e+05  12584s
  788423    1.2796568e+07   0.000000e+00   9.639741e+05  12589s
  788603    1.2796568e+07   0.000000e+00   1.660254e+06  12594s
  788793    1.2796568e+07   0.000000e+00   1.981366e+06  12599s
  788893    1.2796568e+07   0.000000e+00   6.074303e+05  12602s
  789073    1.2796568e+07   0.000000e+00   1.331566e+06  12607s
  789253    1.2796568e+07   0.000000e+00   5.165829e+05  12612s
  789423    1.2796568e+07   0.000000e+00   6.326593e+05  12617s
  789603    1.2796568e+07   0.000000e+00   3.722732e+05  12622s
  789783    1.2796568e+07   0.000000e+00   4.372210e+05  12627s
  789953    1.2796568e+07   0.000000e+00   2.032953e+07  12632s
  790143    1.2796568e+07   0.000000e+00   4.837860e+05  12636s
  790333    1.2796568e+07   0.000000e+00   4.710196e+05  12641s
  790513    1.2796568e+07   0.000000e+00   1.520435e+06  12647s
  790683    1.2796568e+07   0.000000e+00   6.339809e+05  12653s
  790873    1.2796568e+07   0.000000e+00   1.041774e+06  12659s
  791063    1.2796568e+07   0.000000e+00   4.730208e+05  12665s
  791163    1.2796568e+07   0.000000e+00   1.512126e+06  12667s
  791353    1.2796568e+07   0.000000e+00   1.338670e+06  12673s
  791453    1.2796568e+07   0.000000e+00   4.111953e+05  12676s
  791723    1.2796568e+07   0.000000e+00   1.229867e+06  12683s
  791883    1.2796568e+07   0.000000e+00   6.686832e+05  12688s
  792043    1.2796568e+07   0.000000e+00   1.001150e+06  12692s
  792223    1.2796568e+07   0.000000e+00   1.088041e+06  12697s
  792383    1.2796568e+07   0.000000e+00   9.065654e+05  12701s
  792563    1.2796568e+07   0.000000e+00   2.325327e+06  12707s
  792723    1.2796568e+07   0.000000e+00   1.937460e+06  12712s
  792893    1.2796568e+07   0.000000e+00   3.882987e+05  12718s
  793073    1.2796568e+07   0.000000e+00   1.491282e+06  12722s
  793243    1.2796568e+07   0.000000e+00   3.731955e+05  12727s
  793423    1.2796568e+07   0.000000e+00   9.068578e+05  12732s
  793583    1.2796568e+07   0.000000e+00   5.234324e+06  12736s
  793763    1.2796568e+07   0.000000e+00   5.394769e+05  12742s
  793953    1.2796568e+07   0.000000e+00   4.730089e+05  12747s
  794133    1.2796568e+07   0.000000e+00   4.088848e+05  12753s
  794313    1.2796568e+07   0.000000e+00   2.843721e+05  12758s
  794483    1.2796568e+07   0.000000e+00   5.070177e+05  12763s
  794643    1.2796568e+07   0.000000e+00   5.368138e+05  12767s
  794823    1.2796568e+07   0.000000e+00   5.544627e+05  12772s
  795093    1.2796568e+07   0.000000e+00   4.689723e+05  12780s
  795253    1.2796568e+07   0.000000e+00   6.461308e+06  12784s
  795413    1.2796568e+07   0.000000e+00   8.189030e+05  12789s
  795573    1.2796568e+07   0.000000e+00   6.524960e+06  12794s
  795753    1.2796568e+07   0.000000e+00   3.470381e+06  12799s
  795853    1.2796568e+07   0.000000e+00   6.662872e+05  12802s
  796033    1.2796568e+07   0.000000e+00   7.121967e+05  12807s
  796193    1.2796568e+07   0.000000e+00   6.894203e+05  12811s
  796373    1.2796568e+07   0.000000e+00   2.179188e+05  12816s
  796563    1.2796568e+07   0.000000e+00   3.472178e+05  12821s
  796843    1.2796568e+07   0.000000e+00   4.373130e+05  12828s
  797013    1.2796568e+07   0.000000e+00   5.935931e+05  12832s
  797213    1.2796568e+07   0.000000e+00   1.018609e+06  12837s
  797393    1.2796568e+07   0.000000e+00   6.696053e+05  12841s
  797673    1.2796568e+07   0.000000e+00   1.044239e+06  12847s
  797853    1.2796568e+07   0.000000e+00   2.202789e+05  12851s
  798013    1.2796568e+07   0.000000e+00   2.666628e+05  12855s
  798373    1.2796568e+07   0.000000e+00   2.291535e+06  12863s
  798473    1.2796568e+07   0.000000e+00   6.053113e+05  12866s
  798753    1.2796568e+07   0.000000e+00   4.204634e+05  12872s
  798933    1.2796568e+07   0.000000e+00   7.407800e+05  12876s
  799103    1.2796568e+07   0.000000e+00   1.054648e+06  12880s
  799383    1.2796568e+07   0.000000e+00   3.167265e+05  12889s
  799563    1.2796568e+07   0.000000e+00   9.011083e+05  12895s
  799733    1.2796568e+07   0.000000e+00   3.180335e+05  12900s
  800123    1.2796568e+07   0.000000e+00   3.730383e+05  12909s
  800223    1.2796568e+07   0.000000e+00   2.858908e+05  12912s
  800403    1.2796568e+07   0.000000e+00   5.004693e+05  12917s
  800593    1.2796568e+07   0.000000e+00   3.032449e+05  12921s
  800883    1.2796568e+07   0.000000e+00   1.207866e+06  12927s
  801173    1.2796568e+07   0.000000e+00   3.366323e+05  12934s
  801353    1.2796568e+07   0.000000e+00   3.095952e+05  12938s
  801453    1.2796568e+07   0.000000e+00   2.632701e+05  12942s
  801633    1.2796568e+07   0.000000e+00   2.152770e+05  12947s
  801833    1.2796568e+07   0.000000e+00   2.507741e+05  12952s
  802123    1.2796568e+07   0.000000e+00   3.491781e+05  12960s
  802473    1.2796568e+07   0.000000e+00   5.782683e+05  12969s
  802573    1.2796568e+07   0.000000e+00   5.204960e+05  12971s
  802753    1.2796568e+07   0.000000e+00   1.917803e+05  12975s
  803103    1.2796568e+07   0.000000e+00   1.336967e+05  12984s
  803203    1.2796568e+07   0.000000e+00   5.526732e+05  12986s
  803413    1.2796568e+07   0.000000e+00   1.504568e+05  12991s
  803613    1.2796568e+07   0.000000e+00   1.553803e+05  12996s
  803803    1.2796568e+07   0.000000e+00   7.866858e+04  13002s
  803983    1.2796568e+07   0.000000e+00   3.018802e+05  13007s
  804163    1.2796568e+07   0.000000e+00   1.653112e+06  13012s
  804443    1.2796568e+07   0.000000e+00   2.090259e+05  13019s
  804633    1.2796568e+07   0.000000e+00   2.666190e+05  13025s
  804813    1.2796568e+07   0.000000e+00   1.520597e+05  13030s
  804983    1.2796568e+07   0.000000e+00   2.462908e+05  13035s
  805163    1.2796568e+07   0.000000e+00   5.027132e+05  13040s
  805353    1.2796568e+07   0.000000e+00   2.234095e+05  13045s
  805543    1.2796568e+07   0.000000e+00   2.246592e+05  13051s
  805723    1.2796568e+07   0.000000e+00   2.012396e+05  13056s
  806003    1.2796568e+07   0.000000e+00   6.189925e+04  13064s
  806173    1.2796568e+07   0.000000e+00   9.081781e+04  13068s
  806363    1.2796568e+07   0.000000e+00   4.059677e+05  13074s
  806553    1.2796568e+07   0.000000e+00   2.435974e+05  13079s
  806723    1.2796568e+07   0.000000e+00   6.450469e+04  13084s
  806823    1.2796568e+07   0.000000e+00   1.016271e+05  13087s
  807003    1.2796568e+07   0.000000e+00   1.858155e+05  13092s
  807113    1.2796568e+07   0.000000e+00   9.002750e+04  13095s
  807323    1.2796568e+07   0.000000e+00   1.622461e+05  13101s
  807613    1.2796568e+07   0.000000e+00   1.369035e+05  13109s
  807793    1.2796568e+07   0.000000e+00   1.316920e+05  13113s
  807963    1.2796568e+07   0.000000e+00   2.057575e+05  13118s
  808133    1.2796568e+07   0.000000e+00   7.393093e+05  13122s
  808303    1.2796568e+07   0.000000e+00   1.139841e+05  13127s
  808593    1.2796568e+07   0.000000e+00   7.198265e+04  13133s
  808773    1.2796568e+07   0.000000e+00   1.087040e+05  13139s
  808963    1.2796568e+07   0.000000e+00   1.986869e+05  13144s
  809153    1.2796568e+07   0.000000e+00   4.300942e+04  13149s
  809333    1.2796568e+07   0.000000e+00   4.156165e+05  13153s
  809513    1.2796568e+07   0.000000e+00   4.526346e+04  13157s
  809673    1.2796568e+07   0.000000e+00   5.679840e+04  13161s
  809953    1.2796568e+07   0.000000e+00   6.758461e+04  13167s
  810133    1.2796568e+07   0.000000e+00   1.734916e+06  13171s
  810343    1.2796568e+07   0.000000e+00   1.100034e+05  13176s
  810523    1.2796568e+07   0.000000e+00   2.393626e+05  13181s
  810873    1.2796568e+07   0.000000e+00   6.346381e+04  13189s
  810973    1.2796568e+07   0.000000e+00   9.879693e+04  13192s
  811153    1.2796568e+07   0.000000e+00   2.741618e+04  13196s
  811493    1.2796568e+07   0.000000e+00   1.532197e+04  13206s
  811683    1.2796568e+07   0.000000e+00   1.316500e+04  13212s
  811863    1.2796568e+07   0.000000e+00   5.007576e+04  13218s
  812043    1.2796568e+07   0.000000e+00   1.159109e+04  13224s
  812223    1.2796568e+07   0.000000e+00   5.279045e+03  13228s
  812323    1.2796568e+07   0.000000e+00   1.089185e+04  13232s
  812493    1.2796568e+07   0.000000e+00   4.059849e+03  13237s
  812653    1.2796568e+07   0.000000e+00   7.815210e+02  13242s
  812813    1.2796568e+07   0.000000e+00   3.087396e+03  13247s
  812983    1.2796568e+07   0.000000e+00   6.402711e+03  13251s
  813263    1.2796568e+07   0.000000e+00   2.444798e+03  13259s
  813433    1.2796568e+07   0.000000e+00   2.458064e+03  13264s
  813547    1.2792636e+07   7.049730e+01   0.000000e+00  13268s
  813647    1.2792636e+07   3.153096e+01   0.000000e+00  13272s
  813887    1.2792636e+07   1.076620e+02   0.000000e+00  13280s
  814097    1.2792635e+07   1.487516e+02   0.000000e+00  13288s
  814217    1.2792634e+07   3.836458e+02   0.000000e+00  13293s
  814327    1.2792634e+07   1.208519e+02   0.000000e+00  13297s
  814437    1.2792634e+07   9.005175e+01   0.000000e+00  13301s
  814657    1.2792629e+07   1.272639e+05   0.000000e+00  13308s
  814757    1.2792625e+07   8.162254e+04   0.000000e+00  13312s
  814867    1.2792624e+07   7.865329e+04   0.000000e+00  13315s
  815117    1.2792622e+07   5.876215e+01   0.000000e+00  13323s
  815227    1.2792618e+07   8.116270e+02   0.000000e+00  13327s
  815357    1.2792613e+07   3.813654e+05   0.000000e+00  13330s
  815587    1.2792606e+07   7.131148e+01   0.000000e+00  13337s
  815687    1.2792605e+07   5.288358e+02   0.000000e+00  13340s
  815937    1.2792603e+07   2.522544e+04   0.000000e+00  13347s
  816057    1.2792603e+07   9.854524e+03   0.000000e+00  13350s
  816307    1.2792602e+07   4.247715e+01   0.000000e+00  13357s
  816527    1.2792602e+07   1.428215e+04   0.000000e+00  13363s
  816637    1.2792601e+07   2.997262e+04   0.000000e+00  13367s
  816747    1.2792601e+07   1.293912e+01   0.000000e+00  13371s
  816957    1.2792600e+07   2.692858e+04   0.000000e+00  13377s
  817167    1.2792599e+07   5.258632e+04   0.000000e+00  13383s
  817267    1.2792599e+07   3.082357e+01   0.000000e+00  13386s
  817527    1.2792598e+07   1.201354e+02   0.000000e+00  13393s
  817667    1.2792598e+07   2.248846e+02   0.000000e+00  13397s
  817767    1.2792598e+07   2.537287e+02   0.000000e+00  13400s
  818017    1.2792598e+07   9.578567e+01   0.000000e+00  13411s
  818117    1.2792597e+07   6.333782e+01   0.000000e+00  13415s
  818217    1.2792597e+07   7.467266e+01   0.000000e+00  13420s
  818477    1.2792596e+07   5.331059e+01   0.000000e+00  13428s
  818577    1.2792596e+07   5.348126e+01   0.000000e+00  13431s
  818777    1.2792596e+07   6.115379e+01   0.000000e+00  13437s
  818917    1.2792596e+07   5.604561e+01   0.000000e+00  13443s
  819037    1.2792596e+07   4.427154e+01   0.000000e+00  13448s
  819137    1.2792596e+07   4.064215e+01   0.000000e+00  13451s
  819337    1.2792594e+07   2.856917e+04   0.000000e+00  13456s
  819547    1.2792593e+07   1.389932e+02   0.000000e+00  13462s
  819647    1.2792591e+07   1.051919e+05   0.000000e+00  13466s
  819777    1.2792591e+07   2.326957e+02   0.000000e+00  13470s
  819977    1.2792591e+07   2.068521e+02   0.000000e+00  13477s
  820077    1.2792591e+07   3.329463e+02   0.000000e+00  13480s
  820277    1.2792591e+07   1.977191e+03   0.000000e+00  13488s
  820387    1.2792589e+07   3.754044e+02   0.000000e+00  13492s
  820487    1.2792589e+07   5.573574e+01   0.000000e+00  13496s
  820587    1.2792587e+07   9.778698e+03   0.000000e+00  13500s
  820787    1.2792586e+07   1.496707e+03   0.000000e+00  13507s
  820887    1.2792586e+07   2.560223e+04   0.000000e+00  13511s
  821087    1.2792585e+07   8.478979e+02   0.000000e+00  13518s
  821187    1.2792585e+07   1.922223e+03   0.000000e+00  13522s
  821427    1.2792585e+07   7.180917e+02   0.000000e+00  13529s
  821527    1.2792585e+07   2.037713e+03   0.000000e+00  13532s
  821627    1.2792585e+07   1.128361e+03   0.000000e+00  13535s
  821827    1.2792584e+07   1.943678e+02   0.000000e+00  13543s
  821967    1.2792584e+07   1.173684e+03   0.000000e+00  13547s
  822067    1.2792583e+07   4.263740e+02   0.000000e+00  13551s
  822167    1.2792583e+07   6.575993e+03   0.000000e+00  13555s
  822367    1.2792582e+07   7.877251e+02   0.000000e+00  13564s
  822487    1.2792582e+07   1.082908e+03   0.000000e+00  13568s
  822597    1.2792581e+07   8.962690e+02   0.000000e+00  13572s
  822697    1.2792581e+07   1.134058e+03   0.000000e+00  13576s
  822807    1.2792579e+07   2.921669e+05   0.000000e+00  13580s
  823007    1.2792578e+07   1.354918e+02   0.000000e+00  13586s
  823207    1.2792576e+07   9.986999e+01   0.000000e+00  13592s
  823407    1.2792571e+07   1.536173e+02   0.000000e+00  13599s
  823507    1.2792570e+07   1.502568e+02   0.000000e+00  13602s
  823607    1.2792568e+07   1.078625e+02   0.000000e+00  13606s
  823707    1.2792568e+07   1.473253e+02   0.000000e+00  13610s
  823907    1.2792567e+07   2.172845e+02   0.000000e+00  13617s
  824127    1.2792566e+07   3.791605e+02   0.000000e+00  13623s
  824227    1.2792566e+07   1.541892e+02   0.000000e+00  13626s
  824427    1.2792566e+07   1.943563e+02   0.000000e+00  13632s
  824637    1.2792566e+07   3.049195e+02   0.000000e+00  13638s
  824737    1.2792566e+07   4.685690e+02   0.000000e+00  13641s
  824837    1.2792566e+07   8.865708e+02   0.000000e+00  13645s
  825077    1.2792565e+07   2.080048e+02   0.000000e+00  13654s
  825177    1.2792565e+07   1.454025e+02   0.000000e+00  13658s
  825277    1.2792565e+07   2.101470e+02   0.000000e+00  13661s
  825477    1.2792565e+07   5.162752e+02   0.000000e+00  13667s
  825677    1.2792565e+07   5.552714e+02   0.000000e+00  13672s
  825777    1.2792565e+07   1.641461e+02   0.000000e+00  13676s
  825977    1.2792564e+07   4.571029e+02   0.000000e+00  13683s
  826077    1.2792564e+07   2.194997e+02   0.000000e+00  13686s
  826277    1.2792564e+07   4.502687e+02   0.000000e+00  13693s
  826377    1.2792564e+07   2.651732e+02   0.000000e+00  13696s
  826577    1.2792564e+07   1.970722e+02   0.000000e+00  13703s
  826677    1.2792564e+07   2.497078e+02   0.000000e+00  13706s
  826877    1.2792563e+07   4.803434e+02   0.000000e+00  13712s
  826977    1.2792563e+07   1.416430e+02   0.000000e+00  13716s
  827177    1.2792563e+07   3.198217e+02   0.000000e+00  13723s
  827277    1.2792563e+07   6.709640e+02   0.000000e+00  13728s
  827377    1.2792563e+07   2.083916e+02   0.000000e+00  13732s
  827477    1.2792563e+07   2.845867e+02   0.000000e+00  13736s
  827617    1.2792562e+07   3.949435e+02   0.000000e+00  13741s
  827837    1.2792562e+07   1.790348e+02   0.000000e+00  13748s
  827937    1.2792562e+07   1.358426e+02   0.000000e+00  13751s
  828147    1.2792562e+07   2.141043e+02   0.000000e+00  13757s
  828247    1.2792562e+07   1.311697e+02   0.000000e+00  13760s
  828447    1.2792562e+07   1.368529e+02   0.000000e+00  13768s
  828547    1.2792562e+07   1.437645e+02   0.000000e+00  13771s
  828757    1.2792561e+07   2.931055e+02   0.000000e+00  13778s
  828867    1.2792561e+07   3.132966e+02   0.000000e+00  13782s
  828967    1.2792561e+07   1.608821e+02   0.000000e+00  13786s
  829207    1.2792561e+07   3.768549e+03   0.000000e+00  13794s
  829337    1.2792560e+07   2.371373e+02   0.000000e+00  13799s
  829457    1.2792557e+07   1.513646e+03   0.000000e+00  13804s
  829587    1.2792556e+07   2.277635e+02   0.000000e+00  13809s
  829707    1.2792555e+07   1.995929e+03   0.000000e+00  13814s
  829837    1.2792554e+07   1.445992e+03   0.000000e+00  13820s
  829967    1.2792554e+07   3.304511e+04   0.000000e+00  13824s
  830097    1.2792553e+07   3.294990e+04   0.000000e+00  13830s
  830227    1.2792552e+07   2.266859e+03   0.000000e+00  13835s
  830347    1.2792552e+07   1.008698e+04   0.000000e+00  13840s
  830557    1.2792552e+07   5.262786e+03   0.000000e+00  13848s
  830657    1.2792552e+07   8.943333e+03   0.000000e+00  13851s
  830857    1.2792552e+07   6.035934e+02   0.000000e+00  13858s
  830957    1.2792552e+07   1.054347e+02   0.000000e+00  13862s
  831057    1.2792551e+07   1.153401e+02   0.000000e+00  13865s
  831257    1.2792551e+07   2.241179e+02   0.000000e+00  13872s
  831357    1.2792550e+07   6.704978e+04   0.000000e+00  13876s
  831597    1.2792546e+07   1.318556e+05   0.000000e+00  13884s
  831697    1.2792538e+07   2.230015e+02   0.000000e+00  13888s
  831797    1.2792537e+07   2.694151e+02   0.000000e+00  13891s
  832017    1.2792529e+07   9.590834e+01   0.000000e+00  13899s
  832127    1.2792529e+07   1.832658e+02   0.000000e+00  13902s
  832227    1.2792529e+07   3.740542e+02   0.000000e+00  13906s
  832427    1.2792529e+07   8.873367e+02   0.000000e+00  13912s
  832587    1.2792524e+07   1.018063e+02   0.000000e+00  13915s
  832817    1.2792518e+07   6.454729e+01   0.000000e+00  13923s
  832927    1.2792517e+07   1.350918e+03   0.000000e+00  13927s
  833027    1.2792517e+07   2.645601e+02   0.000000e+00  13931s
  833227    1.2792517e+07   4.268398e+02   0.000000e+00  13939s
  833327    1.2792514e+07   2.114045e+04   0.000000e+00  13943s
  833437    1.2792514e+07   2.108869e+04   0.000000e+00  13946s
  833667    1.2792507e+07   2.705265e+04   0.000000e+00  13955s
  833807    1.2792506e+07   5.388758e+03   0.000000e+00  13960s
  833907    1.2792506e+07   1.315579e+03   0.000000e+00  13964s
  834017    1.2792506e+07   2.224511e+03   0.000000e+00  13968s
  834117    1.2792506e+07   2.515670e+03   0.000000e+00  13972s
  834217    1.2792506e+07   1.740146e+02   0.000000e+00  13976s
  834417    1.2792505e+07   3.731804e+03   0.000000e+00  13983s
  834517    1.2792504e+07   3.827551e+01   0.000000e+00  13987s
  834627    1.2792504e+07   6.469057e+04   0.000000e+00  13991s
  834857    1.2792502e+07   7.262915e+04   0.000000e+00  14000s
  834967    1.2792502e+07   6.910942e+04   0.000000e+00  14004s
  835077    1.2792501e+07   7.039575e+04   0.000000e+00  14008s
  835187    1.2792498e+07   1.654333e+05   0.000000e+00  14012s
  835317    1.2792497e+07   8.082313e+04   0.000000e+00  14016s
  835437    1.2792497e+07   2.323579e-01   0.000000e+00  14020s
  835657    1.2792497e+07   6.426910e-01   0.000000e+00  14028s
  835767    1.2792497e+07   4.730788e-01   0.000000e+00  14031s
  836007    1.2792497e+07   1.789739e-01   0.000000e+00  14038s
  836127    1.2792497e+07   1.975337e-01   0.000000e+00  14041s
  836357    1.2792497e+07   5.398269e-01   0.000000e+00  14048s
  836467    1.2792497e+07   2.576919e-01   0.000000e+00  14051s
  836687    1.2792497e+07   2.356595e-01   0.000000e+00  14057s
  836807    1.2792497e+07   1.246340e+00   0.000000e+00  14061s
  837007    1.2792497e+07   1.993694e+00   0.000000e+00  14067s
  837137    1.2792497e+07   2.141007e-04   0.000000e+00  14072s
  837156    1.2792497e+07   0.000000e+00   0.000000e+00  14073s
  837156    1.2792497e+07   0.000000e+00   0.000000e+00  14074s
Concurrent spin time: 151.24s

Solved with barrier

Root relaxation: objective 1.279250e+07, 837156 iterations, 11369.01 seconds
Total elapsed time = 14225.08s

    Nodes    |    Current Node    |     Objective Bounds      |     Work
 Expl Unexpl |  Obj  Depth IntInf | Incumbent    BestBd   Gap | It/Node Time

     0     0 1.2792e+07    0  560          - 1.2792e+07      -     - 14252s
     0     0          -    0               - 1.2792e+07      -     - 86400s

Cutting planes:
  Implied bound: 12
  Clique: 151
  MIR: 12
  Flow cover: 36
  Zero half: 3

Explored 1 nodes (837455 simplex iterations) in 86400.13 seconds
Thread count was 4 (of 16 available processors)

Solution count 0

Time limit reached
Best objective -, best bound 1.279249668363e+07, gap -
Traceback (most recent call last):
  File "lsfdrp_mathmodel.py", line 605, in <module>
    solve_lsifdp(instance, data)
  File "lsfdrp_mathmodel.py", line 465, in solve_lsifdp
    if var.x > 0.1:
  File "var.pxi", line 76, in gurobipy.Var.__getattr__
  File "var.pxi", line 142, in gurobipy.Var.getAttr
AttributeError: b"Unable to retrieve attribute 'x'"

real	1451m32.841s
user	4937m43.427s
sys	830m48.221s
	Freetype 2.4.12 environment removed
	Python 3.6.0 environment removed
	Gurobi 8.1.0 environment removed
