	Freetype 2.4.12 environment established
		library to render fonts
	Python 3.6.0 environment established
	Gurobi 8.1.0 environment established
Instance LSFRP: LSFDRP_3_3_1_1_fr.p
Instance LSFDP: LSFDRP_3_3_1_1_fd_52.p

*****************************************************************************************************************************
*** Solve LSFDRP_3_3_1_1_fd_52 with Gurobi
***
*** Graph info
*** |S|: 24
*** |S^E|: 0
*** |S^C|: 6
*** |V|: 482
*** |A|: 22408
*** |A^i|: 22261
*** |A^f|: 147
*** |M|: 380
*** |E|: 28

Changed value of parameter TimeLimit to 86400.0
   Prev: 1e+100  Min: 0.0  Max: 1e+100  Default: 1e+100
Changed value of parameter Threads to 4
   Prev: 0  Min: 0  Max: 1024  Default: 0
Optimize a model with 253050 rows, 9102183 columns and 32933900 nonzeros
Variable types: 8564334 continuous, 537849 integer (537849 binary)
Coefficient statistics:
  Matrix range     [1e+00, 5e+03]
  Objective range  [2e+00, 6e+07]
  Bounds range     [1e+00, 1e+00]
  RHS range        [1e+00, 5e+03]
Presolve removed 10951 rows and 1418 columns (presolve time = 7s) ...
Presolve removed 35293 rows and 1990867 columns (presolve time = 11s) ...
Presolve removed 68243 rows and 4471484 columns (presolve time = 15s) ...
Presolve removed 91870 rows and 5674949 columns (presolve time = 20s) ...
Presolve removed 96631 rows and 5821764 columns (presolve time = 28s) ...
Presolve removed 96631 rows and 5833081 columns (presolve time = 30s) ...
Presolve removed 102477 rows and 5848354 columns (presolve time = 36s) ...
Presolve removed 102909 rows and 5848354 columns (presolve time = 40s) ...
Presolve removed 105402 rows and 5874425 columns (presolve time = 46s) ...
Presolve removed 105402 rows and 5874425 columns (presolve time = 50s) ...
Presolve removed 106443 rows and 5875874 columns (presolve time = 55s) ...
Presolve removed 106444 rows and 5875874 columns (presolve time = 60s) ...
Presolve removed 106444 rows and 5875874 columns (presolve time = 65s) ...
Presolve removed 106450 rows and 5876627 columns (presolve time = 70s) ...
Warning: Failed to open log file 'gurobi.log'
Presolve removed 106482 rows and 5876627 columns (presolve time = 85s) ...
Presolve removed 106482 rows and 6076286 columns (presolve time = 2001s) ...
Presolve removed 171316 rows and 8133011 columns (presolve time = 2005s) ...
Presolve removed 175532 rows and 8154332 columns (presolve time = 2010s) ...
Presolve removed 175577 rows and 8155022 columns (presolve time = 2016s) ...
Presolve removed 175723 rows and 8155456 columns (presolve time = 2020s) ...
Presolve removed 178585 rows and 8187810 columns (presolve time = 2032s) ...
Presolve removed 178623 rows and 8187845 columns (presolve time = 2774s) ...
Presolve removed 178591 rows and 8187813 columns
Presolve time: 2774.45s
Presolved: 74459 rows, 914370 columns, 5843164 nonzeros
Variable types: 574873 continuous, 339497 integer (339434 binary)

Deterministic concurrent LP optimizer: primal simplex, dual simplex, and barrier
Showing barrier log only...

Presolve removed 417 rows and 787 columns
Presolved: 74042 rows, 913583 columns, 5822181 nonzeros

Root barrier log...

Ordering time: 0.00s

Barrier statistics:
 Dense cols : 106
 AA' NZ     : 6.304e+06
 Factor NZ  : 1.420e+08 (roughly 1.5 GBytes of memory)
 Factor Ops : 8.873e+11 (roughly 50 seconds per iteration)
 Threads    : 1

                  Objective                Residual
Iter       Primal          Dual         Primal    Dual     Compl     Time
   0  -3.60330536e+15  5.55544791e+16  1.04e+09 3.84e+06  5.73e+12  2872s
   1  -2.15655687e+15  5.44562891e+16  6.19e+08 3.18e+07  3.46e+12  2928s
   2  -1.30298532e+15  5.21077220e+16  3.74e+08 1.52e+07  2.09e+12  2988s
   3  -6.30432204e+14  4.94030851e+16  1.81e+08 9.47e+06  1.05e+12  3045s
   4  -2.30034881e+14  4.34649724e+16  6.56e+07 5.00e+06  3.99e+11  3106s
   5  -1.03803434e+14  2.80277464e+16  2.93e+07 1.14e+06  1.77e+11  3162s
   6  -2.41528736e+13  1.36215955e+16  6.77e+06 1.54e+05  4.47e+10  3220s
   7  -3.16239556e+12  4.45392969e+15  8.86e+05 5.34e-05  7.06e+09  3279s
   8  -1.17072143e+12  1.21697480e+15  3.28e+05 8.01e-05  2.17e+09  3336s
   9  -2.65631710e+11  3.07773252e+14  7.43e+04 1.54e-06  4.85e+08  3396s
  10  -1.44556884e+11  1.45016071e+14  4.04e+04 1.84e-05  2.48e+08  3452s
  11  -2.30955203e+10  4.31385206e+13  6.39e+03 4.00e-04  5.00e+07  3510s
  12  -1.34231048e+10  2.73009398e+13  3.68e+03 2.88e-04  3.00e+07  3566s
  13  -7.25485544e+09  1.36471539e+13  1.96e+03 1.35e-04  1.53e+07  3623s
  14  -2.85958384e+09  6.98087300e+12  7.42e+02 7.34e-05  6.75e+06  3682s
  15  -1.49906100e+09  4.50561577e+12  3.70e+02 4.72e-05  3.92e+06  3738s
  16  -6.93770736e+08  2.65857523e+12  1.52e+02 2.75e-05  2.04e+06  3796s
  17  -3.93287614e+08  1.50949450e+12  7.32e+01 1.60e-05  1.10e+06  3853s
  18  -2.70191639e+08  1.04026074e+12  4.24e+01 1.08e-05  7.25e+05  3908s
  19  -2.05935570e+08  7.56187877e+11  2.73e+01 7.89e-06  5.12e+05  3964s
  20  -1.67464578e+08  6.32636365e+11  1.91e+01 6.58e-06  4.14e+05  4020s
  21  -1.36706263e+08  4.54125590e+11  1.34e+01 4.98e-06  2.98e+05  4077s
  22  -1.09139827e+08  3.53187843e+11  8.59e+00 3.97e-06  2.27e+05  4134s
  23  -9.94604173e+07  2.86396162e+11  7.20e+00 3.35e-06  1.85e+05  4190s
  24  -9.20002211e+07  2.50529490e+11  6.05e+00 2.96e-06  1.61e+05  4246s
  25  -7.26481776e+07  1.67051401e+11  2.65e+00 1.96e-06  1.03e+05  4304s
  26  -6.30222049e+07  1.38404979e+11  1.62e+00 1.61e-06  8.26e+04  4360s
  27  -5.70963370e+07  7.67597571e+10  1.03e+00 8.68e-07  4.60e+04  4415s
  28  -5.09619301e+07  4.85585016e+10  5.52e-01 5.58e-07  2.85e+04  4471s
  29  -4.81551726e+07  2.82333863e+10  3.99e-01 5.11e-07  1.68e+04  4528s
  30  -4.56232760e+07  2.19174655e+10  2.85e-01 5.07e-07  1.29e+04  4584s
  31  -4.35345069e+07  1.87947372e+10  2.16e-01 5.54e-07  1.10e+04  4640s
  32  -4.16010703e+07  1.43875043e+10  1.65e-01 4.86e-07  8.39e+03  4695s
  33  -3.90593215e+07  1.16409586e+10  1.13e-01 5.09e-07  6.71e+03  4751s
  34  -3.61133122e+07  8.30409407e+09  6.75e-02 4.24e-07  4.74e+03  4808s
  35  -3.05031526e+07  3.21431808e+09  2.51e-02 4.75e-07  1.85e+03  4867s
  36  -2.75170176e+07  3.03015522e+09  1.49e-02 5.65e-07  1.71e+03  4923s
  37  -2.45718180e+07  2.43579499e+09  9.97e-03 5.98e-07  1.37e+03  4979s
  38  -2.09494413e+07  1.17052672e+09  5.76e-03 6.20e-07  6.66e+02  5038s
  39  -1.80643688e+07  7.59276244e+08  3.39e-03 5.85e-07  4.33e+02  5093s
  40  -1.30230406e+07  4.74307013e+08  1.76e-03 5.87e-07  2.70e+02  5149s
  41  -1.02730325e+07  3.79824447e+08  1.31e-03 5.31e-07  2.16e+02  5207s
  42  -7.61370553e+06  3.50850809e+08  1.07e-03 6.21e-07  1.98e+02  5262s
  43  -6.32516950e+06  3.13619078e+08  8.50e-04 6.25e-07  1.77e+02  5321s
  44  -4.95524869e+06  2.62467358e+08  6.45e-04 6.12e-07  1.47e+02  5375s
  45  -3.98485929e+06  2.03234982e+08  6.11e-04 5.87e-07  1.15e+02  5430s
  46  -2.90717656e+06  1.74759735e+08  4.58e-04 5.93e-07  9.80e+01  5485s
  47  -1.19811274e+06  1.23202783e+08  3.70e-04 6.12e-07  6.88e+01  5545s
  48   3.24473022e+05  8.83626135e+07  2.92e-04 6.73e-07  4.89e+01  5602s
  49   1.31922688e+06  7.06552869e+07  2.43e-04 6.90e-07  3.86e+01  5659s
  50   3.36790347e+06  5.05627395e+07  1.59e-04 5.72e-07  2.63e+01  5720s
  51   4.48766027e+06  4.03106823e+07  1.18e-04 5.54e-07  1.99e+01  5778s
  52   5.51537968e+06  3.20872355e+07  8.52e-05 7.43e-07  1.48e+01  5835s
  53   5.91524288e+06  2.69662405e+07  7.64e-05 5.84e-07  1.18e+01  5892s
  54   6.24223022e+06  2.53299698e+07  6.76e-05 6.82e-07  1.07e+01  5947s
  55   6.99036333e+06  2.39345474e+07  4.77e-05 6.95e-07  9.41e+00  6005s
  56   7.28934936e+06  2.23308677e+07  4.22e-05 8.23e-07  8.36e+00  6060s
  57   7.40482718e+06  2.08456287e+07  3.98e-05 7.80e-07  7.48e+00  6115s
  58   7.76147964e+06  1.89292027e+07  3.18e-05 9.66e-07  6.21e+00  6172s
  59   7.90156752e+06  1.75125459e+07  2.90e-05 8.23e-07  5.35e+00  6227s
  60   8.07074651e+06  1.66047661e+07  2.57e-05 8.21e-07  4.75e+00  6283s
  61   8.26875139e+06  1.62645081e+07  2.25e-05 7.84e-07  4.45e+00  6340s
  62   8.32360176e+06  1.56935681e+07  2.16e-05 8.58e-07  4.10e+00  6396s
  63   8.46807413e+06  1.51376862e+07  1.97e-05 8.61e-07  3.71e+00  6452s
  64   8.63332877e+06  1.47056408e+07  1.80e-05 9.50e-07  3.38e+00  6509s
  65   8.76429205e+06  1.44410272e+07  1.69e-05 1.05e-06  3.16e+00  6565s
  66   9.24377294e+06  1.35121531e+07  1.26e-05 9.18e-07  2.38e+00  6626s
  67   9.45505196e+06  1.29208749e+07  1.09e-05 7.98e-07  1.94e+00  6682s
  68   9.74953864e+06  1.25126655e+07  8.54e-06 1.14e-06  1.54e+00  6736s
  69   1.00572394e+07  1.21880159e+07  6.19e-06 9.52e-07  1.19e+00  6792s
  70   1.02437397e+07  1.19640360e+07  4.77e-06 8.73e-06  9.58e-01  6848s
  71   1.03691102e+07  1.16862233e+07  3.82e-06 9.31e-06  7.35e-01  6904s
  72   1.04886213e+07  1.13816040e+07  2.92e-06 8.71e-06  5.01e-01  6960s
  73   1.06761386e+07  1.12337369e+07  1.52e-06 8.21e-06  3.11e-01  7016s
  74   1.06966018e+07  1.11731314e+07  1.37e-06 6.03e-06  2.67e-01  7072s
  75   1.07777313e+07  1.11246658e+07  9.19e-07 7.84e-06  1.93e-01  7127s
  76   1.08092496e+07  1.10456178e+07  6.05e-07 6.34e-06  1.31e-01  7183s
  77   1.08256924e+07  1.10183727e+07  4.90e-07 7.76e-06  1.07e-01  7238s
  78   1.08421258e+07  1.09612171e+07  5.16e-07 5.57e-06  6.64e-02  7293s
  79   1.08618504e+07  1.09283078e+07  2.38e-07 6.09e-06  3.70e-02  7349s
  80   1.08655026e+07  1.09151522e+07  9.29e-07 3.14e-05  2.77e-02  7407s
  81   1.08722079e+07  1.08937810e+07  4.92e-07 1.17e-05  1.22e-02  7465s
  82   1.08752088e+07  1.08900985e+07  3.14e-07 1.32e-05  8.40e-03  7521s
  83   1.08765448e+07  1.08883161e+07  2.41e-07 1.47e-05  6.64e-03  7578s
  84   1.08773272e+07  1.08877191e+07  2.01e-07 1.85e-05  5.85e-03  7635s
  85   1.08792675e+07  1.08848145e+07  1.04e-07 1.50e-05  3.12e-03  7690s
  86   1.08799114e+07  1.08829471e+07  7.57e-08 9.60e-06  1.72e-03  7747s
  87   1.08803682e+07  1.08822955e+07  3.62e-08 1.12e-05  1.10e-03  7802s
  88   1.08807241e+07  1.08819632e+07  2.28e-08 9.90e-06  7.07e-04  7859s
  89   1.08808120e+07  1.08817971e+07  1.93e-08 1.35e-05  5.64e-04  7913s
  90   1.08810520e+07  1.08816882e+07  1.15e-08 1.37e-05  3.61e-04  7969s
  91   1.08811272e+07  1.08813357e+07  1.63e-08 1.43e-05  1.25e-04  8024s
  92   1.08812407e+07  1.08813129e+07  4.71e-08 7.67e-06  4.37e-05  8081s
  93   1.08812324e+07  1.08813129e+07  2.33e-06 1.25e-05  4.37e-05  8136s
  94   1.08812356e+07  1.08813129e+07  6.36e-06 1.52e-05  4.32e-05  8191s
  95   1.08812932e+07  1.08813073e+07  1.23e-06 8.47e-06  7.96e-06  8246s
  96   1.08813003e+07  1.08813072e+07  8.63e-06 8.36e-06  4.86e-06  8302s
  97   1.08813045e+07  1.08813069e+07  4.12e-06 1.53e-05  2.06e-06  8358s
  98   1.08813387e+07  1.08813069e+07  3.67e-06 1.53e-05  2.01e-06  8413s
  99   1.08813391e+07  1.08813069e+07  7.80e-06 1.70e-05  2.01e-06  8469s
 100   1.08813369e+07  1.08813069e+07  6.17e-06 1.98e-05  2.01e-06  8524s
 101   1.08813369e+07  1.08813070e+07  2.31e-05 2.14e-05  2.04e-06  8579s
 102   1.08813379e+07  1.08813070e+07  2.34e-05 2.83e-05  2.05e-06  8635s
 103   1.08813426e+07  1.08813070e+07  2.95e-05 3.22e-05  2.06e-06  8690s
 104   1.08813426e+07  1.08813070e+07  5.76e-05 3.16e-05  2.07e-06  8745s
 105   1.08813496e+07  1.08813070e+07  1.48e-04 3.43e-05  2.08e-06  8801s
 106   1.08813537e+07  1.08813071e+07  1.56e-04 3.42e-05  2.08e-06  8856s
 107   1.08813466e+07  1.08813071e+07  1.60e-04 3.05e-05  2.08e-06  8911s

Barrier performed 107 iterations in 8910.81 seconds
Sub-optimal termination - objective 1.08811272e+07


Root crossover log...

   71232 DPushes remaining with DInf 0.0000000e+00              8911s
     307 DPushes remaining with DInf 1.5258789e-05              8915s
      66 DPushes remaining with DInf 3.8146973e-06              8920s
       0 DPushes remaining with DInf 1.4577067e+11              8921s

    8673 PPushes remaining with PInf 1.2174339e+01              8921s
       0 PPushes remaining with PInf 7.1501835e+00              8923s

  Push phase complete: Pinf 7.1501835e+00, Dinf 7.3975254e+12   8923s


Root simplex log...

Iteration    Objective       Primal Inf.    Dual Inf.      Time
   67859    1.0880583e+07   0.000000e+00   7.397525e+12   8924s
   68203    1.0880585e+07   0.000000e+00   3.012255e+14   8925s
   69507    1.0880809e+07   0.000000e+00   8.082356e+10   8931s
   71153    1.0880910e+07   0.000000e+00   6.426386e+10   8935s
   72689    1.0880968e+07   0.000000e+00   4.399349e+10   8940s
   73973    1.0881013e+07   0.000000e+00   6.510949e+09   8945s
   75021    1.0881029e+07   0.000000e+00   1.439579e+09   8950s
   76491    1.0881082e+07   0.000000e+00   2.125179e+10   8956s
   77627    1.0881248e+07   0.000000e+00   7.976297e+10   8960s
   78900    1.0881347e+07   0.000000e+00   2.120843e+10   8965s
   80094    1.0881409e+07   0.000000e+00   1.616820e+10   8970s
   81090    1.0881437e+07   0.000000e+00   2.859604e+09   8976s
   82105    1.0881459e+07   0.000000e+00   1.783783e+10   8980s
   83083    1.0881479e+07   0.000000e+00   6.288875e+09   8985s
   84125    1.0881507e+07   0.000000e+00   2.869890e+09   8990s
   85384    1.0881538e+07   0.000000e+00   3.171352e+09   8996s
   86490    1.0881562e+07   0.000000e+00   5.353645e+10   9000s
   87768    1.0881602e+07   0.000000e+00   3.290357e+09   9006s
   88808    1.0881624e+07   0.000000e+00   1.656233e+09   9010s
   90280    1.0881683e+07   0.000000e+00   2.481719e+09   9015s
   91393    1.0881707e+07   0.000000e+00   4.297579e+09   9020s
   92479    1.0881728e+07   0.000000e+00   3.849324e+09   9025s
   93638    1.0881752e+07   0.000000e+00   2.048375e+12   9030s
   94653    1.0881766e+07   0.000000e+00   1.527035e+10   9035s
   95905    1.0881787e+07   0.000000e+00   1.896177e+09   9040s
   97096    1.0881838e+07   0.000000e+00   1.329008e+09   9046s
   98234    1.0881858e+07   0.000000e+00   1.109661e+11   9050s
   99350    1.0881873e+07   0.000000e+00   2.051146e+09   9055s
  100442    1.0881882e+07   0.000000e+00   6.736152e+10   9060s
  101397    1.0881892e+07   0.000000e+00   4.177317e+13   9065s
  102489    1.0881906e+07   0.000000e+00   4.827745e+08   9070s
  103581    1.0881916e+07   0.000000e+00   5.912489e+09   9075s
  104517    1.0881923e+07   0.000000e+00   6.055651e+08   9080s
  105609    1.0881931e+07   0.000000e+00   7.360174e+08   9086s
  106701    1.0881938e+07   0.000000e+00   1.003998e+09   9091s
  107637    1.0881943e+07   0.000000e+00   1.195008e+09   9095s
  108573    1.0881946e+07   0.000000e+00   2.137142e+08   9100s
  109665    1.0881968e+07   0.000000e+00   4.986950e+08   9105s
  110757    1.0881999e+07   0.000000e+00   5.551074e+09   9110s
  111693    1.0882013e+07   0.000000e+00   7.560894e+08   9115s
  112785    1.0882038e+07   0.000000e+00   4.974272e+08   9120s
  113877    1.0882061e+07   0.000000e+00   5.131220e+10   9126s
  114657    1.0882105e+07   0.000000e+00   6.261083e+09   9130s
  115593    1.0882146e+07   0.000000e+00   6.432944e+09   9135s
  116685    1.0882173e+07   0.000000e+00   3.148405e+10   9141s
  117621    1.0882182e+07   0.000000e+00   1.743680e+13   9145s
  118713    1.0882196e+07   0.000000e+00   5.392307e+08   9150s
  119649    1.0882231e+07   0.000000e+00   9.602216e+08   9155s
  120741    1.0882293e+07   0.000000e+00   4.626288e+08   9160s
  121989    1.0882322e+07   0.000000e+00   2.045353e+09   9166s
  122925    1.0882337e+07   0.000000e+00   4.046365e+08   9170s
  124017    1.0882367e+07   0.000000e+00   9.289856e+08   9175s
  125109    1.0882409e+07   0.000000e+00   8.873257e+10   9181s
  126201    1.0882465e+07   0.000000e+00   3.370057e+08   9186s
  127137    1.0882538e+07   0.000000e+00   2.772570e+10   9190s
  128073    1.0882559e+07   0.000000e+00   8.020858e+08   9195s
  129009    1.0882585e+07   0.000000e+00   2.231529e+08   9200s
  130101    1.0882604e+07   0.000000e+00   2.014336e+10   9205s
  131037    1.0882618e+07   0.000000e+00   2.610423e+09   9211s
  132129    1.0882639e+07   0.000000e+00   3.182176e+08   9216s
  132909    1.0882669e+07   0.000000e+00   1.505865e+11   9221s
  133689    1.0882679e+07   0.000000e+00   5.540924e+08   9225s
  134781    1.0882696e+07   0.000000e+00   1.000519e+09   9231s
  135561    1.0882702e+07   0.000000e+00   4.096377e+08   9235s
  136497    1.0882713e+07   0.000000e+00   5.017516e+09   9241s
  137433    1.0882748e+07   0.000000e+00   1.914417e+08   9246s
  138369    1.0882773e+07   0.000000e+00   2.828965e+09   9251s
  139305    1.0882785e+07   0.000000e+00   7.804631e+08   9256s
  140241    1.0882793e+07   0.000000e+00   1.026279e+10   9260s
  141177    1.0882806e+07   0.000000e+00   3.369442e+08   9265s
  142113    1.0882840e+07   0.000000e+00   3.273958e+09   9270s
  143205    1.0882877e+07   0.000000e+00   1.252345e+09   9275s
  144297    1.0882900e+07   0.000000e+00   4.728966e+08   9280s
  145233    1.0882924e+07   0.000000e+00   4.935303e+09   9285s
  146325    1.0882935e+07   0.000000e+00   6.800532e+08   9291s
  147261    1.0882942e+07   0.000000e+00   1.474426e+09   9295s
  148353    1.0882990e+07   0.000000e+00   5.190717e+08   9301s
  149289    1.0883012e+07   0.000000e+00   2.235380e+09   9305s
  150381    1.0883040e+07   0.000000e+00   2.478688e+08   9310s
  151473    1.0883050e+07   0.000000e+00   2.391953e+13   9316s
  152565    1.0883066e+07   0.000000e+00   1.073992e+09   9321s
  153501    1.0883072e+07   0.000000e+00   2.425779e+10   9325s
  154437    1.0883089e+07   0.000000e+00   8.522192e+11   9331s
  155373    1.0883108e+07   0.000000e+00   1.280906e+09   9336s
  156309    1.0883118e+07   0.000000e+00   1.493298e+11   9340s
  157245    1.0883126e+07   0.000000e+00   1.237476e+10   9345s
  158337    1.0883138e+07   0.000000e+00   2.240331e+08   9350s
  159585    1.0883155e+07   0.000000e+00   6.790938e+08   9356s
  160521    1.0883161e+07   0.000000e+00   1.472130e+11   9360s
  161613    1.0883337e+07   0.000000e+00   5.384725e+09   9365s
  162705    1.0883343e+07   0.000000e+00   2.134249e+08   9371s
  163797    1.0883360e+07   0.000000e+00   7.337616e+08   9375s
  164889    1.0883382e+07   0.000000e+00   1.262928e+09   9381s
  165825    1.0883393e+07   0.000000e+00   1.204095e+09   9386s
  166761    1.0883396e+07   0.000000e+00   3.120843e+08   9390s
  167853    1.0883401e+07   0.000000e+00   1.477872e+09   9396s
  168789    1.0883409e+07   0.000000e+00   2.478809e+10   9400s
  169725    1.0883416e+07   0.000000e+00   1.491483e+09   9406s
  170817    1.0883420e+07   0.000000e+00   7.783047e+08   9411s
  171753    1.0883426e+07   0.000000e+00   5.600099e+09   9415s
  172845    1.0883431e+07   0.000000e+00   2.939841e+13   9420s
  173781    1.0883440e+07   0.000000e+00   1.837506e+08   9425s
  174873    1.0883444e+07   0.000000e+00   1.458852e+09   9431s
  175809    1.0883446e+07   0.000000e+00   3.225914e+11   9435s
  176901    1.0883478e+07   0.000000e+00   6.701793e+09   9440s
  177837    1.0883484e+07   0.000000e+00   1.153000e+10   9446s
  178773    1.0883493e+07   0.000000e+00   1.343040e+10   9450s
  179865    1.0883503e+07   0.000000e+00   3.320905e+09   9455s
  180801    1.0883511e+07   0.000000e+00   7.884746e+08   9460s
  181893    1.0883515e+07   0.000000e+00   2.496613e+09   9465s
  182985    1.0883524e+07   0.000000e+00   9.144142e+08   9470s
  183921    1.0883526e+07   0.000000e+00   1.814232e+08   9475s
  185013    1.0883529e+07   0.000000e+00   1.528534e+08   9481s
  185949    1.0883536e+07   0.000000e+00   5.836892e+08   9485s
  187041    1.0883543e+07   0.000000e+00   3.649639e+08   9490s
  188133    1.0883547e+07   0.000000e+00   2.460854e+10   9495s
  189069    1.0883549e+07   0.000000e+00   3.301454e+09   9500s
  190005    1.0883557e+07   0.000000e+00   3.264914e+08   9505s
  190941    1.0883573e+07   0.000000e+00   2.317870e+09   9511s
  191877    1.0883592e+07   0.000000e+00   4.302366e+08   9516s
  192813    1.0883598e+07   0.000000e+00   4.408513e+09   9520s
  193905    1.0883607e+07   0.000000e+00   1.437353e+08   9526s
  194997    1.0883615e+07   0.000000e+00   4.477692e+08   9531s
  195933    1.0883619e+07   0.000000e+00   4.337530e+08   9536s
  196869    1.0883622e+07   0.000000e+00   2.294632e+09   9540s
  197805    1.0883634e+07   0.000000e+00   8.637638e+08   9545s
  198897    1.0883657e+07   0.000000e+00   1.669461e+08   9551s
  199833    1.0883665e+07   0.000000e+00   2.728775e+08   9555s
  200925    1.0883678e+07   0.000000e+00   3.699050e+08   9560s
  202017    1.0883686e+07   0.000000e+00   2.433641e+08   9566s
  203109    1.0883708e+07   0.000000e+00   1.416788e+08   9571s
  204045    1.0883724e+07   0.000000e+00   1.516388e+08   9575s
  205137    1.0883732e+07   0.000000e+00   3.673997e+09   9580s
  206229    1.0883736e+07   0.000000e+00   4.146888e+08   9586s
  207165    1.0883736e+07   0.000000e+00   1.744396e+08   9590s
  208101    1.0883745e+07   0.000000e+00   1.934471e+08   9595s
  209193    1.0883768e+07   0.000000e+00   1.197505e+09   9600s
  210285    1.0883782e+07   0.000000e+00   2.347431e+08   9605s
  211377    1.0883797e+07   0.000000e+00   4.005404e+09   9611s
  212313    1.0883804e+07   0.000000e+00   4.333255e+12   9616s
  213249    1.0883816e+07   0.000000e+00   2.924640e+08   9620s
  214341    1.0883830e+07   0.000000e+00   1.572333e+08   9625s
  215277    1.0883880e+07   0.000000e+00   2.889374e+09   9630s
  216213    1.0883893e+07   0.000000e+00   8.859716e+07   9635s
  217305    1.0884022e+07   0.000000e+00   3.444513e+08   9640s
  218241    1.0884025e+07   0.000000e+00   1.048170e+09   9645s
  219333    1.0884027e+07   0.000000e+00   1.277225e+09   9650s
  220269    1.0884035e+07   0.000000e+00   3.110546e+09   9655s
  221205    1.0884040e+07   0.000000e+00   1.839902e+08   9660s
  222297    1.0884048e+07   0.000000e+00   3.740824e+09   9666s
  223233    1.0884053e+07   0.000000e+00   1.248991e+08   9670s
  224325    1.0884059e+07   0.000000e+00   7.222528e+09   9675s
  225261    1.0884061e+07   0.000000e+00   4.603133e+08   9681s
  226353    1.0884065e+07   0.000000e+00   4.418016e+11   9686s
  227289    1.0884068e+07   0.000000e+00   1.084538e+09   9691s
  228225    1.0884070e+07   0.000000e+00   4.603927e+10   9695s
  229161    1.0884071e+07   0.000000e+00   4.730958e+08   9700s
  230253    1.0884107e+07   0.000000e+00   3.122704e+08   9706s
  231189    1.0884109e+07   0.000000e+00   7.235352e+10   9710s
  232125    1.0884115e+07   0.000000e+00   2.141230e+08   9715s
  233061    1.0884121e+07   0.000000e+00   9.033837e+09   9720s
  234153    1.0884285e+07   0.000000e+00   3.325805e+09   9725s
  235089    1.0884288e+07   0.000000e+00   2.858800e+08   9730s
  236181    1.0884292e+07   0.000000e+00   3.435396e+09   9735s
  237117    1.0884295e+07   0.000000e+00   2.553441e+08   9740s
  238209    1.0884306e+07   0.000000e+00   6.658353e+08   9745s
  239145    1.0884311e+07   0.000000e+00   4.551880e+08   9751s
  240081    1.0884313e+07   0.000000e+00   9.283108e+08   9756s
  240861    1.0884313e+07   0.000000e+00   2.641373e+08   9761s
  241797    1.0884317e+07   0.000000e+00   1.258873e+08   9765s
  242889    1.0884352e+07   0.000000e+00   1.902439e+08   9771s
  243825    1.0884392e+07   0.000000e+00   2.114812e+09   9775s
  244761    1.0884478e+07   0.000000e+00   2.186937e+10   9780s
  245853    1.0884485e+07   0.000000e+00   1.730197e+11   9785s
  246789    1.0884493e+07   0.000000e+00   7.115084e+09   9790s
  247725    1.0884504e+07   0.000000e+00   2.317112e+08   9795s
  248817    1.0884508e+07   0.000000e+00   1.113430e+09   9801s
  249753    1.0884510e+07   0.000000e+00   1.392388e+09   9806s
  250689    1.0884516e+07   0.000000e+00   9.328297e+08   9810s
  251781    1.0884524e+07   0.000000e+00   1.323133e+12   9815s
  252717    1.0884529e+07   0.000000e+00   3.471650e+08   9821s
  253653    1.0884534e+07   0.000000e+00   2.708204e+08   9826s
  254589    1.0884540e+07   0.000000e+00   2.074994e+08   9831s
  255369    1.0884543e+07   0.000000e+00   2.509671e+09   9835s
  256305    1.0884545e+07   0.000000e+00   4.136088e+09   9840s
  257241    1.0884554e+07   0.000000e+00   1.972597e+08   9845s
  258177    1.0884556e+07   0.000000e+00   7.520944e+07   9850s
  259269    1.0884560e+07   0.000000e+00   4.821947e+10   9855s
  260205    1.0884566e+07   0.000000e+00   1.619805e+08   9860s
  261141    1.0884570e+07   0.000000e+00   3.656218e+09   9865s
  262233    1.0884572e+07   0.000000e+00   1.160682e+09   9870s
  263325    1.0884574e+07   0.000000e+00   2.046710e+09   9875s
  264261    1.0884576e+07   0.000000e+00   8.191901e+08   9880s
  265197    1.0884580e+07   0.000000e+00   7.296264e+08   9885s
  266133    1.0884582e+07   0.000000e+00   5.960119e+08   9890s
  267069    1.0884583e+07   0.000000e+00   3.009310e+09   9895s
  268161    1.0884592e+07   0.000000e+00   1.625595e+08   9901s
  269097    1.0884595e+07   0.000000e+00   1.087091e+09   9905s
  270189    1.0884601e+07   0.000000e+00   6.569773e+09   9911s
  270969    1.0884603e+07   0.000000e+00   1.423972e+08   9915s
  271905    1.0884606e+07   0.000000e+00   4.473763e+08   9920s
  272841    1.0884617e+07   0.000000e+00   3.665998e+08   9925s
  274089    1.0884618e+07   0.000000e+00   4.415368e+08   9931s
  275025    1.0884619e+07   0.000000e+00   2.455497e+08   9935s
  275961    1.0884634e+07   0.000000e+00   1.447532e+08   9940s
  277053    1.0884642e+07   0.000000e+00   1.681263e+09   9946s
  277989    1.0884644e+07   0.000000e+00   1.334408e+08   9950s
  279081    1.0884647e+07   0.000000e+00   1.089535e+08   9956s
  280017    1.0884648e+07   0.000000e+00   2.066260e+09   9961s
  280953    1.0884650e+07   0.000000e+00   8.307315e+07   9965s
  281889    1.0884650e+07   0.000000e+00   1.884012e+08   9970s
  282825    1.0884652e+07   0.000000e+00   9.541646e+08   9975s
  283605    1.0884653e+07   0.000000e+00   1.977988e+08   9980s
  284697    1.0884655e+07   0.000000e+00   4.347488e+08   9986s
  285633    1.0884656e+07   0.000000e+00   1.427632e+08   9990s
  286725    1.0884662e+07   0.000000e+00   1.844083e+09   9995s
  287661    1.0884664e+07   0.000000e+00   7.705414e+07  10001s
  288597    1.0884671e+07   0.000000e+00   1.816842e+08  10005s
  289533    1.0884673e+07   0.000000e+00   3.963598e+08  10010s
  290625    1.0884679e+07   0.000000e+00   1.553979e+09  10015s
  291717    1.0884680e+07   0.000000e+00   4.783353e+08  10021s
  292653    1.0884682e+07   0.000000e+00   5.497148e+07  10026s
  293589    1.0884686e+07   0.000000e+00   1.660294e+09  10031s
  294525    1.0884687e+07   0.000000e+00   1.872481e+08  10035s
  295617    1.0884689e+07   0.000000e+00   6.028754e+07  10040s
  296709    1.0884689e+07   0.000000e+00   8.676112e+09  10045s
  297801    1.0884703e+07   0.000000e+00   1.557520e+08  10050s
  298893    1.0884706e+07   0.000000e+00   1.324605e+09  10056s
  299985    1.0884710e+07   0.000000e+00   1.466035e+12  10060s
  301077    1.0884712e+07   0.000000e+00   1.394221e+09  10065s
  302013    1.0884713e+07   0.000000e+00   2.138453e+09  10071s
  302949    1.0884714e+07   0.000000e+00   9.134692e+07  10075s
  304197    1.0884715e+07   0.000000e+00   6.038606e+08  10081s
  305133    1.0884722e+07   0.000000e+00   3.149502e+08  10085s
  306225    1.0884724e+07   0.000000e+00   1.106327e+08  10091s
  307161    1.0884727e+07   0.000000e+00   9.756300e+08  10096s
  308097    1.0884729e+07   0.000000e+00   4.427277e+08  10101s
  308877    1.0884730e+07   0.000000e+00   4.378286e+07  10105s
  309969    1.0884735e+07   0.000000e+00   2.615240e+09  10110s
  311061    1.0884736e+07   0.000000e+00   3.310545e+08  10116s
  311997    1.0884737e+07   0.000000e+00   1.144687e+08  10121s
  312933    1.0884738e+07   0.000000e+00   7.771435e+07  10126s
  313713    1.0884745e+07   0.000000e+00   1.939918e+10  10130s
  314649    1.0884749e+07   0.000000e+00   1.438348e+08  10135s
  315585    1.0884757e+07   0.000000e+00   3.041115e+08  10140s
  316521    1.0884761e+07   0.000000e+00   2.544065e+08  10146s
  317301    1.0884765e+07   0.000000e+00   5.056998e+08  10150s
  318237    1.0884768e+07   0.000000e+00   2.800504e+08  10155s
  319329    1.0884769e+07   0.000000e+00   6.688230e+07  10160s
  320265    1.0884771e+07   0.000000e+00   1.734778e+08  10165s
  321201    1.0884774e+07   0.000000e+00   8.625313e+07  10170s
  322293    1.0884779e+07   0.000000e+00   7.547691e+07  10176s
  323385    1.0884780e+07   0.000000e+00   1.742734e+08  10180s
  324321    1.0884872e+07   0.000000e+00   1.012199e+08  10186s
  325413    1.0884878e+07   0.000000e+00   4.846069e+08  10191s
  326193    1.0884907e+07   0.000000e+00   3.948297e+10  10195s
  327287    1.0884909e+07   0.000000e+00   1.096379e+10  10200s
  328535    1.0884910e+07   0.000000e+00   1.138506e+08  10206s
  329471    1.0884911e+07   0.000000e+00   6.682715e+08  10210s
  330563    1.0884914e+07   0.000000e+00   1.046764e+10  10215s
  331655    1.0884933e+07   0.000000e+00   2.350110e+08  10221s
  332591    1.0884934e+07   0.000000e+00   6.167173e+07  10225s
  333683    1.0884937e+07   0.000000e+00   1.086646e+08  10230s
  334775    1.0884945e+07   0.000000e+00   1.494966e+08  10235s
  335867    1.0884946e+07   0.000000e+00   6.600010e+09  10241s
  336803    1.0884947e+07   0.000000e+00   2.616661e+09  10245s
  338051    1.0884948e+07   0.000000e+00   1.095634e+08  10250s
  339143    1.0884950e+07   0.000000e+00   2.277748e+08  10256s
  340079    1.0884953e+07   0.000000e+00   2.396892e+08  10260s
  341015    1.0884954e+07   0.000000e+00   1.381406e+09  10265s
  341951    1.0884955e+07   0.000000e+00   7.881134e+07  10270s
  343043    1.0884957e+07   0.000000e+00   8.745359e+07  10275s
  344135    1.0884960e+07   0.000000e+00   3.736536e+08  10281s
  344915    1.0884962e+07   0.000000e+00   8.963970e+07  10285s
  346163    1.0884964e+07   0.000000e+00   4.489779e+09  10290s
  347099    1.0884975e+07   0.000000e+00   3.219865e+08  10295s
  348191    1.0884976e+07   0.000000e+00   4.698506e+08  10301s
  348971    1.0884981e+07   0.000000e+00   4.147792e+08  10305s
  349907    1.0884982e+07   0.000000e+00   4.653752e+09  10310s
  350843    1.0884983e+07   0.000000e+00   9.232618e+07  10315s
  351935    1.0884984e+07   0.000000e+00   8.367832e+08  10320s
  353027    1.0884985e+07   0.000000e+00   2.486637e+09  10325s
  354119    1.0884986e+07   0.000000e+00   6.104638e+09  10330s
  355213    1.0885013e+07   0.000000e+00   1.014108e+08  10335s
  356461    1.0885014e+07   0.000000e+00   9.323259e+07  10340s
  357397    1.0885015e+07   0.000000e+00   4.252867e+07  10345s
  358489    1.0885016e+07   0.000000e+00   1.781931e+08  10350s
  359581    1.0885016e+07   0.000000e+00   2.531112e+08  10355s
  360517    1.0885017e+07   0.000000e+00   2.137699e+08  10361s
  361609    1.0885018e+07   0.000000e+00   1.483368e+08  10366s
  362545    1.0885018e+07   0.000000e+00   3.905476e+07  10370s
  363793    1.0885040e+07   0.000000e+00   1.165998e+08  10376s
  364729    1.0885043e+07   0.000000e+00   7.179158e+09  10380s
  365821    1.0885045e+07   0.000000e+00   1.578607e+08  10385s
  366913    1.0885046e+07   0.000000e+00   5.417369e+08  10391s
  367849    1.0885050e+07   0.000000e+00   3.025043e+08  10395s
  368941    1.0885052e+07   0.000000e+00   2.856513e+08  10400s
  369877    1.0885053e+07   0.000000e+00   5.993360e+07  10405s
  371125    1.0885054e+07   0.000000e+00   2.770547e+08  10410s
  372217    1.0885055e+07   0.000000e+00   6.447719e+08  10416s
  373309    1.0885056e+07   0.000000e+00   1.595299e+09  10420s
  374245    1.0885056e+07   0.000000e+00   6.197140e+07  10425s
  375362    1.0885059e+07   0.000000e+00   4.472309e+07  10430s
  376454    1.0885061e+07   0.000000e+00   2.420660e+08  10436s
  377546    1.0885061e+07   0.000000e+00   1.154677e+08  10441s
  378482    1.0885062e+07   0.000000e+00   8.139851e+07  10445s
  379886    1.0885081e+07   0.000000e+00   2.762885e+07  10451s
  380978    1.0885084e+07   0.000000e+00   2.834714e+07  10456s
  382070    1.0885089e+07   0.000000e+00   1.262318e+08  10460s
  383162    1.0885091e+07   0.000000e+00   2.866088e+08  10465s
  384566    1.0885095e+07   0.000000e+00   2.235454e+09  10471s
  385502    1.0885096e+07   0.000000e+00   9.011441e+07  10475s
  386750    1.0885098e+07   0.000000e+00   4.449009e+08  10480s
  387998    1.0885101e+07   0.000000e+00   9.517600e+07  10486s
  388934    1.0885105e+07   0.000000e+00   5.651251e+08  10490s
  390026    1.0885106e+07   0.000000e+00   3.682693e+07  10495s
  391118    1.0885107e+07   0.000000e+00   5.376054e+08  10500s
  392210    1.0885108e+07   0.000000e+00   3.286695e+08  10505s
  393146    1.0885109e+07   0.000000e+00   9.375470e+07  10510s
  394394    1.0885118e+07   0.000000e+00   2.522814e+08  10516s
  395330    1.0885118e+07   0.000000e+00   1.829121e+09  10520s
  396422    1.0885119e+07   0.000000e+00   6.839493e+08  10525s
  397514    1.0885119e+07   0.000000e+00   7.786405e+07  10530s
  398450    1.0885120e+07   0.000000e+00   6.345978e+08  10535s
  399386    1.0885120e+07   0.000000e+00   1.408475e+08  10540s
  400322    1.0885121e+07   0.000000e+00   5.930901e+07  10545s
  401258    1.0885122e+07   0.000000e+00   1.276259e+08  10550s
  402350    1.0885122e+07   0.000000e+00   6.777353e+07  10556s
  403130    1.0885124e+07   0.000000e+00   1.228466e+08  10560s
  404066    1.0885125e+07   0.000000e+00   1.784352e+10  10565s
  405314    1.0885126e+07   0.000000e+00   3.159263e+07  10570s
  406406    1.0885126e+07   0.000000e+00   3.742309e+07  10575s
  407342    1.0885126e+07   0.000000e+00   7.694538e+07  10580s
  408434    1.0885127e+07   0.000000e+00   1.448504e+08  10586s
  409370    1.0885127e+07   0.000000e+00   3.829129e+07  10590s
  410462    1.0885128e+07   0.000000e+00   9.292659e+07  10596s
  411242    1.0885128e+07   0.000000e+00   4.386247e+07  10600s
  412334    1.0885129e+07   0.000000e+00   5.628223e+07  10605s
  413270    1.0885129e+07   0.000000e+00   2.801541e+07  10610s
  414362    1.0885129e+07   0.000000e+00   1.393956e+08  10616s
  415298    1.0885130e+07   0.000000e+00   2.059558e+08  10621s
  416078    1.0885130e+07   0.000000e+00   4.406376e+07  10626s
  417014    1.0885130e+07   0.000000e+00   2.671207e+07  10631s
  417950    1.0885131e+07   0.000000e+00   8.541593e+07  10636s
  418886    1.0885131e+07   0.000000e+00   1.892171e+09  10640s
  419822    1.0885131e+07   0.000000e+00   8.290600e+07  10645s
  420758    1.0885132e+07   0.000000e+00   3.093181e+07  10651s
  421694    1.0885132e+07   0.000000e+00   3.368117e+07  10656s
  422630    1.0885132e+07   0.000000e+00   4.567865e+07  10660s
  423566    1.0885133e+07   0.000000e+00   2.387984e+07  10666s
  424502    1.0885133e+07   0.000000e+00   3.452107e+07  10671s
  425438    1.0885133e+07   0.000000e+00   7.320085e+07  10676s
  426218    1.0885135e+07   0.000000e+00   1.105188e+08  10680s
  427154    1.0885135e+07   0.000000e+00   1.224712e+08  10685s
  428090    1.0885136e+07   0.000000e+00   2.825414e+07  10691s
  428870    1.0885139e+07   0.000000e+00   1.626977e+08  10695s
  429962    1.0885139e+07   0.000000e+00   1.484225e+08  10701s
  430898    1.0885140e+07   0.000000e+00   6.164321e+07  10706s
  431834    1.0885142e+07   0.000000e+00   3.672608e+09  10710s
  432926    1.0885144e+07   0.000000e+00   1.049248e+09  10716s
  433862    1.0885144e+07   0.000000e+00   9.544616e+07  10720s
  434798    1.0885144e+07   0.000000e+00   4.899396e+07  10725s
  435734    1.0885145e+07   0.000000e+00   1.275562e+08  10730s
  436514    1.0885146e+07   0.000000e+00   4.885257e+07  10735s
  437294    1.0885146e+07   0.000000e+00   1.207334e+08  10740s
  438230    1.0885148e+07   0.000000e+00   2.082236e+08  10745s
  439166    1.0885149e+07   0.000000e+00   3.448562e+08  10751s
  439946    1.0885149e+07   0.000000e+00   6.018806e+07  10755s
  440882    1.0885149e+07   0.000000e+00   1.593288e+08  10760s
  441818    1.0885150e+07   0.000000e+00   5.502901e+07  10765s
  442754    1.0885150e+07   0.000000e+00   6.549565e+07  10770s
  443690    1.0885151e+07   0.000000e+00   2.876859e+08  10775s
  444626    1.0885151e+07   0.000000e+00   2.384600e+08  10780s
  445562    1.0885151e+07   0.000000e+00   2.141416e+08  10785s
  446498    1.0885153e+07   0.000000e+00   3.136982e+07  10791s
  447434    1.0885153e+07   0.000000e+00   2.927815e+09  10796s
  448370    1.0885154e+07   0.000000e+00   2.441699e+07  10801s
  449306    1.0885154e+07   0.000000e+00   3.967582e+07  10806s
  450086    1.0885156e+07   0.000000e+00   2.927398e+09  10810s
  451022    1.0885156e+07   0.000000e+00   1.980078e+08  10815s
  451958    1.0885156e+07   0.000000e+00   3.203642e+08  10821s
  452738    1.0885156e+07   0.000000e+00   1.788383e+08  10825s
  453830    1.0885160e+07   0.000000e+00   6.479635e+07  10831s
  454766    1.0885160e+07   0.000000e+00   1.108289e+09  10836s
  455702    1.0885160e+07   0.000000e+00   8.368641e+07  10841s
  456482    1.0885161e+07   0.000000e+00   4.199634e+07  10845s
  457418    1.0885161e+07   0.000000e+00   7.668729e+08  10850s
  458354    1.0885161e+07   0.000000e+00   3.208968e+08  10855s
  459290    1.0885161e+07   0.000000e+00   2.410498e+07  10860s
  460226    1.0885162e+07   0.000000e+00   6.614842e+07  10866s
  461006    1.0885162e+07   0.000000e+00   1.054441e+08  10870s
  461942    1.0885162e+07   0.000000e+00   3.305521e+07  10875s
  462878    1.0885162e+07   0.000000e+00   4.435711e+07  10881s
  463658    1.0885162e+07   0.000000e+00   1.913946e+07  10885s
  464594    1.0885163e+07   0.000000e+00   5.163836e+07  10890s
  465686    1.0885163e+07   0.000000e+00   4.128510e+07  10896s
  466622    1.0885163e+07   0.000000e+00   4.210027e+08  10901s
  467402    1.0885164e+07   0.000000e+00   9.585881e+08  10905s
  468338    1.0885168e+07   0.000000e+00   1.195912e+10  10911s
  469274    1.0885171e+07   0.000000e+00   5.271969e+07  10915s
  470366    1.0885171e+07   0.000000e+00   5.633987e+07  10920s
  471302    1.0885173e+07   0.000000e+00   6.825823e+07  10925s
  472238    1.0885174e+07   0.000000e+00   1.377036e+08  10931s
  473174    1.0885174e+07   0.000000e+00   5.482270e+07  10935s
  474110    1.0885175e+07   0.000000e+00   6.609516e+07  10940s
  475046    1.0885175e+07   0.000000e+00   1.226160e+07  10946s
  475982    1.0885175e+07   0.000000e+00   1.947220e+07  10951s
  476762    1.0885175e+07   0.000000e+00   2.657490e+07  10956s
  477698    1.0885176e+07   0.000000e+00   4.809282e+07  10961s
  478478    1.0885176e+07   0.000000e+00   8.671053e+07  10965s
  479258    1.0885176e+07   0.000000e+00   6.842234e+08  10970s
  480194    1.0885176e+07   0.000000e+00   2.792966e+07  10976s
  480974    1.0885176e+07   0.000000e+00   3.548391e+07  10981s
  481754    1.0885176e+07   0.000000e+00   2.549916e+07  10985s
  482690    1.0885177e+07   0.000000e+00   1.587064e+07  10991s
  483470    1.0885177e+07   0.000000e+00   2.533538e+07  10996s
  484250    1.0885177e+07   0.000000e+00   2.529343e+07  11001s
  485030    1.0885177e+07   0.000000e+00   3.132280e+07  11005s
  485966    1.0885177e+07   0.000000e+00   3.614819e+07  11011s
  486746    1.0885178e+07   0.000000e+00   1.260244e+09  11016s
  487526    1.0885178e+07   0.000000e+00   1.464671e+08  11020s
  488306    1.0885178e+07   0.000000e+00   3.168806e+08  11025s
  489242    1.0885179e+07   0.000000e+00   2.027428e+07  11031s
  490022    1.0885179e+07   0.000000e+00   3.132209e+07  11035s
  490802    1.0885179e+07   0.000000e+00   3.553400e+07  11040s
  491582    1.0885179e+07   0.000000e+00   1.319403e+07  11045s
  492518    1.0885179e+07   0.000000e+00   1.478122e+07  11051s
  493298    1.0885179e+07   0.000000e+00   1.077743e+07  11056s
  494078    1.0885179e+07   0.000000e+00   2.638517e+08  11060s
  495014    1.0885179e+07   0.000000e+00   1.096027e+07  11066s
  495794    1.0885180e+07   0.000000e+00   1.069171e+08  11070s
  496730    1.0885180e+07   0.000000e+00   1.113929e+08  11075s
  497510    1.0885180e+07   0.000000e+00   7.753937e+07  11080s
  498446    1.0885180e+07   0.000000e+00   6.723928e+07  11086s
  499226    1.0885181e+07   0.000000e+00   1.153741e+07  11091s
  500006    1.0885181e+07   0.000000e+00   7.137037e+06  11095s
  500942    1.0885181e+07   0.000000e+00   7.825200e+06  11101s
  501722    1.0885181e+07   0.000000e+00   1.423222e+07  11105s
  502502    1.0885181e+07   0.000000e+00   8.073786e+06  11110s
  503438    1.0885181e+07   0.000000e+00   2.472012e+07  11116s
  504218    1.0885181e+07   0.000000e+00   1.144772e+07  11121s
  504998    1.0885181e+07   0.000000e+00   1.053297e+07  11126s
  505778    1.0885182e+07   0.000000e+00   5.272128e+07  11131s
  506558    1.0885183e+07   0.000000e+00   1.075747e+08  11135s
  507338    1.0885183e+07   0.000000e+00   9.467607e+07  11140s
  508274    1.0885183e+07   0.000000e+00   5.835310e+07  11145s
  509210    1.0885184e+07   0.000000e+00   6.546195e+07  11151s
  509990    1.0885184e+07   0.000000e+00   8.269948e+07  11155s
  510926    1.0885184e+07   0.000000e+00   7.536629e+07  11161s
  511706    1.0885184e+07   0.000000e+00   5.021585e+06  11165s
  512486    1.0885184e+07   0.000000e+00   2.786270e+07  11170s
  513422    1.0885185e+07   0.000000e+00   1.930369e+07  11176s
  514202    1.0885185e+07   0.000000e+00   9.231288e+07  11181s
  515138    1.0885185e+07   0.000000e+00   2.457894e+07  11186s
  515918    1.0885185e+07   0.000000e+00   2.243734e+07  11191s
  516698    1.0885185e+07   0.000000e+00   9.123716e+06  11195s
  517478    1.0885185e+07   0.000000e+00   7.496506e+06  11200s
  518414    1.0885185e+07   0.000000e+00   9.987021e+06  11206s
  519194    1.0885186e+07   0.000000e+00   1.645066e+07  11210s
  519974    1.0885186e+07   0.000000e+00   1.852787e+07  11215s
  520910    1.0885186e+07   0.000000e+00   8.636943e+06  11221s
  521690    1.0885186e+07   0.000000e+00   1.850505e+08  11225s
  522470    1.0885186e+07   0.000000e+00   2.615583e+07  11230s
  523250    1.0885186e+07   0.000000e+00   5.443123e+07  11235s
  524186    1.0885187e+07   0.000000e+00   2.878772e+07  11240s
  525122    1.0885187e+07   0.000000e+00   1.938752e+07  11246s
  525902    1.0885187e+07   0.000000e+00   1.287485e+08  11251s
  526682    1.0885187e+07   0.000000e+00   6.572821e+07  11255s
  527618    1.0885187e+07   0.000000e+00   8.055668e+07  11260s
  528554    1.0885188e+07   0.000000e+00   1.478365e+07  11265s
  529490    1.0885188e+07   0.000000e+00   4.260303e+06  11271s
  530270    1.0885188e+07   0.000000e+00   3.051617e+08  11275s
  531206    1.0885188e+07   0.000000e+00   9.577762e+06  11281s
  531986    1.0885188e+07   0.000000e+00   3.930196e+06  11285s
  532766    1.0885188e+07   0.000000e+00   7.404846e+06  11290s
  533702    1.0885188e+07   0.000000e+00   2.866440e+07  11295s
  534638    1.0885189e+07   0.000000e+00   2.104658e+07  11301s
  535418    1.0885189e+07   0.000000e+00   3.207978e+08  11306s
  536198    1.0885189e+07   0.000000e+00   2.233902e+07  11310s
  536978    1.0885189e+07   0.000000e+00   4.202226e+08  11316s
  537758    1.0885190e+07   0.000000e+00   1.485177e+07  11321s
  538538    1.0885190e+07   0.000000e+00   9.256165e+06  11326s
  539318    1.0885190e+07   0.000000e+00   9.699502e+06  11331s
  540098    1.0885190e+07   0.000000e+00   1.237478e+07  11335s
  540878    1.0885192e+07   0.000000e+00   8.485406e+07  11340s
  541814    1.0885193e+07   0.000000e+00   4.954482e+07  11346s
  542594    1.0885193e+07   0.000000e+00   6.344514e+08  11351s
  543374    1.0885194e+07   0.000000e+00   2.296581e+07  11355s
  544154    1.0885196e+07   0.000000e+00   2.286416e+08  11361s
  544934    1.0885196e+07   0.000000e+00   7.239104e+07  11365s
  545870    1.0885196e+07   0.000000e+00   1.329710e+07  11371s
  546650    1.0885196e+07   0.000000e+00   2.016444e+07  11376s
  547430    1.0885197e+07   0.000000e+00   8.929901e+07  11380s
  548210    1.0885197e+07   0.000000e+00   1.875707e+07  11386s
  548990    1.0885197e+07   0.000000e+00   5.399934e+07  11391s
  549770    1.0885197e+07   0.000000e+00   1.139897e+07  11396s
  550394    1.0885197e+07   0.000000e+00   2.276269e+07  11400s
  551174    1.0885198e+07   0.000000e+00   7.313324e+07  11405s
  551954    1.0885198e+07   0.000000e+00   4.090855e+07  11410s
  552734    1.0885198e+07   0.000000e+00   7.207477e+06  11415s
  553514    1.0885198e+07   0.000000e+00   4.808370e+06  11420s
  554294    1.0885198e+07   0.000000e+00   3.965367e+07  11426s
  555074    1.0885198e+07   0.000000e+00   9.316844e+06  11431s
  555854    1.0885199e+07   0.000000e+00   1.897398e+07  11436s
  556478    1.0885199e+07   0.000000e+00   1.558958e+07  11440s
  557258    1.0885199e+07   0.000000e+00   1.175738e+07  11445s
  558038    1.0885199e+07   0.000000e+00   7.781509e+06  11451s
  558818    1.0885199e+07   0.000000e+00   1.477023e+08  11456s
  559442    1.0885199e+07   0.000000e+00   1.742164e+07  11460s
  560222    1.0885199e+07   0.000000e+00   1.765997e+07  11465s
  561002    1.0885199e+07   0.000000e+00   9.262250e+06  11470s
  561938    1.0885199e+07   0.000000e+00   6.237207e+06  11476s
  562718    1.0885200e+07   0.000000e+00   1.333354e+07  11481s
  563498    1.0885200e+07   0.000000e+00   1.291338e+07  11486s
  564122    1.0885200e+07   0.000000e+00   8.214250e+06  11490s
  564902    1.0885200e+07   0.000000e+00   1.807496e+07  11495s
  565682    1.0885200e+07   0.000000e+00   2.722467e+06  11500s
  566462    1.0885200e+07   0.000000e+00   2.313221e+07  11505s
  567242    1.0885200e+07   0.000000e+00   6.076087e+06  11510s
  568022    1.0885200e+07   0.000000e+00   3.007935e+06  11515s
  568802    1.0885200e+07   0.000000e+00   5.772110e+06  11520s
  569582    1.0885201e+07   0.000000e+00   8.291140e+06  11525s
  570362    1.0885201e+07   0.000000e+00   8.011334e+06  11531s
  571142    1.0885201e+07   0.000000e+00   9.903185e+06  11535s
  571922    1.0885201e+07   0.000000e+00   1.931491e+07  11540s
  572702    1.0885201e+07   0.000000e+00   7.202146e+06  11546s
  573482    1.0885201e+07   0.000000e+00   6.481995e+06  11551s
  574106    1.0885201e+07   0.000000e+00   1.827679e+08  11555s
  574886    1.0885201e+07   0.000000e+00   4.821888e+07  11560s
  575666    1.0885201e+07   0.000000e+00   4.076194e+07  11565s
  576446    1.0885201e+07   0.000000e+00   5.630867e+06  11570s
  577226    1.0885201e+07   0.000000e+00   1.313183e+07  11576s
  578006    1.0885202e+07   0.000000e+00   5.491965e+06  11581s
  578786    1.0885202e+07   0.000000e+00   9.081748e+06  11586s
  579566    1.0885202e+07   0.000000e+00   7.970781e+06  11591s
  580346    1.0885202e+07   0.000000e+00   1.576661e+07  11596s
  580970    1.0885202e+07   0.000000e+00   7.161083e+06  11600s
  581750    1.0885202e+07   0.000000e+00   3.270843e+06  11605s
  582530    1.0885202e+07   0.000000e+00   3.240222e+06  11611s
  583310    1.0885202e+07   0.000000e+00   2.447228e+07  11616s
  583934    1.0885202e+07   0.000000e+00   2.717325e+07  11620s
  584714    1.0885202e+07   0.000000e+00   1.309405e+07  11625s
  585494    1.0885202e+07   0.000000e+00   2.592641e+06  11631s
  586118    1.0885202e+07   0.000000e+00   6.630093e+06  11635s
  586898    1.0885202e+07   0.000000e+00   2.211967e+06  11640s
  587678    1.0885203e+07   0.000000e+00   2.844774e+07  11646s
  588458    1.0885203e+07   0.000000e+00   7.618066e+06  11651s
  589238    1.0885203e+07   0.000000e+00   5.654526e+06  11656s
  590018    1.0885203e+07   0.000000e+00   1.153599e+07  11661s
  590642    1.0885203e+07   0.000000e+00   6.089081e+06  11665s
  591422    1.0885203e+07   0.000000e+00   2.241298e+06  11670s
  592202    1.0885203e+07   0.000000e+00   8.132630e+06  11675s
  592982    1.0885203e+07   0.000000e+00   5.449182e+06  11681s
  593762    1.0885203e+07   0.000000e+00   7.202398e+06  11686s
  594542    1.0885203e+07   0.000000e+00   2.475286e+06  11691s
  595166    1.0885203e+07   0.000000e+00   3.510011e+06  11695s
  595946    1.0885203e+07   0.000000e+00   3.116931e+06  11701s
  596726    1.0885203e+07   0.000000e+00   3.281892e+06  11706s
  597506    1.0885203e+07   0.000000e+00   4.843076e+06  11711s
  598130    1.0885203e+07   0.000000e+00   7.974606e+06  11715s
  598910    1.0885203e+07   0.000000e+00   2.868128e+06  11720s
  599690    1.0885203e+07   0.000000e+00   5.082943e+06  11726s
  600470    1.0885203e+07   0.000000e+00   7.389153e+06  11731s
  601250    1.0885203e+07   0.000000e+00   1.270267e+07  11736s
  601874    1.0885203e+07   0.000000e+00   2.270047e+06  11740s
  602810    1.0885204e+07   0.000000e+00   1.555170e+07  11746s
  603590    1.0885204e+07   0.000000e+00   3.203086e+06  11751s
  604214    1.0885204e+07   0.000000e+00   5.093396e+06  11755s
  604994    1.0885204e+07   0.000000e+00   3.857748e+06  11761s
  605774    1.0885204e+07   0.000000e+00   1.349088e+07  11766s
  606398    1.0885204e+07   0.000000e+00   3.189100e+07  11770s
  607178    1.0885204e+07   0.000000e+00   3.383833e+06  11775s
  607958    1.0885204e+07   0.000000e+00   1.478479e+07  11781s
  608738    1.0885204e+07   0.000000e+00   5.131043e+06  11786s
  609518    1.0885204e+07   0.000000e+00   1.274984e+07  11791s
  610298    1.0885204e+07   0.000000e+00   2.625127e+07  11796s
  611078    1.0885204e+07   0.000000e+00   2.191442e+06  11801s
  611702    1.0885204e+07   0.000000e+00   6.229576e+06  11805s
  612482    1.0885204e+07   0.000000e+00   1.080100e+06  11811s
  613262    1.0885204e+07   0.000000e+00   1.212377e+06  11816s
  614042    1.0885204e+07   0.000000e+00   9.382189e+05  11821s
  614666    1.0885205e+07   0.000000e+00   1.816190e+06  11825s
  615446    1.0885205e+07   0.000000e+00   5.571374e+06  11830s
  616226    1.0885205e+07   0.000000e+00   3.379477e+06  11836s
  617006    1.0885205e+07   0.000000e+00   5.101463e+06  11841s
  617786    1.0885205e+07   0.000000e+00   3.035455e+06  11846s
  618410    1.0885205e+07   0.000000e+00   1.953961e+06  11850s
  619190    1.0885205e+07   0.000000e+00   3.544826e+06  11855s
  619970    1.0885205e+07   0.000000e+00   6.299742e+06  11860s
  620750    1.0885205e+07   0.000000e+00   6.532284e+06  11866s
  621530    1.0885205e+07   0.000000e+00   9.778767e+06  11871s
  622310    1.0885205e+07   0.000000e+00   8.474575e+06  11876s
  622934    1.0885205e+07   0.000000e+00   4.030360e+06  11880s
  623714    1.0885205e+07   0.000000e+00   1.950766e+06  11885s
  624494    1.0885205e+07   0.000000e+00   2.034049e+06  11891s
  625118    1.0885205e+07   0.000000e+00   7.299575e+06  11895s
  625898    1.0885205e+07   0.000000e+00   1.336748e+06  11900s
  626678    1.0885205e+07   0.000000e+00   2.491003e+06  11906s
  627302    1.0885205e+07   0.000000e+00   1.192711e+06  11910s
  628082    1.0885205e+07   0.000000e+00   1.092938e+07  11916s
  628706    1.0885205e+07   0.000000e+00   1.006845e+06  11920s
  629486    1.0885205e+07   0.000000e+00   2.428129e+06  11925s
  630266    1.0885205e+07   0.000000e+00   1.491343e+06  11930s
  631046    1.0885205e+07   0.000000e+00   1.693516e+06  11936s
  631670    1.0885205e+07   0.000000e+00   1.512524e+06  11940s
  632450    1.0885205e+07   0.000000e+00   1.778633e+06  11946s
  633230    1.0885205e+07   0.000000e+00   4.172301e+06  11951s
  633854    1.0885205e+07   0.000000e+00   1.907926e+06  11955s
  634634    1.0885205e+07   0.000000e+00   1.316086e+06  11961s
  635414    1.0885206e+07   0.000000e+00   6.790685e+05  11966s
  636038    1.0885206e+07   0.000000e+00   1.129883e+06  11970s
  636818    1.0885206e+07   0.000000e+00   2.512221e+06  11976s
  637598    1.0885206e+07   0.000000e+00   2.294050e+06  11981s
  638222    1.0885206e+07   0.000000e+00   5.329775e+06  11985s
  639002    1.0885206e+07   0.000000e+00   1.523227e+06  11991s
  639626    1.0885206e+07   0.000000e+00   1.685763e+06  11995s
  640406    1.0885206e+07   0.000000e+00   1.212153e+06  12000s
  641186    1.0885206e+07   0.000000e+00   8.520922e+05  12006s
  641810    1.0885206e+07   0.000000e+00   1.476743e+06  12010s
  642590    1.0885206e+07   0.000000e+00   7.652429e+05  12016s
  643214    1.0885206e+07   0.000000e+00   1.327344e+06  12020s
  643994    1.0885206e+07   0.000000e+00   9.808303e+05  12026s
  644618    1.0885206e+07   0.000000e+00   1.170290e+06  12030s
  645398    1.0885206e+07   0.000000e+00   9.175217e+05  12036s
  646022    1.0885206e+07   0.000000e+00   1.269522e+06  12040s
  646802    1.0885206e+07   0.000000e+00   4.888536e+05  12045s
  647582    1.0885206e+07   0.000000e+00   3.479146e+06  12051s
  648206    1.0885206e+07   0.000000e+00   1.299606e+06  12055s
  648986    1.0885206e+07   0.000000e+00   1.926941e+06  12061s
  649766    1.0885206e+07   0.000000e+00   4.138524e+06  12066s
  650390    1.0885206e+07   0.000000e+00   5.073752e+06  12070s
  651170    1.0885206e+07   0.000000e+00   3.235970e+05  12076s
  651950    1.0885206e+07   0.000000e+00   5.251104e+05  12081s
  652574    1.0885206e+07   0.000000e+00   9.238232e+05  12085s
  653354    1.0885206e+07   0.000000e+00   6.200688e+05  12091s
  653978    1.0885206e+07   0.000000e+00   4.964930e+05  12095s
  654758    1.0885206e+07   0.000000e+00   2.714536e+05  12101s
  655382    1.0885206e+07   0.000000e+00   9.705290e+05  12105s
  656162    1.0885206e+07   0.000000e+00   3.301461e+05  12110s
  656942    1.0885206e+07   0.000000e+00   6.279735e+05  12116s
  657722    1.0885206e+07   0.000000e+00   6.075625e+05  12121s
  658346    1.0885206e+07   0.000000e+00   4.285358e+05  12125s
  659126    1.0885206e+07   0.000000e+00   3.602057e+05  12131s
  659750    1.0885206e+07   0.000000e+00   3.698118e+05  12135s
  660530    1.0885206e+07   0.000000e+00   4.326891e+05  12141s
  661154    1.0885206e+07   0.000000e+00   4.781898e+05  12145s
  661778    1.0885206e+07   0.000000e+00   2.531773e+06  12150s
  662558    1.0885206e+07   0.000000e+00   3.852056e+05  12156s
  663182    1.0885206e+07   0.000000e+00   1.896426e+05  12160s
  663962    1.0885206e+07   0.000000e+00   2.332068e+05  12166s
  664742    1.0885206e+07   0.000000e+00   1.919846e+05  12171s
  665366    1.0885206e+07   0.000000e+00   5.856380e+05  12176s
  665990    1.0885206e+07   0.000000e+00   1.764012e+05  12180s
  666770    1.0885206e+07   0.000000e+00   9.757172e+04  12186s
  667394    1.0885206e+07   0.000000e+00   1.473852e+05  12191s
  668018    1.0885206e+07   0.000000e+00   1.153757e+05  12196s
  668642    1.0885206e+07   0.000000e+00   1.672449e+05  12200s
  669266    1.0885206e+07   0.000000e+00   1.897962e+05  12205s
  669890    1.0885206e+07   0.000000e+00   8.307870e+04  12210s
  670670    1.0885206e+07   0.000000e+00   1.686709e+05  12216s
  671294    1.0885206e+07   0.000000e+00   6.158283e+04  12221s
  671918    1.0885206e+07   0.000000e+00   1.156665e+05  12226s
  672542    1.0885206e+07   0.000000e+00   4.593779e+04  12231s
  673166    1.0885206e+07   0.000000e+00   1.912367e+04  12236s
  673790    1.0885206e+07   0.000000e+00   2.908436e+04  12241s
  674414    1.0885206e+07   0.000000e+00   5.638553e+03  12246s
  675038    1.0885206e+07   0.000000e+00   1.177351e+04  12251s
  675662    1.0885206e+07   0.000000e+00   4.502965e+03  12256s
  676286    1.0885206e+07   0.000000e+00   1.915942e+03  12261s
  676910    1.0885206e+07   0.000000e+00   2.942988e+03  12266s
  677378    1.0885206e+07   0.000000e+00   3.468631e+03  12270s
  677647    1.0881464e+07   1.331034e+01   0.000000e+00  12276s
  677877    1.0881464e+07   7.131511e+01   0.000000e+00  12284s
  677997    1.0881464e+07   2.413321e+02   0.000000e+00  12289s
  678137    1.0881463e+07   3.516560e+02   0.000000e+00  12294s
  678277    1.0881463e+07   4.417426e+02   0.000000e+00  12299s
  678407    1.0881462e+07   2.840856e+02   0.000000e+00  12304s
  678537    1.0881462e+07   2.988477e+02   0.000000e+00  12309s
  678657    1.0881462e+07   1.504297e+03   0.000000e+00  12313s
  678777    1.0881462e+07   2.449115e+02   0.000000e+00  12318s
  678877    1.0881462e+07   1.337337e+02   0.000000e+00  12321s
  679017    1.0881462e+07   4.121864e+02   0.000000e+00  12326s
  679137    1.0881462e+07   5.224931e+02   0.000000e+00  12331s
  679277    1.0881462e+07   2.059387e+02   0.000000e+00  12336s
  679407    1.0881462e+07   2.334256e+02   0.000000e+00  12340s
  679657    1.0881461e+07   2.848435e+03   0.000000e+00  12350s
  679787    1.0881460e+07   4.280298e+02   0.000000e+00  12354s
  679907    1.0881460e+07   6.137533e+03   0.000000e+00  12359s
  680047    1.0881448e+07   3.907588e+05   0.000000e+00  12363s
  680147    1.0881447e+07   3.839215e+05   0.000000e+00  12366s
  680277    1.0881445e+07   3.907261e+05   0.000000e+00  12371s
  680407    1.0881442e+07   3.895988e+05   0.000000e+00  12375s
  680527    1.0881441e+07   3.906365e+05   0.000000e+00  12380s
  680767    1.0881399e+07   4.859721e+06   0.000000e+00  12389s
  680867    1.0881389e+07   2.324710e+05   0.000000e+00  12392s
  680987    1.0881387e+07   2.195610e+05   0.000000e+00  12397s
  681107    1.0881386e+07   2.251028e+05   0.000000e+00  12401s
  681227    1.0881385e+07   2.409516e+05   0.000000e+00  12406s
  681347    1.0881383e+07   2.309297e+05   0.000000e+00  12410s
  681497    1.0881379e+07   2.591068e+05   0.000000e+00  12415s
  681627    1.0881379e+07   2.575929e+05   0.000000e+00  12420s
  681747    1.0881379e+07   2.535818e+05   0.000000e+00  12425s
  681987    1.0881379e+07   2.553020e+05   0.000000e+00  12435s
  682117    1.0881379e+07   2.448254e+05   0.000000e+00  12440s
  682237    1.0881379e+07   2.514620e+05   0.000000e+00  12444s
  682357    1.0881379e+07   2.531890e+05   0.000000e+00  12449s
  682477    1.0881379e+07   2.530121e+05   0.000000e+00  12454s
  682597    1.0881379e+07   2.456918e+05   0.000000e+00  12458s
  682727    1.0881377e+07   2.615196e+05   0.000000e+00  12463s
  682827    1.0881367e+07   7.831547e+05   0.000000e+00  12467s
  682927    1.0881367e+07   2.573022e+05   0.000000e+00  12470s
  683147    1.0881365e+07   2.785703e+05   0.000000e+00  12478s
  683267    1.0881364e+07   2.848481e+05   0.000000e+00  12483s
  683387    1.0881364e+07   2.537030e+05   0.000000e+00  12487s
  683507    1.0881364e+07   2.764880e+05   0.000000e+00  12491s
  683637    1.0881362e+07   2.738844e+05   0.000000e+00  12496s
  683767    1.0881356e+07   2.949665e+05   0.000000e+00  12501s
  683887    1.0881343e+07   2.721578e+05   0.000000e+00  12505s
  684137    1.0881341e+07   3.091858e+05   0.000000e+00  12515s
  684257    1.0881340e+07   2.595624e+05   0.000000e+00  12519s
  684387    1.0881339e+07   2.534852e+05   0.000000e+00  12524s
  684527    1.0881337e+07   2.729253e+05   0.000000e+00  12529s
  684647    1.0881336e+07   2.825238e+05   0.000000e+00  12534s
  684767    1.0881333e+07   2.736834e+05   0.000000e+00  12538s
  684907    1.0881328e+07   2.673197e+05   0.000000e+00  12543s
  685007    1.0881326e+07   2.737046e+05   0.000000e+00  12546s
  685207    1.0881323e+07   1.873151e+03   0.000000e+00  12553s
  685337    1.0881323e+07   2.043170e+03   0.000000e+00  12558s
  685437    1.0881323e+07   1.994097e+03   0.000000e+00  12562s
  685537    1.0881323e+07   2.349641e+03   0.000000e+00  12565s
  685677    1.0881323e+07   2.588308e+03   0.000000e+00  12570s
  685917    1.0881323e+07   7.285192e+01   0.000000e+00  12578s
  686047    1.0881323e+07   2.500326e+02   0.000000e+00  12583s
  686177    1.0881323e+07   1.786273e+02   0.000000e+00  12588s
  686307    1.0881322e+07   1.555296e+03   0.000000e+00  12592s
  686407    1.0881322e+07   2.831969e+02   0.000000e+00  12596s
  686647    1.0881322e+07   4.614621e+02   0.000000e+00  12604s
  686787    1.0881322e+07   1.330871e+02   0.000000e+00  12610s
  686917    1.0881322e+07   1.754122e+02   0.000000e+00  12614s
  687047    1.0881322e+07   1.591333e+02   0.000000e+00  12619s
  687177    1.0881322e+07   1.657550e+02   0.000000e+00  12624s
  687317    1.0881322e+07   2.033711e+02   0.000000e+00  12629s
  687447    1.0881321e+07   1.209383e+03   0.000000e+00  12633s
  687577    1.0881321e+07   1.447360e+02   0.000000e+00  12638s
  687707    1.0881321e+07   9.780640e+01   0.000000e+00  12643s
  687837    1.0881321e+07   2.332589e+02   0.000000e+00  12647s
  687977    1.0881320e+07   3.489262e+02   0.000000e+00  12652s
  688107    1.0881320e+07   2.533370e+02   0.000000e+00  12657s
  688237    1.0881320e+07   1.020965e+02   0.000000e+00  12662s
  688357    1.0881320e+07   1.495156e+02   0.000000e+00  12666s
  688477    1.0881320e+07   1.088556e+02   0.000000e+00  12671s
  688597    1.0881320e+07   4.034622e+02   0.000000e+00  12675s
  688837    1.0881319e+07   5.725113e+02   0.000000e+00  12684s
  688957    1.0881319e+07   1.566384e+03   0.000000e+00  12688s
  689087    1.0881319e+07   1.021056e+03   0.000000e+00  12693s
  689187    1.0881319e+07   3.831254e+02   0.000000e+00  12697s
  689327    1.0881319e+07   4.868314e+02   0.000000e+00  12701s
  689457    1.0881319e+07   4.711842e+03   0.000000e+00  12706s
  689577    1.0881319e+07   3.818441e+03   0.000000e+00  12711s
  689707    1.0881318e+07   1.194916e+03   0.000000e+00  12715s
  689837    1.0881318e+07   7.483068e+01   0.000000e+00  12720s
  690077    1.0881318e+07   1.967784e+03   0.000000e+00  12729s
  690207    1.0881318e+07   4.775898e+02   0.000000e+00  12734s
  690307    1.0881318e+07   7.116232e+01   0.000000e+00  12737s
  690447    1.0881318e+07   1.298708e+02   0.000000e+00  12742s
  690577    1.0881318e+07   9.057856e+01   0.000000e+00  12747s
  690697    1.0881318e+07   1.594033e+02   0.000000e+00  12751s
  690837    1.0881318e+07   8.191348e+01   0.000000e+00  12756s
  690957    1.0881318e+07   8.782189e+01   0.000000e+00  12761s
  691207    1.0881318e+07   1.632448e+02   0.000000e+00  12770s
  691327    1.0881318e+07   6.461276e+01   0.000000e+00  12774s
  691447    1.0881318e+07   7.495564e+01   0.000000e+00  12778s
  691587    1.0881318e+07   3.456475e+01   0.000000e+00  12783s
  691687    1.0881318e+07   4.807612e+01   0.000000e+00  12787s
  691807    1.0881318e+07   5.915238e+01   0.000000e+00  12791s
  691927    1.0881318e+07   4.586083e+01   0.000000e+00  12795s
  692127    1.0881318e+07   4.219410e+01   0.000000e+00  12802s
  692227    1.0881318e+07   4.737346e+01   0.000000e+00  12806s
  692367    1.0881318e+07   3.368609e+01   0.000000e+00  12811s
  692487    1.0881318e+07   7.805162e+01   0.000000e+00  12815s
  692617    1.0881318e+07   2.338077e+02   0.000000e+00  12820s
  692877    1.0881317e+07   1.155468e+02   0.000000e+00  12829s
  693017    1.0881317e+07   2.806943e+02   0.000000e+00  12834s
  693147    1.0881317e+07   1.199028e+02   0.000000e+00  12839s
  693277    1.0881317e+07   1.242480e+02   0.000000e+00  12843s
  693407    1.0881317e+07   8.797374e+01   0.000000e+00  12848s
  693527    1.0881317e+07   1.549803e+02   0.000000e+00  12852s
  693657    1.0881317e+07   1.144245e+02   0.000000e+00  12857s
  693787    1.0881317e+07   1.222381e+02   0.000000e+00  12862s
  693907    1.0881317e+07   6.705060e+01   0.000000e+00  12866s
  694037    1.0881317e+07   1.915258e+02   0.000000e+00  12871s
  694277    1.0881317e+07   2.034557e+02   0.000000e+00  12879s
  694397    1.0881317e+07   1.638766e+02   0.000000e+00  12884s
  694527    1.0881317e+07   1.196171e+02   0.000000e+00  12888s
  694657    1.0881317e+07   1.793296e+02   0.000000e+00  12893s
  694757    1.0881317e+07   1.719920e+02   0.000000e+00  12896s
  694877    1.0881317e+07   1.082402e+02   0.000000e+00  12901s
  695017    1.0881317e+07   1.699625e+02   0.000000e+00  12906s
  695137    1.0881317e+07   2.860395e+02   0.000000e+00  12910s
  695377    1.0881317e+07   2.020878e+03   0.000000e+00  12919s
  695507    1.0881317e+07   8.046598e+02   0.000000e+00  12924s
  695627    1.0881317e+07   1.218579e+03   0.000000e+00  12928s
  695747    1.0881317e+07   1.687443e+03   0.000000e+00  12932s
  695887    1.0881317e+07   2.290203e+02   0.000000e+00  12937s
  696027    1.0881317e+07   1.821804e+02   0.000000e+00  12942s
  696127    1.0881317e+07   9.302433e+02   0.000000e+00  12946s
  696367    1.0881317e+07   6.484329e+02   0.000000e+00  12955s
  696487    1.0881317e+07   1.736819e+02   0.000000e+00  12959s
  696617    1.0881316e+07   1.706560e+03   0.000000e+00  12964s
  696737    1.0881316e+07   9.978276e+02   0.000000e+00  12968s
  696867    1.0881316e+07   3.292560e+02   0.000000e+00  12973s
  696967    1.0881316e+07   1.029537e+03   0.000000e+00  12977s
  697087    1.0881316e+07   9.373872e+03   0.000000e+00  12981s
  697207    1.0881316e+07   6.117424e+03   0.000000e+00  12986s
  697327    1.0881316e+07   1.361175e+03   0.000000e+00  12991s
  697457    1.0881316e+07   4.408449e+02   0.000000e+00  12996s
  697577    1.0881316e+07   1.441250e+02   0.000000e+00  13001s
  697697    1.0881316e+07   1.091535e+04   0.000000e+00  13005s
  697947    1.0881314e+07   2.202157e+03   0.000000e+00  13014s
  698077    1.0881314e+07   5.233680e+04   0.000000e+00  13018s
  698207    1.0881310e+07   4.919418e+04   0.000000e+00  13024s
  698337    1.0881308e+07   5.268795e+04   0.000000e+00  13029s
  698477    1.0881307e+07   4.489116e+00   0.000000e+00  13034s
  698577    1.0881307e+07   9.074848e+00   0.000000e+00  13037s
  698677    1.0881307e+07   3.607970e+00   0.000000e+00  13041s
  698877    1.0881307e+07   3.830654e+00   0.000000e+00  13047s
  699077    1.0881307e+07   4.581780e+00   0.000000e+00  13053s
  699177    1.0881307e+07   2.823218e+00   0.000000e+00  13056s
  699377    1.0881307e+07   2.500941e+00   0.000000e+00  13062s
  699477    1.0881307e+07   3.010865e+00   0.000000e+00  13065s
  699677    1.0881307e+07   4.551976e+00   0.000000e+00  13072s
  699777    1.0881307e+07   4.365272e+00   0.000000e+00  13075s
  699977    1.0881307e+07   2.034980e+00   0.000000e+00  13082s
  700177    1.0881307e+07   3.471403e+00   0.000000e+00  13088s
  700277    1.0881307e+07   2.155253e+00   0.000000e+00  13091s
  700477    1.0881307e+07   2.969947e+00   0.000000e+00  13098s
  700577    1.0881307e+07   5.175073e+00   0.000000e+00  13101s
  700777    1.0881307e+07   3.611992e+00   0.000000e+00  13108s
  700877    1.0881307e+07   4.123501e+00   0.000000e+00  13111s
  701077    1.0881307e+07   2.704940e+00   0.000000e+00  13117s
  701277    1.0881307e+07   2.477009e+00   0.000000e+00  13122s
  701377    1.0881307e+07   2.699822e+00   0.000000e+00  13125s
  701577    1.0881307e+07   4.228244e+00   0.000000e+00  13131s
  701777    1.0881307e+07   2.771784e+00   0.000000e+00  13138s
  701877    1.0881307e+07   3.544282e+00   0.000000e+00  13141s
  702077    1.0881307e+07   2.770715e+00   0.000000e+00  13148s
  702177    1.0881307e+07   1.997249e+00   0.000000e+00  13151s
  702377    1.0881307e+07   1.251120e+00   0.000000e+00  13157s
  702477    1.0881307e+07   2.777530e+00   0.000000e+00  13160s
  702677    1.0881307e+07   1.140526e+01   0.000000e+00  13167s
  702877    1.0881307e+07   2.743393e+00   0.000000e+00  13173s
  702977    1.0881307e+07   1.102165e+00   0.000000e+00  13176s
  703177    1.0881307e+07   5.015005e-01   0.000000e+00  13182s
  703377    1.0881307e+07   8.459567e+00   0.000000e+00  13188s
  703477    1.0881307e+07   1.894712e+01   0.000000e+00  13190s
  703677    1.0881307e+07   1.979277e+00   0.000000e+00  13196s
  703877    1.0881307e+07   1.839258e+01   0.000000e+00  13202s
  703977    1.0881307e+07   4.025743e+02   0.000000e+00  13205s
  704177    1.0881307e+07   5.044197e+01   0.000000e+00  13212s
  704377    1.0881307e+07   2.461959e+01   0.000000e+00  13218s
  704477    1.0881307e+07   4.590847e+00   0.000000e+00  13221s
  704677    1.0881307e+07   5.098016e+00   0.000000e+00  13227s
  704877    1.0881307e+07   3.585371e+00   0.000000e+00  13233s
  704977    1.0881307e+07   2.082002e+00   0.000000e+00  13236s
  705177    1.0881307e+07   4.455287e+00   0.000000e+00  13242s
  705377    1.0881307e+07   1.204514e+00   0.000000e+00  13248s
  705477    1.0881307e+07   5.062774e-01   0.000000e+00  13251s
  705677    1.0881307e+07   3.651417e-01   0.000000e+00  13257s
  705777    1.0881307e+07   3.566152e-01   0.000000e+00  13260s
  705977    1.0881307e+07   9.111420e-01   0.000000e+00  13266s
  706089    1.0881307e+07   0.000000e+00   0.000000e+00  13270s
  706089    1.0881307e+07   0.000000e+00   0.000000e+00  13271s
Concurrent spin time: 814.37s

Solved with barrier

Root relaxation: objective 1.088131e+07, 706089 iterations, 11300.12 seconds

    Nodes    |    Current Node    |     Objective Bounds      |     Work
 Expl Unexpl |  Obj  Depth IntInf | Incumbent    BestBd   Gap | It/Node Time

     0     0 1.0881e+07    0  553          - 1.0881e+07      -     - 14113s
     0     0 1.0187e+07    0  533          - 1.0187e+07      -     - 23034s
H    0     0                    -4.80876e+07 1.0187e+07   121%     - 23039s

Cutting planes:
  Implied bound: 7
  Clique: 54
  MIR: 9
  Flow cover: 24
  Zero half: 2

Explored 1 nodes (1021779 simplex iterations) in 86400.71 seconds
Thread count was 4 (of 16 available processors)

Solution count 1: -4.80876e+07 

Time limit reached
Best objective -4.808761434811e+07, best bound 1.018736906414e+07, gap 121.1850%

***
***  |- Calculation finished, timelimit reached 86,400.84 (86400.84) sec.))
***  |-----------------------------------------------------------------------------------------------------------------------
***
*****************************************************************************************************************************
#############################################################################################################################
###
### Results
###
### The objective of the solution is -48,087,614.3481 (-48087614.3481) and is feasible with a Gap of 1.2119
###
### Service 7 (ME3) is operated by 3 vessels from type 19 (PMax28)
###  |- Vessel  6 has the path [283, 476, 435, -3]
###  |  283 (NLRTM Out@260.0) - 476 (TRMER In@411.0/Out@455.0) - 435 (AEJEA In@690.0/Out@723.0) - -3 (DUMMY_END Ziel-Service 
###  |  7)
###  |- Vessel  7 has the path [285, 477, 437, -3]
###  |  285 (NLRTM Out@428.0) - 477 (TRMER In@579.0/Out@623.0) - 437 (AEJEA In@858.0/Out@891.0) - -3 (DUMMY_END Ziel-Service 
###  |  7)
###  |- Vessel 16 has the path [181, 263, 464, 295, 465, 296, 438, -3]
###  |  181 (FRLEH Out@326.0) - 263 (MAPTM In@406.0/Out@427.0) - 464 (OMSLL In@710.0/Out@722.0) - 295 (OMSLL In@721.0/Out@736
###  |  .0) - 465 (OMSLL In@878.0/Out@890.0) - 296 (OMSLL In@889.0/Out@904.0) - 438 (AEJEA In@1026.0/Out@1059.0) - -3 (DUMMY_
###  |  END Ziel-Service 7)
###  |   |- and carried Demand 359,  111.0 containers from 465 to 438
###  |   |- and carried Demand 360,   35.0 containers from 465 to 438
###  |
### Service 24 (WAF7) is operated by 3 vessels from type 18 (PMax25)
###  |- Vessel  1 has the path [131, 386, -1]
###  |  131 (DEHAM Out@288.0) - 386 (ESALG In@496.0/Out@515.0) - -1 (DUMMY_END Ziel-Service 24)
###  |- Vessel  2 has the path [132, 387, -1]
###  |  132 (DEHAM Out@456.0) - 387 (ESALG In@664.0/Out@683.0) - -1 (DUMMY_END Ziel-Service 24)
###  |- Vessel 13 has the path [135, 401, 151, 388, -1]
###  |  135 (DKAAR Out@220.0) - 401 (MAPTM In@379.0/Out@398.0) - 151 (ESALG In@625.0/Out@670.0) - 388 (ESALG In@832.0/Out@851
###  |  .0) - -1 (DUMMY_END Ziel-Service 24)
###  |   |- and carried Demand 285,  214.0 containers from 401 to 388
###  |   |- and carried Demand 286,   10.0 containers from 401 to 388
###  |
### Service 121 (SAE) is operated by 2 vessels from type 30 (PMax35)
###  |- Vessel  9 has the path [9, 384, 260, 400, 261, 385, 262, 148, 411, -2]
###  |  9 (BEANR Out@66.0) - 384 (ESALG In@160.0/Out@179.0) - 260 (MAPTM In@207.0/Out@228.0) - 400 (MAPTM In@211.0/Out@230.0)
###  |   - 261 (MAPTM In@238.0/Out@259.0) - 385 (ESALG In@328.0/Out@347.0) - 262 (MAPTM In@375.0/Out@396.0) - 148 (ESALG In@4
###  |  21.0/Out@433.0) - 411 (HNPCR In@998.0/Out@1011.0) - -2 (DUMMY_END Ziel-Service 121)
###  |   |- and carried Demand  20,  484.0 containers from 262 to 148
###  |   |- and carried Demand  21,   18.0 containers from 262 to 148
###  |   |- and carried Demand 257,  580.0 containers from 260 to 385
###  |   |- and carried Demand 261,  484.0 containers from 262 to 148
###  |   |- and carried Demand 262,   18.0 containers from 262 to 148
###  |   |- and carried Demand 271,  580.0 containers from 261 to 385
###  |   |- and carried Demand 295,  580.0 containers from 400 to 385
###  |- Vessel 12 has the path [16, 412, -2]
###  |  16 (BEANR Out@570.0) - 412 (HNPCR In@1166.0/Out@1179.0) - -2 (DUMMY_END Ziel-Service 121)
###  |
### Service 177 (WCSA) is operated by 3 vessels from type 19 (PMax28)
###  |- Vessel  5 has the path [282, 475, 354, 249, 226, 71, 102, 99, 76, 88, 305, 0]
###  |  282 (NLRTM Out@92.0) - 475 (TRMER In@243.0/Out@287.0) - 354 (SGSIN In@618.0/Out@651.0) - 249 (KRPUS In@788.0/Out@810.
###  |  0) - 226 (JPHKT In@824.0/Out@833.0) - 71 (CNDLC In@871.0/Out@886.0) - 102 (CNXGG In@904.0/Out@923.0) - 99 (CNTAO In@9
###  |  60.0/Out@978.0) - 76 (CNNGB In@1031.0/Out@1040.0) - 88 (CNSHA In@1069.0/Out@1079.0) - 305 (PABLB In@1640.0/Out@1652.0
###  |  ) - 0 (DUMMY_END Ziel-Service 177)
###  |   |- and carried Demand  45,  975.0 containers from  76 to 305
###  |   |- and carried Demand  46,    1.0 containers from  76 to 305
###  |   |- and carried Demand  48,  907.0 containers from  88 to 305
###  |   |- and carried Demand  49,    3.0 containers from  88 to 305
###  |- Vessel  8 has the path [287, 183, 265, 303, 0]
###  |  287 (NLRTM Out@596.0) - 183 (FRLEH In@615.0/Out@631.0) - 265 (MAPTM In@711.0/Out@732.0) - 303 (PABLB In@1472.0/Out@14
###  |  84.0) - 0 (DUMMY_END Ziel-Service 177)
###  |- Vessel 15 has the path [179, 409, 407, 270, 299, 300, 302, 0]
###  |  179 (FRLEH Out@158.0) - 409 (HNPCR In@662.0/Out@675.0) - 407 (GTSTC In@687.0/Out@701.0) - 270 (MXLZC In@873.0/Out@896
###  |  .0) - 299 (PABLB In@968.0/Out@980.0) - 300 (PABLB In@982.0/Out@1030.0) - 302 (PABLB In@1304.0/Out@1316.0) - 0 (DUMMY_
###  |  END Ziel-Service 177)
###  |   |- and carried Demand 192,  298.0 containers from 270 to 299
###  |   |- and carried Demand 193,  199.0 containers from 270 to 299
###  |   |- and carried Demand 300,  298.0 containers from 270 to 300
###  |   |- and carried Demand 301,  199.0 containers from 270 to 300
###  |
### Vessels not used in the solution: [3, 4, 10, 11, 14, 17, 18, 19, 20, 21, 22, 23, 24]
###  |-----------------------------------------------------------------------------------------------------------------------
###
#############################################################################################################################

### Detialed variable overview

### All variables with value greater zero:
rho[24,18] = 1
rho[177,19] = 1
rho[121,30] = 1
rho[7,19] = 1
eta[24,18,1] = 1
eta[24,18,2] = 1
eta[24,18,3] = 1
eta[177,19,1] = 1
eta[177,19,2] = 1
eta[177,19,3] = 1
eta[121,30,1] = 1
eta[121,30,2] = 1
eta[7,19,1] = 1
eta[7,19,2] = 1
eta[7,19,3] = 1
y[1,131,386] = 1
y[1,386,-1] = 1
y[2,132,387] = 1
y[2,387,-1] = 1
y[5,71,102] = 1
y[5,354,249] = 1
y[5,249,226] = 1
y[5,475,354] = 1
y[5,76,88] = 1
y[5,99,76] = 1
y[5,102,99] = 1
y[5,282,475] = 1
y[5,305,0] = 1
y[5,226,71] = 1
y[5,88,305] = 1
y[6,476,435] = 1
y[6,435,-3] = 1
y[6,283,476] = 1
y[7,477,437] = 1
y[7,285,477] = 1
y[7,437,-3] = 1
y[8,303,0] = 1
y[8,287,183] = 1
y[8,265,303] = 1
y[8,183,265] = 1
y[9,260,400] = 1
y[9,411,-2] = 1
y[9,400,261] = 1
y[9,262,148] = 1
y[9,9,384] = 1
y[9,384,260] = 1
y[9,148,411] = 1
y[9,385,262] = 1
y[9,261,385] = 1
y[12,16,412] = 1
y[12,412,-2] = 1
y[13,401,151] = 1
y[13,388,-1] = 1
y[13,151,388] = 1
y[13,135,401] = 1
y[15,302,0] = 1
y[15,179,409] = 1
y[15,270,299] = 1
y[15,407,270] = 1
y[15,300,302] = 1
y[15,299,300] = 1
y[15,409,407] = 1
y[16,465,296] = 1
y[16,296,438] = 1
y[16,181,263] = 1
y[16,464,295] = 1
y[16,295,465] = 1
y[16,438,-3] = 1
y[16,263,464] = 1
xD[20,262,148] = 484
xD[21,262,148] = 18
xD[45,76,88] = 975
xD[45,88,305] = 975
xD[46,76,88] = 1
xD[46,88,305] = 1
xD[48,88,305] = 907
xD[49,88,305] = 3
xD[192,270,299] = 298
xD[193,270,299] = 199
xD[257,260,400] = 580
xD[257,400,261] = 580
xD[257,261,385] = 580
xD[261,262,148] = 484
xD[262,262,148] = 18
xD[271,261,385] = 580
xD[285,401,151] = 214
xD[285,151,388] = 214
xD[286,401,151] = 10
xD[286,151,388] = 10
xD[295,400,261] = 580
xD[295,261,385] = 580
xD[300,270,299] = 298
xD[300,299,300] = 298
xD[301,270,299] = 199
xD[301,299,300] = 199
xD[359,465,296] = 111
xD[359,296,438] = 111
xD[360,465,296] = 35
xD[360,296,438] = 35
zE[71] = 871
zE[76] = 1031
zE[88] = 1069
zE[99] = 960
zE[102] = 904
zE[148] = 421
zE[151] = 625
zE[183] = 615
zE[226] = 824
zE[249] = 788
zE[260] = 207
zE[261] = 238
zE[262] = 375
zE[263] = 406
zE[265] = 711
zE[270] = 873
zE[295] = 721
zE[296] = 889
zE[299] = 968
zE[300] = 982
zE[302] = 1304
zE[303] = 1472
zE[305] = 1640
zE[324] = 837.925
zE[354] = 618
zE[384] = 160
zE[385] = 328
zE[386] = 496
zE[387] = 664
zE[388] = 832
zE[400] = 211
zE[401] = 379
zE[407] = 687
zE[409] = 662
zE[411] = 998
zE[412] = 1166
zE[435] = 690
zE[437] = 858
zE[438] = 1026
zE[464] = 710
zE[465] = 878
zE[475] = 243
zE[476] = 411
zE[477] = 579
zX[9] = 66
zX[16] = 570
zX[71] = 886
zX[76] = 1040
zX[88] = 1079
zX[99] = 978
zX[102] = 923
zX[131] = 288
zX[132] = 456
zX[135] = 220
zX[148] = 433
zX[151] = 670
zX[179] = 158
zX[181] = 326
zX[183] = 631
zX[226] = 833
zX[249] = 810
zX[260] = 228
zX[261] = 259
zX[262] = 396
zX[263] = 427
zX[265] = 732
zX[270] = 896
zX[282] = 92
zX[283] = 260
zX[285] = 428
zX[287] = 596
zX[295] = 736
zX[296] = 904
zX[299] = 980
zX[300] = 1030
zX[302] = 1316
zX[303] = 1484
zX[305] = 1652
zX[324] = 2092.08
zX[354] = 651
zX[384] = 179
zX[385] = 347
zX[386] = 515
zX[387] = 683
zX[388] = 851
zX[400] = 230
zX[401] = 398
zX[407] = 701
zX[409] = 675
zX[411] = 1011
zX[412] = 1179
zX[435] = 723
zX[437] = 891
zX[438] = 1059
zX[464] = 722
zX[465] = 890
zX[475] = 287
zX[476] = 455
zX[477] = 623
phi[1] = 227
phi[2] = 227
phi[5] = 1560
phi[6] = 463
phi[7] = 463
phi[8] = 888
phi[9] = 945
phi[12] = 609
phi[13] = 631
phi[15] = 1158
phi[16] = 733

### All variables with value smaller zero:

### End

real	1452m42.622s
user	4928m47.139s
sys	841m26.477s
	Freetype 2.4.12 environment removed
	Python 3.6.0 environment removed
	Gurobi 8.1.0 environment removed
