	Freetype 2.4.12 environment established
		library to render fonts
	Python 3.6.0 environment established
	Gurobi 8.1.0 environment established
Instance LSFRP: LSFDRP_3_3_1_1_fr.p
Instance LSFDP: LSFDRP_3_3_1_1_fd_49.p

*****************************************************************************************************************************
*** Solve LSFDRP_3_3_1_1_fd_49 with Gurobi
***
*** Graph info
*** |S|: 24
*** |S^E|: 0
*** |S^C|: 6
*** |V|: 482
*** |A|: 22408
*** |A^i|: 22261
*** |A^f|: 147
*** |M|: 380
*** |E|: 28

Changed value of parameter TimeLimit to 86400.0
   Prev: 1e+100  Min: 0.0  Max: 1e+100  Default: 1e+100
Changed value of parameter Threads to 4
   Prev: 0  Min: 0  Max: 1024  Default: 0
Optimize a model with 253050 rows, 9102183 columns and 32933900 nonzeros
Variable types: 8564334 continuous, 537849 integer (537849 binary)
Coefficient statistics:
  Matrix range     [1e+00, 5e+03]
  Objective range  [2e+00, 6e+07]
  Bounds range     [1e+00, 1e+00]
  RHS range        [1e+00, 5e+03]
Presolve removed 10951 rows and 1418 columns (presolve time = 6s) ...
Presolve removed 35293 rows and 1990867 columns (presolve time = 11s) ...
Presolve removed 68243 rows and 4471484 columns (presolve time = 17s) ...
Presolve removed 86807 rows and 5436270 columns (presolve time = 21s) ...
Presolve removed 95888 rows and 5804148 columns (presolve time = 25s) ...
Presolve removed 96631 rows and 5821764 columns (presolve time = 31s) ...
Presolve removed 102477 rows and 5848354 columns (presolve time = 39s) ...
Presolve removed 102477 rows and 5848354 columns (presolve time = 40s) ...
Presolve removed 102909 rows and 5848354 columns (presolve time = 45s) ...
Presolve removed 105402 rows and 5874425 columns (presolve time = 50s) ...
Presolve removed 105402 rows and 5874425 columns (presolve time = 55s) ...
Presolve removed 106443 rows and 5875874 columns (presolve time = 60s) ...
Presolve removed 106444 rows and 5875874 columns (presolve time = 66s) ...
Presolve removed 106444 rows and 5875874 columns (presolve time = 70s) ...
Presolve removed 106450 rows and 5876627 columns (presolve time = 75s) ...
Warning: Failed to open log file 'gurobi.log'
Presolve removed 106482 rows and 5876627 columns (presolve time = 91s) ...
Presolve removed 106482 rows and 6076286 columns (presolve time = 1997s) ...
Presolve removed 159137 rows and 7992323 columns (presolve time = 2001s) ...
Presolve removed 172304 rows and 8149981 columns (presolve time = 2006s) ...
Presolve removed 175532 rows and 8154332 columns (presolve time = 2010s) ...
Presolve removed 175577 rows and 8155022 columns (presolve time = 2016s) ...
Presolve removed 175723 rows and 8155456 columns (presolve time = 2020s) ...
Presolve removed 178585 rows and 8187810 columns (presolve time = 2033s) ...
Presolve removed 178623 rows and 8187845 columns (presolve time = 2782s) ...
Presolve removed 178591 rows and 8187813 columns
Presolve time: 2781.91s
Presolved: 74459 rows, 914370 columns, 5843164 nonzeros
Variable types: 574873 continuous, 339497 integer (339434 binary)

Deterministic concurrent LP optimizer: primal simplex, dual simplex, and barrier
Showing barrier log only...

Presolve removed 417 rows and 787 columns
Presolved: 74042 rows, 913583 columns, 5822181 nonzeros

Root barrier log...

Ordering time: 0.00s

Barrier statistics:
 Dense cols : 106
 AA' NZ     : 6.304e+06
 Factor NZ  : 1.420e+08 (roughly 1.5 GBytes of memory)
 Factor Ops : 8.873e+11 (roughly 50 seconds per iteration)
 Threads    : 1

                  Objective                Residual
Iter       Primal          Dual         Primal    Dual     Compl     Time
   0  -3.60296510e+15  5.23496167e+16  1.04e+09 3.62e+06  5.40e+12  2876s
   1  -2.15597217e+15  5.13147757e+16  6.19e+08 3.00e+07  3.26e+12  2929s
   2  -1.30248160e+15  4.91016935e+16  3.74e+08 1.43e+07  1.97e+12  2987s
   3  -6.30186023e+14  4.65530971e+16  1.81e+08 8.92e+06  9.85e+11  3041s
   4  -2.29954113e+14  4.09575786e+16  6.56e+07 4.71e+06  3.76e+11  3102s
   5  -1.03769473e+14  2.64106779e+16  2.93e+07 1.07e+06  1.67e+11  3155s
   6  -2.41447849e+13  1.28361044e+16  6.77e+06 1.45e+05  4.21e+10  3214s
   7  -3.16135595e+12  4.19666557e+15  8.86e+05 1.35e-05  6.66e+09  3270s
   8  -1.17021385e+12  1.14681072e+15  3.28e+05 3.72e-05  2.04e+09  3325s
   9  -2.66452149e+11  2.79922572e+14  7.46e+04 2.24e-05  4.53e+08  3383s
  10  -1.43770775e+11  1.28827940e+14  4.02e+04 1.52e-04  2.28e+08  3438s
  11  -5.66694065e+10  5.47521409e+13  1.58e+04 7.15e-07  9.08e+07  3492s
  12  -2.21170089e+10  2.54565421e+13  6.12e+03 2.11e-04  3.74e+07  3548s
  13  -1.60138812e+10  2.09326070e+13  4.41e+03 1.56e-04  2.83e+07  3601s
  14  -6.90084353e+09  1.25499040e+13  1.86e+03 1.10e-04  1.38e+07  3657s
  15  -3.06333069e+09  6.11388789e+12  7.99e+02 3.91e-05  6.31e+06  3710s
  16  -1.53469516e+09  4.05727779e+12  3.81e+02 2.56e-05  3.63e+06  3761s
  17  -7.23366479e+08  2.30970295e+12  1.61e+02 1.42e-05  1.85e+06  3816s
  18  -3.39967948e+08  1.26756947e+12  6.07e+01 7.42e-06  9.08e+05  3869s
  19  -2.18894281e+08  9.18067872e+11  3.09e+01 5.39e-06  6.10e+05  3924s
  20  -1.74248576e+08  7.45866553e+11  2.10e+01 4.47e-06  4.81e+05  3978s
  21  -1.39634739e+08  5.61539832e+11  1.43e+01 3.50e-06  3.60e+05  4033s
  22  -1.14238585e+08  4.59103382e+11  9.72e+00 2.91e-06  2.89e+05  4087s
  23  -1.02027732e+08  4.17713880e+11  7.77e+00 2.65e-06  2.59e+05  4141s
  24  -9.46726281e+07  3.62745450e+11  6.69e+00 2.34e-06  2.25e+05  4195s
  25  -7.32858299e+07  2.29337911e+11  3.23e+00 1.52e-06  1.40e+05  4256s
  26  -5.80204025e+07  1.12705127e+11  1.32e+00 1.25e-06  6.75e+04  4313s
  27  -4.97154332e+07  5.51958250e+10  5.85e-01 6.50e-07  3.26e+04  4370s
  28  -4.74619177e+07  3.54948047e+10  4.36e-01 6.44e-07  2.11e+04  4425s
  29  -4.50366402e+07  2.46418785e+10  3.09e-01 6.04e-07  1.47e+04  4482s
  30  -4.27021708e+07  1.88215427e+10  2.11e-01 7.03e-07  1.11e+04  4536s
  31  -4.08932795e+07  1.44737389e+10  1.52e-01 5.41e-07  8.45e+03  4590s
  32  -3.84414151e+07  9.73366935e+09  9.29e-02 5.64e-07  5.64e+03  4645s
  33  -3.51040137e+07  4.79250254e+09  4.64e-02 6.69e-07  2.79e+03  4699s
  34  -3.05880018e+07  3.05174936e+09  1.66e-02 5.51e-07  1.73e+03  4753s
  35  -2.71673898e+07  2.94975483e+09  1.26e-02 5.48e-07  1.66e+03  4806s
  36  -2.32364511e+07  2.07364102e+09  6.88e-03 7.43e-07  1.16e+03  4864s
  37  -2.13969636e+07  1.16425874e+09  4.44e-03 6.04e-07  6.61e+02  4919s
  38  -1.91654461e+07  8.31369394e+08  3.13e-03 6.45e-07  4.74e+02  4973s
  39  -1.45364030e+07  4.17478865e+08  1.47e-03 5.77e-07  2.41e+02  5029s
  40  -1.25424140e+07  3.36791034e+08  1.23e-03 6.06e-07  1.95e+02  5083s
  41  -1.11517617e+07  3.31355403e+08  1.13e-03 7.80e-07  1.91e+02  5136s
  42  -8.67758271e+06  2.36019616e+08  9.40e-04 6.85e-07  1.37e+02  5192s
  43  -7.06843309e+06  1.96314087e+08  7.81e-04 7.13e-07  1.14e+02  5246s
  44  -6.61687678e+06  1.89742288e+08  7.45e-04 8.24e-07  1.10e+02  5299s
  45  -3.91969549e+06  1.61881918e+08  5.54e-04 6.96e-07  9.25e+01  5353s
  46  -2.74987089e+06  1.42481276e+08  4.34e-04 7.85e-07  8.08e+01  5408s
  47  -1.53768223e+06  1.19960477e+08  3.83e-04 8.50e-07  6.77e+01  5464s
  48   1.02516794e+06  6.61399804e+07  2.54e-04 8.11e-07  3.65e+01  5524s
  49   2.33115000e+06  5.30195230e+07  1.99e-04 6.38e-07  2.84e+01  5579s
  50   3.65820313e+06  4.69266360e+07  1.47e-04 7.01e-07  2.42e+01  5634s
  51   4.85035219e+06  3.31327427e+07  1.07e-04 7.09e-07  1.59e+01  5690s
  52   5.40307339e+06  3.02457929e+07  9.35e-05 9.43e-07  1.40e+01  5745s
  53   5.85829445e+06  2.72962170e+07  7.81e-05 8.17e-07  1.20e+01  5801s
  54   6.35881635e+06  2.47001758e+07  6.63e-05 8.63e-07  1.03e+01  5856s
  55   6.84293405e+06  2.37138856e+07  5.57e-05 1.26e-06  9.44e+00  5909s
  56   7.09707991e+06  2.25642870e+07  5.08e-05 1.26e-06  8.65e+00  5963s
  57   7.19471492e+06  2.11560959e+07  4.84e-05 1.23e-06  7.83e+00  6016s
  58   7.45355542e+06  1.95112460e+07  4.23e-05 1.24e-06  6.76e+00  6069s
  59   7.56280904e+06  1.85232980e+07  3.99e-05 8.39e-06  6.16e+00  6124s
  60   7.81828930e+06  1.77238497e+07  3.43e-05 9.05e-06  5.56e+00  6177s
  61   7.92165152e+06  1.73186525e+07  3.24e-05 1.02e-05  5.27e+00  6230s
  62   8.15446389e+06  1.60742529e+07  2.85e-05 9.24e-06  4.45e+00  6289s
  63   8.24797466e+06  1.58778664e+07  2.72e-05 9.98e-06  4.28e+00  6344s
  64   8.36457035e+06  1.56661314e+07  2.57e-05 1.06e-05  4.10e+00  6397s
  65   8.64315478e+06  1.48895093e+07  2.25e-05 9.51e-06  3.51e+00  6451s
  66   8.81752768e+06  1.44341314e+07  2.08e-05 9.18e-06  3.16e+00  6504s
  67   9.40980422e+06  1.36656864e+07  1.51e-05 8.45e-06  2.39e+00  6561s
  68   9.64616282e+06  1.32185946e+07  1.28e-05 8.94e-06  2.01e+00  6614s
  69   9.84815308e+06  1.27340475e+07  1.08e-05 8.54e-06  1.63e+00  6670s
  70   1.02565968e+07  1.21179890e+07  6.89e-06 6.29e-06  1.05e+00  6726s
  71   1.04607906e+07  1.18626745e+07  4.95e-06 6.83e-06  7.89e-01  6781s
  72   1.06217347e+07  1.14573594e+07  3.47e-06 5.44e-06  4.74e-01  6837s
  73   1.07821532e+07  1.13292529e+07  1.96e-06 6.51e-06  3.09e-01  6892s
  74   1.08063229e+07  1.12430393e+07  1.73e-06 1.18e-03  2.52e-01  6948s
  75   1.08534767e+07  1.11427155e+07  1.30e-06 3.01e-02  1.69e-01  7002s
  76   1.08967299e+07  1.10835192e+07  9.05e-07 2.24e-02  1.10e-01  7057s
  77   1.09472740e+07  1.10273469e+07  4.36e-07 1.84e-02  4.77e-02  7114s
  78   1.09717479e+07  1.10177824e+07  2.16e-07 2.41e-02  2.70e-02  7167s
  79   1.09798561e+07  1.10109721e+07  1.72e-07 2.85e-02  1.82e-02  7222s
  80   1.09858032e+07  1.10075643e+07  1.13e-07 3.38e-02  1.26e-02  7277s
  81   1.09879641e+07  1.10044702e+07  9.81e-08 3.70e-02  9.56e-03  7331s
  82   1.09894349e+07  1.10027354e+07  7.48e-08 4.36e-02  7.69e-03  7385s
  83   1.09908526e+07  1.09990134e+07  5.62e-08 2.29e-02  4.78e-03  7438s
  84   1.09924273e+07  1.09972404e+07  4.05e-08 1.96e-02  2.82e-03  7493s
  85   1.09936816e+07  1.09954978e+07  3.64e-08 1.57e-02  1.08e-03  7548s
  86   1.09938502e+07  1.09953295e+07  3.05e-08 2.29e-02  8.85e-04  7603s
  87   1.09939673e+07  1.09950862e+07  2.64e-08 2.12e-02  6.80e-04  7657s
  88   1.09944631e+07  1.09950234e+07  8.71e-09 2.66e-02  3.28e-04  7710s
  89   1.09945569e+07  1.09948097e+07  1.35e-08 1.63e-02  1.52e-04  7764s
  90   1.09946474e+07  1.09947312e+07  1.66e-08 1.72e-02  5.15e-05  7818s
  91   1.09946955e+07  1.09947083e+07  3.88e-08 1.46e-02  8.15e-06  7873s
  92   1.09946974e+07  1.09947074e+07  1.20e-06 1.67e-02  6.63e-06  7926s
  93   1.09946975e+07  1.09947074e+07  9.20e-06 2.26e-02  6.63e-06  7980s
  94   1.09946948e+07  1.09947074e+07  1.34e-05 3.01e-02  6.54e-06  8033s
  95   1.09947015e+07  1.09947070e+07  7.52e-06 1.77e-02  2.61e-06  8087s
  96   1.09947015e+07  1.09947070e+07  7.52e-06 1.77e-02  2.61e-06  8141s
  97   1.09947015e+07  1.09947070e+07  7.52e-06 1.77e-02  2.61e-06  8196s
  98   1.09947007e+07  1.09947071e+07  9.78e-06 2.51e-02  2.64e-06  8249s
  99   1.09947005e+07  1.09947071e+07  9.79e-06 3.76e-02  2.65e-06  8303s
 100   1.09946905e+07  1.09947072e+07  1.62e-05 4.13e-02  2.65e-06  8356s
 101   1.09946929e+07  1.09947072e+07  1.57e-05 4.62e-02  2.66e-06  8410s
 102   1.09946928e+07  1.09947072e+07  1.96e-05 4.44e-02  2.67e-06  8463s
 103   1.09947062e+07  1.09947069e+07  1.25e-07 1.56e-02  1.91e-08  8515s
 104   1.09947061e+07  1.09947069e+07  5.38e-07 1.90e-02  1.45e-08  8568s

Barrier solved model in 104 iterations and 8568.50 seconds
Optimal objective 1.09947061e+07


Root crossover log...

   70494 DPushes remaining with DInf 0.0000000e+00              8569s
    1939 DPushes remaining with DInf 2.2186993e+00              8570s
     127 DPushes remaining with DInf 1.0246500e-03              8576s
       0 DPushes remaining with DInf 8.6760222e+13              8578s

     203 PPushes remaining with PInf 1.0592621e-04              8578s
       0 PPushes remaining with PInf 0.0000000e+00              8578s

  Push phase complete: Pinf 0.0000000e+00, Dinf 2.2735885e+04   8578s


Root simplex log...

Iteration    Objective       Primal Inf.    Dual Inf.      Time
   57736    1.0994707e+07   0.000000e+00   2.273588e+04   8578s
   58360    1.0994707e+07   0.000000e+00   2.895624e+08   8581s
   59296    1.0994713e+07   0.000000e+00   4.078508e+10   8585s
   60544    1.0994840e+07   0.000000e+00   8.169483e+10   8590s
   62633    1.0995070e+07   0.000000e+00   2.898060e+09   8595s
   63881    1.0995258e+07   0.000000e+00   8.360101e+09   8601s
   65129    1.0995461e+07   0.000000e+00   6.471807e+09   8605s
   66689    1.0995820e+07   0.000000e+00   6.971418e+09   8610s
   68405    1.0996114e+07   0.000000e+00   1.127500e+10   8616s
   69341    1.0996285e+07   0.000000e+00   5.231307e+09   8620s
   71369    1.0996915e+07   0.000000e+00   2.700379e+09   8625s
   73241    1.0997166e+07   0.000000e+00   3.143199e+10   8631s
   74177    1.0997381e+07   0.000000e+00   2.151229e+09   8635s
   75425    1.0997597e+07   0.000000e+00   4.415448e+10   8640s
   76829    1.0997778e+07   0.000000e+00   8.690284e+09   8645s
   78389    1.0997900e+07   0.000000e+00   5.765547e+09   8650s
   79637    1.0998013e+07   0.000000e+00   4.476540e+09   8655s
   80885    1.0998103e+07   0.000000e+00   3.807531e+09   8660s
   82601    1.0998227e+07   0.000000e+00   4.275841e+09   8665s
   84005    1.0998585e+07   0.000000e+00   3.627665e+09   8670s
   85410    1.0998834e+07   0.000000e+00   2.373640e+10   8675s
   86970    1.0999020e+07   0.000000e+00   4.603518e+09   8680s
   88530    1.0999153e+07   0.000000e+00   2.158575e+09   8685s
   89934    1.0999245e+07   0.000000e+00   3.282180e+09   8690s
   91338    1.0999305e+07   0.000000e+00   1.744277e+09   8695s
   92898    1.0999362e+07   0.000000e+00   6.889289e+08   8700s
   94146    1.0999410e+07   0.000000e+00   6.519474e+08   8705s
   95706    1.0999490e+07   0.000000e+00   2.434901e+11   8710s
   97266    1.0999564e+07   0.000000e+00   5.599711e+08   8715s
   98670    1.0999704e+07   0.000000e+00   4.081766e+09   8720s
  100230    1.0999794e+07   0.000000e+00   2.412770e+11   8725s
  101790    1.0999851e+07   0.000000e+00   1.296034e+09   8730s
  103350    1.0999917e+07   0.000000e+00   1.113512e+09   8735s
  104910    1.0999945e+07   0.000000e+00   2.775975e+09   8740s
  106314    1.1000016e+07   0.000000e+00   2.632608e+09   8745s
  107874    1.1000043e+07   0.000000e+00   3.489803e+09   8750s
  109278    1.1000073e+07   0.000000e+00   7.025833e+09   8755s
  110682    1.1000093e+07   0.000000e+00   1.217289e+09   8760s
  112086    1.1000115e+07   0.000000e+00   1.964874e+09   8765s
  113490    1.1000131e+07   0.000000e+00   4.922711e+08   8770s
  114894    1.1000174e+07   0.000000e+00   8.726185e+08   8775s
  116298    1.1000197e+07   0.000000e+00   6.037041e+08   8781s
  117702    1.1000241e+07   0.000000e+00   5.989897e+08   8785s
  119106    1.1000276e+07   0.000000e+00   4.340330e+09   8790s
  120354    1.1000297e+07   0.000000e+00   7.025241e+08   8795s
  121758    1.1000342e+07   0.000000e+00   1.534264e+09   8800s
  123162    1.1000373e+07   0.000000e+00   6.878347e+10   8805s
  124566    1.1000390e+07   0.000000e+00   2.663460e+10   8810s
  125814    1.1000405e+07   0.000000e+00   8.958836e+09   8815s
  127218    1.1000422e+07   0.000000e+00   5.509516e+09   8820s
  128778    1.1000452e+07   0.000000e+00   2.166567e+12   8825s
  130182    1.1000468e+07   0.000000e+00   4.877783e+08   8831s
  131430    1.1000478e+07   0.000000e+00   3.907575e+08   8835s
  132834    1.1000493e+07   0.000000e+00   3.017074e+08   8840s
  134082    1.1000531e+07   0.000000e+00   9.998895e+09   8845s
  135642    1.1000552e+07   0.000000e+00   2.445228e+09   8851s
  136890    1.1000561e+07   0.000000e+00   1.812876e+09   8855s
  138450    1.1000575e+07   0.000000e+00   4.833706e+10   8860s
  139698    1.1000611e+07   0.000000e+00   7.863600e+10   8865s
  140946    1.1000637e+07   0.000000e+00   1.158840e+12   8870s
  142038    1.1000658e+07   0.000000e+00   6.661829e+08   8875s
  143286    1.1000671e+07   0.000000e+00   4.039140e+11   8880s
  144690    1.1000676e+07   0.000000e+00   1.749088e+09   8886s
  145938    1.1000686e+07   0.000000e+00   1.149859e+09   8891s
  147186    1.1000755e+07   0.000000e+00   3.289067e+08   8895s
  148434    1.1000773e+07   0.000000e+00   8.298741e+08   8900s
  149838    1.1000785e+07   0.000000e+00   1.456722e+09   8905s
  151086    1.1000797e+07   0.000000e+00   3.864140e+08   8910s
  152646    1.1000804e+07   0.000000e+00   6.216246e+08   8915s
  154050    1.1000806e+07   0.000000e+00   2.743989e+08   8920s
  155454    1.1000810e+07   0.000000e+00   8.911938e+08   8925s
  156858    1.1000826e+07   0.000000e+00   1.040233e+09   8930s
  158262    1.1001012e+07   0.000000e+00   3.268654e+08   8935s
  159666    1.1001037e+07   0.000000e+00   7.905590e+08   8941s
  160758    1.1001053e+07   0.000000e+00   8.793266e+08   8945s
  161850    1.1001069e+07   0.000000e+00   9.114323e+08   8950s
  163098    1.1001087e+07   0.000000e+00   3.842553e+08   8955s
  164502    1.1001120e+07   0.000000e+00   1.210716e+09   8960s
  165594    1.1001145e+07   0.000000e+00   2.385978e+08   8965s
  166842    1.1001152e+07   0.000000e+00   3.972020e+11   8970s
  167934    1.1001184e+07   0.000000e+00   4.864378e+08   8975s
  169338    1.1001188e+07   0.000000e+00   4.419864e+08   8981s
  170586    1.1001218e+07   0.000000e+00   7.594370e+08   8985s
  171678    1.1001234e+07   0.000000e+00   2.783807e+09   8990s
  173082    1.1001243e+07   0.000000e+00   4.362587e+08   8995s
  174486    1.1001260e+07   0.000000e+00   4.082577e+08   9001s
  175734    1.1001285e+07   0.000000e+00   2.218019e+08   9006s
  176982    1.1001360e+07   0.000000e+00   9.367211e+11   9010s
  178230    1.1001390e+07   0.000000e+00   2.900415e+08   9015s
  179478    1.1001427e+07   0.000000e+00   4.015674e+09   9020s
  180570    1.1001449e+07   0.000000e+00   4.362331e+08   9026s
  181662    1.1001472e+07   0.000000e+00   3.143566e+08   9031s
  182910    1.1001495e+07   0.000000e+00   4.837632e+08   9035s
  184158    1.1001524e+07   0.000000e+00   4.197760e+08   9040s
  185406    1.1001551e+07   0.000000e+00   4.306213e+08   9045s
  186654    1.1001583e+07   0.000000e+00   1.259364e+09   9050s
  187902    1.1001615e+07   0.000000e+00   7.560300e+09   9055s
  189150    1.1001667e+07   0.000000e+00   1.114853e+09   9060s
  190398    1.1001690e+07   0.000000e+00   7.767277e+08   9065s
  191646    1.1001745e+07   0.000000e+00   2.256734e+10   9070s
  192738    1.1001769e+07   0.000000e+00   1.617965e+09   9076s
  193830    1.1002045e+07   0.000000e+00   4.717105e+08   9080s
  194922    1.1002074e+07   0.000000e+00   4.090642e+08   9085s
  196326    1.1002088e+07   0.000000e+00   5.365118e+08   9090s
  197574    1.1002148e+07   0.000000e+00   1.132859e+09   9096s
  198510    1.1002170e+07   0.000000e+00   1.431640e+09   9100s
  199602    1.1002188e+07   0.000000e+00   9.760761e+08   9105s
  200850    1.1002208e+07   0.000000e+00   3.744630e+10   9111s
  201942    1.1002221e+07   0.000000e+00   4.303602e+08   9116s
  203190    1.1002231e+07   0.000000e+00   1.475540e+09   9120s
  204438    1.1002267e+07   0.000000e+00   3.148148e+09   9125s
  205530    1.1002291e+07   0.000000e+00   4.405882e+08   9130s
  206778    1.1002308e+07   0.000000e+00   8.723028e+08   9135s
  207870    1.1002323e+07   0.000000e+00   1.180716e+11   9140s
  208962    1.1002331e+07   0.000000e+00   1.538418e+09   9145s
  210054    1.1002342e+07   0.000000e+00   6.138544e+08   9150s
  211146    1.1002363e+07   0.000000e+00   5.861843e+08   9155s
  212238    1.1002374e+07   0.000000e+00   2.018792e+09   9160s
  213486    1.1002382e+07   0.000000e+00   4.323400e+08   9165s
  214734    1.1002414e+07   0.000000e+00   4.797683e+08   9170s
  215982    1.1002429e+07   0.000000e+00   3.812663e+09   9175s
  217230    1.1002442e+07   0.000000e+00   7.411649e+08   9181s
  218322    1.1002452e+07   0.000000e+00   2.134231e+09   9185s
  219414    1.1002458e+07   0.000000e+00   5.266137e+08   9190s
  220506    1.1002493e+07   0.000000e+00   1.558601e+09   9195s
  221598    1.1002517e+07   0.000000e+00   5.317543e+08   9201s
  222690    1.1002527e+07   0.000000e+00   1.965596e+08   9205s
  223938    1.1002545e+07   0.000000e+00   3.934197e+08   9210s
  225186    1.1002554e+07   0.000000e+00   3.585104e+08   9215s
  226434    1.1002566e+07   0.000000e+00   6.394712e+08   9220s
  227526    1.1002592e+07   0.000000e+00   2.421347e+08   9225s
  228618    1.1002602e+07   0.000000e+00   6.634531e+08   9230s
  229866    1.1002615e+07   0.000000e+00   4.106959e+08   9235s
  230958    1.1002632e+07   0.000000e+00   3.938447e+08   9240s
  232050    1.1002655e+07   0.000000e+00   4.613816e+08   9245s
  233298    1.1002660e+07   0.000000e+00   1.066475e+08   9250s
  234390    1.1002669e+07   0.000000e+00   3.433921e+08   9255s
  235638    1.1002681e+07   0.000000e+00   1.039169e+09   9260s
  236730    1.1002684e+07   0.000000e+00   3.524215e+08   9265s
  237978    1.1002730e+07   0.000000e+00   1.339571e+08   9270s
  239070    1.1002760e+07   0.000000e+00   7.581677e+08   9275s
  240318    1.1002781e+07   0.000000e+00   3.006147e+08   9280s
  241410    1.1002798e+07   0.000000e+00   9.029349e+08   9285s
  242502    1.1002820e+07   0.000000e+00   3.039767e+08   9290s
  243750    1.1002830e+07   0.000000e+00   7.363627e+09   9295s
  244998    1.1002881e+07   0.000000e+00   2.630295e+09   9301s
  246246    1.1002911e+07   0.000000e+00   4.971366e+08   9306s
  247338    1.1002928e+07   0.000000e+00   4.183873e+08   9311s
  248586    1.1002951e+07   0.000000e+00   4.869836e+08   9316s
  249678    1.1002962e+07   0.000000e+00   7.487929e+08   9321s
  250614    1.1002968e+07   0.000000e+00   1.448899e+09   9325s
  251550    1.1002973e+07   0.000000e+00   6.931552e+10   9330s
  252486    1.1002975e+07   0.000000e+00   1.377926e+08   9335s
  253422    1.1002977e+07   0.000000e+00   4.445587e+08   9340s
  254514    1.1002980e+07   0.000000e+00   6.251295e+08   9345s
  255762    1.1002992e+07   0.000000e+00   3.724988e+08   9351s
  256854    1.1003001e+07   0.000000e+00   9.283046e+08   9355s
  257946    1.1003116e+07   0.000000e+00   3.529965e+08   9360s
  259194    1.1003143e+07   0.000000e+00   1.275332e+10   9365s
  260130    1.1003148e+07   0.000000e+00   5.021947e+08   9370s
  261222    1.1003156e+07   0.000000e+00   1.615943e+08   9375s
  262470    1.1003171e+07   0.000000e+00   8.323032e+09   9380s
  263718    1.1003201e+07   0.000000e+00   1.838070e+10   9385s
  264810    1.1003220e+07   0.000000e+00   3.507120e+08   9390s
  265902    1.1003227e+07   0.000000e+00   2.582303e+08   9395s
  267150    1.1003253e+07   0.000000e+00   2.782686e+08   9401s
  268242    1.1003265e+07   0.000000e+00   6.207478e+08   9405s
  269334    1.1003277e+07   0.000000e+00   1.984302e+08   9410s
  270582    1.1003297e+07   0.000000e+00   1.513515e+09   9415s
  271674    1.1003309e+07   0.000000e+00   2.044011e+08   9420s
  272922    1.1003315e+07   0.000000e+00   1.102758e+08   9426s
  273858    1.1003321e+07   0.000000e+00   2.597071e+08   9430s
  274950    1.1003327e+07   0.000000e+00   2.893085e+10   9435s
  276198    1.1003337e+07   0.000000e+00   1.008437e+08   9441s
  277290    1.1003340e+07   0.000000e+00   8.794288e+08   9446s
  278382    1.1003343e+07   0.000000e+00   6.737549e+08   9450s
  279474    1.1003347e+07   0.000000e+00   8.167875e+08   9455s
  280566    1.1003349e+07   0.000000e+00   1.030156e+09   9460s
  281814    1.1003350e+07   0.000000e+00   7.320597e+08   9466s
  282750    1.1003356e+07   0.000000e+00   4.650586e+08   9470s
  283686    1.1003358e+07   0.000000e+00   2.481491e+08   9475s
  284934    1.1003360e+07   0.000000e+00   2.098641e+08   9481s
  286026    1.1003365e+07   0.000000e+00   6.613218e+10   9486s
  286962    1.1003367e+07   0.000000e+00   8.593504e+08   9490s
  288210    1.1003436e+07   0.000000e+00   8.396207e+08   9496s
  289302    1.1003443e+07   0.000000e+00   1.700223e+08   9501s
  290394    1.1003463e+07   0.000000e+00   9.143611e+07   9505s
  291486    1.1003466e+07   0.000000e+00   1.638814e+08   9510s
  292422    1.1003496e+07   0.000000e+00   1.314140e+08   9515s
  293670    1.1003502e+07   0.000000e+00   1.556792e+08   9521s
  294606    1.1003511e+07   0.000000e+00   1.654088e+08   9525s
  295854    1.1003516e+07   0.000000e+00   4.794670e+08   9531s
  296790    1.1003517e+07   0.000000e+00   2.362877e+08   9535s
  297882    1.1003521e+07   0.000000e+00   2.520606e+10   9540s
  298974    1.1003526e+07   0.000000e+00   5.904379e+09   9545s
  300066    1.1003533e+07   0.000000e+00   7.799497e+08   9550s
  301314    1.1003534e+07   0.000000e+00   7.860345e+08   9555s
  302250    1.1003535e+07   0.000000e+00   9.786325e+08   9560s
  303498    1.1003538e+07   0.000000e+00   3.363507e+08   9565s
  304590    1.1003538e+07   0.000000e+00   4.398525e+08   9571s
  305838    1.1003540e+07   0.000000e+00   1.302247e+08   9576s
  306930    1.1003560e+07   0.000000e+00   1.055997e+10   9581s
  307866    1.1003567e+07   0.000000e+00   8.701435e+07   9585s
  308958    1.1003569e+07   0.000000e+00   1.289130e+09   9590s
  310050    1.1003574e+07   0.000000e+00   5.012259e+08   9595s
  311142    1.1003584e+07   0.000000e+00   4.060141e+08   9600s
  312234    1.1003589e+07   0.000000e+00   4.899252e+08   9605s
  313170    1.1003592e+07   0.000000e+00   6.456657e+08   9610s
  314262    1.1003620e+07   0.000000e+00   2.481730e+10   9615s
  315198    1.1003622e+07   0.000000e+00   1.470685e+08   9620s
  316290    1.1003632e+07   0.000000e+00   1.299107e+08   9626s
  317382    1.1003644e+07   0.000000e+00   3.790543e+08   9631s
  318474    1.1003673e+07   0.000000e+00   1.859611e+09   9635s
  319878    1.1003676e+07   0.000000e+00   4.712882e+08   9641s
  320814    1.1003679e+07   0.000000e+00   3.805548e+08   9645s
  322062    1.1003680e+07   0.000000e+00   2.142869e+08   9650s
  323310    1.1003681e+07   0.000000e+00   3.058428e+09   9655s
  324402    1.1003682e+07   0.000000e+00   1.285878e+09   9661s
  325650    1.1003684e+07   0.000000e+00   1.269053e+08   9666s
  326742    1.1003688e+07   0.000000e+00   2.673552e+08   9670s
  327834    1.1003690e+07   0.000000e+00   3.948786e+09   9675s
  328926    1.1003692e+07   0.000000e+00   1.201425e+08   9680s
  330018    1.1003693e+07   0.000000e+00   2.932123e+10   9685s
  331110    1.1003695e+07   0.000000e+00   1.177705e+08   9690s
  332358    1.1003697e+07   0.000000e+00   5.394220e+07   9695s
  333450    1.1003698e+07   0.000000e+00   1.827262e+08   9701s
  334386    1.1003698e+07   0.000000e+00   9.719124e+07   9705s
  335634    1.1003706e+07   0.000000e+00   6.926777e+08   9710s
  336882    1.1003712e+07   0.000000e+00   1.811255e+08   9716s
  337818    1.1003714e+07   0.000000e+00   1.608760e+08   9720s
  338910    1.1003715e+07   0.000000e+00   1.414601e+08   9725s
  340002    1.1003715e+07   0.000000e+00   1.694462e+08   9730s
  340938    1.1003717e+07   0.000000e+00   1.421225e+08   9736s
  342186    1.1003718e+07   0.000000e+00   6.928663e+08   9740s
  343434    1.1003718e+07   0.000000e+00   3.390127e+09   9745s
  344526    1.1003719e+07   0.000000e+00   2.168497e+08   9750s
  345618    1.1003721e+07   0.000000e+00   1.050524e+08   9756s
  346554    1.1003722e+07   0.000000e+00   1.084601e+09   9761s
  347802    1.1003726e+07   0.000000e+00   5.852299e+07   9766s
  348738    1.1003730e+07   0.000000e+00   1.467577e+09   9770s
  349986    1.1003734e+07   0.000000e+00   1.400442e+09   9775s
  351078    1.1003747e+07   0.000000e+00   3.740082e+10   9780s
  352170    1.1003755e+07   0.000000e+00   1.283911e+08   9785s
  353106    1.1003763e+07   0.000000e+00   2.504099e+08   9791s
  353886    1.1003764e+07   0.000000e+00   1.757618e+08   9795s
  354822    1.1003765e+07   0.000000e+00   2.986534e+08   9800s
  356070    1.1003770e+07   0.000000e+00   4.279296e+10   9805s
  357162    1.1003771e+07   0.000000e+00   4.021146e+08   9810s
  357942    1.1003772e+07   0.000000e+00   6.763768e+08   9816s
  358722    1.1003772e+07   0.000000e+00   3.008828e+08   9821s
  359502    1.1003791e+07   0.000000e+00   4.510652e+08   9826s
  360126    1.1003797e+07   0.000000e+00   1.807495e+08   9831s
  361062    1.1003800e+07   0.000000e+00   8.802026e+07   9835s
  361842    1.1003804e+07   0.000000e+00   9.890031e+07   9840s
  362778    1.1003805e+07   0.000000e+00   1.264110e+09   9845s
  363714    1.1003806e+07   0.000000e+00   4.639707e+09   9851s
  364494    1.1003806e+07   0.000000e+00   4.553947e+08   9855s
  365430    1.1003807e+07   0.000000e+00   1.863257e+08   9861s
  366366    1.1003807e+07   0.000000e+00   7.622634e+07   9865s
  367458    1.1003808e+07   0.000000e+00   1.063682e+08   9871s
  368394    1.1003809e+07   0.000000e+00   1.845822e+08   9876s
  369330    1.1003813e+07   0.000000e+00   1.090717e+08   9880s
  370266    1.1003814e+07   0.000000e+00   1.631236e+11   9885s
  371358    1.1003823e+07   0.000000e+00   3.055616e+08   9891s
  372450    1.1003825e+07   0.000000e+00   9.983082e+08   9896s
  373386    1.1003826e+07   0.000000e+00   4.645415e+08   9901s
  374322    1.1003826e+07   0.000000e+00   1.316025e+08   9906s
  375258    1.1003828e+07   0.000000e+00   1.643831e+08   9911s
  376038    1.1003829e+07   0.000000e+00   6.556971e+08   9915s
  377130    1.1003848e+07   0.000000e+00   1.376038e+08   9920s
  378066    1.1003863e+07   0.000000e+00   5.028288e+08   9925s
  379158    1.1003866e+07   0.000000e+00   2.125333e+08   9931s
  380094    1.1003866e+07   0.000000e+00   3.091785e+08   9936s
  380874    1.1003867e+07   0.000000e+00   2.922866e+08   9940s
  381810    1.1003868e+07   0.000000e+00   1.144659e+08   9945s
  382746    1.1003868e+07   0.000000e+00   7.346072e+07   9950s
  383838    1.1003888e+07   0.000000e+00   2.320059e+08   9956s
  384618    1.1003889e+07   0.000000e+00   1.274385e+08   9960s
  385710    1.1003896e+07   0.000000e+00   1.258079e+09   9965s
  386802    1.1003904e+07   0.000000e+00   4.785294e+08   9971s
  387738    1.1003909e+07   0.000000e+00   4.479754e+08   9976s
  388674    1.1003911e+07   0.000000e+00   1.378090e+08   9981s
  389766    1.1003912e+07   0.000000e+00   1.518999e+08   9985s
  390702    1.1003912e+07   0.000000e+00   9.439179e+07   9990s
  391794    1.1003921e+07   0.000000e+00   6.538649e+08   9995s
  392730    1.1003930e+07   0.000000e+00   2.874401e+08  10001s
  393666    1.1003932e+07   0.000000e+00   2.521189e+08  10005s
  394602    1.1003935e+07   0.000000e+00   5.056813e+08  10011s
  395538    1.1003940e+07   0.000000e+00   3.493056e+08  10015s
  396474    1.1003943e+07   0.000000e+00   9.730334e+07  10020s
  397566    1.1003943e+07   0.000000e+00   2.455840e+08  10026s
  398346    1.1003944e+07   0.000000e+00   5.868939e+07  10030s
  399438    1.1003947e+07   0.000000e+00   1.745449e+08  10036s
  400218    1.1003947e+07   0.000000e+00   3.011068e+08  10040s
  401154    1.1003948e+07   0.000000e+00   6.581308e+07  10045s
  402246    1.1003949e+07   0.000000e+00   2.018003e+10  10050s
  403182    1.1003964e+07   0.000000e+00   1.485830e+09  10056s
  404118    1.1003967e+07   0.000000e+00   6.624323e+07  10061s
  405210    1.1003969e+07   0.000000e+00   8.782086e+07  10066s
  406146    1.1003970e+07   0.000000e+00   8.828130e+07  10070s
  407082    1.1003972e+07   0.000000e+00   1.261346e+08  10075s
  408018    1.1003973e+07   0.000000e+00   6.913060e+07  10080s
  408954    1.1003974e+07   0.000000e+00   4.391101e+08  10085s
  409734    1.1003975e+07   0.000000e+00   6.716884e+09  10090s
  410514    1.1003975e+07   0.000000e+00   8.558365e+07  10095s
  411450    1.1003976e+07   0.000000e+00   4.317530e+07  10100s
  412386    1.1003979e+07   0.000000e+00   5.131927e+07  10106s
  413322    1.1003980e+07   0.000000e+00   4.791743e+08  10110s
  414258    1.1003980e+07   0.000000e+00   2.420103e+08  10115s
  415194    1.1003980e+07   0.000000e+00   7.334627e+09  10120s
  416130    1.1003982e+07   0.000000e+00   4.715393e+07  10125s
  417222    1.1003984e+07   0.000000e+00   6.480139e+07  10131s
  418158    1.1003984e+07   0.000000e+00   1.035961e+08  10136s
  419094    1.1003985e+07   0.000000e+00   2.998587e+08  10141s
  420030    1.1003985e+07   0.000000e+00   1.895559e+08  10145s
  421122    1.1003986e+07   0.000000e+00   1.265715e+08  10150s
  422058    1.1003986e+07   0.000000e+00   1.306976e+10  10155s
  422994    1.1003986e+07   0.000000e+00   7.192041e+07  10160s
  424242    1.1004002e+07   0.000000e+00   6.493960e+08  10165s
  425334    1.1004019e+07   0.000000e+00   2.358111e+10  10170s
  426426    1.1004028e+07   0.000000e+00   1.556615e+08  10175s
  427518    1.1004031e+07   0.000000e+00   5.603414e+07  10181s
  428610    1.1004033e+07   0.000000e+00   6.875270e+07  10185s
  429858    1.1004034e+07   0.000000e+00   6.527374e+07  10190s
  430794    1.1004049e+07   0.000000e+00   5.093163e+08  10195s
  432042    1.1004056e+07   0.000000e+00   3.063757e+08  10200s
  433290    1.1004060e+07   0.000000e+00   1.432259e+08  10205s
  434382    1.1004060e+07   0.000000e+00   5.967434e+09  10211s
  435474    1.1004061e+07   0.000000e+00   1.521110e+08  10216s
  436566    1.1004062e+07   0.000000e+00   1.200143e+09  10220s
  437658    1.1004064e+07   0.000000e+00   3.840650e+07  10225s
  438750    1.1004065e+07   0.000000e+00   5.533904e+07  10230s
  439998    1.1004066e+07   0.000000e+00   4.903554e+09  10235s
  440934    1.1004071e+07   0.000000e+00   5.551174e+07  10240s
  442182    1.1004072e+07   0.000000e+00   3.850296e+07  10245s
  443430    1.1004073e+07   0.000000e+00   9.394046e+07  10250s
  444522    1.1004077e+07   0.000000e+00   9.843384e+07  10255s
  445770    1.1004079e+07   0.000000e+00   9.314814e+09  10260s
  446862    1.1004084e+07   0.000000e+00   5.431849e+08  10265s
  447798    1.1004086e+07   0.000000e+00   6.554182e+11  10270s
  448734    1.1004087e+07   0.000000e+00   8.955704e+09  10275s
  449670    1.1004088e+07   0.000000e+00   2.160548e+08  10281s
  450606    1.1004089e+07   0.000000e+00   6.726718e+07  10285s
  451698    1.1004090e+07   0.000000e+00   1.185172e+08  10290s
  452634    1.1004092e+07   0.000000e+00   1.057802e+08  10295s
  453570    1.1004094e+07   0.000000e+00   3.235276e+07  10300s
  454662    1.1004102e+07   0.000000e+00   1.119077e+08  10305s
  455598    1.1004109e+07   0.000000e+00   2.722511e+08  10311s
  456534    1.1004112e+07   0.000000e+00   1.530389e+08  10315s
  457782    1.1004115e+07   0.000000e+00   1.061160e+08  10320s
  458718    1.1004116e+07   0.000000e+00   6.436370e+07  10325s
  459966    1.1004119e+07   0.000000e+00   7.383205e+07  10331s
  460902    1.1004120e+07   0.000000e+00   3.093860e+08  10336s
  461994    1.1004122e+07   0.000000e+00   6.306471e+07  10341s
  462930    1.1004122e+07   0.000000e+00   5.462940e+07  10346s
  463866    1.1004122e+07   0.000000e+00   4.686799e+10  10350s
  464802    1.1004126e+07   0.000000e+00   1.096307e+08  10356s
  465738    1.1004127e+07   0.000000e+00   1.627711e+10  10360s
  466674    1.1004129e+07   0.000000e+00   5.156799e+08  10365s
  467922    1.1004132e+07   0.000000e+00   1.060838e+11  10371s
  468858    1.1004136e+07   0.000000e+00   2.387870e+08  10375s
  469950    1.1004139e+07   0.000000e+00   8.406193e+07  10380s
  471042    1.1004140e+07   0.000000e+00   4.316633e+07  10386s
  471978    1.1004142e+07   0.000000e+00   4.923643e+07  10390s
  473070    1.1004146e+07   0.000000e+00   7.260755e+07  10396s
  474006    1.1004146e+07   0.000000e+00   5.764452e+08  10400s
  474942    1.1004148e+07   0.000000e+00   1.704826e+08  10405s
  475878    1.1004148e+07   0.000000e+00   7.973871e+08  10410s
  476814    1.1004148e+07   0.000000e+00   1.549006e+09  10415s
  477750    1.1004149e+07   0.000000e+00   1.395079e+08  10420s
  478686    1.1004149e+07   0.000000e+00   4.884601e+07  10425s
  479778    1.1004149e+07   0.000000e+00   1.066134e+08  10431s
  480714    1.1004150e+07   0.000000e+00   1.807975e+08  10435s
  481650    1.1004150e+07   0.000000e+00   7.841804e+07  10440s
  482898    1.1004157e+07   0.000000e+00   3.009539e+08  10446s
  483990    1.1004160e+07   0.000000e+00   3.291389e+08  10450s
  485082    1.1004161e+07   0.000000e+00   1.328285e+08  10456s
  485862    1.1004161e+07   0.000000e+00   1.974670e+08  10460s
  486798    1.1004161e+07   0.000000e+00   1.251007e+08  10466s
  487734    1.1004162e+07   0.000000e+00   6.513676e+07  10470s
  488826    1.1004163e+07   0.000000e+00   2.377643e+07  10475s
  489762    1.1004164e+07   0.000000e+00   3.452781e+07  10480s
  490698    1.1004165e+07   0.000000e+00   6.385155e+07  10485s
  491790    1.1004170e+07   0.000000e+00   7.831020e+07  10490s
  492882    1.1004171e+07   0.000000e+00   4.283952e+09  10496s
  493818    1.1004171e+07   0.000000e+00   4.955988e+07  10501s
  494910    1.1004173e+07   0.000000e+00   5.929013e+07  10506s
  496002    1.1004175e+07   0.000000e+00   4.385039e+08  10510s
  497094    1.1004176e+07   0.000000e+00   4.066955e+07  10515s
  498186    1.1004176e+07   0.000000e+00   7.004397e+07  10521s
  499122    1.1004177e+07   0.000000e+00   6.533166e+07  10525s
  500214    1.1004177e+07   0.000000e+00   1.206700e+08  10531s
  501306    1.1004178e+07   0.000000e+00   1.590369e+08  10536s
  502242    1.1004179e+07   0.000000e+00   4.480601e+07  10540s
  503334    1.1004179e+07   0.000000e+00   5.223460e+07  10546s
  504270    1.1004179e+07   0.000000e+00   1.248340e+08  10551s
  505206    1.1004181e+07   0.000000e+00   6.258142e+07  10555s
  506142    1.1004183e+07   0.000000e+00   2.786279e+08  10560s
  507390    1.1004185e+07   0.000000e+00   1.026832e+08  10565s
  508482    1.1004186e+07   0.000000e+00   3.920051e+07  10570s
  509730    1.1004188e+07   0.000000e+00   5.348737e+09  10575s
  510822    1.1004191e+07   0.000000e+00   1.444832e+08  10580s
  511914    1.1004192e+07   0.000000e+00   4.902336e+07  10586s
  512850    1.1004192e+07   0.000000e+00   1.828529e+08  10590s
  513942    1.1004193e+07   0.000000e+00   8.112882e+07  10595s
  515034    1.1004193e+07   0.000000e+00   5.145243e+07  10601s
  515814    1.1004194e+07   0.000000e+00   2.828724e+08  10605s
  516906    1.1004194e+07   0.000000e+00   3.271336e+07  10611s
  517842    1.1004194e+07   0.000000e+00   6.638160e+07  10615s
  518934    1.1004197e+07   0.000000e+00   4.653069e+07  10621s
  520026    1.1004198e+07   0.000000e+00   7.848272e+07  10625s
  520962    1.1004198e+07   0.000000e+00   1.251331e+08  10630s
  521898    1.1004198e+07   0.000000e+00   2.640372e+08  10635s
  522834    1.1004198e+07   0.000000e+00   1.034211e+08  10640s
  523770    1.1004199e+07   0.000000e+00   3.171820e+08  10645s
  524706    1.1004199e+07   0.000000e+00   1.763961e+08  10650s
  525642    1.1004199e+07   0.000000e+00   5.450460e+07  10655s
  526578    1.1004200e+07   0.000000e+00   3.200775e+07  10660s
  527670    1.1004202e+07   0.000000e+00   2.265099e+08  10666s
  528606    1.1004202e+07   0.000000e+00   3.432604e+08  10670s
  529542    1.1004202e+07   0.000000e+00   6.900513e+07  10675s
  530478    1.1004203e+07   0.000000e+00   7.227241e+07  10680s
  531570    1.1004203e+07   0.000000e+00   3.101756e+07  10686s
  532662    1.1004208e+07   0.000000e+00   1.331243e+08  10691s
  533910    1.1004210e+07   0.000000e+00   2.967615e+08  10695s
  535002    1.1004210e+07   0.000000e+00   3.884238e+07  10700s
  536094    1.1004210e+07   0.000000e+00   2.788516e+07  10706s
  537030    1.1004210e+07   0.000000e+00   5.982250e+07  10710s
  538122    1.1004210e+07   0.000000e+00   4.997083e+07  10716s
  539058    1.1004210e+07   0.000000e+00   2.227503e+08  10720s
  540150    1.1004211e+07   0.000000e+00   1.162393e+08  10726s
  541086    1.1004211e+07   0.000000e+00   6.551087e+07  10730s
  542178    1.1004211e+07   0.000000e+00   5.628581e+07  10736s
  543114    1.1004211e+07   0.000000e+00   2.237238e+07  10740s
  544206    1.1004211e+07   0.000000e+00   2.472707e+07  10746s
  545142    1.1004211e+07   0.000000e+00   2.821725e+07  10750s
  546234    1.1004211e+07   0.000000e+00   2.064822e+07  10755s
  547170    1.1004211e+07   0.000000e+00   3.118537e+07  10760s
  548106    1.1004211e+07   0.000000e+00   5.631685e+07  10765s
  549042    1.1004211e+07   0.000000e+00   1.933833e+07  10770s
  549978    1.1004212e+07   0.000000e+00   2.207946e+07  10775s
  551070    1.1004212e+07   0.000000e+00   1.509886e+07  10780s
  552006    1.1004212e+07   0.000000e+00   2.226981e+07  10785s
  553098    1.1004212e+07   0.000000e+00   8.214789e+08  10791s
  554034    1.1004212e+07   0.000000e+00   5.542789e+07  10796s
  554970    1.1004212e+07   0.000000e+00   5.921135e+08  10800s
  556062    1.1004212e+07   0.000000e+00   2.576124e+07  10806s
  556998    1.1004212e+07   0.000000e+00   6.609591e+06  10811s
  557934    1.1004212e+07   0.000000e+00   2.654690e+07  10816s
  558870    1.1004213e+07   0.000000e+00   1.762790e+07  10820s
  559962    1.1004213e+07   0.000000e+00   4.341221e+07  10826s
  560898    1.1004213e+07   0.000000e+00   8.190047e+07  10831s
  561834    1.1004213e+07   0.000000e+00   1.190293e+07  10836s
  562770    1.1004213e+07   0.000000e+00   6.932941e+06  10840s
  563862    1.1004213e+07   0.000000e+00   2.890395e+07  10845s
  564954    1.1004213e+07   0.000000e+00   8.015487e+06  10851s
  565734    1.1004213e+07   0.000000e+00   2.440001e+07  10855s
  566826    1.1004213e+07   0.000000e+00   1.471143e+08  10860s
  567762    1.1004213e+07   0.000000e+00   2.094148e+07  10865s
  568854    1.1004213e+07   0.000000e+00   1.229271e+07  10870s
  569790    1.1004213e+07   0.000000e+00   2.325866e+07  10875s
  571038    1.1004213e+07   0.000000e+00   1.581342e+07  10880s
  572286    1.1004213e+07   0.000000e+00   1.887785e+07  10886s
  573066    1.1004213e+07   0.000000e+00   2.224329e+07  10891s
  573690    1.1004213e+07   0.000000e+00   6.025241e+06  10896s
  574314    1.1004214e+07   0.000000e+00   1.147569e+07  10901s
  575094    1.1004214e+07   0.000000e+00   4.102522e+07  10906s
  575874    1.1004214e+07   0.000000e+00   5.881683e+06  10910s
  576810    1.1004214e+07   0.000000e+00   9.873302e+06  10915s
  577590    1.1004214e+07   0.000000e+00   1.831080e+07  10921s
  578370    1.1004214e+07   0.000000e+00   1.843141e+07  10926s
  579150    1.1004214e+07   0.000000e+00   1.397491e+07  10930s
  580242    1.1004214e+07   0.000000e+00   2.409308e+07  10935s
  581334    1.1004214e+07   0.000000e+00   1.228053e+07  10940s
  582426    1.1004214e+07   0.000000e+00   9.372817e+06  10945s
  583674    1.1004214e+07   0.000000e+00   1.653018e+07  10951s
  584766    1.1004214e+07   0.000000e+00   2.722022e+07  10955s
  585858    1.1004214e+07   0.000000e+00   2.533968e+07  10960s
  586950    1.1004214e+07   0.000000e+00   2.824146e+07  10966s
  588042    1.1004214e+07   0.000000e+00   4.876207e+06  10971s
  588978    1.1004214e+07   0.000000e+00   7.218161e+06  10975s
  589914    1.1004214e+07   0.000000e+00   6.617319e+06  10980s
  591006    1.1004214e+07   0.000000e+00   1.090339e+07  10985s
  592098    1.1004214e+07   0.000000e+00   5.588312e+06  10991s
  593034    1.1004214e+07   0.000000e+00   1.156775e+07  10995s
  594126    1.1004214e+07   0.000000e+00   1.974217e+07  11001s
  595062    1.1004214e+07   0.000000e+00   3.490343e+06  11006s
  595998    1.1004214e+07   0.000000e+00   7.307859e+06  11010s
  597090    1.1004214e+07   0.000000e+00   3.748026e+06  11016s
  597714    1.1004215e+07   0.000000e+00   2.549790e+06  11020s
  598494    1.1004215e+07   0.000000e+00   9.718845e+06  11025s
  599274    1.1004215e+07   0.000000e+00   2.904762e+06  11030s
  600210    1.1004215e+07   0.000000e+00   4.510144e+06  11035s
  601146    1.1004215e+07   0.000000e+00   2.676492e+06  11041s
  601926    1.1004215e+07   0.000000e+00   9.928283e+06  11045s
  602862    1.1004215e+07   0.000000e+00   6.311678e+06  11051s
  603642    1.1004215e+07   0.000000e+00   6.902555e+06  11055s
  604422    1.1004215e+07   0.000000e+00   3.639267e+06  11060s
  605358    1.1004215e+07   0.000000e+00   4.048728e+06  11066s
  606138    1.1004215e+07   0.000000e+00   1.041722e+07  11070s
  606918    1.1004215e+07   0.000000e+00   1.201764e+07  11075s
  607854    1.1004215e+07   0.000000e+00   1.183147e+07  11080s
  608790    1.1004215e+07   0.000000e+00   2.443013e+06  11085s
  609570    1.1004215e+07   0.000000e+00   8.251148e+06  11090s
  610506    1.1004215e+07   0.000000e+00   5.693715e+06  11096s
  611442    1.1004215e+07   0.000000e+00   3.256779e+06  11101s
  612222    1.1004215e+07   0.000000e+00   1.002995e+07  11105s
  613002    1.1004215e+07   0.000000e+00   4.563834e+06  11110s
  613782    1.1004215e+07   0.000000e+00   4.321721e+06  11115s
  614718    1.1004215e+07   0.000000e+00   2.165120e+07  11121s
  615498    1.1004215e+07   0.000000e+00   6.939971e+06  11126s
  616278    1.1004215e+07   0.000000e+00   2.334674e+06  11130s
  617214    1.1004215e+07   0.000000e+00   1.126873e+07  11136s
  617994    1.1004215e+07   0.000000e+00   1.081553e+07  11140s
  618930    1.1004215e+07   0.000000e+00   4.682016e+06  11146s
  619710    1.1004215e+07   0.000000e+00   4.014606e+06  11150s
  620646    1.1004215e+07   0.000000e+00   9.836827e+06  11156s
  621426    1.1004215e+07   0.000000e+00   6.868315e+06  11160s
  622362    1.1004215e+07   0.000000e+00   5.176581e+06  11166s
  623142    1.1004215e+07   0.000000e+00   2.225687e+06  11170s
  624078    1.1004215e+07   0.000000e+00   5.310290e+06  11176s
  624858    1.1004215e+07   0.000000e+00   2.938973e+06  11180s
  625794    1.1004215e+07   0.000000e+00   5.408719e+06  11185s
  626730    1.1004216e+07   0.000000e+00   4.795747e+06  11191s
  627510    1.1004216e+07   0.000000e+00   4.139174e+06  11195s
  628446    1.1004216e+07   0.000000e+00   8.437609e+06  11201s
  629226    1.1004216e+07   0.000000e+00   3.379340e+06  11205s
  630006    1.1004216e+07   0.000000e+00   1.854005e+06  11210s
  630942    1.1004216e+07   0.000000e+00   2.189462e+06  11216s
  631722    1.1004216e+07   0.000000e+00   4.044524e+06  11220s
  632502    1.1004216e+07   0.000000e+00   2.524268e+06  11225s
  633438    1.1004216e+07   0.000000e+00   5.736624e+06  11231s
  634218    1.1004216e+07   0.000000e+00   3.241210e+06  11235s
  635154    1.1004216e+07   0.000000e+00   4.127324e+06  11241s
  635934    1.1004216e+07   0.000000e+00   2.964691e+06  11245s
  636870    1.1004216e+07   0.000000e+00   1.315621e+06  11251s
  637650    1.1004216e+07   0.000000e+00   1.547670e+06  11255s
  638586    1.1004216e+07   0.000000e+00   1.916108e+06  11261s
  639366    1.1004216e+07   0.000000e+00   4.112079e+06  11265s
  640302    1.1004216e+07   0.000000e+00   1.736933e+06  11271s
  641082    1.1004216e+07   0.000000e+00   2.020238e+06  11275s
  641862    1.1004216e+07   0.000000e+00   1.258047e+06  11280s
  642798    1.1004216e+07   0.000000e+00   4.060628e+06  11286s
  643578    1.1004216e+07   0.000000e+00   3.522608e+06  11290s
  644514    1.1004216e+07   0.000000e+00   9.305351e+05  11296s
  645450    1.1004216e+07   0.000000e+00   2.026806e+06  11301s
  646230    1.1004216e+07   0.000000e+00   1.829991e+06  11305s
  647166    1.1004216e+07   0.000000e+00   2.177903e+06  11311s
  647946    1.1004216e+07   0.000000e+00   5.725016e+05  11316s
  648726    1.1004216e+07   0.000000e+00   9.093765e+05  11320s
  649506    1.1004216e+07   0.000000e+00   1.912670e+06  11326s
  650286    1.1004216e+07   0.000000e+00   1.130198e+06  11330s
  651066    1.1004216e+07   0.000000e+00   9.782378e+05  11335s
  651846    1.1004216e+07   0.000000e+00   4.259480e+05  11340s
  652782    1.1004216e+07   0.000000e+00   5.743283e+05  11346s
  653562    1.1004216e+07   0.000000e+00   1.402939e+06  11351s
  654342    1.1004216e+07   0.000000e+00   1.363081e+06  11356s
  655122    1.1004216e+07   0.000000e+00   3.038615e+06  11360s
  655902    1.1004216e+07   0.000000e+00   2.662904e+06  11365s
  656838    1.1004216e+07   0.000000e+00   3.845799e+05  11371s
  657618    1.1004216e+07   0.000000e+00   4.122474e+05  11376s
  658398    1.1004216e+07   0.000000e+00   1.481357e+06  11380s
  659178    1.1004216e+07   0.000000e+00   5.925182e+05  11385s
  659958    1.1004216e+07   0.000000e+00   7.227338e+05  11390s
  660894    1.1004216e+07   0.000000e+00   8.558039e+05  11396s
  661674    1.1004216e+07   0.000000e+00   1.261229e+06  11401s
  662454    1.1004216e+07   0.000000e+00   2.655248e+05  11405s
  663234    1.1004216e+07   0.000000e+00   1.642207e+05  11410s
  664170    1.1004216e+07   0.000000e+00   3.442782e+05  11416s
  664950    1.1004216e+07   0.000000e+00   2.091071e+05  11421s
  665730    1.1004216e+07   0.000000e+00   3.316896e+05  11426s
  666510    1.1004216e+07   0.000000e+00   1.533462e+05  11430s
  667290    1.1004216e+07   0.000000e+00   1.715728e+05  11435s
  668226    1.1004216e+07   0.000000e+00   1.195678e+05  11441s
  669006    1.1004216e+07   0.000000e+00   9.694780e+05  11445s
  669786    1.1004216e+07   0.000000e+00   5.984555e+04  11450s
  670566    1.1004216e+07   0.000000e+00   4.346228e+04  11455s
  671346    1.1004216e+07   0.000000e+00   2.158971e+04  11460s
  672126    1.1004216e+07   0.000000e+00   1.640524e+04  11465s
  672346    1.1004216e+07   0.000000e+00   5.377721e+03  11471s
  672586    1.1004216e+07   0.000000e+00   6.237591e+03  11476s
  672816    1.1004216e+07   0.000000e+00   7.945209e+03  11482s
  673026    1.1004216e+07   0.000000e+00   1.496056e+04  11487s
  673236    1.1004216e+07   0.000000e+00   7.489929e+03  11492s
  673466    1.1004216e+07   0.000000e+00   3.367424e+04  11497s
  673686    1.1004216e+07   0.000000e+00   6.702465e+03  11503s
  673806    1.1004216e+07   0.000000e+00   4.076877e+02  11506s
  674036    1.1004216e+07   0.000000e+00   5.423591e+03  11511s
  674246    1.1004216e+07   0.000000e+00   3.508317e+03  11516s
  674472    1.0995015e+07   1.934997e+02   0.000000e+00  11522s
  674582    1.0995014e+07   4.754715e+01   0.000000e+00  11526s
  674802    1.0995014e+07   1.615271e+02   0.000000e+00  11534s
  674942    1.0995014e+07   1.500732e+02   0.000000e+00  11539s
  675052    1.0995013e+07   3.011181e+02   0.000000e+00  11542s
  675152    1.0995011e+07   1.069011e+02   0.000000e+00  11546s
  675402    1.0995007e+07   6.027480e+01   0.000000e+00  11553s
  675512    1.0995006e+07   7.842947e+01   0.000000e+00  11556s
  675792    1.0994997e+07   1.708494e+02   0.000000e+00  11564s
  675942    1.0994988e+07   5.858913e+01   0.000000e+00  11568s
  676072    1.0994986e+07   1.110110e+01   0.000000e+00  11571s
  676202    1.0994986e+07   8.245138e+00   0.000000e+00  11575s
  676452    1.0994985e+07   4.126951e+02   0.000000e+00  11583s
  676612    1.0994985e+07   3.692953e+01   0.000000e+00  11588s
  676732    1.0994985e+07   2.349501e+01   0.000000e+00  11593s
  676862    1.0994985e+07   1.716793e+02   0.000000e+00  11597s
  676982    1.0994985e+07   1.070121e+02   0.000000e+00  11600s
  677252    1.0994984e+07   5.170499e+00   0.000000e+00  11607s
  677412    1.0994916e+07   2.894851e+01   0.000000e+00  11611s
  677702    1.0994904e+07   5.199400e+01   0.000000e+00  11618s
  677832    1.0994901e+07   2.087299e+02   0.000000e+00  11622s
  677962    1.0994889e+07   5.359933e+01   0.000000e+00  11626s
  678172    1.0994888e+07   7.514874e+02   0.000000e+00  11633s
  678272    1.0994888e+07   7.995587e+02   0.000000e+00  11636s
  678472    1.0994888e+07   8.310139e+02   0.000000e+00  11643s
  678572    1.0994888e+07   2.580050e+03   0.000000e+00  11646s
  678772    1.0994887e+07   1.352415e+03   0.000000e+00  11653s
  678872    1.0994887e+07   5.868039e+02   0.000000e+00  11656s
  679082    1.0994887e+07   2.024092e+03   0.000000e+00  11663s
  679182    1.0994887e+07   1.237408e+03   0.000000e+00  11666s
  679382    1.0994886e+07   6.624900e+02   0.000000e+00  11673s
  679502    1.0994886e+07   6.621960e+02   0.000000e+00  11677s
  679612    1.0994886e+07   4.112186e+02   0.000000e+00  11680s
  679842    1.0994886e+07   2.732446e+02   0.000000e+00  11687s
  679942    1.0994886e+07   2.241570e+02   0.000000e+00  11691s
  680142    1.0994885e+07   2.759681e+02   0.000000e+00  11697s
  680242    1.0994885e+07   2.392269e+03   0.000000e+00  11701s
  680462    1.0994885e+07   1.335218e+03   0.000000e+00  11708s
  680572    1.0994885e+07   1.585792e+04   0.000000e+00  11712s
  680792    1.0994884e+07   7.331334e+03   0.000000e+00  11719s
  680912    1.0994883e+07   1.072305e+03   0.000000e+00  11722s
  681032    1.0994883e+07   1.198087e+04   0.000000e+00  11726s
  681242    1.0994883e+07   3.508086e+03   0.000000e+00  11733s
  681342    1.0994883e+07   2.369609e+03   0.000000e+00  11737s
  681462    1.0994883e+07   6.686282e+02   0.000000e+00  11741s
  681662    1.0994883e+07   6.706184e+02   0.000000e+00  11747s
  681802    1.0994882e+07   6.923169e+02   0.000000e+00  11752s
  681942    1.0994882e+07   9.454933e+02   0.000000e+00  11758s
  682052    1.0994882e+07   1.735649e+03   0.000000e+00  11762s
  682152    1.0994882e+07   7.995805e+02   0.000000e+00  11765s
  682382    1.0994881e+07   1.048122e+03   0.000000e+00  11774s
  682492    1.0994879e+07   2.210687e+03   0.000000e+00  11778s
  682592    1.0994878e+07   5.851237e+03   0.000000e+00  11782s
  682692    1.0994878e+07   2.923621e+03   0.000000e+00  11786s
  682822    1.0994874e+07   2.376066e+04   0.000000e+00  11791s
  682962    1.0994871e+07   1.292735e+04   0.000000e+00  11796s
  683062    1.0994870e+07   1.225872e+04   0.000000e+00  11800s
  683292    1.0994865e+07   3.805439e+04   0.000000e+00  11809s
  683422    1.0994862e+07   1.116602e+04   0.000000e+00  11814s
  683522    1.0994858e+07   1.418015e+04   0.000000e+00  11817s
  683622    1.0994856e+07   1.723151e+04   0.000000e+00  11821s
  683852    1.0994853e+07   1.261408e+05   0.000000e+00  11829s
  683952    1.0994851e+07   1.182066e+04   0.000000e+00  11833s
  684072    1.0994851e+07   2.203261e+04   0.000000e+00  11837s
  684182    1.0994851e+07   1.675195e+04   0.000000e+00  11842s
  684322    1.0994850e+07   9.025943e+03   0.000000e+00  11847s
  684422    1.0994848e+07   2.247038e+06   0.000000e+00  11850s
  684632    1.0994833e+07   4.939428e+06   0.000000e+00  11858s
  684752    1.0994826e+07   5.534037e+06   0.000000e+00  11862s
  684862    1.0994812e+07   3.794135e+06   0.000000e+00  11866s
  685002    1.0994807e+07   4.944863e+03   0.000000e+00  11871s
  685112    1.0994806e+07   5.327801e+03   0.000000e+00  11875s
  685332    1.0994805e+07   6.369624e+02   0.000000e+00  11883s
  685452    1.0994805e+07   2.486416e+03   0.000000e+00  11888s
  685552    1.0994804e+07   2.686572e+02   0.000000e+00  11891s
  685652    1.0994804e+07   5.702558e+02   0.000000e+00  11895s
  685882    1.0994803e+07   8.133998e+02   0.000000e+00  11903s
  686002    1.0994803e+07   6.484261e+02   0.000000e+00  11908s
  686102    1.0994803e+07   6.549188e+03   0.000000e+00  11911s
  686212    1.0994802e+07   5.263508e+03   0.000000e+00  11915s
  686442    1.0994802e+07   1.409599e+03   0.000000e+00  11924s
  686562    1.0994802e+07   6.042278e+03   0.000000e+00  11928s
  686712    1.0994799e+07   5.390048e+02   0.000000e+00  11933s
  686812    1.0994796e+07   8.655704e+03   0.000000e+00  11937s
  686942    1.0994794e+07   8.256759e+02   0.000000e+00  11942s
  687082    1.0994779e+07   6.274382e+05   0.000000e+00  11947s
  687282    1.0994751e+07   9.710207e+03   0.000000e+00  11951s
  687422    1.0994749e+07   3.105133e+03   0.000000e+00  11956s
  687522    1.0994749e+07   3.155538e+04   0.000000e+00  11960s
  687652    1.0994749e+07   2.971969e+04   0.000000e+00  11965s
  687872    1.0994748e+07   1.725314e+03   0.000000e+00  11973s
  687982    1.0994748e+07   3.711826e+02   0.000000e+00  11978s
  688092    1.0994747e+07   1.990614e+02   0.000000e+00  11982s
  688192    1.0994747e+07   6.980975e+02   0.000000e+00  11986s
  688412    1.0994746e+07   1.013671e+03   0.000000e+00  11994s
  688512    1.0994746e+07   9.960860e+02   0.000000e+00  11997s
  688642    1.0994746e+07   7.426779e+02   0.000000e+00  12002s
  688752    1.0994743e+07   5.819058e+04   0.000000e+00  12006s
  688982    1.0994733e+07   2.639156e+03   0.000000e+00  12014s
  689122    1.0994733e+07   5.203118e+02   0.000000e+00  12020s
  689232    1.0994733e+07   1.065732e+03   0.000000e+00  12024s
  689342    1.0994731e+07   7.824140e+03   0.000000e+00  12028s
  689482    1.0994728e+07   2.256144e+04   0.000000e+00  12033s
  689602    1.0994727e+07   2.689451e+04   0.000000e+00  12038s
  689732    1.0994726e+07   2.873467e+03   0.000000e+00  12043s
  689862    1.0994724e+07   1.266002e+01   0.000000e+00  12047s
  689982    1.0994724e+07   4.874709e+02   0.000000e+00  12051s
  690182    1.0994724e+07   1.554706e+03   0.000000e+00  12058s
  690282    1.0994724e+07   1.572626e+03   0.000000e+00  12062s
  690392    1.0994724e+07   2.274782e+04   0.000000e+00  12066s
  690612    1.0994724e+07   5.591928e+02   0.000000e+00  12074s
  690722    1.0994724e+07   2.084600e+03   0.000000e+00  12078s
  690832    1.0994724e+07   1.059390e+03   0.000000e+00  12082s
  690932    1.0994724e+07   1.393018e+03   0.000000e+00  12086s
  691062    1.0994724e+07   6.940423e+02   0.000000e+00  12091s
  691202    1.0994724e+07   1.204360e+03   0.000000e+00  12096s
  691432    1.0994724e+07   1.515739e+03   0.000000e+00  12105s
  691552    1.0994724e+07   7.583655e+02   0.000000e+00  12109s
  691692    1.0994723e+07   5.296391e+02   0.000000e+00  12115s
  691822    1.0994723e+07   3.555287e+02   0.000000e+00  12119s
  691942    1.0994723e+07   3.275151e+02   0.000000e+00  12123s
  692062    1.0994723e+07   5.267352e+02   0.000000e+00  12129s
  692172    1.0994722e+07   4.623459e+02   0.000000e+00  12134s
  692292    1.0994722e+07   4.090445e+02   0.000000e+00  12141s
  692392    1.0994722e+07   8.959392e+02   0.000000e+00  12146s
  692622    1.0994722e+07   1.898529e+02   0.000000e+00  12155s
  692722    1.0994722e+07   2.715016e+03   0.000000e+00  12159s
  692842    1.0994722e+07   4.474586e+02   0.000000e+00  12163s
  692952    1.0994721e+07   8.939789e+03   0.000000e+00  12167s
  693062    1.0994721e+07   1.120514e+03   0.000000e+00  12171s
  693172    1.0994720e+07   9.245868e+02   0.000000e+00  12176s
  693292    1.0994716e+07   1.216884e+05   0.000000e+00  12180s
  693502    1.0994716e+07   1.206529e+05   0.000000e+00  12188s
  693612    1.0994714e+07   1.765636e+05   0.000000e+00  12192s
  693742    1.0994713e+07   2.546347e+03   0.000000e+00  12197s
  693892    1.0994710e+07   1.381486e+05   0.000000e+00  12203s
  694012    1.0994710e+07   1.418978e+05   0.000000e+00  12207s
  694122    1.0994709e+07   2.844011e+01   0.000000e+00  12211s
  694242    1.0994709e+07   1.355837e+05   0.000000e+00  12216s
  694362    1.0994708e+07   1.414413e+05   0.000000e+00  12220s
  694582    1.0994708e+07   4.746379e+01   0.000000e+00  12228s
  694712    1.0994708e+07   4.788010e+04   0.000000e+00  12233s
  694832    1.0994708e+07   6.046092e+01   0.000000e+00  12237s
  694932    1.0994708e+07   6.415198e+01   0.000000e+00  12240s
  695152    1.0994708e+07   6.210943e+00   0.000000e+00  12248s
  695262    1.0994708e+07   2.427140e+02   0.000000e+00  12251s
  695372    1.0994708e+07   6.133445e+01   0.000000e+00  12255s
  695582    1.0994708e+07   6.630317e+01   0.000000e+00  12263s
  695702    1.0994708e+07   1.201876e+01   0.000000e+00  12267s
  695812    1.0994708e+07   1.241395e+01   0.000000e+00  12271s
  696042    1.0994708e+07   1.699140e+01   0.000000e+00  12279s
  696152    1.0994708e+07   1.001628e+01   0.000000e+00  12283s
  696252    1.0994708e+07   1.020003e+01   0.000000e+00  12286s
  696462    1.0994708e+07   2.086365e+01   0.000000e+00  12293s
  696582    1.0994708e+07   1.208773e+01   0.000000e+00  12297s
  696702    1.0994708e+07   2.854375e+01   0.000000e+00  12301s
  696912    1.0994708e+07   3.183312e+01   0.000000e+00  12309s
  697032    1.0994708e+07   5.983040e+02   0.000000e+00  12313s
  697152    1.0994708e+07   6.743116e+02   0.000000e+00  12316s
  697282    1.0994708e+07   7.764093e+01   0.000000e+00  12321s
  697502    1.0994708e+07   5.150784e+01   0.000000e+00  12328s
  697612    1.0994708e+07   7.997068e+00   0.000000e+00  12332s
  697732    1.0994708e+07   1.905382e+01   0.000000e+00  12336s
  697982    1.0994708e+07   2.853080e+01   0.000000e+00  12344s
  698102    1.0994708e+07   1.463857e+01   0.000000e+00  12348s
  698222    1.0994708e+07   2.660000e+01   0.000000e+00  12352s
  698322    1.0994708e+07   3.225194e+01   0.000000e+00  12356s
  698532    1.0994708e+07   3.078219e+01   0.000000e+00  12363s
  698652    1.0994708e+07   9.117353e+00   0.000000e+00  12367s
  698762    1.0994708e+07   1.433111e+01   0.000000e+00  12370s
  698992    1.0994708e+07   2.366551e+00   0.000000e+00  12379s
  699112    1.0994708e+07   2.003784e+01   0.000000e+00  12383s
  699222    1.0994708e+07   7.411269e+01   0.000000e+00  12387s
  699332    1.0994708e+07   4.465886e+01   0.000000e+00  12391s
  699552    1.0994708e+07   9.808553e+00   0.000000e+00  12399s
  699672    1.0994708e+07   2.387185e+00   0.000000e+00  12403s
  699792    1.0994708e+07   1.705744e+00   0.000000e+00  12408s
  699912    1.0994708e+07   5.491039e+01   0.000000e+00  12412s
  700032    1.0994708e+07   2.107914e+01   0.000000e+00  12416s
  700152    1.0994708e+07   3.204335e+01   0.000000e+00  12421s
  700382    1.0994708e+07   2.070884e+01   0.000000e+00  12429s
  700502    1.0994708e+07   3.635907e+01   0.000000e+00  12433s
  700602    1.0994708e+07   2.425611e+01   0.000000e+00  12436s
  700822    1.0994708e+07   4.903607e+01   0.000000e+00  12443s
  700942    1.0994708e+07   6.856674e+00   0.000000e+00  12447s
  701052    1.0994708e+07   5.132873e+00   0.000000e+00  12451s
  701172    1.0994708e+07   4.772956e+00   0.000000e+00  12455s
  701382    1.0994708e+07   7.233871e+00   0.000000e+00  12463s
  701482    1.0994708e+07   1.569736e+01   0.000000e+00  12466s
  701602    1.0994708e+07   9.890448e+00   0.000000e+00  12470s
  701822    1.0994708e+07   3.645414e+00   0.000000e+00  12477s
  701932    1.0994708e+07   6.245517e+00   0.000000e+00  12481s
  702042    1.0994708e+07   4.416935e+00   0.000000e+00  12485s
  702242    1.0994708e+07   5.663819e+00   0.000000e+00  12492s
  702342    1.0994708e+07   1.362860e+01   0.000000e+00  12496s
  702542    1.0994708e+07   3.514825e+00   0.000000e+00  12503s
  702642    1.0994708e+07   2.562963e+01   0.000000e+00  12506s
  702752    1.0994708e+07   5.805750e+00   0.000000e+00  12510s
  702972    1.0994708e+07   2.152809e+00   0.000000e+00  12518s
  703092    1.0994708e+07   1.987986e+00   0.000000e+00  12522s
  703202    1.0994708e+07   2.382252e+00   0.000000e+00  12526s
  703432    1.0994708e+07   1.566142e+00   0.000000e+00  12534s
  703532    1.0994708e+07   3.068715e+00   0.000000e+00  12537s
  703632    1.0994708e+07   1.479616e+00   0.000000e+00  12541s
  703862    1.0994708e+07   1.430539e+00   0.000000e+00  12549s
  703982    1.0994708e+07   2.117949e+00   0.000000e+00  12553s
  704082    1.0994708e+07   2.823190e+00   0.000000e+00  12556s
  704282    1.0994708e+07   2.533440e+00   0.000000e+00  12563s
  704382    1.0994708e+07   2.060959e+00   0.000000e+00  12566s
  704592    1.0994708e+07   2.120855e+00   0.000000e+00  12573s
  704712    1.0994708e+07   2.290933e+00   0.000000e+00  12578s
  704832    1.0994708e+07   2.881353e+00   0.000000e+00  12582s
  704952    1.0994708e+07   2.206864e+00   0.000000e+00  12586s
  705172    1.0994708e+07   3.926115e+00   0.000000e+00  12593s
  705272    1.0994708e+07   2.080138e+00   0.000000e+00  12597s
  705372    1.0994708e+07   2.280021e+00   0.000000e+00  12600s
  705582    1.0994708e+07   3.411016e+00   0.000000e+00  12608s
  705702    1.0994708e+07   2.131026e+00   0.000000e+00  12612s
  705822    1.0994708e+07   1.061445e+00   0.000000e+00  12616s
  706042    1.0994708e+07   1.759598e+00   0.000000e+00  12623s
  706162    1.0994708e+07   1.070924e+00   0.000000e+00  12627s
  706272    1.0994708e+07   1.606677e+00   0.000000e+00  12631s
  706392    1.0994708e+07   1.422684e+00   0.000000e+00  12635s
  706602    1.0994708e+07   1.096925e+01   0.000000e+00  12642s
  706712    1.0994708e+07   5.332653e+01   0.000000e+00  12646s
  706952    1.0994708e+07   4.114394e+01   0.000000e+00  12654s
  707052    1.0994708e+07   1.123192e+02   0.000000e+00  12658s
  707162    1.0994708e+07   3.563819e+01   0.000000e+00  12661s
  707282    1.0994708e+07   6.768356e+00   0.000000e+00  12665s
  707512    1.0994708e+07   1.332614e+01   0.000000e+00  12673s
  707622    1.0994708e+07   5.085514e+02   0.000000e+00  12677s
  707742    1.0994708e+07   2.226276e+01   0.000000e+00  12681s
  707862    1.0994708e+07   1.808307e+01   0.000000e+00  12685s
  708062    1.0994708e+07   1.270908e+01   0.000000e+00  12692s
  708172    1.0994708e+07   1.248127e+01   0.000000e+00  12696s
  708392    1.0994708e+07   5.082271e+00   0.000000e+00  12703s
  708492    1.0994708e+07   1.409652e+01   0.000000e+00  12707s
  708592    1.0994708e+07   1.429855e+01   0.000000e+00  12711s
  708792    1.0994708e+07   5.065508e+01   0.000000e+00  12717s
  708892    1.0994708e+07   3.808070e+01   0.000000e+00  12721s
  709102    1.0994708e+07   9.625468e+02   0.000000e+00  12728s
  709212    1.0994708e+07   3.034042e+00   0.000000e+00  12732s
  709312    1.0994708e+07   1.387560e+01   0.000000e+00  12735s
  709522    1.0994708e+07   7.203067e+00   0.000000e+00  12742s
  709632    1.0994708e+07   1.671626e+01   0.000000e+00  12746s
  709832    1.0994708e+07   1.006099e+01   0.000000e+00  12753s
  709932    1.0994708e+07   7.516615e+00   0.000000e+00  12757s
  710042    1.0994708e+07   1.073698e+01   0.000000e+00  12760s
  710242    1.0994708e+07   1.640774e+01   0.000000e+00  12767s
  710342    1.0994708e+07   7.407833e+00   0.000000e+00  12770s
  710542    1.0994708e+07   3.719841e+01   0.000000e+00  12777s
  710642    1.0994708e+07   1.958471e+01   0.000000e+00  12781s
  710842    1.0994708e+07   3.275309e+01   0.000000e+00  12788s
  710952    1.0994708e+07   4.663496e+00   0.000000e+00  12791s
  711172    1.0994708e+07   4.457768e+01   0.000000e+00  12799s
  711272    1.0994708e+07   2.982565e+01   0.000000e+00  12802s
  711372    1.0994708e+07   1.490003e+01   0.000000e+00  12806s
  711602    1.0994708e+07   1.897733e+01   0.000000e+00  12814s
  711712    1.0994708e+07   3.961331e+01   0.000000e+00  12818s
  711812    1.0994708e+07   2.443864e+01   0.000000e+00  12821s
  712032    1.0994708e+07   2.838951e+01   0.000000e+00  12828s
  712142    1.0994708e+07   3.896758e+00   0.000000e+00  12832s
  712252    1.0994708e+07   1.245881e+01   0.000000e+00  12836s
  712482    1.0994708e+07   5.184107e+00   0.000000e+00  12844s
  712602    1.0994708e+07   4.989868e+00   0.000000e+00  12848s
  712712    1.0994708e+07   1.074365e+01   0.000000e+00  12851s
  712912    1.0994708e+07   6.561471e+00   0.000000e+00  12858s
  713022    1.0994708e+07   7.139976e+00   0.000000e+00  12862s
  713132    1.0994708e+07   3.486090e+00   0.000000e+00  12865s
  713332    1.0994708e+07   5.632961e+00   0.000000e+00  12872s
  713442    1.0994708e+07   1.083741e+01   0.000000e+00  12876s
  713662    1.0994708e+07   2.532094e+00   0.000000e+00  12883s
  713782    1.0994708e+07   1.217556e+01   0.000000e+00  12887s
  713902    1.0994708e+07   3.518020e+01   0.000000e+00  12892s
  714022    1.0994708e+07   9.953693e+00   0.000000e+00  12896s
  714252    1.0994708e+07   1.077144e+01   0.000000e+00  12903s
  714362    1.0994708e+07   4.957013e+01   0.000000e+00  12907s
  714472    1.0994708e+07   4.437700e+01   0.000000e+00  12911s
  714692    1.0994708e+07   4.018235e+00   0.000000e+00  12918s
  714812    1.0994708e+07   2.867544e+01   0.000000e+00  12922s
  714932    1.0994708e+07   4.102724e+00   0.000000e+00  12926s
  715042    1.0994708e+07   4.128901e+00   0.000000e+00  12930s
  715262    1.0994708e+07   7.309173e+00   0.000000e+00  12938s
  715362    1.0994708e+07   9.613373e+00   0.000000e+00  12941s
  715582    1.0994708e+07   8.465563e+00   0.000000e+00  12948s
  715692    1.0994708e+07   7.635197e+00   0.000000e+00  12952s
  715812    1.0994708e+07   5.110522e+00   0.000000e+00  12956s
  716012    1.0994708e+07   8.618466e+00   0.000000e+00  12963s
  716112    1.0994708e+07   4.065621e+01   0.000000e+00  12967s
  716222    1.0994708e+07   1.233317e+01   0.000000e+00  12970s
  716432    1.0994708e+07   1.093109e+01   0.000000e+00  12977s
  716532    1.0994708e+07   7.494765e+00   0.000000e+00  12981s
  716732    1.0994708e+07   1.090411e+01   0.000000e+00  12988s
  716832    1.0994708e+07   1.397043e+01   0.000000e+00  12991s
  717032    1.0994708e+07   7.314043e+00   0.000000e+00  12998s
  717142    1.0994708e+07   6.102280e+00   0.000000e+00  13002s
  717242    1.0994708e+07   7.502523e+00   0.000000e+00  13005s
  717442    1.0994708e+07   2.507300e+01   0.000000e+00  13012s
  717552    1.0994708e+07   1.816153e+01   0.000000e+00  13016s
  717752    1.0994708e+07   6.671107e+00   0.000000e+00  13023s
  717852    1.0994708e+07   5.964169e+00   0.000000e+00  13026s
  718062    1.0994708e+07   2.592502e+01   0.000000e+00  13033s
  718162    1.0994708e+07   1.402663e+01   0.000000e+00  13037s
  718262    1.0994708e+07   4.366166e+01   0.000000e+00  13040s
  718472    1.0994708e+07   3.109568e+01   0.000000e+00  13047s
  718592    1.0994708e+07   3.567799e+01   0.000000e+00  13051s
  718792    1.0994708e+07   1.667452e+01   0.000000e+00  13058s
  718892    1.0994708e+07   4.730006e+01   0.000000e+00  13062s
  719102    1.0994708e+07   2.082225e+01   0.000000e+00  13069s
  719202    1.0994708e+07   4.364432e+01   0.000000e+00  13072s
  719302    1.0994708e+07   2.469973e+01   0.000000e+00  13076s
  719502    1.0994708e+07   3.816734e+01   0.000000e+00  13083s
  719602    1.0994708e+07   2.766203e+01   0.000000e+00  13086s
  719812    1.0994708e+07   8.182595e+01   0.000000e+00  13093s
  719912    1.0994708e+07   3.151896e+01   0.000000e+00  13097s
  720012    1.0994708e+07   4.103924e+00   0.000000e+00  13100s
  720222    1.0994708e+07   3.517865e+00   0.000000e+00  13108s
  720322    1.0994708e+07   1.230228e+01   0.000000e+00  13111s
  720522    1.0994708e+07   2.710515e+01   0.000000e+00  13118s
  720622    1.0994708e+07   2.908253e+00   0.000000e+00  13121s
  720832    1.0994708e+07   2.400603e+01   0.000000e+00  13128s
  720942    1.0994708e+07   5.279919e+01   0.000000e+00  13132s
  721042    1.0994708e+07   2.119940e+01   0.000000e+00  13135s
  721242    1.0994708e+07   2.267296e+01   0.000000e+00  13142s
  721352    1.0994708e+07   2.737752e+01   0.000000e+00  13146s
  721562    1.0994708e+07   1.171214e+01   0.000000e+00  13153s
  721662    1.0994708e+07   1.754249e+01   0.000000e+00  13156s
  721782    1.0994708e+07   2.492979e+01   0.000000e+00  13160s
  721982    1.0994708e+07   6.970520e+00   0.000000e+00  13167s
  722082    1.0994708e+07   9.943982e+00   0.000000e+00  13171s
  722282    1.0994708e+07   2.168542e+01   0.000000e+00  13177s
  722382    1.0994708e+07   9.656042e+00   0.000000e+00  13181s
  722602    1.0994708e+07   1.885920e+01   0.000000e+00  13188s
  722712    1.0994708e+07   9.714532e+00   0.000000e+00  13192s
  722822    1.0994708e+07   2.084506e+01   0.000000e+00  13195s
  723022    1.0994708e+07   2.852096e+00   0.000000e+00  13202s
  723122    1.0994708e+07   2.570878e+00   0.000000e+00  13205s
  723342    1.0994708e+07   1.713255e+01   0.000000e+00  13213s
  723442    1.0994708e+07   1.432895e+01   0.000000e+00  13216s
  723672    1.0994708e+07   2.227440e+01   0.000000e+00  13224s
  723782    1.0994708e+07   1.366517e+01   0.000000e+00  13227s
  723902    1.0994708e+07   1.378178e+01   0.000000e+00  13232s
  724012    1.0994708e+07   5.351188e+00   0.000000e+00  13235s
  724212    1.0994708e+07   1.151565e+01   0.000000e+00  13242s
  724332    1.0994708e+07   8.765355e+00   0.000000e+00  13246s
  724532    1.0994708e+07   1.081845e+01   0.000000e+00  13253s
  724632    1.0994708e+07   1.477788e+02   0.000000e+00  13256s
  724842    1.0994708e+07   2.312323e+01   0.000000e+00  13263s
  724952    1.0994708e+07   2.111467e+01   0.000000e+00  13267s
  725052    1.0994708e+07   2.592486e+01   0.000000e+00  13270s
  725252    1.0994708e+07   4.626522e+00   0.000000e+00  13277s
  725352    1.0994708e+07   2.227603e+00   0.000000e+00  13281s
  725552    1.0994708e+07   2.796278e+00   0.000000e+00  13287s
  725652    1.0994708e+07   5.060198e+01   0.000000e+00  13291s
  725852    1.0994708e+07   6.744083e+00   0.000000e+00  13298s
  725972    1.0994708e+07   1.150867e+02   0.000000e+00  13302s
  726092    1.0994708e+07   6.326860e+00   0.000000e+00  13306s
  726312    1.0994708e+07   2.700190e+01   0.000000e+00  13313s
  726412    1.0994708e+07   1.699807e+00   0.000000e+00  13316s
  726642    1.0994708e+07   1.548333e+00   0.000000e+00  13324s
  726742    1.0994708e+07   2.095074e+00   0.000000e+00  13327s
  726842    1.0994708e+07   2.110430e+00   0.000000e+00  13331s
  727052    1.0994708e+07   1.024184e+00   0.000000e+00  13338s
  727152    1.0994708e+07   1.777164e+00   0.000000e+00  13341s
  727382    1.0994708e+07   1.447293e+00   0.000000e+00  13349s
  727482    1.0994708e+07   1.824296e+00   0.000000e+00  13352s
  727602    1.0994708e+07   3.927304e+00   0.000000e+00  13356s
  727802    1.0994708e+07   9.912102e-01   0.000000e+00  13363s
  727902    1.0994708e+07   6.909468e-01   0.000000e+00  13367s
  728002    1.0994708e+07   1.271562e+00   0.000000e+00  13370s
  728232    1.0994708e+07   1.000497e+00   0.000000e+00  13378s
  728352    1.0994708e+07   7.190231e-01   0.000000e+00  13382s
  728452    1.0994708e+07   2.027765e+00   0.000000e+00  13386s
  728682    1.0994708e+07   1.053257e+00   0.000000e+00  13394s
  728792    1.0994708e+07   1.280288e+00   0.000000e+00  13398s
  728892    1.0994708e+07   2.981623e+00   0.000000e+00  13401s
  729092    1.0994708e+07   2.630338e+00   0.000000e+00  13408s
  729202    1.0994708e+07   4.136785e+00   0.000000e+00  13412s
  729302    1.0994708e+07   2.792440e+00   0.000000e+00  13415s
  729512    1.0994708e+07   8.060499e-01   0.000000e+00  13422s
  729632    1.0994708e+07   1.429939e+02   0.000000e+00  13426s
  729832    1.0994708e+07   1.517069e+01   0.000000e+00  13433s
  729932    1.0994708e+07   5.983453e+01   0.000000e+00  13436s
  730142    1.0994708e+07   1.290405e+01   0.000000e+00  13443s
  730242    1.0994708e+07   7.533023e+00   0.000000e+00  13446s
  730352    1.0994708e+07   7.199056e+00   0.000000e+00  13450s
  730562    1.0994708e+07   1.254544e+01   0.000000e+00  13457s
  730672    1.0994708e+07   2.200299e+01   0.000000e+00  13461s
  730892    1.0994708e+07   1.392735e+01   0.000000e+00  13468s
  730992    1.0994708e+07   1.925986e+02   0.000000e+00  13472s
  731092    1.0994708e+07   8.756187e+01   0.000000e+00  13475s
  731292    1.0994708e+07   1.138666e+02   0.000000e+00  13482s
  731402    1.0994708e+07   1.097934e+02   0.000000e+00  13486s
  731602    1.0994708e+07   1.176771e+01   0.000000e+00  13493s
  731702    1.0994708e+07   5.401158e+01   0.000000e+00  13497s
  731802    1.0994708e+07   2.513036e+02   0.000000e+00  13500s
  732032    1.0994708e+07   5.868401e+00   0.000000e+00  13508s
  732142    1.0994708e+07   3.551121e+01   0.000000e+00  13512s
  732262    1.0994708e+07   4.143228e+01   0.000000e+00  13516s
  732472    1.0994708e+07   1.924655e+01   0.000000e+00  13523s
  732582    1.0994708e+07   3.868486e+01   0.000000e+00  13527s
  732682    1.0994708e+07   2.926844e+01   0.000000e+00  13530s
  732902    1.0994708e+07   1.274089e+01   0.000000e+00  13538s
  733002    1.0994708e+07   8.441662e+00   0.000000e+00  13542s
  733102    1.0994708e+07   1.618470e+01   0.000000e+00  13545s
  733302    1.0994708e+07   3.177229e+01   0.000000e+00  13552s
  733412    1.0994708e+07   3.640120e+01   0.000000e+00  13556s
  733522    1.0994708e+07   1.006692e+02   0.000000e+00  13560s
  733732    1.0994708e+07   1.934856e+01   0.000000e+00  13567s
  733842    1.0994708e+07   3.310035e+01   0.000000e+00  13571s
  733952    1.0994708e+07   3.017506e+01   0.000000e+00  13575s
  734172    1.0994708e+07   2.448456e+01   0.000000e+00  13583s
  734292    1.0994708e+07   1.477870e+01   0.000000e+00  13587s
  734402    1.0994708e+07   2.926708e+01   0.000000e+00  13591s
  734622    1.0994708e+07   7.511555e-02   0.000000e+00  13599s
  734732    1.0994708e+07   6.237054e+01   0.000000e+00  13602s
  734842    1.0994708e+07   9.301603e+01   0.000000e+00  13606s
  735062    1.0994708e+07   2.383874e+01   0.000000e+00  13614s
  735162    1.0994708e+07   5.801194e+01   0.000000e+00  13617s
  735282    1.0994708e+07   8.883031e+01   0.000000e+00  13622s
  735392    1.0994708e+07   2.009155e+01   0.000000e+00  13625s
  735622    1.0994708e+07   2.049540e+01   0.000000e+00  13634s
  735722    1.0994708e+07   4.779562e+01   0.000000e+00  13637s
  735842    1.0994708e+07   8.490724e+01   0.000000e+00  13641s
  736052    1.0994708e+07   4.571053e+01   0.000000e+00  13649s
  736172    1.0994708e+07   9.386307e+01   0.000000e+00  13653s
  736272    1.0994708e+07   2.308134e+00   0.000000e+00  13656s
  736472    1.0994708e+07   8.907356e+00   0.000000e+00  13663s
  736582    1.0994708e+07   1.010126e+02   0.000000e+00  13667s
  736692    1.0994708e+07   2.512108e+01   0.000000e+00  13671s
  736902    1.0994708e+07   8.316402e+00   0.000000e+00  13678s
  737022    1.0994708e+07   2.232947e+02   0.000000e+00  13683s
  737142    1.0994708e+07   1.131475e+03   0.000000e+00  13687s
  737262    1.0994708e+07   5.043361e+01   0.000000e+00  13691s
  737502    1.0994708e+07   1.678980e+02   0.000000e+00  13699s
  737622    1.0994708e+07   1.828700e+02   0.000000e+00  13703s
  737732    1.0994708e+07   5.768291e+01   0.000000e+00  13707s
  737852    1.0994708e+07   1.163076e+02   0.000000e+00  13711s
  738062    1.0994708e+07   6.465204e+01   0.000000e+00  13718s
  738172    1.0994708e+07   5.155485e+00   0.000000e+00  13722s
  738272    1.0994708e+07   5.894943e+02   0.000000e+00  13725s
  738482    1.0994708e+07   3.410726e+03   0.000000e+00  13733s
  738602    1.0994708e+07   1.154255e+00   0.000000e+00  13737s
  738702    1.0994708e+07   1.375406e+00   0.000000e+00  13740s
  738902    1.0994708e+07   1.334502e+00   0.000000e+00  13748s
  739012    1.0994708e+07   3.309205e+00   0.000000e+00  13751s
  739122    1.0994708e+07   1.607779e+00   0.000000e+00  13755s
  739322    1.0994708e+07   2.586793e+00   0.000000e+00  13763s
  739422    1.0994708e+07   2.648778e+00   0.000000e+00  13766s
  739622    1.0994708e+07   1.333492e+00   0.000000e+00  13773s
  739742    1.0994708e+07   2.045974e+00   0.000000e+00  13777s
  739862    1.0994708e+07   2.875548e+00   0.000000e+00  13782s
  739982    1.0994708e+07   3.314338e+00   0.000000e+00  13786s
  740192    1.0994708e+07   5.523386e+00   0.000000e+00  13793s
  740292    1.0994708e+07   4.679131e+02   0.000000e+00  13796s
  740492    1.0994708e+07   2.505877e+01   0.000000e+00  13803s
  740602    1.0994708e+07   2.557740e+02   0.000000e+00  13807s
  740722    1.0994708e+07   1.209087e+02   0.000000e+00  13811s
  740922    1.0994708e+07   7.541968e+01   0.000000e+00  13818s
  741022    1.0994708e+07   1.486699e+02   0.000000e+00  13821s
  741122    1.0994708e+07   1.013064e+02   0.000000e+00  13825s
  741332    1.0994708e+07   2.523857e+00   0.000000e+00  13832s
  741442    1.0994708e+07   1.358687e+00   0.000000e+00  13836s
  741642    1.0994708e+07   5.699194e+02   0.000000e+00  13843s
  741742    1.0994708e+07   2.008164e+02   0.000000e+00  13847s
  741842    1.0994708e+07   1.104720e+02   0.000000e+00  13850s
  742052    1.0994708e+07   1.335262e+01   0.000000e+00  13858s
  742172    1.0994708e+07   1.573320e+01   0.000000e+00  13862s
  742282    1.0994708e+07   2.141420e+00   0.000000e+00  13866s
  742502    1.0994708e+07   6.350941e+02   0.000000e+00  13873s
  742612    1.0994708e+07   8.024093e+02   0.000000e+00  13877s
  742712    1.0994708e+07   1.291488e+02   0.000000e+00  13881s
  742932    1.0994708e+07   7.106902e+02   0.000000e+00  13888s
  743032    1.0994708e+07   1.178196e+02   0.000000e+00  13892s
  743142    1.0994707e+07   6.941363e+02   0.000000e+00  13896s
  743352    1.0994707e+07   2.257369e+02   0.000000e+00  13903s
  743462    1.0994707e+07   3.058904e+02   0.000000e+00  13907s
  743572    1.0994707e+07   3.128208e+01   0.000000e+00  13911s
  743782    1.0994707e+07   2.040933e+01   0.000000e+00  13918s
  743882    1.0994707e+07   7.327824e+01   0.000000e+00  13921s
  744092    1.0994707e+07   1.249554e+03   0.000000e+00  13929s
  744202    1.0994707e+07   7.785329e+03   0.000000e+00  13933s
  744322    1.0994707e+07   7.547341e+02   0.000000e+00  13937s
  744422    1.0994707e+07   2.308840e+03   0.000000e+00  13940s
  744622    1.0994707e+07   7.711462e+01   0.000000e+00  13947s
  744722    1.0994707e+07   2.768933e+02   0.000000e+00  13951s
  744922    1.0994707e+07   1.707617e+01   0.000000e+00  13958s
  745022    1.0994707e+07   9.477658e+01   0.000000e+00  13962s
  745122    1.0994707e+07   1.477427e+01   0.000000e+00  13966s
  745352    1.0994707e+07   1.596380e+03   0.000000e+00  13974s
  745462    1.0994707e+07   1.011816e+02   0.000000e+00  13978s
  745562    1.0994707e+07   7.909029e+01   0.000000e+00  13981s
  745772    1.0994707e+07   5.027717e+02   0.000000e+00  13988s
  745882    1.0994707e+07   1.067683e+02   0.000000e+00  13992s
  745992    1.0994707e+07   3.467152e+02   0.000000e+00  13996s
  746102    1.0994707e+07   4.493983e+02   0.000000e+00  14000s
  746322    1.0994707e+07   6.250112e+01   0.000000e+00  14008s
  746442    1.0994707e+07   1.865262e+02   0.000000e+00  14012s
  746552    1.0994707e+07   7.726759e+01   0.000000e+00  14016s
  746772    1.0994707e+07   7.233693e+01   0.000000e+00  14024s
  746892    1.0994707e+07   1.197656e+01   0.000000e+00  14028s
  747012    1.0994707e+07   4.243113e+01   0.000000e+00  14032s
  747122    1.0994707e+07   1.965711e+02   0.000000e+00  14036s
  747242    1.0994707e+07   1.709096e+00   0.000000e+00  14040s
  747442    1.0994707e+07   7.774206e+00   0.000000e+00  14047s
  747542    1.0994707e+07   8.022373e+00   0.000000e+00  14051s
  747752    1.0994707e+07   7.530341e+00   0.000000e+00  14058s
  747862    1.0994707e+07   2.327848e+00   0.000000e+00  14062s
  747982    1.0994707e+07   1.092104e+01   0.000000e+00  14066s
  748102    1.0994707e+07   1.420383e+00   0.000000e+00  14070s
  748342    1.0994707e+07   2.434681e+00   0.000000e+00  14079s
  748462    1.0994707e+07   1.035212e+01   0.000000e+00  14083s
  748572    1.0994707e+07   2.583479e+00   0.000000e+00  14087s
  748692    1.0994707e+07   6.499187e+00   0.000000e+00  14091s
  748812    1.0994707e+07   4.079093e+00   0.000000e+00  14096s
  749022    1.0994707e+07   2.175786e+00   0.000000e+00  14103s
  749132    1.0994707e+07   1.316286e+01   0.000000e+00  14107s
  749252    1.0994707e+07   3.918744e+00   0.000000e+00  14111s
  749362    1.0994707e+07   4.130883e+00   0.000000e+00  14115s
  749592    1.0994707e+07   1.143887e+01   0.000000e+00  14123s
  749712    1.0994707e+07   1.536166e+01   0.000000e+00  14127s
  749832    1.0994707e+07   7.303062e+00   0.000000e+00  14132s
  749952    1.0994707e+07   8.269975e+00   0.000000e+00  14136s
  750072    1.0994707e+07   1.543885e+00   0.000000e+00  14140s
  750302    1.0994707e+07   2.058963e+00   0.000000e+00  14148s
  750402    1.0994707e+07   1.391221e+00   0.000000e+00  14152s
  750512    1.0994707e+07   1.061517e+00   0.000000e+00  14156s
  750622    1.0994707e+07   1.465677e+00   0.000000e+00  14160s
  750822    1.0994707e+07   9.824906e-01   0.000000e+00  14167s
  750942    1.0994707e+07   1.039579e+00   0.000000e+00  14172s
  751062    1.0994707e+07   9.133639e-01   0.000000e+00  14176s
  751182    1.0994707e+07   1.113854e+00   0.000000e+00  14180s
  751402    1.0994707e+07   3.974997e-01   0.000000e+00  14188s
  751512    1.0994707e+07   6.307862e-01   0.000000e+00  14192s
  751632    1.0994707e+07   1.066586e+01   0.000000e+00  14197s
  751752    1.0994707e+07   1.243954e+01   0.000000e+00  14201s
  751835    1.0994707e+07   0.000000e+00   0.000000e+00  14204s
  751835    1.0994707e+07   0.000000e+00   0.000000e+00  14205s
Concurrent spin time: 503.68s

Solved with barrier

Root relaxation: objective 1.099471e+07, 751835 iterations, 11915.20 seconds
Total elapsed time = 14720.49s

    Nodes    |    Current Node    |     Objective Bounds      |     Work
 Expl Unexpl |  Obj  Depth IntInf | Incumbent    BestBd   Gap | It/Node Time

     0     0 1.0995e+07    0  527          - 1.0995e+07      -     - 14749s
     0     0          -    0               - 1.0995e+07      -     - 86400s

Cutting planes:
  Implied bound: 10
  Clique: 120
  MIR: 10
  Flow cover: 31
  Zero half: 4

Explored 1 nodes (753652 simplex iterations) in 86400.04 seconds
Thread count was 4 (of 16 available processors)

Solution count 0

Time limit reached
Best objective -, best bound 1.099470689566e+07, gap -
Traceback (most recent call last):
  File "lsfdrp_mathmodel.py", line 605, in <module>
    solve_lsifdp(instance, data)
  File "lsfdrp_mathmodel.py", line 465, in solve_lsifdp
    if var.x > 0.1:
  File "var.pxi", line 76, in gurobipy.Var.__getattr__
  File "var.pxi", line 142, in gurobipy.Var.getAttr
AttributeError: b"Unable to retrieve attribute 'x'"

real	1451m18.292s
user	4933m58.254s
sys	834m28.303s
	Freetype 2.4.12 environment removed
	Python 3.6.0 environment removed
	Gurobi 8.1.0 environment removed
