	Freetype 2.4.12 environment established
		library to render fonts
	Python 3.6.0 environment established
	Gurobi 8.1.0 environment established
Instance LSFRP: LSFDRP_3_3_1_1_fr.p
Instance LSFDP: LSFDRP_3_3_1_1_fd_31.p

*****************************************************************************************************************************
*** Solve LSFDRP_3_3_1_1_fd_31 with Gurobi
***
*** Graph info
*** |S|: 24
*** |S^E|: 0
*** |S^C|: 6
*** |V|: 482
*** |A|: 22408
*** |A^i|: 22261
*** |A^f|: 147
*** |M|: 380
*** |E|: 28

Changed value of parameter TimeLimit to 86400.0
   Prev: 1e+100  Min: 0.0  Max: 1e+100  Default: 1e+100
Changed value of parameter Threads to 4
   Prev: 0  Min: 0  Max: 1024  Default: 0
Optimize a model with 253050 rows, 9102183 columns and 32933900 nonzeros
Variable types: 8564334 continuous, 537849 integer (537849 binary)
Coefficient statistics:
  Matrix range     [1e+00, 5e+03]
  Objective range  [2e+00, 4e+07]
  Bounds range     [1e+00, 1e+00]
  RHS range        [1e+00, 5e+03]
Presolve removed 10951 rows and 1418 columns (presolve time = 8s) ...
Presolve removed 35293 rows and 1990867 columns (presolve time = 11s) ...
Presolve removed 68243 rows and 4471484 columns (presolve time = 15s) ...
Presolve removed 86807 rows and 5436270 columns (presolve time = 20s) ...
Presolve removed 93878 rows and 5746470 columns (presolve time = 25s) ...
Presolve removed 96631 rows and 5821764 columns (presolve time = 33s) ...
Presolve removed 96631 rows and 5829631 columns (presolve time = 35s) ...
Presolve removed 102477 rows and 5848354 columns (presolve time = 44s) ...
Presolve removed 102477 rows and 5848354 columns (presolve time = 45s) ...
Presolve removed 102909 rows and 5848354 columns (presolve time = 50s) ...
Presolve removed 105402 rows and 5874425 columns (presolve time = 55s) ...
Presolve removed 105402 rows and 5874425 columns (presolve time = 62s) ...
Presolve removed 106443 rows and 5875874 columns (presolve time = 68s) ...
Presolve removed 106443 rows and 5875874 columns (presolve time = 70s) ...
Presolve removed 106444 rows and 5875874 columns (presolve time = 80s) ...
Presolve removed 106450 rows and 5876627 columns (presolve time = 85s) ...
Presolve removed 106450 rows and 5876627 columns (presolve time = 90s) ...
Warning: Failed to open log file 'gurobi.log'
Presolve removed 106482 rows and 5876627 columns (presolve time = 103s) ...
Presolve removed 106482 rows and 6076286 columns (presolve time = 2011s) ...
Presolve removed 170177 rows and 8062957 columns (presolve time = 2015s) ...
Presolve removed 175532 rows and 8154332 columns (presolve time = 2021s) ...
Presolve removed 175549 rows and 8154332 columns (presolve time = 2025s) ...
Presolve removed 175577 rows and 8155310 columns (presolve time = 2030s) ...
Presolve removed 175723 rows and 8155456 columns (presolve time = 2035s) ...
Presolve removed 178585 rows and 8187810 columns (presolve time = 2049s) ...
Presolve removed 178623 rows and 8187845 columns (presolve time = 2807s) ...
Presolve removed 178591 rows and 8187813 columns
Presolve time: 2807.39s
Presolved: 74459 rows, 914370 columns, 5843164 nonzeros
Variable types: 574873 continuous, 339497 integer (339434 binary)

Deterministic concurrent LP optimizer: primal simplex, dual simplex, and barrier
Showing barrier log only...

Presolve removed 417 rows and 787 columns
Presolved: 74042 rows, 913583 columns, 5822181 nonzeros

Root barrier log...

Ordering time: 0.00s

Barrier statistics:
 Dense cols : 106
 AA' NZ     : 6.304e+06
 Factor NZ  : 1.420e+08 (roughly 1.5 GBytes of memory)
 Factor Ops : 8.873e+11 (roughly 100 seconds per iteration)
 Threads    : 1

                  Objective                Residual
Iter       Primal          Dual         Primal    Dual     Compl     Time
   0  -3.60092350e+15  3.31204425e+16  1.04e+09 2.29e+06  3.42e+12  2906s
   1  -2.15191636e+15  3.24656957e+16  6.19e+08 1.90e+07  2.06e+12  2961s
   2  -1.29895641e+15  3.10655226e+16  3.74e+08 9.06e+06  1.24e+12  3021s
   3  -6.28513291e+14  2.94531722e+16  1.81e+08 5.65e+06  6.23e+11  3075s
   4  -2.29394580e+14  2.59133292e+16  6.56e+07 2.98e+06  2.38e+11  3136s
   5  -1.03552031e+14  1.67086477e+16  2.93e+07 6.77e+05  1.06e+11  3191s
   6  -2.26338639e+13  8.10848516e+15  6.36e+06 8.98e+04  2.53e+10  3249s
   7  -3.42297885e+12  2.63578557e+15  9.62e+05 2.67e+03  4.44e+09  3307s
   8  -1.22944902e+12  8.26891648e+14  3.46e+05 3.81e-05  1.41e+09  3362s
   9  -2.71774005e+11  1.92594937e+14  7.63e+04 2.15e-05  3.02e+08  3418s
  10  -1.24071463e+11  5.82864706e+13  3.48e+04 3.53e-07  1.19e+08  3475s
  11  -2.49143327e+10  2.12597798e+13  6.93e+03 1.91e-06  2.89e+07  3532s
  12  -1.39782925e+10  1.20984827e+13  3.86e+03 2.86e-06  1.61e+07  3587s
  13  -6.54187138e+09  1.01351503e+13  1.78e+03 2.38e-06  9.92e+06  3643s
  14  -2.73104780e+09  4.95919977e+12  7.18e+02 1.91e-06  4.47e+06  3700s
  15  -1.41838915e+09  3.04897005e+12  3.56e+02 1.37e-06  2.54e+06  3756s
  16  -6.99959533e+08  1.74126351e+12  1.59e+02 1.16e-06  1.34e+06  3812s
  17  -3.54613182e+08  1.02531212e+12  6.78e+01 1.09e-06  7.23e+05  3872s
  18  -2.53135598e+08  7.33192670e+11  4.20e+01 4.68e-07  4.98e+05  3927s
  19  -1.86305832e+08  5.65787359e+11  2.59e+01 3.76e-07  3.69e+05  3986s
  20  -1.50085217e+08  4.64460473e+11  1.84e+01 6.15e-07  2.97e+05  4040s
  21  -1.21039424e+08  3.67697063e+11  1.27e+01 4.03e-07  2.33e+05  4097s
  22  -9.80722371e+07  2.95369101e+11  8.59e+00 3.10e-07  1.84e+05  4152s
  23  -8.90656918e+07  2.57994317e+11  7.14e+00 3.31e-07  1.60e+05  4206s
  24  -7.26651264e+07  1.80690492e+11  4.36e+00 3.60e-07  1.11e+05  4266s
  25  -5.93100633e+07  1.41652358e+11  1.94e+00 3.71e-07  8.33e+04  4322s
  26  -4.82150920e+07  8.52000289e+10  7.94e-01 4.95e-07  4.88e+04  4380s
  27  -4.44428472e+07  4.65240408e+10  4.89e-01 4.29e-07  2.68e+04  4435s
  28  -4.24246818e+07  3.03286862e+10  3.82e-01 4.64e-07  1.76e+04  4490s
  29  -3.92870400e+07  2.02728802e+10  2.48e-01 4.25e-07  1.18e+04  4550s
  30  -3.69710060e+07  1.48860663e+10  1.73e-01 4.17e-07  8.59e+03  4605s
  31  -3.52565867e+07  1.15395236e+10  1.33e-01 3.58e-07  6.65e+03  4660s
  32  -3.28014404e+07  8.42599464e+09  9.20e-02 4.37e-07  4.84e+03  4714s
  33  -2.87612936e+07  3.86676555e+09  5.11e-02 3.66e-07  2.26e+03  4769s
  34  -2.36477439e+07  2.70506970e+09  2.27e-02 3.90e-07  1.54e+03  4825s
  35  -1.89005861e+07  2.18045471e+09  1.68e-02 3.75e-07  1.24e+03  4881s
  36  -1.71217454e+07  1.47838288e+09  1.19e-02 3.88e-07  8.45e+02  4936s
  37  -1.49056650e+07  8.88861785e+08  7.13e-03 4.00e-07  5.10e+02  4993s
  38  -1.23553493e+07  6.42456063e+08  4.94e-03 4.97e-07  3.69e+02  5047s
  39  -9.62663904e+06  3.35194096e+08  3.81e-03 4.09e-07  1.99e+02  5105s
  40  -7.69679976e+06  3.24416244e+08  3.09e-03 4.49e-07  1.89e+02  5160s
  41  -5.22186914e+06  2.57216125e+08  2.41e-03 4.75e-07  1.50e+02  5215s
  42  -2.68793704e+06  1.97442537e+08  1.39e-03 5.05e-07  1.13e+02  5279s
  43  -1.94394863e+06  1.70961385e+08  1.34e-03 5.38e-07  9.78e+01  5336s
  44   2.20917365e+05  1.39885402e+08  8.85e-04 5.40e-07  7.84e+01  5392s
  45   1.70456522e+06  8.51885117e+07  7.06e-04 6.10e-07  4.75e+01  5450s
  46   3.59888883e+06  6.14330948e+07  4.62e-04 5.76e-07  3.29e+01  5508s
  47   4.32262259e+06  5.61429097e+07  3.88e-04 6.63e-07  2.94e+01  5564s
  48   5.43350146e+06  4.49449003e+07  2.79e-04 6.33e-07  2.23e+01  5619s
  49   5.79927376e+06  4.04218152e+07  2.49e-04 6.41e-07  1.96e+01  5675s
  50   6.07196723e+06  3.70439280e+07  2.29e-04 8.37e-07  1.76e+01  5731s
  51   6.61819298e+06  3.34782262e+07  1.96e-04 8.38e-07  1.52e+01  5787s
  52   7.22877772e+06  2.98022390e+07  1.54e-04 1.07e-06  1.28e+01  5842s
  53   7.38030518e+06  2.84917137e+07  1.46e-04 1.51e-06  1.19e+01  5897s
  54   7.83612304e+06  2.61316480e+07  1.23e-04 2.27e-06  1.03e+01  5953s
  55   8.26057076e+06  2.45644106e+07  9.77e-05 7.34e-07  9.17e+00  6013s
  56   8.55299974e+06  2.28927318e+07  8.16e-05 2.12e-06  8.05e+00  6068s
  57   8.78762097e+06  2.07377433e+07  6.93e-05 7.22e-07  6.72e+00  6122s
  58   9.02708352e+06  1.92961933e+07  5.80e-05 7.76e-07  5.77e+00  6178s
  59   9.21686706e+06  1.84887360e+07  5.08e-05 3.69e-06  5.20e+00  6234s
  60   9.47958679e+06  1.75600091e+07  4.26e-05 1.26e-06  4.53e+00  6289s
  61   9.66956496e+06  1.70695359e+07  3.84e-05 8.92e-07  4.15e+00  6345s
  62   9.87410135e+06  1.64023255e+07  3.41e-05 4.76e-06  3.66e+00  6399s
  63   1.01265480e+07  1.61975014e+07  2.93e-05 1.06e-06  3.39e+00  6455s
  64   1.04321884e+07  1.50929351e+07  2.33e-05 1.48e-06  2.61e+00  6509s
  65   1.06809120e+07  1.45862420e+07  1.84e-05 1.10e-06  2.18e+00  6564s
  66   1.11150353e+07  1.36772134e+07  1.01e-05 4.30e-06  1.43e+00  6621s
  67   1.13202673e+07  1.30726883e+07  7.15e-06 1.76e-06  9.74e-01  6676s
  68   1.14231094e+07  1.25433683e+07  5.32e-06 5.45e-06  6.28e-01  6733s
  69   1.14767964e+07  1.24113220e+07  6.66e-06 4.59e-06  5.23e-01  6789s
  70   1.15515140e+07  1.22773234e+07  4.53e-06 4.59e-06  4.04e-01  6845s
  71   1.16032732e+07  1.21637722e+07  2.65e-06 5.06e-06  3.11e-01  6902s
  72   1.16392883e+07  1.19699151e+07  1.54e-06 4.59e-06  1.83e-01  6957s
  73   1.16656115e+07  1.19046625e+07  9.01e-07 4.78e-06  1.32e-01  7012s
  74   1.16803028e+07  1.18111532e+07  5.88e-07 4.59e-06  7.20e-02  7068s
  75   1.16841977e+07  1.17837022e+07  4.61e-07 6.83e-06  5.48e-02  7123s
  76   1.16899209e+07  1.17573794e+07  2.07e-07 3.95e-06  3.70e-02  7179s
  77   1.16927044e+07  1.17295346e+07  1.58e-07 4.59e-06  2.02e-02  7235s
  78   1.16935572e+07  1.17210373e+07  9.54e-08 3.80e-06  1.51e-02  7290s
  79   1.16942840e+07  1.17203196e+07  6.70e-08 4.70e-06  1.42e-02  7344s
  80   1.16949119e+07  1.17071694e+07  3.05e-08 4.59e-06  6.69e-03  7400s
  81   1.16950169e+07  1.17053471e+07  2.50e-08 5.34e-06  5.63e-03  7459s
  82   1.16951363e+07  1.17048838e+07  3.40e-07 5.44e-06  5.31e-03  7520s
  83   1.16951522e+07  1.16979494e+07  3.21e-07 1.65e-03  1.56e-03  7581s
  84   1.16952208e+07  1.16966346e+07  2.42e-07 8.91e-04  7.98e-04  7644s
  85   1.16953388e+07  1.16965599e+07  1.05e-07 9.55e-04  6.76e-04  7706s
  86   1.16954103e+07  1.16954510e+07  3.18e-08 5.03e-04  2.68e-05  7766s
  87   1.16954105e+07  1.16954509e+07  7.15e-06 7.89e-04  2.68e-05  7820s
  88   1.16954101e+07  1.16954510e+07  6.98e-06 9.93e-04  2.55e-05  7874s
  89   1.16954373e+07  1.16954440e+07  1.32e-06 4.89e-04  4.26e-06  7929s
  90   1.16954372e+07  1.16954440e+07  3.28e-06 7.93e-04  4.26e-06  7986s
  91   1.16954349e+07  1.16954440e+07  3.32e-06 9.48e-04  4.26e-06  8041s
  92   1.16954345e+07  1.16954441e+07  7.40e-06 1.10e-03  4.30e-06  8103s
  93   1.16954347e+07  1.16954441e+07  1.38e-05 1.23e-03  4.32e-06  8162s
  94   1.16954351e+07  1.16954442e+07  2.35e-05 1.39e-03  4.34e-06  8216s
  95   1.16954352e+07  1.16954442e+07  2.28e-05 1.39e-03  4.34e-06  8271s
  96   1.16954351e+07  1.16954442e+07  1.72e-05 1.45e-03  4.35e-06  8326s
  97   1.16954353e+07  1.16954442e+07  1.68e-05 1.85e-03  4.36e-06  8380s
  98   1.16954353e+07  1.16954442e+07  1.54e-05 1.68e-03  4.36e-06  8434s
  99   1.16954344e+07  1.16954443e+07  1.53e-05 1.40e-03  4.42e-06  8488s

Barrier performed 99 iterations in 8487.83 seconds
Sub-optimal termination - objective 1.16954103e+07


Root crossover log...

   70901 DPushes remaining with DInf 0.0000000e+00              8488s
     313 DPushes remaining with DInf 0.0000000e+00              8492s
     183 DPushes remaining with DInf 0.0000000e+00              8495s
       0 DPushes remaining with DInf 4.1942085e+12              8500s

    1685 PPushes remaining with PInf 3.6034052e-01              8500s
       0 PPushes remaining with PInf 2.2060448e-04              8500s

  Push phase complete: Pinf 2.2060448e-04, Dinf 8.1837672e+09   8500s


Root simplex log...

Iteration    Objective       Primal Inf.    Dual Inf.      Time
   60022    1.1695444e+07   0.000000e+00   8.183767e+09   8500s
   60958    1.1695445e+07   0.000000e+00   6.514591e+08   8506s
   61622    1.1695458e+07   0.000000e+00   1.735533e+10   8510s
   62671    1.1695477e+07   0.000000e+00   1.230671e+10   8516s
   64043    1.1695806e+07   0.000000e+00   1.433931e+10   8521s
   65447    1.1696006e+07   0.000000e+00   2.912407e+09   8526s
   67059    1.1696405e+07   0.000000e+00   3.539149e+09   8531s
   68665    1.1696856e+07   0.000000e+00   4.156388e+09   8535s
   70319    1.1697112e+07   0.000000e+00   2.822382e+09   8541s
   71756    1.1697222e+07   0.000000e+00   4.409973e+09   8545s
   73256    1.1697301e+07   0.000000e+00   1.172975e+09   8551s
   74763    1.1697528e+07   0.000000e+00   3.018311e+10   8555s
   76519    1.1697780e+07   0.000000e+00   8.701205e+08   8560s
   78105    1.1697880e+07   0.000000e+00   5.267588e+10   8565s
   79703    1.1698002e+07   0.000000e+00   3.850567e+10   8570s
   81377    1.1698054e+07   0.000000e+00   1.879223e+09   8575s
   82937    1.1698086e+07   0.000000e+00   1.088654e+09   8580s
   84497    1.1698111e+07   0.000000e+00   3.817814e+08   8586s
   85745    1.1698126e+07   0.000000e+00   3.108245e+09   8590s
   87149    1.1698149e+07   0.000000e+00   9.786080e+08   8595s
   88714    1.1698171e+07   0.000000e+00   1.737215e+09   8601s
   89962    1.1698203e+07   0.000000e+00   4.747677e+08   8605s
   91366    1.1698247e+07   0.000000e+00   1.036251e+09   8610s
   92614    1.1698257e+07   0.000000e+00   1.010523e+09   8615s
   94174    1.1698288e+07   0.000000e+00   1.901775e+09   8621s
   95578    1.1698301e+07   0.000000e+00   1.322502e+09   8625s
   96982    1.1698312e+07   0.000000e+00   1.013049e+09   8630s
   98542    1.1698327e+07   0.000000e+00   4.370171e+08   8635s
   99946    1.1698355e+07   0.000000e+00   7.248160e+08   8640s
  101350    1.1698373e+07   0.000000e+00   5.624801e+08   8645s
  102913    1.1698411e+07   0.000000e+00   2.983308e+09   8650s
  104317    1.1698423e+07   0.000000e+00   5.254816e+09   8655s
  105877    1.1698440e+07   0.000000e+00   9.428355e+08   8661s
  107281    1.1698479e+07   0.000000e+00   3.991684e+08   8665s
  108841    1.1698506e+07   0.000000e+00   9.374216e+08   8670s
  110245    1.1698538e+07   0.000000e+00   2.269836e+10   8675s
  111805    1.1698557e+07   0.000000e+00   5.382427e+08   8681s
  113209    1.1698569e+07   0.000000e+00   6.869110e+08   8685s
  114769    1.1698597e+07   0.000000e+00   3.004764e+08   8691s
  116173    1.1698611e+07   0.000000e+00   2.080172e+09   8695s
  117733    1.1698631e+07   0.000000e+00   7.137120e+08   8701s
  119142    1.1698646e+07   0.000000e+00   1.131874e+09   8705s
  120702    1.1698653e+07   0.000000e+00   2.485216e+09   8710s
  122106    1.1698656e+07   0.000000e+00   4.219948e+08   8715s
  123666    1.1698667e+07   0.000000e+00   3.596626e+08   8720s
  125070    1.1698668e+07   0.000000e+00   1.632301e+08   8725s
  126474    1.1698677e+07   0.000000e+00   3.088932e+09   8731s
  127566    1.1698701e+07   0.000000e+00   5.318160e+08   8735s
  128814    1.1698718e+07   0.000000e+00   2.729162e+08   8740s
  129906    1.1698765e+07   0.000000e+00   5.079249e+08   8745s
  131154    1.1698781e+07   0.000000e+00   1.899889e+10   8750s
  132402    1.1698813e+07   0.000000e+00   4.160248e+08   8755s
  133806    1.1698840e+07   0.000000e+00   1.411315e+09   8761s
  135054    1.1698851e+07   0.000000e+00   5.085805e+08   8766s
  136302    1.1698879e+07   0.000000e+00   1.286194e+09   8770s
  137550    1.1698891e+07   0.000000e+00   5.199233e+08   8776s
  138798    1.1698916e+07   0.000000e+00   1.172196e+09   8781s
  139890    1.1698929e+07   0.000000e+00   7.436899e+08   8786s
  140982    1.1698967e+07   0.000000e+00   1.596856e+09   8790s
  142386    1.1698983e+07   0.000000e+00   8.063395e+08   8796s
  143634    1.1698995e+07   0.000000e+00   3.647055e+09   8800s
  144726    1.1699002e+07   0.000000e+00   1.942835e+09   8805s
  145974    1.1699017e+07   0.000000e+00   1.793276e+08   8811s
  147066    1.1699046e+07   0.000000e+00   7.698421e+10   8816s
  148002    1.1699089e+07   0.000000e+00   3.789228e+09   8820s
  149094    1.1699101e+07   0.000000e+00   4.937432e+08   8825s
  150342    1.1699115e+07   0.000000e+00   3.236658e+08   8831s
  151590    1.1699127e+07   0.000000e+00   8.616443e+08   8836s
  152838    1.1699157e+07   0.000000e+00   5.031905e+08   8840s
  154242    1.1699195e+07   0.000000e+00   3.016184e+08   8845s
  155490    1.1699199e+07   0.000000e+00   5.308670e+08   8850s
  157050    1.1699266e+07   0.000000e+00   9.765720e+09   8855s
  158142    1.1699292e+07   0.000000e+00   2.176028e+08   8860s
  159546    1.1699337e+07   0.000000e+00   2.439980e+08   8866s
  160794    1.1699369e+07   0.000000e+00   3.354047e+09   8871s
  162042    1.1699392e+07   0.000000e+00   5.571342e+08   8875s
  163290    1.1699418e+07   0.000000e+00   5.041137e+09   8880s
  164538    1.1699460e+07   0.000000e+00   4.993293e+08   8886s
  165630    1.1699485e+07   0.000000e+00   1.390189e+09   8890s
  166878    1.1699533e+07   0.000000e+00   6.101139e+08   8895s
  167970    1.1699548e+07   0.000000e+00   1.151184e+09   8900s
  169374    1.1699562e+07   0.000000e+00   1.531487e+09   8905s
  170778    1.1699598e+07   0.000000e+00   2.098794e+08   8910s
  172026    1.1699602e+07   0.000000e+00   3.625319e+08   8915s
  173274    1.1699604e+07   0.000000e+00   1.152889e+10   8920s
  174678    1.1699619e+07   0.000000e+00   5.308193e+09   8925s
  175926    1.1699635e+07   0.000000e+00   1.347326e+09   8930s
  177174    1.1699666e+07   0.000000e+00   2.540336e+08   8935s
  178578    1.1699698e+07   0.000000e+00   2.619209e+08   8941s
  179826    1.1699725e+07   0.000000e+00   1.899546e+08   8946s
  180918    1.1699736e+07   0.000000e+00   5.955725e+08   8951s
  182166    1.1699749e+07   0.000000e+00   1.829603e+09   8955s
  183414    1.1699754e+07   0.000000e+00   1.324320e+08   8961s
  184506    1.1699765e+07   0.000000e+00   2.283564e+08   8965s
  185910    1.1699780e+07   0.000000e+00   3.492045e+08   8970s
  187158    1.1699781e+07   0.000000e+00   5.643830e+08   8976s
  188250    1.1699820e+07   0.000000e+00   1.439403e+09   8980s
  189342    1.1699856e+07   0.000000e+00   1.058338e+09   8985s
  190590    1.1699865e+07   0.000000e+00   5.787804e+08   8990s
  191838    1.1699870e+07   0.000000e+00   3.287884e+08   8995s
  192930    1.1699875e+07   0.000000e+00   3.142288e+08   9000s
  194178    1.1699877e+07   0.000000e+00   1.009440e+09   9005s
  195270    1.1699903e+07   0.000000e+00   1.474269e+09   9010s
  196362    1.1699918e+07   0.000000e+00   2.011909e+09   9015s
  197610    1.1699923e+07   0.000000e+00   1.537252e+08   9020s
  198702    1.1699932e+07   0.000000e+00   1.310858e+08   9025s
  200106    1.1699943e+07   0.000000e+00   1.898427e+08   9031s
  201198    1.1699967e+07   0.000000e+00   3.473293e+08   9035s
  202446    1.1699984e+07   0.000000e+00   2.620353e+08   9041s
  203538    1.1699988e+07   0.000000e+00   4.860428e+09   9045s
  204630    1.1699998e+07   0.000000e+00   1.976888e+08   9050s
  205722    1.1700002e+07   0.000000e+00   4.534236e+08   9055s
  206970    1.1700008e+07   0.000000e+00   2.542247e+08   9061s
  207906    1.1700021e+07   0.000000e+00   2.008148e+08   9065s
  209154    1.1700037e+07   0.000000e+00   2.390303e+08   9071s
  210246    1.1700043e+07   0.000000e+00   2.947972e+08   9076s
  211182    1.1700050e+07   0.000000e+00   3.570698e+08   9080s
  212742    1.1700109e+07   0.000000e+00   1.005897e+09   9085s
  213990    1.1700183e+07   0.000000e+00   9.693112e+08   9090s
  215238    1.1700224e+07   0.000000e+00   3.344848e+08   9095s
  216486    1.1700230e+07   0.000000e+00   3.382149e+08   9101s
  217578    1.1700232e+07   0.000000e+00   2.173536e+08   9106s
  218514    1.1700234e+07   0.000000e+00   2.101746e+08   9110s
  219606    1.1700256e+07   0.000000e+00   3.558538e+08   9115s
  220854    1.1700263e+07   0.000000e+00   8.934493e+08   9121s
  221946    1.1700266e+07   0.000000e+00   1.421617e+08   9126s
  222882    1.1700295e+07   0.000000e+00   4.346636e+08   9131s
  224130    1.1700318e+07   0.000000e+00   2.403111e+08   9135s
  225066    1.1700322e+07   0.000000e+00   6.298659e+08   9140s
  226158    1.1700330e+07   0.000000e+00   4.013892e+09   9145s
  227250    1.1700340e+07   0.000000e+00   1.456746e+09   9150s
  228342    1.1700344e+07   0.000000e+00   3.539785e+09   9155s
  229590    1.1700358e+07   0.000000e+00   2.384849e+10   9160s
  230682    1.1700361e+07   0.000000e+00   3.052937e+08   9165s
  231930    1.1700366e+07   0.000000e+00   3.653377e+08   9171s
  232866    1.1700368e+07   0.000000e+00   1.697665e+08   9175s
  233958    1.1700372e+07   0.000000e+00   2.575822e+08   9180s
  234894    1.1700372e+07   0.000000e+00   2.001909e+08   9185s
  236142    1.1700375e+07   0.000000e+00   4.030323e+08   9190s
  237234    1.1700377e+07   0.000000e+00   2.691405e+08   9195s
  238326    1.1700379e+07   0.000000e+00   1.226219e+08   9201s
  239418    1.1700381e+07   0.000000e+00   4.430269e+08   9205s
  240354    1.1700381e+07   0.000000e+00   4.465763e+08   9210s
  241446    1.1700382e+07   0.000000e+00   8.735906e+08   9216s
  242538    1.1700387e+07   0.000000e+00   5.189647e+08   9220s
  243630    1.1700389e+07   0.000000e+00   1.500973e+10   9225s
  244722    1.1700390e+07   0.000000e+00   6.695745e+08   9230s
  245814    1.1700390e+07   0.000000e+00   2.019360e+08   9235s
  246906    1.1700391e+07   0.000000e+00   2.151816e+08   9241s
  247998    1.1700539e+07   0.000000e+00   3.317068e+08   9245s
  249090    1.1700545e+07   0.000000e+00   2.278739e+08   9251s
  250182    1.1700562e+07   0.000000e+00   2.243296e+09   9255s
  251274    1.1700564e+07   0.000000e+00   7.769661e+07   9260s
  252522    1.1700570e+07   0.000000e+00   1.758258e+08   9266s
  253458    1.1700589e+07   0.000000e+00   1.279314e+08   9270s
  254706    1.1700608e+07   0.000000e+00   2.890156e+08   9275s
  255954    1.1700609e+07   0.000000e+00   2.057130e+09   9280s
  257046    1.1700611e+07   0.000000e+00   1.020308e+09   9285s
  258294    1.1700613e+07   0.000000e+00   1.539997e+09   9290s
  259386    1.1700615e+07   0.000000e+00   3.468011e+08   9295s
  260634    1.1700627e+07   0.000000e+00   2.458862e+09   9301s
  261726    1.1700631e+07   0.000000e+00   4.136596e+09   9305s
  262974    1.1700633e+07   0.000000e+00   3.711035e+10   9310s
  264222    1.1700644e+07   0.000000e+00   2.731618e+08   9315s
  265314    1.1700645e+07   0.000000e+00   3.396876e+08   9321s
  266406    1.1700646e+07   0.000000e+00   2.230456e+09   9325s
  267654    1.1700659e+07   0.000000e+00   4.653289e+08   9331s
  268746    1.1700661e+07   0.000000e+00   1.734038e+08   9335s
  269994    1.1700662e+07   0.000000e+00   8.047612e+08   9341s
  270930    1.1700663e+07   0.000000e+00   1.997902e+09   9345s
  272022    1.1700667e+07   0.000000e+00   1.061453e+09   9351s
  272958    1.1700668e+07   0.000000e+00   1.357740e+08   9355s
  274050    1.1700669e+07   0.000000e+00   1.881495e+08   9360s
  274986    1.1700669e+07   0.000000e+00   9.207813e+07   9365s
  275922    1.1700677e+07   0.000000e+00   3.572561e+08   9371s
  277014    1.1700678e+07   0.000000e+00   3.302738e+08   9375s
  278262    1.1700680e+07   0.000000e+00   2.398270e+08   9380s
  279510    1.1700692e+07   0.000000e+00   1.400443e+10   9385s
  280602    1.1700699e+07   0.000000e+00   2.703895e+09   9390s
  281694    1.1700723e+07   0.000000e+00   9.394799e+09   9395s
  282942    1.1700743e+07   0.000000e+00   1.046160e+08   9400s
  284034    1.1700744e+07   0.000000e+00   2.242970e+09   9405s
  285126    1.1700745e+07   0.000000e+00   2.115622e+10   9410s
  286062    1.1700746e+07   0.000000e+00   3.243292e+08   9415s
  286998    1.1700748e+07   0.000000e+00   1.876967e+09   9421s
  287934    1.1700749e+07   0.000000e+00   1.722127e+11   9425s
  289026    1.1700751e+07   0.000000e+00   1.142198e+08   9431s
  290118    1.1700752e+07   0.000000e+00   7.515688e+07   9436s
  291054    1.1700760e+07   0.000000e+00   7.045077e+08   9440s
  292302    1.1700763e+07   0.000000e+00   1.031783e+08   9446s
  293394    1.1700765e+07   0.000000e+00   1.556293e+08   9450s
  294486    1.1700766e+07   0.000000e+00   2.074042e+11   9455s
  295578    1.1700768e+07   0.000000e+00   8.457638e+08   9460s
  296670    1.1700772e+07   0.000000e+00   1.370720e+08   9465s
  297918    1.1700774e+07   0.000000e+00   9.185511e+08   9470s
  298854    1.1700775e+07   0.000000e+00   8.771463e+07   9475s
  300258    1.1700784e+07   0.000000e+00   1.053352e+08   9480s
  301506    1.1700792e+07   0.000000e+00   1.620472e+08   9485s
  302754    1.1700797e+07   0.000000e+00   8.614852e+08   9491s
  303690    1.1700798e+07   0.000000e+00   2.711149e+08   9495s
  304782    1.1700799e+07   0.000000e+00   9.406434e+07   9500s
  305874    1.1700801e+07   0.000000e+00   2.719726e+09   9505s
  306966    1.1700802e+07   0.000000e+00   1.481584e+08   9510s
  308058    1.1700805e+07   0.000000e+00   3.459227e+10   9515s
  308994    1.1700812e+07   0.000000e+00   5.161462e+08   9520s
  310242    1.1700814e+07   0.000000e+00   1.461086e+08   9525s
  311178    1.1700814e+07   0.000000e+00   2.327936e+08   9530s
  312426    1.1700816e+07   0.000000e+00   9.626345e+07   9536s
  313362    1.1700816e+07   0.000000e+00   4.591196e+08   9540s
  314610    1.1700828e+07   0.000000e+00   9.784580e+07   9545s
  315702    1.1700829e+07   0.000000e+00   1.722440e+08   9551s
  316638    1.1700831e+07   0.000000e+00   7.697355e+07   9555s
  317730    1.1700837e+07   0.000000e+00   1.047958e+08   9560s
  318822    1.1700838e+07   0.000000e+00   4.420943e+07   9565s
  320070    1.1700841e+07   0.000000e+00   2.119524e+08   9570s
  321162    1.1700850e+07   0.000000e+00   4.515040e+08   9575s
  322410    1.1700853e+07   0.000000e+00   4.816022e+08   9580s
  323502    1.1700854e+07   0.000000e+00   1.341978e+08   9585s
  324594    1.1700865e+07   0.000000e+00   1.699553e+08   9590s
  325374    1.1700866e+07   0.000000e+00   1.753125e+08   9596s
  326310    1.1700867e+07   0.000000e+00   6.931213e+07   9600s
  327402    1.1700867e+07   0.000000e+00   1.240612e+08   9605s
  328338    1.1700867e+07   0.000000e+00   4.645042e+10   9610s
  329274    1.1700868e+07   0.000000e+00   1.221290e+08   9615s
  330366    1.1700872e+07   0.000000e+00   6.296526e+07   9620s
  331614    1.1700875e+07   0.000000e+00   1.277543e+08   9626s
  332706    1.1700879e+07   0.000000e+00   2.469254e+08   9631s
  333642    1.1700881e+07   0.000000e+00   1.088683e+09   9635s
  334578    1.1700881e+07   0.000000e+00   1.341230e+09   9641s
  335514    1.1700882e+07   0.000000e+00   3.971363e+07   9645s
  336450    1.1700882e+07   0.000000e+00   4.939886e+07   9650s
  337698    1.1700884e+07   0.000000e+00   6.770784e+07   9656s
  338634    1.1700884e+07   0.000000e+00   4.639677e+08   9660s
  339726    1.1700886e+07   0.000000e+00   7.226098e+08   9666s
  340662    1.1700887e+07   0.000000e+00   9.932627e+07   9670s
  341754    1.1700892e+07   0.000000e+00   1.025842e+09   9675s
  342690    1.1700894e+07   0.000000e+00   1.929522e+08   9680s
  344118    1.1700897e+07   0.000000e+00   4.993756e+07   9685s
  345366    1.1700899e+07   0.000000e+00   1.222794e+08   9691s
  346302    1.1700904e+07   0.000000e+00   7.590251e+07   9695s
  347394    1.1700904e+07   0.000000e+00   6.010726e+09   9701s
  348330    1.1700905e+07   0.000000e+00   4.225348e+07   9706s
  349422    1.1700906e+07   0.000000e+00   1.052816e+08   9710s
  350514    1.1700906e+07   0.000000e+00   7.053385e+08   9715s
  351606    1.1700907e+07   0.000000e+00   1.312773e+08   9721s
  352698    1.1700913e+07   0.000000e+00   4.624420e+07   9725s
  353790    1.1700913e+07   0.000000e+00   1.174852e+08   9730s
  354882    1.1700914e+07   0.000000e+00   1.718242e+08   9735s
  355974    1.1700914e+07   0.000000e+00   3.495375e+08   9741s
  357066    1.1700916e+07   0.000000e+00   2.153387e+08   9745s
  358158    1.1700916e+07   0.000000e+00   2.975173e+07   9750s
  359250    1.1700922e+07   0.000000e+00   5.407512e+07   9755s
  360186    1.1700923e+07   0.000000e+00   2.553862e+08   9760s
  360966    1.1700923e+07   0.000000e+00   1.156946e+09   9765s
  362214    1.1700925e+07   0.000000e+00   5.609411e+08   9771s
  363150    1.1700925e+07   0.000000e+00   5.237647e+08   9776s
  364242    1.1700928e+07   0.000000e+00   6.667372e+07   9780s
  365334    1.1700929e+07   0.000000e+00   1.553028e+08   9785s
  366604    1.1700940e+07   0.000000e+00   5.144639e+08   9791s
  367384    1.1700941e+07   0.000000e+00   8.402473e+07   9795s
  368476    1.1700941e+07   0.000000e+00   2.754590e+07   9800s
  369412    1.1700942e+07   0.000000e+00   1.071451e+08   9805s
  370504    1.1700943e+07   0.000000e+00   1.546608e+09   9810s
  371440    1.1700943e+07   0.000000e+00   4.769835e+07   9815s
  372376    1.1700944e+07   0.000000e+00   6.187162e+07   9820s
  373312    1.1700944e+07   0.000000e+00   9.414166e+08   9825s
  374092    1.1700945e+07   0.000000e+00   1.611418e+08   9830s
  375028    1.1700946e+07   0.000000e+00   3.131820e+07   9836s
  376120    1.1700947e+07   0.000000e+00   8.357486e+09   9841s
  376900    1.1700949e+07   0.000000e+00   5.629079e+08   9845s
  377680    1.1700950e+07   0.000000e+00   5.738454e+07   9850s
  378772    1.1700950e+07   0.000000e+00   7.288228e+07   9855s
  379864    1.1700951e+07   0.000000e+00   8.762806e+07   9861s
  380800    1.1700953e+07   0.000000e+00   7.433054e+08   9865s
  381892    1.1700953e+07   0.000000e+00   3.457448e+07   9871s
  382828    1.1700955e+07   0.000000e+00   9.694954e+08   9876s
  383764    1.1700957e+07   0.000000e+00   2.078391e+08   9881s
  384544    1.1700960e+07   0.000000e+00   3.304572e+08   9885s
  385480    1.1700961e+07   0.000000e+00   8.229084e+07   9891s
  386416    1.1700961e+07   0.000000e+00   5.280540e+08   9895s
  387352    1.1700962e+07   0.000000e+00   5.779769e+07   9900s
  388288    1.1700962e+07   0.000000e+00   9.765878e+07   9905s
  389380    1.1700963e+07   0.000000e+00   5.963288e+07   9910s
  390316    1.1700969e+07   0.000000e+00   3.766430e+08   9915s
  391408    1.1700970e+07   0.000000e+00   2.349952e+08   9921s
  392344    1.1700971e+07   0.000000e+00   1.486376e+08   9925s
  393280    1.1700972e+07   0.000000e+00   4.375861e+09   9931s
  394372    1.1700973e+07   0.000000e+00   3.221865e+10   9935s
  395308    1.1700975e+07   0.000000e+00   3.778407e+07   9940s
  396244    1.1700977e+07   0.000000e+00   7.723086e+07   9945s
  397336    1.1700978e+07   0.000000e+00   2.521118e+08   9951s
  398116    1.1700978e+07   0.000000e+00   8.360737e+07   9955s
  399208    1.1700979e+07   0.000000e+00   1.023197e+08   9960s
  400300    1.1700980e+07   0.000000e+00   3.911036e+07   9966s
  401236    1.1700982e+07   0.000000e+00   2.943068e+07   9971s
  402172    1.1700982e+07   0.000000e+00   8.334529e+07   9975s
  403108    1.1700982e+07   0.000000e+00   2.379882e+07   9980s
  404200    1.1700983e+07   0.000000e+00   9.361458e+07   9986s
  405334    1.1700983e+07   0.000000e+00   2.527024e+09   9990s
  406426    1.1700983e+07   0.000000e+00   1.209633e+08   9995s
  407518    1.1700984e+07   0.000000e+00   4.183571e+07  10001s
  408454    1.1700984e+07   0.000000e+00   1.273541e+08  10005s
  409390    1.1700984e+07   0.000000e+00   4.688076e+07  10010s
  410482    1.1700987e+07   0.000000e+00   9.819099e+07  10016s
  411574    1.1700987e+07   0.000000e+00   4.665167e+07  10021s
  412354    1.1700989e+07   0.000000e+00   1.103848e+08  10025s
  413446    1.1700989e+07   0.000000e+00   1.022082e+08  10031s
  414382    1.1700990e+07   0.000000e+00   3.671715e+07  10035s
  415474    1.1700990e+07   0.000000e+00   1.876022e+07  10040s
  416410    1.1700991e+07   0.000000e+00   3.748316e+07  10045s
  417502    1.1700991e+07   0.000000e+00   9.102121e+07  10050s
  418438    1.1700991e+07   0.000000e+00   4.484136e+07  10055s
  419530    1.1700991e+07   0.000000e+00   1.669410e+07  10061s
  420475    1.1700992e+07   0.000000e+00   3.209019e+07  10065s
  421567    1.1700992e+07   0.000000e+00   1.407597e+08  10070s
  422503    1.1700992e+07   0.000000e+00   1.261901e+08  10075s
  423595    1.1700992e+07   0.000000e+00   5.021132e+07  10080s
  424531    1.1700993e+07   0.000000e+00   1.060468e+08  10085s
  425467    1.1700993e+07   0.000000e+00   2.004245e+08  10090s
  426565    1.1700993e+07   0.000000e+00   3.870549e+07  10096s
  427501    1.1700993e+07   0.000000e+00   8.176034e+07  10100s
  428437    1.1700993e+07   0.000000e+00   3.051038e+07  10105s
  429529    1.1700993e+07   0.000000e+00   2.841110e+07  10110s
  430465    1.1700994e+07   0.000000e+00   1.696687e+07  10115s
  431557    1.1700996e+07   0.000000e+00   1.612511e+08  10121s
  432337    1.1700996e+07   0.000000e+00   2.081322e+08  10125s
  433429    1.1700996e+07   0.000000e+00   1.367316e+07  10131s
  434365    1.1700996e+07   0.000000e+00   5.417282e+07  10136s
  435301    1.1700997e+07   0.000000e+00   1.569056e+08  10140s
  436237    1.1700997e+07   0.000000e+00   3.805544e+07  10145s
  437173    1.1700997e+07   0.000000e+00   1.427940e+07  10150s
  438109    1.1700997e+07   0.000000e+00   2.482491e+07  10156s
  438889    1.1700998e+07   0.000000e+00   3.905104e+07  10161s
  439669    1.1700998e+07   0.000000e+00   7.327915e+07  10165s
  440605    1.1700998e+07   0.000000e+00   1.014621e+08  10170s
  441541    1.1700998e+07   0.000000e+00   4.571120e+07  10175s
  442321    1.1700998e+07   0.000000e+00   4.957588e+07  10180s
  443101    1.1700998e+07   0.000000e+00   3.999372e+07  10185s
  444193    1.1700999e+07   0.000000e+00   5.476694e+09  10191s
  444973    1.1700999e+07   0.000000e+00   1.837357e+07  10195s
  445909    1.1700999e+07   0.000000e+00   1.605323e+08  10200s
  446845    1.1701000e+07   0.000000e+00   4.397698e+07  10205s
  447781    1.1701000e+07   0.000000e+00   6.336513e+07  10211s
  448561    1.1701000e+07   0.000000e+00   2.419262e+07  10215s
  449497    1.1701000e+07   0.000000e+00   2.695298e+07  10220s
  450589    1.1701000e+07   0.000000e+00   2.140967e+07  10226s
  451369    1.1701000e+07   0.000000e+00   3.234976e+07  10230s
  452305    1.1701000e+07   0.000000e+00   2.107168e+07  10235s
  453241    1.1701000e+07   0.000000e+00   1.956529e+07  10240s
  454177    1.1701000e+07   0.000000e+00   3.007227e+07  10245s
  455113    1.1701001e+07   0.000000e+00   1.396160e+07  10250s
  456049    1.1701001e+07   0.000000e+00   2.633341e+07  10255s
  457141    1.1701001e+07   0.000000e+00   3.120557e+08  10261s
  458077    1.1701002e+07   0.000000e+00   1.833052e+07  10266s
  459013    1.1701002e+07   0.000000e+00   4.296570e+07  10271s
  459949    1.1701002e+07   0.000000e+00   2.351984e+07  10275s
  460885    1.1701003e+07   0.000000e+00   4.335843e+07  10281s
  461665    1.1701003e+07   0.000000e+00   3.470637e+07  10285s
  462757    1.1701003e+07   0.000000e+00   2.211913e+07  10290s
  463693    1.1701003e+07   0.000000e+00   5.877977e+07  10295s
  464785    1.1701003e+07   0.000000e+00   1.010775e+07  10301s
  465721    1.1701003e+07   0.000000e+00   3.282406e+07  10305s
  466657    1.1701003e+07   0.000000e+00   3.948248e+07  10310s
  467749    1.1701004e+07   0.000000e+00   1.931721e+07  10315s
  468686    1.1701005e+07   0.000000e+00   4.144243e+07  10321s
  469622    1.1701005e+07   0.000000e+00   9.101081e+07  10325s
  470714    1.1701005e+07   0.000000e+00   9.288162e+06  10331s
  471494    1.1701005e+07   0.000000e+00   1.280818e+07  10335s
  472586    1.1701005e+07   0.000000e+00   2.608792e+07  10340s
  473366    1.1701005e+07   0.000000e+00   2.748751e+07  10345s
  474146    1.1701009e+07   0.000000e+00   1.975515e+08  10350s
  475238    1.1701010e+07   0.000000e+00   9.772710e+07  10355s
  476174    1.1701010e+07   0.000000e+00   9.960851e+06  10360s
  477266    1.1701010e+07   0.000000e+00   3.065416e+07  10366s
  478202    1.1701010e+07   0.000000e+00   1.898384e+07  10370s
  479294    1.1701010e+07   0.000000e+00   7.514070e+06  10376s
  480230    1.1701010e+07   0.000000e+00   3.053451e+07  10380s
  481166    1.1701010e+07   0.000000e+00   1.111202e+07  10386s
  482102    1.1701010e+07   0.000000e+00   1.646934e+07  10390s
  483194    1.1701010e+07   0.000000e+00   7.655199e+08  10396s
  484130    1.1701011e+07   0.000000e+00   2.016002e+07  10400s
  485066    1.1701011e+07   0.000000e+00   1.465055e+07  10405s
  486002    1.1701011e+07   0.000000e+00   2.712114e+07  10410s
  486938    1.1701011e+07   0.000000e+00   2.764741e+08  10416s
  487718    1.1701011e+07   0.000000e+00   1.312165e+07  10420s
  488654    1.1701011e+07   0.000000e+00   1.227029e+07  10425s
  489590    1.1701013e+07   0.000000e+00   2.155089e+07  10430s
  490682    1.1701013e+07   0.000000e+00   1.211498e+07  10436s
  491618    1.1701013e+07   0.000000e+00   8.153917e+07  10440s
  492554    1.1701013e+07   0.000000e+00   1.892271e+07  10445s
  493490    1.1701013e+07   0.000000e+00   1.719157e+07  10450s
  494426    1.1701013e+07   0.000000e+00   2.998179e+07  10455s
  495362    1.1701013e+07   0.000000e+00   2.150316e+07  10460s
  496298    1.1701013e+07   0.000000e+00   7.924632e+06  10465s
  497234    1.1701013e+07   0.000000e+00   1.314030e+08  10470s
  498170    1.1701013e+07   0.000000e+00   5.601072e+06  10476s
  498950    1.1701013e+07   0.000000e+00   6.627750e+06  10480s
  499886    1.1701014e+07   0.000000e+00   8.891554e+06  10485s
  500822    1.1701014e+07   0.000000e+00   9.964747e+06  10491s
  501758    1.1701014e+07   0.000000e+00   2.299893e+07  10495s
  502694    1.1701014e+07   0.000000e+00   7.307399e+06  10500s
  503630    1.1701014e+07   0.000000e+00   7.547593e+06  10506s
  504566    1.1701014e+07   0.000000e+00   8.238079e+06  10510s
  505346    1.1701014e+07   0.000000e+00   1.122464e+07  10515s
  506282    1.1701014e+07   0.000000e+00   8.546739e+06  10521s
  507062    1.1701014e+07   0.000000e+00   2.484792e+07  10526s
  507998    1.1701014e+07   0.000000e+00   9.753751e+06  10530s
  508934    1.1701014e+07   0.000000e+00   4.376047e+07  10535s
  509870    1.1701014e+07   0.000000e+00   6.097191e+06  10540s
  510806    1.1701014e+07   0.000000e+00   7.638970e+06  10545s
  511742    1.1701014e+07   0.000000e+00   1.045495e+07  10551s
  512678    1.1701014e+07   0.000000e+00   4.480150e+06  10556s
  513458    1.1701014e+07   0.000000e+00   9.886500e+06  10560s
  514550    1.1701014e+07   0.000000e+00   9.903465e+06  10566s
  515330    1.1701014e+07   0.000000e+00   2.087788e+08  10570s
  516422    1.1701014e+07   0.000000e+00   8.655573e+06  10576s
  517358    1.1701014e+07   0.000000e+00   1.020211e+07  10580s
  518450    1.1701015e+07   0.000000e+00   2.606721e+07  10586s
  519230    1.1701015e+07   0.000000e+00   1.802864e+07  10590s
  520322    1.1701015e+07   0.000000e+00   3.566378e+06  10595s
  521258    1.1701015e+07   0.000000e+00   1.002556e+07  10600s
  522194    1.1701015e+07   0.000000e+00   5.562110e+06  10605s
  523286    1.1701015e+07   0.000000e+00   6.806509e+06  10611s
  524222    1.1701015e+07   0.000000e+00   3.337980e+07  10616s
  525002    1.1701015e+07   0.000000e+00   2.754357e+07  10620s
  525938    1.1701015e+07   0.000000e+00   9.013573e+06  10625s
  526874    1.1701016e+07   0.000000e+00   1.094733e+07  10630s
  527654    1.1701016e+07   0.000000e+00   1.469275e+07  10635s
  528434    1.1701016e+07   0.000000e+00   6.502389e+06  10640s
  529214    1.1701016e+07   0.000000e+00   6.194702e+06  10645s
  529994    1.1701016e+07   0.000000e+00   3.376554e+06  10650s
  531086    1.1701016e+07   0.000000e+00   2.494200e+07  10656s
  532022    1.1701016e+07   0.000000e+00   6.737869e+06  10660s
  532958    1.1701016e+07   0.000000e+00   5.203344e+06  10665s
  533738    1.1701016e+07   0.000000e+00   5.486757e+07  10670s
  534518    1.1701016e+07   0.000000e+00   6.483473e+06  10675s
  535298    1.1701016e+07   0.000000e+00   7.913998e+06  10680s
  536234    1.1701016e+07   0.000000e+00   1.002924e+07  10686s
  537170    1.1701016e+07   0.000000e+00   3.997790e+06  10691s
  538106    1.1701016e+07   0.000000e+00   2.616622e+06  10696s
  538886    1.1701016e+07   0.000000e+00   1.120977e+07  10700s
  539822    1.1701016e+07   0.000000e+00   3.337100e+06  10706s
  540602    1.1701016e+07   0.000000e+00   2.751083e+06  10710s
  541382    1.1701016e+07   0.000000e+00   4.607595e+06  10715s
  542162    1.1701016e+07   0.000000e+00   4.431174e+06  10720s
  543098    1.1701016e+07   0.000000e+00   2.524437e+07  10726s
  543878    1.1701016e+07   0.000000e+00   5.072241e+06  10731s
  544658    1.1701016e+07   0.000000e+00   3.690908e+06  10736s
  545438    1.1701017e+07   0.000000e+00   2.606801e+06  10740s
  546218    1.1701017e+07   0.000000e+00   3.494205e+06  10745s
  546998    1.1701017e+07   0.000000e+00   4.935997e+06  10751s
  547778    1.1701017e+07   0.000000e+00   6.243076e+06  10756s
  548402    1.1701017e+07   0.000000e+00   2.229015e+06  10760s
  549338    1.1701017e+07   0.000000e+00   3.778631e+06  10766s
  550118    1.1701017e+07   0.000000e+00   5.119452e+06  10770s
  551054    1.1701017e+07   0.000000e+00   1.126968e+06  10776s
  551834    1.1701017e+07   0.000000e+00   1.620298e+06  10780s
  552770    1.1701017e+07   0.000000e+00   1.954115e+07  10786s
  553394    1.1701017e+07   0.000000e+00   2.308290e+06  10791s
  554174    1.1701017e+07   0.000000e+00   4.641269e+06  10796s
  555110    1.1701017e+07   0.000000e+00   1.712423e+06  10801s
  555890    1.1701017e+07   0.000000e+00   4.602708e+06  10805s
  556826    1.1701017e+07   0.000000e+00   4.241129e+06  10810s
  557606    1.1701017e+07   0.000000e+00   4.555365e+06  10815s
  558542    1.1701017e+07   0.000000e+00   5.839567e+06  10820s
  559478    1.1701017e+07   0.000000e+00   3.141146e+06  10825s
  560414    1.1701017e+07   0.000000e+00   3.430302e+06  10830s
  561350    1.1701017e+07   0.000000e+00   2.126180e+06  10835s
  562130    1.1701017e+07   0.000000e+00   1.470499e+06  10840s
  562910    1.1701017e+07   0.000000e+00   3.413975e+06  10845s
  563690    1.1701017e+07   0.000000e+00   8.829987e+05  10850s
  564626    1.1701017e+07   0.000000e+00   2.172361e+06  10856s
  565406    1.1701017e+07   0.000000e+00   3.389176e+06  10860s
  566186    1.1701017e+07   0.000000e+00   9.646408e+05  10865s
  566966    1.1701017e+07   0.000000e+00   2.930603e+06  10870s
  567746    1.1701017e+07   0.000000e+00   2.658468e+06  10875s
  568526    1.1701017e+07   0.000000e+00   2.758767e+06  10880s
  569306    1.1701017e+07   0.000000e+00   1.898224e+06  10885s
  570086    1.1701017e+07   0.000000e+00   1.305729e+06  10890s
  570866    1.1701017e+07   0.000000e+00   7.552559e+05  10895s
  571646    1.1701017e+07   0.000000e+00   1.776921e+06  10900s
  572426    1.1701017e+07   0.000000e+00   7.833203e+05  10905s
  573362    1.1701017e+07   0.000000e+00   9.048145e+05  10911s
  574142    1.1701017e+07   0.000000e+00   6.181137e+05  10916s
  574922    1.1701017e+07   0.000000e+00   3.671846e+06  10921s
  575702    1.1701017e+07   0.000000e+00   4.508922e+05  10926s
  576482    1.1701017e+07   0.000000e+00   1.089058e+06  10931s
  576828    1.1701017e+07   0.000000e+00   1.400257e+06  10937s
  577028    1.1701017e+07   0.000000e+00   1.795372e+06  10942s
  577228    1.1701017e+07   0.000000e+00   1.257951e+06  10947s
  577338    1.1701017e+07   0.000000e+00   1.357894e+06  10950s
  577548    1.1701017e+07   0.000000e+00   9.902360e+05  10956s
  577738    1.1701017e+07   0.000000e+00   1.026594e+06  10961s
  578028    1.1701017e+07   0.000000e+00   9.526996e+05  10968s
  578228    1.1701017e+07   0.000000e+00   3.498048e+06  10973s
  578438    1.1701017e+07   0.000000e+00   3.860127e+05  10978s
  578548    1.1701017e+07   0.000000e+00   9.567101e+05  10981s
  578758    1.1701017e+07   0.000000e+00   6.588396e+05  10987s
  578938    1.1701017e+07   0.000000e+00   8.191317e+05  10992s
  579118    1.1701017e+07   0.000000e+00   1.498088e+06  10997s
  579318    1.1701017e+07   0.000000e+00   4.078632e+05  11001s
  579518    1.1701017e+07   0.000000e+00   6.619485e+05  11006s
  579718    1.1701017e+07   0.000000e+00   8.488556e+05  11011s
  579918    1.1701017e+07   0.000000e+00   1.237888e+06  11016s
  580118    1.1701017e+07   0.000000e+00   9.036516e+05  11020s
  580318    1.1701017e+07   0.000000e+00   7.341838e+06  11026s
  580518    1.1701017e+07   0.000000e+00   1.943886e+06  11032s
  580708    1.1701017e+07   0.000000e+00   3.833411e+05  11038s
  580808    1.1701017e+07   0.000000e+00   6.581350e+05  11041s
  581018    1.1701017e+07   0.000000e+00   1.499988e+06  11046s
  581238    1.1701017e+07   0.000000e+00   5.195503e+05  11052s
  581448    1.1701017e+07   0.000000e+00   5.345514e+05  11057s
  581648    1.1701017e+07   0.000000e+00   2.728139e+05  11062s
  581758    1.1701017e+07   0.000000e+00   6.865629e+05  11065s
  581978    1.1701017e+07   0.000000e+00   9.579138e+05  11071s
  582188    1.1701017e+07   0.000000e+00   6.065635e+05  11076s
  582378    1.1701017e+07   0.000000e+00   5.482379e+05  11081s
  582568    1.1701017e+07   0.000000e+00   8.773537e+06  11085s
  582768    1.1701017e+07   0.000000e+00   8.349472e+05  11091s
  583058    1.1701017e+07   0.000000e+00   1.624111e+06  11099s
  583158    1.1701017e+07   0.000000e+00   4.387164e+05  11101s
  583348    1.1701017e+07   0.000000e+00   8.713150e+05  11107s
  583528    1.1701017e+07   0.000000e+00   2.245004e+06  11112s
  583718    1.1701017e+07   0.000000e+00   5.256843e+05  11117s
  583818    1.1701017e+07   0.000000e+00   5.715437e+05  11120s
  584028    1.1701017e+07   0.000000e+00   1.534627e+06  11125s
  584438    1.1701017e+07   0.000000e+00   3.287890e+05  11135s
  584638    1.1701017e+07   0.000000e+00   5.029357e+05  11141s
  584828    1.1701017e+07   0.000000e+00   7.653012e+05  11147s
  584928    1.1701017e+07   0.000000e+00   7.857879e+06  11150s
  585128    1.1701017e+07   0.000000e+00   1.315328e+06  11156s
  585328    1.1701017e+07   0.000000e+00   2.586542e+06  11162s
  585518    1.1701017e+07   0.000000e+00   8.952586e+05  11168s
  585618    1.1701017e+07   0.000000e+00   6.720127e+05  11171s
  585798    1.1701017e+07   0.000000e+00   8.245121e+05  11176s
  585958    1.1701017e+07   0.000000e+00   1.402294e+06  11181s
  586148    1.1701017e+07   0.000000e+00   2.695638e+05  11187s
  586248    1.1701017e+07   0.000000e+00   6.553331e+05  11190s
  586428    1.1701017e+07   0.000000e+00   2.055221e+05  11196s
  586618    1.1701017e+07   0.000000e+00   3.435342e+05  11202s
  586718    1.1701017e+07   0.000000e+00   2.851990e+05  11205s
  586918    1.1701017e+07   0.000000e+00   3.477406e+05  11212s
  587098    1.1701017e+07   0.000000e+00   3.894006e+05  11217s
  587278    1.1701017e+07   0.000000e+00   8.560074e+05  11223s
  587458    1.1701017e+07   0.000000e+00   4.085694e+05  11229s
  587558    1.1701017e+07   0.000000e+00   1.358657e+06  11232s
  587758    1.1701017e+07   0.000000e+00   1.250865e+06  11238s
  587858    1.1701017e+07   0.000000e+00   3.469370e+06  11241s
  588058    1.1701017e+07   0.000000e+00   6.005088e+05  11247s
  588158    1.1701017e+07   0.000000e+00   3.568210e+05  11250s
  588448    1.1701017e+07   0.000000e+00   1.351057e+06  11259s
  588558    1.1701017e+07   0.000000e+00   5.169155e+05  11262s
  588748    1.1701017e+07   0.000000e+00   9.324756e+05  11267s
  588938    1.1701017e+07   0.000000e+00   9.430260e+05  11272s
  589128    1.1701017e+07   0.000000e+00   7.684174e+05  11278s
  589318    1.1701017e+07   0.000000e+00   5.224580e+05  11284s
  589418    1.1701017e+07   0.000000e+00   2.792040e+05  11287s
  589598    1.1701017e+07   0.000000e+00   2.579622e+05  11292s
  589798    1.1701017e+07   0.000000e+00   2.240915e+05  11297s
  590008    1.1701017e+07   0.000000e+00   4.381605e+05  11302s
  590198    1.1701017e+07   0.000000e+00   2.168414e+05  11307s
  590298    1.1701017e+07   0.000000e+00   3.165736e+05  11311s
  590508    1.1701017e+07   0.000000e+00   1.003979e+06  11317s
  590698    1.1701017e+07   0.000000e+00   6.118690e+06  11322s
  590978    1.1701017e+07   0.000000e+00   3.964377e+05  11330s
  591258    1.1701017e+07   0.000000e+00   4.691479e+05  11339s
  591438    1.1701017e+07   0.000000e+00   1.414986e+06  11345s
  591538    1.1701017e+07   0.000000e+00   6.279908e+05  11348s
  591638    1.1701017e+07   0.000000e+00   2.132099e+05  11350s
  591848    1.1701017e+07   0.000000e+00   1.240410e+06  11356s
  592048    1.1701017e+07   0.000000e+00   5.375987e+05  11361s
  592268    1.1701017e+07   0.000000e+00   6.820323e+05  11367s
  592478    1.1701017e+07   0.000000e+00   2.156658e+05  11372s
  592768    1.1701017e+07   0.000000e+00   5.850413e+05  11379s
  592958    1.1701017e+07   0.000000e+00   7.118926e+05  11386s
  593158    1.1701017e+07   0.000000e+00   9.909145e+05  11392s
  593258    1.1701017e+07   0.000000e+00   2.734727e+05  11396s
  593468    1.1701017e+07   0.000000e+00   2.399276e+05  11403s
  593568    1.1701017e+07   0.000000e+00   4.337938e+05  11406s
  593778    1.1701017e+07   0.000000e+00   3.423952e+05  11413s
  593888    1.1701017e+07   0.000000e+00   3.023481e+05  11415s
  594178    1.1701017e+07   0.000000e+00   3.561799e+05  11422s
  594358    1.1701017e+07   0.000000e+00   2.301428e+05  11427s
  594548    1.1701017e+07   0.000000e+00   2.795656e+05  11432s
  594728    1.1701017e+07   0.000000e+00   3.326652e+05  11437s
  594918    1.1701017e+07   0.000000e+00   7.473178e+05  11442s
  595128    1.1701017e+07   0.000000e+00   7.323975e+05  11448s
  595318    1.1701017e+07   0.000000e+00   6.939843e+06  11453s
  595508    1.1701017e+07   0.000000e+00   2.505731e+05  11459s
  595608    1.1701017e+07   0.000000e+00   6.517244e+05  11462s
  595898    1.1701017e+07   0.000000e+00   1.108319e+06  11470s
  596088    1.1701017e+07   0.000000e+00   1.259088e+06  11475s
  596278    1.1701017e+07   0.000000e+00   4.653853e+05  11480s
  596488    1.1701017e+07   0.000000e+00   3.834814e+05  11486s
  596698    1.1701017e+07   0.000000e+00   4.130760e+05  11492s
  596808    1.1701017e+07   0.000000e+00   1.168975e+05  11495s
  597028    1.1701017e+07   0.000000e+00   1.446035e+05  11502s
  597138    1.1701017e+07   0.000000e+00   1.236354e+05  11505s
  597348    1.1701017e+07   0.000000e+00   2.623282e+05  11512s
  597648    1.1701017e+07   0.000000e+00   1.795430e+05  11520s
  597748    1.1701017e+07   0.000000e+00   3.808031e+05  11523s
  597848    1.1701017e+07   0.000000e+00   2.962681e+05  11526s
  598048    1.1701017e+07   0.000000e+00   2.970505e+05  11532s
  598258    1.1701017e+07   0.000000e+00   2.178218e+08  11537s
  598358    1.1701017e+07   0.000000e+00   2.279051e+05  11540s
  598558    1.1701017e+07   0.000000e+00   2.809719e+05  11546s
  598738    1.1701017e+07   0.000000e+00   1.397565e+05  11551s
  598918    1.1701017e+07   0.000000e+00   5.071939e+06  11555s
  599128    1.1701017e+07   0.000000e+00   1.685865e+06  11560s
  599438    1.1701017e+07   0.000000e+00   4.183181e+05  11568s
  599548    1.1701017e+07   0.000000e+00   6.211909e+04  11571s
  599768    1.1701017e+07   0.000000e+00   7.691020e+05  11578s
  599878    1.1701017e+07   0.000000e+00   1.773416e+05  11582s
  599988    1.1701017e+07   0.000000e+00   4.386901e+05  11586s
  600208    1.1701017e+07   0.000000e+00   1.740853e+05  11592s
  600428    1.1701017e+07   0.000000e+00   4.897289e+05  11597s
  600528    1.1701017e+07   0.000000e+00   7.708864e+05  11601s
  600728    1.1701017e+07   0.000000e+00   1.758371e+05  11608s
  600828    1.1701017e+07   0.000000e+00   3.670209e+05  11610s
  601048    1.1701017e+07   0.000000e+00   1.269154e+05  11616s
  601268    1.1701017e+07   0.000000e+00   3.878223e+05  11621s
  601548    1.1701017e+07   0.000000e+00   7.279368e+05  11629s
  601648    1.1701017e+07   0.000000e+00   1.156628e+05  11633s
  601838    1.1701017e+07   0.000000e+00   2.672028e+05  11639s
  602028    1.1701017e+07   0.000000e+00   7.107901e+05  11646s
  602228    1.1701017e+07   0.000000e+00   2.469895e+05  11652s
  602428    1.1701017e+07   0.000000e+00   2.805311e+06  11657s
  602628    1.1701018e+07   0.000000e+00   1.962969e+06  11661s
  602818    1.1701018e+07   0.000000e+00   1.570733e+05  11665s
  603008    1.1701018e+07   0.000000e+00   2.426860e+06  11672s
  603108    1.1701018e+07   0.000000e+00   3.667527e+05  11675s
  603308    1.1701018e+07   0.000000e+00   1.069653e+05  11682s
  603408    1.1701018e+07   0.000000e+00   4.623458e+05  11686s
  603618    1.1701018e+07   0.000000e+00   1.475199e+05  11693s
  603718    1.1701018e+07   0.000000e+00   3.046352e+05  11696s
  603918    1.1701018e+07   0.000000e+00   2.451706e+05  11700s
  604208    1.1701018e+07   0.000000e+00   3.615353e+05  11707s
  604408    1.1701018e+07   0.000000e+00   1.321145e+05  11712s
  604608    1.1701018e+07   0.000000e+00   9.625421e+05  11717s
  604718    1.1701018e+07   0.000000e+00   1.866588e+05  11721s
  604908    1.1701018e+07   0.000000e+00   2.472481e+05  11727s
  605088    1.1701018e+07   0.000000e+00   8.395398e+04  11732s
  605288    1.1701018e+07   0.000000e+00   3.037703e+05  11736s
  605508    1.1701018e+07   0.000000e+00   1.712075e+05  11742s
  605728    1.1701018e+07   0.000000e+00   1.376812e+05  11748s
  605838    1.1701018e+07   0.000000e+00   2.133164e+06  11751s
  606048    1.1701018e+07   0.000000e+00   1.278724e+05  11757s
  606238    1.1701018e+07   0.000000e+00   1.684430e+05  11762s
  606518    1.1701018e+07   0.000000e+00   4.223849e+05  11770s
  606618    1.1701018e+07   0.000000e+00   1.067667e+05  11772s
  606898    1.1701018e+07   0.000000e+00   1.343054e+05  11780s
  606998    1.1701018e+07   0.000000e+00   1.600654e+05  11782s
  607098    1.1701018e+07   0.000000e+00   3.544716e+05  11785s
  607298    1.1701018e+07   0.000000e+00   1.925796e+05  11790s
  607498    1.1701018e+07   0.000000e+00   8.223228e+05  11796s
  607708    1.1701018e+07   0.000000e+00   5.561615e+05  11802s
  607908    1.1701018e+07   0.000000e+00   1.315454e+05  11807s
  608108    1.1701018e+07   0.000000e+00   1.004015e+05  11813s
  608208    1.1701018e+07   0.000000e+00   5.325958e+05  11815s
  608398    1.1701018e+07   0.000000e+00   5.605010e+04  11821s
  608598    1.1701018e+07   0.000000e+00   1.238802e+05  11826s
  608798    1.1701018e+07   0.000000e+00   1.969561e+05  11831s
  608998    1.1701018e+07   0.000000e+00   1.309293e+05  11837s
  609198    1.1701018e+07   0.000000e+00   1.421907e+05  11842s
  609488    1.1701018e+07   0.000000e+00   1.137951e+05  11850s
  609588    1.1701018e+07   0.000000e+00   1.209463e+05  11852s
  609688    1.1701018e+07   0.000000e+00   9.166396e+04  11855s
  609888    1.1701018e+07   0.000000e+00   1.730957e+05  11860s
  610178    1.1701018e+07   0.000000e+00   1.949398e+05  11868s
  610278    1.1701018e+07   0.000000e+00   1.884111e+05  11870s
  610488    1.1701018e+07   0.000000e+00   1.229834e+05  11876s
  610768    1.1701018e+07   0.000000e+00   1.528568e+05  11883s
  610948    1.1701018e+07   0.000000e+00   1.566271e+05  11888s
  611048    1.1701018e+07   0.000000e+00   1.467308e+05  11890s
  611228    1.1701018e+07   0.000000e+00   1.970485e+05  11895s
  611588    1.1701018e+07   0.000000e+00   9.398610e+04  11904s
  611768    1.1701018e+07   0.000000e+00   9.977979e+04  11909s
  611948    1.1701018e+07   0.000000e+00   8.687846e+04  11914s
  612128    1.1701018e+07   0.000000e+00   2.850663e+04  11919s
  612228    1.1701018e+07   0.000000e+00   1.206862e+05  11921s
  612428    1.1701018e+07   0.000000e+00   1.101546e+05  11926s
  612618    1.1701018e+07   0.000000e+00   1.546833e+05  11931s
  612818    1.1701018e+07   0.000000e+00   1.820349e+05  11936s
  613018    1.1701018e+07   0.000000e+00   3.546239e+04  11941s
  613308    1.1701018e+07   0.000000e+00   1.358760e+05  11949s
  613488    1.1701018e+07   0.000000e+00   3.753242e+04  11953s
  613588    1.1701018e+07   0.000000e+00   8.044574e+05  11956s
  613778    1.1701018e+07   0.000000e+00   9.635233e+04  11961s
  613978    1.1701018e+07   0.000000e+00   1.369323e+05  11966s
  614158    1.1701018e+07   0.000000e+00   9.356568e+04  11971s
  614348    1.1701018e+07   0.000000e+00   3.956996e+04  11976s
  614528    1.1701018e+07   0.000000e+00   2.493012e+04  11981s
  614708    1.1701018e+07   0.000000e+00   3.206215e+04  11985s
  614898    1.1701018e+07   0.000000e+00   8.556399e+04  11990s
  615088    1.1701018e+07   0.000000e+00   2.599532e+04  11995s
  615288    1.1701018e+07   0.000000e+00   3.409135e+04  12001s
  615568    1.1701018e+07   0.000000e+00   3.266306e+05  12008s
  615748    1.1701018e+07   0.000000e+00   1.039873e+05  12013s
  615928    1.1701018e+07   0.000000e+00   2.496470e+04  12018s
  616028    1.1701018e+07   0.000000e+00   9.175372e+04  12021s
  616228    1.1701018e+07   0.000000e+00   3.057104e+04  12027s
  616408    1.1701018e+07   0.000000e+00   6.854054e+04  12032s
  616508    1.1701018e+07   0.000000e+00   4.277573e+04  12035s
  616708    1.1701018e+07   0.000000e+00   1.035861e+06  12041s
  616908    1.1701018e+07   0.000000e+00   3.382645e+04  12046s
  617178    1.1701018e+07   0.000000e+00   1.828717e+06  12052s
  617358    1.1701018e+07   0.000000e+00   4.638160e+05  12059s
  617528    1.1701018e+07   0.000000e+00   2.686444e+04  12066s
  617708    1.1701018e+07   0.000000e+00   2.536963e+04  12073s
  617878    1.1701018e+07   0.000000e+00   1.515755e+05  12080s
  617978    1.1701018e+07   0.000000e+00   5.641682e+04  12084s
  618148    1.1701018e+07   0.000000e+00   4.242407e+04  12088s
  618338    1.1701018e+07   0.000000e+00   3.981702e+06  12093s
  618518    1.1701018e+07   0.000000e+00   2.534379e+04  12098s
  618698    1.1701018e+07   0.000000e+00   2.122556e+04  12103s
  618878    1.1701018e+07   0.000000e+00   4.945570e+04  12107s
  619058    1.1701018e+07   0.000000e+00   2.999318e+04  12114s
  619248    1.1701018e+07   0.000000e+00   1.024819e+05  12121s
  619418    1.1701018e+07   0.000000e+00   3.175050e+04  12128s
  619578    1.1701018e+07   0.000000e+00   3.180053e+04  12134s
  619748    1.1701018e+07   0.000000e+00   3.177622e+04  12139s
  619848    1.1701018e+07   0.000000e+00   4.795869e+04  12142s
  620028    1.1701018e+07   0.000000e+00   2.384169e+04  12147s
  620228    1.1701018e+07   0.000000e+00   1.291500e+04  12152s
  620408    1.1701018e+07   0.000000e+00   2.149773e+04  12157s
  620508    1.1701018e+07   0.000000e+00   1.884543e+04  12160s
  620698    1.1701018e+07   0.000000e+00   1.191535e+04  12165s
  620898    1.1701018e+07   0.000000e+00   1.461267e+04  12170s
  621198    1.1701018e+07   0.000000e+00   1.065577e+04  12177s
  621398    1.1701018e+07   0.000000e+00   5.838316e+04  12182s
  621598    1.1701018e+07   0.000000e+00   1.578102e+04  12187s
  621698    1.1701018e+07   0.000000e+00   4.803947e+03  12190s
  621898    1.1701018e+07   0.000000e+00   1.907919e+04  12195s
  622088    1.1701018e+07   0.000000e+00   1.274309e+04  12200s
  622298    1.1701018e+07   0.000000e+00   9.777606e+03  12206s
  622498    1.1701018e+07   0.000000e+00   1.354376e+04  12212s
  622698    1.1701018e+07   0.000000e+00   1.581664e+04  12217s
  622918    1.1701018e+07   0.000000e+00   5.207872e+03  12223s
  623018    1.1701018e+07   0.000000e+00   4.473634e+03  12226s
  623262    1.1695614e+07   3.973843e+01   0.000000e+00  12232s
  623382    1.1695614e+07   3.134235e+01   0.000000e+00  12236s
  623612    1.1695612e+07   4.945837e+01   0.000000e+00  12242s
  623732    1.1695612e+07   2.371459e+02   0.000000e+00  12245s
  623972    1.1695612e+07   1.144079e+02   0.000000e+00  12252s
  624092    1.1695612e+07   3.203131e+02   0.000000e+00  12255s
  624342    1.1695611e+07   9.614276e+02   0.000000e+00  12262s
  624452    1.1695611e+07   2.576757e+02   0.000000e+00  12265s
  624762    1.1695609e+07   8.253162e+01   0.000000e+00  12273s
  624862    1.1695609e+07   3.152436e+02   0.000000e+00  12277s
  625102    1.1695607e+07   3.345620e+02   0.000000e+00  12283s
  625202    1.1695607e+07   5.119938e+02   0.000000e+00  12286s
  625412    1.1695607e+07   2.747877e+02   0.000000e+00  12293s
  625512    1.1695606e+07   7.638623e+02   0.000000e+00  12296s
  625722    1.1695605e+07   1.289528e+04   0.000000e+00  12302s
  625822    1.1695605e+07   2.462222e+05   0.000000e+00  12305s
  626032    1.1695604e+07   7.194726e+02   0.000000e+00  12311s
  626252    1.1695603e+07   3.758326e+02   0.000000e+00  12318s
  626362    1.1695603e+07   5.732825e+03   0.000000e+00  12323s
  626462    1.1695603e+07   3.370171e+03   0.000000e+00  12326s
  626662    1.1695602e+07   1.964221e+03   0.000000e+00  12333s
  626772    1.1695601e+07   2.369564e+03   0.000000e+00  12336s
  627002    1.1695599e+07   1.343728e+03   0.000000e+00  12343s
  627102    1.1695598e+07   1.480558e+03   0.000000e+00  12346s
  627302    1.1695596e+07   1.869594e+03   0.000000e+00  12352s
  627412    1.1695595e+07   2.608507e+02   0.000000e+00  12356s
  627562    1.1695594e+07   7.382717e+03   0.000000e+00  12360s
  627712    1.1695593e+07   6.205586e+02   0.000000e+00  12366s
  627912    1.1695591e+07   2.958465e+02   0.000000e+00  12372s
  628032    1.1695591e+07   1.458391e+02   0.000000e+00  12375s
  628242    1.1695589e+07   1.073008e+03   0.000000e+00  12381s
  628472    1.1695589e+07   5.310549e+02   0.000000e+00  12388s
  628602    1.1695588e+07   1.457993e+03   0.000000e+00  12392s
  628722    1.1695588e+07   7.419009e+02   0.000000e+00  12396s
  628852    1.1695588e+07   1.730107e+03   0.000000e+00  12400s
  629062    1.1695587e+07   6.979919e+02   0.000000e+00  12407s
  629302    1.1695587e+07   1.800396e+03   0.000000e+00  12415s
  629412    1.1695586e+07   3.687837e+03   0.000000e+00  12419s
  629512    1.1695586e+07   3.554011e+03   0.000000e+00  12422s
  629652    1.1695585e+07   3.258477e+04   0.000000e+00  12427s
  629862    1.1695585e+07   5.661216e+03   0.000000e+00  12434s
  629962    1.1695585e+07   9.337681e+02   0.000000e+00  12437s
  630102    1.1695578e+07   1.403138e+03   0.000000e+00  12441s
  630302    1.1695577e+07   4.457612e+03   0.000000e+00  12447s
  630402    1.1695577e+07   1.114791e+03   0.000000e+00  12450s
  630542    1.1695577e+07   4.985241e+03   0.000000e+00  12455s
  630802    1.1695576e+07   6.774163e+03   0.000000e+00  12464s
  630902    1.1695575e+07   1.450783e+03   0.000000e+00  12467s
  631012    1.1695575e+07   9.806315e+02   0.000000e+00  12471s
  631232    1.1695574e+07   1.024541e+03   0.000000e+00  12478s
  631372    1.1695574e+07   1.835955e+03   0.000000e+00  12483s
  631512    1.1695574e+07   5.968085e+03   0.000000e+00  12488s
  631642    1.1695574e+07   2.827531e+03   0.000000e+00  12493s
  631742    1.1695573e+07   3.986097e+03   0.000000e+00  12496s
  631952    1.1695573e+07   3.291408e+03   0.000000e+00  12503s
  632052    1.1695573e+07   9.712923e+02   0.000000e+00  12506s
  632182    1.1695573e+07   1.395557e+04   0.000000e+00  12511s
  632322    1.1695573e+07   2.484667e+02   0.000000e+00  12515s
  632562    1.1695573e+07   1.181453e+03   0.000000e+00  12524s
  632662    1.1695572e+07   2.173708e+03   0.000000e+00  12527s
  632792    1.1695572e+07   1.501001e+03   0.000000e+00  12531s
  632932    1.1695572e+07   9.552942e+02   0.000000e+00  12536s
  633052    1.1695572e+07   1.948986e+03   0.000000e+00  12540s
  633272    1.1695571e+07   2.681490e+03   0.000000e+00  12549s
  633402    1.1695571e+07   2.523596e+04   0.000000e+00  12553s
  633502    1.1695571e+07   1.178797e+04   0.000000e+00  12557s
  633702    1.1695570e+07   4.079286e+03   0.000000e+00  12563s
  633812    1.1695570e+07   3.222720e+03   0.000000e+00  12566s
  634012    1.1695570e+07   3.712812e+03   0.000000e+00  12573s
  634152    1.1695570e+07   1.809053e+03   0.000000e+00  12577s
  634282    1.1695570e+07   1.036881e+04   0.000000e+00  12581s
  634422    1.1695569e+07   2.277303e+03   0.000000e+00  12586s
  634642    1.1695569e+07   1.631316e+03   0.000000e+00  12592s
  634762    1.1695569e+07   1.595001e+03   0.000000e+00  12596s
  634962    1.1695568e+07   8.094467e+03   0.000000e+00  12601s
  635172    1.1695568e+07   4.728792e+03   0.000000e+00  12608s
  635272    1.1695568e+07   4.024612e+03   0.000000e+00  12611s
  635482    1.1695567e+07   2.254910e+03   0.000000e+00  12618s
  635582    1.1695567e+07   1.574272e+03   0.000000e+00  12621s
  635782    1.1695566e+07   3.190067e+03   0.000000e+00  12628s
  635892    1.1695566e+07   5.576621e+03   0.000000e+00  12631s
  636012    1.1695566e+07   2.852775e+03   0.000000e+00  12635s
  636212    1.1695566e+07   1.721603e+03   0.000000e+00  12641s
  636432    1.1695564e+07   1.749759e+03   0.000000e+00  12648s
  636552    1.1695564e+07   1.447580e+03   0.000000e+00  12651s
  636762    1.1695564e+07   2.488623e+03   0.000000e+00  12658s
  636862    1.1695564e+07   2.726319e+02   0.000000e+00  12662s
  637002    1.1695563e+07   1.230072e+03   0.000000e+00  12667s
  637122    1.1695563e+07   7.460371e+02   0.000000e+00  12671s
  637242    1.1695563e+07   5.512042e+02   0.000000e+00  12676s
  637442    1.1695563e+07   1.006853e+03   0.000000e+00  12683s
  637562    1.1695563e+07   7.993233e+02   0.000000e+00  12686s
  637782    1.1695563e+07   9.406901e+02   0.000000e+00  12693s
  637902    1.1695563e+07   1.203636e+03   0.000000e+00  12697s
  638112    1.1695563e+07   2.843753e+03   0.000000e+00  12703s
  638232    1.1695562e+07   3.435696e+03   0.000000e+00  12709s
  638342    1.1695562e+07   2.716417e+03   0.000000e+00  12712s
  638452    1.1695562e+07   9.164117e+02   0.000000e+00  12715s
  638662    1.1695561e+07   1.685203e+04   0.000000e+00  12722s
  638772    1.1695561e+07   2.126878e+04   0.000000e+00  12725s
  638972    1.1695561e+07   1.455368e+03   0.000000e+00  12731s
  639172    1.1695561e+07   5.499495e+03   0.000000e+00  12737s
  639282    1.1695561e+07   1.170091e+04   0.000000e+00  12740s
  639492    1.1695560e+07   3.549292e+03   0.000000e+00  12747s
  639612    1.1695560e+07   1.046317e+03   0.000000e+00  12750s
  639812    1.1695559e+07   5.491630e+02   0.000000e+00  12757s
  640012    1.1695558e+07   1.567648e+03   0.000000e+00  12763s
  640122    1.1695558e+07   9.253741e+02   0.000000e+00  12766s
  640252    1.1695556e+07   2.123418e+03   0.000000e+00  12770s
  640472    1.1695555e+07   2.491375e+04   0.000000e+00  12781s
  640602    1.1695552e+07   2.742546e+04   0.000000e+00  12788s
  640702    1.1695552e+07   1.819201e+04   0.000000e+00  12791s
  640902    1.1695551e+07   1.464260e+03   0.000000e+00  12797s
  641042    1.1695550e+07   8.084152e+03   0.000000e+00  12801s
  641292    1.1695546e+07   1.225003e+05   0.000000e+00  12809s
  641402    1.1695545e+07   1.340545e+05   0.000000e+00  12812s
  641502    1.1695544e+07   1.374371e+05   0.000000e+00  12815s
  641702    1.1695542e+07   1.248695e+05   0.000000e+00  12821s
  641912    1.1695538e+07   1.695577e+04   0.000000e+00  12828s
  642032    1.1695533e+07   2.702265e+04   0.000000e+00  12832s
  642142    1.1695530e+07   5.531741e+04   0.000000e+00  12836s
  642342    1.1695526e+07   8.154148e+05   0.000000e+00  12842s
  642462    1.1695523e+07   9.030838e+05   0.000000e+00  12846s
  642662    1.1695518e+07   2.371237e+04   0.000000e+00  12852s
  642772    1.1695517e+07   1.329031e+06   0.000000e+00  12855s
  642982    1.1695504e+07   7.634415e+06   0.000000e+00  12862s
  643122    1.1695504e+07   1.436356e+06   0.000000e+00  12866s
  643342    1.1695503e+07   1.173551e+06   0.000000e+00  12873s
  643442    1.1695502e+07   1.685370e+06   0.000000e+00  12876s
  643642    1.1695498e+07   1.810583e+06   0.000000e+00  12883s
  643742    1.1695488e+07   6.964680e+03   0.000000e+00  12887s
  643842    1.1695488e+07   7.382290e+05   0.000000e+00  12892s
  643942    1.1695484e+07   2.249538e+07   0.000000e+00  12897s
  644042    1.1695480e+07   1.248502e+04   0.000000e+00  12901s
  644242    1.1695473e+07   1.593312e+04   0.000000e+00  12909s
  644342    1.1695467e+07   1.526554e+04   0.000000e+00  12912s
  644442    1.1695460e+07   1.591555e+02   0.000000e+00  12916s
  644542    1.1695460e+07   1.496653e+02   0.000000e+00  12920s
  644762    1.1695459e+07   8.782409e+02   0.000000e+00  12929s
  644872    1.1695459e+07   4.063011e+04   0.000000e+00  12934s
  644992    1.1695459e+07   3.919631e+03   0.000000e+00  12938s
  645102    1.1695458e+07   1.561339e+04   0.000000e+00  12943s
  645212    1.1695457e+07   1.139278e+06   0.000000e+00  12947s
  645332    1.1695455e+07   2.588404e+05   0.000000e+00  12952s
  645432    1.1695454e+07   3.480458e+05   0.000000e+00  12955s
  645652    1.1695452e+07   7.667057e+05   0.000000e+00  12963s
  645752    1.1695452e+07   8.027254e+03   0.000000e+00  12966s
  645892    1.1695452e+07   4.567058e+03   0.000000e+00  12972s
  646002    1.1695450e+07   2.468735e+05   0.000000e+00  12976s
  646112    1.1695450e+07   3.901828e+05   0.000000e+00  12982s
  646232    1.1695449e+07   1.643330e+05   0.000000e+00  12988s
  646342    1.1695447e+07   2.000949e+05   0.000000e+00  12992s
  646442    1.1695447e+07   2.185720e+05   0.000000e+00  12996s
  646552    1.1695447e+07   1.727540e+05   0.000000e+00  13002s
  646672    1.1695446e+07   1.667182e+05   0.000000e+00  13008s
  646792    1.1695445e+07   1.287078e+05   0.000000e+00  13014s
  646892    1.1695445e+07   1.264848e+05   0.000000e+00  13019s
  647032    1.1695445e+07   1.154274e+05   0.000000e+00  13026s
  647172    1.1695444e+07   5.787416e+00   0.000000e+00  13032s
  647272    1.1695444e+07   1.841679e+01   0.000000e+00  13036s
  647512    1.1695444e+07   7.011599e+00   0.000000e+00  13044s
  647632    1.1695444e+07   1.004804e+01   0.000000e+00  13048s
  647732    1.1695444e+07   5.198498e+00   0.000000e+00  13052s
  647842    1.1695444e+07   1.014738e+01   0.000000e+00  13055s
  648052    1.1695444e+07   1.498172e+01   0.000000e+00  13063s
  648162    1.1695444e+07   7.499164e+00   0.000000e+00  13067s
  648262    1.1695444e+07   1.530514e+01   0.000000e+00  13071s
  648362    1.1695444e+07   8.990000e+00   0.000000e+00  13076s
  648572    1.1695444e+07   1.005136e+01   0.000000e+00  13083s
  648672    1.1695444e+07   2.206035e+01   0.000000e+00  13087s
  648772    1.1695444e+07   6.051214e+00   0.000000e+00  13090s
  648982    1.1695444e+07   7.603986e+01   0.000000e+00  13098s
  649102    1.1695444e+07   3.831728e+01   0.000000e+00  13102s
  649222    1.1695444e+07   8.432053e+00   0.000000e+00  13106s
  649432    1.1695444e+07   1.187768e+02   0.000000e+00  13113s
  649532    1.1695444e+07   1.060360e+02   0.000000e+00  13116s
  649652    1.1695444e+07   6.289644e+01   0.000000e+00  13120s
  649892    1.1695444e+07   5.147298e+02   0.000000e+00  13128s
  650012    1.1695444e+07   2.544873e-03   0.000000e+00  13132s
  650062    1.1695444e+07   0.000000e+00   0.000000e+00  13134s
  650062    1.1695444e+07   0.000000e+00   0.000000e+00  13135s
Concurrent spin time: 648.40s

Solved with barrier

Root relaxation: objective 1.169544e+07, 650062 iterations, 10964.85 seconds
Total elapsed time = 13809.21s

    Nodes    |    Current Node    |     Objective Bounds      |     Work
 Expl Unexpl |  Obj  Depth IntInf | Incumbent    BestBd   Gap | It/Node Time

     0     0 1.1695e+07    0  587          - 1.1695e+07      -     - 13840s
     0     0 1.1185e+07    0  481          - 1.1185e+07      -     - 30738s
H    0     0                    -2.90814e+07 1.1185e+07   138%     - 30744s
     0     0          -    0      -2.908e+07 1.1185e+07   138%     - 86400s

Cutting planes:
  Implied bound: 10
  Clique: 64
  MIR: 8
  Flow cover: 29
  Zero half: 1

Explored 1 nodes (996870 simplex iterations) in 86400.72 seconds
Thread count was 4 (of 16 available processors)

Solution count 1: -2.90814e+07 

Time limit reached
Best objective -2.908141828645e+07, best bound 1.118454990257e+07, gap 138.4594%

***
***  |- Calculation finished, timelimit reached 86,400.85 (86400.85) sec.))
***  |-----------------------------------------------------------------------------------------------------------------------
***
*****************************************************************************************************************************
#############################################################################################################################
###
### Results
###
### The objective of the solution is -29,081,418.2865 (-29081418.2865) and is feasible with a Gap of 1.3846
###
### Service 7 (ME3) is operated by 3 vessels from type 19 (PMax28)
###  |- Vessel  7 has the path [285, 477, 437, -3]
###  |  285 (NLRTM Out@428.0) - 477 (TRMER In@579.0/Out@623.0) - 437 (AEJEA In@858.0/Out@891.0) - -3 (DUMMY_END Ziel-Service 
###  |  7)
###  |- Vessel 15 has the path [179, 468, 435, -3]
###  |  179 (FRLEH Out@158.0) - 468 (TRAMB In@347.0/Out@395.0) - 435 (AEJEA In@690.0/Out@723.0) - -3 (DUMMY_END Ziel-Service 
###  |  7)
###  |- Vessel 16 has the path [181, 263, 464, 295, 465, 296, 438, -3]
###  |  181 (FRLEH Out@326.0) - 263 (MAPTM In@406.0/Out@427.0) - 464 (OMSLL In@710.0/Out@722.0) - 295 (OMSLL In@721.0/Out@736
###  |  .0) - 465 (OMSLL In@878.0/Out@890.0) - 296 (OMSLL In@889.0/Out@904.0) - 438 (AEJEA In@1026.0/Out@1059.0) - -3 (DUMMY_
###  |  END Ziel-Service 7)
###  |   |- and carried Demand 359,  111.0 containers from 465 to 438
###  |   |- and carried Demand 360,   35.0 containers from 465 to 438
###  |
### Service 24 (WAF7) is operated by 3 vessels from type 18 (PMax25)
###  |- Vessel  1 has the path [131, 386, -1]
###  |  131 (DEHAM Out@288.0) - 386 (ESALG In@496.0/Out@515.0) - -1 (DUMMY_END Ziel-Service 24)
###  |- Vessel  2 has the path [132, 387, -1]
###  |  132 (DEHAM Out@456.0) - 387 (ESALG In@664.0/Out@683.0) - -1 (DUMMY_END Ziel-Service 24)
###  |- Vessel 13 has the path [135, 401, 151, 388, -1]
###  |  135 (DKAAR Out@220.0) - 401 (MAPTM In@379.0/Out@398.0) - 151 (ESALG In@625.0/Out@670.0) - 388 (ESALG In@832.0/Out@851
###  |  .0) - -1 (DUMMY_END Ziel-Service 24)
###  |   |- and carried Demand 285,  214.0 containers from 401 to 388
###  |   |- and carried Demand 286,   10.0 containers from 401 to 388
###  |
### Service 121 (SAE) is operated by 2 vessels from type 30 (PMax35)
###  |- Vessel  9 has the path [9, 384, 260, 400, 261, 385, 262, 148, 411, -2]
###  |  9 (BEANR Out@66.0) - 384 (ESALG In@160.0/Out@179.0) - 260 (MAPTM In@207.0/Out@228.0) - 400 (MAPTM In@211.0/Out@230.0)
###  |   - 261 (MAPTM In@238.0/Out@259.0) - 385 (ESALG In@328.0/Out@347.0) - 262 (MAPTM In@375.0/Out@396.0) - 148 (ESALG In@4
###  |  21.0/Out@433.0) - 411 (HNPCR In@998.0/Out@1011.0) - -2 (DUMMY_END Ziel-Service 121)
###  |   |- and carried Demand  20,  484.0 containers from 262 to 148
###  |   |- and carried Demand  21,   18.0 containers from 262 to 148
###  |   |- and carried Demand 257,  580.0 containers from 260 to 385
###  |   |- and carried Demand 261,  484.0 containers from 262 to 148
###  |   |- and carried Demand 262,   18.0 containers from 262 to 148
###  |   |- and carried Demand 271,  580.0 containers from 261 to 385
###  |   |- and carried Demand 295,  580.0 containers from 400 to 385
###  |- Vessel 12 has the path [16, 412, -2]
###  |  16 (BEANR Out@570.0) - 412 (HNPCR In@1166.0/Out@1179.0) - -2 (DUMMY_END Ziel-Service 121)
###  |
### Service 177 (WCSA) is operated by 3 vessels from type 19 (PMax28)
###  |- Vessel  5 has the path [282, 475, 354, 249, 226, 71, 102, 99, 76, 88, 305, 0]
###  |  282 (NLRTM Out@92.0) - 475 (TRMER In@243.0/Out@287.0) - 354 (SGSIN In@618.0/Out@651.0) - 249 (KRPUS In@788.0/Out@810.
###  |  0) - 226 (JPHKT In@824.0/Out@833.0) - 71 (CNDLC In@871.0/Out@886.0) - 102 (CNXGG In@904.0/Out@923.0) - 99 (CNTAO In@9
###  |  60.0/Out@978.0) - 76 (CNNGB In@1031.0/Out@1040.0) - 88 (CNSHA In@1069.0/Out@1079.0) - 305 (PABLB In@1640.0/Out@1652.0
###  |  ) - 0 (DUMMY_END Ziel-Service 177)
###  |   |- and carried Demand  45,  975.0 containers from  76 to 305
###  |   |- and carried Demand  46,    1.0 containers from  76 to 305
###  |   |- and carried Demand  48,  907.0 containers from  88 to 305
###  |   |- and carried Demand  49,    3.0 containers from  88 to 305
###  |- Vessel  6 has the path [283, 407, 270, 299, 300, 303, 0]
###  |  283 (NLRTM Out@260.0) - 407 (GTSTC In@687.0/Out@701.0) - 270 (MXLZC In@873.0/Out@896.0) - 299 (PABLB In@968.0/Out@980
###  |  .0) - 300 (PABLB In@982.0/Out@1030.0) - 303 (PABLB In@1472.0/Out@1484.0) - 0 (DUMMY_END Ziel-Service 177)
###  |   |- and carried Demand 192,  298.0 containers from 270 to 299
###  |   |- and carried Demand 193,  199.0 containers from 270 to 299
###  |   |- and carried Demand 300,  298.0 containers from 270 to 300
###  |   |- and carried Demand 301,  199.0 containers from 270 to 300
###  |- Vessel  8 has the path [287, 183, 265, 302, 0]
###  |  287 (NLRTM Out@596.0) - 183 (FRLEH In@615.0/Out@631.0) - 265 (MAPTM In@711.0/Out@732.0) - 302 (PABLB In@1304.0/Out@13
###  |  16.0) - 0 (DUMMY_END Ziel-Service 177)
###  |
### Vessels not used in the solution: [3, 4, 10, 11, 14, 17, 18, 19, 20, 21, 22, 23, 24]
###  |-----------------------------------------------------------------------------------------------------------------------
###
#############################################################################################################################

### Detialed variable overview

### All variables with value greater zero:
rho[24,18] = 1
rho[177,19] = 1
rho[121,30] = 1
rho[7,19] = 1
eta[24,18,1] = 1
eta[24,18,2] = 1
eta[24,18,3] = 1
eta[177,19,1] = 1
eta[177,19,2] = 1
eta[177,19,3] = 1
eta[121,30,1] = 1
eta[121,30,2] = 1
eta[7,19,1] = 1
eta[7,19,2] = 1
eta[7,19,3] = 1
y[1,131,386] = 1
y[1,386,-1] = 1
y[2,132,387] = 1
y[2,387,-1] = 1
y[5,71,102] = 1
y[5,354,249] = 1
y[5,249,226] = 1
y[5,475,354] = 1
y[5,76,88] = 1
y[5,99,76] = 1
y[5,102,99] = 1
y[5,282,475] = 1
y[5,305,0] = 1
y[5,226,71] = 1
y[5,88,305] = 1
y[6,303,0] = 1
y[6,270,299] = 1
y[6,407,270] = 1
y[6,300,303] = 1
y[6,299,300] = 1
y[6,283,407] = 1
y[7,477,437] = 1
y[7,285,477] = 1
y[7,437,-3] = 1
y[8,302,0] = 1
y[8,287,183] = 1
y[8,183,265] = 1
y[8,265,302] = 1
y[9,260,400] = 1
y[9,411,-2] = 1
y[9,400,261] = 1
y[9,262,148] = 1
y[9,9,384] = 1
y[9,384,260] = 1
y[9,148,411] = 1
y[9,385,262] = 1
y[9,261,385] = 1
y[12,16,412] = 1
y[12,412,-2] = 1
y[13,401,151] = 1
y[13,388,-1] = 1
y[13,151,388] = 1
y[13,135,401] = 1
y[15,468,435] = 1
y[15,179,468] = 1
y[15,435,-3] = 1
y[16,465,296] = 1
y[16,296,438] = 1
y[16,181,263] = 1
y[16,464,295] = 1
y[16,295,465] = 1
y[16,438,-3] = 1
y[16,263,464] = 1
xD[20,262,148] = 484
xD[21,262,148] = 18
xD[45,76,88] = 975
xD[45,88,305] = 975
xD[46,76,88] = 1
xD[46,88,305] = 1
xD[48,88,305] = 907
xD[49,88,305] = 3
xD[192,270,299] = 298
xD[193,270,299] = 199
xD[257,260,400] = 580
xD[257,400,261] = 580
xD[257,261,385] = 580
xD[261,262,148] = 484
xD[262,262,148] = 18
xD[271,261,385] = 580
xD[285,401,151] = 214
xD[285,151,388] = 214
xD[286,401,151] = 10
xD[286,151,388] = 10
xD[295,400,261] = 580
xD[295,261,385] = 580
xD[300,270,299] = 298
xD[300,299,300] = 298
xD[301,270,299] = 199
xD[301,299,300] = 199
xD[359,465,296] = 111
xD[359,296,438] = 111
xD[360,465,296] = 35
xD[360,296,438] = 35
zE[71] = 871
zE[76] = 1031
zE[88] = 1069
zE[99] = 960
zE[102] = 904
zE[148] = 421
zE[151] = 625
zE[183] = 615
zE[226] = 824
zE[249] = 788
zE[260] = 207
zE[261] = 238
zE[262] = 375
zE[263] = 406
zE[265] = 711
zE[270] = 873
zE[295] = 721
zE[296] = 889
zE[299] = 968
zE[300] = 982
zE[302] = 1304
zE[303] = 1472
zE[305] = 1640
zE[324] = 841.916
zE[354] = 618
zE[384] = 160
zE[385] = 328
zE[386] = 496
zE[387] = 664
zE[388] = 832
zE[400] = 211
zE[401] = 379
zE[407] = 687
zE[411] = 998
zE[412] = 1166
zE[435] = 690
zE[437] = 858
zE[438] = 1026
zE[464] = 710
zE[465] = 878
zE[468] = 347
zE[475] = 243
zE[477] = 579
zX[9] = 66
zX[16] = 570
zX[71] = 886
zX[76] = 1040
zX[88] = 1079
zX[99] = 978
zX[102] = 923
zX[131] = 288
zX[132] = 456
zX[135] = 220
zX[148] = 433
zX[151] = 670
zX[179] = 158
zX[181] = 326
zX[183] = 631
zX[226] = 833
zX[249] = 810
zX[260] = 228
zX[261] = 259
zX[262] = 396
zX[263] = 427
zX[265] = 732
zX[270] = 896
zX[282] = 92
zX[283] = 260
zX[285] = 428
zX[287] = 596
zX[295] = 736
zX[296] = 904
zX[299] = 980
zX[300] = 1030
zX[302] = 1316
zX[303] = 1484
zX[305] = 1652
zX[324] = 1330.08
zX[354] = 651
zX[384] = 179
zX[385] = 347
zX[386] = 515
zX[387] = 683
zX[388] = 851
zX[400] = 230
zX[401] = 398
zX[407] = 701
zX[411] = 1011
zX[412] = 1179
zX[435] = 723
zX[437] = 891
zX[438] = 1059
zX[464] = 722
zX[465] = 890
zX[468] = 395
zX[475] = 287
zX[477] = 623
phi[1] = 227
phi[2] = 227
phi[5] = 1560
phi[6] = 1224
phi[7] = 463
phi[8] = 720
phi[9] = 945
phi[12] = 609
phi[13] = 631
phi[15] = 565
phi[16] = 733

### All variables with value smaller zero:

### End

real	1453m8.439s
user	4928m47.571s
sys	841m2.258s
	Freetype 2.4.12 environment removed
	Python 3.6.0 environment removed
	Gurobi 8.1.0 environment removed
