### Additional Information to the goal services
# Basic costs on route 7: -456375597.05093586
# Basic costs on route 177: -25563814.98498077
# Basic costs on route 81: 96916789.63963766
# Basic costs on route 24: 19542699.427173883
# Basic costs on route 121: 9442770.091184327
# Direct costs (not staggered):
# For goal service 7:
# n_min: 3
# n_max: 6
# lowest costs of the goal service 7 with configuration (7, 30, 6) at 0.0
# For goal service 177:
# n_min: 2
# n_max: 3
# lowest costs of the goal service 177 with configuration (177, 19, 3) at 0.0
# For goal service 81:
# n_min: 6
# n_max: 6
# lowest costs of the goal service 81 with configuration (81, 18, 6) at 0.0
# For goal service 24:
# n_min: 2
# n_max: 4
# lowest costs of the goal service 24 with configuration (24, 18, 3) at 0.0
# For goal service 121:
# n_min: 1
# n_max: 2
# lowest costs of the goal service 121 with configuration (121, 30, 2) at 0.0
# (7, 18, 1): 172244629.20755672
# (7, 18, 2): 172734643.20755672
# (7, 18, 3): 170139190.56829798
# (7, 18, 4): 163338494.56829798
# (7, 18, 5): 156537798.56829798
# (7, 18, 6): 149737102.56829798
# (7, 19, 1): 113250623.86577749
# (7, 19, 2): 113789609.86577749
# (7, 19, 3): 109126059.39332879
# (7, 19, 4): 100076389.11857879
# (7, 19, 5): 91026718.8438288
# (7, 19, 6): 86425982.23240739
# (7, 30, 1): 26648001.6606673
# (7, 30, 2): 27236001.6606673
# (7, 30, 3): 25427810.89637035
# (7, 30, 4): 16020051.091920376
# (7, 30, 5): 6612291.287470341
# (7, 30, 6): 0.0
# (24, 18, 1): 11833105.943760164
# (24, 18, 2): 6515339.19925772
# (24, 18, 3): 0.0
# (24, 18, 4): 490014.0
# (24, 19, 1): 18275325.4932487
# (24, 19, 2): 10641457.325009037
# (24, 19, 3): 5567237.269844063
# (24, 19, 4): 6106223.269844059
# (24, 30, 1): 17903937.771528423
# (24, 30, 2): 11385849.376513451
# (24, 30, 3): 5261919.751136586
# (24, 30, 4): 5849919.751136582
# (81, 18, 1): 6207167.232415512
# (81, 18, 2): 6697181.232415512
# (81, 18, 3): 7187195.232415512
# (81, 18, 4): 7677209.232415512
# (81, 18, 5): 6800695.999999985
# (81, 18, 6): 0.0
# (81, 19, 1): 12959830.649890855
# (81, 19, 2): 13498816.649890855
# (81, 19, 3): 14037802.649890885
# (81, 19, 4): 14576788.649890855
# (81, 19, 5): 11180876.858390197
# (81, 19, 6): 2131206.5836402327
# (81, 30, 1): 9521319.010659352
# (81, 30, 2): 10109319.010659352
# (81, 30, 3): 10697319.010659352
# (81, 30, 4): 11285319.010659352
# (81, 30, 5): 11873319.010659352
# (81, 30, 6): 4017419.8345068544
# (121, 18, 1): 7668015.361185012
# (121, 18, 2): 867319.3611850161
# (121, 19, 1): 8821231.494730925
# (121, 19, 2): 699262.7142219674
# (121, 30, 1): 9074060.595793752
# (121, 30, 2): 0.0
# (177, 18, 1): 9769159.392818123
# (177, 18, 2): 6971600.747039534
# (177, 18, 3): 170904.74703953415
# (177, 19, 1): 13522532.579072475
# (177, 19, 2): 9049670.27475001
# (177, 19, 3): 0.0
# (177, 30, 1): 13284985.272903368
# (177, 30, 2): 10468207.947913755
# (177, 30, 3): 1060448.1434637532
# -------------------------------------------
