### Additional Information to the goal services
# Basic costs on route 7: -675435883.6353852
# Basic costs on route 177: -37834446.17777152
# Basic costs on route 81: 143436848.66666377
# Basic costs on route 24: 28923195.15221735
# Basic costs on route 121: 13975299.734952796
# Direct costs (not staggered):
# For goal service 7:
# n_min: 3
# n_max: 6
# lowest costs of the goal service 7 with configuration (7, 30, 6) at 0.0
# For goal service 177:
# n_min: 2
# n_max: 3
# lowest costs of the goal service 177 with configuration (177, 19, 3) at 0.0
# For goal service 81:
# n_min: 6
# n_max: 6
# lowest costs of the goal service 81 with configuration (81, 18, 6) at 0.0
# For goal service 24:
# n_min: 2
# n_max: 4
# lowest costs of the goal service 24 with configuration (24, 18, 3) at 0.0
# For goal service 121:
# n_min: 1
# n_max: 2
# lowest costs of the goal service 121 with configuration (121, 30, 2) at 0.0
# (7, 18, 1): 254922051.22718406
# (7, 18, 2): 255647271.9471841
# (7, 18, 3): 251806002.04108107
# (7, 18, 4): 241740971.9610811
# (7, 18, 5): 231675941.88108104
# (7, 18, 6): 221610911.80108106
# (7, 19, 1): 167610923.32135075
# (7, 19, 2): 168408622.60135078
# (7, 19, 3): 161506567.90212673
# (7, 19, 4): 148113055.89549673
# (7, 19, 5): 134719543.88886678
# (7, 19, 6): 127910453.70396304
# (7, 30, 1): 39439042.45778763
# (7, 30, 2): 40309282.45778763
# (7, 30, 3): 37633160.12662816
# (7, 30, 4): 23709675.616042256
# (7, 30, 5): 9786191.105456233
# (7, 30, 6): 0.0
# (24, 18, 1): 17512996.796765044
# (24, 18, 2): 9642702.01490143
# (24, 18, 3): 0.0
# (24, 18, 4): 725220.7200000025
# (24, 19, 1): 27047481.73000808
# (24, 19, 2): 15749356.84101338
# (24, 19, 3): 8239511.159369193
# (24, 19, 4): 9037210.439369202
# (24, 30, 1): 26497827.901862077
# (24, 30, 2): 16851057.07723991
# (24, 30, 3): 7787641.231682144
# (24, 30, 4): 8657881.231682144
# (81, 18, 1): 9186607.503974974
# (81, 18, 2): 9911828.223974973
# (81, 18, 3): 10637048.943974942
# (81, 18, 4): 11362269.66397497
# (81, 18, 5): 10065030.079999983
# (81, 18, 6): 0.0
# (81, 19, 1): 19180549.36183843
# (81, 19, 2): 19978248.64183843
# (81, 19, 3): 20775947.921838492
# (81, 19, 4): 21573647.201838434
# (81, 19, 5): 16547697.75041756
# (81, 19, 6): 3154185.743787527
# (81, 30, 1): 14091552.135775805
# (81, 30, 2): 14961792.135775805
# (81, 30, 3): 15832032.135775805
# (81, 30, 4): 16702272.135775805
# (81, 30, 5): 17572512.135775864
# (81, 30, 6): 5945781.355070114
# (121, 18, 1): 11348662.734553833
# (121, 18, 2): 1283632.6545538343
# (121, 19, 1): 13055422.612201776
# (121, 19, 2): 1034908.8170485198
# (121, 30, 1): 13429609.681774754
# (121, 30, 2): 0.0
# (177, 18, 1): 14458355.901370808
# (177, 18, 2): 10317969.1056185
# (177, 18, 3): 252939.025618501
# (177, 19, 1): 20013348.21702724
# (177, 19, 2): 13393512.006629996
# (177, 19, 3): 0.0
# (177, 30, 1): 19661778.20389697
# (177, 30, 2): 15492947.762912348
# (177, 30, 3): 1569463.252326347
# -------------------------------------------
