### Additional Information to the goal services
# Basic costs on route 7: -237315310.46648666
# Basic costs on route 177: -13293183.792189997
# Basic costs on route 81: 50396730.61261159
# Basic costs on route 24: 10162203.702130424
# Basic costs on route 121: 4910240.447415849
# Direct costs (not staggered):
# For goal service 7:
# n_min: 3
# n_max: 6
# lowest costs of the goal service 7 with configuration (7, 30, 6) at 0.0
# For goal service 177:
# n_min: 2
# n_max: 3
# lowest costs of the goal service 177 with configuration (177, 19, 3) at 0.0
# For goal service 81:
# n_min: 6
# n_max: 6
# lowest costs of the goal service 81 with configuration (81, 18, 6) at 0.0
# For goal service 24:
# n_min: 2
# n_max: 4
# lowest costs of the goal service 24 with configuration (24, 18, 3) at 0.0
# For goal service 121:
# n_min: 1
# n_max: 2
# lowest costs of the goal service 121 with configuration (121, 30, 2) at 0.0
# (7, 18, 1): 89567207.18792954
# (7, 18, 2): 89822014.46792951
# (7, 18, 3): 88472379.09551498
# (7, 18, 4): 84936017.17551497
# (7, 18, 5): 81399655.25551495
# (7, 18, 6): 77863293.33551496
# (7, 19, 1): 58890324.41020432
# (7, 19, 2): 59170597.13020429
# (7, 19, 3): 56745550.88453099
# (7, 19, 4): 52039722.341661006
# (7, 19, 5): 47333893.79879099
# (7, 19, 6): 44941510.76085186
# (7, 30, 1): 13856960.863546997
# (7, 30, 2): 14162720.863546997
# (7, 30, 3): 13222461.666112602
# (7, 30, 4): 8330426.5677986145
# (7, 30, 5): 3438391.4694845974
# (7, 30, 6): 0.0
# (24, 18, 1): 6153215.090755282
# (24, 18, 2): 3387976.383614015
# (24, 18, 3): 0.0
# (24, 18, 4): 254807.27999999747
# (24, 19, 1): 9503169.25648932
# (24, 19, 2): 5533557.809004694
# (24, 19, 3): 2894963.380318908
# (24, 19, 4): 3175236.100318907
# (24, 30, 1): 9310047.641194781
# (24, 30, 2): 5920641.675786991
# (24, 30, 3): 2736198.2705910206
# (24, 30, 4): 3041958.270591017
# (81, 18, 1): 3227726.9608560577
# (81, 18, 2): 3482534.240856059
# (81, 18, 3): 3737341.5208560675
# (81, 18, 4): 3992148.800856054
# (81, 18, 5): 3536361.919999987
# (81, 18, 6): 0.0
# (81, 19, 1): 6739111.937943235
# (81, 19, 2): 7019384.657943234
# (81, 19, 3): 7299657.377943233
# (81, 19, 4): 7579930.097943239
# (81, 19, 5): 5814055.966362901
# (81, 19, 6): 1108227.423492901
# (81, 30, 1): 4951085.885542855
# (81, 30, 2): 5256845.885542855
# (81, 30, 3): 5562605.885542855
# (81, 30, 4): 5868365.885542855
# (81, 30, 5): 6174125.885542855
# (81, 30, 6): 2089058.313943565
# (121, 18, 1): 3987367.987816209
# (121, 18, 2): 451006.06781620905
# (121, 19, 1): 4587040.37726008
# (121, 19, 2): 363616.6113954233
# (121, 30, 1): 4718511.509812752
# (121, 30, 2): 0.0
# (177, 18, 1): 5079962.884265421
# (177, 18, 2): 3625232.38846056
# (177, 18, 3): 88870.46846055798
# (177, 19, 1): 7031716.941117682
# (177, 19, 2): 4705828.542869998
# (177, 19, 3): 0.0
# (177, 30, 1): 6908192.341909744
# (177, 30, 2): 5443468.13291515
# (177, 30, 3): 551433.0346011482
# -------------------------------------------
