### Additional Information to the goal services
# Basic costs on route 7: -511140668.6970481
# Basic costs on route 177: -28631472.783178456
# Basic costs on route 81: 108546804.3963942
# Basic costs on route 24: 21887823.35843475
# Basic costs on route 121: 10575902.502126448
# Direct costs (not staggered):
# For goal service 7:
# n_min: 3
# n_max: 6
# lowest costs of the goal service 7 with configuration (7, 30, 6) at 0.0
# For goal service 177:
# n_min: 2
# n_max: 3
# lowest costs of the goal service 177 with configuration (177, 19, 3) at 0.0
# For goal service 81:
# n_min: 6
# n_max: 6
# lowest costs of the goal service 81 with configuration (81, 18, 6) at 0.0
# For goal service 24:
# n_min: 2
# n_max: 4
# lowest costs of the goal service 24 with configuration (24, 18, 3) at 0.0
# For goal service 121:
# n_min: 1
# n_max: 2
# lowest costs of the goal service 121 with configuration (121, 30, 2) at 0.0
# (7, 18, 1): 192913984.71246356
# (7, 18, 2): 193462800.3924635
# (7, 18, 3): 190555893.4364937
# (7, 18, 4): 182939113.9164937
# (7, 18, 5): 175322334.39649373
# (7, 18, 6): 167705554.8764937
# (7, 19, 1): 126840698.7296707
# (7, 19, 2): 127444363.0496707
# (7, 19, 3): 122221186.5205282
# (7, 19, 4): 112085555.81280816
# (7, 19, 5): 101949925.10508817
# (7, 19, 6): 96797100.1002962
# (7, 30, 1): 29845761.859947383
# (7, 30, 2): 30504321.859947383
# (7, 30, 3): 28479148.20393485
# (7, 30, 4): 17942457.222950816
# (7, 30, 5): 7405766.241966784
# (7, 30, 6): 0.0
# (24, 18, 1): 13253078.657011382
# (24, 18, 2): 7297179.9031686485
# (24, 18, 3): 0.0
# (24, 18, 4): 548815.6800000034
# (24, 19, 1): 20468364.55243855
# (24, 19, 2): 11918432.204010122
# (24, 19, 3): 6235305.742225349
# (24, 19, 4): 6838970.062225349
# (24, 30, 1): 20052410.30411184
# (24, 30, 2): 12752151.301695064
# (24, 30, 3): 5893350.121272966
# (24, 30, 4): 6551910.121272966
# (81, 18, 1): 6952027.300305381
# (81, 18, 2): 7500842.980305374
# (81, 18, 3): 8049658.660305396
# (81, 18, 4): 8598474.340305373
# (81, 18, 5): 7616779.519999981
# (81, 18, 6): 0.0
# (81, 19, 1): 14515010.32787773
# (81, 19, 2): 15118674.647877738
# (81, 19, 3): 15722338.96787773
# (81, 19, 4): 16326003.287877738
# (81, 19, 5): 12522582.081397027
# (81, 19, 6): 2386951.37367703
# (81, 30, 1): 10663877.291938469
# (81, 30, 2): 11322437.291938469
# (81, 30, 3): 11980997.291938454
# (81, 30, 4): 12639557.291938469
# (81, 30, 5): 13298117.291938469
# (81, 30, 6): 4499510.214647666
# (121, 18, 1): 8588177.204527214
# (121, 18, 2): 971397.6845272146
# (121, 19, 1): 9879779.274098635
# (121, 19, 2): 783174.2399286032
# (121, 30, 1): 10162947.867289
# (121, 30, 2): 0.0
# (177, 18, 1): 10941458.51995629
# (177, 18, 2): 7808192.836684272
# (177, 18, 3): 191413.31668427214
# (177, 19, 1): 15145236.48856116
# (177, 19, 2): 10135630.707720004
# (177, 19, 3): 0.0
# (177, 30, 1): 14879183.505651757
# (177, 30, 2): 11724392.9016634
# (177, 30, 3): 1187701.9206793979
# -------------------------------------------
