### Additional Information to the goal services
# Basic costs on route 7: -894496170.2198343
# Basic costs on route 177: -50105077.37056229
# Basic costs on route 81: 189956907.69368982
# Basic costs on route 24: 38303690.87726081
# Basic costs on route 121: 18507829.378721282
# Direct costs (not staggered):
# For goal service 7:
# n_min: 3
# n_max: 6
# lowest costs of the goal service 7 with configuration (7, 30, 6) at 0.0
# For goal service 177:
# n_min: 2
# n_max: 3
# lowest costs of the goal service 177 with configuration (177, 19, 3) at 0.0
# For goal service 81:
# n_min: 6
# n_max: 6
# lowest costs of the goal service 81 with configuration (81, 18, 6) at 0.0
# For goal service 24:
# n_min: 2
# n_max: 4
# lowest costs of the goal service 24 with configuration (24, 18, 3) at 0.0
# For goal service 121:
# n_min: 1
# n_max: 2
# lowest costs of the goal service 121 with configuration (121, 30, 2) at 0.0
# (7, 18, 1): 337599473.2468113
# (7, 18, 2): 338559900.6868112
# (7, 18, 3): 333472813.51386404
# (7, 18, 4): 320143449.3538641
# (7, 18, 5): 306814085.1938641
# (7, 18, 6): 293484721.033864
# (7, 19, 1): 221971222.7769239
# (7, 19, 2): 223027635.33692384
# (7, 19, 3): 213887076.41092443
# (7, 19, 4): 196149722.67241442
# (7, 19, 5): 178412368.9339044
# (7, 19, 6): 169394925.1755184
# (7, 30, 1): 52230083.25490785
# (7, 30, 2): 53382563.25490785
# (7, 30, 3): 49838509.35688591
# (7, 30, 4): 31399300.1401639
# (7, 30, 5): 12960090.923441887
# (7, 30, 6): 0.0
# (24, 18, 1): 23192887.649769925
# (24, 18, 2): 12770064.830545142
# (24, 18, 3): 0.0
# (24, 18, 4): 960427.4400000051
# (24, 19, 1): 35819637.96676747
# (24, 19, 2): 20857256.35701771
# (24, 19, 3): 10911785.04889436
# (24, 19, 4): 11968197.608894356
# (24, 30, 1): 35091718.032195725
# (24, 30, 2): 22316264.777966373
# (24, 30, 3): 10313362.71222771
# (24, 30, 4): 11465842.71222771
# (81, 18, 1): 12166047.775534451
# (81, 18, 2): 13126475.215534449
# (81, 18, 3): 14086902.655534416
# (81, 18, 4): 15047330.095534444
# (81, 18, 5): 13329364.159999967
# (81, 18, 6): 0.0
# (81, 19, 1): 25401268.07378605
# (81, 19, 2): 26457680.633786052
# (81, 19, 3): 27514093.193786055
# (81, 19, 4): 28570505.753786057
# (81, 19, 5): 21914518.64244482
# (81, 19, 6): 4177164.9039348066
# (81, 30, 1): 18661785.2608923
# (81, 30, 2): 19814265.2608923
# (81, 30, 3): 20966745.2608923
# (81, 30, 4): 22119225.2608923
# (81, 30, 5): 23271705.2608923
# (81, 30, 6): 7874142.875633389
# (121, 18, 1): 15029310.107922632
# (121, 18, 2): 1699945.9479226284
# (121, 19, 1): 17289613.729672603
# (121, 19, 2): 1370554.9198750556
# (121, 30, 1): 17785158.767755747
# (121, 30, 2): 0.0
# (177, 18, 1): 19147552.409923494
# (177, 18, 2): 13664337.464197464
# (177, 18, 3): 334973.30419748276
# (177, 19, 1): 26504163.85498204
# (177, 19, 2): 17737353.738509998
# (177, 19, 3): 0.0
# (177, 30, 1): 26038571.13489058
# (177, 30, 2): 20517687.577910952
# (177, 30, 3): 2078478.3611889482
# -------------------------------------------
