### Additional Information to the goal services
# Basic costs on route 177: -43944124.460215196
# Direct costs (not staggered):
# For goal service 177:
# n_min: 2
# n_max: 3
# lowest costs of the goal service 177 with configuration (177, 19, 3) at 0.0
# (177, 18, 1): 13537043.665077776
# (177, 18, 2): 9732363.906818897
# (177, 18, 3): 483417.34681890905
# (177, 19, 1): 18390644.307538547
# (177, 19, 2): 12307551.573660001
# (177, 19, 3): 0.0
# (177, 30, 1): 17529646.832401164
# (177, 30, 2): 13698829.670415297
# (177, 30, 3): 904276.3363632932
# -------------------------------------------
