### Additional Information to the goal services
# Basic costs on route 177: -32311856.22074648
# Direct costs (not staggered):
# For goal service 177:
# n_min: 2
# n_max: 3
# lowest costs of the goal service 177 with configuration (177, 19, 3) at 0.0
# (177, 18, 1): 9953708.577263087
# (177, 18, 2): 7156149.931484498
# (177, 18, 3): 355453.9314844981
# (177, 19, 1): 13522532.579072475
# (177, 19, 2): 9049670.27475001
# (177, 19, 3): 0.0
# (177, 30, 1): 12889446.200294994
# (177, 30, 2): 10072668.87530538
# (177, 30, 3): 664909.0708553791
# -------------------------------------------
