### Additional Information to the goal services
# Basic costs on route 81: 131806833.9099072
# Direct costs (not staggered):
# For goal service 81:
# n_min: 6
# n_max: 6
# lowest costs of the goal service 81 with configuration (81, 18, 6) at 0.0
# (81, 18, 1): 8441747.43608512
# (81, 18, 2): 9108166.476085141
# (81, 18, 3): 9774585.516085133
# (81, 18, 4): 10441004.556085125
# (81, 18, 5): 9248946.560000017
# (81, 18, 6): 0.0
# (81, 19, 1): 17625369.683851615
# (81, 19, 2): 18358390.643851593
# (81, 19, 3): 19091411.60385157
# (81, 19, 4): 19824432.56385161
# (81, 19, 5): 15205992.52741076
# (81, 19, 6): 2898440.9537507147
# (81, 30, 1): 12948993.854496732
# (81, 30, 2): 13748673.854496732
# (81, 30, 3): 14548353.854496732
# (81, 30, 4): 15348033.854496732
# (81, 30, 5): 16147713.854496732
# (81, 30, 6): 5463690.974929348
# -------------------------------------------
