### Additional Information to the goal services
# Basic costs on route 81: 201586922.45044637
# Direct costs (not staggered):
# For goal service 81:
# n_min: 6
# n_max: 6
# lowest costs of the goal service 81 with configuration (81, 18, 6) at 0.0
# (81, 18, 1): 12910907.84342423
# (81, 18, 2): 13930136.963424236
# (81, 18, 3): 14949366.08342427
# (81, 18, 4): 15968595.203424215
# (81, 18, 5): 14145447.679999948
# (81, 18, 6): 0.0
# (81, 19, 1): 26956447.75177294
# (81, 19, 2): 28077538.631772935
# (81, 19, 3): 29198629.51177293
# (81, 19, 4): 30319720.391772956
# (81, 19, 5): 23256223.865451604
# (81, 19, 6): 4432909.693971604
# (81, 30, 1): 19804343.54217142
# (81, 30, 2): 21027383.54217142
# (81, 30, 3): 22250423.54217142
# (81, 30, 4): 23473463.54217142
# (81, 30, 5): 24696503.54217142
# (81, 30, 6): 8356233.25577426
# -------------------------------------------
