### Additional Information to the goal services
# Basic costs on route 81: 85286774.88288115
# Direct costs (not staggered):
# For goal service 81:
# n_min: 6
# n_max: 6
# lowest costs of the goal service 81 with configuration (81, 18, 6) at 0.0
# (81, 18, 1): 5462307.164525643
# (81, 18, 2): 5893519.484525651
# (81, 18, 3): 6324731.804525644
# (81, 18, 4): 6755944.124525651
# (81, 18, 5): 5984612.479999974
# (81, 18, 6): 0.0
# (81, 19, 1): 11404650.971903965
# (81, 19, 2): 11878958.651903957
# (81, 19, 3): 12353266.331903964
# (81, 19, 4): 12827574.011903957
# (81, 19, 5): 9839171.635383382
# (81, 19, 6): 1875461.7936033905
# (81, 30, 1): 8378760.729380205
# (81, 30, 2): 8896200.729380205
# (81, 30, 3): 9413640.729380235
# (81, 30, 4): 9931080.729380205
# (81, 30, 5): 10448520.729380235
# (81, 30, 6): 3535329.4543660283
# -------------------------------------------
