### Additional Information to the goal services
# Basic costs on route 81: 50396730.61261159
# Direct costs (not staggered):
# For goal service 81:
# n_min: 6
# n_max: 6
# lowest costs of the goal service 81 with configuration (81, 18, 6) at 0.0
# (81, 18, 1): 3227726.9608560577
# (81, 18, 2): 3482534.240856059
# (81, 18, 3): 3737341.5208560675
# (81, 18, 4): 3992148.800856054
# (81, 18, 5): 3536361.919999987
# (81, 18, 6): 0.0
# (81, 19, 1): 6739111.937943235
# (81, 19, 2): 7019384.657943234
# (81, 19, 3): 7299657.377943233
# (81, 19, 4): 7579930.097943239
# (81, 19, 5): 5814055.966362901
# (81, 19, 6): 1108227.423492901
# (81, 30, 1): 4951085.885542855
# (81, 30, 2): 5256845.885542855
# (81, 30, 3): 5562605.885542855
# (81, 30, 4): 5868365.885542855
# (81, 30, 5): 6174125.885542855
# (81, 30, 6): 2089058.313943565
# -------------------------------------------
