### Additional Information to the goal services
# Basic costs on route 81: 96916789.63963766
# Direct costs (not staggered):
# For goal service 81:
# n_min: 6
# n_max: 6
# lowest costs of the goal service 81 with configuration (81, 18, 6) at 0.0
# (81, 18, 1): 6207167.232415512
# (81, 18, 2): 6697181.232415512
# (81, 18, 3): 7187195.232415512
# (81, 18, 4): 7677209.232415512
# (81, 18, 5): 6800695.999999985
# (81, 18, 6): 0.0
# (81, 19, 1): 12959830.649890855
# (81, 19, 2): 13498816.649890855
# (81, 19, 3): 14037802.649890885
# (81, 19, 4): 14576788.649890855
# (81, 19, 5): 11180876.858390197
# (81, 19, 6): 2131206.5836402327
# (81, 30, 1): 9521319.010659352
# (81, 30, 2): 10109319.010659352
# (81, 30, 3): 10697319.010659352
# (81, 30, 4): 11285319.010659352
# (81, 30, 5): 11873319.010659352
# (81, 30, 6): 4017419.8345068544
# -------------------------------------------
