### Additional Information to the goal services
# Basic costs on route 81: 62026745.369368106
# Direct costs (not staggered):
# For goal service 81:
# n_min: 6
# n_max: 6
# lowest costs of the goal service 81 with configuration (81, 18, 6) at 0.0
# (81, 18, 1): 3972587.0287459344
# (81, 18, 2): 4286195.988745935
# (81, 18, 3): 4599804.948745921
# (81, 18, 4): 4913413.90874593
# (81, 18, 5): 4352445.43999999
# (81, 18, 6): 0.0
# (81, 19, 1): 8294291.61593017
# (81, 19, 2): 8639242.655930161
# (81, 19, 3): 8984193.695930153
# (81, 19, 4): 9329144.73593016
# (81, 19, 5): 7155761.189369738
# (81, 19, 6): 1363972.2135297433
# (81, 30, 1): 6093644.166821986
# (81, 30, 2): 6469964.166821986
# (81, 30, 3): 6846284.166821972
# (81, 30, 4): 7222604.166821986
# (81, 30, 5): 7598924.166821986
# (81, 30, 6): 2571148.694084376
# -------------------------------------------
