### Additional Information to the goal services
# Basic costs on route 81: 178326892.93693328
# Direct costs (not staggered):
# For goal service 81:
# n_min: 6
# n_max: 6
# lowest costs of the goal service 81 with configuration (81, 18, 6) at 0.0
# (81, 18, 1): 11421187.707644552
# (81, 18, 2): 12322813.467644572
# (81, 18, 3): 13224439.227644533
# (81, 18, 4): 14126064.987644553
# (81, 18, 5): 12513280.640000045
# (81, 18, 6): 0.0
# (81, 19, 1): 23846088.39579922
# (81, 19, 2): 24837822.6357992
# (81, 19, 3): 25829556.87579918
# (81, 19, 4): 26821291.11579922
# (81, 19, 5): 20572813.419438004
# (81, 19, 6): 3921420.113898009
# (81, 30, 1): 17519226.979613215
# (81, 30, 2): 18601146.979613215
# (81, 30, 3): 19683066.979613215
# (81, 30, 4): 20764986.979613215
# (81, 30, 5): 21846906.979613245
# (81, 30, 6): 7392052.495492637
# -------------------------------------------
