### Additional Information to the goal services
# Basic costs on route 177: -28434433.474256895
# Direct costs (not staggered):
# For goal service 177:
# n_min: 2
# n_max: 3
# lowest costs of the goal service 177 with configuration (177, 19, 3) at 0.0
# (177, 18, 1): 8759263.54799151
# (177, 18, 2): 6297411.939706352
# (177, 18, 3): 312799.4597063549
# (177, 19, 1): 11899828.669583764
# (177, 19, 2): 7963709.841779996
# (177, 19, 3): 0.0
# (177, 30, 1): 11342712.656259581
# (177, 30, 2): 8863948.610268727
# (177, 30, 3): 585119.9823527187
# -------------------------------------------
