### Additional Information to the goal services
# Basic costs on route 177: -24557010.72776732
# Direct costs (not staggered):
# For goal service 177:
# n_min: 2
# n_max: 3
# lowest costs of the goal service 177 with configuration (177, 19, 3) at 0.0
# (177, 18, 1): 7564818.518719941
# (177, 18, 2): 5438673.947928216
# (177, 18, 3): 270144.9879282117
# (177, 19, 1): 10277124.760095067
# (177, 19, 2): 6877749.408809997
# (177, 19, 3): 0.0
# (177, 30, 1): 9795979.11222418
# (177, 30, 2): 7655228.345232077
# (177, 30, 3): 505330.89385007694
# -------------------------------------------
