### Additional Information to the goal services
# Basic costs on route 177: -67208660.93915266
# Direct costs (not staggered):
# For goal service 177:
# n_min: 2
# n_max: 3
# lowest costs of the goal service 177 with configuration (177, 19, 3) at 0.0
# (177, 18, 1): 20703713.840707205
# (177, 18, 2): 14884791.85748776
# (177, 18, 3): 739344.1774877533
# (177, 19, 1): 28126867.764470726
# (177, 19, 2): 18823314.171479993
# (177, 19, 3): 0.0
# (177, 30, 1): 26810048.096613556
# (177, 30, 2): 20951151.260635182
# (177, 30, 3): 1383010.8673791736
# -------------------------------------------
