### Additional Information to the goal services
# Basic costs on route 177: 0
# Direct costs (not staggered): 0
# For goal service 177:
# n_min: 3
# n_max: 3
# K on service: {19}
# -------------------------------------------
