	Freetype 2.4.12 environment established
		library to render fonts
	Python 3.6.0 environment established
	Gurobi 8.1.0 environment established
Instance LSFRP: LSFDRP_1_3_0_1_fr.p
Instance LSFDP: LSFDRP_1_3_0_1_fd_43.p


*****************************************************************************************************************************
*** Solve LSFDRP_1_3_0_1_fd_43.p with matheuristics.
***  |
***  |- Create instance object for heuristic
***  |   |- Calculate demand structure for node flow model,		took 0.032948 sec.
***  |   |- Create additional vessel information,				took 0.000156 sec.
***  |
***  |   |- Create ranking for FDP solutions,				took 0.000188 sec.
***  |- Start solving instance with matheuristics, run 1
***  |   |- Create ranking for FDP solutions,				took 0.000168 sec.
***  |   |- Calculation finished,					took     2.74 sec.
***  |
***  |- Start solving instance with matheuristics, run 2
***  |   |- Create ranking for FDP solutions,				took  0.00039 sec.
***  |   |- Calculation finished,					took     2.64 sec.
***  |
***  |- Start solving instance with matheuristics, run 3
***  |   |- Create ranking for FDP solutions,				took 0.000151 sec.
***  |   |- Calculation finished,					took     2.72 sec.
***  |
***  |- Start solving instance with matheuristics, run 4
***  |   |- Create ranking for FDP solutions,				took 0.000141 sec.
***  |   |- Calculation finished,					took     2.76 sec.
***  |
***  |- Start solving instance with matheuristics, run 5
***  |   |- Create ranking for FDP solutions,				took 0.000158 sec.
***  |   |- Calculation finished,					took     2.69 sec.
***  |
***  |- Start solving instance with matheuristics, run 6
***  |   |- Create ranking for FDP solutions,				took  0.00014 sec.
***  |   |- Calculation finished,					took     2.67 sec.
***  |
***  |-----------------------------------------------------------------------------------------------------------------------
***
*****************************************************************************************************************************
###
###
#############################################################################################################################
### Solution run 1
#############################################################################################################################
###
### Results
###
### The objective of the solution is -740,614.3223 (-740614.3223)
###
### Service 121 (SAE) is operated by 2 vessels from type 30 (PMax35)
###  |
###  |- Vessel 12 has the path [8, 68, 0]
###  |  8 (BEANR Out@570) - 68 (HNPCR In@1166/Out@1179) - 0 (DUMMY_END Ziel-Service 121)
###  |
###  |- Vessel 18 has the path [54, 112, 108, 67, 0]
###  |  54 (GBFXT Out@470) - 112 (USORF In@873/Out@881) - 108 (USMIA In@935/Out@943) - 67 (HNPCR In@998/Out@1011) - 0 (DUMMY_
###  |  END Ziel-Service 121)
###  |   |- and carried Demand 54,  10.0 containers from 108 to 67
###  |   |- and carried Demand 55,  75.0 containers from 112 to 67
###  |   |- and carried Demand 56, 114.0 containers from 112 to 67
###  |
###  |
### Vessels not used in the solution: [1, 2, 3, 4, 5, 6, 7, 8, 9, 10, 11, 13, 14, 15, 16, 17]
###  |-----------------------------------------------------------------------------------------------------------------------
###
#############################################################################################################################
###
###
#############################################################################################################################
### Solution run 2
#############################################################################################################################
###
### Results
###
### The objective of the solution is -740,614.3223 (-740614.3223)
###
### Service 121 (SAE) is operated by 2 vessels from type 30 (PMax35)
###  |
###  |- Vessel 12 has the path [8, 68, 0]
###  |  8 (BEANR Out@570) - 68 (HNPCR In@1166/Out@1179) - 0 (DUMMY_END Ziel-Service 121)
###  |
###  |- Vessel 18 has the path [54, 112, 108, 67, 0]
###  |  54 (GBFXT Out@470) - 112 (USORF In@873/Out@881) - 108 (USMIA In@935/Out@943) - 67 (HNPCR In@998/Out@1011) - 0 (DUMMY_
###  |  END Ziel-Service 121)
###  |   |- and carried Demand 54,  10.0 containers from 108 to 67
###  |   |- and carried Demand 55,  75.0 containers from 112 to 67
###  |   |- and carried Demand 56, 114.0 containers from 112 to 67
###  |
###  |
### Vessels not used in the solution: [1, 2, 3, 4, 5, 6, 7, 8, 9, 10, 11, 13, 14, 15, 16, 17]
###  |-----------------------------------------------------------------------------------------------------------------------
###
#############################################################################################################################
###
###
#############################################################################################################################
### Solution run 3
#############################################################################################################################
###
### Results
###
### The objective of the solution is -740,614.3223 (-740614.3223)
###
### Service 121 (SAE) is operated by 2 vessels from type 30 (PMax35)
###  |
###  |- Vessel 12 has the path [8, 68, 0]
###  |  8 (BEANR Out@570) - 68 (HNPCR In@1166/Out@1179) - 0 (DUMMY_END Ziel-Service 121)
###  |
###  |- Vessel 18 has the path [54, 112, 108, 67, 0]
###  |  54 (GBFXT Out@470) - 112 (USORF In@873/Out@881) - 108 (USMIA In@935/Out@943) - 67 (HNPCR In@998/Out@1011) - 0 (DUMMY_
###  |  END Ziel-Service 121)
###  |   |- and carried Demand 54,  10.0 containers from 108 to 67
###  |   |- and carried Demand 55,  75.0 containers from 112 to 67
###  |   |- and carried Demand 56, 114.0 containers from 112 to 67
###  |
###  |
### Vessels not used in the solution: [1, 2, 3, 4, 5, 6, 7, 8, 9, 10, 11, 13, 14, 15, 16, 17]
###  |-----------------------------------------------------------------------------------------------------------------------
###
#############################################################################################################################
###
###
#############################################################################################################################
### Solution run 4
#############################################################################################################################
###
### Results
###
### The objective of the solution is -740,614.3223 (-740614.3223)
###
### Service 121 (SAE) is operated by 2 vessels from type 30 (PMax35)
###  |
###  |- Vessel 12 has the path [8, 68, 0]
###  |  8 (BEANR Out@570) - 68 (HNPCR In@1166/Out@1179) - 0 (DUMMY_END Ziel-Service 121)
###  |
###  |- Vessel 18 has the path [54, 112, 108, 67, 0]
###  |  54 (GBFXT Out@470) - 112 (USORF In@873/Out@881) - 108 (USMIA In@935/Out@943) - 67 (HNPCR In@998/Out@1011) - 0 (DUMMY_
###  |  END Ziel-Service 121)
###  |   |- and carried Demand 54,  10.0 containers from 108 to 67
###  |   |- and carried Demand 55,  75.0 containers from 112 to 67
###  |   |- and carried Demand 56, 114.0 containers from 112 to 67
###  |
###  |
### Vessels not used in the solution: [1, 2, 3, 4, 5, 6, 7, 8, 9, 10, 11, 13, 14, 15, 16, 17]
###  |-----------------------------------------------------------------------------------------------------------------------
###
#############################################################################################################################
###
###
#############################################################################################################################
### Solution run 5
#############################################################################################################################
###
### Results
###
### The objective of the solution is -740,614.3223 (-740614.3223)
###
### Service 121 (SAE) is operated by 2 vessels from type 30 (PMax35)
###  |
###  |- Vessel 12 has the path [8, 68, 0]
###  |  8 (BEANR Out@570) - 68 (HNPCR In@1166/Out@1179) - 0 (DUMMY_END Ziel-Service 121)
###  |
###  |- Vessel 18 has the path [54, 112, 108, 67, 0]
###  |  54 (GBFXT Out@470) - 112 (USORF In@873/Out@881) - 108 (USMIA In@935/Out@943) - 67 (HNPCR In@998/Out@1011) - 0 (DUMMY_
###  |  END Ziel-Service 121)
###  |   |- and carried Demand 54,  10.0 containers from 108 to 67
###  |   |- and carried Demand 55,  75.0 containers from 112 to 67
###  |   |- and carried Demand 56, 114.0 containers from 112 to 67
###  |
###  |
### Vessels not used in the solution: [1, 2, 3, 4, 5, 6, 7, 8, 9, 10, 11, 13, 14, 15, 16, 17]
###  |-----------------------------------------------------------------------------------------------------------------------
###
#############################################################################################################################
###
###
#############################################################################################################################
### Solution run 6
#############################################################################################################################
###
### Results
###
### The objective of the solution is -740,614.3223 (-740614.3223)
###
### Service 121 (SAE) is operated by 2 vessels from type 30 (PMax35)
###  |
###  |- Vessel 12 has the path [8, 68, 0]
###  |  8 (BEANR Out@570) - 68 (HNPCR In@1166/Out@1179) - 0 (DUMMY_END Ziel-Service 121)
###  |
###  |- Vessel 18 has the path [54, 112, 108, 67, 0]
###  |  54 (GBFXT Out@470) - 112 (USORF In@873/Out@881) - 108 (USMIA In@935/Out@943) - 67 (HNPCR In@998/Out@1011) - 0 (DUMMY_
###  |  END Ziel-Service 121)
###  |   |- and carried Demand 54,  10.0 containers from 108 to 67
###  |   |- and carried Demand 55,  75.0 containers from 112 to 67
###  |   |- and carried Demand 56, 114.0 containers from 112 to 67
###  |
###  |
### Vessels not used in the solution: [1, 2, 3, 4, 5, 6, 7, 8, 9, 10, 11, 13, 14, 15, 16, 17]
###  |-----------------------------------------------------------------------------------------------------------------------
###
#############################################################################################################################
+++++++++++++++++++++++++++++++++++++++++++++++++++++++++++++++++++++++++++++++++++++++++++++++++++++++++++++++++++++++++++++
+++
+++ The average objective is -740,614.3223 (-740614.3223)
+++
+++++++++++++++++++++++++++++++++++++++++++++++++++++++++++++++++++++++++++++++++++++++++++++++++++++++++++++++++++++++++++++

real	0m18.798s
user	0m20.082s
sys	0m0.741s
	Freetype 2.4.12 environment removed
	Python 3.6.0 environment removed
	Gurobi 8.1.0 environment removed
