	Freetype 2.4.12 environment established
		library to render fonts
	Python 3.6.0 environment established
	Gurobi 8.1.0 environment established
Instance LSFRP: LSFDRP_2_1_0_0_fr.p
Instance LSFDP: LSFDRP_2_1_0_0_fd_13.p

*****************************************************************************************************************************
*** Solve LSFDRP_2_1_0_0_fd_13 with Gurobi
***
*** Graph info
*** |S|: 18
*** |S^E|: 0
*** |S^C|: 0
*** |V|: 296
*** |A|: 8235
*** |A^i|: 8184
*** |A^f|: 51
*** |M|: 146
*** |E|: 22

Changed value of parameter TimeLimit to 86400.0
   Prev: 1e+100  Min: 0.0  Max: 1e+100  Default: 1e+100
Changed value of parameter Threads to 4
   Prev: 0  Min: 0  Max: 1024  Default: 0
Optimize a model with 69438 rows, 1368547 columns and 5144583 nonzeros
Variable types: 1220290 continuous, 148257 integer (148257 binary)
Coefficient statistics:
  Matrix range     [1e+00, 4e+03]
  Objective range  [2e+00, 1e+07]
  Bounds range     [1e+00, 1e+00]
  RHS range        [1e+00, 4e+03]
Presolve removed 37552 rows and 1028387 columns (presolve time = 5s) ...
Presolve removed 41814 rows and 1071317 columns (presolve time = 11s) ...
Presolve removed 41814 rows and 1071488 columns (presolve time = 54s) ...
Presolve removed 42035 rows and 1071493 columns (presolve time = 55s) ...
Warning: Failed to open log file 'gurobi.log'
Presolve removed 42349 rows and 1072425 columns (presolve time = 130s) ...
Presolve removed 42349 rows and 1072425 columns
Presolve time: 129.72s
Presolved: 27089 rows, 296122 columns, 1304258 nonzeros
Variable types: 147955 continuous, 148167 integer (148119 binary)

Deterministic concurrent LP optimizer: primal and dual simplex
Showing first log only...


Root simplex log...

Iteration    Objective       Primal Inf.    Dual Inf.      Time
       0   -0.0000000e+00   4.000000e+00   4.300369e+07    134s
   12179   -1.2256247e+07   0.000000e+00   2.756479e+09    135s
   25203   -1.7229223e+06   0.000000e+00   1.824678e+11    140s
   35857   -1.0022173e+05   0.000000e+00   1.372081e+10    145s
   47194    1.7600260e+06   0.000000e+00   1.971667e+10    150s
Concurrent spin time: 0.01s

Solved with dual simplex

Root relaxation: objective 7.369145e+06, 18690 iterations, 19.13 seconds

    Nodes    |    Current Node    |     Objective Bounds      |     Work
 Expl Unexpl |  Obj  Depth IntInf | Incumbent    BestBd   Gap | It/Node Time

     0     0 7367828.10    0  160          - 7367828.10      -     -  156s
     0     0 6741370.28    0  149          - 6741370.28      -     -  171s
H    0     0                    -4711185.836 6741370.28   243%     -  172s
     0     0 6625373.49    0  153 -4711185.8 6625373.49   241%     -  175s
     0     0 6483790.53    0  228 -4711185.8 6483790.53   238%     -  195s
     0     0 6482690.07    0  233 -4711185.8 6482690.07   238%     -  197s
     0     0 6482063.43    0  232 -4711185.8 6482063.43   238%     -  197s
     0     0 6481486.34    0  234 -4711185.8 6481486.34   238%     -  198s
     0     0 6481456.62    0  234 -4711185.8 6481456.62   238%     -  199s
     0     0 6373012.59    0  267 -4711185.8 6373012.59   235%     -  219s
H    0     0                    -4661548.836 6373012.59   237%     -  219s
H    0     0                    -3789472.836 6373012.59   268%     -  221s
     0     0 6367258.91    0  270 -3789472.8 6367258.91   268%     -  222s
     0     0 6367258.91    0  271 -3789472.8 6367258.91   268%     -  223s
     0     0 6109754.59    0  241 -3789472.8 6109754.59   261%     -  234s
H    0     0                    -318889.4559 6109754.59  2016%     -  235s
     0     0 6106836.21    0  247 -318889.46 6106836.21  2015%     -  238s
     0     0 6106519.96    0  249 -318889.46 6106519.96  2015%     -  239s
     0     0 6105965.07    0  238 -318889.46 6105965.07  2015%     -  240s
     0     0 6105964.19    0  238 -318889.46 6105964.19  2015%     -  240s
     0     0 6098516.63    0  249 -318889.46 6098516.63  2012%     -  244s
     0     0 6095817.51    0  259 -318889.46 6095817.51  2012%     -  246s
     0     0 6095581.30    0  257 -318889.46 6095581.30  2012%     -  247s
     0     0 6090679.26    0  251 -318889.46 6090679.26  2010%     -  248s
     0     0 6090575.32    0  252 -318889.46 6090575.32  2010%     -  248s
     0     0 6090554.65    0  263 -318889.46 6090554.65  2010%     -  251s
     0     0 6090554.65    0  263 -318889.46 6090554.65  2010%     -  253s
     0     0 6090553.16    0  263 -318889.46 6090553.16  2010%     -  255s
     0     0 6090553.16    0  256 -318889.46 6090553.16  2010%     -  299s
H    0     0                    1278275.5441 6090553.16   376%     -  310s
     0     2 6090553.16    0  256 1278275.54 6090553.16   376%     -  315s
     1     2 6081239.43    1  323 1278275.54 6081239.43   376%   959  358s
     3     4 6074446.00    2  317 1278275.54 6074446.00   375%   392  371s
     5     6 6037695.61    3  236 1278275.54 6037695.61   372%   793  425s
     9     9 6026659.73    4  191 1278275.54 6037695.61   372%  2801  508s
    13    12 6006180.19    5  231 1278275.54 6037695.61   372%  3200  895s
    17    14 6000974.47    6  216 1278275.54 6037695.61   372%  5871  924s
    21    18 5997247.10    7  235 1278275.54 6037695.61   372%  4910  983s
    28    23 5983921.17    9  207 1278275.54 6037695.61   372%  4128 1019s
    33    25 5969315.49   10  190 1278275.54 6037695.61   372%  3951 1047s
    38    32 5869378.55   11  232 1278275.54 6037695.61   372%  3852 1073s
    42    33 5634659.59   12  164 1278275.54 6037695.61   372%  4359 1202s
    50    39 5579898.43   13  209 1278275.54 6037695.61   372%  3905 1244s
H   59    50                    1392619.6574 6037695.61   334%  3459 1328s
    65    49 5557268.98   15  176 1392619.66 6037695.61   334%  3412 1393s
    75    59 5551350.70   16  166 1392619.66 6037695.61   334%  3135 3885s
    86    68 5387130.07   18  117 1392619.66 6037695.61   334%  6269 4097s
    96    71     cutoff   18      1392619.66 6037695.61   334%  5688 4367s
   112    83 5217184.04   23  106 1392619.66 6037695.61   334%  5097 4424s
   132    91 4590110.96   28  100 1392619.66 6037695.61   334%  4450 4483s
   151   103 4472143.49   30   95 1392619.66 6037695.61   334%  3986 4525s
   173   114 3097478.93   36   78 1392619.66 6037695.61   334%  3594 4627s
   195   130 infeasible   42      1392619.66 6026659.73   333%  3394 4684s
   219   143 1902709.29   49   53 1392619.66 6026659.73   333%  3091 4751s
H  245   155                    1392619.6815 5996672.79   331%  2905 5240s
H  248   157                    1392619.7009 5996672.79   331%  2953 5240s
   250   155 3123882.35   10  143 1392619.70 5996672.79   331%  2958 5321s
   279   169 infeasible    8      1392619.70 5996672.79   331%  2814 5374s
   319   186 1837475.10   15   81 1392619.70 5996672.79   331%  2602 5447s
   341   193 1810850.37   20   75 1392619.70 5994264.27   330%  2550 5506s
   364   199 infeasible    9      1392619.70 5994264.27   330%  2507 5572s
   399   218 5609234.53   14  147 1392619.70 5839527.61   319%  2414 5630s
   429   247 5185923.04   19  120 1392619.70 5839527.61   319%  2354 5683s
   477   281 4505834.63   30  118 1392619.70 5839527.61   319%  2193 5848s
   523   317 4337626.36   44  117 1392619.70 5839527.61   319%  2080 6070s
   578   362 3756020.30   58  107 1392619.70 5839527.61   319%  2001 6189s
   626   400 3407647.05   64  100 1392619.70 5839527.61   319%  1895 6234s
   754   490 infeasible   91      1392619.70 5839527.61   319%  1620 6286s
   856   554 5075041.84    9  186 1392619.70 5774339.52   315%  1494 6410s
   923   581 4527121.64   12  120 1392619.70 5774339.52   315%  1443 6481s
  1015   647 infeasible   15      1392619.70 5774339.52   315%  1360 6634s
  1107   728 3404955.36    6  256 1392619.70 5774339.52   315%  1317 6854s
  1109   729 4220272.40   30  148 1392619.70 5342615.33   284%  1315 6884s
  1110   730 4098801.23   27  108 1392619.70 5294040.35   280%  1313 6895s
  1114   733 2234976.64   72  134 1392619.70 5276402.27   279%  1309 6903s
  1115   733 2055562.56   31  205 1392619.70 5273406.47   279%  1307 6913s
  1116   734 4713506.70   22  222 1392619.70 5254127.20   277%  1306 6917s
  1119   736 3249550.39   68  154 1392619.70 5231218.34   276%  1303 6920s
  1120   737 3243396.96   10  162 1392619.70 5230729.85   276%  1302 6925s
  1121   737 2564789.73   24  142 1392619.70 5225275.89   275%  1300 6933s
  1123   739 3297002.84   51  179 1392619.70 5217960.20   275%  1298 6935s
  1124   739 4121595.69   25  185 1392619.70 5217298.56   275%  1297 6940s
  1125   740 2485272.22   28  187 1392619.70 5213001.82   274%  1296 6951s
  1128   742 5196342.86   17  269 1392619.70 5196342.86   273%  1292 6963s
  1130   743 2947440.48    9  278 1392619.70 5191580.09   273%  1290 6966s
  1131   744 2917970.70   13  274 1392619.70 5190054.97   273%  1289 6973s
  1132   745 4608867.09   25  302 1392619.70 5173973.45   272%  1288 6994s
  1133   745 2569689.31   21  230 1392619.70 5163024.85   271%  1287 6997s
  1135   747 2916014.65   37  254 1392619.70 5159873.39   271%  1284 7003s
  1136   747 4104007.10   23  249 1392619.70 5156991.73   270%  1283 7016s
  1138   749 2539781.18   37  255 1392619.70 5151405.27   270%  1281 7020s
  1140   750 5148406.04   23  300 1392619.70 5148406.04   270%  1279 7027s
  1141   751 2040979.11   84  311 1392619.70 5130814.15   268%  1278 7040s
  1143   752 2204594.90   28  279 1392619.70 5127340.51   268%  1275 7047s
  1144   753 2432195.82   33  299 1392619.70 5124692.18   268%  1274 7059s
  1145   753 2116574.46   89  285 1392619.70 5123455.82   268%  1273 7065s
H 1145   714                    1393244.4478 5123455.82   268%  1273 7072s
  1146   715 4702140.42   26  299 1393244.45 5113666.33   267%  1272 7078s
  1147   716 1693339.50   38  307 1393244.45 5112974.17   267%  1271 7084s
H 1147   680                    1393244.4482 5112974.17   267%  1271 7090s
  1148   680 4123387.39   16  318 1393244.45 5109513.55   267%  1270 7116s
  1149   681 1817926.57   30  317 1393244.45 5109513.55   267%  1269 7122s
H 1149   646                    1515699.1936 5109513.55   237%  1269 7147s
  1151   650 5107083.02   15  307 1515699.19 5108788.52   237%  1324 7210s
  1153   654 5100129.96   16  251 1515699.19 5100129.96   236%  1324 7287s
  1157   656 5052921.08   17  289 1515699.19 5067298.62   234%  1339 7341s
  1161   659 4760417.89   17  273 1515699.19 5046762.49   233%  1344 7366s
  1165   662 4759590.24   18  250 1515699.19 5046762.49   233%  1353 7384s
  1169   664 4468476.92   18  157 1515699.19 5046762.49   233%  1366 7410s
  1173   667 4734219.69   19  183 1515699.19 5045439.06   233%  1374 7429s
  1177   667 4692919.26   19  252 1515699.19 5045439.06   233%  1383 7454s
  1182   670 4727512.36   20  179 1515699.19 5013066.11   231%  1391 7502s
  1189   673 4703866.50   21  180 1515699.19 5006800.05   230%  1419 7521s
  1195   679 4701876.17   22  185 1515699.19 5006800.05   230%  1430 7564s
  1202   683 4699254.90   23  184 1515699.19 5002641.05   230%  1457 7581s
  1209   688 4646315.00   24  189 1515699.19 4998056.62   230%  1468 7608s
  1216   692 4635527.20   25  187 1515699.19 4998056.62   230%  1484 7623s
  1229   701 4627919.35   27  170 1515699.19 4998056.62   230%  1486 7652s
  1240   706 4624118.78   28  172 1515699.19 4998056.62   230%  1502 7700s
  1249   712 4501629.78   29  164 1515699.19 4998056.62   230%  1527 7732s
  1258   722 4580687.06   29  170 1515699.19 4998056.62   230%  1548 7757s
  1268   723 4267395.21   32  162 1515699.19 4998056.62   230%  1569 7775s
  1281   736 3864698.12   32  140 1515699.19 4998056.62   230%  1573 7802s
H 1287   707                    1515699.1938 4998056.62   230%  1579 7802s
  1296   712 2915639.42   33   97 1515699.19 4998056.62   230%  1587 7842s
  1313   724 4251385.75   34  159 1515699.19 4998056.62   230%  1605 7880s
  1327   722 4240776.42   35  162 1515699.19 4998056.62   230%  1630 7901s
  1346   731 4224021.39   36  132 1515699.19 4998056.62   230%  1637 7921s
  1366   738 4214450.48   37  129 1515699.19 4998056.62   230%  1640 7953s
  1379   746 4189348.19   38  129 1515699.19 4982125.87   229%  1657 7975s
  1398   763 3687672.76   39  158 1515699.19 4982125.87   229%  1669 8001s
  1417   770 4130469.46   41  115 1515699.19 4982125.87   229%  1683 8048s
  1437   783 4057168.46   42  117 1515699.19 4982125.87   229%  1689 8073s
  1461   795 2902845.34   45  103 1515699.19 4982125.87   229%  1702 8097s
  1499   823 2359485.62   47   84 1515699.19 4982125.87   229%  1709 8125s
  1538   831 3460278.30   50  103 1515699.19 4982125.87   229%  1715 8158s
  1575   841 3445876.60   52  107 1515699.19 4982125.87   229%  1704 8198s
  1620   861 3357583.60   55   85 1515699.19 4972038.08   228%  1706 8235s
  1658   873 3321002.53   59   91 1515699.19 4972038.08   228%  1712 8292s
  1694   892 3222713.56   65   98 1515699.19 4972038.08   228%  1716 8323s
  1735   918 3081745.83   69  102 1515699.19 4972038.08   228%  1722 8351s
  1800   947 3129465.17   76   79 1515699.19 4972038.08   228%  1693 8379s
  1860   971 3054016.26   84   90 1515699.19 4972038.08   228%  1672 8418s
  1919   996 3002097.09   90   92 1515699.19 4972038.08   228%  1653 8460s
  2001  1030 2127099.34  107   78 1515699.19 4943511.41   226%  1614 8506s
  2121  1063 2202461.99   43   98 1515699.19 4935910.82   226%  1561 8543s
  2193  1089 2568243.28   22  115 1515699.19 4926199.23   225%  1548 8581s
  2232  1108 2485151.08   26  131 1515699.19 4926199.23   225%  1554 8616s
  2311  1147 2201764.96   35  127 1515699.19 4860188.31   221%  1534 8652s
  2363  1157 4486496.71   23  174 1515699.19 4860188.31   221%  1537 8688s
  2470  1210 3455420.86   34   94 1515699.19 4848844.46   220%  1501 8779s
  2591  1275 3884146.20   26  125 1515699.19 4847479.89   220%  1495 9434s
  2675  1304 3471608.91   41  102 1515699.19 4847479.89   220%  1544 9477s
  2869  1405 2016134.57  118   44 1515699.19 4806371.02   217%  1477 9519s
  3036  1492 2411010.23   42   64 1515699.19 4744795.31   213%  1438 9581s
  3130  1577 2134788.77   29   89 1515699.19 4731876.39   212%  1428 9776s
H 3174  1601                    1553249.9853 4731876.39   205%  1415 9776s
  3199  1613 4024026.20   23   93 1553249.99 4715264.70   204%  1407 9830s
  3369  1728 3253730.17   38  108 1553249.99 4692882.53   202%  1371 10061s
  3418  1749 2975671.94   50   53 1553249.99 4692554.03   202%  1369 10118s
  3641  1937 4487756.90   27  198 1553249.99 4672364.87   201%  1318 10250s
  3791  2052 3448908.70   43  127 1553249.99 4664461.29   200%  1310 10311s
  3979  2204 3767890.53   42  134 1553249.99 4661312.93   200%  1290 10377s
  4190  2355 3419184.87   37   94 1553249.99 4635519.21   198%  1267 10476s
  4279  2422 2345156.97   42   62 1553249.99 4625950.57   198%  1275 10540s
  4459  2550 3367026.99   33  154 1553249.99 4625950.57   198%  1268 10614s
  4583  2658 2615125.69   80  101 1553249.99 4620942.27   198%  1267 10685s
  4830  2858 4044967.16   28  187 1553249.99 4608620.44   197%  1241 10764s
H 4966  2826                    1698534.9275 4607010.22   171%  1225 10764s
H 5094  2983                    1698534.9286 4606091.87   171%  1216 10837s
H 5265  3103                    1698534.9292 4602915.66   171%  1199 10837s
  5386  3177 4477688.24   25  185 1698534.93 4580687.06   170%  1192 10936s
  5660  3377 4466663.94   26  181 1698534.93 4569926.08   169%  1173 11027s
H 5829  3507                    1698534.9301 4564497.40   169%  1175 11109s
  6003  3645 4076369.52   29  188 1698534.93 4549771.47   168%  1179 11197s
H 6106  3740                    1698534.9306 4549771.47   168%  1181 11197s
  6107  3733 3377161.34   32  135 1698534.93 4545191.64   168%  1182 11328s
  6285  3867 3330881.19   43   90 1698534.93 4537003.57   167%  1187 11436s
  6691  4170 3130511.07   31  131 1698534.93 4525894.70   166%  1157 11543s
  6991  4405 4335060.78   33  176 1698534.93 4517977.31   166%  1153 11653s
  7383  4675 3782224.38   33  139 1698534.93 4501214.23   165%  1138 11791s
  7643  4875 2468011.49   32  127 1698534.93 4492535.99   164%  1139 11900s
  7859  5031 3100943.96   35  118 1698534.93 4486723.54   164%  1136 12031s
  8080  5178 3024824.35   35  101 1698534.93 4484201.21   164%  1132 12158s
  8441  5461 2352593.33   91   88 1698534.93 4476595.52   164%  1117 12298s
  8602  5579 4108171.60   26  135 1698534.93 4473664.25   163%  1111 12506s
  8960  5838 3098099.36   33  118 1698534.93 4466514.76   163%  1100 12637s
  9432  6213 2370713.97   28  169 1698534.93 4452112.30   162%  1085 12771s
  9878  6526 3676180.71   38   86 1698534.93 4449847.80   162%  1075 12925s
 10232  6773 1724191.29   69  256 1698534.93 4449847.80   162%  1076 13085s

Explored 10242 nodes (11068026 simplex iterations) in 13089.37 seconds
Thread count was 4 (of 16 available processors)

Solution count 10: 1.69853e+06 1.69853e+06 1.69853e+06 ... 1.39324e+06
No other solutions better than 1.69853e+06

Optimal solution found (tolerance 1.00e-04)
Best objective 1.698534930605e+06, best bound 1.698534930605e+06, gap 0.0000%

***
***  |- Calculation finished, took 13,089.39 (13089.39) sec.
***  |-----------------------------------------------------------------------------------------------------------------------
***
*****************************************************************************************************************************
#############################################################################################################################
###
### Results
###
### The objective of the solution is 1,698,534.9306 (1698534.9306) and is feasible with a Gap of 0.0
###
### Service 24 (WAF7) is operated by 3 vessels from type 18 (PMax25)
###  |- Vessel  1 has the path [100, 276, -1]
###  |  100 (DEHAM Out@288.0) - 276 (ESALG In@496.0/Out@515.0) - -1 (DUMMY_END Ziel-Service 24)
###  |- Vessel  2 has the path [101, 277, -1]
###  |  101 (DEHAM Out@456.0) - 277 (ESALG In@664.0/Out@683.0) - -1 (DUMMY_END Ziel-Service 24)
###  |- Vessel 13 has the path [104, 275, 201, 291, 202, 114, 278, -1]
###  |  104 (DKAAR Out@220.0) - 275 (ESALG In@328.0/Out@347.0) - 201 (MAPTM In@375.0/Out@396.0) - 291 (MAPTM In@379.0/Out@398
###  |  .0) - 202 (MAPTM In@406.0/Out@427.0) - 114 (ESALG In@452.0/Out@464.0) - 278 (ESALG In@832.0/Out@851.0) - -1 (DUMMY_EN
###  |  D Ziel-Service 24)
###  |   |- and carried Demand  17,  484.0 containers from 201 to 114
###  |   |- and carried Demand  18,   18.0 containers from 201 to 114
###  |   |- and carried Demand  52,  312.0 containers from 202 to 114
###  |   |- and carried Demand  53,   18.0 containers from 202 to 114
###  |   |- and carried Demand 119,  214.0 containers from 201 to 278
###  |   |- and carried Demand 120,   10.0 containers from 201 to 278
###  |   |- and carried Demand 121,  484.0 containers from 201 to 114
###  |   |- and carried Demand 122,   18.0 containers from 201 to 114
###  |   |- and carried Demand 132,  214.0 containers from 202 to 278
###  |   |- and carried Demand 133,   10.0 containers from 202 to 278
###  |   |- and carried Demand 134,  484.0 containers from 202 to 114
###  |   |- and carried Demand 135,   18.0 containers from 202 to 114
###  |   |- and carried Demand 138,  214.0 containers from 291 to 278
###  |   |- and carried Demand 139,   10.0 containers from 291 to 278
###  |   |- and carried Demand 141,   18.0 containers from 291 to 114
###  |
### Service 177 (WCSA) is operated by 3 vessels from type 19 (PMax28)
###  |- Vessel  5 has the path [218, 133, 199, 290, 200, 112, 284, 45, 36, 240, 236, 0]
###  |  218 (NLRTM Out@92.0) - 133 (FRLEH In@111.0/Out@127.0) - 199 (MAPTM In@207.0/Out@228.0) - 290 (MAPTM In@211.0/Out@230.
###  |  0) - 200 (MAPTM In@238.0/Out@259.0) - 112 (ESALG In@284.0/Out@296.0) - 284 (GWOXB In@463.0/Out@542.0) - 45 (CMDLA In@
###  |  765.0/Out@811.0) - 36 (CLLQN In@1240.0/Out@1258.0) - 240 (PECLL In@1398.71/Out@1400.71) - 236 (PABLB In@1640.0/Out@16
###  |  52.0) - 0 (DUMMY_END Ziel-Service 177)
###  |   |- and carried Demand   6,   17.0 containers from 218 to 133
###  |   |- and carried Demand   7,  161.0 containers from 199 to  45
###  |   |- and carried Demand   8,  580.0 containers from 199 to 112
###  |   |- and carried Demand  45,  161.0 containers from 200 to  45
###  |   |- and carried Demand  46,   19.0 containers from 200 to 112
###  |   |- and carried Demand  80,  194.0 containers from  36 to 236
###  |   |- and carried Demand  81,   20.0 containers from  36 to 236
###  |   |- and carried Demand  83,    5.0 containers from  36 to 236
###  |   |- and carried Demand 117,  580.0 containers from 199 to 112
###  |   |- and carried Demand 131,  580.0 containers from 200 to 112
###  |   |- and carried Demand 144,  161.0 containers from 290 to  45
###  |   |- and carried Demand 145,  580.0 containers from 290 to 112
###  |- Vessel  7 has the path [221, 137, 203, 234, 0]
###  |  221 (NLRTM Out@428.0) - 137 (FRLEH In@447.0/Out@463.0) - 203 (MAPTM In@543.0/Out@564.0) - 234 (PABLB In@1304.0/Out@13
###  |  16.0) - 0 (DUMMY_END Ziel-Service 177)
###  |   |- and carried Demand  26,    6.0 containers from 221 to 137
###  |- Vessel  8 has the path [223, 138, 204, 235, 0]
###  |  223 (NLRTM Out@596.0) - 138 (FRLEH In@615.0/Out@631.0) - 204 (MAPTM In@711.0/Out@732.0) - 235 (PABLB In@1472.0/Out@14
###  |  84.0) - 0 (DUMMY_END Ziel-Service 177)
###  |
### Vessels not used in the solution: [3, 4, 6, 9, 10, 11, 12, 14, 15, 16, 17, 18]
###  |-----------------------------------------------------------------------------------------------------------------------
###
#############################################################################################################################

### Detialed variable overview

### All variables with value greater zero:
rho[24,18] = 1
rho[177,19] = 1
eta[24,18,1] = 1
eta[24,18,2] = 1
eta[24,18,3] = 1
eta[177,19,1] = 1
eta[177,19,2] = 1
eta[177,19,3] = 1
y[1,276,-1] = 1
y[1,100,276] = 1
y[2,101,277] = 1
y[2,277,-1] = 1
y[5,200,112] = 1
y[5,290,200] = 1
y[5,240,236] = 1
y[5,133,199] = 1
y[5,199,290] = 1
y[5,45,36] = 1
y[5,218,133] = 1
y[5,36,240] = 1
y[5,284,45] = 1
y[5,236,0] = 1
y[5,112,284] = 1
y[7,234,0] = 1
y[7,137,203] = 1
y[7,203,234] = 1
y[7,221,137] = 1
y[8,235,0] = 1
y[8,204,235] = 1
y[8,223,138] = 1
y[8,138,204] = 1
y[13,104,275] = 1
y[13,275,201] = 1
y[13,291,202] = 1
y[13,114,278] = 1
y[13,202,114] = 1
y[13,278,-1] = 1
y[13,201,291] = 1
xD[6,218,133] = 17
xD[7,200,112] = 161
xD[7,290,200] = 161
xD[7,199,290] = 161
xD[7,284,45] = 161
xD[7,112,284] = 161
xD[8,200,112] = 580
xD[8,290,200] = 580
xD[8,199,290] = 580
xD[17,291,202] = 484
xD[17,202,114] = 484
xD[17,201,291] = 484
xD[18,291,202] = 18
xD[18,202,114] = 18
xD[18,201,291] = 18
xD[26,221,137] = 6
xD[45,200,112] = 161
xD[45,284,45] = 161
xD[45,112,284] = 161
xD[46,200,112] = 19
xD[52,202,114] = 312
xD[53,202,114] = 18
xD[80,240,236] = 194
xD[80,36,240] = 194
xD[81,240,236] = 20
xD[81,36,240] = 20
xD[83,240,236] = 5
xD[83,36,240] = 5
xD[117,200,112] = 580
xD[117,290,200] = 580
xD[117,199,290] = 580
xD[119,291,202] = 214
xD[119,114,278] = 214
xD[119,202,114] = 214
xD[119,201,291] = 214
xD[120,291,202] = 10
xD[120,114,278] = 10
xD[120,202,114] = 10
xD[120,201,291] = 10
xD[121,291,202] = 484
xD[121,202,114] = 484
xD[121,201,291] = 484
xD[122,291,202] = 18
xD[122,202,114] = 18
xD[122,201,291] = 18
xD[131,200,112] = 580
xD[132,114,278] = 214
xD[132,202,114] = 214
xD[133,114,278] = 10
xD[133,202,114] = 10
xD[134,202,114] = 484
xD[135,202,114] = 18
xD[138,291,202] = 214
xD[138,114,278] = 214
xD[138,202,114] = 214
xD[139,291,202] = 10
xD[139,114,278] = 10
xD[139,202,114] = 10
xD[141,291,202] = 18
xD[141,202,114] = 18
xD[144,200,112] = 161
xD[144,290,200] = 161
xD[144,284,45] = 161
xD[144,112,284] = 161
xD[145,200,112] = 580
xD[145,290,200] = 580
zE[36] = 1240
zE[45] = 765
zE[112] = 284
zE[114] = 452
zE[133] = 111
zE[137] = 447
zE[138] = 615
zE[199] = 207
zE[200] = 238
zE[201] = 375
zE[202] = 406
zE[203] = 543
zE[204] = 711
zE[234] = 1304
zE[235] = 1472
zE[236] = 1640
zE[240] = 1398.71
zE[275] = 328
zE[276] = 496
zE[277] = 664
zE[278] = 832
zE[284] = 463
zE[290] = 211
zE[291] = 379
zX[36] = 1258
zX[45] = 811
zX[100] = 288
zX[101] = 456
zX[104] = 220
zX[112] = 296
zX[114] = 464
zX[133] = 127
zX[137] = 463
zX[138] = 631
zX[199] = 228
zX[200] = 259
zX[201] = 396
zX[202] = 427
zX[203] = 564
zX[204] = 732
zX[218] = 92
zX[221] = 428
zX[223] = 596
zX[234] = 1316
zX[235] = 1484
zX[236] = 1652
zX[240] = 1400.71
zX[275] = 347
zX[276] = 515
zX[277] = 683
zX[278] = 851
zX[284] = 542
zX[290] = 230
zX[291] = 398
w[5,(240,236)] = 125.884
w[5,(36,240)] = 140.711
phi[1] = 227
phi[2] = 227
phi[5] = 1560
phi[7] = 888
phi[8] = 888
phi[13] = 631

### All variables with value smaller zero:

### End

real	219m36.881s
user	789m15.163s
sys	80m9.074s
	Freetype 2.4.12 environment removed
	Python 3.6.0 environment removed
	Gurobi 8.1.0 environment removed
