	Freetype 2.4.12 environment established
		library to render fonts
	Python 3.6.0 environment established
	Gurobi 8.1.0 environment established
Instance LSFRP: LSFDRP_2_1_0_0_fr.p
Instance LSFDP: LSFDRP_2_1_0_0_fd_19.p

*****************************************************************************************************************************
*** Solve LSFDRP_2_1_0_0_fd_19 with Gurobi
***
*** Graph info
*** |S|: 18
*** |S^E|: 0
*** |S^C|: 0
*** |V|: 296
*** |A|: 8235
*** |A^i|: 8184
*** |A^f|: 51
*** |M|: 146
*** |E|: 22

Changed value of parameter TimeLimit to 86400.0
   Prev: 1e+100  Min: 0.0  Max: 1e+100  Default: 1e+100
Changed value of parameter Threads to 4
   Prev: 0  Min: 0  Max: 1024  Default: 0
Optimize a model with 69438 rows, 1368547 columns and 5144583 nonzeros
Variable types: 1220290 continuous, 148257 integer (148257 binary)
Coefficient statistics:
  Matrix range     [1e+00, 4e+03]
  Objective range  [2e+00, 1e+07]
  Bounds range     [1e+00, 1e+00]
  RHS range        [1e+00, 4e+03]
Presolve removed 37440 rows and 1028387 columns (presolve time = 5s) ...
Presolve removed 41810 rows and 1071313 columns (presolve time = 10s) ...
Presolve removed 41814 rows and 1071488 columns (presolve time = 55s) ...
Warning: Failed to open log file 'gurobi.log'
Presolve removed 42349 rows and 1072425 columns (presolve time = 125s) ...
Presolve removed 42349 rows and 1072425 columns
Presolve time: 124.57s
Presolved: 27089 rows, 296122 columns, 1304258 nonzeros
Variable types: 147955 continuous, 148167 integer (148119 binary)

Deterministic concurrent LP optimizer: primal and dual simplex
Showing first log only...


Root simplex log...

Iteration    Objective       Primal Inf.    Dual Inf.      Time
       0   -0.0000000e+00   4.000000e+00   3.892983e+07    129s
   11149   -1.5349660e+07   0.000000e+00   6.412815e+09    130s
   25189   -1.1505164e+06   0.000000e+00   1.260997e+11    135s
   36404   -4.2617662e+05   0.000000e+00   8.300950e+11    140s
   47861    1.7493390e+06   0.000000e+00   1.129319e+10    145s
Concurrent spin time: 0.00s

Solved with dual simplex

Root relaxation: objective 7.338578e+06, 21096 iterations, 21.75 seconds

    Nodes    |    Current Node    |     Objective Bounds      |     Work
 Expl Unexpl |  Obj  Depth IntInf | Incumbent    BestBd   Gap | It/Node Time

     0     0 7337261.29    0  163          - 7337261.29      -     -  154s
     0     0 6595054.97    0  139          - 6595054.97      -     -  170s
H    0     0                    -7042427.505 6595054.97   194%     -  171s
     0     0 6466414.18    0  139 -7042427.5 6466414.18   192%     -  173s
     0     0 6466414.18    0  140 -7042427.5 6466414.18   192%     -  174s
     0     0 6268857.68    0  158 -7042427.5 6268857.68   189%     -  194s
     0     0 6266263.82    0  169 -7042427.5 6266263.82   189%     -  200s
     0     0 6263362.28    0  164 -7042427.5 6263362.28   189%     -  201s
     0     0 6229189.92    0  225 -7042427.5 6229189.92   188%     -  209s
H    0     0                    -7011646.505 6229189.92   189%     -  210s
H    0     0                    -6144794.504 6229189.92   201%     -  212s
     0     0 6223720.75    0  233 -6144794.5 6223720.75   201%     -  214s
     0     0 6222452.83    0  237 -6144794.5 6222452.83   201%     -  216s
     0     0 6222452.83    0  237 -6144794.5 6222452.83   201%     -  216s
     0     0 6190409.95    0  259 -6144794.5 6190409.95   201%     -  228s
     0     0 6189264.66    0  264 -6144794.5 6189264.66   201%     -  230s
     0     0 6189181.39    0  264 -6144794.5 6189181.39   201%     -  231s
     0     0 6189177.10    0  266 -6144794.5 6189177.10   201%     -  233s
H    0     0                    -1318184.139 6189177.10   570%     -  234s
H    0     0                    -754196.1382 6189177.10   921%     -  240s
     0     0 6188944.35    0  273 -754196.14 6188944.35   921%     -  241s
     0     0 6188944.10    0  268 -754196.14 6188944.10   921%     -  241s
     0     0 6188944.10    0  270 -754196.14 6188944.10   921%     -  243s
     0     0 6188894.34    0  271 -754196.14 6188894.34   921%     -  247s
     0     0 6188894.34    0  269 -754196.14 6188894.34   921%     -  290s
     0     2 6188894.34    0  269 -754196.14 6188894.34   921%     -  326s
     1     4 5371453.39    1  221 -754196.14 5930240.46   886% 525580 6640s
     3     8 4784820.72    2  219 -754196.14 5832609.27   873% 177898 6735s
     7    11 4114944.86    3   90 -754196.14 5775757.67   866% 80776 6829s
    11    14 4114944.86    4   90 -754196.14 5775757.67   866% 52480 6855s
    15    14 4114428.35    5   89 -754196.14 5775757.67   866% 38748 6860s
    19    17 4106918.83    6   85 -754196.14 5775757.67   866% 30687 6873s
    23    23 4092613.85    7   93 -754196.14 5775757.67   866% 25466 6892s
    30    29 4087184.15    8  101 -754196.14 5775757.67   866% 19710 6905s
    37    35 4086701.94    9   95 -754196.14 5775757.67   866% 16066 6919s
    43    40 4055994.79   11   93 -754196.14 5775757.67   866% 14011 6933s
    48    47 3528266.88   11   93 -754196.14 5775757.67   866% 12766 6971s
    52    51 4037888.38   12   84 -754196.14 5775757.67   866% 11899 6988s
    57    52 4034167.71   13   91 -754196.14 5775757.67   866% 10947 7045s
    65    65 4010423.67   14  168 -754196.14 5775757.67   866%  9871 7070s
H   70    68                    1100778.9091 5775757.67   425%  9241 7070s
    71    66 3867896.39   15  103 1100778.91 5775757.67   425%  9114 7094s
    80    75 3764073.10   17  110 1100778.91 5775757.67   425%  8260 7123s
    92    82 3758744.56   18  118 1100778.91 5775757.67   425%  7364 7134s
   109    99 3724827.02   22  130 1100778.91 5775757.67   425%  6297 7222s
H  125   111                    1100778.9160 5775757.67   425%  5524 7222s
   126   116 3689545.12   26  124 1100778.92 5775757.67   425%  5495 7234s
   148   120 3684252.66   27  123 1100778.92 5775757.67   425%  4778 7316s
H  157   126                    1209218.8025 5775757.67   378%  4517 7316s
   168   143 3593130.38   31  127 1209218.80 5775757.67   378%  4294 7337s
   200   166 3545660.48   38  102 1209218.80 5775757.67   378%  3713 7593s
H  201   164                    1332298.3879 5775757.67   334%  3695 7593s
   204   166 3543381.11   39  100 1332298.39 5775757.67   334%  3652 7617s
   229   181 3460546.04   42  106 1332298.39 5775757.67   334%  3353 7629s
   271   204 3361859.27   54  103 1332298.39 5775757.67   334%  2916 7642s
   309   239 1888450.78   58   88 1332298.39 5775757.67   334%  2608 7656s
   348   262 2882046.45   61   93 1332298.39 5775757.67   334%  2376 7667s
   394   300 2338172.27   77   85 1332298.39 5775757.67   334%  2145 7838s
   408   314 1572803.02   80   62 1332298.39 5737921.28   331%  2083 7868s
   453   333 5156360.21    7  164 1332298.39 5737213.15   331%  1928 7885s
   492   376 4992519.00    9  120 1332298.39 5737213.15   331%  1812 7903s
   548   422 4906503.06   11  103 1332298.39 5737213.15   331%  1659 7923s
   596   462 infeasible   14      1332298.39 5737213.15   331%  1554 7956s
   653   490 3880701.52   21   80 1332298.39 5724434.56   330%  1464 7977s
   718   534 5639937.30    5  145 1332298.39 5724434.56   330%  1373 8030s
   774   578 4755598.15    8  106 1332298.39 5724434.56   330%  1344 8121s
   802   592 infeasible   10      1332298.39 5724434.56   330%  1358 8143s
   827   607 infeasible   12      1332298.39 5693421.48   327%  1353 8172s
   892   649 5300826.41    9  117 1332298.39 5693376.60   327%  1289 8200s
   917   670 4739042.10   11  127 1332298.39 5693376.60   327%  1283 8225s
  1005   747 4224431.62   14   86 1332298.39 5693376.60   327%  1221 8299s
  1036   772 3410053.73   27  269 1332298.39 5693376.60   327%  1207 8550s
  1038   773 3899624.99   62  111 1332298.39 5152933.80   287%  1204 8574s
  1039   774 2317173.81   45  122 1332298.39 5136475.79   286%  1203 8582s
  1040   775 4486231.75   14  160 1332298.39 5092416.44   282%  1202 8585s
  1042   776 4486389.61   23  143 1332298.39 5077072.54   281%  1200 8593s
  1043   777 1417848.50   24  140 1332298.39 5073790.03   281%  1199 8603s
  1044   777 3867612.59   34  145 1332298.39 5068682.73   280%  1197 8605s
  1046   779 3127645.59   59  150 1332298.39 5061799.70   280%  1195 8610s
  1048   780 2120276.22   75  151 1332298.39 5043790.88   279%  1193 8628s
  1049   781 2843333.38   54  211 1332298.39 5037909.73   278%  1192 8632s
  1051   782 1500720.16   21  179 1332298.39 5033177.27   278%  1189 8638s
  1052   783 4682965.19   19  177 1332298.39 5029624.75   278%  1188 8650s
  1055   785 1403046.32   26  179 1332298.39 5011838.26   276%  1185 8658s
  1056   785 2256292.03   31  252 1332298.39 5007358.42   276%  1184 8662s
  1057   786 5004525.96    6  282 1332298.39 5004525.96   276%  1183 8668s
  1058   787 1399136.69   27  278 1332298.39 4999153.05   275%  1182 8670s
  1059   787 2974294.95   53  280 1332298.39 4998307.81   275%  1180 8675s
  1060   788 2735767.30   74  293 1332298.39 4991038.59   275%  1179 8693s
  1061   789 3382733.76   77  285 1332298.39 4973841.32   273%  1178 8711s
H 1061   749                    1332298.3884 4972196.40   273%  1178 8716s
H 1062   711                    1332298.3895 4972196.40   273%  1177 8723s
  1064   713 1868704.32   74  188 1332298.39 4958776.95   272%  1175 8726s
  1065   713 3484921.72    9  210 1332298.39 4957433.26   272%  1174 8732s
  1066   714 3644506.84   29  205 1332298.39 4955624.78   272%  1173 8740s
  1068   715 2625303.76   43  255 1332298.39 4941232.18   271%  1171 8745s
  1069   716 4475427.92   11  259 1332298.39 4939635.40   271%  1169 8751s
  1070   717 3392799.46   76  200 1332298.39 4935451.49   270%  1168 8759s
  1071   717 3475026.21   42  222 1332298.39 4932438.90   270%  1167 8761s
  1073   719 4212448.43   20  199 1332298.39 4929164.10   270%  1165 8767s
  1074   719 1366237.77   29  236 1332298.39 4927773.68   270%  1164 8779s
  1075   720 2274255.86   60  243 1332298.39 4924811.99   270%  1163 8785s
  1076   721 4104053.46   29  351 1332298.39 4923560.30   270%  1162 8791s
  1077   721 4278767.85   20  277 1332298.39 4921761.00   269%  1161 8822s
  1078   722 2440429.48   23  274 1332298.39 4921761.00   269%  1160 8828s
  1079   723 4736354.38   11  274 1332298.39 4921761.00   269%  1159 8868s
  1080   725 2633296.28   63  269 1332298.39 4921761.00   269%  1220 8875s
  1082   726 3159728.80   53  107 1332298.39 4921761.00   269%  1217 8897s
  1083   727 4289912.56   50  111 1332298.39 4921761.00   269%  1216 8905s
  1085   728 3288410.48   82  158 1332298.39 4921761.00   269%  1214 8912s
  1086   729 1498247.36   59  230 1332298.39 4921761.00   269%  1213 8922s
  1087   730 2814963.76   64  187 1332298.39 4921761.00   269%  1212 8926s
  1089   731 3037531.47   17  195 1332298.39 4921761.00   269%  1210 8934s
  1090   732 2238358.92   39  201 1332298.39 4921761.00   269%  1208 8938s
  1091   732 2783084.54   60  208 1332298.39 4921761.00   269%  1207 8940s
  1094   734 2493718.60   91  198 1332298.39 4921761.00   269%  1204 8947s
  1095   735 2618434.06   62  242 1332298.39 4921761.00   269%  1203 8958s
  1096   736 2264916.04   30  195 1332298.39 4908008.40   268%  1202 8960s
  1097   736 4550007.74   17  190 1332298.39 4905929.90   268%  1201 8965s
  1098   737 2470328.28   28  197 1332298.39 4902835.64   268%  1200 8973s
  1100   738 4620966.55   33  213 1332298.39 4893672.23   267%  1197 8975s
  1102   740 1492886.69   25  170 1332298.39 4882700.71   266%  1195 8990s
  1104   741 2606030.12   65  185 1332298.39 4879028.65   266%  1193 9003s
  1106   742 3039285.23   95  199 1332298.39 4872765.11   266%  1191 9007s
  1107   743 3405678.79   26  201 1332298.39 4852320.87   264%  1190 9015s
  1109   744 2920077.39  102  196 1332298.39 4848852.21   264%  1188 9027s
  1110   745 4090919.31    8  212 1332298.39 4847764.50   264%  1187 9030s
  1111   746 4843532.25   10  209 1332298.39 4843532.25   264%  1186 9050s
  1113   747 4086724.83   30  209 1332298.39 4843532.25   264%  1183 9069s
  1114   749 4463429.01   13  269 1332298.39 4843532.25   264%  1228 9074s
  1116   750 4460820.81   13  106 1332298.39 4843532.25   264%  1225 9094s
  1117   751 4114944.86    4  115 1332298.39 4843532.25   264%  1224 9108s
  1118   752 3451848.44   70  133 1332298.39 4843532.25   264%  1223 9116s
  1119   752 3407959.26   54  141 1332298.39 4843532.25   264%  1222 9129s
  1120   753 3512070.73   12  155 1332298.39 4843532.25   264%  1221 9132s
  1121   754 2226424.87   43  153 1332298.39 4843532.25   264%  1220 9139s
  1122   754 4843532.25   11  159 1332298.39 4843532.25   264%  1219 9144s
  1123   755 3643371.75   22  161 1332298.39 4843532.25   264%  1218 9146s
  1124   756 3428946.28   51  168 1332298.39 4831502.91   263%  1217 9158s
  1125   756 4139076.51   57  152 1332298.39 4831089.26   263%  1216 9161s
  1127   758 3196371.89   87  171 1332298.39 4828277.10   262%  1213 9165s
  1129   759 3340603.81   12  210 1332298.39 4738734.64   256%  1211 9205s
  1130   760 4316690.81   14  251 1332298.39 4728090.85   255%  1210 9220s
  1131   760 2189702.52   44  175 1332298.39 4725974.00   255%  1209 9231s
H 1131   721                    1332298.3899 4725974.00   255%  1209 9280s
  1132   722 3867612.59   34  229 1332298.39 4554226.44   242%  1208 9285s
H 1132   686                    1332298.3906 4554226.44   242%  1208 9295s
  1135   688 3266253.74   49  259 1332298.39 4538498.87   241%  1205 9306s
  1136   689 3410053.73   27  261 1332298.39 4532182.49   240%  1204 9318s
  1137   689 1402483.42   70  263 1332298.39 4531573.96   240%  1203 9324s
  1138   690 3899624.99   62  255 1332298.39 4529909.32   240%  1202 9345s
  1140   691 4486231.75   14  255 1332298.39 4529909.32   240%  1200 9383s
  1141   695 4496160.94   45  244 1332298.39 4520083.38   239%  1370 9457s
  1143   698 4491184.17   46  236 1332298.39 4491184.17   237%  1383 9544s
  1147   701 4472930.70   47  276 1332298.39 4482904.45   236%  1415 9586s
  1151   702 4246375.35   47  206 1332298.39 4472067.40   236%  1431 9662s
  1155   704 4465264.37   48  228 1332298.39 4465264.37   235%  1512 9677s
  1159   706 2396857.46   48  183 1332298.39 4465263.85   235%  1533 9730s
  1163   711 4456766.43   49  239 1332298.39 4465263.85   235%  1550 9766s
  1168   714 4392523.58   49  192 1332298.39 4456651.10   235%  1573 9827s
  1173   710 4204190.69   50  175 1332298.39 4456651.10   235%  1627 9858s
  1179   716 4292875.59   50  225 1332298.39 4392522.83   230%  1658 9918s
  1184   722 4292875.59   51  223 1332298.39 4392522.83   230%  1674 9951s
  1190   723 4291742.56   52  219 1332298.39 4392522.83   230%  1723 9992s
  1197   725 4286949.82   53  191 1332298.39 4392522.83   230%  1750 10013s
  1205   734 4290352.43   53  205 1332298.39 4392522.83   230%  1757 10083s
  1213   735 3796679.33   55  141 1332298.39 4392522.83   230%  1843 10116s
  1222   746 4260188.57   55  253 1332298.39 4392522.83   230%  1873 10157s
  1227   744 4249429.68   56  159 1332298.39 4392522.83   230%  1916 10225s
  1235   754 4249294.50   57  154 1332298.39 4392522.83   230%  1974 10267s
  1243   753 3833365.85   58  117 1332298.39 4392522.83   230%  2025 10297s
  1255   764 3829969.62   59  119 1332298.39 4392522.83   230%  2052 10330s
H 1269   737                    1369849.1823 4392522.83   221%  2079 10380s
H 1270   703                    1369849.1833 4392522.83   221%  2098 10380s
  1275   706 3812792.18   61  123 1369849.18 4392522.83   221%  2141 10421s
  1288   713 3789464.13   62  122 1369849.18 4392522.83   221%  2195 10452s
  1303   724 3598614.82   63  111 1369849.18 4392522.83   221%  2227 10490s
  1313   731 3613968.72   64  113 1369849.18 4392522.83   221%  2270 10535s
  1329   742 3719404.49   66  132 1369849.18 4392522.83   221%  2312 10574s
  1343   748 3696254.61   67  128 1369849.18 4392522.83   221%  2356 10636s
H 1348   721                    1369849.3224 4392522.83   221%  2362 10636s
  1354   726 2548534.58   69   74 1369849.32 4392522.83   221%  2400 10684s
  1366   730 3670289.82   71  127 1369849.32 4392522.83   221%  2451 10717s
  1381   742 3268730.16   72   91 1369849.32 4392522.83   221%  2509 10773s
  1399   753 3651192.91   73  138 1369849.32 4392522.83   221%  2517 10822s
  1424   763 3607713.40   74  121 1369849.32 4392522.83   221%  2560 10873s
  1449   767 3587855.25   75  140 1369849.32 4392522.83   221%  2578 10932s
  1480   788 3580703.41   77  144 1369849.32 4392522.83   221%  2602 10990s
  1496   795 3576059.19   79  145 1369849.32 4392522.83   221%  2665 11056s
  1515   803 3516522.65   80  143 1369849.32 4392522.83   221%  2724 11116s
  1541   816 3503560.10   81  142 1369849.32 4392522.83   221%  2732 11191s
  1579   823 3439111.16   84  142 1369849.32 4392522.83   221%  2775 11244s
  1613   846 3380877.71   88  137 1369849.32 4392522.83   221%  2803 11306s
  1637   859 3372716.74   90  132 1369849.32 4392522.83   221%  2846 11368s
  1668   880 3350548.09   93  137 1369849.32 4392522.83   221%  2878 11437s
  1707   900 3336989.92   96  138 1369849.32 4392522.83   221%  2902 11494s
  1756   924 3324982.33   99  123 1369849.32 4392522.83   221%  2906 11576s
  1805   949 3313582.29  102  128 1369849.32 4392522.83   221%  2947 11683s
  1834   956 3298997.31  105  131 1369849.32 4392490.70   221%  2987 11759s
  1883   979 3267695.14  110  135 1369849.32 4392490.70   221%  3011 11830s
  1951   993 3216664.46  115  141 1369849.32 4392490.70   221%  3004 11903s
  2012  1024 3187010.88  119  150 1369849.32 4392490.70   221%  2998 11979s
  2122  1069 3063550.44  125  126 1369849.32 4392490.70   221%  2931 12131s
H 2132  1046                    1369849.6088 4392490.70   221%  2940 12131s
  2200  1087 2915032.44  130  134 1369849.61 4392490.70   221%  2892 12207s
  2258  1111 2535203.31  136  110 1369849.61 4286210.95   213%  2898 12294s
  2346  1143 3814581.27   52  157 1369849.61 4286210.95   213%  2867 12442s
  2406  1161 3637519.86   56  137 1369849.61 4286210.95   213%  2832 12522s
  2470  1186 2750013.70   76  121 1369849.61 4231540.88   209%  2836 12622s
  2594  1250 3642611.50   67   70 1369849.61 4231540.88   209%  2768 12733s
  2802  1354 3459258.40   93   90 1369849.61 4227992.72   209%  2617 12828s
  2970  1450 4016371.02   57  103 1369849.61 4227014.81   209%  2529 12938s
  3063  1510 3954639.32   60  173 1369849.61 4227014.81   209%  2521 13042s
  3201  1629 3901877.66   63  119 1369849.61 4227014.81   209%  2488 13158s
H 3285  1701                    1369849.6128 4227014.81   209%  2498 13259s
  3329  1737 3269894.87   68   79 1369849.61 4197185.67   206%  2516 13365s
H 3431  1805                    1369850.2103 4197185.67   206%  2504 13365s
  3462  1836 2427461.35   79  104 1369850.21 4140461.21   202%  2494 13473s
  3604  1922 3816675.74   58  120 1369850.21 4140461.21   202%  2478 13598s
  3718  2004 3241573.86   63  114 1369850.21 4140461.21   202%  2476 13764s
  3794  2057 3373059.28   69  104 1369850.21 4140461.21   202%  2511 13916s
  3904  2140 3052108.18   99  100 1369850.21 4138760.64   202%  2499 14143s
  4150  2254 2260090.62   69  106 1369850.21 4078778.82   198%  2429 14315s
  4350  2401 2763461.34   63  104 1369850.21 4076997.47   198%  2393 14546s
  4601  2615 3750000.78   52  145 1369850.21 4075761.25   198%  2319 14817s
  4827  2763 2978237.77   60  107 1369850.21 4075761.25   198%  2297 15038s
H 4838  2776                    1369850.2640 4075761.25   198%  2306 15038s
  4952  2839 2522464.84   66   75 1369850.26 4043371.83   195%  2286 15371s
  5158  2968 2820712.37   65   67 1369850.26 4039967.42   195%  2282 15612s
  5336  3084 2998028.52   58  100 1369850.26 4032453.67   194%  2273 15852s
  5610  3316 3334388.96   54   98 1369850.26 4019266.26   193%  2220 16141s
  5798  3432 3077411.79   61  122 1369850.26 4017733.44   193%  2228 16397s
  6035  3593 3783148.33   50  151 1369850.26 4008473.81   193%  2217 16677s
  6298  3790 3022004.42   58  104 1369850.26 4003365.49   192%  2186 16967s
  6525  3966 3760159.09   67  118 1369850.26 4002535.84   192%  2185 17268s
  6670  4063 2613966.67   62   65 1369850.26 4001820.71   192%  2203 17624s
  6936  4227 2884183.20   61   88 1369850.26 3995034.82   192%  2205 17958s
  7160  4356 3911491.50   59   92 1369850.26 3991227.87   191%  2199 18317s
  7592  4609 3746957.59   53  140 1369850.26 3984431.27   191%  2159 18684s
  7871  4790 2446939.48   66   84 1369850.26 3966272.68   190%  2153 19084s
  8243  5068 2901887.33   57   87 1369850.26 3958693.92   189%  2123 19494s
  8629  5329 3259037.29   54  101 1369850.26 3953330.85   189%  2109 19981s
  8939  5525 1882665.93   61   42 1369850.26 3946280.89   188%  2110 20445s
  9338  5764 3121213.00   63  102 1369850.26 3929878.89   187%  2088 20889s
  9819  6071 2385654.29   65   77 1369850.26 3921906.43   186%  2062 21351s
 10292  6372 2442440.58   67   70 1369850.26 3913365.08   186%  2039 21867s
 10742  6682 1702450.93   60   80 1369850.26 3897115.42   184%  2029 22458s
 11110  6877 3094489.50   60   71 1369850.26 3892153.11   184%  2038 22966s
 11631  7196 2152467.86   70  109 1369850.26 3879154.47   183%  2016 23496s
 12218  7577 2720460.89   63   53 1369850.26 3864334.35   182%  2000 24037s
 12706  7930 3798288.73   56  130 1369850.26 3856022.99   181%  1987 24592s
 13257  8319 2562918.20   65   99 1369850.26 3844791.91   181%  1978 25097s
 13733  8630 1633577.76   53   76 1369850.26 3832992.13   180%  1963 25604s
 14336  8997 3001143.39   62  103 1369850.26 3819713.27   179%  1940 26098s
 14978  9417 3716237.10   57  111 1369850.26 3805444.26   178%  1915 26614s
 15427  9731 2816261.05   61   80 1369850.26 3792004.90   177%  1907 27101s
 15925 10040 2863153.99   59   99 1369850.26 3782587.42   176%  1902 27608s
 16415 10370 2287581.42   59   97 1369850.26 3776747.52   176%  1893 28085s
 16942 10750 2774135.79   58   58 1369850.26 3765247.00   175%  1879 28570s
 17660 11252 2783207.23   69   85 1369850.26 3754041.32   174%  1851 29010s
 18123 11565 2637388.48   55   95 1369850.26 3746054.49   173%  1844 29389s
H18126 11565                    1369850.3164 3746054.49   173%  1843 29389s
 18301 11684 2974321.66   67   84 1369850.32 3744665.73   173%  1839 29831s
 18672 11929 2063117.76   80  119 1369850.32 3741265.13   173%  1835 30302s
 19182 12274 2748538.74   61  141 1369850.32 3727124.16   172%  1824 30751s
 19703 12567 2244547.52   64   59 1369850.32 3716927.00   171%  1813 31203s
 20154 12873 2116094.45   80  110 1369850.32 3707260.54   171%  1808 31653s
 20479 13064 2825984.63   59   86 1369850.32 3701750.48   170%  1815 32124s
 20872 13326 1868827.07   58  269 1369850.32 3698099.19   170%  1818 34846s
 20874 13327 1902878.07   89  109 1369850.32 3698099.19   170%  1817 34863s
 20875 13328 1706888.40   64  119 1369850.32 3698099.19   170%  1817 34870s
 20877 13329 2456424.38   66  197 1369850.32 3698099.19   170%  1817 34897s
 20878 13330 2496694.01   71  125 1369850.32 3698099.19   170%  1817 34931s
 20879 13331 1931417.90  103  136 1369850.32 3698099.19   170%  1817 34949s
 20880 13331 3513734.79   61  211 1369850.32 3698099.19   170%  1817 34955s
 20881 13332 3074275.84   61  213 1369850.32 3698099.19   170%  1817 34961s
 20883 13333 1698705.91   79  236 1369850.32 3698099.19   170%  1817 34970s
 20885 13335 2896555.03   70  232 1369850.32 3698099.19   170%  1816 34978s
 20886 13335 1824277.01  123  249 1369850.32 3698099.19   170%  1816 34981s
 20887 13336 2565143.32   67  240 1369850.32 3698099.19   170%  1816 34986s
 20888 13337 2900633.81   59  238 1369850.32 3698099.19   170%  1816 35043s
 20889 13337 3077618.95   62  286 1369850.32 3698099.19   170%  1816 35074s
 20890 13338 2645238.37   58  277 1369850.32 3698099.19   170%  1816 35081s
 20891 13339 2290620.06   81  289 1369850.32 3698099.19   170%  1816 35105s
 20892 13339 2802203.40   65  238 1369850.32 3698099.19   170%  1816 35173s
 20893 13340 3019459.68   69  240 1369850.32 3698099.19   170%  1816 35180s
 20895 13341 2247187.13   64  222 1369850.32 3698099.19   170%  1816 35206s
 20896 13342 2428234.72   85  228 1369850.32 3698099.19   170%  1816 35259s
 20897 13343 2299672.63   80  228 1369850.32 3698099.19   170%  1815 35266s
 20898 13343 2020222.26   76  226 1369850.32 3698099.19   170%  1815 35270s
 20899 13344 1744320.50   69  277 1369850.32 3698099.19   170%  1815 35296s
 20900 13345 3500528.61   63  271 1369850.32 3698099.19   170%  1815 35353s
 20901 13345 1474905.85   63  270 1369850.32 3698099.19   170%  1815 35377s
 20902 13346 3608690.37   65  273 1369850.32 3698099.19   170%  1815 35429s
 20903 13347 2345796.44   78  296 1369850.32 3698099.19   170%  1815 35432s
 20904 13347 2041408.69   75  304 1369850.32 3698099.19   170%  1815 35436s
 20905 13348 2205272.26   75  251 1369850.32 3698099.19   170%  1815 35440s
 20906 13349 2201893.88   95  263 1369850.32 3698099.19   170%  1815 35467s
 20907 13349 2031478.76   89  247 1369850.32 3698099.19   170%  1815 35518s
 20908 13350 2771850.28   91  264 1369850.32 3698099.19   170%  1814 35523s
 20909 13351 1734913.63   88  267 1369850.32 3698099.19   170%  1814 35545s
 20910 13351 1757343.63   93  274 1369850.32 3698099.19   170%  1814 35588s
 20911 13352 3173461.24  103  276 1369850.32 3698099.19   170%  1814 35591s
 20912 13353 2000508.00   73  285 1369850.32 3698099.19   170%  1814 35615s
 20913 13353 2458642.02   87  311 1369850.32 3698099.19   170%  1814 35654s
 20914 13354 2975811.16   71  300 1369850.32 3698099.19   170%  1814 35678s
 20915 13355 2432326.14   80  264 1369850.32 3698099.19   170%  1814 35721s
 20916 13355 1993436.64   87  321 1369850.32 3698099.19   170%  1814 35747s
 20917 13356 3034491.64   66  282 1369850.32 3698099.19   170%  1814 35791s
 20918 13357 2237223.98   66  279 1369850.32 3698099.19   170%  1814 35813s
 20919 13357 1976257.50   65  282 1369850.32 3698099.19   170%  1814 35857s
 20920 13358 1737775.71   73  348 1369850.32 3698099.19   170%  1813 35880s
 20921 13359 1732418.09   72  359 1369850.32 3698099.19   170%  1813 35928s
 20922 13359 1550191.26   73  322 1369850.32 3696798.40   170%  1813 35932s
 20923 13360 2238976.50  107  368 1369850.32 3694193.91   170%  1813 35935s
 20924 13361 2457998.81   67  375 1369850.32 3693502.64   170%  1813 35960s
 20925 13361 2331314.87   84  311 1369850.32 3678135.01   169%  1813 36009s
 20926 13362 2248303.34   75  304 1369850.32 3677885.72   168%  1813 36029s
 20927 13363 3263837.03   54  303 1369850.32 3671894.01   168%  1813 36071s
 20929 13364 1924159.23   63  312 1369850.32 3665453.25   168%  1813 36096s
 20930 13365 2748894.62   63  326 1369850.32 3653533.71   167%  1813 36139s
 20931 13365 2326762.77   88  335 1369850.32 3651807.46   167%  1812 36160s
 20932 13366 2477127.59   86  338 1369850.32 3648318.25   166%  1812 36204s
 20933 13367 2724395.60   71  332 1369850.32 3647094.75   166%  1812 36224s
 20934 13367 2466785.16   66  326 1369850.32 3638530.99   166%  1812 36243s
 20935 13368 2318276.82   85  324 1369850.32 3634764.13   165%  1812 36246s
 20937 13369 1860145.08   61  316 1369850.32 3631791.21   165%  1812 36264s
 20938 13370 1864092.65   74  299 1369850.32 3630095.48   165%  1812 36285s
 20939 13371 2511184.06   70  314 1369850.32 3629667.05   165%  1812 36303s
 20940 13371 2720087.83  118  306 1369850.32 3627851.42   165%  1812 36323s
 20941 13372 3627334.66   55  314 1369850.32 3627334.66   165%  1812 36340s
 20942 13373 2537196.17   66  315 1369850.32 3626576.88   165%  1812 36360s
 20943 13373 1986649.99   92  314 1369850.32 3626255.94   165%  1811 36378s
 20944 13374 2103889.30   78  313 1369850.32 3625361.00   165%  1811 36396s
 20945 13375 2098458.86   69  310 1369850.32 3624946.29   165%  1811 36412s
 20946 13375 1501075.88   95  316 1369850.32 3622895.80   164%  1811 36431s
 20947 13376 1517209.20  101  312 1369850.32 3622714.81   164%  1811 36448s
 20948 13377 2792220.89  109  311 1369850.32 3619957.62   164%  1811 36468s
 20949 13377 3294357.28   57  338 1369850.32 3617476.53   164%  1811 36472s
 20950 13378 2087531.28   71  338 1369850.32 3617059.83   164%  1811 36492s
 20951 13379 1797911.60   74  307 1369850.32 3613178.45   164%  1811 36513s
 20952 13379 3574887.97   55  311 1369850.32 3613127.71   164%  1811 36531s
 20953 13380 1590903.09   71  311 1369850.32 3606831.00   163%  1811 36554s
 20954 13381 2240661.78   77  316 1369850.32 3606599.44   163%  1810 36573s
 20955 13381 2086513.18   84  338 1369850.32 3605355.21   163%  1810 36595s
 20956 13382 2652887.85   59  312 1369850.32 3604226.49   163%  1810 36614s
 20957 13383 1946370.29   81  337 1369850.32 3600675.80   163%  1810 36635s
 20958 13383 2760609.65   58  335 1369850.32 3600301.28   163%  1810 36655s
 20959 13384 2260552.58   76  329 1369850.32 3595163.68   162%  1810 36678s
 20960 13385 2510531.71   71  340 1369850.32 3591123.69   162%  1810 36682s
 20961 13385 1954143.30   88  320 1369850.32 3589315.56   162%  1810 36702s
 20962 13386 2178389.00   69  330 1369850.32 3585160.32   162%  1810 36726s
 20963 13387 2923684.89   60  339 1369850.32 3584829.09   162%  1810 36744s
 20964 13387 2266151.67   81  332 1369850.32 3584408.60   162%  1810 36762s
 20965 13388 3562342.97   76  335 1369850.32 3584242.10   162%  1810 36777s
 20966 13389 2809230.92   60  330 1369850.32 3583211.11   162%  1809 36797s
 20967 13389 2567874.38   73  372 1369850.32 3581973.08   161%  1809 36816s
 20968 13390 1749725.50   76  340 1369850.32 3581637.98   161%  1809 36835s
 20969 13391 3068559.43   84  342 1369850.32 3581539.47   161%  1809 36851s
 20970 13391 2176303.60   79  331 1369850.32 3580084.42   161%  1809 36868s
 20971 13392 2702631.31   79  332 1369850.32 3577831.71   161%  1809 36887s
 20972 13393 1868827.07   58  339 1369850.32 3576236.50   161%  1809 36907s
 20973 13393 1711281.98   62  369 1369850.32 3575841.54   161%  1809 36925s
 20974 13394 1902878.07   89  385 1369850.32 3574604.00   161%  1809 36945s
 20975 13395 1706888.40   64  347 1369850.32 3574115.24   161%  1809 36965s
 20976 13395 2718182.23   49  361 1369850.32 3573837.84   161%  1809 36985s
 20977 13396 2456424.38   66  336 1369850.32 3572088.82   161%  1809 37006s
 20978 13397 2496694.01   71  312 1369850.32 3570803.64   161%  1808 37024s
 20979 13397 1931417.90  103  348 1369850.32 3570407.61   161%  1808 37044s
 20980 13398 3513734.79   61  358 1369850.32 3569126.50   161%  1808 37063s
 20981 13399 3074275.84   61  309 1369850.32 3568699.51   161%  1808 37081s
 20982 13399 2588138.06   66  300 1369850.32 3567955.10   160%  1808 37100s
 20983 13400 1698705.91   79  348 1369850.32 3567673.33   160%  1808 37122s
 20984 13401 1669909.91   95  337 1369850.32 3565047.07   160%  1808 37161s
 20985 13401 2896555.03   70  308 1369850.32 3564568.04   160%  1808 37178s
 20986 13402 1824277.01  123  336 1369850.32 3563986.88   160%  1808 37197s
 20987 13403 2565143.32   67  324 1369850.32 3563885.54   160%  1808 37213s
 20988 13403 2900633.81   59  317 1369850.32 3563859.53   160%  1808 37230s
 20989 13404 3077618.95   62  315 1369850.32 3563781.01   160%  1807 37247s
 20990 13405 2645238.37   58  318 1369850.32 3563781.01   160%  1807 37266s
 20991 13405 2290620.06   81  371 1369850.32 3563212.29   160%  1807 37287s
 20992 13406 2802203.40   65  357 1369850.32 3563124.09   160%  1807 37322s
 20993 13407 3019459.68   69  355 1369850.32 3563074.22   160%  1807 37341s
 20994 13407 1798268.00   73  356 1369850.32 3563074.22   160%  1807 37358s
 20995 13408 2247187.13   64  366 1369850.32 3562944.80   160%  1807 37375s
 20996 13409 2428234.72   85  352 1369850.32 3562872.13   160%  1807 37394s
 20997 13409 2299672.63   80  350 1369850.32 3562600.90   160%  1807 37412s
 20998 13410 2020222.26   76  350 1369850.32 3562600.90   160%  1807 37429s
 20999 13411 1744320.50   69  351 1369850.32 3561661.52   160%  1807 37448s
 21000 13411 3500528.61   63  371 1369850.32 3561383.68   160%  1807 37469s
 21001 13412 1474905.85   63  345 1369850.32 3555999.98   160%  1806 37490s
 21002 13413 3554709.45   65  379 1369850.32 3554709.45   159%  1806 37507s
 21003 13413 2345796.44   78  329 1369850.32 3554201.98   159%  1806 37527s
 21004 13414 2041408.69   75  366 1369850.32 3553681.96   159%  1806 37546s
 21005 13415 2205272.26   75  357 1369850.32 3553471.63   159%  1806 37567s
 21006 13415 2201893.88   95  371 1369850.32 3553301.62   159%  1806 37584s
 21007 13416 2031478.76   89  361 1369850.32 3553187.88   159%  1806 37602s
 21008 13417 2771850.28   91  369 1369850.32 3553167.73   159%  1806 37620s
 21009 13417 1734913.63   88  385 1369850.32 3549574.36   159%  1806 37644s
 21010 13418 1757343.63   93  383 1369850.32 3548597.15   159%  1806 37665s
 21011 13419 3173461.24  103  370 1369850.32 3539016.58   158%  1806 37689s
 21012 13419 2000508.00   73  364 1369850.32 3538468.28   158%  1805 37708s
 21013 13420 2458642.02   87  365 1369850.32 3537818.73   158%  1805 37731s
 21014 13421 2975811.16   71  399 1369850.32 3537669.22   158%  1805 37751s
 21015 13421 2432326.14   80  377 1369850.32 3537593.98   158%  1805 37770s
 21016 13422 1993436.64   87  378 1369850.32 3537535.95   158%  1805 37788s
 21017 13423 3034491.64   66  369 1369850.32 3537437.06   158%  1805 37806s
 21018 13423 2237223.98   66  396 1369850.32 3537391.86   158%  1805 37825s
 21019 13424 1976257.50   65  319 1369850.32 3534737.74   158%  1805 37847s
 21020 13425 1737775.71   73  319 1369850.32 3534509.99   158%  1805 37865s
 21021 13425 1732418.09   72  325 1369850.32 3534448.27   158%  1805 37882s
 21022 13426 1550191.26   73  376 1369850.32 3534298.47   158%  1805 37898s
 21023 13427 2238976.50  107  365 1369850.32 3533864.96   158%  1805 37917s
 21024 13427 2457998.81   67  370 1369850.32 3533814.38   158%  1804 37931s
 21025 13428 2331314.87   84  397 1369850.32 3533664.34   158%  1804 37950s
 21026 13429 2248303.34   75  399 1369850.32 3533656.92   158%  1804 37966s
 21027 13429 3263837.03   54  407 1369850.32 3533650.81   158%  1804 37985s
 21028 13430 2496653.16   74  399 1369850.32 3533645.87   158%  1804 38028s
 21029 13431 1924159.23   63  399 1369850.32 3533645.87   158%  1804 38042s
 21030 13431 2748894.62   63  399 1369850.32 3533645.87   158%  1804 38129s
 21031 13433 2326762.77   88  269 1369850.32 3533645.87   158%  1817 38135s
 21033 13434 2724395.60   71  109 1369850.32 3533645.87   158%  1816 38152s
 21034 13435 2466785.16   66  176 1369850.32 3533645.87   158%  1816 38166s
 21035 13436 2318276.82   85  210 1369850.32 3533645.87   158%  1816 38182s
 21036 13436 3347245.56   61  270 1369850.32 3533645.87   158%  1816 38214s
 21037 13437 1860145.08   61  223 1369850.32 3533645.87   158%  1816 38240s
 21038 13438 1864092.65   74  231 1369850.32 3533645.87   158%  1816 38254s
 21039 13438 2511184.06   70  298 1369850.32 3533645.87   158%  1816 38263s
 21040 13439 2720087.83  118  266 1369850.32 3533645.87   158%  1816 38273s
 21041 13440 3533645.87   55  270 1369850.32 3533645.87   158%  1816 38283s
 21042 13440 2537196.17   66  279 1369850.32 3533645.87   158%  1816 38293s
 21043 13441 1986649.99   92  294 1369850.32 3533645.87   158%  1816 38297s
 21044 13442 2103889.30   78  304 1369850.32 3533645.87   158%  1816 38304s
 21045 13442 2098458.86   69  307 1369850.32 3533645.87   158%  1815 38310s
 21046 13443 1501075.88   95  324 1369850.32 3533645.87   158%  1815 38316s
 21047 13444 1517209.20  101  338 1369850.32 3533645.87   158%  1815 38320s
 21049 13445 3294357.28   57  333 1369850.32 3533645.87   158%  1815 38328s
 21050 13446 2087531.28   71  334 1369850.32 3533645.87   158%  1815 38334s
 21051 13446 1797911.60   74  382 1369850.32 3533645.87   158%  1815 38380s
 21052 13447 3533645.87   55  375 1369850.32 3533645.87   158%  1815 38398s
 21053 13448 1590903.09   71  364 1369850.32 3533645.87   158%  1815 38441s
 21054 13448 2240661.78   77  326 1369850.32 3533645.87   158%  1815 38446s
 21055 13449 2086513.18   84  377 1369850.32 3533645.87   158%  1815 38452s
 21056 13450 2652887.85   59  334 1369850.32 3533645.87   158%  1814 38456s
 21057 13450 1946370.29   81  343 1369850.32 3533645.87   158%  1814 38462s
 21058 13451 2760609.65   58  343 1369850.32 3533645.87   158%  1814 38469s
 21059 13452 2260552.58   76  346 1369850.32 3533645.87   158%  1814 38486s
 21060 13452 2510531.71   71  316 1369850.32 3533188.54   158%  1814 38523s
 21061 13453 1954143.30   88  327 1369850.32 3531378.55   158%  1814 38543s
 21062 13454 2178389.00   69  332 1369850.32 3526516.24   157%  1814 38582s
 21063 13454 2923684.89   60  333 1369850.32 3521244.54   157%  1814 38586s
 21064 13455 2266151.67   81  394 1369850.32 3515967.40   157%  1814 38594s
 21065 13456 3513437.28   76  350 1369850.32 3513437.28   156%  1814 38597s
 21066 13456 2809230.92   60  332 1369850.32 3510344.19   156%  1814 38603s
 21067 13457 2567874.38   73  361 1369850.32 3507512.73   156%  1814 38606s
 21068 13458 1749725.50   76  360 1369850.32 3507398.37   156%  1813 38624s
 21069 13458 3068559.43   84  391 1369850.32 3505846.94   156%  1813 38658s
 21070 13459 2176303.60   79  368 1369850.32 3503077.21   156%  1813 38663s
 21071 13460 2702631.31   79  367 1369850.32 3502380.31   156%  1813 38683s
 21072 13460 1868827.07   58  224 1369850.32 3424732.59   150%  1813 38744s
 21073 13461 1711281.98   62  232 1369850.32 3421902.15   150%  1813 38747s
 21074 13462 1902878.07   89  229 1369850.32 3416646.44   149%  1813 38751s
 21075 13462 1706888.40   64  245 1369850.32 3415150.97   149%  1813 38771s
 21076 13463 2718182.23   49  282 1369850.32 3390570.03   148%  1813 38815s
 21077 13464 2456424.38   66  287 1369850.32 3382058.52   147%  1813 38820s
 21079 13465 1931417.90  103  301 1369850.32 3374555.34   146%  1813 38828s
 21080 13466 3373728.16   61  310 1369850.32 3373728.16   146%  1812 38845s
 21081 13466 3074275.84   61  327 1369850.32 3346332.45   144%  1812 38894s
 21082 13467 2588138.06   66  251 1369850.32 3334851.22   143%  1812 38899s
 21083 13468 1698705.91   79  297 1369850.32 3332202.71   143%  1812 38902s
 21084 13468 1669909.91   95  299 1369850.32 3331342.66   143%  1812 38919s
 21085 13469 2896555.03   70  247 1369850.32 3312576.13   142%  1812 38954s
 21086 13470 1824277.01  123  261 1369850.32 3309458.79   142%  1812 38958s
 21087 13470 2565143.32   67  271 1369850.32 3303929.41   141%  1812 38962s
 21088 13471 2900633.81   59  273 1369850.32 3300951.84   141%  1812 38965s
 21089 13472 3077618.95   62  272 1369850.32 3300306.96   141%  1812 38982s
 21090 13472 2645238.37   58  267 1369850.32 3291037.86   140%  1812 39020s
 21092 13474 2802203.40   65  255 1369850.32 3281831.37   140%  1811 39039s
 21093 13474 3019459.68   69  249 1369850.32 3279698.31   139%  1811 39072s
 21094 13475 1798268.00   73  268 1369850.32 3277622.49   139%  1811 39089s
 21095 13476 2247187.13   64  272 1369850.32 3273437.96   139%  1811 39127s
 21096 13476 2428234.72   85  275 1369850.32 3272402.96   139%  1811 39143s
 21097 13477 2299672.63   80  294 1369850.32 3269434.78   139%  1811 39163s
 21098 13478 2020222.26   76  310 1369850.32 3268691.95   139%  1811 39180s
 21099 13478 1744320.50   69  263 1369850.32 3267039.74   138%  1811 39199s
 21100 13479 3266644.79   63  269 1369850.32 3266644.79   138%  1811 39215s
 21101 13480 1474905.85   63  279 1369850.32 3266152.17   138%  1811 39229s
 21102 13480 3266035.15   65  282 1369850.32 3266035.15   138%  1811 39244s
 21103 13481 2345796.44   78  265 1369850.32 3258722.14   138%  1810 39262s
 21104 13482 2041408.69   75  259 1369850.32 3258017.31   138%  1810 39276s
 21105 13482 2205272.26   75  257 1369850.32 3256339.48   138%  1810 39295s
 21106 13483 2201893.88   95  313 1369850.32 3255730.81   138%  1810 39313s
 21107 13484 2031478.76   89  306 1369850.32 3255121.71   138%  1810 39332s
 21108 13484 2771850.28   91  323 1369850.32 3254385.51   138%  1810 39349s
 21109 13485 1734913.63   88  322 1369850.32 3254027.38   138%  1810 39369s
 21110 13486 1757343.63   93  274 1369850.32 3253904.59   138%  1810 39385s
 21111 13486 3173461.24  103  320 1369850.32 3253485.79   138%  1810 39405s
 21112 13487 2000508.00   73  333 1369850.32 3253322.50   137%  1810 39420s
 21113 13488 2458642.02   87  338 1369850.32 3253308.68   137%  1810 39436s
 21114 13488 2975811.16   71  328 1369850.32 3253210.77   137%  1809 39452s
 21115 13489 2432326.14   80  328 1369850.32 3253014.82   137%  1809 39469s
 21116 13490 1993436.64   87  338 1369850.32 3252983.43   137%  1809 39486s
 21117 13490 3034491.64   66  333 1369850.32 3252371.30   137%  1809 39504s
 21118 13491 2237223.98   66  324 1369850.32 3252324.73   137%  1809 39520s
 21119 13492 1976257.50   65  326 1369850.32 3252302.21   137%  1809 39539s
 21120 13492 1737775.71   73  321 1369850.32 3252277.96   137%  1809 39553s
 21121 13493 1732418.09   72  328 1369850.32 3252225.61   137%  1809 39571s
 21122 13494 1550191.26   73  328 1369850.32 3252225.61   137%  1809 39585s
 21123 13494 2238976.50  107  328 1369850.32 3252132.98   137%  1809 39603s
 21124 13495 2457998.81   67  280 1369850.32 3252119.12   137%  1809 39619s
 21125 13496 2331314.87   84  274 1369850.32 3251998.46   137%  1809 39635s
 21126 13496 2248303.34   75  341 1369850.32 3251990.45   137%  1808 39652s
 21127 13497 3251990.45   54  340 1369850.32 3251990.45   137%  1808 39671s
 21128 13498 2496653.16   74  279 1369850.32 3251977.05   137%  1808 39687s
 21129 13498 1924159.23   63  288 1369850.32 3251754.50   137%  1808 39702s
 21130 13499 2748894.62   63  288 1369850.32 3251754.50   137%  1808 39717s
 21131 13500 2326762.77   88  281 1369850.32 3251606.83   137%  1808 39735s
 21132 13500 2477127.59   86  276 1369850.32 3251599.00   137%  1808 39765s
 21133 13501 2724395.60   71  275 1369850.32 3251599.00   137%  1808 39779s
 21134 13502 2466785.16   66  275 1369850.32 3251599.00   137%  1808 39849s
 21135 13504 2318276.82   85  269 1369850.32 3251599.00   137%  1819 39854s
 21137 13505 1860145.08   61  101 1369850.32 3251599.00   137%  1819 39865s
 21138 13506 1864092.65   74  157 1369850.32 3251599.00   137%  1819 39880s
 21139 13507 2511184.06   70  188 1369850.32 3251599.00   137%  1819 39889s
 21140 13507 2720087.83  118  159 1369850.32 3251599.00   137%  1819 39895s
 21141 13508 3251599.00   55  158 1369850.32 3251599.00   137%  1819 39900s
 21142 13509 2537196.17   66  223 1369850.32 3251599.00   137%  1818 39907s
 21143 13509 1986649.99   92  234 1369850.32 3251599.00   137%  1818 39912s
 21144 13510 2103889.30   78  171 1369850.32 3251599.00   137%  1818 39915s
 21146 13511 1501075.88   95  229 1369850.32 3251599.00   137%  1818 39921s
 21148 13513 2792220.89  109  199 1369850.32 3251599.00   137%  1818 39932s
 21149 13513 3251599.00   57  200 1369850.32 3251599.00   137%  1818 39948s
 21150 13514 2087531.28   71  284 1369850.32 3251599.00   137%  1818 39958s
 21151 13515 1797911.60   74  283 1369850.32 3251599.00   137%  1818 39963s
 21152 13515 3251599.00   55  341 1369850.32 3251599.00   137%  1818 39974s
 21153 13516 1590903.09   71  276 1369850.32 3251599.00   137%  1818 39978s
 21154 13517 2240661.78   77  310 1369850.32 3251599.00   137%  1817 39983s
 21155 13517 2086513.18   84  246 1369850.32 3251599.00   137%  1817 40016s
 21156 13518 2652887.85   59  227 1369850.32 3251599.00   137%  1817 40032s
 21157 13519 1946370.29   81  289 1369850.32 3251599.00   137%  1817 40075s
 21159 13520 2260552.58   76  305 1369850.32 3251599.00   137%  1817 40085s
 21160 13521 2510531.71   71  310 1369850.32 3251599.00   137%  1817 40100s
 21161 13521 1954143.30   88  300 1369850.32 3251599.00   137%  1817 40119s
 21162 13522 2178389.00   69  296 1369850.32 3251599.00   137%  1817 40123s
 21163 13523 2923684.89   60  321 1369850.32 3251599.00   137%  1817 40125s
 21164 13523 2266151.67   81  324 1369850.32 3251599.00   137%  1817 40148s
H21164 12846                    1369850.3256 3251599.00   137%  1817 40165s
 21165 12847 3251599.00   76  327 1369850.33 3251599.00   137%  1816 40182s
 21166 12848 2809230.92   60  339 1369850.33 3251599.00   137%  1816 40201s
 21167 12848 2567874.38   73  309 1369850.33 3251599.00   137%  1816 40217s
 21168 12849 1749725.50   76  313 1369850.33 3251599.00   137%  1816 40233s
 21169 12850 3068559.43   84  317 1369850.33 3251453.35   137%  1816 40251s
 21170 12850 2176303.60   79  262 1369850.33 3251053.61   137%  1816 40267s
 21171 12851 2702631.31   79  315 1369850.33 3250234.72   137%  1816 40304s
 21172 12852 1868827.07   58  347 1369850.33 3249168.37   137%  1816 40320s
 21173 12852 1711281.98   62  301 1369850.33 3245796.45   137%  1816 40356s
 21174 12853 1902878.07   89  350 1369850.33 3244202.59   137%  1816 40375s
 21175 12854 1706888.40   64  345 1369850.33 3242900.52   137%  1816 40410s
 21176 12854 2718182.23   49  342 1369850.33 3241532.10   137%  1816 40428s
 21177 12855 2456424.38   66  337 1369850.33 3240425.69   137%  1815 40464s
 21178 12856 2496694.01   71  353 1369850.33 3239922.21   137%  1815 40484s
 21179 12856 1931417.90  103  376 1369850.33 3239585.40   136%  1815 40522s
 21180 12857 3238752.34   61  361 1369850.33 3238752.34   136%  1815 40540s
 21181 12858 3074275.84   61  354 1369850.33 3230021.70   136%  1815 40586s
 21182 12858 2588138.06   66  334 1369850.33 3228946.36   136%  1815 40604s
 21183 12859 1698705.91   79  359 1369850.33 3225511.75   135%  1815 40638s
 21184 12860 1669909.91   95  358 1369850.33 3223595.06   135%  1815 40655s
 21185 12860 2896555.03   70  349 1369850.33 3221192.03   135%  1815 40688s
 21186 12861 1824277.01  123  351 1369850.33 3219883.06   135%  1815 40705s
 21187 12862 2565143.32   67  367 1369850.33 3219641.51   135%  1815 40732s
 21188 12862 2900633.81   59  365 1369850.33 3219498.92   135%  1814 40747s
 21189 12863 3077618.95   62  347 1369850.33 3219021.04   135%  1814 40781s
 21190 12864 2645238.37   58  375 1369850.33 3217453.90   135%  1814 40797s
 21191 12864 2290620.06   81  369 1369850.33 3216583.25   135%  1814 40829s
 21192 12865 2802203.40   65  368 1369850.33 3215845.35   135%  1814 40842s
 21193 12866 3019459.68   69  352 1369850.33 3215614.63   135%  1814 40872s
 21194 12866 1798268.00   73  354 1369850.33 3215511.41   135%  1814 40885s
 21195 12867 2247187.13   64  361 1369850.33 3215364.05   135%  1814 40920s
 21196 12868 2428234.72   85  368 1369850.33 3214910.11   135%  1814 40932s
 21197 12868 2299672.63   80  366 1369850.33 3214740.00   135%  1814 40963s
 21198 12869 2020222.26   76  374 1369850.33 3214703.31   135%  1814 40977s
 21199 12870 1744320.50   69  361 1369850.33 3213732.05   135%  1814 41016s
 21200 12870 3213534.23   63  357 1369850.33 3213534.23   135%  1813 41030s
 21201 12871 1474905.85   63  363 1369850.33 3213519.29   135%  1813 41059s
 21202 12872 3213272.22   65  354 1369850.33 3213272.22   135%  1813 41073s
 21203 12872 2345796.44   78  361 1369850.33 3213237.69   135%  1813 41102s
 21204 12873 2041408.69   75  361 1369850.33 3213224.99   135%  1813 41116s
 21205 12874 2205272.26   75  362 1369850.33 3213193.18   135%  1813 41147s
 21206 12874 2201893.88   95  359 1369850.33 3213145.71   135%  1813 41161s
 21207 12875 2031478.76   89  360 1369850.33 3212727.69   135%  1813 41191s
 21208 12876 2771850.28   91  376 1369850.33 3212603.51   135%  1813 41205s
 21209 12876 1734913.63   88  373 1369850.33 3212432.71   135%  1813 41237s
 21210 12877 1757343.63   93  374 1369850.33 3212372.90   135%  1813 41253s
 21211 12878 3173461.24  103  387 1369850.33 3209620.25   134%  1813 41272s
 21212 12878 2000508.00   73  390 1369850.33 3209308.90   134%  1812 41286s
 21213 12879 2458642.02   87  378 1369850.33 3208919.01   134%  1812 41321s
 21214 12880 2975811.16   71  377 1369850.33 3208782.78   134%  1812 41335s
 21215 12880 2432326.14   80  370 1369850.33 3208493.54   134%  1812 41364s
 21216 12881 1993436.64   87  380 1369850.33 3208196.36   134%  1812 41377s
 21217 12882 3034491.64   66  375 1369850.33 3208102.00   134%  1812 41394s
 21218 12882 2237223.98   66  373 1369850.33 3208093.70   134%  1812 41408s
 21219 12883 1976257.50   65  365 1369850.33 3207860.87   134%  1812 41424s
 21220 12884 1737775.71   73  371 1369850.33 3207852.06   134%  1812 41438s
 21221 12884 1732418.09   72  371 1369850.33 3207802.96   134%  1812 41464s
 21222 12885 1550191.26   73  374 1369850.33 3207800.18   134%  1812 41477s
 21223 12886 2238976.50  107  374 1369850.33 3207750.76   134%  1812 41504s
 21224 12886 2457998.81   67  374 1369850.33 3207727.31   134%  1811 41516s
 21225 12887 2331314.87   84  377 1369850.33 3207561.74   134%  1811 41548s
 21226 12888 2248303.34   75  381 1369850.33 3207529.57   134%  1811 41561s
 21227 12888 3207485.44   54  377 1369850.33 3207485.44   134%  1811 41578s
 21228 12889 2496653.16   74  374 1369850.33 3207432.63   134%  1811 41592s
 21229 12890 1924159.23   63  374 1369850.33 3207432.63   134%  1811 41636s
 21230 12890 2748894.62   63  374 1369850.33 3207432.63   134%  1811 41651s
 21231 12891 2326762.77   88  374 1369850.33 3207432.63   134%  1811 41730s
 21232 12895 3201575.84   81  354 1369850.33 3207330.50   134%  1818 41794s
 21234 12898 3179088.03   82  298 1369850.33 3191357.78   133%  1818 41849s
 21238 12901 3175352.77   83  305 1369850.33 3175352.77   132%  1819 41926s
 21242 12903 2053462.20   83  160 1369850.33 3166219.99   131%  1820 42002s
 21246 12906 3070536.37   84  237 1369850.33 3161186.25   131%  1820 42032s
 21250 12907 3127434.08   84  314 1369850.33 3153293.62   130%  1821 42073s
 21254 12908 3042516.48   85  305 1369850.33 3153293.62   130%  1822 42097s
 21258 12912 3038159.34   85  228 1369850.33 3153293.62   130%  1822 42137s
 21262 12908 3038125.33   86  226 1369850.33 3139666.36   129%  1822 42167s
 21269 12915 3018186.54   87  212 1369850.33 3119621.26   128%  1822 42190s
 21274 12922 3027683.87   87  210 1369850.33 3119621.26   128%  1823 42216s
 21279 12922 2970156.11   88  243 1369850.33 3119621.26   128%  1824 42237s
 21285 12925 2993606.20   88  152 1369850.33 3119621.26   128%  1824 42272s
 21293 12934 2898749.51   89  117 1369850.33 3119621.26   128%  1825 42323s
 21300 12938 2881860.65   90  110 1369850.33 3119621.26   128%  1827 42351s
 21308 12941 2599457.21   91  209 1369850.33 3119621.26   128%  1828 42381s
 21314 12948 2650696.90   91  116 1369850.33 3119621.26   128%  1829 42406s
 21321 12943 2645025.36   92  118 1369850.33 3119621.26   128%  1830 42430s
 21330 12954 2622401.77   93   97 1369850.33 3119621.26   128%  1831 42469s
 21338 12960 2605100.13   95  127 1369850.33 3119621.26   128%  1832 42501s
 21348 12966 2271602.90   96   76 1369850.33 3119621.26   128%  1833 42552s
 21357 12968 2363749.82   97  185 1369850.33 3119621.26   128%  1835 42590s
 21367 12977 1598205.43   98  132 1369850.33 3119621.26   128%  1836 42617s
 21375 12983 2264266.01  100  175 1369850.33 3119621.26   128%  1836 42651s
 21389 12985 2182926.94  103  171 1369850.33 3119621.26   128%  1838 42681s
 21407 12993 2144919.95  107  190 1369850.33 3119621.26   128%  1839 42724s
 21419 12994     cutoff  107      1369850.33 3119621.26   128%  1838 42752s
 21447 12999 1948315.47  112  119 1369850.33 3119621.26   128%  1839 42777s
 21469 13002     cutoff  116      1369850.33 3119621.26   128%  1838 42796s
 21511 13005 1925151.70  123  106 1369850.33 3119621.26   128%  1836 42816s
 21543 12991     cutoff  132      1369850.33 3119620.49   128%  1834 42845s
 21583 13001 3080823.78   86  255 1369850.33 3118834.82   128%  1832 42915s
 21587 13002 3064640.14   87  192 1369850.33 3118834.82   128%  1833 42943s
 21607 13005 2925626.53   89  138 1369850.33 3118834.82   128%  1834 42996s
 21633 13007 2911027.24   88  220 1369850.33 3118834.82   128%  1835 43023s
 21682 13013 2375793.42   89  195 1369850.33 3118834.82   128%  1834 43053s
 21735 13022 2610736.59   90  121 1369850.33 3118834.82   128%  1832 43092s
 21765 13017 2616183.63   90  196 1369850.33 3118834.82   128%  1832 43128s
 21794 13035 2493058.86   92  185 1369850.33 3118834.82   128%  1832 43199s
 21816 13039 2517217.64   91  162 1369850.33 3118834.82   128%  1832 43234s
 21838 13047 2329770.62   96  210 1369850.33 3118834.82   128%  1834 43270s
 21877 13063 2270663.57   97  158 1369850.33 3118834.82   128%  1834 43303s
 21910 13066 2260824.81   99   80 1369850.33 3118834.82   128%  1835 43344s
 21951 13090 1672696.29  115   44 1369850.33 3070536.37   124%  1836 43376s
 22012 13100 1946529.57   86  183 1369850.33 3070536.37   124%  1835 43418s
 22038 13107 2744733.64   88  143 1369850.33 3070536.37   124%  1837 43467s
 22060 13105 2564075.02   90  121 1369850.33 3070536.37   124%  1839 43506s
 22093 13122 2574836.37   91   52 1369850.33 3070536.37   124%  1840 43572s
 22141 13150 2425105.64   95   54 1369850.33 3070536.37   124%  1842 43617s
 22189 13166 2360911.86  106   56 1369850.33 3068655.82   124%  1841 43658s
 22274 13199 2795475.50   89  294 1369850.33 3068608.69   124%  1839 43707s
 22304 13198 2327756.04   91  282 1369850.33 3068608.69   124%  1842 43757s
 22367 13231 2052557.04  102  250 1369850.33 3068608.69   124%  1842 43815s
 22435 13264 1666686.15  134   50 1369850.33 3064016.50   124%  1841 43878s
 22480 13281 2424436.97   89  141 1369850.33 3064016.50   124%  1844 43938s
 22550 13317 2079847.41  104  102 1369850.33 3015548.76   120%  1844 44054s
 22660 13319 2187878.37   91   79 1369850.33 3009609.07   120%  1844 44128s
 22745 13363 1957512.29   92   85 1369850.33 3009609.07   120%  1844 44223s
 22866 13409 1823618.59  100   95 1369850.33 2983150.59   118%  1840 44291s
 22900 13410 2539758.12   92  314 1369850.33 2983150.59   118%  1844 44349s
 22978 13443 2290546.69  104  164 1369850.33 2982975.79   118%  1845 44416s
 23078 13468 2510658.98   94  139 1369850.33 2972829.02   117%  1845 44502s
 23233 13518 2648565.66   87  168 1369850.33 2972829.02   117%  1841 44576s
 23338 13554     cutoff   95      1369850.33 2970152.86   117%  1841 44648s
 23430 13579 2432024.50   89  213 1369850.33 2970152.86   117%  1843 44728s
 23593 13606 2155531.24   96  103 1369850.33 2940371.56   115%  1839 44818s
 23744 13673 2637302.02   99  280 1369850.33 2929505.24   114%  1837 44897s
 23875 13731 2198781.03  133  114 1369850.33 2919782.37   113%  1836 45014s
 23981 13762 2638315.41   96  176 1369850.33 2918966.29   113%  1837 45118s
 24149 13803 2005156.80  105  144 1369850.33 2910583.11   112%  1835 45209s
 24300 13830 2744154.34   87  162 1369850.33 2890033.03   111%  1835 45301s
 24407 13876 2358575.55   90  148 1369850.33 2888602.51   111%  1836 45397s
 24532 13927 2778959.81   88  299 1369850.33 2888602.51   111%  1838 45564s
 24702 14005 2220192.97  109  213 1369850.33 2877038.31   110%  1837 45748s
 24844 14049 2336576.40   92  196 1369850.33 2874384.59   110%  1839 45872s
 25066 14124 2541739.87   94  179 1369850.33 2867993.51   109%  1835 45995s
 25179 14184 2412257.80   93  143 1369850.33 2867993.51   109%  1839 46288s
 25335 14250 2018851.89  105  119 1369850.33 2865515.54   109%  1840 46445s
 25600 14330 2105616.65   94  245 1369850.33 2858931.99   109%  1837 46638s
 25902 14454 2353871.84  120  291 1369850.33 2854737.90   108%  1828 46785s
 26202 14628 2078597.58  107  157 1369850.33 2851518.45   108%  1820 46936s
 26451 14675 2172775.80  103   96 1369850.33 2832999.77   107%  1818 47134s
 26726 14775 2320774.86   91  229 1369850.33 2829796.32   107%  1816 47316s
 26899 14828 2156930.73   98  142 1369850.33 2822193.08   106%  1821 47515s
 27180 14941 2325378.09   98  104 1369850.33 2814803.76   105%  1819 47708s
 27680 15167 2363439.75  114  154 1369850.33 2810702.13   105%  1802 47884s
 28066 15329 2152811.74  106  252 1369850.33 2807433.56   105%  1795 48128s
 28523 15512 1723175.87  128  102 1369850.33 2805213.69   105%  1784 48328s
 28805 15645 2376053.32  102  269 1369850.33 2799440.21   104%  1783 48569s
 29166 15770 2131517.59  131  153 1369850.33 2796453.49   104%  1779 48883s
 29629 15969 2325684.28   98  194 1369850.33 2794024.31   104%  1771 49126s
 30065 16127 2376140.08  107  107 1369850.33 2792024.80   104%  1766 49392s
 30393 16231 2377253.14  103  166 1369850.33 2786117.82   103%  1766 49715s
H30482 15361                    1515134.1300 2786117.82  83.9%  1764 49715s
 30763 15499 2330607.53   95  265 1515134.13 2778167.45  83.4%  1765 50084s
H31206 15029                    1515134.1303 2775987.84  83.2%  1763 50121s
 31207 15030 2314247.68  102  269 1515134.13 2775987.84  83.2%  1763 50213s
 31209 15031 2372444.81  109  102 1515134.13 2775987.84  83.2%  1762 50224s
 31210 15032 2054969.32  103  167 1515134.13 2775987.84  83.2%  1762 50242s
 31211 15033 1809075.15  123  149 1515134.13 2775987.84  83.2%  1762 50248s
 31212 15033 2038299.59  127  155 1515134.13 2775987.84  83.2%  1762 50251s
 31214 15035 2611541.00   97  256 1515134.13 2775987.84  83.2%  1762 50262s
 31215 15035 2366281.84  100  169 1515134.13 2775987.84  83.2%  1762 50265s
 31217 15037 2089122.02   95  207 1515134.13 2775987.84  83.2%  1762 50272s
 31218 15037 1672838.19  135  279 1515134.13 2775987.84  83.2%  1762 50293s
 31219 15038 2053439.44   84  203 1515134.13 2775987.84  83.2%  1762 50300s
 31221 15039 2209566.49  118  290 1515134.13 2775987.84  83.2%  1762 50319s
 31222 15040 1779554.98   99  210 1515134.13 2775987.84  83.2%  1762 50323s
 31223 15041 1856883.10  136  325 1515134.13 2775987.84  83.2%  1762 50329s
 31224 15041 2484855.27   93  208 1515134.13 2775987.84  83.2%  1762 50335s
 31226 15043 2499353.72  107  298 1515134.13 2775987.84  83.2%  1762 50344s
 31227 15043 2498152.07   94  314 1515134.13 2775987.84  83.2%  1761 50347s
 31228 15044 2221595.95  100  304 1515134.13 2775987.84  83.2%  1761 50352s
 31229 15045 1921648.00  109  331 1515134.13 2775987.84  83.2%  1761 50357s
 31230 15045 2517210.20   92  321 1515134.13 2775987.84  83.2%  1761 50367s
 31231 15046 2127437.10  105  311 1515134.13 2775987.84  83.2%  1761 50373s
 31232 15047 2081745.30   92  307 1515134.13 2775987.84  83.2%  1761 50378s
 31233 15047 2514985.50  106  320 1515134.13 2775987.84  83.2%  1761 50382s
 31234 15048 2399248.28  106  339 1515134.13 2775987.84  83.2%  1761 50388s
 31235 15049 1851266.69  126  347 1515134.13 2775987.84  83.2%  1761 50420s
 31236 15049 2182637.69   99  365 1515134.13 2775987.84  83.2%  1761 50426s
 31238 15051 1913483.44   99  386 1515134.13 2775987.84  83.2%  1761 50431s
 31239 15051 1630938.18  134  377 1515134.13 2775987.84  83.2%  1761 50447s
 31240 15052 1915042.27  132  373 1515134.13 2775987.84  83.2%  1761 50477s
 31241 15053 2639889.03   99  372 1515134.13 2775987.84  83.2%  1761 50492s
 31242 15053 2502875.46  108  384 1515134.13 2775987.84  83.2%  1761 50521s
 31243 15054 2451238.61  112  390 1515134.13 2775987.84  83.2%  1761 50538s
 31244 15055 2589443.88   87  382 1515134.13 2775987.84  83.2%  1761 50571s
 31245 15055 2288366.11  113  397 1515134.13 2775987.84  83.2%  1760 50577s
 31246 15056 1576845.10  143  402 1515134.13 2775987.84  83.2%  1760 50593s
 31247 15057 2096036.53  106  353 1515134.13 2775987.84  83.2%  1760 50627s
 31248 15057 1524135.25   96  369 1515134.13 2775987.84  83.2%  1760 50644s
 31249 15058 1592812.97  142  365 1515134.13 2775987.84  83.2%  1760 50676s
 31250 15059 2136571.00  124  365 1515134.13 2775987.84  83.2%  1760 50694s
 31251 15059 1637983.50  153  366 1515134.13 2775987.84  83.2%  1760 50726s
 31252 15060 2113342.14  104  391 1515134.13 2775987.84  83.2%  1760 50739s
 31253 15061 2369914.63   97  352 1515134.13 2775987.84  83.2%  1760 50773s
 31254 15061 2602488.13   97  339 1515134.13 2775987.84  83.2%  1760 50778s
 31255 15062 1968461.29   92  325 1515134.13 2775987.84  83.2%  1760 50793s
 31256 15063 2240571.95  121  331 1515134.13 2775987.84  83.2%  1760 50829s
 31257 15063 1943281.68  152  324 1515134.13 2775987.84  83.2%  1760 50832s
 31258 15064 2064464.00  106  330 1515134.13 2775987.84  83.2%  1760 50848s
 31259 15065 2158756.68   89  397 1515134.13 2775987.84  83.2%  1760 50885s
 31260 15065 2372369.28  122  405 1515134.13 2775987.84  83.2%  1760 50901s
 31261 15066 2683754.08   92  385 1515134.13 2775987.84  83.2%  1760 50933s
 31262 15067 2313009.33  104  394 1515134.13 2775987.84  83.2%  1759 50951s
 31263 15067 2434201.50   97  377 1515134.13 2775987.84  83.2%  1759 50986s
 31264 15068 1894542.36  120  378 1515134.13 2775987.84  83.2%  1759 51004s
 31265 15069 1843457.13  119  378 1515134.13 2775987.84  83.2%  1759 51044s
 31266 15069 2410077.79  101  382 1515134.13 2775987.84  83.2%  1759 51060s
 31267 15070 1870204.86  107  384 1515134.13 2775987.84  83.2%  1759 51097s
 31268 15071 2491646.58   99  363 1515134.13 2775987.84  83.2%  1759 51111s
 31269 15071 2256018.13  124  377 1515134.13 2775987.84  83.2%  1759 51143s
 31270 15072 2011258.70  113  374 1515134.13 2775987.84  83.2%  1759 51159s
 31271 15073 1669177.27  141  372 1515134.13 2775987.84  83.2%  1759 51191s
 31272 15073 1940368.83  128  374 1515134.13 2775987.84  83.2%  1759 51206s
 31273 15074 2574072.66   99  383 1515134.13 2775987.84  83.2%  1759 51229s
 31274 15075 1764780.98  138  384 1515134.13 2775987.84  83.2%  1759 51242s
 31275 15075 2217789.73   98  378 1515134.13 2775987.84  83.2%  1759 51266s
 31276 15076 1902147.99  140  378 1515134.13 2775987.84  83.2%  1759 51281s
 31277 15077 1852360.93  103  378 1515134.13 2775987.84  83.2%  1759 51301s
 31278 15077 1955918.33  114  375 1515134.13 2775987.84  83.2%  1759 51315s
 31279 15078 2654452.20   98  369 1515134.13 2775987.84  83.2%  1759 51331s
 31280 15079 2424197.45   90  369 1515134.13 2775987.84  83.2%  1758 51344s
 31281 15079 1993411.04  120  374 1515134.13 2775987.84  83.2%  1758 51378s
 31282 15080 2611726.45   94  374 1515134.13 2775987.84  83.2%  1758 51411s
 31283 15081 2450329.41  112  375 1515134.13 2775987.84  83.2%  1758 51425s
 31284 15081 1859397.31  115  369 1515134.13 2775987.84  83.2%  1758 51467s
 31285 15082 1852982.52  121  364 1515134.13 2775987.84  83.2%  1758 51502s
 31286 15083 2447681.94  102  365 1515134.13 2775987.84  83.2%  1758 51517s
 31287 15083 2648095.15   88  363 1515134.13 2775987.84  83.2%  1758 51539s
 31288 15084 2445387.58   92  360 1515134.13 2775987.84  83.2%  1758 51554s
 31289 15085 2272415.21   91  360 1515134.13 2775987.84  83.2%  1758 51591s
 31290 15085 1876805.56  116  383 1515134.13 2775987.84  83.2%  1758 51607s
 31291 15086 2186269.86  108  372 1515134.13 2775987.84  83.2%  1758 51622s
 31292 15087 2114188.29   97  385 1515134.13 2775987.84  83.2%  1758 51639s
 31293 15087 1711881.82  105  379 1515134.13 2775987.84  83.2%  1758 51650s
 31294 15088 2685571.28   94  382 1515134.13 2775987.84  83.2%  1758 51672s
 31295 15089 2011210.48  114  380 1515134.13 2775987.84  83.2%  1758 51686s
 31296 15089 2580749.59  102  374 1515134.13 2775987.84  83.2%  1758 51708s
 31297 15090 2492881.28  104  377 1515134.13 2775987.84  83.2%  1758 51723s
 31298 15091 2263481.71  123  371 1515134.13 2775987.84  83.2%  1757 51744s
 31299 15091 2156050.33  128  393 1515134.13 2775987.84  83.2%  1757 51758s
 31300 15092 2032628.14  110  387 1515134.13 2775987.84  83.2%  1757 51788s
 31301 15093 2335351.41  119  392 1515134.13 2775987.84  83.2%  1757 51803s
 31302 15093 2039731.09  137  390 1515134.13 2775987.84  83.2%  1757 51819s
 31303 15094 2079324.49  148  388 1515134.13 2775987.84  83.2%  1757 51833s
 31304 15095 2137784.68  120  381 1515134.13 2775987.84  83.2%  1757 51864s
 31305 15095 1558823.41  143  387 1515134.13 2775987.84  83.2%  1757 51878s
 31306 15096 1832546.63  172  396 1515134.13 2775987.84  83.2%  1757 51914s
 31307 15097 2314247.68  102  390 1515134.13 2775987.84  83.2%  1757 51930s
 31308 15097 2224467.76  117  395 1515134.13 2775987.84  83.2%  1757 51943s
 31309 15098 2372444.81  109  393 1515134.13 2775987.84  83.2%  1757 51958s
 31310 15099 2054969.32  103  391 1515134.13 2775987.84  83.2%  1757 51971s
 31311 15099 1809075.15  123  391 1515134.13 2775987.84  83.2%  1757 51993s
 31312 15100 2038299.59  127  392 1515134.13 2775987.84  83.2%  1757 52024s
 31313 15101 2102858.19  134  392 1515134.13 2775987.84  83.2%  1757 52039s
 31314 15101 2611541.00   97  392 1515134.13 2775987.84  83.2%  1757 52138s
 31315 15105 2775987.84   91  373 1515134.13 2775987.84  83.2%  1762 52210s
 31317 15108 2775987.84   92  356 1515134.13 2775987.84  83.2%  1763 52305s
 31321 15110 2775987.84   93  377 1515134.13 2775987.84  83.2%  1764 52335s
 31325 15113 2253896.28   93  287 1515134.13 2775987.84  83.2%  1765 52391s
 31329 15115 2775987.84   94  378 1515134.13 2775987.84  83.2%  1765 52435s
 31333 15116 2331679.00   94  246 1515134.13 2775987.84  83.2%  1766 52476s
 31337 15118 2775987.84   95  326 1515134.13 2775987.84  83.2%  1767 52500s
 31341 15117 2775987.84   95  299 1515134.13 2775987.84  83.2%  1768 52533s
 31345 15115 2775987.84   96  263 1515134.13 2775987.84  83.2%  1769 52562s
 31351 15121 2775987.84   96  391 1515134.13 2775987.84  83.2%  1769 52592s
 31356 15121 2775987.84   97  266 1515134.13 2775987.84  83.2%  1769 52616s
 31362 15122 2775987.84   98  268 1515134.13 2775987.84  83.2%  1770 52632s
 31370 15126 2775987.84   98  167 1515134.13 2775987.84  83.2%  1771 52662s
 31377 15121 2775987.84   99  370 1515134.13 2775987.84  83.2%  1771 52683s
 31387 15131 2775987.84   99  205 1515134.13 2775987.84  83.2%  1772 52700s
 31396 15126 2775987.84  100  375 1515134.13 2775987.84  83.2%  1772 52725s
 31404 15131 2775987.84  101  357 1515134.13 2775987.84  83.2%  1773 52748s
 31410 15140 2775987.84  101  199 1515134.13 2775987.84  83.2%  1773 52780s
 31417 15144 2775987.84  103  198 1515134.13 2775987.84  83.2%  1774 52818s
 31427 15144 2775987.84  104  158 1515134.13 2775987.84  83.2%  1775 52844s
 31438 15150 1949203.26  105  174 1515134.13 2775987.84  83.2%  1777 52870s
 31451 15159 2775987.84  106  203 1515134.13 2775987.84  83.2%  1777 52907s
 31468 15166 2775987.84  107  203 1515134.13 2775987.84  83.2%  1778 52958s
 31488 15177 2775987.84  108  194 1515134.13 2775987.84  83.2%  1778 53014s
 31509 15180 2775987.84  109  200 1515134.13 2775987.84  83.2%  1779 53053s
 31532 15191 2775987.84  110  200 1515134.13 2775987.84  83.2%  1780 53085s
 31557 15191 2698858.09  111  162 1515134.13 2775987.84  83.2%  1780 53116s
 31576 15188 2775987.84  111  172 1515134.13 2775987.84  83.2%  1780 53144s
 31591 15189 2657675.28  112  168 1515134.13 2775987.84  83.2%  1781 53170s
 31601 15201 2775987.84  113  297 1515134.13 2775987.84  83.2%  1781 53204s
 31614 15205 2775987.84  114  299 1515134.13 2775987.84  83.2%  1782 53232s
 31624 15214 2759537.06  115  279 1515134.13 2775987.84  83.2%  1784 53261s
 31635 15218 2700718.05  116  266 1515134.13 2775987.84  83.2%  1785 53297s
 31648 15223 2698002.33  117  228 1515134.13 2775987.84  83.2%  1787 53323s
 31671 15235 2674634.02  118  228 1515134.13 2775987.84  83.2%  1788 53349s
 31694 15255 2497342.46  119  142 1515134.13 2775987.84  83.2%  1789 53380s
 31747 15279 2648170.15  121  243 1515134.13 2775987.84  83.2%  1789 53416s
H31784 14526                    1515134.1313 2775987.84  83.2%  1788 53416s
 31795 14533 2602284.76  121  174 1515134.13 2775987.84  83.2%  1788 53452s
 31834 14542 2629583.40  124  208 1515134.13 2775987.84  83.2%  1788 53500s
 31875 14553 2603368.50  126  220 1515134.13 2775987.84  83.2%  1788 53535s
 31888 14555 2599957.84  128  211 1515134.13 2775987.84  83.2%  1790 53591s
 31903 14565     cutoff  130      1515134.13 2775987.84  83.2%  1792 53624s
 31918 14574 2572624.82  132  188 1515134.13 2775987.84  83.2%  1793 53661s
 31951 14594 2554461.38  135  203 1515134.13 2775987.84  83.2%  1795 53703s
 31988 14613 1571658.60  139  134 1515134.13 2775987.84  83.2%  1796 53752s
 32042 14637 2396405.10  143  187 1515134.13 2775987.84  83.2%  1797 53796s
 32154 14691     cutoff  148      1515134.13 2775987.84  83.2%  1794 53853s
 32243 14700 2325068.58  154  177 1515134.13 2775987.84  83.2%  1793 53887s
 32297 14725 1853084.75  161  121 1515134.13 2775987.84  83.2%  1793 53931s
 32401 14769 1958696.23  171  155 1515134.13 2775987.84  83.2%  1791 54008s
 32513 14793 2332488.89  101  320 1515134.13 2775987.84  83.2%  1790 54058s
 32541 14806 2271106.41  107  309 1515134.13 2775987.84  83.2%  1791 54099s
 32628 14842 2023557.52  114  309 1515134.13 2775987.84  83.2%  1790 54145s
 32699 14866 1776845.11  122  187 1515134.13 2775987.84  83.2%  1790 54249s
 32760 14891 2661291.78   98  250 1515134.13 2775987.84  83.2%  1790 54316s
 32819 14913 2447903.40  104  174 1515134.13 2775987.84  83.2%  1792 54392s
 32945 14970 2263923.33  114  137 1515134.13 2775987.84  83.2%  1790 54479s
 33070 15013 2574426.07  106  176 1515134.13 2775987.84  83.2%  1790 54576s
 33123 15017 1882875.38  109  102 1515134.13 2775987.84  83.2%  1793 54666s
 33242 15045 2417750.56  109  135 1515134.13 2775987.84  83.2%  1793 54747s
 33404 15084 2611768.90  103  143 1515134.13 2775987.84  83.2%  1791 54807s
 33511 15097 2383241.50  112  129 1515134.13 2775987.84  83.2%  1792 54873s
 33613 15126 2284913.84  104  224 1515134.13 2775987.84  83.2%  1794 54944s
 33670 15125 2282812.40  106  144 1515134.13 2775987.84  83.2%  1797 55050s
 33870 15206 2769695.58  102  173 1515134.13 2775987.84  83.2%  1794 55116s
 33963 15243 2537343.56  112  158 1515134.13 2775987.84  83.2%  1796 55228s
 34117 15293 2242782.25  126  134 1515134.13 2775987.84  83.2%  1795 55335s
 34276 15349 2440590.30  108  261 1515134.13 2775987.84  83.2%  1795 55498s
 34360 15363 2410668.06  109  225 1515134.13 2775987.84  83.2%  1797 55616s
 34505 15403 2500424.36  110  225 1515134.13 2775987.84  83.2%  1798 55724s
 34663 15436 2220470.24  105  269 1515134.13 2775987.84  83.2%  1798 55847s
 34839 15460 2380005.93  112  261 1515134.13 2773442.83  83.0%  1799 55999s
 35056 15536 2448077.10  105  155 1515134.13 2762254.54  82.3%  1796 56098s
 35216 15581 2352202.45   99  212 1515134.13 2751895.99  81.6%  1797 56194s
 35462 15646 2449721.70  116  158 1515134.13 2743049.68  81.0%  1795 56361s
 35693 15727 2509678.26  114  205 1515134.13 2735523.07  80.5%  1795 56518s
 35885 15770 1652845.17  101  106 1515134.13 2729356.68  80.1%  1797 56658s
 36073 15828 2577045.47  103  167 1515134.13 2718574.26  79.4%  1799 56816s
 36299 15892 1734420.35   99   94 1515134.13 2714630.85  79.2%  1799 56972s
 36557 15952     cutoff  108      1515134.13 2710754.99  78.9%  1799 57144s
 36785 16022 2563350.70  103  184 1515134.13 2698328.36  78.1%  1801 57329s
 37028 16084 2552150.09  115  176 1515134.13 2687372.04  77.4%  1801 57534s
H37130 15397                    1515134.1329 2687347.79  77.4%  1805 57534s
 37204 15403 2032379.58  108  191 1515134.13 2684862.49  77.2%  1805 57708s
 37560 15516 1987209.96  111  185 1515134.13 2672750.89  76.4%  1801 57929s
 37888 15622 2150262.56  113  118 1515134.13 2666029.45  76.0%  1799 58106s
 38101 15669 2224849.07  117  193 1515134.13 2664655.89  75.9%  1805 58299s
 38213 15696 2222060.03  118  194 1515134.13 2661013.52  75.6%  1806 58510s
 38483 15765 2097731.28  132  174 1515134.13 2657579.93  75.4%  1809 58766s
 38895 15879 2255039.89  108  218 1515134.13 2651269.16  75.0%  1806 59037s
 39274 15954 2469511.59  109  236 1515134.13 2645566.65  74.6%  1806 59282s
 39625 16014 2513634.23  110  203 1515134.13 2635247.26  73.9%  1808 59556s
 39957 16053 2052178.74  106   93 1515134.13 2628134.62  73.5%  1812 59822s
 40383 16147 1845593.96  112   90 1515134.13 2617829.89  72.8%  1811 60128s
 40809 16248 2476213.94  105  285 1515134.13 2609517.71  72.2%  1812 60411s
 41166 16312 2222990.11  121  136 1515134.13 2604725.59  71.9%  1817 60704s
 41565 16366 1797099.74  120  191 1515134.13 2595631.29  71.3%  1821 61024s
 42101 16464 2505207.89  103  224 1515134.13 2583937.44  70.5%  1819 61328s
 42549 16536 2092412.39  105  199 1515134.13 2576790.42  70.1%  1822 61612s
 42931 16596 2484622.58  120  229 1515134.13 2571088.64  69.7%  1825 61928s
 43300 16680 2365274.22  107  142 1515134.13 2563428.57  69.2%  1831 62205s
 43806 16766 2160777.76  111   86 1515134.13 2557576.31  68.8%  1831 62553s
 44305 16793 1562038.41  107  168 1515134.13 2550393.19  68.3%  1831 62873s
 44791 16884 2341850.47  110  149 1515134.13 2547753.41  68.2%  1831 63197s
 45329 16969 2394942.61  105  185 1515134.13 2541154.08  67.7%  1828 63503s
 45833 17079 2070430.07  104  243 1515134.13 2535456.99  67.3%  1826 63787s
 46228 17168 2025134.88  112   72 1515134.13 2530420.13  67.0%  1826 64053s
 46666 17191 2225453.12  129  185 1515134.13 2527168.88  66.8%  1827 64330s
 47249 17275     cutoff  120      1515134.13 2520614.78  66.4%  1824 64649s
 47644 17368 2474719.52  105  153 1515134.13 2515958.24  66.1%  1826 64943s
 48150 17462 1929509.82  124  157 1515134.13 2511362.52  65.8%  1825 65247s
 48601 17553 1914672.53  108  156 1515134.13 2506964.47  65.5%  1825 65526s
 49067 17655 2265077.81  104  181 1515134.13 2498380.33  64.9%  1825 65837s
 49529 17742 2242008.55  108  151 1515134.13 2493997.42  64.6%  1824 66100s
 50057 17903 2125904.55  109  175 1515134.13 2491708.04  64.5%  1821 66295s
H50124 17241                    1515134.1331 2491184.30  64.4%  1821 66295s
 50180 17236 1873892.75  120   72 1515134.13 2489533.48  64.3%  1821 66602s
 50778 17442 1810370.74  122  206 1515134.13 2486441.01  64.1%  1815 66858s
 51134 17466 2243790.14  110  214 1515134.13 2482978.47  63.9%  1816 67120s
 51502 17550 2178867.59  106  177 1515134.13 2480965.24  63.7%  1815 67406s
 52005 17646 2109496.33  116  211 1515134.13 2476538.37  63.5%  1813 67691s
 52439 17738 2462238.67  110  164 1515134.13 2473640.64  63.3%  1813 67995s
 52997 17798 2214778.54  118  147 1515134.13 2467601.15  62.9%  1810 68254s
 53415 17889 1995326.57  116  128 1515134.13 2465875.72  62.7%  1810 68500s
 53884 17943 1563757.06  104  116 1515134.13 2463734.63  62.6%  1809 68766s
 54315 17998     cutoff  108      1515134.13 2458210.70  62.2%  1809 68968s
 54797 18012 1991919.11  117  135 1515134.13 2453895.15  62.0%  1808 69250s
 55318 18062 2009179.42  119  175 1515134.13 2450506.61  61.7%  1806 69500s
 55656 18061 2340838.75  109  117 1515134.13 2447097.02  61.5%  1807 69768s
 56182 18178 2083928.38  115  129 1515134.13 2442878.98  61.2%  1804 70039s
 56693 18304 2303852.54  116  147 1515134.13 2438856.27  61.0%  1802 70286s
 57111 18350 2072859.80  110  232 1515134.13 2435498.16  60.7%  1802 70557s
 57631 18392 2172210.35  109  132 1515134.13 2433419.35  60.6%  1800 70813s
 58171 18440 2321378.84  109  177 1515134.13 2426000.03  60.1%  1796 71063s
 58588 18467 1668703.95  141  126 1515134.13 2423936.83  60.0%  1797 71306s
 59026 18508 1956781.11  114  173 1515134.13 2419137.44  59.7%  1796 71568s
 59437 18588 2195072.57  112  159 1515134.13 2416569.41  59.5%  1796 71892s
 59876 18686 1954554.25  138  222 1515134.13 2414623.65  59.4%  1794 72141s
 60350 18767 2085299.65  108  195 1515134.13 2410387.61  59.1%  1792 72369s
 60807 18791 2069093.45  129  163 1515134.13 2407134.77  58.9%  1791 72633s
 61303 18816 2019591.15  117  112 1515134.13 2404710.92  58.7%  1789 72897s
 61861 18887 1590093.35  111  144 1515134.13 2401360.63  58.5%  1785 73145s
 62364 18978 1976719.76  122  114 1515134.13 2398612.28  58.3%  1783 73380s
 62864 19095 1625293.14  118  125 1515134.13 2395810.22  58.1%  1780 73619s
 63220 19151 2169538.60  117  106 1515134.13 2392754.66  57.9%  1779 73620s
 63311 19119 2149757.37  125  212 1515134.13 2392317.85  57.9%  1779 73852s
 63760 19152 2175384.86  114  241 1515134.13 2390137.57  57.8%  1778 74096s
 64197 19161 1865718.38  112  110 1515134.13 2387160.01  57.6%  1777 74329s
 64769 19258 2196956.08  115  138 1515134.13 2385490.92  57.4%  1773 74561s
 65240 19377     cutoff  111      1515134.13 2383016.66  57.3%  1770 74801s
 65639 19414 1813979.75  104   59 1515134.13 2381110.83  57.2%  1770 75028s
 66101 19445 2235457.10  127  192 1515134.13 2379025.93  57.0%  1768 75263s
 66505 19486 1627649.75  110  133 1515134.13 2377538.94  56.9%  1768 75483s
 66945 19520     cutoff  134      1515134.13 2374901.10  56.7%  1767 75715s
 67365 19544 1766089.06  138  117 1515134.13 2373835.82  56.7%  1766 75948s
 67901 19649 1593265.03  101  125 1515134.13 2369780.79  56.4%  1762 76163s
 68351 19690 1693075.75  138  124 1515134.13 2368887.13  56.3%  1761 76412s
 68867 19730 1781559.46  111  122 1515134.13 2366831.05  56.2%  1759 76643s
 69337 19840 2141077.95  110  110 1515134.13 2364913.72  56.1%  1756 76850s
 69717 19858 2160666.17  115  310 1515134.13 2362340.25  55.9%  1757 77080s
 70136 19922     cutoff  109      1515134.13 2359177.33  55.7%  1756 77307s
 70525 20097 2070191.79  136  151 1515134.13 2357188.28  55.6%  1755 77521s
 71025 20372 2241144.35  109  285 1515134.13 2355488.76  55.5%  1752 77746s
 71395 20546 1671060.28  109  108 1515134.13 2353376.57  55.3%  1752 77966s
 71822 20766     cutoff  128      1515134.13 2351771.49  55.2%  1751 78201s
 72210 20920 2312658.97  119  221 1515134.13 2349463.51  55.1%  1751 78430s
 72640 21103 2056704.09  111  179 1515134.13 2347803.26  55.0%  1750 78679s
 73129 21304     cutoff  129      1515134.13 2345810.09  54.8%  1748 78906s
 73553 21486     cutoff  112      1515134.13 2343850.39  54.7%  1747 79139s
 73948 21577 2195034.26  105  122 1515134.13 2342401.05  54.6%  1746 79392s
 74337 21712 2045252.25  104  146 1515134.13 2339767.49  54.4%  1746 79629s
 74808 21903     cutoff  149      1515134.13 2339085.50  54.4%  1744 79835s
 75339 22122 2154290.43  110  124 1515134.13 2335086.51  54.1%  1741 80052s
 75890 22389 1837466.44  126  201 1515134.13 2333083.39  54.0%  1737 80277s
 76190 22496 2267341.50  111  125 1515134.13 2331188.98  53.9%  1739 80494s
 76657 22657 1999849.27  119  109 1515134.13 2329856.08  53.8%  1737 80711s
 77147 22926     cutoff  127      1515134.13 2328043.91  53.7%  1734 80937s
 77636 23145 1794629.16  115  127 1515134.13 2326368.44  53.5%  1731 81160s
 78154 23381 2061628.75   97  154 1515134.13 2324427.88  53.4%  1728 81345s
 78594 23553 2034458.23  114  215 1515134.13 2322090.83  53.3%  1726 81547s
 78975 23723 1964094.64  115  124 1515134.13 2321163.52  53.2%  1725 81764s
 79308 23829 1890231.56  138  150 1515134.13 2318427.03  53.0%  1725 81969s
 79731 23969 1963337.32  113  140 1515134.13 2317079.19  52.9%  1724 82172s
 80209 24219 1911358.74  107  176 1515134.13 2314324.68  52.7%  1721 82370s
 80613 24398     cutoff  112      1515134.13 2313672.45  52.7%  1720 82552s
 80895 24457 2005461.79  145  186 1515134.13 2313220.41  52.7%  1719 82773s
 81474 24750 1711720.20  117   87 1515134.13 2310253.76  52.5%  1715 82984s
 81817 24887 2167921.24  117  178 1515134.13 2308599.75  52.4%  1715 83186s
 82146 25008     cutoff  105      1515134.13 2307559.36  52.3%  1716 83393s
 82580 25118     cutoff  115      1515134.13 2305792.81  52.2%  1715 83614s
 82979 25288     cutoff  101      1515134.13 2304552.88  52.1%  1714 83854s
 83437 25447 1957238.70  123  172 1515134.13 2303466.88  52.0%  1712 84071s
 83967 25696 1686399.01  109  177 1515134.13 2301734.19  51.9%  1709 84275s
 84465 25897 2078368.71  110  273 1515134.13 2299730.14  51.8%  1706 84484s
 85061 26107 1914147.81  106  103 1515134.13 2297868.61  51.7%  1702 84689s
 85486 26297 1947537.26  117  117 1515134.13 2296417.06  51.6%  1700 84898s
 85841 26426 1964835.07  135  114 1515134.13 2294411.60  51.4%  1700 85101s
 86328 26647 1992924.57  124   99 1515134.13 2293363.79  51.4%  1698 85295s
 86746 26873 1719711.02  143  120 1515134.13 2292067.24  51.3%  1696 85527s
 86982 26960 1686300.03  112  136 1515134.13 2291496.90  51.2%  1697 85736s
 87384 27136 1822145.24  138  124 1515134.13 2289704.58  51.1%  1696 85933s
 87854 27287 2146060.88  120  262 1515134.13 2287274.97  51.0%  1694 86129s
 88367 27537 1566922.68  137  183 1515134.13 2285443.89  50.8%  1692 86333s
 88809 27726     cutoff  110      1515134.13 2284265.41  50.8%  1690 86400s

Cutting planes:
  Gomory: 242
  Cover: 3
  Implied bound: 30
  Projected implied bound: 12
  Clique: 20
  MIR: 89
  Flow cover: 391
  Zero half: 9

Explored 89014 nodes (150340598 simplex iterations) in 86400.89 seconds
Thread count was 4 (of 16 available processors)

Solution count 10: 1.51513e+06 1.51513e+06 1.51513e+06 ... 1.36985e+06

Time limit reached
Warning: max constraint violation (5.5926e-06) exceeds tolerance
Warning: max bound violation (6.3067e-06) exceeds tolerance
Best objective 1.515134136650e+06, best bound 2.284215213644e+06, gap 50.7599%

***
***  |- Calculation finished, timelimit reached 86,400.91 (86400.91) sec.))
***  |-----------------------------------------------------------------------------------------------------------------------
***
*****************************************************************************************************************************
#############################################################################################################################
###
### Results
###
### The objective of the solution is 1,515,134.1366 (1515134.1366) and is feasible with a Gap of 0.5076
###
### Service 24 (WAF7) is operated by 3 vessels from type 18 (PMax25)
###  |- Vessel  1 has the path [100, 276, -1]
###  |  100 (DEHAM Out@288.0) - 276 (ESALG In@496.0/Out@515.0) - -1 (DUMMY_END Ziel-Service 24)
###  |- Vessel  2 has the path [101, 277, -1]
###  |  101 (DEHAM Out@456.0) - 277 (ESALG In@664.0/Out@683.0) - -1 (DUMMY_END Ziel-Service 24)
###  |- Vessel 13 has the path [104, 275, 201, 291, 202, 114, 278, -1]
###  |  104 (DKAAR Out@220.0) - 275 (ESALG In@328.0/Out@347.0) - 201 (MAPTM In@375.0/Out@396.0) - 291 (MAPTM In@379.0/Out@398
###  |  .0) - 202 (MAPTM In@406.0/Out@427.0) - 114 (ESALG In@452.0/Out@464.0) - 278 (ESALG In@832.0/Out@851.0) - -1 (DUMMY_EN
###  |  D Ziel-Service 24)
###  |   |- and carried Demand  17,  484.0 containers from 201 to 114
###  |   |- and carried Demand  18,   18.0 containers from 201 to 114
###  |   |- and carried Demand  53,   18.0 containers from 202 to 114
###  |   |- and carried Demand 119,  214.0 containers from 201 to 278
###  |   |- and carried Demand 120,   10.0 containers from 201 to 278
###  |   |- and carried Demand 121,  484.0 containers from 201 to 114
###  |   |- and carried Demand 122,   18.0 containers from 201 to 114
###  |   |- and carried Demand 132,  214.0 containers from 202 to 278
###  |   |- and carried Demand 133,   10.0 containers from 202 to 278
###  |   |- and carried Demand 134,  312.0 containers from 202 to 114
###  |   |- and carried Demand 135,   18.0 containers from 202 to 114
###  |   |- and carried Demand 138,  214.0 containers from 291 to 278
###  |   |- and carried Demand 139,   10.0 containers from 291 to 278
###  |   |- and carried Demand 140,  484.0 containers from 291 to 114
###  |   |- and carried Demand 141,   18.0 containers from 291 to 114
###  |
### Service 177 (WCSA) is operated by 3 vessels from type 19 (PMax28)
###  |- Vessel  5 has the path [218, 133, 199, 290, 200, 112, 284, 45, 36, 240, 236, 0]
###  |  218 (NLRTM Out@92.0) - 133 (FRLEH In@111.0/Out@127.0) - 199 (MAPTM In@207.0/Out@228.0) - 290 (MAPTM In@211.0/Out@230.
###  |  0) - 200 (MAPTM In@238.0/Out@259.0) - 112 (ESALG In@284.0/Out@296.0) - 284 (GWOXB In@463.0/Out@542.0) - 45 (CMDLA In@
###  |  765.0/Out@811.0) - 36 (CLLQN In@1240.0/Out@1258.0) - 240 (PECLL In@1398.71/Out@1400.71) - 236 (PABLB In@1640.0/Out@16
###  |  52.0) - 0 (DUMMY_END Ziel-Service 177)
###  |   |- and carried Demand   6,   17.0 containers from 218 to 133
###  |   |- and carried Demand   7,  161.0 containers from 199 to  45
###  |   |- and carried Demand   8,   19.0 containers from 199 to 112
###  |   |- and carried Demand  45,  161.0 containers from 200 to  45
###  |   |- and carried Demand  46,  580.0 containers from 200 to 112
###  |   |- and carried Demand  80,  194.0 containers from  36 to 236
###  |   |- and carried Demand  81,   20.0 containers from  36 to 236
###  |   |- and carried Demand  83,    5.0 containers from  36 to 236
###  |   |- and carried Demand 117,  580.0 containers from 199 to 112
###  |   |- and carried Demand 131,  580.0 containers from 200 to 112
###  |   |- and carried Demand 144,  161.0 containers from 290 to  45
###  |   |- and carried Demand 145,  580.0 containers from 290 to 112
###  |- Vessel  7 has the path [221, 137, 203, 235, 0]
###  |  221 (NLRTM Out@428.0) - 137 (FRLEH In@447.0/Out@463.0) - 203 (MAPTM In@543.0/Out@564.0) - 235 (PABLB In@1472.0/Out@14
###  |  84.0) - 0 (DUMMY_END Ziel-Service 177)
###  |   |- and carried Demand  26,    6.0 containers from 221 to 137
###  |- Vessel  8 has the path [223, 138, 204, 234, 0]
###  |  223 (NLRTM Out@596.0) - 138 (FRLEH In@615.0/Out@631.0) - 204 (MAPTM In@711.0/Out@732.0) - 234 (PABLB In@1304.0/Out@13
###  |  16.0) - 0 (DUMMY_END Ziel-Service 177)
###  |
### Vessels not used in the solution: [3, 4, 6, 9, 10, 11, 12, 14, 15, 16, 17, 18]
###  |-----------------------------------------------------------------------------------------------------------------------
###
#############################################################################################################################

### Detialed variable overview

### All variables with value greater zero:
rho[24,18] = 1
rho[177,19] = 1
eta[24,18,1] = 1
eta[24,18,2] = 1
eta[24,18,3] = 1
eta[177,19,1] = 1
eta[177,19,2] = 1
eta[177,19,3] = 1
y[1,276,-1] = 1
y[1,100,276] = 1
y[2,101,277] = 1
y[2,277,-1] = 1
y[5,200,112] = 1
y[5,290,200] = 1
y[5,240,236] = 1
y[5,133,199] = 1
y[5,199,290] = 1
y[5,45,36] = 1
y[5,218,133] = 1
y[5,36,240] = 1
y[5,284,45] = 1
y[5,236,0] = 1
y[5,112,284] = 1
y[7,137,203] = 1
y[7,203,235] = 1
y[7,221,137] = 1
y[7,235,0] = 1
y[8,234,0] = 1
y[8,204,234] = 1
y[8,223,138] = 1
y[8,138,204] = 1
y[13,104,275] = 1
y[13,275,201] = 1
y[13,291,202] = 1
y[13,114,278] = 1
y[13,202,114] = 1
y[13,278,-1] = 1
y[13,201,291] = 1
xD[6,218,133] = 17
xD[7,200,112] = 161
xD[7,290,200] = 161
xD[7,199,290] = 161
xD[7,284,45] = 161
xD[7,112,284] = 161
xD[8,200,112] = 19
xD[8,290,200] = 19
xD[8,199,290] = 19
xD[17,291,202] = 484
xD[17,202,114] = 484
xD[17,201,291] = 484
xD[18,291,202] = 18
xD[18,202,114] = 18
xD[18,201,291] = 18
xD[26,221,137] = 6
xD[45,200,112] = 161
xD[45,284,45] = 161
xD[45,112,284] = 161
xD[46,200,112] = 580
xD[53,202,114] = 18
xD[80,240,236] = 194
xD[80,36,240] = 194
xD[81,240,236] = 20
xD[81,36,240] = 20
xD[83,240,236] = 5
xD[83,36,240] = 5
xD[117,200,112] = 580
xD[117,290,200] = 580
xD[117,199,290] = 580
xD[119,291,202] = 214
xD[119,114,278] = 214
xD[119,202,114] = 214
xD[119,201,291] = 214
xD[120,291,202] = 10
xD[120,114,278] = 10
xD[120,202,114] = 10
xD[120,201,291] = 10
xD[121,291,202] = 484
xD[121,202,114] = 484
xD[121,201,291] = 484
xD[122,291,202] = 18
xD[122,202,114] = 18
xD[122,201,291] = 18
xD[131,200,112] = 580
xD[132,114,278] = 214
xD[132,202,114] = 214
xD[133,114,278] = 10
xD[133,202,114] = 10
xD[134,202,114] = 312
xD[135,202,114] = 18
xD[138,291,202] = 214
xD[138,114,278] = 214
xD[138,202,114] = 214
xD[139,291,202] = 10
xD[139,114,278] = 10
xD[139,202,114] = 10
xD[140,291,202] = 484
xD[140,202,114] = 484
xD[141,291,202] = 18
xD[141,202,114] = 18
xD[144,200,112] = 161
xD[144,290,200] = 161
xD[144,284,45] = 161
xD[144,112,284] = 161
xD[145,200,112] = 580
xD[145,290,200] = 580
zE[36] = 1240
zE[45] = 765
zE[112] = 284
zE[114] = 452
zE[133] = 111
zE[137] = 447
zE[138] = 615
zE[199] = 207
zE[200] = 238
zE[201] = 375
zE[202] = 406
zE[203] = 543
zE[204] = 711
zE[234] = 1304
zE[235] = 1472
zE[236] = 1640
zE[240] = 1398.71
zE[275] = 328
zE[276] = 496
zE[277] = 664
zE[278] = 832
zE[284] = 463
zE[290] = 211
zE[291] = 379
zX[36] = 1258
zX[45] = 811
zX[100] = 288
zX[101] = 456
zX[104] = 220
zX[112] = 296
zX[114] = 464
zX[133] = 127
zX[137] = 463
zX[138] = 631
zX[199] = 228
zX[200] = 259
zX[201] = 396
zX[202] = 427
zX[203] = 564
zX[204] = 732
zX[218] = 92
zX[221] = 428
zX[223] = 596
zX[234] = 1316
zX[235] = 1484
zX[236] = 1652
zX[240] = 1400.71
zX[275] = 347
zX[276] = 515
zX[277] = 683
zX[278] = 851
zX[284] = 542
zX[290] = 230
zX[291] = 398
w[5,(240,236)] = 125.884
w[5,(36,240)] = 140.711
phi[1] = 227
phi[2] = 227
phi[5] = 1560
phi[7] = 1056
phi[8] = 720
phi[13] = 631

### All variables with value smaller zero:

### End

real	1441m24.853s
user	5467m21.630s
sys	292m47.127s
	Freetype 2.4.12 environment removed
	Python 3.6.0 environment removed
	Gurobi 8.1.0 environment removed
