### Additional Information to the goal services
# Basic costs on route 121: 16241564.55683704
# Direct costs (not staggered):
# For goal service 121:
# n_min: 1
# n_max: 2
# lowest costs of the goal service 121 with configuration (121, 30, 2) at 0.0
# (121, 18, 1): 13188986.421238232
# (121, 18, 2): 1491789.3012382314
# (121, 19, 1): 15172518.170937192
# (121, 19, 2): 1202731.8684617877
# (121, 30, 1): 15607384.224765249
# (121, 30, 2): 0.0
# -------------------------------------------
