### Additional Information to the goal services
# Basic costs on route 177: -51130243.662819155
# Direct costs (not staggered):
# For goal service 177:
# n_min: 2
# n_max: 3
# lowest costs of the goal service 177 with configuration (177, 18, 3) at 0.0
# (177, 18, 1): 15357207.433245733
# (177, 18, 2): 10881113.599999987
# (177, 18, 3): 0.0
# -------------------------------------------
