### Additional Information to the goal services
# Basic costs on route 177: -35791170.56397343
# Direct costs (not staggered):
# For goal service 177:
# n_min: 2
# n_max: 3
# lowest costs of the goal service 177 with configuration (177, 18, 3) at 0.0
# (177, 18, 1): 10750045.203272022
# (177, 18, 2): 7616779.520000003
# (177, 18, 3): 0.0
# -------------------------------------------
