### Additional Information to the goal services
# Basic costs on route 177: -62634548.48695347
# Direct costs (not staggered):
# For goal service 177:
# n_min: 2
# n_max: 3
# lowest costs of the goal service 177 with configuration (177, 18, 3) at 0.0
# (177, 18, 1): 18812579.10572601
# (177, 18, 2): 13329364.159999982
# (177, 18, 3): 0.0
# -------------------------------------------
