### Additional Information to the goal services
# Basic costs on route 177: -43460707.11339629
# Direct costs (not staggered):
# For goal service 177:
# n_min: 2
# n_max: 3
# lowest costs of the goal service 177 with configuration (177, 18, 3) at 0.0
# (177, 18, 1): 13053626.318258867
# (177, 18, 2): 9248946.559999987
# (177, 18, 3): 0.0
# -------------------------------------------
