### Additional Information to the goal services
# Basic costs on route 177: -58799780.21224202
# Direct costs (not staggered):
# For goal service 177:
# n_min: 2
# n_max: 3
# lowest costs of the goal service 177 with configuration (177, 18, 3) at 0.0
# (177, 18, 1): 17660788.548232578
# (177, 18, 2): 12513280.639999986
# (177, 18, 3): 0.0
# -------------------------------------------
