### Additional Information to the goal services
# Basic costs on route 177: -16802165.234788164
# Direct costs (not staggered):
# For goal service 177:
# n_min: 2
# n_max: 3
# lowest costs of the goal service 177 with configuration (177, 19, 3) at 0.0
# (177, 18, 1): 5175928.460176801
# (177, 18, 2): 3721197.96437194
# (177, 18, 3): 184836.04437193833
# (177, 19, 1): 7031716.941117682
# (177, 19, 2): 4705828.542869998
# (177, 19, 3): 0.0
# (177, 30, 1): 6702512.024153389
# (177, 30, 2): 5237787.815158796
# (177, 30, 3): 345752.7168447934
# -------------------------------------------
