### Additional Information to the goal services
# Basic costs on route 177: -36189278.96723605
# Direct costs (not staggered):
# For goal service 177:
# n_min: 2
# n_max: 3
# lowest costs of the goal service 177 with configuration (177, 19, 3) at 0.0
# (177, 18, 1): 11148153.606534645
# (177, 18, 2): 8014887.923262626
# (177, 18, 3): 398108.40326262265
# (177, 19, 1): 15145236.48856116
# (177, 19, 2): 10135630.707720004
# (177, 19, 3): 0.0
# (177, 30, 1): 14436179.744330376
# (177, 30, 2): 11281389.14034202
# (177, 30, 3): 744698.1593580171
# -------------------------------------------
