### Additional Information to the goal services
# Basic costs on route 177: -40066701.71372562
# Direct costs (not staggered):
# For goal service 177:
# n_min: 2
# n_max: 3
# lowest costs of the goal service 177 with configuration (177, 19, 3) at 0.0
# (177, 18, 1): 12342598.63580621
# (177, 18, 2): 8873625.915040769
# (177, 18, 3): 440762.8750407696
# (177, 19, 1): 16767940.398049854
# (177, 19, 2): 11221591.140689999
# (177, 19, 3): 0.0
# (177, 30, 1): 15982913.288365766
# (177, 30, 2): 12490109.405378647
# (177, 30, 3): 824487.2478606477
# -------------------------------------------
