	Freetype 2.4.12 environment established
		library to render fonts
	Python 3.6.0 environment established
	Gurobi 8.1.0 environment established
Instance LSFRP: LSFDRP_1_5_0_0_fr.p
Instance LSFDP: LSFDRP_1_5_0_0_fd_52.p

*****************************************************************************************************************************
*** Solve LSFDRP_1_5_0_0_fd_52 with Gurobi
***
*** Graph info
*** |S|: 18
*** |S^E|: 0
*** |S^C|: 0
*** |V|: 278
*** |A|: 6311
*** |A^i|: 6311
*** |A^f|: 0
*** |M|: 220
*** |E|: 0

Changed value of parameter TimeLimit to 86400.0
   Prev: 1e+100  Min: 0.0  Max: 1e+100  Default: 1e+100
Changed value of parameter Threads to 4
   Prev: 0  Min: 0  Max: 1024  Default: 0
Optimize a model with 80020 rows, 1515219 columns and 5494522 nonzeros
Variable types: 1401600 continuous, 113619 integer (113619 binary)
Coefficient statistics:
  Matrix range     [1e+00, 4e+03]
  Objective range  [4e+01, 3e+07]
  Bounds range     [1e+00, 1e+00]
  RHS range        [1e+00, 6e+00]
Presolve removed 73895 rows and 1399858 columns (presolve time = 5s) ...
Presolve removed 73961 rows and 1404023 columns (presolve time = 67s) ...
Presolve removed 74094 rows and 1404258 columns
Presolve time: 69.46s
Presolved: 5926 rows, 110961 columns, 363401 nonzeros
Variable types: 2482 continuous, 108479 integer (108444 binary)
Warning: Failed to open log file 'gurobi.log'

Root simplex log...

Iteration    Objective       Primal Inf.    Dual Inf.      Time
       0    3.5228138e+09   5.398643e+05   0.000000e+00     72s
   14063    6.9233408e+06   9.513426e+04   0.000000e+00     75s
   20045    4.5039271e+06   1.811394e+05   0.000000e+00     80s
   23583    3.6654078e+06   0.000000e+00   0.000000e+00     84s

Root relaxation: objective 3.665408e+06, 23583 iterations, 12.83 seconds

    Nodes    |    Current Node    |     Objective Bounds      |     Work
 Expl Unexpl |  Obj  Depth IntInf | Incumbent    BestBd   Gap | It/Node Time

     0     0 3665407.80    0  214          - 3665407.80      -     -   87s
H    0     0                    -2295071.160 3665407.80   260%     -   88s
H    0     0                    -1903788.855 3665407.80   293%     -  142s
     0     0 3375295.86    0  239 -1903788.9 3375295.86   277%     -  145s
     0     0 2937222.16    0  273 -1903788.9 2937222.16   254%     -  149s
     0     0 2489584.46    0  287 -1903788.9 2489584.46   231%     -  153s
H    0     0                    -1903788.854 2489584.46   231%     -  185s
     0     0 697800.377    0  160 -1903788.9 697800.377   137%     -  185s
     0     0 697800.377    0  198 -1903788.9 697800.377   137%     -  187s
     0     0 697800.377    0  206 -1903788.9 697800.377   137%     -  203s
     0     0 697800.377    0  277 -1903788.9 697800.377   137%     -  224s
     0     0 697800.377    0  296 -1903788.9 697800.377   137%     -  227s
     0     0 697800.377    0  177 -1903788.9 697800.377   137%     -  231s
     0     0 697800.377    0  184 -1903788.9 697800.377   137%     -  231s
     0     0 697800.377    0  198 -1903788.9 697800.377   137%     -  231s
     0     0 697800.377    0  200 -1903788.9 697800.377   137%     -  232s
     0     0 697800.377    0  200 -1903788.9 697800.377   137%     -  232s
     0     0 697800.377    0  200 -1903788.9 697800.377   137%     -  233s
     0     0 697800.377    0  196 -1903788.9 697800.377   137%     -  245s
     0     2 697800.377    0  191 -1903788.9 697800.377   137%     -  255s
     3     7 697800.377    2  217 -1903788.9 697800.377   137%   986  265s
    11    13 697800.377    4  213 -1903788.9 697800.377   137%   471  283s
    15    17 697800.377    5  196 -1903788.9 697800.377   137%   700  285s
    23    24 697800.377    7  187 -1903788.9 697800.377   137%   596  290s
    60    55 569589.291   13   88 -1903788.9 697800.377   137%   367  295s
   103    93 500001.781   15  163 -1903788.9 697800.377   137%   294  300s
   178   133 213206.530   26  102 -1903788.9 697800.377   137%   199  306s
   275   189 -896662.62   50   37 -1903788.9 697800.377   137%   182  311s
   329   209     cutoff    4      -1903788.9 697800.377   137%   179  316s
   426   270 -1571007.8   15   86 -1903788.9 697800.377   137%   176  320s
   571   351 -899411.16   23   91 -1903788.9 697800.377   137%   158  325s
   750   446 -1681157.8   50   67 -1903788.9 457137.084   124%   146  330s
  1025   593 -1485712.5   38  198 -1903788.9 457137.084   124%   137  493s
  1027   594 -866221.00   23  199 -1903788.9 457137.084   124%   136  518s
  1028   595 -180018.04   19  148 -1903788.9 457137.084   124%   136  522s
  1030   596 -516409.91   21  177 -1903788.9 457137.084   124%   136  525s
  1034   599 344317.914   20  175 -1903788.9 457137.084   124%   136  531s
  1037   601 -1355955.2   44  201 -1903788.9 457137.084   124%   135  543s
  1038   602 -951080.31   24  198 -1903788.9 457137.084   124%   135  545s
  1039   602 -1044358.6   39  198 -1903788.9 457137.084   124%   135  552s
  1040   606 457137.084   16  174 -1903788.9 457137.084   124%   164  576s
  1042   608 457137.084   17  170 -1903788.9 457137.084   124%   166  590s
  1050   614 457137.084   18  207 -1903788.9 457137.084   124%   170  601s
  1062   622 94329.0021   20   87 -1903788.9 457137.084   124%   171  605s
  1124   644 -998475.94   26   55 -1903788.9 457137.084   124%   171  627s
  1204   660     cutoff   36      -1903788.9 457137.084   124%   169  638s
  1231   659 -605926.08   21  134 -1903788.9 457137.084   124%   170  641s
  1336   667 -1033770.3   25  107 -1903788.9 457137.084   124%   165  645s
  1603   719     cutoff   53      -1903788.9 454935.637   124%   156  654s
  1650   723 -1609934.0   23   49 -1903788.9 233335.095   112%   155  655s
  1960   770 -1635804.7   52   62 -1903788.9 11681.0041   101%   147  674s
  2009   771 -1038444.7   24  135 -1903788.9 -270144.13  85.8%   146  676s
  2192   818 -1111206.9   45   49 -1903788.9 -343459.32  82.0%   144  681s
  2387   868 -1243644.9   25   82 -1903788.9 -436149.67  77.1%   144  685s
  2886   932     cutoff   50      -1903788.9 -507538.20  73.3%   134  691s
  3241  1077 -1616987.4   33   49 -1903788.9 -541482.94  71.6%   132  696s
  3518  1199 -1433096.3   64   72 -1903788.9 -568582.68  70.1%   132  700s
  3957  1406 -1099064.6   60  109 -1903788.9 -602353.38  68.4%   130  707s
  4229  1528 -984687.17   63  135 -1903788.9 -614683.95  67.7%   130  711s
  4429  1646 -1446148.9   83  119 -1903788.9 -620720.01  67.4%   129  715s
  4791  1823 -976211.68   43  133 -1903788.9 -644966.90  66.1%   127  720s
  5130  2014 -1006344.9   35   58 -1903788.9 -658897.75  65.4%   126  726s
  5341  2064 -786127.66   64  119 -1903788.9 -665788.30  65.0%   124  732s
  5587  2185 -913261.69   49  130 -1903788.9 -679089.36  64.3%   124  735s
  6114  2400     cutoff   63      -1903788.9 -694660.86  63.5%   125  741s
  6435  2510     cutoff   71      -1903788.9 -702716.60  63.1%   124  745s
  6751  2613 -1880702.8   81   83 -1903788.9 -716433.27  62.4%   125  751s
  7034  2683 -735019.86   58  111 -1903788.9 -731086.71  61.6%   126  755s
  7559  2852 -1047927.8   41   54 -1903788.9 -748304.87  60.7%   126  763s
  7882  2901     cutoff   36      -1903788.9 -755195.81  60.3%   126  767s
  8218  2983 -1508597.2   33   48 -1903788.9 -766735.55  59.7%   126  771s
  8587  3065     cutoff   35      -1903788.9 -781822.50  58.9%   126  775s
  8913  3137 -1410764.2   61   83 -1903788.9 -793389.22  58.3%   126  780s
  9285  3244 -1450532.0   58   99 -1903788.9 -807605.36  57.6%   127  785s
  9696  3354 -933453.40   30   86 -1903788.9 -818393.84  57.0%   127  790s
 10547  3573 -1679639.5   54   88 -1903788.9 -837985.98  56.0%   128  816s
 11020  3672 -1706517.5   97   98 -1903788.9 -846190.91  55.6%   128  821s
 11487  3818 -1902963.4   58   96 -1903788.9 -861450.31  54.8%   128  828s
 11920  3899 -1469373.5   68   87 -1903788.9 -872992.38  54.1%   128  833s
 12458  4014 -1294029.4   64  114 -1903788.9 -884748.71  53.5%   128  838s
 13066  4209     cutoff   61      -1903788.9 -907449.30  52.3%   127  844s
 13093  4148     cutoff   51      -1903788.9 -908276.57  52.3%   127  850s
 13604  4254 -1068033.3   65  118 -1903788.9 -918400.08  51.8%   127  855s
 14072  4398 -1433945.9   53  110 -1903788.9 -929924.49  51.2%   127  860s
 14222  4376     cutoff   49      -1903788.9 -933907.42  50.9%   127  865s
 14677  4404 -1650231.8   43   74 -1903788.9 -951634.24  50.0%   128  870s
 15167  4396 -968520.07   34   95 -1903788.9 -964797.45  49.3%   128  875s
 15634  4425 -1580331.8   52   24 -1903788.9 -976985.95  48.7%   128  880s
 15952  4413 -1748392.8   28   65 -1903788.9 -997258.28  47.6%   128  885s
 16426  4467     cutoff   50      -1903788.9 -1003483.7  47.3%   128  890s
 16779  4439 -1426180.2   31   60 -1903788.9 -1029853.2  45.9%   128  896s
 17226  4468 -1231379.5   36   39 -1903788.9 -1052210.8  44.7%   128  901s
 17627  4489 -1539239.0   53  115 -1903788.9 -1063765.4  44.1%   128  906s
 17984  4492 -1775152.1   68   77 -1903788.9 -1081630.5  43.2%   128  911s
 18382  4492 -1794914.5   51   78 -1903788.9 -1088241.0  42.8%   129  915s
 18742  4460 -1648480.5   35   46 -1903788.9 -1104484.4  42.0%   129  920s
 19107  4471 -1502012.7   37   35 -1903788.9 -1125962.7  40.9%   130  925s
 19431  4471 -1796690.9   60   84 -1903788.9 -1135250.4  40.4%   130  930s
 19808  4462 -1177205.7   43   73 -1903788.9 -1147284.1  39.7%   130  935s
 20209  4437 -1626552.8   64   87 -1903788.9 -1169004.9  38.6%   130  940s
 20957  4427 -1435569.0   64   58 -1903788.9 -1192138.2  37.4%   130  948s
 21297  4400     cutoff   60      -1903788.9 -1208798.4  36.5%   130  953s
 21674  4387 -1674410.7   80  102 -1903788.9 -1218651.6  36.0%   130  957s
 22041  4363 -1571155.2   34   23 -1903788.9 -1237342.2  35.0%   130  962s
 22474  4355 -1378376.2   57   90 -1903788.9 -1246053.3  34.5%   130  966s
 22907  4349 -1292583.0   33   58 -1903788.9 -1261986.3  33.7%   130  970s
 23689  4312 -1693583.2   62   72 -1903788.9 -1291193.9  32.2%   129  978s
 24084  4297 -1762412.0   52   88 -1903788.9 -1302601.7  31.6%   129  982s
 24403  4259 -1423113.5   34   31 -1903788.9 -1316826.7  30.8%   129  987s
 24818  4274 -1406642.2   61   76 -1903788.9 -1327967.6  30.2%   129  991s
 25234  4272     cutoff   68      -1903788.9 -1340560.0  29.6%   129  995s
 25567  4276 -1635094.4   44  113 -1903788.9 -1348109.5  29.2%   129 1019s
 25683  4196     cutoff   45      -1903788.9 -1349313.0  29.1%   129 1023s
 26013  4167 -1737365.5   27  125 -1903788.9 -1367758.2  28.2%   129 1028s
 26284  4115     cutoff   63      -1903788.9 -1376276.6  27.7%   129 1032s
 26589  4067     cutoff   62      -1903788.9 -1386561.7  27.2%   129 1036s
 26921  4018 -1821045.9   60   78 -1903788.9 -1394634.0  26.7%   129 1040s
 27533  3929     cutoff   55      -1903788.9 -1416700.6  25.6%   129 1047s
 27880  3890 -1449039.2   54   92 -1903788.9 -1424077.7  25.2%   129 1052s
 28246  3854     cutoff   54      -1903788.9 -1434238.9  24.7%   128 1055s
 28749  3723     cutoff   29      -1903788.9 -1451570.1  23.8%   128 1063s
 29057  3677 -1524351.5   48  102 -1903788.9 -1460460.3  23.3%   128 1067s
 29321  3637     cutoff   46      -1903788.9 -1469797.3  22.8%   128 1071s
 29994  3566 -1830178.2   66   91 -1903788.9 -1486477.5  21.9%   128 1077s
 30268  3513     cutoff   48      -1903788.9 -1492565.0  21.6%   127 1080s
 30776  3410     cutoff   58      -1903788.9 -1508337.1  20.8%   127 1085s
 31345  3310     cutoff   73      -1903788.9 -1522726.7  20.0%   127 1092s
 31626  3252 -1549963.7   37   35 -1903788.9 -1530590.9  19.6%   126 1095s
 32338  3052     cutoff   48      -1903788.9 -1553328.7  18.4%   126 1102s
 32809  2929 -1644822.2   41  104 -1903788.9 -1567596.3  17.7%   126 1106s
 33296  2808     cutoff   68      -1903788.9 -1580674.9  17.0%   125 1111s
 33749  2672     cutoff   32      -1903788.9 -1593693.4  16.3%   125 1116s
 34198  2542 -1638909.6   32   39 -1903788.9 -1607553.1  15.6%   125 1121s
 34680  2416     cutoff   67      -1903788.9 -1619507.2  14.9%   124 1125s
 35392  2244 -1838160.8   73   68 -1903788.9 -1638111.4  14.0%   124 1131s
 35971  2037 -1669087.3   62   60 -1903788.9 -1658215.1  12.9%   123 1135s
 36511  1815 -1720523.9   59  126 -1903788.9 -1679698.5  11.8%   122 1140s
 37250  1497     cutoff   60      -1903788.9 -1705276.0  10.4%   122 1145s
 37937  1196     cutoff   30      -1903788.9 -1730830.1  9.08%   121 1150s
 38624   894     cutoff   41      -1903788.9 -1759423.7  7.58%   120 1155s
 39405   502     cutoff   66      -1903788.9 -1795569.2  5.68%   118 1160s

Cutting planes:
  Implied bound: 22
  Clique: 7
  MIR: 8
  Flow cover: 128
  Zero half: 15

Explored 40218 nodes (4756500 simplex iterations) in 1166.16 seconds
Thread count was 4 (of 16 available processors)

Solution count 3: -1.90379e+06 -1.90379e+06 -2.29507e+06 

Optimal solution found (tolerance 1.00e-04)
Best objective -1.903788856052e+06, best bound -1.903788854493e+06, gap 0.0000%

***
***  |- Calculation finished, took 1,166.19 (1166.19) sec.
***  |-----------------------------------------------------------------------------------------------------------------------
***
*****************************************************************************************************************************
#############################################################################################################################
###
### Results
###
### The objective of the solution is -1,903,788.8561 (-1903788.8561) and is feasible with a Gap of 0.0
###
### Service 81 (MECL1) is operated by 6 vessels from type 18 (PMax25)
###  |- Vessel  1 has the path [88, 244, 157, 0]
###  |  88 (DEHAM Out@288.0) - 244 (TRALI In@668.0/Out@686.0) - 157 (INNSA In@906.0/Out@922.0) - 0 (DUMMY_END Ziel-Service 81
###  |  )
###  |- Vessel  2 has the path [89, 255, 4, 229, 158, 0]
###  |  89 (DEHAM Out@456.0) - 255 (TRZMK In@785.0/Out@799.0) - 4 (AEJEA In@899.0/Out@923.0) - 229 (PKBQM In@980.0/Out@1010.0
###  |  ) - 158 (INNSA In@1074.0/Out@1090.0) - 0 (DUMMY_END Ziel-Service 81)
###  |   |- and carried Demand 184, 445.0 containers from   4 to 158
###  |   |- and carried Demand 186, 200.0 containers from   4 to 229
###  |   |- and carried Demand 187,  24.0 containers from   4 to 229
###  |- Vessel  3 has the path [90, 159, 0]
###  |  90 (DEHAM Out@624.0) - 159 (INNSA In@1242.0/Out@1258.0) - 0 (DUMMY_END Ziel-Service 81)
###  |- Vessel  4 has the path [91, 249, 161, 0]
###  |  91 (DEHAM Out@792.0) - 249 (TRAMB In@1416.0/Out@1443.0) - 161 (INNSA In@1578.0/Out@1594.0) - 0 (DUMMY_END Ziel-Servic
###  |  e 81)
###  |- Vessel 13 has the path [92, 247, 156, 0]
###  |  92 (DKAAR Out@220.0) - 247 (TRAMB In@576.0/Out@603.0) - 156 (INNSA In@738.0/Out@754.0) - 0 (DUMMY_END Ziel-Service 81
###  |  )
###  |- Vessel 14 has the path [93, 254, 3, 228, 224, 6, 231, 160, 0]
###  |  93 (DKAAR Out@388.0) - 254 (TRZMK In@617.0/Out@631.0) - 3 (AEJEA In@731.0/Out@755.0) - 228 (PKBQM In@812.0/Out@842.0)
###  |   - 224 (OMSLL In@1132.0/Out@1145.0) - 6 (AEJEA In@1235.0/Out@1259.0) - 231 (PKBQM In@1316.0/Out@1346.0) - 160 (INNSA 
###  |  In@1410.0/Out@1426.0) - 0 (DUMMY_END Ziel-Service 81)
###  |   |- and carried Demand 144,  31.0 containers from 231 to 160
###  |   |- and carried Demand 145,  37.0 containers from   6 to 160
###  |   |- and carried Demand 146, 211.0 containers from   6 to 160
###  |   |- and carried Demand 147, 176.0 containers from   6 to 231
###  |   |- and carried Demand 200, 244.0 containers from 228 to 160
###  |   |- and carried Demand 201,  67.0 containers from 228 to 160
###  |   |- and carried Demand 203, 118.0 containers from   3 to 160
###  |   |- and carried Demand 204, 133.0 containers from   3 to 228
###  |   |- and carried Demand 205,  61.0 containers from   3 to 228
###  |   |- and carried Demand 206,  15.0 containers from   3 to 160
###  |   |- and carried Demand 207, 267.0 containers from   3 to 160
###  |   |- and carried Demand 208,   1.0 containers from   3 to 160
###  |
### Vessels not used in the solution: [5, 6, 7, 8, 9, 10, 11, 12, 15, 16, 17, 18]
###  |-----------------------------------------------------------------------------------------------------------------------
###
#############################################################################################################################

### Detialed variable overview

### All variables with value greater zero:
rho[81,18] = 1
eta[81,18,1] = 1
eta[81,18,2] = 1
eta[81,18,3] = 1
eta[81,18,4] = 1
eta[81,18,5] = 1
eta[81,18,6] = 1
y[1,88,244] = 1
y[1,244,157] = 1
y[1,157,0] = 1
y[2,89,255] = 1
y[2,158,0] = 1
y[2,4,229] = 1
y[2,229,158] = 1
y[2,255,4] = 1
y[3,90,159] = 1
y[3,159,0] = 1
y[4,161,0] = 1
y[4,91,249] = 1
y[4,249,161] = 1
y[13,156,0] = 1
y[13,92,247] = 1
y[13,247,156] = 1
y[14,228,224] = 1
y[14,231,160] = 1
y[14,224,6] = 1
y[14,3,228] = 1
y[14,93,254] = 1
y[14,254,3] = 1
y[14,6,231] = 1
y[14,160,0] = 1
xD[144,231,160] = 31
xD[145,231,160] = 37
xD[145,6,231] = 37
xD[146,231,160] = 211
xD[146,6,231] = 211
xD[147,6,231] = 176
xD[184,4,229] = 445
xD[184,229,158] = 445
xD[186,4,229] = 200
xD[187,4,229] = 24
xD[200,228,224] = 244
xD[200,231,160] = 244
xD[200,224,6] = 244
xD[200,6,231] = 244
xD[201,228,224] = 67
xD[201,231,160] = 67
xD[201,224,6] = 67
xD[201,6,231] = 67
xD[203,228,224] = 118
xD[203,231,160] = 118
xD[203,224,6] = 118
xD[203,3,228] = 118
xD[203,6,231] = 118
xD[204,3,228] = 133
xD[205,3,228] = 61
xD[206,228,224] = 15
xD[206,231,160] = 15
xD[206,224,6] = 15
xD[206,3,228] = 15
xD[206,6,231] = 15
xD[207,228,224] = 267
xD[207,231,160] = 267
xD[207,224,6] = 267
xD[207,3,228] = 267
xD[207,6,231] = 267
xD[208,228,224] = 1
xD[208,231,160] = 1
xD[208,224,6] = 1
xD[208,3,228] = 1
xD[208,6,231] = 1
zE[3] = 731
zE[4] = 899
zE[6] = 1235
zE[156] = 738
zE[157] = 906
zE[158] = 1074
zE[159] = 1242
zE[160] = 1410
zE[161] = 1578
zE[224] = 1132
zE[228] = 812
zE[229] = 980
zE[231] = 1316
zE[244] = 668
zE[247] = 576
zE[249] = 1416
zE[254] = 617
zE[255] = 785
zX[3] = 755
zX[4] = 923
zX[6] = 1259
zX[88] = 288
zX[89] = 456
zX[90] = 624
zX[91] = 792
zX[92] = 220
zX[93] = 388
zX[156] = 754
zX[157] = 922
zX[158] = 1090
zX[159] = 1258
zX[160] = 1426
zX[161] = 1594
zX[224] = 1145
zX[228] = 842
zX[229] = 1010
zX[231] = 1346
zX[244] = 686
zX[247] = 603
zX[249] = 1443
zX[254] = 631
zX[255] = 799
phi[1] = 634
phi[2] = 634
phi[3] = 634
phi[4] = 802
phi[13] = 534
phi[14] = 1038

### All variables with value smaller zero:

### End

real	21m7.375s
user	67m31.147s
sys	4m24.664s
	Freetype 2.4.12 environment removed
	Python 3.6.0 environment removed
	Gurobi 8.1.0 environment removed
