	Freetype 2.4.12 environment established
		library to render fonts
	Python 3.6.0 environment established
	Gurobi 8.1.0 environment established
Instance LSFRP: LSFDRP_1_5_0_0_fr.p
Instance LSFDP: LSFDRP_1_5_0_0_fd_49.p

*****************************************************************************************************************************
*** Solve LSFDRP_1_5_0_0_fd_49 with Gurobi
***
*** Graph info
*** |S|: 18
*** |S^E|: 0
*** |S^C|: 0
*** |V|: 278
*** |A|: 6311
*** |A^i|: 6311
*** |A^f|: 0
*** |M|: 220
*** |E|: 0

Changed value of parameter TimeLimit to 86400.0
   Prev: 1e+100  Min: 0.0  Max: 1e+100  Default: 1e+100
Changed value of parameter Threads to 4
   Prev: 0  Min: 0  Max: 1024  Default: 0
Optimize a model with 80020 rows, 1515219 columns and 5494522 nonzeros
Variable types: 1401600 continuous, 113619 integer (113619 binary)
Coefficient statistics:
  Matrix range     [1e+00, 4e+03]
  Objective range  [4e+01, 3e+07]
  Bounds range     [1e+00, 1e+00]
  RHS range        [1e+00, 6e+00]
Presolve removed 73909 rows and 1399998 columns (presolve time = 5s) ...
Presolve removed 73961 rows and 1404023 columns (presolve time = 65s) ...
Presolve removed 74094 rows and 1404258 columns
Presolve time: 67.64s
Presolved: 5926 rows, 110961 columns, 363401 nonzeros
Variable types: 2482 continuous, 108479 integer (108444 binary)
Warning: Failed to open log file 'gurobi.log'

Root simplex log...

Iteration    Objective       Primal Inf.    Dual Inf.      Time
       0    3.5228138e+09   5.398643e+05   0.000000e+00     70s
    4039    5.4503883e+07   9.052869e+04   0.000000e+00     70s
   15298    6.4924974e+06   2.291648e+05   0.000000e+00     75s
   19881    4.4148791e+06   4.050452e+04   0.000000e+00     80s
   23011    3.8161078e+06   2.530905e+02   0.000000e+00     85s
   23179    3.8078134e+06   0.000000e+00   0.000000e+00     85s

Root relaxation: objective 3.807813e+06, 23179 iterations, 15.64 seconds

    Nodes    |    Current Node    |     Objective Bounds      |     Work
 Expl Unexpl |  Obj  Depth IntInf | Incumbent    BestBd   Gap | It/Node Time

     0     0 3807813.44    0  209          - 3807813.44      -     -   87s
H    0     0                    -2295071.160 3807813.44   266%     -   89s
H    0     0                    -1903788.856 3807813.44   300%     -  149s
H    0     0                    -1903788.855 3807813.44   300%     -  151s
     0     0 3492247.17    0  242 -1903788.9 3492247.17   283%     -  154s
     0     0 3066149.33    0  274 -1903788.9 3066149.33   261%     -  158s
     0     0 1564336.92    0  179 -1903788.9 1564336.92   182%     -  168s
     0     0 1525382.64    0  215 -1903788.9 1525382.64   180%     -  170s
     0     0 1525372.23    0  215 -1903788.9 1525372.23   180%     -  170s
     0     0 1525338.95    0  215 -1903788.9 1525338.95   180%     -  171s
     0     0 1525329.94    0  219 -1903788.9 1525329.94   180%     -  171s
     0     0 1525329.94    0  218 -1903788.9 1525329.94   180%     -  185s
     0     0 1525329.94    0  203 -1903788.9 1525329.94   180%     -  217s
     0     0 1525329.94    0  184 -1903788.9 1525329.94   180%     -  237s
     0     0 1525329.94    0  222 -1903788.9 1525329.94   180%     -  239s
     0     0 1525329.94    0  214 -1903788.9 1525329.94   180%     -  239s
     0     0 1525329.94    0  219 -1903788.9 1525329.94   180%     -  239s
     0     0 1525329.94    0  226 -1903788.9 1525329.94   180%     -  240s
     0     0 1525133.58    0  217 -1903788.9 1525133.58   180%     -  240s
     0     0 1525133.58    0  215 -1903788.9 1525133.58   180%     -  255s
H    0     0                    -1903788.800 1525133.58   180%     -  262s
     0     2 1525133.58    0  215 -1903788.8 1525133.58   180%     -  263s
     1     4 999390.688    1  108 -1903788.8 1282682.96   167%  1595  272s
     3     8 595287.008    2  100 -1903788.8 998304.899   152%  1180  276s
    11    16 550560.471    4   83 -1903788.8 977276.600   151%   508  280s
    56    49 -582863.16   15   71 -1903788.8 837395.161   144%   236  285s
   160   103 -1691053.0   51   37 -1903788.8 837395.161   144%   161  291s
   194   122 67515.3004    5  167 -1903788.8 709966.675   137%   187  295s
   289   188 -523285.21   26  132 -1903788.8 709966.675   137%   193  300s
   500   274 -906230.93    7  104 -1903788.8 578627.095   130%   162  305s
   748   395 -76872.268   10   86 -1903788.8 303249.335   116%   150  310s
  1053   560 -1134789.8   46  218 -1903788.8 187841.900   110%   147  436s
  1055   561 -33810.024   11  204 -1903788.8 187841.900   110%   146  469s
  1056   562 187841.900   11  219 -1903788.8 187841.900   110%   146  474s
  1057   563 -939349.86   18  215 -1903788.8 187841.900   110%   146  476s
  1061   565 -736415.05   14  206 -1903788.8 187841.900   110%   145  480s
  1068   570 -1282562.1   17  209 -1903788.8 187841.900   110%   144  485s
  1076   575 -1847869.1   76  208 -1903788.8 187841.900   110%   143  490s
  1080   578 -654564.51    7  209 -1903788.8 187841.900   110%   143  496s
  1083   580 -945585.88   12  213 -1903788.8 187841.900   110%   142  509s
  1084   581 -731847.02   31  213 -1903788.8 187841.900   110%   142  511s
  1085   581 -592621.70   30  213 -1903788.8 187841.900   110%   142  528s
  1088   584 -1119837.1   30  159 -1903788.8 187841.900   110%   170  546s
  1090   586 -685419.13   21  192 -1903788.8 187841.900   110%   169  551s
  1094   588 -1497593.1   16  201 -1903788.8 187841.900   110%   169  555s
  1096   590 -1149866.5   14  248 -1903788.8 187841.900   110%   168  560s
  1100   592 -1426401.4   13  253 -1903788.8 187841.900   110%   168  565s
  1103   594 -1183418.0   21  208 -1903788.8 187841.900   110%   167  574s
  1105   596 -543868.41    9  215 -1903788.8 187841.900   110%   167  575s
  1112   600 -586748.01    9  219 -1903788.8 187841.900   110%   166  580s
  1121   606 -1055537.7   17  255 -1903788.8 187841.900   110%   165  585s
  1129   612 -299756.43   16  267 -1903788.8 187841.900   110%   164  596s
  1131   613 -587101.56   23  267 -1903788.8 187841.900   110%   163  603s
  1132   617 187841.900   28  122 -1903788.8 187841.900   110%   188  614s
  1134   618 187841.900   29  119 -1903788.8 187841.900   110%   190  622s
  1142   621 187841.900   31  118 -1903788.8 187841.900   110%   192  626s
  1154   630 -74691.438   32   93 -1903788.8 187841.900   110%   193  630s
  1161   632 187841.900   33  107 -1903788.8 187841.900   110%   194  665s
H 1162   600                    -1903788.128 187841.900   110%   194  665s
H 1164   571                    -1903788.031 187841.900   110%   194  665s
  1205   589 -1556971.1   40   75 -1903788.0 187841.900   110%   195  670s
  1282   598 -1132692.0   35   96 -1903788.0 187841.900   110%   192  675s
  1502   614 -1000689.9   60   60 -1903788.0 187841.900   110%   184  680s
  1741   646 187841.900   33  114 -1903788.0 187841.900   110%   175  685s
  1942   667 -826726.28   36   83 -1903788.0 187841.900   110%   173  690s
  2322   719 -1783059.0   51  114 -1903788.0 -204636.77  89.3%   162  695s
  2647   780 -539461.90   38  120 -1903788.0 -243463.14  87.2%   159  700s
  3019   884 -581246.66   49  124 -1903788.0 -309043.85  83.8%   158  705s
  3559  1127     cutoff   48      -1903788.0 -374302.09  80.3%   152  710s
  3838  1242 -990136.43   45  102 -1903788.0 -416994.65  78.1%   151  715s
  4193  1346 -916828.41   42   66 -1903788.0 -480619.23  74.8%   149  720s
  4574  1485 -1296501.6   51   66 -1903788.0 -517536.73  72.8%   147  725s
  5004  1613 -651411.84   37  108 -1903788.0 -567626.42  70.2%   146  732s
  5263  1707 -1818493.6   49   59 -1903788.0 -589652.17  69.0%   146  737s
  5644  1846 -1250169.0   43   62 -1903788.0 -625440.45  67.1%   143  742s
  5779  1865 -1400092.2   53   60 -1903788.0 -626823.99  67.1%   143  745s
  6309  1990 -1270452.2   35   59 -1903788.0 -688688.37  63.8%   141  751s
  6859  2169 -1206152.1   45   96 -1903788.0 -728250.58  61.7%   138  789s
  7064  2196 -1537951.1   54   68 -1903788.0 -738792.88  61.2%   138  793s
  7404  2304 -1515552.9   39  135 -1903788.0 -768518.36  59.6%   137  796s
  7942  2450     cutoff   37      -1903788.0 -794014.95  58.3%   137  803s
  8275  2545 -1393556.1   43  136 -1903788.0 -823407.50  56.7%   137  806s
  8609  2598 -1273263.7   47  102 -1903788.0 -842042.78  55.8%   136  810s
  9415  2810 -1405382.3   53   92 -1903788.0 -873199.59  54.1%   135  818s
  9833  2910 -1708314.2   54   96 -1903788.0 -876294.07  54.0%   134  822s
 10365  3058 -1554020.2   58   62 -1903788.0 -919079.22  51.7%   133  975s
 10889  3209 -1752436.9   65   59 -1903788.0 -930313.85  51.1%   132  980s
 12031  3536 -1345548.3   49   71 -1903788.0 -982014.40  48.4%   131  989s
 12364  3600 -1577236.1   57   50 -1903788.0 -990678.79  48.0%   130  993s
 12946  3786 -1791987.2   48   84 -1903788.0 -1009134.0  47.0%   130  997s
 13423  3869 -1791199.7   55   88 -1903788.0 -1019365.3  46.5%   130 1002s
 13877  3940 -1402866.4   62   32 -1903788.0 -1032842.6  45.7%   130 1006s
 14464  4116 -1898006.9   50   78 -1903788.0 -1047515.6  45.0%   129 1012s
 14479  4091 -1661862.7   62   68 -1903788.0 -1050013.1  44.8%   129 1016s
 14755  4088 -1334906.6   42  110 -1903788.0 -1059371.5  44.4%   130 1021s
 15412  4160     cutoff   40      -1903788.0 -1062178.6  44.2%   128 1025s
 16317  4254 -1265088.8   51   37 -1903788.0 -1106121.4  41.9%   127 1034s
 16825  4294 -1425074.1   45   32 -1903788.0 -1115681.7  41.4%   127 1038s
 17375  4352 -1612911.8   55   55 -1903788.0 -1132241.7  40.5%   127 1042s
 17852  4411     cutoff   54      -1903788.0 -1141645.1  40.0%   126 1046s
 18349  4469     cutoff   62      -1903788.0 -1153854.3  39.4%   126 1050s
 19331  4573 -1672800.0   57   79 -1903788.0 -1171023.9  38.5%   126 1058s
 19819  4638 -1586496.5   40   84 -1903788.0 -1189027.7  37.5%   125 1062s
 20327  4713 -1790260.7   67   44 -1903788.0 -1200351.2  36.9%   125 1066s
 20791  4773 -1601122.8   64   56 -1903788.0 -1209220.4  36.5%   124 1648s
 21287  4895 -1808545.2   69   23 -1903788.0 -1221995.7  35.8%   124 1651s
 21639  4958     cutoff   61      -1903788.0 -1231332.1  35.3%   124 1655s
 22377  5023     cutoff   58      -1903788.0 -1247097.3  34.5%   124 1662s
 22679  5060 -1419271.6   49   26 -1903788.0 -1250599.2  34.3%   125 1665s
 23376  5107 infeasible   51      -1903788.0 -1268591.7  33.4%   126 1672s
 23758  5124 -1695986.0   44  120 -1903788.0 -1275481.9  33.0%   126 1675s
 24469  5223     cutoff   66      -1903788.0 -1287518.3  32.4%   126 1682s
 24639  5196 -1393019.6   58  107 -1903788.0 -1294163.9  32.0%   127 1685s
 25349  5185     cutoff   64      -1903788.0 -1313189.7  31.0%   127 1692s
 25711  5204     cutoff   41      -1903788.0 -1319166.7  30.7%   128 1695s
 26324  5208 -1499087.2   49   18 -1903788.0 -1333423.2  30.0%   128 1702s
 26656  5202 -1565670.4   47  146 -1903788.0 -1337719.3  29.7%   128 1705s
 27261  5223 -1760205.1   54  111 -1903788.0 -1348554.9  29.2%   128 1712s
 27609  5214 -1764106.0   64  104 -1903788.0 -1355698.4  28.8%   128 1716s
 28258  5212 -1477256.5   50  118 -1903788.0 -1364679.9  28.3%   129 1723s
 28554  5196 -1402892.8   45   10 -1903788.0 -1370298.7  28.0%   129 1726s
 28954  5219 infeasible   52      -1903788.0 -1376061.5  27.7%   129 1730s
 29713  5181     cutoff   63      -1903788.0 -1392068.2  26.9%   129 1736s
 30071  5182     cutoff   38      -1903788.0 -1399538.7  26.5%   129 1740s
 30801  5169 -1792139.0   54   74 -1903788.0 -1411967.9  25.8%   129 1747s
 31120  5135 -1596282.6   44   57 -1903788.0 -1417922.2  25.5%   130 1750s
 31862  5107     cutoff   50      -1903788.0 -1433123.9  24.7%   130 1757s
 32252  5075     cutoff   57      -1903788.0 -1438183.7  24.5%   130 1760s
 32928  5025     cutoff   58      -1903788.0 -1451826.5  23.7%   130 1766s
 33292  5002     cutoff   54      -1903788.0 -1458259.4  23.4%   130 1770s
 33906  4934 -1621875.6   48   24 -1903788.0 -1472415.8  22.7%   130 1776s
 34490  4834     cutoff   50      -1903788.0 -1484084.8  22.0%   130 1782s
 34755  4789     cutoff   50      -1903788.0 -1489603.8  21.8%   130 1785s
 35280  4688     cutoff   59      -1903788.0 -1500079.4  21.2%   130 1791s
 35919  4597 -1706298.3   56   16 -1903788.0 -1511476.7  20.6%   130 1797s
 36218  4532 -1837408.9   46   19 -1903788.0 -1517731.0  20.3%   130 1800s
 36825  4454 -1621638.4   60   36 -1903788.0 -1527445.7  19.8%   130 1805s
 37379  4364     cutoff   57      -1903788.0 -1537673.1  19.2%   130 1812s
 37914  4251 -1663033.9   44   39 -1903788.0 -1548662.2  18.7%   130 1817s
 38257  4210     cutoff   51      -1903788.0 -1554488.2  18.3%   130 1820s
 38759  4086 -1596980.9   59   59 -1903788.0 -1564941.5  17.8%   130 1825s
 39305  3983     cutoff   44      -1903788.0 -1574858.9  17.3%   130 1832s
 39651  3954 -1664849.8   59  116 -1903788.0 -1580281.4  17.0%   130 1835s
 40184  3829     cutoff   57      -1903788.0 -1591607.1  16.4%   130 1841s
 40671  3710     cutoff   48      -1903788.0 -1601082.0  15.9%   130 1845s
 41202  3593     cutoff   69      -1903788.0 -1611035.2  15.4%   129 1850s
 41731  3485 -1753696.8   59   44 -1903788.0 -1619593.8  14.9%   129 1855s
 42469  3287 -1671843.6   67   82 -1903788.0 -1632888.9  14.2%   129 1861s
 42973  3178     cutoff   70      -1903788.0 -1641941.1  13.8%   128 1865s
 43719  3010     cutoff   55      -1903788.0 -1656822.2  13.0%   128 1870s
 44246  2918     cutoff   53      -1903788.0 -1665675.9  12.5%   127 1875s
 45083  2669 -1891042.1   77   34 -1903788.0 -1681940.3  11.7%   127 1881s
 45744  2473     cutoff   54      -1903788.0 -1694064.0  11.0%   126 1886s
 46204  2340     cutoff   48      -1903788.0 -1702601.1  10.6%   126 1890s
 46859  2141     cutoff   61      -1903788.0 -1714833.1  9.93%   125 1896s
 47485  1938 -1732000.7   41   46 -1903788.0 -1728094.9  9.23%   125 1900s
 48186  1729     cutoff   64      -1903788.0 -1741080.3  8.55%   124 1905s
 48960  1446     cutoff   60      -1903788.0 -1758226.4  7.65%   123 1910s
 49822  1069 -1827061.0   71   38 -1903788.0 -1778401.9  6.59%   122 1916s
 50607   762 -1803468.3   44   21 -1903788.0 -1799061.4  5.50%   121 1920s
 51423   265 infeasible   67      -1903788.0 -1836551.6  3.53%   120 1925s

Cutting planes:
  Gomory: 11
  Implied bound: 7
  Projected implied bound: 9
  Clique: 7
  MIR: 15
  Flow cover: 139
  Zero half: 5

Explored 51895 nodes (6225124 simplex iterations) in 1928.52 seconds
Thread count was 4 (of 16 available processors)

Solution count 6: -1.90379e+06 -1.90379e+06 -1.90379e+06 ... -2.29507e+06

Optimal solution found (tolerance 1.00e-04)
Best objective -1.903788856052e+06, best bound -1.903788030673e+06, gap 0.0000%

***
***  |- Calculation finished, took 1,928.55 (1928.55) sec.
***  |-----------------------------------------------------------------------------------------------------------------------
***
*****************************************************************************************************************************
#############################################################################################################################
###
### Results
###
### The objective of the solution is -1,903,788.8561 (-1903788.8561) and is feasible with a Gap of 0.0
###
### Service 81 (MECL1) is operated by 6 vessels from type 18 (PMax25)
###  |- Vessel  1 has the path [88, 244, 157, 0]
###  |  88 (DEHAM Out@288.0) - 244 (TRALI In@668.0/Out@686.0) - 157 (INNSA In@906.0/Out@922.0) - 0 (DUMMY_END Ziel-Service 81
###  |  )
###  |- Vessel  2 has the path [89, 255, 4, 229, 158, 0]
###  |  89 (DEHAM Out@456.0) - 255 (TRZMK In@785.0/Out@799.0) - 4 (AEJEA In@899.0/Out@923.0) - 229 (PKBQM In@980.0/Out@1010.0
###  |  ) - 158 (INNSA In@1074.0/Out@1090.0) - 0 (DUMMY_END Ziel-Service 81)
###  |   |- and carried Demand 184, 445.0 containers from   4 to 158
###  |   |- and carried Demand 186, 200.0 containers from   4 to 229
###  |   |- and carried Demand 187,  24.0 containers from   4 to 229
###  |- Vessel  3 has the path [90, 159, 0]
###  |  90 (DEHAM Out@624.0) - 159 (INNSA In@1242.0/Out@1258.0) - 0 (DUMMY_END Ziel-Service 81)
###  |- Vessel  4 has the path [91, 249, 161, 0]
###  |  91 (DEHAM Out@792.0) - 249 (TRAMB In@1416.0/Out@1443.0) - 161 (INNSA In@1578.0/Out@1594.0) - 0 (DUMMY_END Ziel-Servic
###  |  e 81)
###  |- Vessel 13 has the path [92, 247, 156, 0]
###  |  92 (DKAAR Out@220.0) - 247 (TRAMB In@576.0/Out@603.0) - 156 (INNSA In@738.0/Out@754.0) - 0 (DUMMY_END Ziel-Service 81
###  |  )
###  |- Vessel 14 has the path [93, 254, 3, 228, 224, 6, 231, 160, 0]
###  |  93 (DKAAR Out@388.0) - 254 (TRZMK In@617.0/Out@631.0) - 3 (AEJEA In@731.0/Out@755.0) - 228 (PKBQM In@812.0/Out@842.0)
###  |   - 224 (OMSLL In@1132.0/Out@1145.0) - 6 (AEJEA In@1235.0/Out@1259.0) - 231 (PKBQM In@1316.0/Out@1346.0) - 160 (INNSA 
###  |  In@1410.0/Out@1426.0) - 0 (DUMMY_END Ziel-Service 81)
###  |   |- and carried Demand 144,  31.0 containers from 231 to 160
###  |   |- and carried Demand 145,  37.0 containers from   6 to 160
###  |   |- and carried Demand 146, 211.0 containers from   6 to 160
###  |   |- and carried Demand 147, 176.0 containers from   6 to 231
###  |   |- and carried Demand 200, 244.0 containers from 228 to 160
###  |   |- and carried Demand 201,  67.0 containers from 228 to 160
###  |   |- and carried Demand 203, 118.0 containers from   3 to 160
###  |   |- and carried Demand 204, 133.0 containers from   3 to 228
###  |   |- and carried Demand 205,  61.0 containers from   3 to 228
###  |   |- and carried Demand 206,  15.0 containers from   3 to 160
###  |   |- and carried Demand 207, 267.0 containers from   3 to 160
###  |   |- and carried Demand 208,   1.0 containers from   3 to 160
###  |
### Vessels not used in the solution: [5, 6, 7, 8, 9, 10, 11, 12, 15, 16, 17, 18]
###  |-----------------------------------------------------------------------------------------------------------------------
###
#############################################################################################################################

### Detialed variable overview

### All variables with value greater zero:
rho[81,18] = 1
eta[81,18,1] = 1
eta[81,18,2] = 1
eta[81,18,3] = 1
eta[81,18,4] = 1
eta[81,18,5] = 1
eta[81,18,6] = 1
y[1,88,244] = 1
y[1,244,157] = 1
y[1,157,0] = 1
y[2,89,255] = 1
y[2,158,0] = 1
y[2,4,229] = 1
y[2,229,158] = 1
y[2,255,4] = 1
y[3,90,159] = 1
y[3,159,0] = 1
y[4,161,0] = 1
y[4,91,249] = 1
y[4,249,161] = 1
y[13,156,0] = 1
y[13,92,247] = 1
y[13,247,156] = 1
y[14,228,224] = 1
y[14,231,160] = 1
y[14,224,6] = 1
y[14,3,228] = 1
y[14,93,254] = 1
y[14,254,3] = 1
y[14,6,231] = 1
y[14,160,0] = 1
xD[144,231,160] = 31
xD[145,231,160] = 37
xD[145,6,231] = 37
xD[146,231,160] = 211
xD[146,6,231] = 211
xD[147,6,231] = 176
xD[184,4,229] = 445
xD[184,229,158] = 445
xD[186,4,229] = 200
xD[187,4,229] = 24
xD[200,228,224] = 244
xD[200,231,160] = 244
xD[200,224,6] = 244
xD[200,6,231] = 244
xD[201,228,224] = 67
xD[201,231,160] = 67
xD[201,224,6] = 67
xD[201,6,231] = 67
xD[203,228,224] = 118
xD[203,231,160] = 118
xD[203,224,6] = 118
xD[203,3,228] = 118
xD[203,6,231] = 118
xD[204,3,228] = 133
xD[205,3,228] = 61
xD[206,228,224] = 15
xD[206,231,160] = 15
xD[206,224,6] = 15
xD[206,3,228] = 15
xD[206,6,231] = 15
xD[207,228,224] = 267
xD[207,231,160] = 267
xD[207,224,6] = 267
xD[207,3,228] = 267
xD[207,6,231] = 267
xD[208,228,224] = 1
xD[208,231,160] = 1
xD[208,224,6] = 1
xD[208,3,228] = 1
xD[208,6,231] = 1
zE[3] = 731
zE[4] = 899
zE[6] = 1235
zE[156] = 738
zE[157] = 906
zE[158] = 1074
zE[159] = 1242
zE[160] = 1410
zE[161] = 1578
zE[224] = 1132
zE[228] = 812
zE[229] = 980
zE[231] = 1316
zE[244] = 668
zE[247] = 576
zE[249] = 1416
zE[254] = 617
zE[255] = 785
zX[3] = 755
zX[4] = 923
zX[6] = 1259
zX[88] = 288
zX[89] = 456
zX[90] = 624
zX[91] = 792
zX[92] = 220
zX[93] = 388
zX[156] = 754
zX[157] = 922
zX[158] = 1090
zX[159] = 1258
zX[160] = 1426
zX[161] = 1594
zX[224] = 1145
zX[228] = 842
zX[229] = 1010
zX[231] = 1346
zX[244] = 686
zX[247] = 603
zX[249] = 1443
zX[254] = 631
zX[255] = 799
phi[1] = 634
phi[2] = 634
phi[3] = 634
phi[4] = 802
phi[13] = 534
phi[14] = 1038

### All variables with value smaller zero:

### End

real	33m48.618s
user	110m52.991s
sys	12m29.531s
	Freetype 2.4.12 environment removed
	Python 3.6.0 environment removed
	Gurobi 8.1.0 environment removed
