### Additional Information to the goal services
# Basic costs on route 177: -51698969.95319436
# Direct costs (not staggered):
# For goal service 177:
# n_min: 2
# n_max: 3
# lowest costs of the goal service 177 with configuration (177, 19, 3) at 0.0
# (177, 18, 1): 15925933.723620936
# (177, 18, 2): 11449839.89037519
# (177, 18, 3): 568726.2903752029
# (177, 19, 1): 21636052.12651594
# (177, 19, 2): 14479472.439599998
# (177, 19, 3): 0.0
# (177, 30, 1): 20623113.920471974
# (177, 30, 2): 16116270.20048859
# (177, 30, 3): 1063854.5133685917
# -------------------------------------------
