### Additional Information to the goal services
# Basic costs on route 177: -59453815.446173504
# Direct costs (not staggered):
# For goal service 177:
# n_min: 2
# n_max: 3
# lowest costs of the goal service 177 with configuration (177, 19, 3) at 0.0
# (177, 18, 1): 18314823.78216406
# (177, 18, 2): 13167315.873931468
# (177, 18, 3): 654035.2339314818
# (177, 19, 1): 24881459.945493333
# (177, 19, 2): 16651393.305540003
# (177, 19, 3): 0.0
# (177, 30, 1): 23716581.008542746
# (177, 30, 2): 18533710.73056186
# (177, 30, 3): 1223432.6903738678
# -------------------------------------------
