### Additional Information to the goal services
# Basic costs on route 177: -47821547.20670478
# Direct costs (not staggered):
# For goal service 177:
# n_min: 2
# n_max: 3
# lowest costs of the goal service 177 with configuration (177, 19, 3) at 0.0
# (177, 18, 1): 14731488.694349363
# (177, 18, 2): 10591101.898597054
# (177, 18, 3): 526071.818597056
# (177, 19, 1): 20013348.21702724
# (177, 19, 2): 13393512.006629996
# (177, 19, 3): 0.0
# (177, 30, 1): 19076380.376436576
# (177, 30, 2): 14907549.935451955
# (177, 30, 3): 984065.4248659536
# -------------------------------------------
