### Additional Information to the goal services
# Basic costs on route 24: 16193222.749012608
# Direct costs (not staggered):
# For goal service 24:
# n_min: 2
# n_max: 4
# lowest costs of the goal service 24 with configuration (24, 18, 3) at 0.0
# (24, 18, 1): 16093024.083513819
# (24, 18, 2): 8860861.310990497
# (24, 18, 3): 0.0
# (24, 18, 4): 666419.0399999991
# (24, 19, 1): 24854442.670818236
# (24, 19, 2): 14472381.962012291
# (24, 19, 3): 7571442.686987914
# (24, 19, 4): 8304463.646987915
# (24, 30, 1): 24349355.36927865
# (24, 30, 2): 15484755.152058288
# (24, 30, 3): 7156210.861545742
# (24, 30, 4): 7955890.861545742
# -------------------------------------------
