	Freetype 2.4.12 environment established
		library to render fonts
	Python 3.6.0 environment established
	Gurobi 8.1.0 environment established
Instance LSFRP: LSFDRP_5_3_1_1_fr.p
Instance LSFDP: LSFDRP_5_3_1_1_fd_37.p

*****************************************************************************************************************************
*** Solve LSFDRP_5_3_1_1_fd_37 with Gurobi
***
*** Graph info
*** |S|: 12
*** |S^E|: 0
*** |S^C|: 4
*** |V|: 162
*** |A|: 2732
*** |A^i|: 2732
*** |A^f|: 0
*** |M|: 532
*** |E|: 0

Changed value of parameter TimeLimit to 86400.0
   Prev: 1e+100  Min: 0.0  Max: 1e+100  Default: 1e+100
Changed value of parameter Threads to 4
   Prev: 0  Min: 0  Max: 1024  Default: 0
Optimize a model with 94319 rows, 1492000 columns and 5261875 nonzeros
Variable types: 1459208 continuous, 32792 integer (32792 binary)
Coefficient statistics:
  Matrix range     [1e+00, 3e+03]
  Objective range  [2e+00, 3e+07]
  Bounds range     [1e+00, 1e+00]
  RHS range        [1e+00, 7e+00]
Presolve removed 84889 rows and 1436562 columns (presolve time = 5s) ...
Presolve removed 84889 rows and 1440714 columns (presolve time = 29s) ...
Presolve removed 84972 rows and 1440743 columns (presolve time = 31s) ...
Warning: Failed to open log file 'gurobi.log'
Presolve removed 84976 rows and 1440747 columns
Presolve time: 33.87s
Presolved: 9343 rows, 51253 columns, 285169 nonzeros
Variable types: 22752 continuous, 28501 integer (28486 binary)

Root simplex log...

Iteration    Objective       Primal Inf.    Dual Inf.      Time
       0    5.4601468e+09   1.336409e+06   0.000000e+00     35s
   30919    3.3583266e+07   7.645851e+05   0.000000e+00     40s
   42700    2.2917861e+07   4.715072e+05   0.000000e+00     45s
   50515    1.9043013e+07   1.433073e+06   0.000000e+00     50s
   57763    1.7491621e+07   7.562459e+05   0.000000e+00     55s
   64907    1.5865822e+07   6.357211e+06   0.000000e+00     60s
   71080    1.4702774e+07   6.508488e+06   0.000000e+00     65s
   77549    1.4093867e+07   1.919192e+06   0.000000e+00     70s
   86272    1.3257179e+07   5.973360e+05   0.000000e+00     75s
   92751    1.1682232e+07   2.514385e+06   0.000000e+00     80s
   99775    1.0911895e+07   4.753904e+07   0.000000e+00     85s
  105458    1.0187727e+07   3.937841e+06   0.000000e+00     90s
  109672    9.5565978e+06   3.519829e+05   0.000000e+00     95s
  113801    9.0298297e+06   4.337685e+05   0.000000e+00    100s
  120010    8.3479026e+06   1.035653e+06   0.000000e+00    105s
  126075    7.8413339e+06   1.379188e+06   0.000000e+00    110s
  130559    7.6809914e+06   1.338346e+06   0.000000e+00    115s
  134317    7.5640776e+06   2.883959e+05   0.000000e+00    120s
  138570    7.4820793e+06   3.258572e+05   0.000000e+00    125s
  142250    7.4142430e+06   5.374973e+04   0.000000e+00    130s
  145930    7.3598006e+06   4.445711e+03   0.000000e+00    135s
  149190    7.2712297e+06   4.164915e+04   0.000000e+00    140s
  152680    7.2426016e+06   3.488070e+03   0.000000e+00    145s
  156020    7.2146803e+06   1.358358e+03   0.000000e+00    150s
  159082    7.2107631e+06   0.000000e+00   0.000000e+00    154s

Root relaxation: objective 7.210763e+06, 159082 iterations, 118.50 seconds

    Nodes    |    Current Node    |     Objective Bounds      |     Work
 Expl Unexpl |  Obj  Depth IntInf | Incumbent    BestBd   Gap | It/Node Time

     0     0 7210763.12    0  368          - 7210763.12      -     -  154s
H    0     0                    -4041349.692 7210763.12   278%     -  155s
H    0     0                    -3165644.712 7210763.12   328%     -  163s
     0     0 6956602.44    0  403 -3165644.7 6956602.44   320%     -  188s
     0     0 6922467.72    0  388 -3165644.7 6922467.72   319%     -  216s
     0     0 6919387.76    0  405 -3165644.7 6919387.76   319%     -  219s
     0     0 6919280.66    0  402 -3165644.7 6919280.66   319%     -  219s
     0     0 6899737.58    0  404 -3165644.7 6899737.58   318%     -  220s
     0     0 6876101.31    0  391 -3165644.7 6876101.31   317%     -  228s
H    0     0                    -2721226.801 6876101.31   353%     -  238s
     0     0 6874680.02    0  412 -2721226.8 6874680.02   353%     -  239s
     0     0 6874639.44    0  410 -2721226.8 6874639.44   353%     -  239s
     0     0 6865082.69    0  410 -2721226.8 6865082.69   352%     -  246s
     0     0 6845650.32    0  409 -2721226.8 6845650.32   352%     -  253s
     0     0 6845589.50    0  412 -2721226.8 6845589.50   352%     -  254s
     0     0 6841393.29    0  417 -2721226.8 6841393.29   351%     -  257s
     0     0 6841232.27    0  423 -2721226.8 6841232.27   351%     -  259s
     0     0 6841201.85    0  427 -2721226.8 6841201.85   351%     -  259s
     0     0 6838162.63    0  413 -2721226.8 6838162.63   351%     -  263s
     0     0 6835651.29    0  401 -2721226.8 6835651.29   351%     -  268s
     0     0 6835647.96    0  404 -2721226.8 6835647.96   351%     -  268s
     0     0 6834666.57    0  394 -2721226.8 6834666.57   351%     -  271s
     0     0 6833352.07    0  422 -2721226.8 6833352.07   351%     -  274s
     0     0 6833169.21    0  426 -2721226.8 6833169.21   351%     -  275s
     0     0 6833132.77    0  427 -2721226.8 6833132.77   351%     -  276s
     0     0 6830868.81    0  423 -2721226.8 6830868.81   351%     -  279s
     0     0 6830720.66    0  432 -2721226.8 6830720.66   351%     -  281s
     0     0 6830531.91    0  430 -2721226.8 6830531.91   351%     -  282s
     0     0 6830432.22    0  438 -2721226.8 6830432.22   351%     -  282s
     0     0 6830404.52    0  435 -2721226.8 6830404.52   351%     -  283s
     0     0 6829169.68    0  442 -2721226.8 6829169.68   351%     -  286s
     0     0 6829085.08    0  437 -2721226.8 6829085.08   351%     -  289s
     0     0 6828501.70    0  435 -2721226.8 6828501.70   351%     -  291s
     0     0 6827886.43    0  432 -2721226.8 6827886.43   351%     -  294s
     0     0 6827488.24    0  428 -2721226.8 6827488.24   351%     -  295s
     0     0 6827466.51    0  428 -2721226.8 6827466.51   351%     -  295s
     0     0 6824391.41    0  443 -2721226.8 6824391.41   351%     -  298s
     0     0 6824361.83    0  442 -2721226.8 6824361.83   351%     -  300s
     0     0 6824239.50    0  441 -2721226.8 6824239.50   351%     -  302s
     0     0 6824235.42    0  434 -2721226.8 6824235.42   351%     -  304s
     0     0 6824137.41    0  435 -2721226.8 6824137.41   351%     -  305s
     0     0 6824137.41    0  432 -2721226.8 6824137.41   351%     -  343s
     0     2 6824137.41    0  432 -2721226.8 6824137.41   351%     -  407s
     1     4 6716433.87    1  419 -2721226.8 6730617.03   347% 20555  472s
     3     8 6710743.77    2  423 -2721226.8 6710743.77   347% 10131  520s
     7    12 6700046.75    3  422 -2721226.8 6710743.77   347% 10751  547s
    11    16 6611737.23    3  400 -2721226.8 6700046.75   346% 10315  583s
    15    20 6695591.18    4  451 -2721226.8 6700046.75   346% 10679  676s
    19    19 6688946.63    5  422 -2721226.8 6700046.75   346% 12813  706s
    23    21 6688228.40    6  421 -2721226.8 6700046.75   346% 11542  726s
H   30    31                    -2379178.399 6700046.75   382%  9544  772s
H   31    32                    -2152685.818 6700046.75   411%  9440  772s
    34    36 6676633.70    9  432 -2152685.8 6700046.75   411%  9374  848s
    40    42 6538186.09   10  403 -2152685.8 6700046.75   411% 10010  885s
    46    46 6658040.80   11  413 -2152685.8 6700046.75   411%  9557  931s
    52    53 6642848.27   13  429 -2152685.8 6700046.75   411%  9068  986s
    59    60 6632016.88   15  416 -2152685.8 6700046.75   411%  9107 1016s
H   60    60                    -2003981.476 6700046.75   434%  8955 1016s
H   62    62                    -1448204.117 6700046.75   563%  8799 1017s
    67    68 6626349.79   17  428 -1448204.1 6700046.75   563%  8464 1048s
    77    79 6622892.66   21  434 -1448204.1 6700046.75   563%  7972 1121s
    84    85 6603975.83   24  438 -1448204.1 6700046.75   563%  8272 1164s
    92    91 6594984.76   26  440 -1448204.1 6700046.75   563%  8233 1187s
H   93    91                    -1448204.116 6700046.75   563%  8144 1187s
   100   102 6587775.96   29  451 -1448204.1 6700046.75   563%  7848 1224s
   109   112 6390326.20   32  434 -1448204.1 6700046.75   563%  7782 1270s
   116   115 6504664.87   33  410 -1448204.1 6700046.75   563%  7828 1334s
   125   128 6446748.47   35  433 -1448204.1 6700046.75   563%  8055 1416s
H  127   130                    -1266050.269 6700046.75   629%  8037 1416s
   131   134 6230062.83   36  387 -1266050.3 6700046.75   629%  8480 1479s
   136   134 6342349.57   37  423 -1266050.3 6700046.75   629%  8755 1513s
   148   147 6334428.22   39  416 -1266050.3 6700046.75   629%  8379 1542s
H  165   169                    -1266050.268 6700046.75   629%  7861 1599s
H  170   174                    -1266050.267 6700046.75   629%  7790 1599s
   178   180 5865910.68   46  371 -1266050.3 6700046.75   629%  8101 1642s
   188   189 6169669.19   47  429 -1266050.3 6700046.75   629%  8053 1754s
   192   192 6148068.80   48  432 -1266050.3 6700046.75   629%  8065 1834s
   202   203 5954414.88   51  433 -1266050.3 6700046.75   629%  8175 1902s
   212   214 5821162.45   52  445 -1266050.3 6700046.75   629%  8364 1966s
   222   222 5794332.80   54  456 -1266050.3 6700046.75   629%  8374 2036s
   239   241 4944518.76   56  360 -1266050.3 6700046.75   629%  8287 2115s
H  240   242                    -1266050.244 6700046.75   629%  8253 2115s
H  242   243                    -1108146.548 6700046.75   705%  8342 2115s
   248   250 5731630.08   56  432 -1108146.5 6700046.75   705%  8376 2194s
   257   256 5538055.34   59  425 -1108146.5 6700046.75   705%  8611 2279s
H  280   280                    -1108146.548 6700046.75   705%  8372 2353s
H  292   291                    -1044771.589 6700046.75   741%  8224 2353s
   305   305 5483158.10   72  406 -1044771.6 6700046.75   741%  8052 2426s
H  342   346                    -1044771.589 6700046.75   741%  7552 2506s
   371   370 5350640.11   83  428 -1044771.6 6700046.75   741%  7398 2591s
   401   403 5287908.71   91  420 -1044771.6 6700046.75   741%  7155 2680s
   431   429 5228336.44   94  423 -1044771.6 6700046.75   741%  7010 2772s
   463   465 5167679.14  100  432 -1044771.6 6700046.75   741%  6808 2864s
   510   513 4951178.48  110  412 -1044771.6 6700046.75   741%  6465 2948s
   545   543 5042894.76  112  436 -1044771.6 6700046.75   741%  6282 3036s
   587   592 4778335.03  125  388 -1044771.6 6700046.75   741%  6128 3189s
H  607   609                    -1044771.589 6700046.75   741%  6185 3189s
   613   612 4898346.90  127  383 -1044771.6 6700046.75   741%  6226 3296s
   654   658 4528719.83  129  375 -1044771.6 6700046.75   741%  6136 3402s
   695   694 4448418.25  140  369 -1044771.6 6700046.75   741%  6040 3523s
   751   751 4392981.06  158  377 -1044771.6 6700046.75   741%  5900 3638s
   801   801 4322274.33  164  378 -1044771.6 6700046.75   741%  5780 3737s
   874   874 4256387.38  171  352 -1044771.6 6700046.75   741%  5515 3822s
   950   952 4203446.34  185  368 -1044771.6 6700046.75   741%  5226 3936s
  1031  1034 3179805.91  202  299 -1044771.6 6700046.75   741%  5104 4038s
H 1108  1108                    -1044771.588 6700046.75   741%  4880 4038s
  1128  1125 3968960.24  217  318 -1044771.6 6700046.75   741%  4825 4163s
H 1243  1229                    -1044771.588 6700046.75   741%  4554 4163s
  1268  1264 3605563.67  233  299 -1044771.6 6700046.75   741%  4514 4253s
  1355  1352 3093876.31  249  241 -1044771.6 6700046.75   741%  4419 4378s
  1456  1447 2831610.83  268  283 -1044771.6 6700046.75   741%  4327 4514s
  1637  1606 2313214.56  301  183 -1044771.6 6700046.75   741%  4028 4596s
  1776  1736 771297.910  341  208 -1044771.6 6700046.75   741%  3834 4724s
  1896  1836 -208537.07  425  123 -1044771.6 6688207.00   740%  3759 4843s
  1992  1902 4277420.15   42  432 -1044771.6 6688207.00   740%  3715 5054s
H 1993  1807                    -852339.5499 6688207.00   885%  3713 5260s
H 1994  1717                    -852339.5498 6688207.00   885%  3711 5313s
  1996  1719 4757136.57   18  407 -852339.55 6688207.00   885%  3707 5332s
  1997  1719 1997364.96  337  423 -852339.55 6688207.00   885%  3705 5340s
  1998  1720 2828607.33  205  429 -852339.55 6688207.00   885%  3703 5351s
  1999  1721 6622575.21   22  455 -852339.55 6688207.00   885%  3702 5356s
  2000  1721 4038357.00  165  450 -852339.55 6688207.00   885%  3700 5360s
  2001  1722 5525843.44   61  452 -852339.55 6688207.00   885%  3698 5366s
H 2001  1636                    -852339.5494 6628818.64   878%  3698 5418s
  2003  1637 3399314.60  140  466 -852339.55 6440437.87   856%  3694 5431s
  2004  1638 2888148.67  196  469 -852339.55 6440437.87   856%  3692 5435s
  2005  1639 4278874.67   64  496 -852339.55 6440437.87   856%  3690 5442s
  2006  1639 3181671.94  164  520 -852339.55 6435313.54   855%  3689 5446s
  2007  1640 4428953.86  146  514 -852339.55 6431794.07   855%  3687 5451s
  2008  1641 4415058.57  148  507 -852339.55 6431146.50   855%  3685 5455s
  2010  1642 2931193.56  207  497 -852339.55 6359224.23   846%  3681 5487s
  2011  1643 728839.191  364  526 -852339.55 6319089.97   841%  3679 5497s
  2012  1643 749233.737  359  544 -852339.55 6307637.33   840%  3678 5504s
  2013  1644 6301774.87    5  544 -852339.55 6301774.87   839%  3676 5508s
  2014  1645 3089925.52   49  569 -852339.55 6296705.49   839%  3674 5513s
  2015  1645 4548081.59  129  578 -852339.55 6294258.03   838%  3672 5516s
  2017  1647 4665969.85   46  587 -852339.55 6293045.96   838%  3669 5521s
H 2017  1564                    -852339.5487 6279559.15   837%  3669 5550s
  2019  1565 4025478.86  211  532 -852339.55 6273985.11   836%  3665 5557s
  2020  1566 5453177.85   76  529 -852339.55 6270431.09   836%  3663 5562s
H 2020  1487                    -821086.5497 6270431.09   864%  3663 5567s
  2022  1488 600081.085  371  593 -821086.55 6264462.96   863%  3659 5572s
  2023  1489 4203026.01  158  617 -821086.55 6262734.30   863%  3658 5576s
  2024  1489 2713294.54  235  607 -821086.55 6261755.55   863%  3656 5580s
  2026  1491 6169782.90   18  608 -821086.55 6249046.47   861%  3652 5603s
  2027  1491 2359625.43  320  609 -821086.55 6239395.49   860%  3650 5610s
H 2027  1416                    -821086.5487 6239395.49   860%  3650 5635s
  2029  1418 6218659.31   24  602 -821086.55 6218659.31   857%  3647 5641s
  2031  1419 5435470.66   78  618 -821086.55 6214920.70   857%  3643 5647s
  2032  1420 1957383.71  351  625 -821086.55 6213695.03   857%  3641 5650s
  2034  1421 4126043.79  129  617 -821086.55 6212169.51   857%  3638 5656s
  2035  1422 5692727.93   13  611 -821086.55 6202989.99   855%  3636 5692s
  2036  1422 4024739.36  206  611 -821086.55 6197020.28   855%  3634 5701s
  2037  1423 4203462.51  137  601 -821086.55 6194106.54   854%  3633 5706s
  2039  1424 272279.517  402  602 -821086.55 6192454.47   854%  3629 5712s
  2041  1426 4732573.44   45  620 -821086.55 6190799.69   854%  3625 5718s
  2042  1426 -674829.98  454  631 -821086.55 6189388.94   854%  3624 5732s
  2043  1427 6188762.31   10  605 -821086.55 6188762.31   854%  3622 5737s
  2044  1428 2853437.96  210  609 -821086.55 6187381.45   854%  3620 5750s
  2046  1429 2018599.50  280  599 -821086.55 6185385.78   853%  3617 5757s
  2047  1430 4732558.31   45  608 -821086.55 6184588.48   853%  3615 5761s
  2048  1430 4233537.09  177  608 -821086.55 6184498.85   853%  3613 5765s
  2049  1431 4269956.33  129  625 -821086.55 6184180.81   853%  3611 5818s
  2050  1432 1545935.14  306  625 -821086.55 6184180.81   853%  3609 5821s
  2051  1432 1010201.31  348  625 -821086.55 6184180.81   853%  3608 5965s
  2052  1436 6182511.26   10  608 -821086.55 6184151.28   853%  3804 6120s
  2054  1439 6181482.54   11  609 -821086.55 6181482.54   853%  3812 6322s
  2058  1442 6180970.42   12  610 -821086.55 6180970.42   853%  3853 6402s
  2062  1445 4928972.38   12  486 -821086.55 6180937.64   853%  3876 6549s
  2066  1447 6180771.74   13  613 -821086.55 6180771.74   853%  3892 6605s
  2070  1450 4910851.15   13  386 -821086.55 6180766.50   853%  3916 6723s
  2074  1453 6171020.00   14  598 -821086.55 6180765.58   853%  3949 6808s
H 2078  1382                    -821086.5481 6180765.58   853%  3978 6881s
H 2081  1312                    -821086.5477 6171011.60   852%  3996 6881s
  2082  1311 6167202.52   15  602 -821086.55 6167202.52   851%  4006 6989s
  2089  1316 6165748.13   16  616 -821086.55 6165748.13   851%  4060 7060s
  2096  1321 6160791.96   17  594 -821086.55 6160791.96   850%  4085 7168s
  2102  1324 6160251.82   18  602 -821086.55 6160251.82   850%  4135 7241s
  2110  1332 6158871.38   19  586 -821086.55 6160251.82   850%  4172 7323s
  2117  1336 5923592.99   19  515 -821086.55 6158865.16   850%  4215 7391s
  2124  1342 6140651.77   20  608 -821086.55 6147221.80   849%  4249 7543s
  2132  1346 6098121.18   21  555 -821086.55 6147221.80   849%  4310 7618s
  2139  1346 6073487.56   22  550 -821086.55 6147221.80   849%  4356 7721s
  2151  1359 6034164.79   23  547 -821086.55 6147221.80   849%  4388 7833s
  2162  1368 6019650.27   24  548 -821086.55 6147221.80   849%  4426 7931s
  2173  1371 6015833.88   25  549 -821086.55 6147221.80   849%  4458 8040s
  2186  1379 6008962.63   26  540 -821086.55 6147221.80   849%  4500 8158s
  2201  1392 6002762.26   27  544 -821086.55 6147221.80   849%  4559 8269s
  2218  1404 5870993.69   29  553 -821086.55 6147221.80   849%  4595 8397s
  2229  1412 5863299.46   30  553 -821086.55 6147221.80   849%  4656 8516s
  2245  1418 5861415.57   31  540 -821086.55 6147221.80   849%  4688 8648s
  2260  1432 5738778.24   33  534 -821086.55 6147221.80   849%  4732 8765s
  2271  1434 5621760.81   35  556 -821086.55 6147221.80   849%  4774 8895s
  2286  1449 3826073.85   36  445 -821086.55 6147221.80   849%  4837 9027s
  2302  1460 5484300.17   37  413 -821086.55 6147221.80   849%  4877 9173s
  2318  1470 5472755.37   38  433 -821086.55 6147221.80   849%  4936 9306s
  2335  1480 5430749.04   39  458 -821086.55 6147221.80   849%  5000 9480s
  2359  1495 4617601.53   41  402 -821086.55 6147221.80   849%  5051 9631s
  2381  1513 5358910.47   43  465 -821086.55 6147221.80   849%  5085 9807s
  2402  1521 5337275.08   45  482 -821086.55 6147221.80   849%  5149 9991s
  2427  1540 5327782.62   48  513 -821086.55 6147221.80   849%  5195 10139s
  2462  1562 5299229.33   50  488 -821086.55 6147221.80   849%  5199 10296s
  2499  1587 5275240.67   53  503 -821086.55 6147221.80   849%  5197 10473s
  2538  1614 5066997.25   55  451 -821086.55 6147221.80   849%  5210 10655s
  2582  1643 5235414.03   58  520 -821086.55 6147221.80   849%  5220 10826s
  2631  1675 5191613.67   61  488 -821086.55 6147221.80   849%  5213 10999s
  2677  1698 5122796.96   63  473 -821086.55 6147221.80   849%  5213 11180s
  2729  1725 4902374.51   65  485 -821086.55 6147221.80   849%  5216 11356s
  2780  1734 4888043.98   66  503 -821086.55 6147221.80   849%  5188 11509s
  2840  1757 4865022.34   69  459 -821086.55 6147221.80   849%  5167 11692s
  2879  1771 4839647.44   71  481 -821086.55 6147221.80   849%  5203 11886s
  2917  1785 4835707.52   73  485 -821086.55 6147221.80   849%  5253 12085s
  2998  1830 4046914.66   75  450 -821086.55 6147221.80   849%  5239 12282s
  3027  1850 4816090.56   77  505 -821086.55 6147202.70   849%  5287 12436s
  3077  1867 4732071.47   81  484 -821086.55 6147202.70   849%  5327 12639s
  3130  1900 4731315.07   84  477 -821086.55 6147202.70   849%  5381 12865s
H 3171  1843                    -821086.5469 6147202.70   849%  5396 12865s
  3185  1858 4577681.83   86  464 -821086.55 6147202.70   849%  5413 13039s
  3244  1896 4558722.07   91  466 -821086.55 6147202.70   849%  5442 13232s
  3317  1937 4523607.51   95  489 -821086.55 6147202.70   849%  5459 13457s
  3443  1997 4461673.37  100  448 -821086.55 6147202.70   849%  5384 13702s
  3552  2064 4171615.50  104  422 -821086.55 6147202.70   849%  5333 13966s
  3675  2129 4208128.32  106  462 -821086.55 6147202.70   849%  5264 14231s
  3806  2199 4185143.42  110  419 -821086.55 6147202.70   849%  5183 14482s
  3891  2248 4087843.42  115  440 -821086.55 6147202.70   849%  5148 14673s
  4087  2369 4069783.75  119  436 -821086.55 6147202.70   849%  4998 14872s
  4237  2465 3976595.87  123  376 -821086.55 6147202.70   849%  4902 15123s
  4377  2527 3901467.96  129  375 -821086.55 6147202.70   849%  4863 15422s
  4439  2562 3851759.63  134  365 -821086.55 6147202.70   849%  4922 15731s
  4557  2629 3626287.60  141  365 -821086.55 6147202.70   849%  4907 15977s
  4682  2711 3585088.77  146  370 -821086.55 6147202.70   849%  4894 16186s
  5016  2912 1363414.73  153  225 -821086.55 6147202.70   849%  4676 16413s
  5254  3029 3337214.98  159  287 -821086.55 6147202.70   849%  4562 16649s
  5389  3102 3138684.65  166  262 -821086.55 6147202.70   849%  4546 16909s
H 5394  3038                    -821086.5383 6147202.70   849%  4553 16909s
  5528  3101 3084625.23  174  267 -821086.54 6147202.70   849%  4530 17273s
  5728  3288 3004736.90  181  259 -821086.54 6147202.70   849%  4472 17594s
  6027  3559 2804184.35  194  197 -821086.54 6147202.70   849%  4367 17922s
  6272  3772 2741635.24  210  190 -821086.54 6147202.70   849%  4307 18213s
  6365  3859 2607657.45  223  240 -821086.54 6147202.70   849%  4352 18582s
  6487  3972 2144743.96  236  251 -821086.54 6147202.70   849%  4382 19047s
  6669  4117 1956689.79  258  246 -821086.54 6147202.70   849%  4401 19493s
  6894  4295 1791203.67  285  193 -821086.54 6147202.70   849%  4393 19830s
  7184  4530 847972.491  329  145 -821086.54 6135402.21   847%  4348 20288s
  7485  4751 5687574.48   34  504 -821086.54 6135317.11   847%  4291 20631s
  7779  5021 4949387.31   58  417 -821086.54 6135317.11   847%  4240 20992s
  8004  5183 3983419.68  107  404 -821086.54 6066662.27   839%  4214 21590s
  8367  5507 5818245.67   17  503 -821086.54 6066662.27   839%  4133 21970s
  8646  5774 4829658.73   47  496 -821086.54 6066662.27   839%  4100 22483s
  8860  5966 1621368.47  112  274 -821086.54 6021006.15   833%  4108 23042s
  9240  6267 2512118.54   27  388 -821086.54 5999734.15   831%  4032 23564s
H 9496  6471                    -709968.8242 5999734.15   945%  4030 24223s
H 9714  6675                    -709968.8239 5999734.15   945%  4052 25094s
H 9744  6688                    -709968.8233 5964319.19   940%  4063 25094s
H 9869  6638                    -622192.8770 5964319.19  1059%  4046 25094s
H10005  6845                    -622192.8764 5964319.19  1059%  4051 25627s
H10101  6899                    -622192.8758 5954292.01  1057%  4047 25627s
H10196  6961                    -622192.8748 5927591.48  1053%  4036 25627s
H10214  6979                    -622192.8443 5927591.48  1053%  4056 25627s
 10271  7027 4727770.53   25  437 -622192.84 5923525.41  1052%  4061 26296s
 10507  7230 5562904.31   23  480 -622192.84 5918940.85  1051%  4081 27054s
 10694  7391 4888929.97   43  450 -622192.84 5918940.85  1051%  4132 27897s
 11062  7721 3570380.00   90  361 -622192.84 5918940.85  1051%  4129 28592s
 11545  8111 1728187.19  122  296 -622192.84 5906969.83  1049%  4108 29445s
 12156  8542 4763977.40   41  414 -622192.84 5903663.46  1049%  4032 30392s
 12655  8990 3914239.88   25  394 -622192.84 5895293.09  1048%  3986 31245s
 12878  9191 3950639.55   46  452 -622192.84 5894162.56  1047%  4012 32108s
 13261  9548 5241577.28   36  473 -622192.84 5894162.56  1047%  4004 32728s
 13656  9887 2911083.97  100  334 -622192.84 5884120.60  1046%  3994 33543s
 14089 10282 4247980.68   56  409 -622192.84 5878390.18  1045%  3985 34165s
 14605 10679 5340119.15   36  474 -622192.84 5873828.59  1044%  3946 35029s
 15049 11085 4467221.04   52  434 -622192.84 5873828.59  1044%  3925 35910s
 15319 11344 2293238.23   73  229 -622192.84 5873828.59  1044%  3947 36827s
 15697 11660 1490160.28  158  257 -622192.84 5869321.60  1043%  3958 37772s
 16109 11976 4907089.68   30  405 -622192.84 5869321.60  1043%  3947 38391s
 16466 12230 4146085.55   44  312 -622192.84 5869321.60  1043%  3944 39186s
 16964 12665 2490175.59   76  137 -622192.84 5851884.10  1041%  3906 40099s
 17441 13028 3551442.58   79  444 -622192.84 5842992.81  1039%  3882 41034s
 18051 13603 4121283.18   66  394 -622192.84 5838470.05  1038%  3839 41913s
 18533 14005 4474097.28   67  389 -622192.84 5818194.05  1035%  3811 42845s
 19035 14475 5442208.29   30  522 -622192.84 5815480.87  1035%  3786 43696s
 19387 14770 873782.232   99  342 -622192.84 5814715.57  1035%  3791 44648s
 19918 15219 3634777.50   33  218 -622192.84 5799687.42  1032%  3760 45264s
 20114 15394 2173698.59   62  360 -622192.84 5792280.71  1031%  3778 45983s
 20505 15765 81321.3331  193  432 -622192.84 5792244.44  1031%  3772 52183s
 20507 15766 3065132.63   83  331 -622192.84 5792244.44  1031%  3771 52247s
 20508 15767 3954255.74   54  359 -622192.84 5792244.44  1031%  3771 52270s
 20509 15768 -7668.5143  161  410 -622192.84 5792244.44  1031%  3771 52286s
 20510 15768 1765644.11  141  440 -622192.84 5792244.44  1031%  3771 52300s
 20511 15769 1504693.65  217  490 -622192.84 5792244.44  1031%  3770 52315s
 20512 15770 194340.453  145  490 -622192.84 5792244.44  1031%  3770 52328s
 20513 15770 3255546.28   59  462 -622192.84 5792244.44  1031%  3770 52339s
 20514 15771 4367097.94   64  459 -622192.84 5792244.44  1031%  3770 52352s
 20515 15772 1665859.98  102  418 -622192.84 5792244.44  1031%  3770 52362s
 20516 15772 3771647.37   73  484 -622192.84 5792244.44  1031%  3770 52370s
 20517 15773 2446081.83   51  495 -622192.84 5792244.44  1031%  3769 52375s
 20519 15774 4015303.01   33  540 -622192.84 5792244.44  1031%  3769 52385s
 20521 15776 3540900.41   77  548 -622192.84 5792244.44  1031%  3769 52396s
 20522 15776 5321497.69   41  562 -622192.84 5792244.44  1031%  3768 52400s
 20524 15778 3148709.65  102  562 -622192.84 5792244.44  1031%  3768 52407s
 20526 15779 2490733.23   80  571 -622192.84 5792244.44  1031%  3768 52412s
 20527 15780 3609280.40   74  532 -622192.84 5792244.44  1031%  3768 52508s
 20528 15780 4965330.16   53  528 -622192.84 5792244.44  1031%  3767 52515s
 20529 15781 1093309.05   93  555 -622192.84 5792244.44  1031%  3767 52520s
 20530 15782 2230387.60   49  566 -622192.84 5792244.44  1031%  3767 52525s
 20531 15782 173980.001   84  542 -622192.84 5792244.44  1031%  3767 52530s
 20532 15783 4681000.07   38  564 -622192.84 5792244.44  1031%  3767 52535s
 20533 15784 144562.646  354  563 -622192.84 5792244.44  1031%  3766 52541s
 20534 15784 4833155.41   41  554 -622192.84 5792244.44  1031%  3766 52546s
 20536 15786 3728590.79   41  563 -622192.84 5792244.44  1031%  3766 52550s
 20538 15787 4682962.11   30  578 -622192.84 5792244.44  1031%  3766 52580s
 20539 15788 3059742.81  154  582 -622192.84 5792244.44  1031%  3765 52666s
 20541 15789 804507.827   96  551 -622192.84 5792244.44  1031%  3765 52673s
 20543 15790 5642038.04   23  602 -622192.84 5792244.44  1031%  3765 52676s
 20545 15792 244708.630   37  560 -622192.84 5792244.44  1031%  3764 52724s
 20546 15792 44063.1416  210  586 -622192.84 5792244.44  1031%  3764 52823s
 20547 15793 1540508.79   73  581 -622192.84 5792244.44  1031%  3764 52827s
 20548 15794 2406594.18   92  582 -622192.84 5792244.44  1031%  3764 52831s
 20550 15795 2847933.67   60  603 -622192.84 5792244.44  1031%  3763 52836s
 20552 15796 5191902.14   24  600 -622192.84 5792244.44  1031%  3763 52866s
 20553 15797 3273755.76  141  605 -622192.84 5792244.44  1031%  3763 52956s
 20554 15798 2560212.54  122  640 -622192.84 5792244.44  1031%  3763 52960s
 20556 15799 1621633.32  182  641 -622192.84 5792244.44  1031%  3762 52994s
 20557 15800 2911622.31   47  599 -622192.84 5792244.44  1031%  3762 53047s
 20558 15800 440322.395  101  620 -622192.84 5792244.44  1031%  3762 53053s
 20559 15801 2223207.01  143  618 -622192.84 5792244.44  1031%  3762 53056s
 20560 15802 3314274.32  137  567 -622192.84 5792244.44  1031%  3761 53060s
 20563 15804 2490864.47   73  595 -622192.84 5792244.44  1031%  3761 53066s
 20564 15804 5442463.68   34  584 -622192.84 5792244.44  1031%  3761 53070s
 20566 15806 1022771.06  182  595 -622192.84 5792244.44  1031%  3760 53075s
 20568 15807 3200980.21  106  652 -622192.84 5792244.44  1031%  3760 53106s
 20569 15808 4959447.57   54  553 -622192.84 5792244.44  1031%  3760 53155s
 20571 15809 1746970.09   37  598 -622192.84 5787570.85  1030%  3759 53162s
 20572 15810 1322328.53  122  593 -622192.84 5786139.08  1030%  3759 53165s
 20573 15810 279614.935  207  615 -622192.84 5784117.34  1030%  3759 53170s
 20575 15812 210555.484  196  621 -622192.84 5780783.45  1029%  3759 53176s
 20576 15812 65556.9353  133  610 -622192.84 5780220.96  1029%  3759 53205s
 20577 15813 3791071.42   69  634 -622192.84 5774061.20  1028%  3758 53249s
 20578 15814 5496883.84   31  633 -622192.84 5771529.11  1028%  3758 53253s
 20579 15814 101414.689  152  627 -622192.84 5770845.69  1028%  3758 53255s
 20581 15816 4183762.30   48  638 -622192.84 5768405.82  1027%  3758 53262s
 20582 15816 1917231.57  142  641 -622192.84 5767746.01  1027%  3757 53309s
 20583 15817 557937.054  172  620 -622192.84 5662153.12  1010%  3757 53403s
 20584 15818 4094334.85   45  601 -622192.84 5635781.92  1006%  3757 53413s
 20585 15818 5082190.47   38  605 -622192.84 5631091.80  1005%  3757 53420s
 20586 15819 1716347.57  125  606 -622192.84 5626449.06  1004%  3757 53426s
 20587 15820 1138806.25  125  612 -622192.84 5620882.28  1003%  3757 53432s
 20588 15820 3826046.63   99  613 -622192.84 5620244.14  1003%  3756 53467s
 20589 15821 4387355.99   51  578 -622192.84 5594714.76   999%  3756 53548s
 20590 15822 -318501.20  271  597 -622192.84 5581986.90   997%  3756 53556s
 20591 15822 -193217.32  205  573 -622192.84 5573736.53   996%  3756 53562s
 20592 15823 707430.119  149  549 -622192.84 5569855.59   995%  3756 53568s
 20593 15824 4846445.50   62  568 -622192.84 5567709.98   995%  3755 53571s
 20595 15825 1803521.25   63  586 -622192.84 5564765.89   994%  3755 53577s
 20596 15826 3414382.47   48  578 -622192.84 5564548.19   994%  3755 53601s
 20597 15826 -606609.13  153  576 -622192.84 5548874.79   992%  3755 53697s
 20598 15827 5060756.69   43  579 -622192.84 5544975.43   991%  3755 53702s
 20599 15828 1349825.63  242  582 -622192.84 5539928.52   990%  3754 53705s
 20600 15828 2504025.42   49  595 -622192.84 5539331.77   990%  3754 53734s
 20601 15829 3828114.24   83  587 -622192.84 5533611.08   989%  3754 53796s
 20602 15830 169941.412  211  607 -622192.84 5532169.00   989%  3754 53800s
 20604 15831 3295976.39  137  578 -622192.84 5527712.99   988%  3753 53809s
 20605 15832 81321.3331  193  580 -622192.84 5526395.20   988%  3753 53812s
 20606 15832 1768010.07  142  599 -622192.84 5525739.80   988%  3753 53840s
 20607 15833 3065132.63   83  579 -622192.84 5521301.27   987%  3753 53877s
 20609 15834 -7668.5143  161  609 -622192.84 5519606.92   987%  3753 53881s
 20610 15835 1765644.11  141  610 -622192.84 5519281.47   987%  3752 53909s
 20611 15836 1504693.65  217  592 -622192.84 5515818.76   987%  3752 53944s
 20612 15836 194340.453  145  604 -622192.84 5515218.89   986%  3752 53970s
 20613 15837 3255546.28   59  561 -622192.84 5509110.21   985%  3752 54005s
 20614 15838 4367097.94   64  593 -622192.84 5505179.75   985%  3752 54011s
 20615 15838 1665859.98  102  619 -622192.84 5502727.34   984%  3751 54015s
 20617 15840 2446081.83   51  630 -622192.84 5501401.46   984%  3751 54047s
 20618 15840 4277032.12   45  642 -622192.84 5500478.97   984%  3751 54081s
 20620 15842 2702908.78   56  629 -622192.84 5499241.22   984%  3751 54114s
 20621 15842 3540900.41   77  626 -622192.84 5498205.52   984%  3750 54148s
 20622 15843 5321497.69   41  639 -622192.84 5497290.45   984%  3750 54151s
 20624 15844 3148709.65  102  626 -622192.84 5496175.75   983%  3750 54181s
 20625 15845 3280462.56  110  641 -622192.84 5493871.56   983%  3750 54218s
 20626 15846 2490733.23   80  650 -622192.84 5493460.24   983%  3749 54245s
 20627 15846 3609280.40   74  613 -622192.84 5491187.81   983%  3749 54311s
 20629 15848 1093309.05   93  656 -622192.84 5489705.29   982%  3749 54316s
 20630 15848 2230387.60   49  637 -622192.84 5489356.06   982%  3749 54342s
 20631 15849 173980.001   84  616 -622192.84 5485662.75   982%  3749 54413s
 20632 15850 4681000.07   38  599 -622192.84 5484196.06   981%  3748 54417s
 20634 15851 4833155.41   41  624 -622192.84 5482438.24   981%  3748 54446s
 20635 15852 2636793.16   52  637 -622192.84 5481023.34   981%  3748 54480s
 20636 15852 3728590.79   41  615 -622192.84 5480453.63   981%  3748 54507s
 20637 15853 5013279.57   48  577 -622192.84 5467485.25   979%  3747 54570s
 20639 15854 3059742.81  154  581 -622192.84 5464391.65   978%  3747 54577s
 20640 15855 2800027.65   61  564 -622192.84 5463719.70   978%  3747 54604s
 20641 15856 804507.827   96  587 -622192.84 5417165.67   971%  3747 54648s
 20642 15856 134818.377  201  568 -622192.84 5415171.29   970%  3747 54654s
 20643 15857 5414193.41   23  583 -622192.84 5414193.41   970%  3746 54658s
 20644 15858 2327418.62   84  577 -622192.84 5412577.49   970%  3746 54661s
 20646 15859 44063.1416  210  575 -622192.84 5411543.53   970%  3746 54689s
 20647 15860 1540508.79   73  587 -622192.84 5409332.15   969%  3746 54721s
 20648 15860 2406594.18   92  580 -622192.84 5409058.20   969%  3745 54746s
 20649 15861 444202.862   86  590 -622192.84 5408553.00   969%  3745 54780s
 20651 15862 -328751.04  139  595 -622192.84 5406412.72   969%  3745 54787s
 20652 15863 5191902.14   24  589 -622192.84 5406040.20   969%  3745 54813s
 20653 15864 3273755.76  141  586 -622192.84 5405610.79   969%  3745 54846s
 20654 15864 2560212.54  122  584 -622192.84 5405380.99   969%  3744 54870s
 20655 15865 3562113.58   53  585 -622192.84 5404948.21   969%  3744 54900s
 20656 15866 1621633.32  182  596 -622192.84 5404823.90   969%  3744 54924s
 20657 15866 2911622.31   47  594 -622192.84 5403548.96   968%  3744 54956s
 20658 15867 440322.395  101  594 -622192.84 5403082.02   968%  3744 54985s
 20659 15868 2223207.01  143  634 -622192.84 5402071.14   968%  3743 55019s
 20660 15868 3314274.32  137  625 -622192.84 5401903.61   968%  3743 55046s
H20660 15072                    -622192.7743 5400893.61   968%  3743 55093s
 20662 15074 2448396.71  125  623 -622192.77 5400658.16   968%  3743 55118s
 20663 15074 2490864.47   73  609 -622192.77 5398930.21   968%  3743 55183s
 20664 15075 5398519.15   34  616 -622192.77 5398519.15   968%  3743 55212s
 20665 15076 4587616.12   36  620 -622192.77 5398232.52   968%  3742 55240s
 20667 15077 2466516.60   80  634 -622192.77 5397298.91   967%  3742 55271s
 20668 15078 3200980.21  106  571 -622192.77 5369964.14   963%  3742 55326s
 20669 15078 4959447.57   54  590 -622192.77 5368214.75   963%  3742 55330s
 20670 15079 1748871.64  162  593 -622192.77 5365136.39   962%  3741 55338s
 20671 15080 1746970.09   37  603 -622192.77 5364588.67   962%  3741 55370s
 20672 15080 1322328.53  122  599 -622192.77 5360769.20   962%  3741 55441s
 20673 15081 279614.935  207  595 -622192.77 5359242.80   961%  3741 55448s
 20674 15082 1287427.45  216  615 -622192.77 5358701.10   961%  3741 55477s
 20675 15082 210555.484  196  581 -622192.77 5357885.73   961%  3741 55514s
 20676 15083 65556.9353  133  589 -622192.77 5357732.09   961%  3740 55540s
 20677 15084 3791071.42   69  584 -622192.77 5357084.14   961%  3740 55579s
 20678 15084 5356805.53   31  593 -622192.77 5356805.53   961%  3740 55603s
 20679 15085 101414.689  152  589 -622192.77 5356370.23   961%  3740 55646s
 20680 15086 3676296.24   43  577 -622192.77 5355538.16   961%  3740 55650s
 20681 15086 4183762.30   48  585 -622192.77 5354016.26   961%  3739 55655s
 20682 15087 1917231.57  142  584 -622192.77 5352582.34   960%  3739 55661s
 20683 15088 557937.054  172  574 -622192.77 5352120.45   960%  3739 55690s
H20683 14330                    -622192.7579 5350973.67   960%  3739 55725s
 20685 14331 5082190.47   38  576 -622192.76 5349510.78   960%  3739 55730s
 20686 14332 1716347.57  125  585 -622192.76 5348106.44   960%  3739 55736s
 20687 14332 1138806.25  125  586 -622192.76 5347328.80   959%  3738 55741s
 20688 14333 3826046.63   99  591 -622192.76 5347160.39   959%  3738 55768s
 20689 14334 4387355.99   51  588 -622192.76 5345417.55   959%  3738 55807s
 20690 14334 -318501.20  271  594 -622192.76 5344520.59   959%  3738 55812s
 20691 14335 -193217.32  205  598 -622192.76 5343954.82   959%  3738 55842s
 20692 14336 707430.119  149  582 -622192.76 5340327.57   958%  3737 55935s
 20693 14336 4846445.50   62  603 -622192.76 5337506.65   958%  3737 55944s
 20694 14337 705648.481  183  595 -622192.76 5336552.37   958%  3737 55952s
 20695 14338 1803521.25   63  601 -622192.76 5335918.91   958%  3737 55980s
 20696 14338 3414382.47   48  608 -622192.76 5330726.87   957%  3737 56047s
 20697 14339 -606609.13  153  619 -622192.76 5328912.75   956%  3737 56052s
 20698 14340 5060756.69   43  604 -622192.76 5327132.29   956%  3736 56060s
 20699 14340 1349825.63  242  597 -622192.76 5326303.48   956%  3736 56065s
 20700 14341 2504025.42   49  615 -622192.76 5325914.75   956%  3736 56094s
 20701 14342 3828114.24   83  581 -622192.76 5320107.44   955%  3736 56471s
 20702 14342 169941.412  211  591 -622192.76 5319556.23   955%  3736 56520s
 20703 14343 1806908.97  156  590 -622192.76 5316356.72   954%  3735 56551s
 20704 14344 3295976.39  137  598 -622192.76 5315679.61   954%  3735 56596s
 20705 14344 81321.3331  193  602 -622192.76 5314434.64   954%  3735 56631s
 20706 14345 1768010.07  142  592 -622192.76 5313839.91   954%  3735 56682s
 20707 14346 3065132.63   83  598 -622192.76 5313017.34   954%  3735 56715s
 20708 14346 3954255.74   54  598 -622192.76 5312814.65   954%  3735 56744s
 20709 14347 -7668.5143  161  611 -622192.76 5308698.02   953%  3734 56779s
 20710 14348 1765644.11  141  596 -622192.76 5305844.12   953%  3734 56785s
 20711 14348 1504693.65  217  600 -622192.76 5305750.98   953%  3734 56815s
 20712 14349 194340.453  145  617 -622192.76 5304615.55   953%  3734 56876s
 20713 14350 3255546.28   59  608 -622192.76 5304295.24   953%  3734 56904s
 20714 14350 4367097.94   64  613 -622192.76 5303160.31   952%  3734 56963s
 20715 14351 1665859.98  102  610 -622192.76 5303086.25   952%  3733 56989s
 20716 14352 3771647.37   73  610 -622192.76 5302864.16   952%  3733 57016s
 20717 14352 2446081.83   51  618 -622192.76 5302560.74   952%  3733 57042s
 20718 14353 4277032.12   45  589 -622192.76 5301410.81   952%  3733 57073s
 20719 14354 4015303.01   33  597 -622192.76 5301208.94   952%  3733 57101s
 20720 14354 2702908.78   56  610 -622192.76 5300496.38   952%  3732 57132s
 20721 14355 3540900.41   77  603 -622192.76 5300105.03   952%  3732 57167s
 20722 14356 5299626.80   41  604 -622192.76 5299626.80   952%  3732 57201s
 20723 14356 619150.035  162  604 -622192.76 5298929.52   952%  3732 57205s
 20724 14357 3148709.65  102  608 -622192.76 5298563.89   952%  3732 57235s
 20725 14358 3280462.56  110  600 -622192.76 5296159.22   951%  3732 57287s
 20726 14358 2490733.23   80  605 -622192.76 5295739.61   951%  3731 57354s
 20727 14359 3609280.40   74  582 -622192.76 5295346.70   951%  3731 57391s
 20728 14360 4965330.16   53  597 -622192.76 5294433.72   951%  3731 57395s
 20729 14360 1093309.05   93  600 -622192.76 5294114.59   951%  3731 57423s
 20730 14361 2230387.60   49  610 -622192.76 5294036.46   951%  3731 57453s
 20731 14362 173980.001   84  609 -622192.76 5293906.06   951%  3730 57479s
 20732 14362 4681000.07   38  612 -622192.76 5293811.56   951%  3730 57509s
 20733 14363 144562.646  354  604 -622192.76 5293621.71   951%  3730 57531s
 20734 14364 4833155.41   41  600 -622192.76 5293325.31   951%  3730 57595s
 20735 14364 2636793.16   52  603 -622192.76 5293064.92   951%  3730 57631s
 20736 14365 3728590.79   41  599 -622192.76 5292415.76   951%  3730 57667s
 20737 14366 5013279.57   48  597 -622192.76 5291656.29   950%  3729 57670s
 20738 14366 4682962.11   30  595 -622192.76 5291403.05   950%  3729 57698s
 20739 14367 3059742.81  154  586 -622192.76 5291174.79   950%  3729 57735s
 20740 14368 2800027.65   61  591 -622192.76 5291102.69   950%  3729 57769s
 20741 14368 804507.827   96  587 -622192.76 5291010.46   950%  3729 57801s
 20742 14369 134818.377  201  588 -622192.76 5290971.20   950%  3728 57828s
 20743 14370 5289435.19   23  608 -622192.76 5289435.19   950%  3728 57860s
 20744 14370 2327418.62   84  605 -622192.76 5289163.79   950%  3728 57887s
 20745 14371 244708.630   37  608 -622192.76 5289086.57   950%  3728 57914s
 20746 14372 44063.1416  210  610 -622192.76 5289051.07   950%  3728 57942s
 20747 14372 1540508.79   73  608 -622192.76 5288587.02   950%  3728 57974s
 20748 14373 2406594.18   92  603 -622192.76 5288408.35   950%  3727 58020s
 20749 14374 444202.862   86  609 -622192.76 5288300.39   950%  3727 58068s
 20750 14374 2847933.67   60  602 -622192.76 5288184.45   950%  3727 58146s
 20751 14375 -328751.04  139  601 -622192.76 5288048.91   950%  3727 58199s
 20752 14376 5191902.14   24  607 -622192.76 5287910.56   950%  3727 58244s
 20753 14376 3273755.76  141  609 -622192.76 5287776.37   950%  3726 58285s
 20754 14377 2560212.54  122  610 -622192.76 5287721.59   950%  3726 58310s
 20755 14378 3562113.58   53  605 -622192.76 5287615.63   950%  3726 58370s
 20756 14378 1621633.32  182  611 -622192.76 5287561.41   950%  3726 58398s
 20757 14379 2911622.31   47  615 -622192.76 5287531.25   950%  3726 58425s
 20758 14380 440322.395  101  611 -622192.76 5287519.91   950%  3726 58451s
 20759 14380 2223207.01  143  601 -622192.76 5287485.67   950%  3725 58484s
 20760 14381 3314274.32  137  611 -622192.76 5287421.28   950%  3725 58518s
 20761 14382 4600685.82   53  594 -622192.76 5287013.40   950%  3725 58553s
 20762 14382 2448396.71  125  619 -622192.76 5286754.04   950%  3725 58581s
 20763 14383 2490864.47   73  620 -622192.76 5286639.98   950%  3725 58614s
 20764 14384 5286620.93   34  616 -622192.76 5286620.93   950%  3725 58646s
 20765 14384 4587616.12   36  616 -622192.76 5286487.67   950%  3724 58679s
 20766 14385 1022771.06  182  614 -622192.76 5286453.59   950%  3724 58707s
 20767 14386 2466516.60   80  610 -622192.76 5286221.02   950%  3724 58739s
 20768 14386 3200980.21  106  611 -622192.76 5285922.01   950%  3724 58766s
 20769 14387 4959447.57   54  601 -622192.76 5285427.93   949%  3724 58798s
 20770 14388 1748871.64  162  606 -622192.76 5285367.32   949%  3723 58824s
 20771 14388 1746970.09   37  593 -622192.76 5283347.03   949%  3723 58862s
 20772 14389 1322328.53  122  613 -622192.76 5282731.28   949%  3723 58893s
 20773 14390 279614.935  207  609 -622192.76 5282250.80   949%  3723 58930s
 20774 14390 1287427.45  216  609 -622192.76 5282193.94   949%  3723 58961s
 20775 14391 210555.484  196  607 -622192.76 5281492.57   949%  3723 59000s
 20776 14392 65556.9353  133  611 -622192.76 5281366.80   949%  3722 59031s
 20777 14392 3791071.42   69  618 -622192.76 5281173.25   949%  3722 59063s
 20778 14393 5280709.20   31  609 -622192.76 5280709.20   949%  3722 59096s
 20779 14394 101414.689  152  598 -622192.76 5279979.15   949%  3722 59132s
 20780 14394 3676296.24   43  609 -622192.76 5279699.47   949%  3722 59161s
 20781 14395 4183762.30   48  597 -622192.76 5279221.36   948%  3721 59190s
 20782 14396 1917231.57  142  602 -622192.76 5279127.90   948%  3721 59218s
 20783 14396 557937.054  172  594 -622192.76 5278991.58   948%  3721 59259s
 20784 14397 4094334.85   45  611 -622192.76 5278972.87   948%  3721 59289s
 20785 14398 5082190.47   38  612 -622192.76 5278585.94   948%  3721 59324s
 20786 14398 1716347.57  125  612 -622192.76 5278365.12   948%  3721 59356s
 20787 14399 1138806.25  125  611 -622192.76 5278324.83   948%  3720 59390s
 20788 14400 3826046.63   99  604 -622192.76 5278282.07   948%  3720 59419s
 20789 14400 4387355.99   51  608 -622192.76 5277877.69   948%  3720 59458s
 20790 14401 -318501.20  271  599 -622192.76 5277780.02   948%  3720 59494s
 20791 14402 -193217.32  205  598 -622192.76 5271404.84   947%  3720 59546s
 20792 14402 707430.119  149  598 -622192.76 5269985.88   947%  3720 59551s
 20793 14403 4846445.50   62  589 -622192.76 5269690.94   947%  3719 59581s
 20794 14404 705648.481  183  591 -622192.76 5269125.75   947%  3719 59615s
 20795 14404 1803521.25   63  599 -622192.76 5268851.63   947%  3719 59643s
 20796 14405 3414382.47   48  599 -622192.76 5268652.98   947%  3719 59675s
 20797 14406 -606609.13  153  586 -622192.76 5268573.12   947%  3719 59700s
 20798 14406 5060756.69   43  600 -622192.76 5268442.50   947%  3718 59732s
 20799 14407 1349825.63  242  615 -622192.76 5268405.69   947%  3718 59758s
 20800 14408 2504025.42   49  610 -622192.76 5268005.11   947%  3718 59796s
 20801 14408 3828114.24   83  599 -622192.76 5267720.98   947%  3718 59824s
H20801 13683                    -289062.7737 5267720.98  1922%  3718 59857s
H20801 12994                    15135.567757 5266166.74      -  3718 59892s
 20803 12996 1806908.97  156  583 15135.5678 5265681.94      -  3718 59923s
H20803 12341                    15135.570499 5265602.99      -  3718 59958s
 20805 12342 81321.3331  193  589 15135.5705 5265488.77      -  3717 59987s
H20805 11720                    15135.573379 5265431.24      -  3717 60019s
 20807 11721 3065132.63   83  585 15135.5734 5265165.39      -  3717 60046s
 20808 11722 3954255.74   54  597 15135.5734 5264924.14      -  3717 60080s
 20809 11723 15135.5734  161  599 15135.5734 5264882.69      -  3716 60107s
 20810 11723 1765644.11  141  589 15135.5734 5263653.52      -  3716 60142s
 20811 11724 1504693.65  217  591 15135.5734 5263548.04      -  3716 60172s
 20812 11725 194340.453  145  595 15135.5734 5263502.36      -  3716 60208s
 20813 11725 3255546.28   59  585 15135.5734 5263436.07      -  3716 60238s
 20814 11726 4367097.94   64  602 15135.5734 5263292.03      -  3716 60278s
 20815 11727 1665859.98  102  607 15135.5734 5263101.84      -  3715 60306s
 20816 11727 3771647.37   73  608 15135.5734 5262922.47      -  3715 60343s
 20817 11728 2446081.83   51  597 15135.5734 5262854.52      -  3715 60373s
 20818 11729 4277032.12   45  627 15135.5734 5262535.13      -  3715 60414s
 20819 11729 4015303.01   33  621 15135.5734 5262503.12      -  3715 60442s
 20820 11730 2702908.78   56  590 15135.5734 5262006.97      -  3715 60478s
 20821 11731 3540900.41   77  606 15135.5734 5261915.62      -  3714 60506s
 20822 11731 5261759.41   41  592 15135.5734 5261759.41      -  3714 60543s
H20822 11139                    15135.585761 5261759.41      -  3714 60645s
 20823 11140 619150.035  162  592 15135.5858 5261759.41      -  3714 60795s
 20824 11144 5226001.54   19  595 15135.5858 5261735.94      -  3767 61001s
 20826 11147 5225435.68   20  595 15135.5858 5225435.68      -  3768 61296s
 20830 11150 5216835.88   21  600 15135.5858 5216835.88      -  3776 61400s
 20834 11152 4334011.46   21  568 15135.5858 5215234.75      -  3783 61648s
 20838 11155 5207263.64   22  599 15135.5858 5207263.64      -  3787 61764s
 20842 11158 3983363.67   22  411 15135.5858 5207260.24      -  3798 62093s
 20846 11160 5186355.28   23  622 15135.5858 5207231.76      -  3804 62170s
 20850 11163 5137076.50   23  504 15135.5858 5186354.85      -  3806 62306s
 20854 11160 5180279.47   24  612 15135.5858 5180279.47      -  3811 62574s
 20862 11164 4990576.63   25  546 15135.5858 5180272.16      -  3820 62658s
 20867 11172 5139599.71   25  538 15135.5858 5139599.71      -  3822 62781s
 20873 11174 5125993.35   26  552 15135.5858 5137074.58      -  3825 62902s
 20881 11181 5117772.89   27  503 15135.5858 5137074.58      -  3830 63050s
 20888 11183 5103421.27   28  487 15135.5858 5137074.58      -  3837 63309s
 20897 11191 5099934.68   29  503 15135.5858 5137074.58      -  3844 63469s
 20905 11197 5077674.21   30  510 15135.5858 5137074.58      -  3851 63681s
 20913 11199 5072560.77   31  501 15135.5858 5137074.58      -  3857 63846s
 20923 11210 5070767.77   32  470 15135.5858 5137074.58      -  3864 63999s
 20932 11212 5050439.63   33  489 15135.5858 5137074.58      -  3874 64261s
 20943 11222 5050439.63   34  490 15135.5858 5137074.58      -  3881 64654s
 20955 11229 5012027.05   35  512 15135.5858 5137074.58      -  3898 64864s
 20966 11236 4974571.76   36  516 15135.5858 5137074.58      -  3908 65082s
 20978 11244 4667159.72   37  445 15135.5858 5137074.58      -  3919 65276s
 20993 11253 4929413.30   39  510 15135.5858 5137074.58      -  3926 65457s
 21006 11264 4856904.93   40  470 15135.5858 5137074.58      -  3935 65645s
 21018 11270 4819196.22   42  513 15135.5858 5137074.58      -  3945 65946s
 21031 11279 4810167.39   44  492 15135.5858 5137074.58      -  3957 66187s
 21046 11291 4785896.80   45  452 15135.5858 5137074.58      -  3967 66407s
 21063 11304 4773585.98   46  422 15135.5858 5137074.58      -  3977 66676s
 21079 11310 4761534.28   48  466 15135.5858 5137074.58      -  3992 66933s
 21101 11324 4752027.72   50  472 15135.5858 5137074.58      -  4005 67180s
 21123 11342 4541599.89   52  484 15135.5858 5137074.58      -  4019 67460s
 21145 11358 4372169.70   53  434 15135.5858 5137074.58      -  4031 67732s
 21164 11366 3995966.67   56  424 15135.5858 5137074.58      -  4049 67982s
 21184 11379 4481796.44   58  492 15135.5858 5137074.58      -  4062 68281s
 21208 11397 4285153.78   60  467 15135.5858 5137074.58      -  4080 68597s
 21231 11413 4430948.85   63  497 15135.5858 5137074.58      -  4096 68842s
 21254 11427 4411875.58   65  475 15135.5858 5137074.58      -  4110 69141s
 21282 11437 4406295.85   67  479 15135.5858 5137074.58      -  4127 69450s
 21324 11471 4404281.78   70  475 15135.5858 5137074.58      -  4145 69773s
 21372 11496 4389334.86   74  476 15135.5858 5137074.58      -  4163 70082s
 21430 11541 4379123.26   78  475 15135.5858 5137074.58      -  4178 70425s
 21497 11571 4308274.00   81  497 15135.5858 5137074.58      -  4194 70762s
 21573 11609 4262855.04   86  474 15135.5858 5137074.58      -  4208 71072s
 21651 11621 4229447.76   89  509 15135.5858 5137074.58      -  4215 71301s
 21686 11630 4162602.86   92  475 15135.5858 5137074.58      -  4232 71502s
 21725 11657 4059567.78   95  503 15135.5858 5137074.58      -  4247 71783s
 21775 11689 4044345.27   99  497 15135.5858 5137074.58      -  4269 72154s
 21849 11741 3999089.20  103  509 15135.5858 5137074.58      -  4283 72523s
 21929 11785 3888904.96  107  482 15135.5858 5137074.58      -  4299 72848s
 22017 11828 2583619.39  110  394 15135.5858 5137074.58      -  4311 73218s
 22078 11850 3705782.36  115  451 15135.5858 5137074.58      -  4335 73585s
 22140 11880 3597388.56  120  437 15135.5858 5137074.58      -  4359 73914s
 22217 11906 3498242.17  125  432 15135.5858 5137074.58      -  4385 74296s
 22342 11949 3416200.12  131  450 15135.5858 5137074.58      -  4402 74723s
 22424 11997 3291699.90  137  468 15135.5858 5137074.58      -  4425 75107s
 22557 12068 3127294.68  144  479 15135.5858 5137074.58      -  4441 75566s
 22779 12180 2992065.31  153  455 15135.5858 5137074.58      -  4438 75948s
 22865 12222 2907832.70  160  443 15135.5858 5137074.58      -  4454 76422s
 22928 12266 2681126.83  167  433 15135.5858 5137074.58      -  4483 76873s
 23003 12316 2261095.46  173  358 15135.5858 5137074.58      -  4500 77371s
 23153 12397 1892133.90  185  389 15135.5858 5137074.58      -  4515 78010s
 23346 12471 1160025.98  199  367 15135.5858 5093329.87      -  4532 78575s
 23470 12516 5064943.52   25  590 15135.5858 5093321.25      -  4551 79076s
 23575 12570 2982096.86   38  362 15135.5858 5093321.25      -  4570 79639s
 23729 12663 1259610.89   67  320 15135.5858 5013739.95      -  4582 80176s
H23913 12173                    50345.434283 4986295.84  9804%  4586 80741s
 23960 12200 3783705.70   35  470 50345.4343 4986295.84  9804%  4615 81414s
H24043 11707                    50345.434791 4986295.84  9804%  4651 81414s
 24044 11717 2971200.50   43  268 50345.4348 4986295.84  9804%  4651 82048s
H24070 11192                    115644.61737 4986295.84  4212%  4657 82048s
H24155 10760                    115644.61778 4986295.84  4212%  4669 82049s
 24191 10793 1438920.71   66  154 115644.618 4963972.37  4192%  4682 82665s
 24400 10864 2769893.09   44  371 115644.618 4949071.67  4180%  4700 83337s
H24530 10484                    115644.61877 4949071.67  4180%  4715 83337s
 24571 10498 4409600.58   41  488 115644.619 4949071.67  4180%  4722 83974s
 24784 10614 3129756.97   68  294 115644.619 4948412.13  4179%  4734 84643s
H25010 10303                    115644.62397 4945583.00  4177%  4744 85467s
 25311 10471 3771227.99   29  450 115644.624 4944063.19  4175%  4751 86310s
 25447 10536 1743177.72   56  263 115644.624 4944063.19  4175%  4785 86400s

Cutting planes:
  Gomory: 243
  Implied bound: 46
  Projected implied bound: 103
  MIR: 201
  Flow cover: 1019
  Zero half: 2
  Mod-K: 1

Explored 25469 nodes (122111484 simplex iterations) in 86400.11 seconds
Thread count was 4 (of 16 available processors)

Solution count 10: 115645 115645 115645 ... 15135.6

Time limit reached
Warning: max constraint violation (7.9711e-06) exceeds tolerance
Warning: max bound violation (7.8752e-06) exceeds tolerance
Best objective 1.156446257233e+05, best bound 4.944063190483e+06, gap 4175.2209%

***
***  |- Calculation finished, timelimit reached 86,400.13 (86400.13) sec.))
***  |-----------------------------------------------------------------------------------------------------------------------
***
*****************************************************************************************************************************
#############################################################################################################################
###
### Results
###
### The objective of the solution is 115,644.6257 (115644.6257) and is feasible with a Gap of 41.7522
###
### Service 42 (SAMBA) is operated by 7 vessels from type 18 (PMax25)
###  |- Vessel  1 has the path [143, 4, 0]
###  |  143 (USMSY Out@238.0) - 4 (ARBUE In@920.0/Out@944.0) - 0 (DUMMY_END Ziel-Service 42)
###  |- Vessel  2 has the path [144, 79, 80, 81, 82, 83, 85, 86, 87, 88, 94, 55, 51, 11, 12, 0]
###  |  144 (USMSY Out@406.0) - 79 (ESALG In@775.0/Out@799.0) - 80 (ESALG In@829.0/Out@853.0) - 81 (ESALG In@943.0/Out@967.0)
###  |   - 82 (ESALG In@1045.0/Out@1075.0) - 83 (ESALG In@1111.0/Out@1135.0) - 85 (ESALG In@1213.0/Out@1243.0) - 86 (ESALG In
###  |  @1279.0/Out@1303.0) - 87 (ESALG In@1381.0/Out@1411.0) - 88 (ESALG In@1447.0/Out@1471.0) - 94 (ESLPA In@1521.0/Out@154
###  |  5.0) - 55 (BRSUA In@1691.0/Out@1715.0) - 51 (BRSSZ In@1788.0/Out@1808.0) - 11 (ARBUE In@1862.0/Out@1905.0) - 12 (ARBU
###  |  E In@1928.0/Out@1952.0) - 0 (DUMMY_END Ziel-Service 42)
###  |   |- and carried Demand   7, 200.0 containers from  82 to  12
###  |   |- and carried Demand  20,  57.0 containers from  85 to  11
###  |   |- and carried Demand  24,  16.0 containers from  85 to  11
###  |   |- and carried Demand  29,   8.0 containers from  87 to  11
###  |   |- and carried Demand  30, 224.0 containers from  87 to  11
###  |   |- and carried Demand  31,  58.0 containers from  87 to  12
###  |   |- and carried Demand  32,   5.0 containers from  87 to  12
###  |   |- and carried Demand  33, 159.0 containers from  87 to  11
###  |   |- and carried Demand  71,  12.0 containers from  51 to  11
###  |   |- and carried Demand 156, 239.0 containers from  80 to  11
###  |   |- and carried Demand 157,   8.0 containers from  80 to  11
###  |   |- and carried Demand 161,  19.0 containers from  80 to  11
###  |   |- and carried Demand 173,  47.0 containers from  88 to  51
###  |   |- and carried Demand 176,   8.0 containers from  88 to  11
###  |   |- and carried Demand 177, 224.0 containers from  88 to  11
###  |   |- and carried Demand 178,  58.0 containers from  88 to  12
###  |   |- and carried Demand 179,   5.0 containers from  88 to  12
###  |   |- and carried Demand 180, 159.0 containers from  88 to  11
###  |   |- and carried Demand 249,  57.0 containers from  86 to  11
###  |   |- and carried Demand 253,  16.0 containers from  86 to  11
###  |   |- and carried Demand 322, 200.0 containers from  83 to  12
###  |   |- and carried Demand 382, 239.0 containers from  81 to  11
###  |   |- and carried Demand 383,   8.0 containers from  81 to  11
###  |   |- and carried Demand 387,  19.0 containers from  81 to  11
###  |   |- and carried Demand 441, 488.0 containers from  79 to  12
###  |   |- and carried Demand 442,   5.0 containers from  79 to  12
###  |- Vessel  3 has the path [145, 6, 0]
###  |  145 (USMSY Out@574.0) - 6 (ARBUE In@1256.0/Out@1280.0) - 0 (DUMMY_END Ziel-Service 42)
###  |- Vessel  4 has the path [146, 8, 0]
###  |  146 (USMSY Out@742.0) - 8 (ARBUE In@1424.0/Out@1448.0) - 0 (DUMMY_END Ziel-Service 42)
###  |- Vessel  5 has the path [147, 9, 0]
###  |  147 (USMSY Out@910.0) - 9 (ARBUE In@1592.0/Out@1616.0) - 0 (DUMMY_END Ziel-Service 42)
###  |- Vessel  6 has the path [148, 10, 0]
###  |  148 (USMSY Out@1078.0) - 10 (ARBUE In@1760.0/Out@1784.0) - 0 (DUMMY_END Ziel-Service 42)
###  |- Vessel  8 has the path [72, 65, 77, 78, 5, 0]
###  |  72 (DEHAM Out@276.0) - 65 (DEBRV In@497.0/Out@521.0) - 77 (ESALG In@607.0/Out@631.0) - 78 (ESALG In@613.0/Out@658.0) 
###  |  - 5 (ARBUE In@1088.0/Out@1112.0) - 0 (DUMMY_END Ziel-Service 42)
###  |   |- and carried Demand  98, 392.0 containers from  78 to   5
###  |   |- and carried Demand  99,  13.0 containers from  78 to   5
###  |   |- and carried Demand 490, 392.0 containers from  77 to   5
###  |   |- and carried Demand 491,  13.0 containers from  77 to   5
###  |   |- and carried Demand 494,  59.0 containers from  77 to   5
###  |   |- and carried Demand 495,   6.0 containers from  77 to   5
###  |   |- and carried Demand 496, 126.0 containers from  77 to   5
###  |   |- and carried Demand 499, 256.0 containers from  65 to  77
###  |   |- and carried Demand 503,   3.0 containers from  65 to   5
###  |
### Vessels not used in the solution: [7, 9, 10, 11, 12]
###  |-----------------------------------------------------------------------------------------------------------------------
###
#############################################################################################################################

### Detialed variable overview

### All variables with value greater zero:
rho[42,18] = 1
eta[42,18,1] = 1
eta[42,18,2] = 1
eta[42,18,3] = 1
eta[42,18,4] = 1
eta[42,18,5] = 1
eta[42,18,6] = 1
eta[42,18,7] = 1
y[1,4,0] = 1
y[1,143,4] = 1
y[2,94,55] = 1
y[2,85,86] = 1
y[2,80,81] = 1
y[2,144,79] = 1
y[2,11,12] = 1
y[2,86,87] = 1
y[2,51,11] = 1
y[2,12,0] = 1
y[2,83,85] = 1
y[2,81,82] = 1
y[2,79,80] = 1
y[2,87,88] = 1
y[2,55,51] = 1
y[2,82,83] = 1
y[2,88,94] = 1
y[3,6,0] = 1
y[3,145,6] = 1
y[4,8,0] = 1
y[4,146,8] = 1
y[5,9,0] = 1
y[5,147,9] = 1
y[6,148,10] = 1
y[6,10,0] = 1
y[8,77,78] = 1
y[8,65,77] = 1
y[8,5,0] = 1
y[8,72,65] = 1
y[8,78,5] = 1
xD[7,94,55] = 200
xD[7,85,86] = 200
xD[7,11,12] = 200
xD[7,86,87] = 200
xD[7,51,11] = 200
xD[7,83,85] = 200
xD[7,87,88] = 200
xD[7,55,51] = 200
xD[7,82,83] = 200
xD[7,88,94] = 200
xD[20,94,55] = 57
xD[20,85,86] = 57
xD[20,86,87] = 57
xD[20,51,11] = 57
xD[20,87,88] = 57
xD[20,55,51] = 57
xD[20,88,94] = 57
xD[24,94,55] = 16
xD[24,85,86] = 16
xD[24,86,87] = 16
xD[24,51,11] = 16
xD[24,87,88] = 16
xD[24,55,51] = 16
xD[24,88,94] = 16
xD[29,94,55] = 8
xD[29,51,11] = 8
xD[29,87,88] = 8
xD[29,55,51] = 8
xD[29,88,94] = 8
xD[30,94,55] = 224
xD[30,51,11] = 224
xD[30,87,88] = 224
xD[30,55,51] = 224
xD[30,88,94] = 224
xD[31,94,55] = 58
xD[31,11,12] = 58
xD[31,51,11] = 58
xD[31,87,88] = 58
xD[31,55,51] = 58
xD[31,88,94] = 58
xD[32,94,55] = 5
xD[32,11,12] = 5
xD[32,51,11] = 5
xD[32,87,88] = 5
xD[32,55,51] = 5
xD[32,88,94] = 5
xD[33,94,55] = 159
xD[33,51,11] = 159
xD[33,87,88] = 159
xD[33,55,51] = 159
xD[33,88,94] = 159
xD[71,51,11] = 12
xD[98,78,5] = 392
xD[99,78,5] = 13
xD[156,94,55] = 239
xD[156,85,86] = 239
xD[156,80,81] = 239
xD[156,86,87] = 239
xD[156,51,11] = 239
xD[156,83,85] = 239
xD[156,81,82] = 239
xD[156,87,88] = 239
xD[156,55,51] = 239
xD[156,82,83] = 239
xD[156,88,94] = 239
xD[157,94,55] = 8
xD[157,85,86] = 8
xD[157,80,81] = 8
xD[157,86,87] = 8
xD[157,51,11] = 8
xD[157,83,85] = 8
xD[157,81,82] = 8
xD[157,87,88] = 8
xD[157,55,51] = 8
xD[157,82,83] = 8
xD[157,88,94] = 8
xD[161,94,55] = 19
xD[161,85,86] = 19
xD[161,80,81] = 19
xD[161,86,87] = 19
xD[161,51,11] = 19
xD[161,83,85] = 19
xD[161,81,82] = 19
xD[161,87,88] = 19
xD[161,55,51] = 19
xD[161,82,83] = 19
xD[161,88,94] = 19
xD[173,94,55] = 47
xD[173,55,51] = 47
xD[173,88,94] = 47
xD[176,94,55] = 8
xD[176,51,11] = 8
xD[176,55,51] = 8
xD[176,88,94] = 8
xD[177,94,55] = 224
xD[177,51,11] = 224
xD[177,55,51] = 224
xD[177,88,94] = 224
xD[178,94,55] = 58
xD[178,11,12] = 58
xD[178,51,11] = 58
xD[178,55,51] = 58
xD[178,88,94] = 58
xD[179,94,55] = 5
xD[179,11,12] = 5
xD[179,51,11] = 5
xD[179,55,51] = 5
xD[179,88,94] = 5
xD[180,94,55] = 159
xD[180,51,11] = 159
xD[180,55,51] = 159
xD[180,88,94] = 159
xD[249,94,55] = 57
xD[249,86,87] = 57
xD[249,51,11] = 57
xD[249,87,88] = 57
xD[249,55,51] = 57
xD[249,88,94] = 57
xD[253,94,55] = 16
xD[253,86,87] = 16
xD[253,51,11] = 16
xD[253,87,88] = 16
xD[253,55,51] = 16
xD[253,88,94] = 16
xD[322,94,55] = 200
xD[322,85,86] = 200
xD[322,11,12] = 200
xD[322,86,87] = 200
xD[322,51,11] = 200
xD[322,83,85] = 200
xD[322,87,88] = 200
xD[322,55,51] = 200
xD[322,88,94] = 200
xD[382,94,55] = 239
xD[382,85,86] = 239
xD[382,86,87] = 239
xD[382,51,11] = 239
xD[382,83,85] = 239
xD[382,81,82] = 239
xD[382,87,88] = 239
xD[382,55,51] = 239
xD[382,82,83] = 239
xD[382,88,94] = 239
xD[383,94,55] = 8.00001
xD[383,85,86] = 8
xD[383,86,87] = 8.00001
xD[383,51,11] = 8
xD[383,83,85] = 8
xD[383,81,82] = 8
xD[383,87,88] = 8.00001
xD[383,55,51] = 8.00001
xD[383,82,83] = 8
xD[383,88,94] = 8.00001
xD[387,94,55] = 19
xD[387,85,86] = 19
xD[387,86,87] = 19
xD[387,51,11] = 19
xD[387,83,85] = 19
xD[387,81,82] = 19
xD[387,87,88] = 19
xD[387,55,51] = 19
xD[387,82,83] = 19
xD[387,88,94] = 19
xD[441,94,55] = 488
xD[441,85,86] = 488
xD[441,80,81] = 488
xD[441,11,12] = 488
xD[441,86,87] = 488
xD[441,51,11] = 488
xD[441,83,85] = 488
xD[441,81,82] = 488
xD[441,79,80] = 488
xD[441,87,88] = 488
xD[441,55,51] = 488
xD[441,82,83] = 488
xD[441,88,94] = 488
xD[442,94,55] = 5
xD[442,85,86] = 5
xD[442,80,81] = 5
xD[442,11,12] = 5
xD[442,86,87] = 5
xD[442,51,11] = 5
xD[442,83,85] = 5
xD[442,81,82] = 5
xD[442,79,80] = 5
xD[442,87,88] = 5
xD[442,55,51] = 5
xD[442,82,83] = 5
xD[442,88,94] = 5
xD[490,77,78] = 392
xD[490,78,5] = 392
xD[491,77,78] = 13
xD[491,78,5] = 13
xD[494,77,78] = 59
xD[494,78,5] = 59
xD[495,77,78] = 6
xD[495,78,5] = 6
xD[496,77,78] = 126
xD[496,78,5] = 126
xD[499,65,77] = 256
xD[503,77,78] = 3
xD[503,65,77] = 3
xD[503,78,5] = 3
zE[4] = 920
zE[5] = 1088
zE[6] = 1256
zE[8] = 1424
zE[9] = 1592
zE[10] = 1760
zE[11] = 1862
zE[12] = 1928
zE[51] = 1788
zE[55] = 1691
zE[65] = 497
zE[77] = 607
zE[78] = 613
zE[79] = 775
zE[80] = 829
zE[81] = 943
zE[82] = 1045
zE[83] = 1111
zE[85] = 1213
zE[86] = 1279
zE[87] = 1381
zE[88] = 1447
zE[94] = 1521
zX[4] = 944
zX[5] = 1112
zX[6] = 1280
zX[8] = 1448
zX[9] = 1616
zX[10] = 1784
zX[11] = 1905
zX[12] = 1952
zX[51] = 1808
zX[55] = 1715
zX[65] = 521
zX[72] = 276
zX[77] = 631
zX[78] = 658
zX[79] = 799
zX[80] = 853
zX[81] = 967
zX[82] = 1075
zX[83] = 1135
zX[85] = 1243
zX[86] = 1303
zX[87] = 1411
zX[88] = 1471
zX[94] = 1545
zX[143] = 238
zX[144] = 406
zX[145] = 574
zX[146] = 742
zX[147] = 910
zX[148] = 1078
phi[1] = 706
phi[2] = 1546
phi[3] = 706
phi[4] = 706
phi[5] = 706
phi[6] = 706
phi[8] = 836

### All variables with value smaller zero:

### End

real	1441m1.900s
user	5445m12.560s
sys	308m11.675s
	Freetype 2.4.12 environment removed
	Python 3.6.0 environment removed
	Gurobi 8.1.0 environment removed
