	Freetype 2.4.12 environment established
		library to render fonts
	Python 3.6.0 environment established
	Gurobi 8.1.0 environment established
Instance LSFRP: LSFDRP_5_3_1_1_fr.p
Instance LSFDP: LSFDRP_5_3_1_1_fd_34.p

*****************************************************************************************************************************
*** Solve LSFDRP_5_3_1_1_fd_34 with Gurobi
***
*** Graph info
*** |S|: 12
*** |S^E|: 0
*** |S^C|: 4
*** |V|: 162
*** |A|: 2732
*** |A^i|: 2732
*** |A^f|: 0
*** |M|: 532
*** |E|: 0

Changed value of parameter TimeLimit to 86400.0
   Prev: 1e+100  Min: 0.0  Max: 1e+100  Default: 1e+100
Changed value of parameter Threads to 4
   Prev: 0  Min: 0  Max: 1024  Default: 0
Optimize a model with 94319 rows, 1492000 columns and 5261875 nonzeros
Variable types: 1459208 continuous, 32792 integer (32792 binary)
Coefficient statistics:
  Matrix range     [1e+00, 3e+03]
  Objective range  [2e+00, 3e+07]
  Bounds range     [1e+00, 1e+00]
  RHS range        [1e+00, 7e+00]
Presolve removed 84889 rows and 1436562 columns (presolve time = 5s) ...
Presolve removed 84889 rows and 1440714 columns (presolve time = 28s) ...
Warning: Failed to open log file 'gurobi.log'
Presolve removed 84972 rows and 1440743 columns (presolve time = 30s) ...
Presolve removed 84976 rows and 1440747 columns
Presolve time: 32.57s
Presolved: 9343 rows, 51253 columns, 285169 nonzeros
Variable types: 22752 continuous, 28501 integer (28486 binary)

Root simplex log...

Iteration    Objective       Primal Inf.    Dual Inf.      Time
       0    5.4601468e+09   1.336409e+06   0.000000e+00     34s
   17726    9.8047331e+07   1.353837e+06   0.000000e+00     35s
   33982    3.3906426e+07   3.969331e+06   0.000000e+00     40s
   42698    2.7891808e+07   4.603116e+06   0.000000e+00     45s
   53147    2.1193092e+07   1.629715e+06   0.000000e+00     50s
   60880    1.8671415e+07   1.716714e+06   0.000000e+00     55s
   68230    1.7171815e+07   2.441078e+06   0.000000e+00     60s
   75566    1.5104889e+07   2.061753e+06   0.000000e+00     65s
   81810    1.4524152e+07   1.334247e+06   0.000000e+00     70s
Warning: Markowitz tolerance tightened to 0.03125
   88247    1.3864748e+07   1.248058e+06   0.000000e+00     75s
   95690    1.2858419e+07   8.209294e+05   0.000000e+00     80s
  102949    1.2035407e+07   3.135663e+06   0.000000e+00     85s
  110331    1.0915330e+07   9.977949e+05   0.000000e+00     90s
  116429    9.8586108e+06   9.864410e+05   0.000000e+00     95s
  121596    9.4438631e+06   5.974471e+05   0.000000e+00    100s
  128397    8.7970732e+06   2.482295e+06   0.000000e+00    105s
  133098    8.4546533e+06   2.279432e+05   0.000000e+00    110s
  137650    8.2389716e+06   1.101849e+06   0.000000e+00    115s
  141670    8.0599009e+06   2.021347e+05   0.000000e+00    120s
  146192    7.9713352e+06   3.779338e+05   0.000000e+00    125s
  151008    7.7859841e+06   5.751537e+06   0.000000e+00    130s
  155325    7.6906393e+06   5.085354e+04   0.000000e+00    135s
  159264    7.5351470e+06   1.153449e+05   0.000000e+00    140s
  162974    7.4865377e+06   5.984365e+04   0.000000e+00    145s
  166194    7.4703741e+06   4.988486e+04   0.000000e+00    150s
  169244    7.4578111e+06   1.179784e+04   0.000000e+00    155s
  172484    7.4176757e+06   1.053135e+04   0.000000e+00    160s
  175759    7.4137523e+06   0.000000e+00   0.000000e+00    164s

Root relaxation: objective 7.413752e+06, 175759 iterations, 130.50 seconds

    Nodes    |    Current Node    |     Objective Bounds      |     Work
 Expl Unexpl |  Obj  Depth IntInf | Incumbent    BestBd   Gap | It/Node Time

     0     0 7413752.33    0  387          - 7413752.33      -     -  165s
H    0     0                    -3922550.262 7413752.33   289%     -  167s
H    0     0                    -2816410.539 7413752.33   363%     -  178s
     0     0 7225354.62    0  417 -2816410.5 7225354.62   357%     -  200s
     0     0 7176902.34    0  394 -2816410.5 7176902.34   355%     -  233s
     0     0 7173706.47    0  405 -2816410.5 7173706.47   355%     -  237s
     0     0 7173314.57    0  408 -2816410.5 7173314.57   355%     -  238s
     0     0 7148031.68    0  397 -2816410.5 7148031.68   354%     -  239s
     0     0 7148026.29    0  407 -2816410.5 7148026.29   354%     -  239s
     0     0 7049964.11    0  410 -2816410.5 7049964.11   350%     -  251s
     0     0 7049326.11    0  417 -2816410.5 7049326.11   350%     -  254s
     0     0 7048970.74    0  416 -2816410.5 7048970.74   350%     -  255s
     0     0 7039108.24    0  459 -2816410.5 7039108.24   350%     -  262s
     0     0 7035288.07    0  441 -2816410.5 7035288.07   350%     -  267s
     0     0 7028686.30    0  440 -2816410.5 7028686.30   350%     -  269s
     0     0 7028559.56    0  447 -2816410.5 7028559.56   350%     -  270s
     0     0 7028411.10    0  435 -2816410.5 7028411.10   350%     -  271s
     0     0 7028411.10    0  435 -2816410.5 7028411.10   350%     -  271s
     0     0 7020629.35    0  440 -2816410.5 7020629.35   349%     -  276s
H    0     0                    -2566698.161 7020629.35   374%     -  287s
     0     0 7019968.51    0  451 -2566698.2 7019968.51   374%     -  289s
     0     0 7019944.44    0  451 -2566698.2 7019944.44   374%     -  289s
     0     0 7017903.28    0  438 -2566698.2 7017903.28   373%     -  291s
     0     0 7017382.38    0  447 -2566698.2 7017382.38   373%     -  295s
     0     0 7016723.93    0  453 -2566698.2 7016723.93   373%     -  296s
     0     0 7016563.41    0  461 -2566698.2 7016563.41   373%     -  298s
     0     0 7016554.97    0  466 -2566698.2 7016554.97   373%     -  298s
     0     0 7013783.93    0  452 -2566698.2 7013783.93   373%     -  304s
     0     0 7013349.60    0  451 -2566698.2 7013349.60   373%     -  307s
     0     0 7013182.35    0  455 -2566698.2 7013182.35   373%     -  308s
     0     0 7013182.35    0  454 -2566698.2 7013182.35   373%     -  308s
     0     0 7011138.08    0  459 -2566698.2 7011138.08   373%     -  312s
     0     0 7010649.87    0  450 -2566698.2 7010649.87   373%     -  314s
     0     0 7010334.97    0  449 -2566698.2 7010334.97   373%     -  315s
     0     0 7009878.14    0  458 -2566698.2 7009878.14   373%     -  317s
     0     0 7009540.38    0  472 -2566698.2 7009540.38   373%     -  320s
     0     0 7009407.33    0  473 -2566698.2 7009407.33   373%     -  320s
     0     0 7009404.92    0  469 -2566698.2 7009404.92   373%     -  320s
     0     0 7009260.61    0  462 -2566698.2 7009260.61   373%     -  323s
     0     0 7009088.24    0  470 -2566698.2 7009088.24   373%     -  326s
     0     0 7008973.30    0  461 -2566698.2 7008973.30   373%     -  327s
     0     0 7008895.05    0  476 -2566698.2 7008895.05   373%     -  328s
     0     0 7008436.79    0  486 -2566698.2 7008436.79   373%     -  330s
     0     0 7008436.79    0  486 -2566698.2 7008436.79   373%     -  372s
     0     2 7008436.79    0  486 -2566698.2 7008436.79   373%     -  435s
     1     4 6970816.47    1  488 -2566698.2 6970816.47   372%  2546  498s
     3     8 6929034.71    2  497 -2566698.2 6929034.71   370%  4874  561s
     7    12 6858508.65    3  477 -2566698.2 6916033.57   369%  8456  583s
    11    16 6860411.03    3  479 -2566698.2 6907470.82   369%  7419  622s
    15    20 6853845.95    4  468 -2566698.2 6890553.18   368%  9046  632s
    19    16 6842989.24    5  472 -2566698.2 6890541.36   368%  7859  648s
    23    25 6841638.04    6  476 -2566698.2 6890541.36   368%  7166  680s
H   28    29                    -2566698.161 6890541.36   368%  7098  715s
H   30    31                    -2092601.179 6890541.36   429%  6748  715s
    33    33 6811487.25   10  496 -2092601.2 6890541.36   429%  6475  732s
    39    40 6805019.12   12  487 -2092601.2 6890541.36   429%  6067  778s
    46    49 6799660.70   13  493 -2092601.2 6890541.36   429%  6162  794s
    53    52 6777005.25   14  500 -2092601.2 6890541.36   429%  5763  812s
    60    63 6766744.01   15  501 -2092601.2 6890541.36   429%  5502  850s
H   61    64                    -1676277.274 6890541.36   511%  5412  850s
H   64    67                    -1510051.198 6890541.36   556%  5202  850s
    66    67 6766012.85   16  506 -1510051.2 6890541.36   556%  5608  865s
    75    78 6758252.70   19  500 -1510051.2 6890541.36   556%  5206  959s
    81    81 6630954.82   20  462 -1510051.2 6890541.36   556%  6053  991s
    86    88 6670186.92   21  451 -1510051.2 6890541.36   556%  6194 1038s
    90    91 6564550.85   21  437 -1510051.2 6890541.36   556%  6513 1063s
H   96    93                    -1510051.197 6890541.36   556%  6417 1063s
    99    96 6655908.37   22  445 -1510051.2 6890541.36   556%  6313 1085s
   108   111 6233713.00   24  452 -1510051.2 6890541.36   556%  6274 1130s
   122   123 6647134.01   25  448 -1510051.2 6890541.36   556%  5926 1160s
H  123   123                    -1235450.374 6890541.36   658%  5878 1160s
   129   132 6631123.80   27  449 -1235450.4 6890541.36   658%  5958 1200s
   138   139 6604256.99   31  470 -1235450.4 6890541.36   658%  5969 1258s
   148   146 5931974.64   33  404 -1235450.4 6890541.36   658%  6424 1287s
   160   164 6554707.83   34  460 -1235450.4 6890541.36   658%  6202 1335s
   168   169 6431806.21   35  410 -1235450.4 6890541.36   658%  6214 1376s
   180   179 6441916.00   36  373 -1235450.4 6890541.36   658%  6129 1432s
   189   190 6282614.18   37  400 -1235450.4 6890541.36   658%  6311 1474s
H  197   198                    -1235450.373 6890541.36   658%  6336 1515s
H  202   203                    -1171160.766 6890541.36   688%  6236 1515s
   209   209 6137152.66   45  385 -1171160.8 6890541.36   688%  6320 1638s
   233   234 5970546.52   51  387 -1171160.8 6890541.36   688%  6246 1684s
H  236   236                    -1171160.765 6890541.36   688%  6202 1684s
H  250   250                    -1171160.764 6890541.36   688%  5966 1684s
   253   255 5953588.34   52  388 -1171160.8 6890541.36   688%  6047 1733s
H  277   277                    -845920.1497 6890541.36   915%  5840 1870s
   296   300 5574244.16   59  385 -845920.15 6890541.36   915%  5778 1929s
   306   304 5830945.02   60  383 -845920.15 6890541.36   915%  5949 1980s
H  334   337                    -845920.1488 6890541.36   915%  5752 2041s
   366   370 5641828.71   75  399 -845920.15 6890541.36   915%  5565 2085s
   381   377 5601613.43   77  400 -845920.15 6890541.36   915%  5645 2133s
   408   412 4092845.49   80  323 -845920.15 6890541.36   915%  5675 2194s
   429   427 5513513.60   81  391 -845920.15 6890541.36   915%  5703 2255s
H  430   427                    -845920.1484 6890541.36   915%  5689 2255s
H  433   430                    -767017.4347 6890541.36   998%  5750 2255s
   471   473 5456395.88   82  396 -767017.43 6890541.36   998%  5473 2307s
H  477   473                    -767017.4344 6890541.36   998%  5438 2307s
H  499   495                    -767017.4334 6890541.36   998%  5405 2307s
   501   500 5372259.29   89  391 -767017.43 6890541.36   998%  5417 2360s
   559   557 5293719.13  103  363 -767017.43 6890541.36   998%  5133 2422s
H  573   570                    -767017.4326 6890541.36   998%  5202 2422s
   597   594 5136412.95  106  314 -767017.43 6890541.36   998%  5087 2482s
   652   643 4971215.49  115  328 -767017.43 6890541.36   998%  4904 2565s
   715   700 4926046.57  124  329 -767017.43 6890541.36   998%  4729 2633s
H  746   731                    -698776.6007 6890541.36  1086%  4675 2633s
   751   731 4286328.62  131  328 -698776.60 6890541.36  1086%  4695 2705s
H  788   747                    -698776.6004 6890541.36  1086%  4597 2705s
   802   784 4071963.05  143  333 -698776.60 6890541.36  1086%  4596 2779s
   825   796 3149696.83  145  270 -698776.60 6890541.36  1086%  4699 2912s
   895   864 1602556.65  153  217 -698776.60 6890541.36  1086%  4628 2981s
   939   902 2675589.53  158  253 -698776.60 6890541.36  1086%  4616 3064s
  1010   977 2516775.49  173  205 -698776.60 6890541.36  1086%  4491 3141s
  1089  1051 2306071.32  186  250 -698776.60 6890541.36  1086%  4340 3213s
  1197  1160 1254281.62  210  218 -698776.60 6890541.36  1086%  4122 3289s
  1312  1271 1208386.76  217  214 -698776.60 6890541.36  1086%  3908 3426s
  1460  1405 887415.600  238  192 -698776.60 6890541.36  1086%  3703 3516s
H 1619  1531                    -698776.5997 6890541.36  1086%  3471 3516s
  1625  1534 1443126.43  436  486 -698776.60 6890541.36  1086%  3492 3714s
  1627  1535 -186203.85   97  377 -698776.60 6890541.36  1086%  3488 3864s
  1628  1536 4110272.32  176  424 -698776.60 6890541.36  1086%  3486 3917s
  1629  1537 -181769.33  248  440 -698776.60 6890541.36  1086%  3484 3945s
  1630  1537 5498409.92   93  430 -698776.60 6890541.36  1086%  3481 3954s
  1631  1538 1406492.76  153  452 -698776.60 6890541.36  1086%  3479 3961s
  1632  1539 2673763.12   40  458 -698776.60 6890541.36  1086%  3477 3967s
  1633  1539 2469025.34  107  468 -698776.60 6890541.36  1086%  3475 3971s
  1634  1540 3034353.58  277  469 -698776.60 6890541.36  1086%  3473 3975s
  1635  1541 4086622.71  190  454 -698776.60 6890541.36  1086%  3471 3988s
  1636  1541 3207210.65  132  452 -698776.60 6890541.36  1086%  3469 3991s
  1637  1542 2315636.39  347  471 -698776.60 6890541.36  1086%  3466 3996s
  1638  1543 2745405.41  304  485 -698776.60 6890541.36  1086%  3464 4001s
  1639  1543 2136384.50  197  486 -698776.60 6890541.36  1086%  3462 4030s
  1640  1544 2588724.36  332  472 -698776.60 6890541.36  1086%  3460 4041s
  1641  1545 5674349.97   83  492 -698776.60 6812898.75  1075%  3458 4059s
  1642  1545 3353681.72   34  484 -698776.60 6807991.44  1074%  3456 4065s
  1644  1547 3806525.46  100  487 -698776.60 6803361.87  1074%  3452 4073s
  1645  1547 3263359.50  254  505 -698776.60 6802039.38  1073%  3450 4075s
  1647  1549 6630974.96   27  511 -698776.60 6799726.93  1073%  3445 4081s
  1648  1549 964113.846   28  510 -698776.60 6799639.80  1073%  3443 4085s
  1649  1550 3034433.90   78  547 -698776.60 6757202.86  1067%  3441 4114s
  1650  1551 5344214.96  100  485 -698776.60 6750263.45  1066%  3439 4124s
  1651  1551 107018.841  503  500 -698776.60 6748665.94  1066%  3437 4129s
  1652  1552 1159003.02  208  529 -698776.60 6746376.23  1065%  3435 4133s
  1653  1553 2673134.49  333  536 -698776.60 6745572.64  1065%  3433 4136s
  1655  1554 4925367.27   12  545 -698776.60 6743404.45  1065%  3429 4142s
  1656  1555 1509624.91  458  535 -698776.60 6742774.37  1065%  3427 4145s
  1657  1555 1660252.81  123  563 -698776.60 6742462.27  1065%  3425 4150s
  1658  1556 2450311.68  111  537 -698776.60 6713887.82  1061%  3423 4186s
  1659  1557 2516616.57  174  564 -698776.60 6710146.96  1060%  3421 4191s
  1660  1557 891354.512   30  593 -698776.60 6703534.47  1059%  3418 4199s
  1661  1558 5375748.66   87  590 -698776.60 6700213.75  1059%  3416 4205s
  1662  1559 911002.446  228  563 -698776.60 6697026.87  1058%  3414 4212s
  1663  1559 -633159.10  530  580 -698776.60 6696059.12  1058%  3412 4216s
  1665  1561 3299395.43  222  580 -698776.60 6694507.92  1058%  3408 4224s
  1666  1561 5719909.91   63  602 -698776.60 6683555.16  1056%  3406 4244s
  1667  1562 469898.064  170  609 -698776.60 6680103.28  1056%  3404 4249s
  1668  1563 3697091.05   23  623 -698776.60 6673747.77  1055%  3402 4258s
  1669  1563 3675427.33  202  608 -698776.60 6671026.08  1055%  3400 4262s
  1670  1564 2532369.33   57  621 -698776.60 6669662.07  1054%  3398 4268s
  1671  1565 4188053.84   32  627 -698776.60 6666878.46  1054%  3396 4273s
  1672  1565 4730683.78   89  635 -698776.60 6664191.06  1054%  3394 4277s
  1673  1566 6135566.78   38  632 -698776.60 6663768.32  1054%  3392 4281s
  1674  1567 810828.906  249  561 -698776.60 6615483.15  1047%  3390 4316s
  1675  1567 5370019.64  106  569 -698776.60 6606639.79  1045%  3388 4327s
  1677  1569 849388.863  246  579 -698776.60 6604306.14  1045%  3384 4332s
  1678  1569 3259177.03  255  584 -698776.60 6603364.83  1045%  3382 4352s
  1679  1570 5649340.69   54  614 -698776.60 6602230.86  1045%  3380 4356s
  1680  1571 2135959.33   88  613 -698776.60 6601777.87  1045%  3378 4362s
  1681  1571 2150080.87  195  618 -698776.60 6594042.04  1044%  3376 4391s
  1682  1572 1234820.84   75  612 -698776.60 6592630.59  1043%  3374 4396s
  1684  1573 1121158.38  193  613 -698776.60 6591061.20  1043%  3370 4401s
  1686  1575 1165695.29  474  617 -698776.60 6590037.02  1043%  3366 4407s
  1687  1575 2721604.46  319  612 -698776.60 6589104.61  1043%  3364 4426s
  1688  1576 2475888.21   61  620 -698776.60 6587662.58  1043%  3362 4430s
  1690  1577 6013132.60   34  623 -698776.60 6586563.92  1043%  3358 4436s
  1691  1578 1054860.73  472  648 -698776.60 6581230.90  1042%  3356 4464s
  1692  1579 2595329.59   90  624 -698776.60 6580127.70  1042%  3354 4468s
  1693  1579 269339.453  132  627 -698776.60 6579678.46  1042%  3352 4472s
  1694  1580 6155649.24   44  627 -698776.60 6577125.17  1041%  3350 4490s
  1696  1581 5692941.20   72  648 -698776.60 6575417.94  1041%  3346 4499s
  1697  1582 -633159.10  530  646 -698776.60 6571824.62  1040%  3344 4554s
  1698  1583 5946697.95   66  646 -698776.60 6571824.62  1040%  3342 4556s
  1699  1583 3174828.14   55  646 -698776.60 6571824.62  1040%  3340 4745s
  1700  1587 6571738.85   11  638 -698776.60 6571824.62  1040%  3574 4886s
  1702  1590 6571026.56   12  642 -698776.60 6571026.56  1040%  3573 5110s
  1706  1593 6568499.81   13  646 -698776.60 6568499.81  1040%  3632 5264s
  1710  1596 5434257.88   13  455 -698776.60 6567997.78  1040%  3682 5427s
  1714  1598 6567879.59   14  636 -698776.60 6567879.59  1040%  3687 5469s
  1718  1601 6127292.85   14  502 -698776.60 6567789.60  1040%  3715 5598s
  1722  1605 6527019.53   15  626 -698776.60 6567782.51  1040%  3752 5644s
  1728  1603 6445103.16   15  537 -698776.60 6527016.09  1034%  3759 5710s
  1733  1609 6508203.20   16  604 -698776.60 6508203.20  1031%  3768 5785s
  1739  1608 6468757.07   17  610 -698776.60 6506779.93  1031%  3794 5839s
  1744  1617 6227226.08   17  554 -698776.60 6468751.44  1026%  3820 5913s
  1751  1619 6462021.55   18  599 -698776.60 6462021.55  1025%  3836 6000s
  1760  1623 6383833.00   19  563 -698776.60 6461937.62  1025%  3871 6060s
  1766  1630 6452768.69   19  621 -698776.60 6452768.69  1023%  3894 6130s
  1773  1635 6106991.46   20  533 -698776.60 6451579.10  1023%  3946 6203s
  1780  1639 6373365.72   21  522 -698776.60 6451544.40  1023%  3982 6276s
  1787  1645 6441253.53   21  606 -698776.60 6445097.84  1022%  4015 6338s
  1793  1644 6354280.38   22  500 -698776.60 6445097.84  1022%  4062 6413s
  1802  1655 6353047.80   23  509 -698776.60 6445097.84  1022%  4082 6500s
  1810  1656 6275020.89   24  514 -698776.60 6445097.84  1022%  4128 6597s
  1819  1662 6224320.48   25  532 -698776.60 6445097.84  1022%  4178 6678s
  1835  1676 6212213.22   26  509 -698776.60 6445097.84  1022%  4183 6790s
  1842  1681 6209600.26   27  505 -698776.60 6445097.84  1022%  4230 6939s
  1860  1692 6183318.33   29  518 -698776.60 6445097.84  1022%  4297 7063s
  1877  1706 6177654.91   30  517 -698776.60 6445097.84  1022%  4327 7233s
  1890  1708 6164409.12   31  519 -698776.60 6445097.84  1022%  4403 7392s
  1905  1722 6149228.65   32  503 -698776.60 6445097.84  1022%  4471 7528s
  1929  1739 6125921.65   33  490 -698776.60 6445097.84  1022%  4491 7658s
  1951  1755 5924082.19   34  507 -698776.60 6445097.84  1022%  4525 7836s
  1971  1760 5930459.28   36  461 -698776.60 6445097.84  1022%  4555 7967s
  1995  1775 5896083.22   38  456 -698776.60 6445097.84  1022%  4571 8072s
H 1996  1693                    -698776.5917 6445097.84  1022%  4568 8072s
  2023  1707 5879309.27   40  437 -698776.59 6445097.84  1022%  4576 8207s
  2057  1716 5842813.14   42  438 -698776.59 6445097.84  1022%  4569 8326s
  2088  1726 4793691.68   43  360 -698776.59 6445097.84  1022%  4592 8494s
  2107  1739 5835629.62   45  439 -698776.59 6445097.84  1022%  4642 8620s
H 2108  1661                    -598688.9816 6445097.84  1177%  4640 8620s
  2129  1673 5654944.79   46  419 -598688.98 6445097.84  1177%  4678 8766s
H 2153  1614                    -598688.9815 6445097.84  1177%  4705 8953s
H 2159  1549                    -598688.9813 6445097.84  1177%  4719 8953s
H 2163  1486                    -598688.9808 6445097.84  1177%  4749 8953s
  2176  1493 5593268.62   51  428 -598688.98 6445097.84  1177%  4749 9174s
H 2207  1457                    -598688.9799 6445097.84  1177%  4788 9335s
  2244  1477 5463324.17   55  460 -598688.98 6445097.84  1177%  4821 9537s
  2296  1521 5425941.21   58  462 -598688.98 6445097.84  1177%  4810 9837s
  2328  1531 4781295.81   60  417 -598688.98 6445097.84  1177%  4900 10025s
  2384  1578 4941064.14   63  431 -598688.98 6445097.84  1177%  4897 10197s
  2425  1593 4662903.66   65  379 -598688.98 6445097.84  1177%  4930 10398s
  2485  1627 4649907.64   69  408 -598688.98 6445097.84  1177%  4941 10639s
  2554  1672 4634459.44   73  422 -598688.98 6445097.84  1177%  4925 10859s
  2636  1726 4628545.80   77  389 -598688.98 6445097.84  1177%  4875 11083s
  2710  1775 4569031.15   80  379 -598688.98 6445097.84  1177%  4852 11288s
H 2720  1722                    -598688.9790 6445097.84  1177%  4884 11289s
  2782  1753 4284953.30   83  378 -598688.98 6445097.84  1177%  4823 11550s
H 2798  1704                    -598688.9787 6445097.84  1177%  4880 11550s
  2871  1745 4253082.34   86  368 -598688.98 6445097.84  1177%  4800 11767s
  2969  1796 4164105.87   89  366 -598688.98 6445097.84  1177%  4749 11967s
  3099  1861 4140435.01   93  361 -598688.98 6445097.84  1177%  4632 12146s
H 3162  1845                    -590395.2959 6445097.84  1192%  4632 12146s
  3175  1853 3741669.62   97  322 -590395.30 6445097.84  1192%  4639 12366s
  3244  1867 3681580.30  101  319 -590395.30 6445097.84  1192%  4652 12559s
  3303  1910 3637106.62  106  330 -590395.30 6445097.84  1192%  4678 12777s
  3385  1957 3067233.30  111  297 -590395.30 6445097.84  1192%  4643 13016s
  3500  2030 1609377.50  120  303 -590395.30 6445097.84  1192%  4611 13188s
  3580  2070 1687823.73  132  239 -590395.30 6445097.84  1192%  4619 13422s
  3718  2145 1654198.40  141  247 -590395.30 6445097.84  1192%  4582 13615s
  3781  2167 546715.793  153  221 -590395.30 6445097.84  1192%  4625 13806s
  3910  2228 924113.512  166  219 -590395.30 6445097.84  1192%  4608 14072s
  4020  2274 827463.156  186  236 -590395.30 6445097.84  1192%  4619 14405s
  4154  2311 315686.412  212  160 -590395.30 6444982.00  1192%  4611 14731s
  4320  2360 4984547.59   25  454 -590395.30 6444982.00  1192%  4553 15029s
  4496  2435 3731914.87   40  381 -590395.30 6444982.00  1192%  4479 15375s
  4667  2537 1950215.01  110  288 -590395.30 6404211.99  1185%  4421 15650s
H 4761  2537                    -590395.2953 6404211.99  1185%  4348 15650s
  4884  2739 5628358.14   17  562 -590395.30 6404211.99  1185%  4339 15889s
  5084  2921 5508645.13   21  483 -590395.30 6404211.99  1185%  4275 16142s
  5227  3060 4817713.88   25  429 -590395.30 6404211.99  1185%  4266 16402s
  5525  3348 3878969.03   32  287 -590395.30 6386402.58  1182%  4153 16803s
  5770  3546 5644748.98   22  461 -590395.30 6385406.17  1182%  4088 17200s
  6049  3759 1794604.77   44  254 -590395.30 6382947.66  1181%  4007 17546s
H 6262  3955                    -590395.2776 6382947.66  1181%  3923 17546s
  6381  4067 5402641.57   21  428 -590395.28 6382947.66  1181%  3903 17970s
  6480  4158 4134789.57   49  362 -590395.28 6382947.66  1181%  3942 18498s
  6745  4423 2295152.35  140  288 -590395.28 6382947.66  1181%  3891 19023s
  7182  4847 1362436.88  280  271 -590395.28 6375368.25  1180%  3762 19527s
  7528  5152 5637219.77   36  534 -590395.28 6373328.17  1180%  3702 19920s
  7803  5408 3397777.46   93  299 -590395.28 6373328.17  1180%  3683 20365s
  8034  5619 194876.511  191  288 -590395.28 6362969.90  1178%  3671 20942s
  8292  5795 4716311.41   39  348 -590395.28 6347545.15  1175%  3652 21556s
  8798  6280 5409675.80   37  445 -590395.28 6347545.15  1175%  3533 22024s
  9543  7005 4211639.81  104  308 -590395.28 6347545.15  1175%  3333 22675s
  9928  7367 3339069.80  222  359 -590395.28 6321759.58  1171%  3285 23227s
 10493  7908 5967592.21   24  578 -590395.28 6321759.58  1171%  3187 23963s
 10844  8243 4654233.73   87  364 -590395.28 6321759.58  1171%  3169 24715s
 11558  8895 3386042.33  315  289 -590395.28 6307286.51  1168%  3057 25510s
 12119  9406 4989674.32   24  360 -590395.28 6297442.51  1167%  3006 26349s
 12281  9519 4495654.79   36  384 -590395.28 6297442.51  1167%  3050 27277s
 12889 10105 4182344.69   46  320 -590395.28 6297442.51  1167%  2997 27993s
 13051 10264 4002631.07   57  300 -590395.28 6297442.51  1167%  3044 28808s
 13664 10850 3832570.89   70  272 -590395.28 6297442.51  1167%  2996 29656s
 13992 11161 1037104.50   93  155 -590395.28 6297442.51  1167%  3010 30540s
 14397 11530 2548761.26  135  237 -590395.28 6286497.31  1165%  3016 31130s
 14730 11810 5784092.12   37  526 -590395.28 6286497.31  1165%  3025 31675s
H14754 11526                    -239289.2640 6286497.31  2727%  3028 31675s
H14960 11706                    -239289.2635 6286497.31  2727%  3046 32226s
H15045 11790                    -239289.2628 6286497.31  2727%  3045 32226s
H15218 11910                    -239289.2625 6286497.31  2727%  3073 32888s
 15600 12238 1744826.02   33  163 -239289.26 6266941.23  2719%  3076 33635s
H15905 12412                    -200993.2638 6266941.23  3218%  3085 34328s
H16380 12803                    -200993.2636 6266941.23  3218%  3074 34955s
H16596 12994                    -200993.2630 6254183.06  3212%  3068 34955s
H16737 13109                    -200993.2628 6250421.19  3210%  3076 35440s
H17184 13531                    -200993.2616 6250421.19  3210%  3044 35440s
 17498 13826 5726696.88   29  478 -200993.26 6250421.19  3210%  3006 36077s
 17799 14104 5382760.26   37  437 -200993.26 6250421.19  3210%  3011 36541s
 18030 14310 3459179.91   46  242 -200993.26 6250421.19  3210%  3015 37159s
 18229 14475 2077812.82   69  222 -200993.26 6235353.76  3202%  3040 37866s
 18399 14623 5068206.45   45  555 -200993.26 6235353.76  3202%  3069 38479s
 18756 14952 3002687.48  193  358 -200993.26 6233256.86  3201%  3068 39116s
 19270 15420 5371794.85   37  520 -200993.26 6230071.85  3200%  3044 39826s
 19694 15801 4701638.87   26  487 -200993.26 6227226.08  3198%  3042 40495s
 19997 16090 418754.573   96  288 -200993.26 6214681.86  3192%  3050 41017s
 20120 16162 4080006.72   23  479 -200993.26 6212979.63  3191%  3081 41715s
 20284 16319 4455599.37   51  537 -200993.26 6212979.63  3191%  3107 42512s
 20768 16797 1151086.80  123  486 -200993.26 6212979.63  3191%  3091 49665s
 20770 16798 3162236.74  332  338 -200993.26 6212979.63  3191%  3091 49725s
 20771 16799 2673911.94  163  386 -200993.26 6212979.63  3191%  3091 49751s
 20772 16800 3135007.76   28  480 -200993.26 6212979.63  3191%  3091 49768s
 20773 16800 2756024.25   37  476 -200993.26 6212979.63  3191%  3091 49779s
 20774 16801 3504586.33   93  458 -200993.26 6212979.63  3191%  3091 49805s
 20775 16802 2671627.36  319  487 -200993.26 6212979.63  3191%  3090 49815s
 20776 16802 524534.807  169  509 -200993.26 6212979.63  3191%  3090 49828s
 20777 16803 251158.012  160  469 -200993.26 6212979.63  3191%  3090 49841s
 20778 16804 1029454.61  311  478 -200993.26 6212979.63  3191%  3090 49853s
 20779 16804 1047358.31  139  514 -200993.26 6212979.63  3191%  3090 49864s
 20780 16805 1643509.73  233  487 -200993.26 6212979.63  3191%  3090 49878s
 20781 16806 1142726.33   95  522 -200993.26 6212979.63  3191%  3090 49881s
 20782 16806 4833217.28   79  513 -200993.26 6212979.63  3191%  3089 49886s
 20784 16808 1629492.03   62  512 -200993.26 6205405.53  3187%  3089 49896s
 20786 16809 787836.919  503  555 -200993.26 6198598.13  3184%  3089 49905s
 20788 16810 1762837.64  248  574 -200993.26 6194851.15  3182%  3089 49910s
 20790 16812 2526251.09  247  582 -200993.26 6192247.41  3181%  3088 49916s
 20792 16813 706872.056  207  607 -200993.26 6190030.40  3180%  3088 49921s
 20793 16814 3057920.85   29  571 -200993.26 6165983.10  3168%  3088 49975s
 20795 16815 3497005.69  106  533 -200993.26 6154365.00  3162%  3087 49982s
 20796 16816 353694.060  363  535 -200993.26 6151787.18  3161%  3087 49986s
 20797 16816 918266.796  277  550 -200993.26 6147278.93  3158%  3087 49990s
 20800 16818 1640008.31  326  546 -200993.26 6143928.26  3157%  3087 49997s
 20801 16819 1566894.80  265  578 -200993.26 6142311.66  3156%  3087 50000s
 20802 16820 4505260.89   84  560 -200993.26 6141867.00  3156%  3086 50048s
 20803 16820 1953850.87   88  559 -200993.26 6131540.83  3151%  3086 50149s
 20804 16821 1095960.86  277  558 -200993.26 6119347.27  3145%  3086 50157s
 20805 16822 3052622.83  201  580 -200993.26 6112536.58  3141%  3086 50165s
 20807 16823 1600671.13   64  584 -200993.26 6109564.01  3140%  3086 50172s
 20808 16824 2156461.61  257  607 -200993.26 6108304.15  3139%  3086 50175s
H20808 15982                    -137014.8413 6107966.89  4558%  3086 50245s
H20809 15182                    -137014.8409 6086740.85  4542%  3085 50370s
 20811 15184 1311170.59  230  581 -137014.84 6043304.81  4511%  3085 50387s
 20812 15184 2806340.12   67  596 -137014.84 6039047.56  4508%  3085 50392s
 20813 15185 1689683.90   91  537 -137014.84 6036834.75  4506%  3085 50395s
 20815 15186 2419220.80  105  586 -137014.84 6033570.36  4504%  3085 50402s
 20816 15187 3963332.07   99  562 -137014.84 6032580.18  4503%  3084 50405s
 20818 15188 3242408.22   83  581 -137014.84 6030800.97  4502%  3084 50410s
 20819 15189 3104722.28  274  581 -137014.84 6030678.45  4501%  3084 50456s
 20820 15190 126101.193  192  589 -137014.84 6024896.14  4497%  3084 50508s
 20821 15190 1058869.26  118  616 -137014.84 6021269.79  4495%  3084 50514s
 20822 15191 6020393.15   17  601 -137014.84 6020393.15  4494%  3083 50516s
 20824 15192 87214.1756  162  602 -137014.84 6017592.45  4492%  3083 50523s
 20825 15193 5415386.65   24  589 -137014.84 6016617.30  4491%  3083 50526s
 20827 15194 3176725.35  138  605 -137014.84 6015405.75  4490%  3083 50561s
 20828 15195 789478.493  144  587 -137014.84 6010598.45  4487%  3083 50675s
 20830 15196 565251.333  143  565 -137014.84 6005870.40  4483%  3082 50683s
 20831 15197 4472787.30   73  579 -137014.84 6003763.57  4482%  3082 50688s
 20832 15198 3592045.97  217  599 -137014.84 6002897.70  4481%  3082 50691s
 20833 15198 5403832.29   23  584 -137014.84 6001692.25  4480%  3082 50695s
 20834 15199 650118.660  384  590 -137014.84 6001529.28  4480%  3082 50746s
 20835 15200 4617436.90   70  587 -137014.84 5988617.31  4471%  3082 50855s
 20836 15200 4143151.98   22  546 -137014.84 5983321.03  4467%  3081 50860s
 20837 15201 5399826.02   43  583 -137014.84 5980267.13  4465%  3081 50865s
 20839 15202 5218666.52   26  599 -137014.84 5977282.88  4463%  3081 50872s
 20840 15203 3503505.44   49  585 -137014.84 5976925.00  4462%  3081 50924s
 20841 15204 3784934.45   87  567 -137014.84 5973191.74  4460%  3081 51002s
 20842 15204 251927.923  295  600 -137014.84 5966927.71  4455%  3081 51008s
 20843 15205 3770581.45   73  621 -137014.84 5965163.22  4454%  3080 51013s
 20844 15206 4608264.62   43  615 -137014.84 5962742.25  4452%  3080 51019s
 20845 15206 3565823.65  211  597 -137014.84 5962069.69  4451%  3080 51021s
 20846 15207 583905.022  342  602 -137014.84 5961713.33  4451%  3080 51053s
 20847 15208 3146850.63   81  570 -137014.84 5926887.71  4426%  3080 51144s
 20848 15208 4830223.84   28  560 -137014.84 5887328.26  4397%  3080 51159s
 20849 15209 -137014.84  270  580 -137014.84 5885232.29  4395%  3079 51164s
 20850 15210 1473750.99  195  604 -137014.84 5883090.73  4394%  3079 51167s
 20852 15211 2683662.11  138  569 -137014.84 5875699.78  4388%  3079 51177s
 20853 15212 434840.165  193  560 -137014.84 5873399.49  4387%  3079 51181s
 20855 15213 1092736.41  371  576 -137014.84 5871910.46  4386%  3079 51186s
 20857 15214 4295829.00  157  590 -137014.84 5870591.99  4385%  3078 51217s
 20858 15215 3699304.13   36  613 -137014.84 5861328.36  4378%  3078 51317s
 20859 15216 4256478.31   54  595 -137014.84 5856653.24  4374%  3078 51336s
 20860 15216 -65908.977  419  591 -137014.84 5853033.30  4372%  3078 51342s
 20862 15218 5060208.67   76  588 -137014.84 5849311.83  4369%  3078 51348s
 20863 15218 963033.973  114  590 -137014.84 5848278.26  4368%  3077 51360s
 20864 15219 1958296.63  243  597 -137014.84 5847728.87  4368%  3077 51388s
 20865 15220 3461639.94  113  589 -137014.84 5839769.12  4362%  3077 51425s
 20867 15221 1835937.73  133  617 -137014.84 5834003.30  4358%  3077 51434s
 20868 15222 1151086.80  123  603 -137014.84 5831746.98  4356%  3077 51437s
 20869 15222 5093435.23   63  609 -137014.84 5830634.88  4355%  3077 51440s
 20872 15224 3135007.76   28  604 -137014.84 5828940.51  4354%  3076 51476s
 20873 15225 2756024.25   37  617 -137014.84 5826203.11  4352%  3076 51547s
 20874 15226 3504586.33   93  619 -137014.84 5824291.70  4351%  3076 51551s
 20876 15227 524534.807  169  629 -137014.84 5822210.56  4349%  3075 51559s
 20877 15228 251158.012  160  635 -137014.84 5821549.90  4349%  3075 51562s
 20878 15228 1029454.61  311  639 -137014.84 5821229.14  4349%  3075 51593s
 20879 15229 1047358.31  139  627 -137014.84 5818914.10  4347%  3075 51658s
 20880 15230 1643509.73  233  636 -137014.84 5814563.43  4344%  3075 51666s
 20881 15230 1142726.33   95  630 -137014.84 5811982.63  4342%  3075 51671s
 20883 15232 2486574.32   80  625 -137014.84 5810466.41  4341%  3074 51704s
 20884 15232 1629492.03   62  619 -137014.84 5804984.27  4337%  3074 51769s
 20885 15233 2470303.00   64  605 -137014.84 5803234.78  4335%  3074 51773s
 20886 15234 787836.919  503  600 -137014.84 5801844.61  4334%  3074 51777s
 20887 15234 2224316.91   96  614 -137014.84 5801492.35  4334%  3074 51807s
H20887 14470                    -137014.8256 5801492.35  4334%  3074 51846s
 20888 14471 1762837.64  248  604 -137014.83 5796177.62  4330%  3074 51850s
 20889 14472 1753110.40   47  602 -137014.83 5792625.87  4328%  3074 51856s
 20890 14472 2526251.09  247  603 -137014.83 5791146.56  4327%  3073 51860s
 20892 14474 706872.056  207  618 -137014.83 5789610.44  4326%  3073 51865s
 20894 14475 627243.302  148  620 -137014.83 5788476.60  4325%  3073 51896s
 20895 14476 3497005.69  106  634 -137014.83 5785125.75  4322%  3073 51979s
 20896 14476 353694.060  363  646 -137014.83 5784278.54  4322%  3073 51983s
 20897 14477 918266.796  277  638 -137014.83 5783511.83  4321%  3072 51986s
 20899 14478 5782602.78   26  670 -137014.83 5782602.78  4320%  3072 52043s
 20900 14479 1640008.31  326  583 -137014.83 5773578.58  4314%  3072 52117s
 20901 14480 1566894.80  265  642 -137014.83 5766915.41  4309%  3072 52123s
 20902 14480 4505260.89   84  652 -137014.83 5765424.68  4308%  3072 52128s
 20903 14481 1953850.87   88  649 -137014.83 5763494.76  4306%  3072 52135s
 20905 14482 3052622.83  201  670 -137014.83 5761238.17  4305%  3071 52144s
 20906 14483 2470303.00   64  666 -137014.83 5760986.35  4305%  3071 52182s
 20907 14484 1600671.13   64  648 -137014.83 5757708.56  4302%  3071 52220s
 20908 14484 2156461.61  257  635 -137014.83 5756570.55  4301%  3071 52225s
 20909 14485 3529683.67  132  639 -137014.83 5755011.68  4300%  3071 52230s
 20911 14486 1311170.59  230  632 -137014.83 5753918.03  4299%  3070 52266s
 20912 14487 2806340.12   67  636 -137014.83 5751903.27  4298%  3070 52336s
 20913 14488 1689683.90   91  660 -137014.83 5751341.24  4298%  3070 52369s
 20914 14488 110365.665  483  630 -137014.83 5749189.12  4296%  3070 52444s
 20915 14489 2419220.80  105  645 -137014.83 5748238.41  4295%  3070 52454s
 20916 14490 3963332.07   99  659 -137014.83 5747680.66  4295%  3070 52487s
 20917 14490 455199.302   88  657 -137014.83 5746363.99  4294%  3069 52550s
 20918 14491 3242408.22   83  667 -137014.83 5745915.63  4294%  3069 52580s
 20919 14492 3104722.28  274  641 -137014.83 5744088.16  4292%  3069 52611s
 20921 14493 1058869.26  118  647 -137014.83 5742690.93  4291%  3069 52645s
 20922 14494 5740431.56   17  622 -137014.83 5740431.56  4290%  3069 52683s
 20923 14494 1246977.90  153  637 -137014.83 5739483.18  4289%  3069 52687s
 20924 14495 87214.1756  162  610 -137014.83 5738687.91  4288%  3068 52691s
 20925 14496 5415386.65   24  630 -137014.83 5738307.14  4288%  3068 52719s
 20926 14496 342484.076  367  612 -137014.83 5736996.54  4287%  3068 52798s
 20927 14497 3176725.35  138  631 -137014.83 5735865.34  4286%  3068 52801s
 20928 14498 789478.493  144  639 -137014.83 5735500.82  4286%  3068 52835s
 20929 14498 -26961.944  312  657 -137014.83 5732955.93  4284%  3068 52879s
 20930 14499 565251.333  143  626 -137014.83 5729286.89  4282%  3068 52887s
 20931 14500 4472787.30   73  658 -137014.83 5728737.79  4281%  3067 52917s
 20932 14500 3592045.97  217  645 -137014.83 5725922.76  4279%  3067 52952s
 20933 14501 5403832.29   23  629 -137014.83 5725692.27  4279%  3067 52979s
 20934 14502 650118.660  384  644 -137014.83 5723127.88  4277%  3067 53015s
 20935 14502 4617436.90   70  671 -137014.83 5722705.40  4277%  3067 53045s
 20936 14503 4143151.98   22  667 -137014.83 5720882.43  4275%  3067 53080s
 20937 14504 5399826.02   43  675 -137014.83 5720343.80  4275%  3067 53109s
 20938 14504 3123576.91  148  667 -137014.83 5718718.00  4274%  3066 53146s
 20939 14505 5218666.52   26  677 -137014.83 5718283.69  4273%  3066 53175s
 20940 14506 3503505.44   49  683 -137014.83 5717516.21  4273%  3066 53209s
 20941 14506 3784934.45   87  670 -137014.83 5716767.83  4272%  3066 53214s
 20942 14507 251927.923  295  676 -137014.83 5716498.50  4272%  3066 53243s
 20943 14508 3770581.45   73  630 -137014.83 5714717.59  4271%  3066 53279s
 20944 14508 4608264.62   43  648 -137014.83 5714241.09  4271%  3066 53312s
 20945 14509 3565823.65  211  633 -137014.83 5709720.25  4267%  3065 53366s
 20946 14510 583905.022  342  666 -137014.83 5708814.51  4267%  3065 53370s
 20947 14510 3146850.63   81  666 -137014.83 5708467.64  4266%  3065 53399s
 20948 14511 4830223.84   28  665 -137014.83 5706112.83  4265%  3065 53434s
 20949 14512 -137014.83  270  674 -137014.83 5705120.09  4264%  3065 53437s
 20950 14512 1473750.99  195  677 -137014.83 5704549.17  4263%  3065 53467s
 20951 14513 5701378.75   29  671 -137014.83 5701378.75  4261%  3064 53533s
 20952 14514 2683662.11  138  680 -137014.83 5700538.87  4261%  3064 53537s
 20953 14514 434840.165  193  673 -137014.83 5700214.72  4260%  3064 53569s
 20954 14515 1472138.50  197  653 -137014.83 5694365.67  4256%  3064 53638s
 20955 14516 1092736.41  371  663 -137014.83 5692869.72  4255%  3064 53644s
 20956 14516 2718860.70  105  657 -137014.83 5691518.20  4254%  3064 53651s
 20957 14517 4295829.00  157  655 -137014.83 5691161.77  4254%  3064 53679s
 20958 14518 3699304.13   36  658 -137014.83 5689016.77  4252%  3063 53719s
 20959 14518 4256478.31   54  668 -137014.83 5688670.59  4252%  3063 53751s
 20960 14519 -65908.977  419  664 -137014.83 5685840.00  4250%  3063 53786s
 20961 14520 5275062.64   29  674 -137014.83 5685120.17  4249%  3063 53791s
 20962 14520 5060208.67   76  684 -137014.83 5684980.15  4249%  3063 53820s
 20963 14521 963033.973  114  670 -137014.83 5684051.40  4248%  3063 53853s
 20964 14522 1958296.63  243  667 -137014.83 5683656.83  4248%  3063 53880s
 20965 14522 3461639.94  113  648 -137014.83 5681889.06  4247%  3062 53916s
 20967 14524 1835937.73  133  664 -137014.83 5680778.47  4246%  3062 53948s
 20968 14524 1151086.80  123  684 -137014.83 5680519.96  4246%  3062 53983s
 20969 14525 5093435.23   63  682 -137014.83 5679625.84  4245%  3062 53986s
 20970 14526 3162236.74  332  669 -137014.83 5679335.82  4245%  3062 54017s
 20971 14526 2673911.94  163  684 -137014.83 5678161.61  4244%  3062 54055s
 20972 14527 3135007.76   28  686 -137014.83 5677737.16  4244%  3061 54089s
 20973 14528 2756024.25   37  664 -137014.83 5675039.31  4242%  3061 54160s
 20974 14528 3504586.33   93  663 -137014.83 5674537.36  4242%  3061 54196s
 20975 14529 2671627.36  319  657 -137014.83 5665115.25  4235%  3061 54248s
 20976 14530 524534.807  169  659 -137014.83 5662921.72  4233%  3061 54260s
 20978 14531 1029454.61  311  657 -137014.83 5659984.42  4231%  3061 54270s
 20980 14532 1643509.73  233  661 -137014.83 5658279.26  4230%  3060 54301s
 20981 14533 1142726.33   95  642 -137014.83 5656184.66  4228%  3060 54337s
 20982 14534 4833217.28   79  645 -137014.83 5655994.51  4228%  3060 54366s
 20983 14534 2486574.32   80  631 -137014.83 5652028.52  4225%  3060 54404s
 20984 14535 1629492.03   62  623 -137014.83 5651176.49  4225%  3060 54408s
 20985 14536 2470303.00   64  634 -137014.83 5650771.68  4224%  3060 54438s
 20986 14536 787836.919  503  624 -137014.83 5643092.00  4219%  3059 54501s
 20987 14537 2224316.91   96  622 -137014.83 5641631.36  4218%  3059 54507s
 20988 14538 1762837.64  248  626 -137014.83 5640966.35  4217%  3059 54511s
 20989 14538 1753110.40   47  619 -137014.83 5640419.97  4217%  3059 54558s
 20990 14539 2526251.09  247  623 -137014.83 5639224.99  4216%  3059 54592s
 20991 14540 5372266.81   56  609 -137014.83 5638876.72  4216%  3059 54621s
 20992 14540 706872.056  207  604 -137014.83 5633973.87  4212%  3059 54664s
 20993 14541 3057920.85   29  619 -137014.83 5633490.58  4212%  3058 54694s
 20994 14542 627243.302  148  606 -137014.83 5632285.26  4211%  3058 54725s
 20995 14542 3497005.69  106  626 -137014.83 5632033.48  4211%  3058 54750s
 20996 14543 353694.060  363  639 -137014.83 5627681.69  4207%  3058 54792s
 20997 14544 918266.796  277  629 -137014.83 5625374.57  4206%  3058 54797s
 20998 14544 3864905.32   92  632 -137014.83 5624503.58  4205%  3058 54800s
 21000 14546 1640008.31  326  628 -137014.83 5623218.57  4204%  3057 54832s
 21001 14546 1566894.80  265  635 -137014.83 5622549.61  4204%  3057 54868s
 21002 14547 4505260.89   84  630 -137014.83 5622103.18  4203%  3057 54900s
 21003 14548 1953850.87   88  640 -137014.83 5621624.86  4203%  3057 54934s
 21004 14548 1095960.86  277  645 -137014.83 5621366.43  4203%  3057 54965s
 21005 14549 3052622.83  201  634 -137014.83 5620481.33  4202%  3057 55002s
 21006 14550 2470303.00   64  638 -137014.83 5620376.43  4202%  3056 55034s
 21007 14550 1600671.13   64  644 -137014.83 5620145.05  4202%  3056 55085s
 21008 14551 2156461.61  257  645 -137014.83 5620042.70  4202%  3056 55132s
 21009 14552 3529683.67  132  647 -137014.83 5619742.53  4202%  3056 55175s
 21010 14552 3567028.80   77  642 -137014.83 5619559.12  4201%  3056 55206s
 21011 14553 1311170.59  230  621 -137014.83 5616426.77  4199%  3056 55240s
 21012 14554 2806340.12   67  623 -137014.83 5616024.50  4199%  3056 55273s
 21013 14554 1689683.90   91  632 -137014.83 5614316.47  4198%  3055 55312s
 21014 14555 110365.665  483  623 -137014.83 5614012.05  4197%  3055 55342s
 21015 14556 2419220.80  105  622 -137014.83 5613505.98  4197%  3055 55377s
 21016 14556 3963332.07   99  635 -137014.83 5613087.20  4197%  3055 55409s
 21017 14557 455199.302   88  646 -137014.83 5605516.06  4191%  3055 55453s
 21018 14558 3242408.22   83  639 -137014.83 5603090.99  4189%  3055 55460s
 21019 14558 3104722.28  274  643 -137014.83 5602707.90  4189%  3055 55493s
 21020 14559 126101.193  192  656 -137014.83 5601357.41  4188%  3054 55530s
 21021 14560 1058869.26  118  657 -137014.83 5600920.63  4188%  3054 55564s
 21022 14560 5600617.37   17  661 -137014.83 5600617.37  4188%  3054 55600s
 21023 14561 1246977.90  153  655 -137014.83 5600508.40  4188%  3054 55631s
 21024 14562 87214.1756  162  664 -137014.83 5600271.55  4187%  3054 55700s
 21025 14562 5415386.65   24  667 -137014.83 5600179.12  4187%  3054 55731s
 21026 14563 342484.076  367  675 -137014.83 5600062.76  4187%  3054 55769s
 21027 14564 3176725.35  138  669 -137014.83 5599945.36  4187%  3053 55801s
 21028 14564 789478.493  144  667 -137014.83 5599008.35  4186%  3053 55840s
 21029 14565 -26961.944  312  663 -137014.83 5598829.68  4186%  3053 55871s
 21030 14566 565251.333  143  661 -137014.83 5598652.75  4186%  3053 55945s
 21031 14566 4472787.30   73  670 -137014.83 5598563.58  4186%  3053 55975s
 21032 14567 3592045.97  217  664 -137014.83 5598466.75  4186%  3053 56037s
 21033 14568 5403832.29   23  660 -137014.83 5598434.23  4186%  3053 56074s
 21034 14568 650118.660  384  673 -137014.83 5598381.73  4186%  3052 56106s
 21035 14569 4617436.90   70  670 -137014.83 5598346.59  4186%  3052 56139s
 21036 14570 4143151.98   22  665 -137014.83 5598323.95  4186%  3052 56174s
 21037 14570 5399826.02   43  673 -137014.83 5598302.93  4186%  3052 56205s
 21038 14571 3123576.91  148  668 -137014.83 5598284.21  4186%  3052 56237s
 21039 14572 5218666.52   26  681 -137014.83 5598255.99  4186%  3052 56265s
 21040 14572 3503505.44   49  638 -137014.83 5597569.91  4185%  3052 56298s
 21041 14573 3784934.45   87  677 -137014.83 5596758.60  4185%  3051 56301s
 21042 14574 251927.923  295  661 -137014.83 5596686.91  4185%  3051 56331s
 21043 14574 3770581.45   73  661 -137014.83 5592753.94  4182%  3051 56366s
 21044 14575 4608264.62   43  663 -137014.83 5592415.79  4182%  3051 56392s
 21045 14576 3565823.65  211  659 -137014.83 5592322.56  4182%  3051 56424s
 21046 14576 583905.022  342  672 -137014.83 5592181.99  4181%  3051 56452s
 21047 14577 3146850.63   81  672 -137014.83 5592094.87  4181%  3051 56479s
 21048 14578 4830223.84   28  671 -137014.83 5592037.43  4181%  3050 56507s
 21049 14578 -137014.83  270  680 -137014.83 5591945.95  4181%  3050 56540s
 21050 14579 1473750.99  195  689 -137014.83 5591900.15  4181%  3050 56565s
 21051 14580 5591876.63   29  695 -137014.83 5591876.63  4181%  3050 56598s
 21052 14580 2683662.11  138  692 -137014.83 5591864.42  4181%  3050 56626s
 21053 14581 434840.165  193  676 -137014.83 5591486.82  4181%  3050 56660s
 21054 14582 1472138.50  197  678 -137014.83 5591415.21  4181%  3049 56686s
 21055 14582 1092736.41  371  670 -137014.83 5591119.29  4181%  3049 56713s
 21056 14583 2718860.70  105  693 -137014.83 5591073.75  4181%  3049 56739s
 21057 14584 4295829.00  157  685 -137014.83 5590995.57  4181%  3049 56771s
 21058 14584 3699304.13   36  692 -137014.83 5590708.62  4180%  3049 56797s
 21059 14585 4256478.31   54  682 -137014.83 5590562.57  4180%  3049 56857s
 21060 14586 -65908.977  419  682 -137014.83 5590536.31  4180%  3049 56883s
 21061 14586 5275062.64   29  682 -137014.83 5590498.28  4180%  3048 56913s
 21062 14587 5060208.67   76  684 -137014.83 5590462.31  4180%  3048 56940s
 21063 14588 963033.973  114  685 -137014.83 5590407.66  4180%  3048 56970s
 21064 14588 1958296.63  243  677 -137014.83 5590187.08  4180%  3048 56997s
 21065 14589 3461639.94  113  682 -137014.83 5590093.59  4180%  3048 57026s
 21066 14590 3046832.93  212  687 -137014.83 5589913.57  4180%  3048 57053s
 21067 14590 1835937.73  133  691 -137014.83 5589729.66  4180%  3048 57084s
 21068 14591 1151086.80  123  685 -137014.83 5589602.38  4180%  3047 57113s
 21069 14592 5093435.23   63  688 -137014.83 5589516.62  4179%  3047 57144s
 21070 14592 3162236.74  332  693 -137014.83 5589463.02  4179%  3047 57170s
 21071 14593 2673911.94  163  684 -137014.83 5589089.34  4179%  3047 57202s
 21072 14594 3135007.76   28  697 -137014.83 5589069.17  4179%  3047 57227s
 21073 14594 2756024.25   37  682 -137014.83 5588764.73  4179%  3047 57273s
 21074 14595 3504586.33   93  685 -137014.83 5588699.02  4179%  3047 57309s
 21075 14596 2671627.36  319  687 -137014.83 5588683.19  4179%  3046 57370s
 21076 14596 524534.807  169  694 -137014.83 5588626.82  4179%  3046 57397s
 21077 14597 251158.012  160  700 -137014.83 5588321.70  4179%  3046 57435s
 21078 14598 1029454.61  311  703 -137014.83 5588244.55  4179%  3046 57466s
 21079 14598 1047358.31  139  670 -137014.83 5583776.38  4175%  3046 57509s
 21080 14599 1643509.73  233  680 -137014.83 5567358.83  4163%  3046 57524s
 21081 14600 1142726.33   95  704 -137014.83 5564582.82  4161%  3046 57533s
 21082 14600 4833217.28   79  708 -137014.83 5563333.52  4160%  3045 57538s
 21083 14601 2486574.32   80  717 -137014.83 5562783.72  4160%  3045 57570s
 21084 14602 1629492.03   62  705 -137014.83 5561995.73  4159%  3045 57606s
 21085 14602 2470303.00   64  705 -137014.83 5561753.27  4159%  3045 57636s
 21086 14603 787836.919  503  681 -137014.83 5560200.72  4158%  3045 57674s
 21087 14604 2224316.91   96  681 -137014.83 5557299.35  4156%  3045 57678s
 21088 14604 1762837.64  248  697 -137014.83 5555907.41  4155%  3045 57683s
 21089 14605 1753110.40   47  700 -137014.83 5555506.54  4155%  3044 57713s
 21090 14606 2526251.09  247  685 -137014.83 5555131.06  4154%  3044 57749s
 21091 14606 5372266.81   56  701 -137014.83 5554727.07  4154%  3044 57782s
 21092 14607 706872.056  207  703 -137014.83 5554453.36  4154%  3044 57826s
 21093 14608 3057920.85   29  707 -137014.83 5554397.73  4154%  3044 57868s
 21094 14608 627243.302  148  701 -137014.83 5552176.87  4152%  3044 57903s
 21095 14609 3497005.69  106  707 -137014.83 5552101.50  4152%  3044 57930s
 21096 14610 353694.060  363  705 -137014.83 5551759.16  4152%  3043 57965s
 21097 14610 918266.796  277  709 -137014.83 5551463.19  4152%  3043 57996s
 21098 14611 3864905.32   92  697 -137014.83 5551349.04  4152%  3043 58028s
 21099 14612 5549773.62   26  699 -137014.83 5549773.62  4150%  3043 58032s
 21100 14612 1640008.31  326  696 -137014.83 5549653.53  4150%  3043 58059s
 21101 14613 1566894.80  265  697 -137014.83 5549558.16  4150%  3043 58126s
 21102 14614 4505260.89   84  693 -137014.83 5549511.21  4150%  3043 58160s
 21103 14614 1953850.87   88  708 -137014.83 5549416.01  4150%  3042 58204s
 21104 14615 1095960.86  277  710 -137014.83 5549365.00  4150%  3042 58243s
 21105 14616 3052622.83  201  709 -137014.83 5549251.66  4150%  3042 58285s
 21106 14616 2470303.00   64  712 -137014.83 5549170.43  4150%  3042 58355s
 21107 14617 1600671.13   64  709 -137014.83 5549068.67  4150%  3042 58396s
 21108 14618 2156461.61  257  709 -137014.83 5549068.67  4150%  3042 58698s
 21109 14621 5545215.88   26  689 -137014.83 5549068.10  4150%  3085 58929s
 21111 14625 5525134.50   27  681 -137014.83 5525134.50  4133%  3087 59116s
 21115 14627 5524940.45   28  673 -137014.83 5524940.45  4132%  3090 59201s
 21119 14630 4965391.91   28  489 -137014.83 5524931.27  4132%  3093 59382s
 21123 14633 5524425.76   29  678 -137014.83 5524890.12  4132%  3095 59448s
 21127 14634 4811939.51   29  643 -137014.83 5524425.54  4132%  3100 59678s
 21131 14637 5511040.01   30  615 -137014.83 5524409.46  4132%  3103 59723s
 21135 14642 5343198.42   30  626 -137014.83 5511021.52  4122%  3106 59839s
 21140 14640 5459603.84   31  596 -137014.83 5510915.87  4122%  3108 59965s
 21146 14643 5346733.58   31  584 -137014.83 5459603.04  4085%  3114 60027s
 21152 14649 5459575.83   32  595 -137014.83 5459575.83  4085%  3116 60171s
 21159 14653 5422393.79   33  577 -137014.83 5459570.22  4085%  3122 60318s
 21165 14655 5308483.46   33  582 -137014.83 5422393.51  4058%  3129 60430s
 21171 14662 5412972.01   34  574 -137014.83 5412972.01  4051%  3131 60534s
 21180 14669 5400139.44   35  619 -137014.83 5400139.44  4041%  3135 60671s
 21187 14673 5398429.41   36  573 -137014.83 5398429.41  4040%  3142 60797s
 21195 14670 5085407.93   37  566 -137014.83 5398399.04  4040%  3149 60886s
 21202 14683 5321280.72   37  553 -137014.83 5346731.76  4002%  3154 61018s
 21212 14690 4282455.63   38  501 -137014.83 5346731.76  4002%  3160 61127s
 21220 14691 5292294.61   39  536 -137014.83 5346731.76  4002%  3165 61305s
 21231 14702 5292294.61   40  535 -137014.83 5346731.76  4002%  3174 61446s
 21240 14706 5258018.94   41  546 -137014.83 5346731.76  4002%  3182 61570s
 21251 14714 5249596.05   42  552 -137014.83 5346731.76  4002%  3189 61738s
 21263 14721 5244251.22   43  541 -137014.83 5346731.76  4002%  3196 61901s
 21277 14734 5242993.33   44  529 -137014.83 5346731.76  4002%  3205 62074s
 21292 14740 5218209.44   46  564 -137014.83 5346731.76  4002%  3216 62239s
 21309 14753 5217281.53   47  541 -137014.83 5346731.76  4002%  3225 62420s
 21327 14764 5200177.75   48  504 -137014.83 5346731.76  4002%  3234 62608s
 21348 14780 5194913.35   49  529 -137014.83 5346731.76  4002%  3243 62776s
 21358 14784 5171563.87   50  510 -137014.83 5346731.76  4002%  3251 63167s
 21373 14797 5072460.81   51  473 -137014.83 5346731.76  4002%  3264 63387s
 21387 14803 4750868.98   53  438 -137014.83 5346731.76  4002%  3275 63599s
 21405 14817 4182567.58   54  459 -137014.83 5346731.76  4002%  3286 63801s
 21422 14827 3921586.84   55  422 -137014.83 5346731.76  4002%  3296 64021s
 21450 14849 3835510.30   57  368 -137014.83 5346731.76  4002%  3305 64244s
 21480 14870 3781494.68   59  393 -137014.83 5346731.76  4002%  3317 64444s
 21501 14878 3075593.69   61  324 -137014.83 5346731.76  4002%  3330 64661s
 21537 14904 2732926.92   63  276 -137014.83 5346731.76  4002%  3342 64869s
 21579 14931 3242168.94   66  356 -137014.83 5346731.76  4002%  3351 65090s
 21624 14956 3185139.92   69  355 -137014.83 5346731.76  4002%  3363 65317s
 21672 14989 2262839.39   72  262 -137014.83 5346731.76  4002%  3375 65537s
 21732 15026 757828.313   77  211 -137014.83 5346731.76  4002%  3388 65791s
 21796 15040 2107240.58   82  255 -137014.83 5346731.76  4002%  3400 66025s
 21856 15057 1998351.75   88  275 -137014.83 5346731.76  4002%  3409 66217s
 21896 15085 1827887.97   93  251 -137014.83 5346731.76  4002%  3425 66448s
 21939 15110 1849274.50  100  279 -137014.83 5346731.76  4002%  3440 66675s
 21983 15142 1218186.44  104  271 -137014.83 5346731.76  4002%  3456 66932s
 22034 15168 1756510.64  110  326 -137014.83 5346731.76  4002%  3472 67211s
 22074 15198 1731045.09  115  325 -137014.83 5346731.76  4002%  3489 67500s
 22146 15236 1502667.96  124  326 -137014.83 5346731.76  4002%  3503 67799s
H22198 14533                    -137014.6699 5346731.76  4002%  3518 67799s
 22205 14540     cutoff  130      -137014.67 5346731.76  4002%  3523 68109s
 22276 14574 1456170.87  139  281 -137014.67 5346731.76  4002%  3542 68453s
 22372 14635 1432918.66  146  286 -137014.67 5346731.76  4002%  3558 68904s
 22449 14676 -117642.99  151  302 -137014.67 5346731.76  4002%  3586 69226s
 22547 14730 1273031.49  159  309 -137014.67 5346731.76  4002%  3602 69564s
 22670 14790 1056475.76  167  274 -137014.67 5346731.76  4002%  3614 69903s
 22808 14862 974806.940  175  302 -137014.67 5346731.76  4002%  3628 70247s
 22901 14893 651828.173  188  295 -137014.67 5346731.76  4002%  3648 70609s
 23027 14969 597915.333  199  305 -137014.67 5346731.76  4002%  3664 70983s
 23173 15040 565878.422  212  292 -137014.67 5346731.76  4002%  3680 71384s
 23339 15100 546289.003  225  275 -137014.67 5346731.76  4002%  3695 71779s
 23535 15145 71205.1207  243  243 -137014.67 5346725.87  4002%  3707 72206s
 23800 15161 5245644.73   34  559 -137014.67 5346725.87  4002%  3707 72544s
 23932 15138 5108875.85   37  518 -137014.67 5346725.87  4002%  3715 72962s
 23988 15161 5022479.08   43  556 -137014.67 5346725.87  4002%  3731 73276s
 24042 15200 4800269.14   47  446 -137014.67 5346725.87  4002%  3753 73563s
 24211 15304 4428115.72   67  372 -137014.67 5346725.87  4002%  3760 73853s
 24505 15472 3998013.04   92  337 -137014.67 5346725.87  4002%  3750 74306s
 24661 15552 3630453.13  124  342 -137014.67 5346725.87  4002%  3759 74735s
 24792 15626 2873345.33  192  265 -137014.67 5346725.87  4002%  3775 75294s
 24964 15723 1682828.94  240  136 -137014.67 5289106.46  3960%  3790 75882s
 25089 15777 4868747.31   41  531 -137014.67 5289106.46  3960%  3806 76444s
 25244 15864 2439597.98   67  253 -137014.67 5271560.15  3947%  3822 77019s
 25491 16008 3853826.89   35  396 -137014.67 5270489.43  3947%  3824 77666s
 25616 16073 2932466.88   37  455 -137014.67 5270489.43  3947%  3849 78065s
 25729 16151 2426251.78   47  429 -137014.67 5270489.43  3947%  3877 78518s
 25991 16320 2134739.84   64  380 -137014.67 5270489.43  3947%  3882 79229s
 26246 16476 1825988.64   83  411 -137014.67 5270489.43  3947%  3893 79839s
 26509 16625 1698799.47  104  417 -137014.67 5270489.43  3947%  3903 80434s
 26766 16767 1449908.66  127  381 -137014.67 5270489.43  3947%  3920 81070s
 27078 16928 882509.179  153  417 -137014.67 5249956.94  3932%  3935 81700s
 27508 17084 4917673.21   39  531 -137014.67 5224878.11  3913%  3932 82383s
H27573 16419                    -137014.5194 5224878.11  3913%  3945 82383s
 27650 16460 4053530.22   44  411 -137014.52 5224878.11  3913%  3955 83042s
 28013 16668 695719.159   55  308 -137014.52 5221100.20  3911%  3959 83819s
 28306 16830 4000204.84   42  454 -137014.52 5202239.45  3897%  3974 84587s
 28449 16911 2657947.03   71  406 -137014.52 5202239.45  3897%  4010 85397s
 28650 17035 1443534.59  139  365 -137014.52 5193181.00  3890%  4051 86312s
 29054 17240 3037788.10   40  349 -137014.52 5176603.89  3878%  4066 86400s

Cutting planes:
  Gomory: 289
  Implied bound: 63
  Projected implied bound: 82
  MIR: 223
  Flow cover: 1230

Explored 29081 nodes (118433890 simplex iterations) in 86400.67 seconds
Thread count was 4 (of 16 available processors)

Solution count 10: -137015 -137015 -137015 ... -200993

Time limit reached
Warning: max constraint violation (1.5604e-05) exceeds tolerance
Best objective -1.370145191105e+05, best bound 5.176603889119e+06, gap 3878.1426%

***
***  |- Calculation finished, timelimit reached 86,400.69 (86400.69) sec.))
***  |-----------------------------------------------------------------------------------------------------------------------
***
*****************************************************************************************************************************
#############################################################################################################################
###
### Results
###
### The objective of the solution is -137,014.5191 (-137014.5191) and is feasible with a Gap of 38.7814
###
### Service 42 (SAMBA) is operated by 7 vessels from type 18 (PMax25)
###  |- Vessel  1 has the path [143, 4, 0]
###  |  143 (USMSY Out@238.0) - 4 (ARBUE In@920.0/Out@944.0) - 0 (DUMMY_END Ziel-Service 42)
###  |- Vessel  2 has the path [144, 66, 67, 80, 81, 47, 30, 8, 0]
###  |  144 (USMSY Out@406.0) - 66 (DEBRV In@665.0/Out@689.0) - 67 (DEBRV In@719.0/Out@743.0) - 80 (ESALG In@829.0/Out@853.0)
###  |   - 81 (ESALG In@943.0/Out@967.0) - 47 (BRSSZ In@1290.0/Out@1308.0) - 30 (BRPNG In@1338.0/Out@1359.0) - 8 (ARBUE In@14
###  |  24.0/Out@1448.0) - 0 (DUMMY_END Ziel-Service 42)
###  |   |- and carried Demand 143, 406.0 containers from  67 to  47
###  |   |- and carried Demand 146,  18.0 containers from  67 to   8
###  |   |- and carried Demand 151, 111.0 containers from  80 to  47
###  |   |- and carried Demand 152,  13.0 containers from  80 to  47
###  |   |- and carried Demand 153,  41.0 containers from  80 to  30
###  |   |- and carried Demand 154, 279.0 containers from  80 to   8
###  |   |- and carried Demand 155,  12.0 containers from  80 to   8
###  |   |- and carried Demand 159, 194.0 containers from  80 to   8
###  |   |- and carried Demand 160,   2.0 containers from  80 to   8
###  |   |- and carried Demand 377, 111.0 containers from  81 to  47
###  |   |- and carried Demand 378,  13.0 containers from  81 to  47
###  |   |- and carried Demand 379,  41.0 containers from  81 to  30
###  |   |- and carried Demand 380, 279.0 containers from  81 to   8
###  |   |- and carried Demand 381,  12.0 containers from  81 to   8
###  |   |- and carried Demand 385, 194.0 containers from  81 to   8
###  |   |- and carried Demand 386,   2.0 containers from  81 to   8
###  |   |- and carried Demand 446, 406.0 containers from  66 to  47
###  |   |- and carried Demand 449,  18.0 containers from  66 to   8
###  |- Vessel  3 has the path [145, 79, 82, 83, 85, 86, 87, 88, 52, 33, 12, 0]
###  |  145 (USMSY Out@574.0) - 79 (ESALG In@775.0/Out@799.0) - 82 (ESALG In@1045.0/Out@1075.0) - 83 (ESALG In@1111.0/Out@113
###  |  5.0) - 85 (ESALG In@1213.0/Out@1243.0) - 86 (ESALG In@1279.0/Out@1303.0) - 87 (ESALG In@1381.0/Out@1411.0) - 88 (ESAL
###  |  G In@1447.0/Out@1471.0) - 52 (BRSSZ In@1794.0/Out@1812.0) - 33 (BRPNG In@1842.0/Out@1863.0) - 12 (ARBUE In@1928.0/Out
###  |  @1952.0) - 0 (DUMMY_END Ziel-Service 42)
###  |   |- and carried Demand   7, 200.0 containers from  82 to  12
###  |   |- and carried Demand  15,  14.0 containers from  85 to  52
###  |   |- and carried Demand  17,  25.0 containers from  85 to  12
###  |   |- and carried Demand  24,  16.0 containers from  85 to  12
###  |   |- and carried Demand  26, 125.0 containers from  87 to  52
###  |   |- and carried Demand  27,  10.0 containers from  87 to  52
###  |   |- and carried Demand  28,   4.0 containers from  87 to  33
###  |   |- and carried Demand  30, 224.0 containers from  87 to  12
###  |   |- and carried Demand  31,  58.0 containers from  87 to  12
###  |   |- and carried Demand  32,   5.0 containers from  87 to  12
###  |   |- and carried Demand  33, 159.0 containers from  87 to  12
###  |   |- and carried Demand 172, 166.0 containers from  33 to  12
###  |   |- and carried Demand 173, 125.0 containers from  88 to  52
###  |   |- and carried Demand 174,  10.0 containers from  88 to  52
###  |   |- and carried Demand 175,   4.0 containers from  88 to  33
###  |   |- and carried Demand 177, 224.0 containers from  88 to  12
###  |   |- and carried Demand 178,  58.0 containers from  88 to  12
###  |   |- and carried Demand 179,   5.0 containers from  88 to  12
###  |   |- and carried Demand 180, 159.0 containers from  88 to  12
###  |   |- and carried Demand 244,  14.0 containers from  86 to  52
###  |   |- and carried Demand 246,  25.0 containers from  86 to  12
###  |   |- and carried Demand 253,  16.0 containers from  86 to  12
###  |   |- and carried Demand 322, 200.0 containers from  83 to  12
###  |   |- and carried Demand 441, 488.0 containers from  79 to  12
###  |   |- and carried Demand 442,   5.0 containers from  79 to  12
###  |- Vessel  4 has the path [146, 6, 0]
###  |  146 (USMSY Out@742.0) - 6 (ARBUE In@1256.0/Out@1280.0) - 0 (DUMMY_END Ziel-Service 42)
###  |- Vessel  5 has the path [147, 9, 0]
###  |  147 (USMSY Out@910.0) - 9 (ARBUE In@1592.0/Out@1616.0) - 0 (DUMMY_END Ziel-Service 42)
###  |- Vessel  6 has the path [148, 10, 0]
###  |  148 (USMSY Out@1078.0) - 10 (ARBUE In@1760.0/Out@1784.0) - 0 (DUMMY_END Ziel-Service 42)
###  |- Vessel  8 has the path [72, 65, 77, 78, 5, 0]
###  |  72 (DEHAM Out@276.0) - 65 (DEBRV In@497.0/Out@521.0) - 77 (ESALG In@607.0/Out@631.0) - 78 (ESALG In@613.0/Out@658.0) 
###  |  - 5 (ARBUE In@1088.0/Out@1112.0) - 0 (DUMMY_END Ziel-Service 42)
###  |   |- and carried Demand  98, 392.0 containers from  78 to   5
###  |   |- and carried Demand  99,  13.0 containers from  78 to   5
###  |   |- and carried Demand 490, 392.0 containers from  77 to   5
###  |   |- and carried Demand 491,  13.0 containers from  77 to   5
###  |   |- and carried Demand 494,  59.0 containers from  77 to   5
###  |   |- and carried Demand 495,   6.0 containers from  77 to   5
###  |   |- and carried Demand 496, 126.0 containers from  77 to   5
###  |   |- and carried Demand 499, 256.0 containers from  65 to  77
###  |   |- and carried Demand 503,   3.0 containers from  65 to   5
###  |
### Vessels not used in the solution: [7, 9, 10, 11, 12]
###  |-----------------------------------------------------------------------------------------------------------------------
###
#############################################################################################################################

### Detialed variable overview

### All variables with value greater zero:
rho[42,18] = 1
eta[42,18,1] = 1
eta[42,18,2] = 1
eta[42,18,3] = 1
eta[42,18,4] = 1
eta[42,18,5] = 1
eta[42,18,6] = 1
eta[42,18,7] = 1
y[1,4,0] = 1
y[1,143,4] = 1
y[2,67,80] = 1
y[2,66,67] = 1
y[2,80,81] = 1
y[2,81,47] = 1
y[2,8,0] = 1
y[2,144,66] = 1
y[2,47,30] = 1
y[2,30,8] = 1
y[3,79,82] = 1
y[3,88,52] = 1
y[3,52,33] = 1
y[3,33,12] = 1
y[3,85,86] = 1
y[3,145,79] = 1
y[3,86,87] = 1
y[3,12,0] = 1
y[3,83,85] = 1
y[3,87,88] = 1
y[3,82,83] = 1
y[4,6,0] = 1
y[4,146,6] = 1
y[5,9,0] = 1
y[5,147,9] = 1
y[6,148,10] = 1
y[6,10,0] = 1
y[8,77,78] = 1
y[8,65,77] = 1
y[8,5,0] = 1
y[8,72,65] = 1
y[8,78,5] = 1
xD[7,88,52] = 200
xD[7,52,33] = 200
xD[7,33,12] = 200
xD[7,85,86] = 200
xD[7,86,87] = 200
xD[7,83,85] = 200
xD[7,87,88] = 200
xD[7,82,83] = 200
xD[15,88,52] = 14
xD[15,85,86] = 14
xD[15,86,87] = 14
xD[15,87,88] = 14
xD[17,88,52] = 24.9996
xD[17,52,33] = 24.9996
xD[17,33,12] = 24.9996
xD[17,85,86] = 25
xD[17,86,87] = 25
xD[17,87,88] = 25
xD[24,88,52] = 16
xD[24,52,33] = 16
xD[24,33,12] = 16
xD[24,85,86] = 16
xD[24,86,87] = 16
xD[24,87,88] = 16
xD[26,88,52] = 125
xD[26,87,88] = 125
xD[27,88,52] = 10
xD[27,87,88] = 10
xD[28,88,52] = 4
xD[28,52,33] = 4
xD[28,87,88] = 4
xD[30,88,52] = 224
xD[30,52,33] = 224
xD[30,33,12] = 224
xD[30,87,88] = 224
xD[31,88,52] = 58
xD[31,52,33] = 58
xD[31,33,12] = 58
xD[31,87,88] = 58
xD[32,88,52] = 5
xD[32,52,33] = 5
xD[32,33,12] = 5
xD[32,87,88] = 5
xD[33,88,52] = 159
xD[33,52,33] = 159
xD[33,33,12] = 159
xD[33,87,88] = 159
xD[98,78,5] = 392
xD[99,78,5] = 13
xD[143,67,80] = 406
xD[143,80,81] = 406
xD[143,81,47] = 406
xD[146,67,80] = 18
xD[146,80,81] = 18
xD[146,81,47] = 18
xD[146,47,30] = 18
xD[146,30,8] = 18
xD[151,80,81] = 111
xD[151,81,47] = 111
xD[152,80,81] = 13
xD[152,81,47] = 13
xD[153,80,81] = 41
xD[153,81,47] = 41
xD[153,47,30] = 41
xD[154,80,81] = 279
xD[154,81,47] = 279
xD[154,47,30] = 279
xD[154,30,8] = 279
xD[155,80,81] = 12
xD[155,81,47] = 12
xD[155,47,30] = 12
xD[155,30,8] = 12
xD[159,80,81] = 194
xD[159,81,47] = 194
xD[159,47,30] = 194
xD[159,30,8] = 194
xD[160,80,81] = 2
xD[160,81,47] = 2
xD[160,47,30] = 2
xD[160,30,8] = 2
xD[172,33,12] = 166
xD[173,88,52] = 125
xD[174,88,52] = 10
xD[175,88,52] = 4
xD[175,52,33] = 4
xD[177,88,52] = 224
xD[177,52,33] = 224
xD[177,33,12] = 224
xD[178,88,52] = 58
xD[178,52,33] = 58
xD[178,33,12] = 58
xD[179,88,52] = 5
xD[179,52,33] = 5
xD[179,33,12] = 5
xD[180,88,52] = 159
xD[180,52,33] = 159
xD[180,33,12] = 159
xD[244,88,52] = 14
xD[244,86,87] = 14
xD[244,87,88] = 14
xD[246,88,52] = 25
xD[246,52,33] = 25
xD[246,33,12] = 25
xD[246,86,87] = 25
xD[246,87,88] = 25
xD[253,88,52] = 16
xD[253,52,33] = 16
xD[253,33,12] = 16
xD[253,86,87] = 16
xD[253,87,88] = 16
xD[322,88,52] = 200
xD[322,52,33] = 200
xD[322,33,12] = 200
xD[322,85,86] = 200
xD[322,86,87] = 200
xD[322,83,85] = 200
xD[322,87,88] = 200
xD[377,81,47] = 111
xD[378,81,47] = 13
xD[379,81,47] = 41
xD[379,47,30] = 41
xD[380,81,47] = 279
xD[380,47,30] = 279
xD[380,30,8] = 279
xD[381,81,47] = 12
xD[381,47,30] = 12
xD[381,30,8] = 12
xD[385,81,47] = 194
xD[385,47,30] = 194
xD[385,30,8] = 194
xD[386,81,47] = 2
xD[386,47,30] = 2
xD[386,30,8] = 2
xD[441,79,82] = 488
xD[441,88,52] = 488
xD[441,52,33] = 488
xD[441,33,12] = 488
xD[441,85,86] = 488
xD[441,86,87] = 488
xD[441,83,85] = 488
xD[441,87,88] = 488
xD[441,82,83] = 488
xD[442,79,82] = 5
xD[442,88,52] = 5
xD[442,52,33] = 5
xD[442,33,12] = 5
xD[442,85,86] = 5
xD[442,86,87] = 5
xD[442,83,85] = 5
xD[442,87,88] = 5
xD[442,82,83] = 5
xD[446,67,80] = 406
xD[446,66,67] = 406
xD[446,80,81] = 406
xD[446,81,47] = 406
xD[449,67,80] = 18
xD[449,66,67] = 18
xD[449,80,81] = 18
xD[449,81,47] = 18
xD[449,47,30] = 18
xD[449,30,8] = 18
xD[490,77,78] = 392
xD[490,78,5] = 392
xD[491,77,78] = 13
xD[491,78,5] = 13
xD[494,77,78] = 59
xD[494,78,5] = 59
xD[495,77,78] = 6
xD[495,78,5] = 6
xD[496,77,78] = 126
xD[496,78,5] = 126
xD[499,65,77] = 256
xD[503,77,78] = 3
xD[503,65,77] = 3
xD[503,78,5] = 3
zE[4] = 920
zE[5] = 1088
zE[6] = 1256
zE[8] = 1424
zE[9] = 1592
zE[10] = 1760
zE[12] = 1928
zE[30] = 1338
zE[33] = 1842
zE[47] = 1290
zE[52] = 1794
zE[65] = 497
zE[66] = 665
zE[67] = 719
zE[77] = 607
zE[78] = 613
zE[79] = 775
zE[80] = 829
zE[81] = 943
zE[82] = 1045
zE[83] = 1111
zE[85] = 1213
zE[86] = 1279
zE[87] = 1381
zE[88] = 1447
zX[4] = 944
zX[5] = 1112
zX[6] = 1280
zX[8] = 1448
zX[9] = 1616
zX[10] = 1784
zX[12] = 1952
zX[30] = 1359
zX[33] = 1863
zX[47] = 1308
zX[52] = 1812
zX[65] = 521
zX[66] = 689
zX[67] = 743
zX[72] = 276
zX[77] = 631
zX[78] = 658
zX[79] = 799
zX[80] = 853
zX[81] = 967
zX[82] = 1075
zX[83] = 1135
zX[85] = 1243
zX[86] = 1303
zX[87] = 1411
zX[88] = 1471
zX[143] = 238
zX[144] = 406
zX[145] = 574
zX[146] = 742
zX[147] = 910
zX[148] = 1078
phi[1] = 706
phi[2] = 1042
phi[3] = 1378
phi[4] = 538
phi[5] = 706
phi[6] = 706
phi[8] = 836

### All variables with value smaller zero:

### End

real	1441m2.321s
user	5438m39.344s
sys	313m3.525s
	Freetype 2.4.12 environment removed
	Python 3.6.0 environment removed
	Gurobi 8.1.0 environment removed
