	Freetype 2.4.12 environment established
		library to render fonts
	Python 3.6.0 environment established
	Gurobi 8.1.0 environment established
Instance LSFRP: LSFDRP_5_3_1_1_fr.p
Instance LSFDP: LSFDRP_5_3_1_1_fd_16.p

*****************************************************************************************************************************
*** Solve LSFDRP_5_3_1_1_fd_16 with Gurobi
***
*** Graph info
*** |S|: 12
*** |S^E|: 0
*** |S^C|: 4
*** |V|: 162
*** |A|: 2732
*** |A^i|: 2732
*** |A^f|: 0
*** |M|: 532
*** |E|: 0

Changed value of parameter TimeLimit to 86400.0
   Prev: 1e+100  Min: 0.0  Max: 1e+100  Default: 1e+100
Changed value of parameter Threads to 4
   Prev: 0  Min: 0  Max: 1024  Default: 0
Optimize a model with 94319 rows, 1492000 columns and 5261875 nonzeros
Variable types: 1459208 continuous, 32792 integer (32792 binary)
Coefficient statistics:
  Matrix range     [1e+00, 3e+03]
  Objective range  [2e+00, 1e+07]
  Bounds range     [1e+00, 1e+00]
  RHS range        [1e+00, 7e+00]
Presolve removed 84889 rows and 1436562 columns (presolve time = 5s) ...
Presolve removed 84889 rows and 1440714 columns (presolve time = 30s) ...
Presolve removed 84971 rows and 1440743 columns (presolve time = 30s) ...
Warning: Failed to open log file 'gurobi.log'
Presolve removed 84976 rows and 1440747 columns
Presolve time: 33.49s
Presolved: 9343 rows, 51253 columns, 285169 nonzeros
Variable types: 22752 continuous, 28501 integer (28486 binary)

Root simplex log...

Iteration    Objective       Primal Inf.    Dual Inf.      Time
       0    5.4601468e+09   1.336409e+06   0.000000e+00     35s
    8885    3.3347213e+08   2.818885e+05   0.000000e+00     35s
   31328    3.8420295e+07   1.080023e+06   0.000000e+00     40s
   42333    2.6517318e+07   1.954923e+06   0.000000e+00     45s
   49780    2.2724676e+07   3.004640e+05   0.000000e+00     50s
   58974    2.0907016e+07   7.760035e+05   0.000000e+00     55s
   65505    1.6853804e+07   6.227947e+05   0.000000e+00     60s
   72708    1.5950494e+07   3.284239e+06   0.000000e+00     65s
   80521    1.5295225e+07   3.466771e+06   0.000000e+00     70s
   86979    1.4789898e+07   3.181190e+06   0.000000e+00     75s
   93566    1.4165121e+07   6.320250e+06   0.000000e+00     80s
  100254    1.3632162e+07   2.801028e+06   0.000000e+00     85s
  107259    1.2513012e+07   1.862860e+06   0.000000e+00     90s
  112739    1.1861861e+07   2.062913e+06   0.000000e+00     95s
  117104    1.1380897e+07   7.458154e+05   0.000000e+00    100s
  121984    1.0757547e+07   1.240078e+06   0.000000e+00    105s
  127045    1.0594554e+07   6.525434e+05   0.000000e+00    110s
  132579    1.0300040e+07   2.998943e+05   0.000000e+00    115s
  137815    9.9638835e+06   2.272146e+05   0.000000e+00    120s
  143358    9.6782275e+06   3.625049e+05   0.000000e+00    125s
  148772    9.2773852e+06   3.278572e+05   0.000000e+00    130s
  153259    9.1403464e+06   3.737039e+06   0.000000e+00    135s
  157358    9.0553757e+06   8.888961e+04   0.000000e+00    140s
  161499    8.9315636e+06   6.927572e+04   0.000000e+00    145s
  165209    8.9019967e+06   1.777550e+04   0.000000e+00    150s
  168589    8.8936500e+06   6.590776e-01   0.000000e+00    155s
  168925    8.8936358e+06   0.000000e+00   0.000000e+00    155s

Root relaxation: objective 8.893636e+06, 168925 iterations, 120.68 seconds

    Nodes    |    Current Node    |     Objective Bounds      |     Work
 Expl Unexpl |  Obj  Depth IntInf | Incumbent    BestBd   Gap | It/Node Time

     0     0 8893635.78    0  432          - 8893635.78      -     -  156s
H    0     0                    -2717478.665 8893635.78   427%     -  158s
H    0     0                    -1926962.773 8893635.78   562%     -  168s
     0     0 8586097.68    0  433 -1926962.8 8586097.68   546%     -  190s
H    0     0                    -1852369.217 8586097.68   564%     -  200s
     0     0 8546239.19    0  425 -1852369.2 8546239.19   561%     -  214s
     0     0 8546002.79    0  427 -1852369.2 8546002.79   561%     -  215s
     0     0 8545768.50    0  418 -1852369.2 8545768.50   561%     -  216s
     0     0 8545768.50    0  418 -1852369.2 8545768.50   561%     -  216s
     0     0 8463971.75    0  436 -1852369.2 8463971.75   557%     -  233s
H    0     0                    -1767528.204 8463971.75   579%     -  269s
     0     0 8461974.17    0  435 -1767528.2 8461974.17   579%     -  271s
     0     0 8461500.79    0  431 -1767528.2 8461500.79   579%     -  272s
     0     0 8461405.03    0  438 -1767528.2 8461405.03   579%     -  273s
     0     0 8461334.59    0  438 -1767528.2 8461334.59   579%     -  274s
     0     0 8454452.02    0  454 -1767528.2 8454452.02   578%     -  279s
     0     0 8452530.58    0  459 -1767528.2 8452530.58   578%     -  282s
     0     0 8452436.72    0  459 -1767528.2 8452436.72   578%     -  283s
     0     0 8437863.16    0  445 -1767528.2 8437863.16   577%     -  287s
     0     0 8437611.89    0  469 -1767528.2 8437611.89   577%     -  290s
     0     0 8437555.91    0  463 -1767528.2 8437555.91   577%     -  290s
     0     0 8422321.13    0  444 -1767528.2 8422321.13   577%     -  293s
     0     0 8422106.57    0  447 -1767528.2 8422106.57   576%     -  296s
     0     0 8421722.53    0  449 -1767528.2 8421722.53   576%     -  297s
     0     0 8421704.55    0  452 -1767528.2 8421704.55   576%     -  298s
     0     0 8420867.69    0  457 -1767528.2 8420867.69   576%     -  299s
     0     0 8420669.92    0  458 -1767528.2 8420669.92   576%     -  302s
     0     0 8420307.60    0  455 -1767528.2 8420307.60   576%     -  303s
     0     0 8420222.42    0  455 -1767528.2 8420222.42   576%     -  303s
     0     0 8420155.66    0  462 -1767528.2 8420155.66   576%     -  304s
     0     0 8420111.27    0  464 -1767528.2 8420111.27   576%     -  307s
     0     0 8420036.99    0  461 -1767528.2 8420036.99   576%     -  308s
     0     0 8419344.31    0  463 -1767528.2 8419344.31   576%     -  310s
     0     0 8419344.31    0  463 -1767528.2 8419344.31   576%     -  311s
     0     0 8419269.64    0  471 -1767528.2 8419269.64   576%     -  312s
     0     0 8419269.64    0  469 -1767528.2 8419269.64   576%     -  354s
     0     2 8419269.64    0  467 -1767528.2 8419269.64   576%     -  407s
     1     4 8417688.47    1  461 -1767528.2 8417688.47   576%   637  472s
     3     8 8399642.41    2  477 -1767528.2 8399642.41   575% 11948  513s
     7    12 8381275.48    3  466 -1767528.2 8381275.48   574% 10678  556s
    11    16 8370546.01    4  483 -1767528.2 8381215.44   574% 10078  588s
    15    18 8314815.48    5  488 -1767528.2 8381215.44   574%  9198  599s
    19    20 8314697.05    6  478 -1767528.2 8381215.44   574%  7671  609s
    23    24 8309603.10    7  488 -1767528.2 8381215.44   574%  6934  639s
H   27    27                    -1058002.967 8381215.44   892%  7009  674s
    31    31 8306346.46    9  478 -1058003.0 8381215.44   892%  6605  680s
    37    39 8109457.40   10  438 -1058003.0 8381215.44   892%  6140  707s
    43    46 8299055.38   11  470 -1058003.0 8381215.44   892%  5639  762s
    49    49 8290387.58   12  479 -1058003.0 8381215.44   892%  6560  781s
    55    57 8048614.98   14  451 -1058003.0 8381215.44   892%  6697  815s
H   61    63                    -1058002.965 8381215.44   892%  6307  857s
    65    65 8236318.58   15  491 -1058003.0 8381215.44   892%  6444  927s
    70    71 8149253.56   16  479 -1058003.0 8381215.44   892%  6990  946s
    74    76 8144659.33   16  448 -1058003.0 8381215.44   892%  7171  970s
    81    83 8140311.10   17  457 -1058003.0 8381215.44   892%  6925  984s
    85    82 8119377.29   18  457 -1058003.0 8381215.44   892%  6841  995s
    94    96 8074344.75   20  440 -1058003.0 8381215.44   892%  6450 1017s
H   97    99                    -992115.3704 8381215.44   945%  6351 1017s
    98   100 8089997.44   20  439 -992115.37 8381215.44   945%  6412 1045s
   109   108 8070914.48   22  452 -992115.37 8381215.44   945%  6124 1068s
   123   125 8040830.52   26  474 -992115.37 8381215.44   945%  5761 1089s
H  127   128                    -676109.5235 8381215.44  1340%  5673 1089s
   133   134 7132139.28   28  444 -676109.52 8381215.44  1340%  5772 1138s
   144   144 8012209.92   29  453 -676109.52 8381215.44  1340%  5696 1188s
   164   166 7994091.78   34  459 -676109.52 8381215.44  1340%  5381 1216s
H  170   172                    -522732.9695 8381215.44  1703%  5283 1216s
   175   174 7972496.18   39  445 -522732.97 8381215.44  1703%  5248 1238s
   193   196 7869471.60   44  474 -522732.97 8381215.44  1703%  4977 1280s
   207   211 7301314.83   48  421 -522732.97 8381215.44  1703%  4988 1335s
H  217   220                    -522732.9694 8381215.44  1703%  4854 1335s
H  219   221                    -522732.9684 8381215.44  1703%  4893 1335s
   220   221 7788313.87   49  464 -522732.97 8381215.44  1703%  4975 1391s
   234   238 7435091.13   50  442 -522732.97 8381215.44  1703%  4995 1424s
   243   241 7087715.63   51  422 -522732.97 8381215.44  1703%  5059 1470s
   254   257 6948023.49   52  413 -522732.97 8381215.44  1703%  5105 1509s
   266   263 6865061.42   56  429 -522732.97 8381215.44  1703%  5094 1580s
   284   282 6789123.11   57  391 -522732.97 8381215.44  1703%  5034 1618s
   305   309 6618085.25   63  393 -522732.97 8381215.44  1703%  4920 1661s
H  307   310                    -308626.5693 8381215.44  2816%  4897 1661s
   314   316 5997617.68   64  294 -308626.57 8381215.44  2816%  4964 1707s
   340   341 6064149.53   68  278 -308626.57 8381215.44  2816%  4825 1756s
H  349   349                    -308626.5690 8381215.44  2816%  4774 1756s
   359   359 5942786.00   70  361 -308626.57 8381215.44  2816%  4821 1809s
   372   372 6054692.34   70  354 -308626.57 8381215.44  2816%  4876 1904s
H  390   394                    -308626.5671 8381215.44  2816%  4822 1959s
   411   410 5772814.09   80  344 -308626.57 8381215.44  2816%  4884 2024s
   448   451 5843295.59   83  342 -308626.57 8381215.44  2816%  4723 2090s
   473   471 5691297.12   85  326 -308626.57 8381215.44  2816%  4736 2154s
H  514   515                    -37511.56883 8381215.44      -  4578 2216s
   554   553 5542472.23  102  311 -37511.569 8381215.44      -  4460 2285s
   618   617 5335567.54  116  327 -37511.569 8381215.44      -  4202 2345s
   687   689 5218605.17  134  313 -37511.569 8381215.44      -  3976 2406s
H  688   689                    3579.6822290 8381215.44      -  3970 2406s
H  691   691                    3579.6822578 8381215.44      -  3978 2406s
H  727   725                    3579.6823399 8381215.44      -  3864 2407s
   728   725 5078559.45  136  328 3579.68234 8381215.44      -  3860 2468s
H  737   725                    3579.6833629 8381215.44      -  3822 2468s
   798   790 4911940.08  148  329 3579.68336 8381215.44      -  3681 2555s
   884   870 4579294.15  154  307 3579.68336 8381215.44      -  3483 2615s
H  906   888                    119430.09011 8381215.44  6918%  3536 2615s
   910   891 4541931.16  165  316 119430.090 8381215.44  6918%  3547 2692s
  1001   983 4341216.73  186  289 119430.090 8381215.44  6918%  3396 2763s
H 1004   986                    119430.09027 8381215.44  6918%  3396 2763s
H 1005   986                    119430.09047 8381215.44  6918%  3418 2763s
  1030  1002 4400087.20  188  331 119430.090 8381215.44  6918%  3400 2847s
H 1080  1025                    119430.09072 8381215.44  6918%  3367 2847s
  1118  1082 3451233.61  207  215 119430.091 8381215.44  6918%  3308 2939s
H 1161  1098                    329901.77309 8381215.44  2441%  3271 2939s
  1172  1126 4023090.59  222  237 329901.773 8381215.44  2441%  3285 3005s
H 1244  1181                    329901.77356 8381215.44  2441%  3158 3005s
  1295  1249 1911712.09  271  184 329901.774 8381215.44  2441%  3097 3064s
H 1343  1294                    329901.77368 8381215.44  2441%  3044 3064s
  1419  1356 2811601.57  310  197 329901.774 8381215.44  2441%  2950 3129s
H 1434  1356                    329901.77412 8381215.44  2441%  2928 3129s
H 1583  1514                    329901.77440 8381215.44  2441%  2724 3196s
  1700  1623 2141874.07  456  181 329901.774 8381215.44  2441%  2624 3263s
  1827  1744 1319258.79  537  129 329901.774 8381215.44  2441%  2526 3340s
H 1848  1742                    374152.64608 8381215.44  2140%  2500 3340s
  1979  1871 infeasible  623      374152.646 8314815.48  2122%  2412 3415s
H 2023  1912                    374152.64640 8314815.48  2122%  2434 3453s
  2024  1913 928476.723  110  469 374152.646 8314815.48  2122%  2433 3620s
  2026  1914 1480775.42  275  416 374152.646 8314815.48  2122%  2430 3753s
  2027  1915 5997533.36   65  417 374152.646 8314815.48  2122%  2429 3790s
  2028  1916 943591.194  103  440 374152.646 8314815.48  2122%  2428 3822s
  2029  1916 2819331.74   84  440 374152.646 8314815.48  2122%  2427 3829s
  2030  1917 7728164.19   27  462 374152.646 8314815.48  2122%  2426 3835s
  2032  1918 4691113.82   13  446 374152.646 8314815.48  2122%  2423 3842s
  2033  1919 6541283.87   32  452 374152.646 8314815.48  2122%  2422 3849s
  2034  1920 3447265.23   44  486 374152.646 8293626.82  2117%  2421 3888s
  2035  1920 5965099.21   68  480 374152.646 8267974.99  2110%  2420 3902s
  2036  1921 7631719.39    9  512 374152.646 8260841.60  2108%  2418 3911s
  2037  1922 969969.313  402  517 374152.646 8255347.87  2106%  2417 3917s
  2038  1922 625292.347  138  531 374152.646 8253420.09  2106%  2416 3920s
  2039  1923 1049043.89  555  540 374152.646 8249460.38  2105%  2415 3928s
  2040  1924 3704485.95  205  527 374152.646 8248064.49  2104%  2414 3931s
  2041  1924 2015281.89  483  527 374152.646 8247738.77  2104%  2412 3936s
  2042  1925 3132736.89  231  518 374152.646 8214566.62  2096%  2411 3962s
  2043  1926 1169253.89  218  541 374152.646 8210226.45  2094%  2410 3970s
  2044  1926 1060641.48  554  540 374152.646 8206018.21  2093%  2409 3977s
  2045  1927 996543.525  503  535 374152.646 8204410.92  2093%  2408 3981s
  2046  1928 946594.839  409  547 374152.646 8200597.08  2092%  2407 3986s
  2048  1929 1148421.58  577  550 374152.646 8196901.70  2091%  2404 3994s
  2049  1930 3952100.68   59  554 374152.646 8196219.27  2091%  2403 3995s
  2050  1930 867049.634  596  578 374152.646 8195831.61  2091%  2402 4000s
H 2050  1833                    374152.64685 8182436.95  2087%  2402 4022s
  2052  1835 3389704.99   53  582 374152.647 8179505.83  2086%  2400 4026s
  2053  1835 4495359.44   41  597 374152.647 8160067.21  2081%  2398 4030s
  2056  1837 5821425.93  100  590 374152.647 8157804.61  2080%  2395 4036s
  2058  1839 411983.074  416  598 374152.647 8155184.99  2080%  2393 4043s
  2059  1839 6282612.26   87  598 374152.647 8152804.64  2079%  2391 4046s
  2060  1840 3470100.63  275  615 374152.647 8152495.35  2079%  2390 4050s
  2061  1841 1978899.19  488  616 374152.647 8129839.35  2073%  2389 4072s
  2062  1841 625903.888  464  590 374152.647 8123582.85  2071%  2388 4081s
  2063  1842 1092839.78   56  605 374152.647 8122039.80  2071%  2387 4086s
  2064  1843 5316455.28  124  600 374152.647 8118345.77  2070%  2386 4095s
  2066  1844 7212406.59   60  622 374152.647 8116244.51  2069%  2383 4102s
  2067  1845 4463568.65  183  596 374152.647 8111524.35  2068%  2382 4128s
  2068  1845 4054922.35  216  618 374152.647 8105595.37  2066%  2381 4136s
  2069  1846 943591.194  103  592 374152.647 8103762.16  2066%  2380 4141s
  2070  1847 2454491.55  243  621 374152.647 8103249.44  2066%  2379 4146s
H 2070  1753                    374152.64700 8099435.69  2065%  2379 4169s
  2072  1754 1307550.64  196  622 374152.647 8097674.92  2064%  2376 4199s
  2073  1755 7796607.62   45  628 374152.647 8096571.80  2064%  2375 4204s
  2074  1755 2116721.51  371  618 374152.647 8093452.21  2063%  2374 4208s
  2075  1756 1042787.42  370  643 374152.647 8092427.16  2063%  2373 4211s
  2077  1757 2478652.80   67  642 374152.647 8086247.48  2061%  2371 4236s
  2078  1758 7204072.13   45  645 374152.647 8084249.28  2061%  2369 4242s
  2079  1759 983113.701  581  675 374152.647 8082667.31  2060%  2368 4246s
  2080  1759 5383256.30  110  663 374152.647 8081798.10  2060%  2367 4250s
  2082  1761 7672670.95    4  666 374152.647 8075059.44  2058%  2365 4321s
  2083  1761 7649339.93    7  676 374152.647 8070808.26  2057%  2364 4325s
  2084  1762 2257357.39  429  659 374152.647 8061939.29  2055%  2363 4334s
  2085  1763 1208217.10  344  651 374152.647 8059327.17  2054%  2362 4339s
  2086  1763 3199008.95  303  667 374152.647 8058778.24  2054%  2360 4341s
  2087  1764 1461034.29  285  687 374152.647 8058284.53  2054%  2359 4346s
  2088  1765 1292019.37  311  685 374152.647 8043186.69  2050%  2358 4367s
  2089  1765 3741530.40  197  679 374152.647 8039877.57  2049%  2357 4373s
  2090  1766 2774569.81  321  685 374152.647 8035413.41  2048%  2356 4380s
  2092  1767 610942.599  472  688 374152.647 8033989.85  2047%  2354 4389s
  2093  1768 448844.631  484  688 374152.647 8032148.81  2047%  2353 4397s
  2094  1769 1310596.44  301  699 374152.647 8031361.88  2047%  2351 4400s
  2096  1770 1760005.95  138  689 374152.647 8028893.45  2046%  2349 4406s
  2097  1771 1345146.84  190  692 374152.647 8028203.19  2046%  2348 4410s
  2099  1772 6396723.65   38  679 374152.647 8027101.06  2045%  2346 4431s
  2101  1773 2218251.35  439  669 374152.647 8025657.90  2045%  2344 4436s
  2102  1774 376318.191  465  659 374152.647 8025251.70  2045%  2342 4443s
  2103  1775 2606604.12   89  654 374152.647 8022388.61  2044%  2341 4512s
  2104  1775 2292604.42  413  651 374152.647 8022388.61  2044%  2340 4515s
  2105  1776 1016333.74  349  651 374152.647 8022388.61  2044%  2339 4539s
  2106  1780 8004750.13   10  613 374152.647 8017572.88  2043%  2527 4817s
  2108  1783 7981736.50   11  600 374152.647 7981736.50  2033%  2535 4980s
  2112  1786 7978678.17   12  597 374152.647 7978678.17  2032%  2553 5166s
  2116  1788 5853407.89   12  437 374152.647 7978213.65  2032%  2586 5369s
  2120  1791 7976261.15   13  604 374152.647 7976261.15  2032%  2622 5405s
  2124  1794 6450260.56   13  513 374152.647 7976249.43  2032%  2638 5548s
  2128  1796 7957780.44   14  636 374152.647 7976249.43  2032%  2661 5642s
  2133  1799 7757970.53   14  540 374152.647 7957733.66  2027%  2696 5742s
H 2135  1708                    374152.64748 7957733.66  2027%  2697 5742s
H 2137  1624                    469305.13278 7957733.66  1596%  2703 5742s
  2138  1623 7944208.96   15  632 469305.133 7944208.96  1593%  2716 5866s
  2143  1627 7921355.44   16  612 469305.133 7944205.47  1593%  2749 5916s
  2147  1631 7678809.59   16  594 469305.133 7921340.49  1588%  2777 5993s
  2152  1635 7914552.21   17  620 469305.133 7914552.21  1586%  2805 6112s
  2160  1637 7913054.74   18  614 469305.133 7913054.74  1586%  2838 6197s
  2166  1640 7909978.62   19  601 469305.133 7913020.68  1586%  2876 6263s
H 2167  1559                    469305.14403 7913020.68  1586%  2874 6263s
  2172  1568 6924819.01   19  541 469305.144 7909978.33  1585%  2907 6963s
  2177  1565 7867080.13   20  553 469305.144 7867080.13  1576%  2932 7054s
  2188  1577 7820575.78   21  585 469305.144 7845077.12  1572%  2957 7148s
  2197  1580 7806940.03   22  601 469305.144 7845077.12  1572%  2987 7259s
  2207  1590 7780772.21   23  586 469305.144 7845077.12  1572%  3015 7375s
  2215  1594 7773748.29   24  586 469305.144 7845077.12  1572%  3055 7490s
  2225  1598 7768469.81   25  587 469305.144 7845077.12  1572%  3100 7588s
  2235  1606 7663720.19   26  529 469305.144 7845077.12  1572%  3141 7738s
  2247  1613 7751547.07   27  585 469305.144 7845077.12  1572%  3188 7845s
  2259  1626 7705449.36   28  590 469305.144 7845077.12  1572%  3231 7967s
  2269  1628 7715736.09   29  607 469305.144 7845077.12  1572%  3270 8090s
  2281  1635 7712808.03   30  592 469305.144 7845077.12  1572%  3319 8251s
  2297  1652 7694592.70   31  603 469305.144 7845077.12  1572%  3373 8428s
  2307  1652 7693533.56   33  607 469305.144 7845077.12  1572%  3437 8572s
  2327  1670 7563595.10   34  512 469305.144 7845077.12  1572%  3476 8815s
  2341  1675 7676598.23   36  580 469305.144 7845077.12  1572%  3528 9013s
  2361  1692 7591901.49   37  552 469305.144 7845077.12  1572%  3582 9224s
  2387  1709 7606425.41   40  581 469305.144 7845077.12  1572%  3616 9435s
  2406  1722 7601407.46   42  592 469305.144 7845077.12  1572%  3675 9658s
  2422  1732 7593610.32   44  560 469305.144 7845077.12  1572%  3752 9931s
  2441  1743 7588125.11   46  564 469305.144 7845077.12  1572%  3829 10133s
  2460  1757 7571604.48   47  577 469305.144 7845077.12  1572%  3899 10375s
  2483  1773 7545905.49   49  550 469305.144 7845077.12  1572%  3993 10597s
  2505  1789 7542618.97   51  539 469305.144 7845077.12  1572%  4050 10828s
H 2506  1711                    469305.14461 7845077.12  1572%  4048 10828s
  2536  1727 7527884.18   54  542 469305.145 7845077.12  1572%  4102 11087s
  2572  1757 7510425.77   57  524 469305.145 7845077.12  1572%  4164 11402s
  2592  1765 7503210.41   58  526 469305.145 7845077.12  1572%  4270 11692s
  2619  1786 7492816.20   60  544 469305.145 7845077.12  1572%  4351 12004s
  2658  1813 7491145.96   62  552 469305.145 7845077.12  1572%  4417 12277s
  2699  1842 7352082.61   65  529 469305.145 7845077.12  1572%  4476 12570s
  2742  1864 7335447.03   68  540 469305.145 7845077.12  1572%  4540 12845s
  2784  1897 7226739.47   71  524 469305.145 7845077.12  1572%  4603 13125s
  2833  1927 7034895.89   73  517 469305.145 7845077.12  1572%  4673 13420s
  2884  1950 7193858.39   76  510 469305.145 7845077.12  1572%  4731 13736s
H 2898  1882                    469305.14465 7845077.12  1572%  4765 13736s
H 2940  1828                    469305.14473 7845077.12  1572%  4743 14061s
  3003  1850 7161782.54   80  536 469305.145 7845077.12  1572%  4759 14399s
  3070  1863 7114323.69   83  494 469305.145 7845077.12  1572%  4773 14627s
  3105  1885 7072314.06   87  485 469305.145 7845077.12  1572%  4848 14883s
H 3153  1832                    469305.24948 7845077.12  1572%  4915 14883s
  3154  1850 7027537.59   91  439 469305.249 7845077.12  1572%  4916 15095s
  3237  1898 7013487.99   95  426 469305.249 7845077.12  1572%  4931 15428s
  3293  1926 6949502.30   98  417 469305.249 7845077.12  1572%  4989 15763s
  3357  1970 6932319.85  101  447 469305.249 7845077.12  1572%  5043 16206s
  3470  2048 6920845.19  106  459 469305.249 7845077.12  1572%  5028 16635s
  3596  2124 6908865.84  110  458 469305.249 7845077.12  1572%  5006 17006s
  3737  2208 6686661.47  115  387 469305.249 7845077.12  1572%  4958 17406s
  3812  2243 6618787.05  121  392 469305.249 7845077.12  1572%  5026 17669s
  3917  2286 6568046.89  128  383 469305.249 7845077.12  1572%  5058 17915s
  4024  2346 6512036.20  134  394 469305.249 7845077.12  1572%  5085 18202s
  4198  2443 6480207.11  140  385 469305.249 7845077.12  1572%  5082 18499s
  4390  2475 6076650.58  147  376 469305.249 7845077.12  1572%  5034 18826s
  4507  2520 6058100.62  155  394 469305.249 7845077.12  1572%  5047 19290s
  4585  2572 6032268.72  162  383 469305.249 7845077.12  1572%  5106 19749s
  4677  2633 3546113.00  168  213 469305.249 7845077.12  1572%  5172 20226s
  4807  2708 5921335.25  177  383 469305.249 7845077.12  1572%  5193 20744s
  4988  2818 5799340.46  191  379 469305.249 7845077.12  1572%  5174 21300s
  5253  2956 5754742.25  202  379 469305.249 7845077.12  1572%  5060 21637s
  5501  3081 5298627.46  213  375 469305.249 7845077.12  1572%  4998 22131s
  5835  3245 4511352.61  230  330 469305.249 7845077.12  1572%  4855 22627s
H 6004  3310                    653652.95369 7845077.12  1100%  4850 22627s
H 6005  3329                    653652.95378 7845077.12  1100%  4849 23019s
H 6043  3367                    653652.95415 7845077.12  1100%  4868 23019s
H 6259  3468                    653652.95462 7845077.12  1100%  4797 23544s
H 6360  3468                    653652.95562 7845077.12  1100%  4776 23544s
  6551  3675     cutoff  324      653652.956 7787366.80  1091%  4731 24025s
  6811  3860 5598148.66   42  522 653652.956 7787366.80  1091%  4682 24579s
  7046  4067 4006267.83  115  364 653652.956 7787366.80  1091%  4649 25205s
  7354  4366 3194866.05  298  269 653652.956 7678807.13  1075%  4569 25635s
H 7451  4444                    653652.95912 7678807.13  1075%  4578 25635s
  7506  4486 5472471.26   34  397 653652.959 7673664.08  1074%  4605 26332s
  7703  4679 7202435.48   20  533 653652.959 7673664.08  1074%  4629 26909s
  7841  4794 6871200.63   22  555 653652.959 7673664.08  1074%  4685 27640s
  8010  4974 5902177.61   48  346 653652.959 7673664.08  1074%  4727 28411s
  8383  5250 5038254.33  127  287 653652.959 7673664.08  1074%  4685 29193s
  8873  5715 2051404.08  281  170 653652.959 7663720.19  1072%  4587 29953s
  9130  5892 4138350.93   57  425 653652.959 7661006.88  1072%  4608 30703s
  9551  6116 6367492.97   27  517 653652.959 7626249.23  1067%  4567 31379s
  9821  6346 7238039.11   24  546 653652.959 7625008.52  1067%  4546 32081s
 10215  6732 4273250.11   88  375 653652.959 7615209.52  1065%  4478 32978s
 10934  7404 6355360.27   30  416 653652.959 7614488.59  1065%  4312 33841s
 11159  7610 5846932.42   53  452 653652.959 7614488.59  1065%  4348 34784s
 11580  7998 4332181.89  170  337 653652.959 7614488.59  1065%  4335 35852s
 12090  8452 2769978.24  256  268 653652.959 7592670.83  1062%  4288 36710s
 12522  8821 6699298.64   41  541 653652.959 7591888.96  1061%  4281 37705s
 12920  9182 2258194.84  216  308 653652.959 7583779.32  1060%  4285 38686s
 13502  9664 2347187.44  118  338 653652.959 7566706.35  1058%  4231 39691s
 14149 10256 5952558.55   24  413 653652.959 7563589.41  1057%  4155 40648s
 14699 10747 5414200.44   28  528 653652.959 7548579.14  1055%  4104 41651s
 15054 11021 5934673.25   42  455 653652.959 7543706.09  1054%  4094 42783s
 15555 11469 5852681.98   43  424 653652.959 7539004.20  1053%  4061 43741s
 15857 11727 5524962.72   53  462 653652.959 7522752.66  1051%  4062 44721s
 16247 12101 6411500.04   40  494 653652.959 7512923.07  1049%  4053 45693s
 16798 12602 6274067.03   29  528 653652.959 7511649.96  1049%  4014 46640s
 17189 12936 7006914.53   57  584 653652.959 7511649.96  1049%  4014 47483s
 17564 13223 4934873.52  123  427 653652.959 7494338.22  1047%  4002 48393s
 18325 13937 6745846.37   32  585 653652.959 7487388.28  1045%  3914 49253s
 18637 14239 3924789.78  102  333 653652.959 7483456.47  1045%  3921 50180s
 18968 14516 1556309.39   29  284 653652.959 7480975.12  1044%  3923 51056s
 19379 14859 5102434.52   36  561 653652.959 7478935.96  1044%  3924 52002s
 19806 15250 6251450.64   29  551 653652.959 7478935.96  1044%  3918 53055s
 20372 15751 3925977.55  130  344 653652.959 7472359.66  1043%  3889 53937s
 21022 16365 2021722.41  358  469 653652.959 7472259.34  1043%  3828 59894s
 21024 16366 885648.399  184  356 653652.959 7472259.34  1043%  3828 59953s
 21025 16367 1582778.37  300  395 653652.959 7472259.34  1043%  3828 59975s
 21026 16368 3597764.95   68  433 653652.959 7472259.34  1043%  3827 59992s
 21027 16368 2251872.00  337  462 653652.959 7472259.34  1043%  3827 60009s
 21028 16369 3211456.96  226  471 653652.959 7472259.34  1043%  3827 60022s
 21029 16370 5314611.54   98  521 653652.959 7472259.34  1043%  3827 60047s
 21030 16370 3398758.45  132  504 653652.959 7472259.34  1043%  3827 60066s
 21031 16371 5064474.63   78  534 653652.959 7472259.34  1043%  3826 60085s
 21032 16372 6439773.31   49  527 653652.959 7472259.34  1043%  3826 60098s
 21033 16372 1021437.17  285  505 653652.959 7472259.34  1043%  3826 60109s
 21034 16373 1958773.89   80  547 653652.959 7472259.34  1043%  3826 60115s
 21036 16374 4978649.23  134  547 653652.959 7472259.34  1043%  3826 60125s
 21037 16375 2928959.05  206  594 653652.959 7472259.34  1043%  3825 60131s
 21038 16376 5225721.04   96  572 653652.959 7472259.34  1043%  3825 60135s
 21040 16377 3879595.17  113  578 653652.959 7472259.34  1043%  3825 60144s
 21041 16378 5082404.40   90  580 653652.959 7472259.34  1043%  3825 60149s
 21042 16378 5812825.77   54  618 653652.959 7472259.34  1043%  3824 60155s
 21044 16380 1946379.37   66  611 653652.959 7472259.34  1043%  3824 60163s
 21045 16380 1503420.28   86  600 653652.959 7472259.34  1043%  3824 60166s
 21046 16381 1549636.58  266  589 653652.959 7472259.34  1043%  3824 60171s
 21047 16382 6911528.77   39  598 653652.959 7472259.34  1043%  3824 60176s
 21049 16383 4659000.02   50  608 653652.959 7472259.34  1043%  3823 60183s
 21050 16384 6052968.14   38  622 653652.959 7472259.34  1043%  3823 60187s
 21051 16384 3503097.16  269  591 653652.959 7472259.34  1043%  3823 60327s
 21052 16385 2740267.27  158  579 653652.959 7472259.34  1043%  3823 60337s
 21053 16386 2772813.14  147  594 653652.959 7472259.34  1043%  3822 60344s
 21054 16386 6013342.85   37  618 653652.959 7472259.34  1043%  3822 60351s
 21056 16388 4857089.99   63  632 653652.959 7472259.34  1043%  3822 60361s
 21057 16388 2029161.06   87  615 653652.959 7472259.34  1043%  3822 60365s
 21059 16390 1095885.10  191  617 653652.959 7472259.34  1043%  3821 60371s
 21060 16390 5900509.69   69  619 653652.959 7472259.34  1043%  3821 60375s
 21061 16391 6679698.10   70  594 653652.959 7472259.34  1043%  3821 60381s
 21062 16392 5383089.92   43  613 653652.959 7472259.34  1043%  3821 60385s
 21063 16392 6834318.78   44  618 653652.959 7472259.34  1043%  3821 60450s
 21064 16393 2558054.50   33  610 653652.959 7456171.25  1041%  3820 60532s
 21065 16394 1868594.25   69  641 653652.959 7447438.00  1039%  3820 60539s
 21066 16394 2133239.28  117  654 653652.959 7440519.56  1038%  3820 60547s
 21067 16395 4843884.05   60  676 653652.959 7434790.52  1037%  3820 60555s
 21068 16396 4146923.88  169  660 653652.959 7432736.11  1037%  3820 60561s
 21069 16396 3562591.97  187  678 653652.959 7431613.76  1037%  3820 60565s
 21071 16398 2994261.10  185  658 653652.959 7421601.24  1035%  3819 60575s
 21073 16399 2525542.83  183  658 653652.959 7420802.80  1035%  3819 60607s
 21074 16400 4166793.69   93  653 653652.959 7404327.14  1033%  3819 60736s
 21076 16401 5103255.76   35  673 653652.959 7400559.45  1032%  3818 60742s
 21077 16402 2640065.73  156  680 653652.959 7398581.29  1032%  3818 60745s
 21079 16403 4567672.78   64  693 653652.959 7396703.40  1032%  3818 60783s
 21080 16404 5767533.82   46  663 653652.959 7359921.34  1026%  3818 60907s
 21081 16404 1059097.20  176  665 653652.959 7353409.70  1025%  3817 60913s
 21082 16405 7352308.56   31  658 653652.959 7352308.56  1025%  3817 60915s
 21084 16406 3393166.09  125  642 653652.959 7350347.26  1025%  3817 60921s
 21085 16407 6149153.58   83  657 653652.959 7350148.36  1024%  3817 60983s
 21086 16408 2995885.78  249  662 653652.959 7338091.41  1023%  3817 61050s
 21088 16409 5115573.83   37  618 653652.959 7330491.25  1021%  3816 61063s
 21089 16410 2009545.16  366  649 653652.959 7328219.30  1021%  3816 61070s
 21090 16410 6675048.33   31  662 653652.959 7325768.03  1021%  3816 61076s
 21091 16411 5306881.48  117  672 653652.959 7323882.15  1020%  3816 61080s
 21093 16412 5093363.45  104  666 653652.959 7322355.98  1020%  3815 61086s
 21094 16413 5255856.11   61  668 653652.959 7321856.61  1020%  3815 61132s
 21095 16414 3589647.99  177  665 653652.959 7305912.08  1018%  3815 61241s
 21096 16414 5921045.32   83  677 653652.959 7298478.18  1017%  3815 61252s
 21097 16415 2125249.54  133  656 653652.959 7297261.15  1016%  3815 61257s
 21098 16416 1836205.83   79  665 653652.959 7296512.51  1016%  3814 61261s
 21099 16416 2622912.95   65  664 653652.959 7295527.71  1016%  3814 61265s
 21101 16418 2804791.73  240  673 653652.959 7294045.30  1016%  3814 61271s
 21102 16418 3508795.02  229  669 653652.959 7293600.54  1016%  3814 61307s
 21103 16419 3273747.39   38  663 653652.959 7289707.77  1015%  3813 61354s
 21104 16420 4384968.32   77  662 653652.959 7289081.95  1015%  3813 61356s
 21106 16421 5745504.15   61  659 653652.959 7286333.28  1015%  3813 61363s
 21107 16422 1790829.50  277  673 653652.959 7285905.60  1015%  3813 61398s
 21108 16422 5873697.99   70  661 653652.959 7278980.49  1014%  3813 61490s
 21109 16423 1867470.88  108  655 653652.959 7278559.29  1014%  3812 61525s
 21110 16424 3980135.18  251  650 653652.959 7272661.56  1013%  3812 61577s
 21111 16424 6599106.78   38  672 653652.959 7272179.62  1013%  3812 61612s
 21112 16425 6526540.44   24  677 653652.959 7269175.18  1012%  3812 61693s
 21113 16426 2009985.98  155  635 653652.959 7267002.08  1012%  3812 61699s
 21114 16426 2413630.51  356  656 653652.959 7264896.11  1011%  3811 61703s
 21115 16427 1427481.50  279  655 653652.959 7264181.52  1011%  3811 61706s
 21117 16428 2597339.73  153  662 653652.959 7263446.78  1011%  3811 61742s
 21118 16429 858037.713   98  640 653652.959 7237120.63  1007%  3811 61804s
 21119 16430 2542249.58  246  647 653652.959 7234005.55  1007%  3811 61808s
 21120 16430 2179718.06  143  648 653652.959 7233359.30  1007%  3810 61811s
 21122 16432 2021722.41  358  656 653652.959 7232250.28  1006%  3810 61849s
 21123 16432 5276756.82   43  666 653652.959 7228722.17  1006%  3810 61892s
 21124 16433 885648.399  184  668 653652.959 7228184.93  1006%  3810 61895s
 21126 16434 3597764.95   68  679 653652.959 7226781.60  1006%  3809 61933s
 21127 16435 2251872.00  337  674 653652.959 7218811.60  1004%  3809 62012s
 21128 16436 3211456.96  226  694 653652.959 7217814.02  1004%  3809 62016s
 21130 16437 3398758.45  132  669 653652.959 7214873.72  1004%  3809 62027s
 21131 16438 5064474.63   78  672 653652.959 7213270.58  1004%  3808 62032s
 21133 16439 1021437.17  285  675 653652.959 7212357.59  1003%  3808 62065s
 21134 16440 1958773.89   80  681 653652.959 7200976.47  1002%  3808 62139s
 21135 16440 6699736.65   67  676 653652.959 7193394.17  1000%  3808 62150s
 21136 16441 4978649.23  134  691 653652.959 7190487.50  1000%  3807 62156s
 21137 16442 2928959.05  206  680 653652.959 7188319.79  1000%  3807 62160s
 21139 16443 5055378.49   78  676 653652.959 7183958.83   999%  3807 62168s
 21140 16444 3879595.17  113  659 653652.959 7182891.89   999%  3807 62172s
 21141 16444 5082404.40   90  665 653652.959 7182462.02   999%  3807 62206s
 21142 16445 5812825.77   54  658 653652.959 7171065.17   997%  3806 62256s
 21143 16446 1945070.43  329  676 653652.959 7168317.87   997%  3806 62262s
 21144 16446 1946379.37   66  681 653652.959 7167232.13   996%  3806 62266s
 21145 16447 1503420.28   86  688 653652.959 7165500.02   996%  3806 62270s
 21146 16448 1549636.58  266  670 653652.959 7162811.52   996%  3806 62275s
 21147 16448 6911528.77   39  656 653652.959 7160035.83   995%  3805 62282s
 21148 16449 5384950.65   35  653 653652.959 7159137.32   995%  3805 62285s
 21149 16450 4659000.02   50  663 653652.959 7158881.32   995%  3805 62316s
 21150 16450 6052968.14   38  660 653652.959 7150005.28   994%  3805 62365s
 21151 16451 3503097.16  269  695 653652.959 7142325.57   993%  3805 62382s
 21152 16452 2740267.27  158  685 653652.959 7140830.15   992%  3805 62388s
 21153 16452 2772813.14  147  714 653652.959 7139546.68   992%  3804 62395s
 21154 16453 6013342.85   37  691 653652.959 7139111.85   992%  3804 62576s
 21155 16454 2656094.16  135  699 653652.959 7137103.98   992%  3804 62702s
 21156 16454 4857089.99   63  705 653652.959 7135941.80   992%  3804 62706s
 21158 16456 914899.966  217  689 653652.959 7134923.00   992%  3804 62741s
 21159 16456 1095885.10  191  701 653652.959 7132687.12   991%  3803 62821s
 21161 16458 6679698.10   70  701 653652.959 7131587.35   991%  3803 62853s
 21162 16458 5383089.92   43  695 653652.959 7130137.55   991%  3803 62889s
 21163 16459 6834318.78   44  696 653652.959 7128906.23   991%  3803 62894s
 21164 16460 2558054.50   33  675 653652.959 7127959.61   990%  3802 62898s
 21165 16460 1868594.25   69  678 653652.959 7127028.36   990%  3802 62902s
 21166 16461 2133239.28  117  703 653652.959 7126473.81   990%  3802 62905s
 21167 16462 4843884.05   60  704 653652.959 7126134.90   990%  3802 62935s
 21168 16462 4146923.88  169  692 653652.959 7123827.53   990%  3802 63003s
 21169 16463 3562591.97  187  704 653652.959 7122343.72   990%  3802 63007s
 21171 16464 2994261.10  185  714 653652.959 7121501.36   989%  3801 63036s
 21172 16465 3746872.34   90  708 653652.959 7118311.76   989%  3801 63074s
 21173 16466 2525542.83  183  713 653652.959 7118003.34   989%  3801 63105s
 21174 16466 4166793.69   93  710 653652.959 7107340.83   987%  3801 63182s
 21175 16467 5443216.35  100  686 653652.959 7104831.30   987%  3800 63190s
 21177 16468 2640065.73  156  694 653652.959 7102986.12   987%  3800 63197s
 21178 16469 5192132.84   88  707 653652.959 7102566.10   987%  3800 63229s
 21179 16470 4567672.78   64  694 653652.959 7098436.69   986%  3800 63269s
 21180 16470 5767533.82   46  704 653652.959 7097640.55   986%  3800 63272s
 21181 16471 1059097.20  176  698 653652.959 7097278.18   986%  3799 63301s
 21182 16472 7089372.62   31  696 653652.959 7089372.62   985%  3799 63340s
 21184 16473 3393166.09  125  731 653652.959 7087648.88   984%  3799 63346s
 21185 16474 6149153.58   83  711 653652.959 7086537.77   984%  3799 63350s
 21186 16474 2995885.78  249  707 653652.959 7086210.80   984%  3798 63378s
 21187 16475 5401097.91  103  702 653652.959 7082000.72   983%  3798 63450s
 21189 16476 2009545.16  366  709 653652.959 7080531.25   983%  3798 63486s
 21190 16477 6675048.33   31  724 653652.959 7078498.13   983%  3798 63524s
 21191 16478 5306881.48  117  725 653652.959 7077867.03   983%  3798 63529s
 21192 16478 6007887.58   83  721 653652.959 7076967.10   983%  3797 63534s
H21192 15651                    653652.97269 7076592.87   983%  3797 63565s
 21194 15653 5255856.11   61  737 653652.973 7074752.51   982%  3797 63602s
 21195 15653 3589647.99  177  724 653652.973 7073591.37   982%  3797 63606s
 21196 15654 5921045.32   83  728 653652.973 7072629.47   982%  3797 63610s
 21198 15655 1836205.83   79  726 653652.973 7071446.14   982%  3796 63644s
 21199 15656 2622912.95   65  730 653652.973 7067313.73   981%  3796 63686s
 21200 15657 7066811.30   56  727 653652.973 7066811.30   981%  3796 63727s
 21201 15657 2804791.73  240  719 653652.973 7065773.59   981%  3796 63768s
 21202 15658 3508795.02  229  733 653652.973 7064083.51   981%  3796 63774s
 21203 15659 3273747.39   38  722 653652.973 7062736.64   981%  3795 63778s
 21204 15659 4384968.32   77  733 653652.973 7062419.64   980%  3795 63809s
 21205 15660 5619482.77   41  737 653652.973 7061514.69   980%  3795 63848s
 21206 15661 5745504.15   61  754 653652.973 7061349.57   980%  3795 63876s
 21207 15661 1790829.50  277  737 653652.973 7059879.35   980%  3795 63918s
 21208 15662 5873697.99   70  743 653652.973 7059456.04   980%  3795 63950s
 21209 15663 1867470.88  108  731 653652.973 7054644.93   979%  3794 63993s
 21210 15663 3980135.18  251  701 653652.973 7045296.82   978%  3794 64006s
 21211 15664 6599106.78   38  697 653652.973 7043376.57   978%  3794 64012s
 21212 15665 6526540.44   24  725 653652.973 7042891.54   977%  3794 64041s
 21213 15665 2009985.98  155  715 653652.973 7040707.99   977%  3794 64081s
 21214 15666 2413630.51  356  716 653652.973 7038988.98   977%  3793 64087s
 21215 15667 1427481.50  279  725 653652.973 7038511.31   977%  3793 64117s
 21216 15667 5524246.22  200  709 653652.973 7034565.03   976%  3793 64153s
 21217 15668 2597339.73  153  715 653652.973 7034194.23   976%  3793 64186s
 21218 15669 858037.713   98  724 653652.973 7033301.19   976%  3793 64221s
 21219 15669 2542249.58  246  726 653652.973 7032407.78   976%  3793 64225s
 21221 15671 3398421.20   87  708 653652.973 7031421.36   976%  3792 64253s
 21222 15671 2021722.41  358  717 653652.973 7030692.00   976%  3792 64287s
 21223 15672 5276756.82   43  721 653652.973 7030306.19   976%  3792 64318s
 21224 15673 885648.399  184  718 653652.973 7029572.39   975%  3792 64352s
 21225 15673 1582778.37  300  727 653652.973 7029236.76   975%  3792 64381s
 21226 15674 3597764.95   68  714 653652.973 7028602.49   975%  3791 64445s
 21227 15675 2251872.00  337  723 653652.973 7028310.95   975%  3791 64473s
 21228 15675 3211456.96  226  679 653652.973 7000849.34   971%  3791 64527s
 21229 15676 5314611.54   98  715 653652.973 6993064.79   970%  3791 64537s
 21230 15677 3398758.45  132  703 653652.973 6990649.99   969%  3791 64544s
 21231 15677 5064474.63   78  715 653652.973 6988789.99   969%  3790 64551s
 21233 15679 1021437.17  285  713 653652.973 6987387.50   969%  3790 64587s
 21234 15679 1958773.89   80  691 653652.973 6980401.28   968%  3790 64628s
 21235 15680 6699736.65   67  696 653652.973 6979017.05   968%  3790 64632s
 21236 15681 4978649.23  134  688 653652.973 6978378.31   968%  3790 64635s
 21238 15682 5225721.04   96  707 653652.973 6977079.75   967%  3789 64669s
 21239 15683 5055378.49   78  714 653652.973 6971726.91   967%  3789 64760s
 21240 15683 3879595.17  113  697 653652.973 6970662.27   966%  3789 64765s
 21241 15684 5082404.40   90  722 653652.973 6970153.42   966%  3789 64817s
 21242 15685 5812825.77   54  683 653652.973 6938677.89   962%  3788 64873s
 21243 15685 1945070.43  329  676 653652.973 6923643.20   959%  3788 64887s
 21244 15686 1946379.37   66  694 653652.973 6921332.80   959%  3788 64894s
 21245 15687 1503420.28   86  687 653652.973 6916246.79   958%  3788 64904s
 21246 15687 1549636.58  266  705 653652.973 6915542.56   958%  3788 64907s
 21247 15688 6911528.77   39  711 653652.973 6914423.67   958%  3788 64911s
 21248 15689 5384950.65   35  715 653652.973 6914244.05   958%  3787 64938s
 21249 15689 4659000.02   50  690 653652.973 6906978.05   957%  3787 64978s
 21250 15690 6052968.14   38  688 653652.973 6904931.82   956%  3787 64983s
 21251 15691 3503097.16  269  698 653652.973 6904187.02   956%  3787 64988s
 21252 15691 2740267.27  158  708 653652.973 6903883.96   956%  3787 65020s
 21253 15692 2772813.14  147  702 653652.973 6900091.57   956%  3787 65060s
 21255 15693 2656094.16  135  707 653652.973 6898089.54   955%  3786 65069s
 21256 15694 4857089.99   63  730 653652.973 6897881.07   955%  3786 65103s
 21257 15695 2029161.06   87  730 653652.973 6896958.63   955%  3786 65139s
 21258 15695 914899.966  217  711 653652.973 6895821.15   955%  3786 65143s
 21259 15696 1095885.10  191  719 653652.973 6895380.57   955%  3785 65173s
 21260 15697 5900509.69   69  721 653652.973 6893188.94   955%  3785 65206s
 21261 15697 6679698.10   70  722 653652.973 6892719.75   954%  3785 65234s
 21262 15698 5383089.92   43  738 653652.973 6891997.93   954%  3785 65266s
 21264 15699 2558054.50   33  745 653652.973 6891113.20   954%  3785 65299s
 21265 15700 1868594.25   69  753 653652.973 6890636.76   954%  3784 65333s
 21266 15701 2133239.28  117  761 653652.973 6890434.25   954%  3784 65360s
 21267 15701 4843884.05   60  733 653652.973 6887901.49   954%  3784 65398s
 21268 15702 4146923.88  169  736 653652.973 6885768.18   953%  3784 65402s
 21269 15703 3562591.97  187  738 653652.973 6884595.26   953%  3784 65405s
 21271 15704 2994261.10  185  728 653652.973 6883582.92   953%  3783 65435s
 21272 15705 3746872.34   90  742 653652.973 6882287.17   953%  3783 65470s
 21273 15705 2525542.83  183  731 653652.973 6875786.39   952%  3783 65478s
 21274 15706 4166793.69   93  750 653652.973 6875502.50   952%  3783 65507s
 21275 15707 5443216.35  100  744 653652.973 6874852.86   952%  3783 65540s
 21276 15707 5103255.76   35  743 653652.973 6874367.94   952%  3782 65570s
 21277 15708 2640065.73  156  737 653652.973 6872690.87   951%  3782 65603s
 21278 15709 5192132.84   88  743 653652.973 6872328.48   951%  3782 65631s
 21279 15709 4567672.78   64  739 653652.973 6871789.25   951%  3782 65689s
 21280 15710 5767533.82   46  747 653652.973 6870023.26   951%  3782 65694s
 21281 15711 1059097.20  176  760 653652.973 6869654.21   951%  3782 65723s
 21282 15711 6866799.12   31  738 653652.973 6866799.12   951%  3781 65760s
 21284 15713 3393166.09  125  742 653652.973 6865424.82   950%  3781 65767s
 21285 15713 6149153.58   83  728 653652.973 6865098.61   950%  3781 65797s
 21286 15714 2995885.78  249  737 653652.973 6864627.41   950%  3781 65832s
 21287 15715 5401097.91  103  737 653652.973 6864336.25   950%  3780 65860s
 21288 15715 5115573.83   37  742 653652.973 6863883.64   950%  3780 65892s
 21289 15716 2009545.16  366  755 653652.973 6863745.05   950%  3780 65920s
 21290 15717 6675048.33   31  739 653652.973 6863515.95   950%  3780 65956s
 21291 15717 5306881.48  117  758 653652.973 6863257.58   950%  3780 65988s
 21292 15718 6007887.58   83  747 653652.973 6862977.71   950%  3780 66019s
 21293 15719 5093363.45  104  745 653652.973 6862149.09   950%  3779 66023s
 21294 15719 5255856.11   61  748 653652.973 6861940.85   950%  3779 66052s
 21295 15720 3589647.99  177  754 653652.973 6861131.27   950%  3779 66092s
 21296 15721 5921045.32   83  761 653652.973 6860998.89   950%  3779 66123s
 21297 15721 2125249.54  133  753 653652.973 6860651.84   950%  3779 66155s
 21298 15722 1836205.83   79  752 653652.973 6860402.91   950%  3779 66185s
 21299 15723 2622912.95   65  759 653652.973 6860230.52   950%  3778 66220s
 21300 15723 6860158.42   56  765 653652.973 6860158.42   950%  3778 66250s
 21301 15724 2804791.73  240  765 653652.973 6859670.55   949%  3778 66287s
 21302 15725 3508795.02  229  761 653652.973 6859378.35   949%  3778 66318s
 21303 15725 3273747.39   38  761 653652.973 6859091.74   949%  3778 66351s
 21304 15726 4384968.32   77  756 653652.973 6857365.03   949%  3777 66357s
 21305 15727 5619482.77   41  771 653652.973 6857060.33   949%  3777 66388s
 21306 15727 5745504.15   61  756 653652.973 6856699.16   949%  3777 66422s
 21307 15728 1790829.50  277  749 653652.973 6856459.38   949%  3777 66452s
 21308 15729 5873697.99   70  736 653652.973 6854930.73   949%  3777 66486s
 21309 15729 1867470.88  108  746 653652.973 6854757.25   949%  3777 66513s
 21310 15730 3980135.18  251  739 653652.973 6854362.02   949%  3776 66548s
 21311 15731 6599106.78   38  751 653652.973 6854218.84   949%  3776 66578s
 21312 15731 6526540.44   24  735 653652.973 6851903.71   948%  3776 66616s
 21313 15732 2009985.98  155  733 653652.973 6851449.76   948%  3776 66646s
 21314 15733 2413630.51  356  759 653652.973 6850368.33   948%  3776 66683s
 21315 15733 1427481.50  279  738 653652.973 6850189.84   948%  3775 66715s
 21316 15734 5524246.22  200  754 653652.973 6849947.12   948%  3775 66751s
 21317 15735 2597339.73  153  749 653652.973 6849528.61   948%  3775 66782s
 21318 15735 858037.713   98  747 653652.973 6848415.98   948%  3775 66834s
 21319 15736 2542249.58  246  767 653652.973 6848119.48   948%  3775 66865s
 21320 15737 2179718.06  143  741 653652.973 6847705.33   948%  3775 66898s
 21321 15737 3398421.20   87  743 653652.973 6847603.61   948%  3774 66924s
 21322 15738 2021722.41  358  747 653652.973 6847093.84   948%  3774 66957s
 21323 15739 5276756.82   43  752 653652.973 6847000.83   947%  3774 66985s
 21324 15739 885648.399  184  751 653652.973 6846540.91   947%  3774 67018s
 21325 15740 1582778.37  300  761 653652.973 6846047.41   947%  3774 67045s
 21326 15741 3597764.95   68  739 653652.973 6844651.37   947%  3774 67080s
 21328 15742 3211456.96  226  750 653652.973 6843445.85   947%  3773 67113s
 21329 15743 5314611.54   98  750 653652.973 6843108.16   947%  3773 67144s
 21330 15743 3398758.45  132  761 653652.973 6842945.39   947%  3773 67171s
 21331 15744 5064474.63   78  714 653652.973 6840121.22   946%  3773 67216s
 21332 15745 6439773.31   49  726 653652.973 6839817.90   946%  3772 67247s
 21333 15745 1021437.17  285  721 653652.973 6839577.94   946%  3772 67278s
 21334 15746 1958773.89   80  735 653652.973 6838272.08   946%  3772 67284s
 21335 15747 6699736.65   67  745 653652.973 6837905.18   946%  3772 67312s
 21336 15747 4978649.23  134  753 653652.973 6835649.98   946%  3772 67349s
 21337 15748 2928959.05  206  751 653652.973 6835231.59   946%  3772 67378s
 21338 15749 5225721.04   96  743 653652.973 6835150.43   946%  3771 67410s
 21339 15749 5055378.49   78  754 653652.973 6834872.26   946%  3771 67441s
 21340 15750 3879595.17  113  751 653652.973 6834790.52   946%  3771 67472s
 21341 15751 5082404.40   90  754 653652.973 6834700.03   946%  3771 67501s
 21342 15751 5812825.77   54  759 653652.973 6834169.64   946%  3771 67536s
 21343 15752 1945070.43  329  776 653652.973 6834108.05   946%  3771 67564s
 21344 15753 1946379.37   66  742 653652.973 6833646.37   945%  3770 67600s
 21345 15753 1503420.28   86  758 653652.973 6833461.33   945%  3770 67631s
 21346 15754 1549636.58  266  750 653652.973 6833016.64   945%  3770 67684s
 21347 15755 6832344.06   39  768 653652.973 6832344.06   945%  3770 67690s
 21348 15755 5384950.65   35  771 653652.973 6832129.64   945%  3770 67731s
 21349 15756 4659000.02   50  762 653652.973 6831936.94   945%  3769 67771s
 21350 15757 6052968.14   38  770 653652.973 6831891.89   945%  3769 67803s
 21351 15757 3503097.16  269  757 653652.973 6831578.76   945%  3769 67846s
 21352 15758 2740267.27  158  763 653652.973 6831511.78   945%  3769 67877s
 21353 15759 2772813.14  147  776 653652.973 6831408.94   945%  3769 67909s
 21354 15759 6013342.85   37  773 653652.973 6831390.50   945%  3769 67938s
 21355 15760 2656094.16  135  764 653652.973 6828421.72   945%  3768 67979s
 21356 15761 4857089.99   63  767 653652.973 6828131.09   945%  3768 68009s
 21357 15761 2029161.06   87  753 653652.973 6827285.63   944%  3768 68045s
 21358 15762 914899.966  217  750 653652.973 6826989.12   944%  3768 68075s
 21359 15763 1095885.10  191  745 653652.973 6826410.94   944%  3768 68109s
 21360 15763 5900509.69   69  748 653652.973 6826164.46   944%  3768 68135s
 21361 15764 6679698.10   70  746 653652.973 6825568.67   944%  3767 68173s
 21362 15765 5383089.92   43  734 653652.973 6824865.86   944%  3767 68178s
 21363 15765 6824709.01   44  761 653652.973 6824709.01   944%  3767 68215s
 21364 15766 2558054.50   33  739 653652.973 6824016.09   944%  3767 68260s
 21365 15767 1868594.25   69  729 653652.973 6823702.97   944%  3767 68300s
 21366 15767 2133239.28  117  736 653652.973 6823597.34   944%  3766 68339s
 21367 15768 4843884.05   60  738 653652.973 6823346.80   944%  3766 68385s
 21368 15769 4146923.88  169  733 653652.973 6823284.81   944%  3766 68427s
 21369 15769 3562591.97  187  750 653652.973 6823229.54   944%  3766 68463s
H21369 14974                    653652.97856 6823065.89   944%  3766 68494s
 21371 14976 2994261.10  185  735 653652.979 6823022.05   944%  3766 68524s
 21372 14976 3746872.34   90  737 653652.979 6822615.70   944%  3765 68559s
 21373 14977 2525542.83  183  729 653652.979 6822561.89   944%  3765 68592s
 21374 14978 4166793.69   93  730 653652.979 6822459.99   944%  3765 68656s
 21375 14978 5443216.35  100  734 653652.979 6822405.72   944%  3765 68690s
 21376 14979 5103255.76   35  761 653652.979 6818808.89   943%  3765 68758s
 21377 14980 2640065.73  156  757 653652.979 6816949.21   943%  3765 68769s
 21378 14980 5192132.84   88  751 653652.979 6816586.66   943%  3764 68801s
 21379 14981 4567672.78   64  754 653652.979 6816001.19   943%  3764 68839s
 21380 14982 5767533.82   46  751 653652.979 6815890.81   943%  3764 68876s
 21381 14982 1059097.20  176  744 653652.979 6814562.90   943%  3764 68923s
 21382 14983 6814562.90   31  744 653652.979 6814562.90   943%  3764 69178s
 21383 14987 6813651.44   19  744 653652.979 6813718.51   942%  3815 69373s
 21385 14990 6813596.96   20  737 653652.979 6813596.96   942%  3818 69570s
 21389 14993 6812877.25   21  750 653652.979 6812877.25   942%  3823 69729s
 21393 14995 6574759.84   21  598 653652.979 6812647.71   942%  3830 69866s
 21397 14998 6809065.99   22  762 653652.979 6809065.99   942%  3833 69967s
 21401 15001 5350317.64   22  595 653652.979 6809050.17   942%  3837 70113s
 21405 15002 6786228.52   23  767 653652.979 6809050.17   942%  3840 70182s
 21410 15007 6797112.82   23  704 653652.979 6797112.82   940%  3842 70262s
 21414 15006 6781603.37   24  687 653652.979 6786227.55   938%  3844 70358s
 21421 15011 6780593.65   25  686 653652.979 6786227.55   938%  3846 70468s
 21426 15014 6774959.42   26  690 653652.979 6786227.55   938%  3849 70530s
 21431 15013 6416010.10   26  600 653652.979 6786227.55   938%  3854 70627s
 21439 15023 6767250.43   27  710 653652.979 6786227.55   938%  3857 70748s
 21445 15029 6765145.51   28  692 653652.979 6786227.55   938%  3861 70882s
 21454 15031 6761110.41   29  693 653652.979 6786227.55   938%  3868 71033s
 21461 15038 6387593.69   30  630 653652.979 6786227.55   938%  3878 71136s
 21468 15045 6613925.52   30  686 653652.979 6786227.55   938%  3885 71248s
 21476 15042 6610426.57   31  669 653652.979 6786227.55   938%  3890 71333s
 21483 15046 6483496.85   32  604 653652.979 6786227.55   938%  3896 71419s
 21493 15060 6339504.65   32  596 653652.979 6786227.55   938%  3901 71561s
 21505 15064 6364997.27   34  638 653652.979 6786227.55   938%  3908 71642s
 21518 15076 6244562.95   35  620 653652.979 6786227.55   938%  3914 71775s
 21530 15083 6098346.94   36  616 653652.979 6786227.55   938%  3921 71940s
 21544 15092 6087049.88   37  623 653652.979 6786227.55   938%  3929 72086s
 21554 15100 5982667.86   38  604 653652.979 6786227.55   938%  3936 72312s
 21566 15112 5995575.25   40  612 653652.979 6786227.55   938%  3944 72457s
 21579 15109 5984291.36   41  636 653652.979 6786227.55   938%  3954 72760s
 21596 15127 5955492.70   43  628 653652.979 6786227.55   938%  3963 72908s
 21613 15139 4786873.76   44  621 653652.979 6786227.55   938%  3973 73102s
 21629 15150 5895271.93   46  626 653652.979 6786227.55   938%  3981 73374s
 21644 15157 5868910.56   48  605 653652.979 6786227.55   938%  3995 73660s
 21661 15172 5527539.12   50  573 653652.979 6786227.55   938%  4007 73854s
 21679 15180 5607672.80   52  524 653652.979 6786227.55   938%  4017 74058s
 21695 15192 5174951.63   53  480 653652.979 6786227.55   938%  4030 74281s
 21723 15209 5516687.56   55  503 653652.979 6786227.55   938%  4042 74545s
 21748 15226 5510908.70   57  475 653652.979 6786227.55   938%  4056 74773s
 21785 15253 5452381.53   60  463 653652.979 6786227.55   938%  4069 74990s
 21820 15267 5442200.29   62  434 653652.979 6786227.55   938%  4078 75183s
 21860 15298 5307195.20   64  407 653652.979 6786227.55   938%  4086 75391s
 21901 15322 5344969.27   67  454 653652.979 6786227.55   938%  4095 75627s
 21950 15339 5295811.84   71  390 653652.979 6786227.55   938%  4107 75897s
 21991 15356 5248678.08   76  435 653652.979 6786227.55   938%  4121 76065s
 22024 15381 4886827.53   80  456 653652.979 6786227.55   938%  4137 76315s
 22062 15401 5103596.26   85  470 653652.979 6786227.55   938%  4154 76582s
 22108 15435 5070060.68   89  440 653652.979 6786227.55   938%  4168 76847s
 22184 15478 5019748.65   95  407 653652.979 6786227.55   938%  4181 77115s
 22240 15506 4996470.52  100  432 653652.979 6786227.55   938%  4196 77369s
 22290 15538 4969499.50  105  405 653652.979 6786227.55   938%  4213 77675s
 22352 15579 4904019.13  110  443 653652.979 6786227.55   938%  4229 77993s
 22428 15629 3745897.14  115  450 653652.979 6786227.55   938%  4243 78308s
 22509 15675 4647508.92  122  422 653652.979 6786227.55   938%  4258 78632s
 22617 15738 3066741.91  129  351 653652.979 6786227.55   938%  4272 78936s
 22723 15782 3981725.29  134  369 653652.979 6786227.55   938%  4276 79268s
 22803 15831 3821009.76  142  397 653652.979 6786227.55   938%  4290 79596s
 22924 15910 3621743.25  154  248 653652.979 6786227.55   938%  4298 79946s
 23047 15993 3460453.41  168  272 653652.979 6786227.55   938%  4303 80308s
 23209 16088 3198353.10  187  218 653652.979 6786227.55   938%  4310 80682s
 23414 16188     cutoff  219      653652.979 6786136.00   938%  4312 81100s
 23647 16253 6642067.58   26  725 653652.979 6786136.00   938%  4309 81391s
 23854 16288 6439942.40   30  661 653652.979 6786136.00   938%  4297 81646s
 23899 16297 6046417.77   37  557 653652.979 6786136.00   938%  4316 82084s
 23958 16338 5555064.32   49  548 653652.979 6786136.00   938%  4334 82538s
 24036 16388 4139012.87   65  251 653652.979 6781832.03   938%  4351 82972s
 24216 16480 5715852.12   27  642 653652.979 6781832.03   938%  4353 83376s
 24286 16520 3593468.66   27  536 653652.979 6781832.03   938%  4377 83695s
 24343 16566 5050293.41   37  443 653652.979 6781832.03   938%  4403 84008s
 24444 16612 5320147.46   40  517 653652.979 6781832.03   938%  4424 84394s
 24632 16708 4796845.55   46  485 653652.979 6781832.03   938%  4436 84847s
 24806 16815 4572033.43   54  380 653652.979 6781832.03   938%  4446 85370s
 25059 16950 3784300.55   59  252 653652.979 6645670.66   917%  4445 85888s
 25205 17004 5812888.43   28  615 653652.979 6645647.99   917%  4465 86270s
 25305 17036 5504341.60   43  525 653652.979 6645647.99   917%  4481 86400s

Cutting planes:
  Gomory: 312
  Implied bound: 64
  Projected implied bound: 48
  MIR: 159
  Flow cover: 994
  Zero half: 3

Explored 25358 nodes (113909078 simplex iterations) in 86400.10 seconds
Thread count was 4 (of 16 available processors)

Solution count 10: 653653 653653 653653 ... 469305

Time limit reached
Warning: max constraint violation (4.7830e-06) exceeds tolerance
Best objective 6.536529795307e+05, best bound 6.645647992904e+06, gap 916.6936%

***
***  |- Calculation finished, timelimit reached 86,400.12 (86400.12) sec.))
***  |-----------------------------------------------------------------------------------------------------------------------
***
*****************************************************************************************************************************
#############################################################################################################################
###
### Results
###
### The objective of the solution is 653,652.9795 (653652.9795) and is feasible with a Gap of 9.1669
###
### Service 42 (SAMBA) is operated by 7 vessels from type 18 (PMax25)
###  |- Vessel  1 has the path [143, 79, 80, 81, 87, 88, 94, 55, 51, 11, 12, 0]
###  |  143 (USMSY Out@238.0) - 79 (ESALG In@775.0/Out@799.0) - 80 (ESALG In@829.0/Out@853.0) - 81 (ESALG In@943.0/Out@967.0)
###  |   - 87 (ESALG In@1381.0/Out@1411.0) - 88 (ESALG In@1447.0/Out@1471.0) - 94 (ESLPA In@1521.0/Out@1545.0) - 55 (BRSUA In
###  |  @1691.0/Out@1715.0) - 51 (BRSSZ In@1788.0/Out@1808.0) - 11 (ARBUE In@1862.0/Out@1905.0) - 12 (ARBUE In@1928.0/Out@195
###  |  2.0) - 0 (DUMMY_END Ziel-Service 42)
###  |   |- and carried Demand  26, 125.0 containers from  87 to  51
###  |   |- and carried Demand  27,  10.0 containers from  87 to  51
###  |   |- and carried Demand  29,   8.0 containers from  87 to  11
###  |   |- and carried Demand  30, 224.0 containers from  87 to  11
###  |   |- and carried Demand  31,  58.0 containers from  87 to  12
###  |   |- and carried Demand  32,   5.0 containers from  87 to  12
###  |   |- and carried Demand  33, 159.0 containers from  87 to  11
###  |   |- and carried Demand  71,  12.0 containers from  51 to  11
###  |   |- and carried Demand 156, 239.0 containers from  80 to  11
###  |   |- and carried Demand 157,   8.0 containers from  80 to  11
###  |   |- and carried Demand 161,  19.0 containers from  80 to  11
###  |   |- and carried Demand 173, 125.0 containers from  88 to  51
###  |   |- and carried Demand 174,  10.0 containers from  88 to  51
###  |   |- and carried Demand 176,   8.0 containers from  88 to  11
###  |   |- and carried Demand 177, 224.0 containers from  88 to  11
###  |   |- and carried Demand 178,  58.0 containers from  88 to  12
###  |   |- and carried Demand 179,   5.0 containers from  88 to  12
###  |   |- and carried Demand 180, 159.0 containers from  88 to  11
###  |   |- and carried Demand 382, 239.0 containers from  81 to  11
###  |   |- and carried Demand 383,   8.0 containers from  81 to  11
###  |   |- and carried Demand 387,  19.0 containers from  81 to  11
###  |   |- and carried Demand 441, 488.0 containers from  79 to  12
###  |   |- and carried Demand 442,   5.0 containers from  79 to  12
###  |- Vessel  2 has the path [144, 4, 0]
###  |  144 (USMSY Out@406.0) - 4 (ARBUE In@920.0/Out@944.0) - 0 (DUMMY_END Ziel-Service 42)
###  |- Vessel  3 has the path [145, 6, 0]
###  |  145 (USMSY Out@574.0) - 6 (ARBUE In@1256.0/Out@1280.0) - 0 (DUMMY_END Ziel-Service 42)
###  |- Vessel  4 has the path [146, 8, 0]
###  |  146 (USMSY Out@742.0) - 8 (ARBUE In@1424.0/Out@1448.0) - 0 (DUMMY_END Ziel-Service 42)
###  |- Vessel  5 has the path [147, 9, 0]
###  |  147 (USMSY Out@910.0) - 9 (ARBUE In@1592.0/Out@1616.0) - 0 (DUMMY_END Ziel-Service 42)
###  |- Vessel  8 has the path [72, 65, 77, 78, 5, 0]
###  |  72 (DEHAM Out@276.0) - 65 (DEBRV In@497.0/Out@521.0) - 77 (ESALG In@607.0/Out@631.0) - 78 (ESALG In@613.0/Out@658.0) 
###  |  - 5 (ARBUE In@1088.0/Out@1112.0) - 0 (DUMMY_END Ziel-Service 42)
###  |   |- and carried Demand  98, 392.0 containers from  78 to   5
###  |   |- and carried Demand  99,  13.0 containers from  78 to   5
###  |   |- and carried Demand 490, 392.0 containers from  77 to   5
###  |   |- and carried Demand 491,  13.0 containers from  77 to   5
###  |   |- and carried Demand 494,  59.0 containers from  77 to   5
###  |   |- and carried Demand 495,   6.0 containers from  77 to   5
###  |   |- and carried Demand 496, 126.0 containers from  77 to   5
###  |   |- and carried Demand 499, 256.0 containers from  65 to  77
###  |   |- and carried Demand 503,   3.0 containers from  65 to   5
###  |- Vessel 12 has the path [153, 154, 1, 2, 155, 40, 54, 83, 85, 86, 50, 32, 10, 0]
###  |  153 (UYMVD Out@204.0) - 154 (UYMVD In@470.0/Out@486.0) - 1 (ARBUE In@518.0/Out@561.0) - 2 (ARBUE In@584.0/Out@608.0) 
###  |  - 155 (UYMVD In@638.0/Out@654.0) - 40 (BRSSZ In@708.0/Out@716.0) - 54 (BRSUA In@826.0/Out@845.0) - 83 (ESALG In@1111.
###  |  0/Out@1135.0) - 85 (ESALG In@1213.0/Out@1243.0) - 86 (ESALG In@1279.0/Out@1303.0) - 50 (BRSSZ In@1626.0/Out@1644.0) -
###  |   32 (BRPNG In@1674.0/Out@1695.0) - 10 (ARBUE In@1760.0/Out@1784.0) - 0 (DUMMY_END Ziel-Service 42)
###  |   |- and carried Demand  14, 131.0 containers from  85 to  50
###  |   |- and carried Demand  16,  40.0 containers from  85 to  32
###  |   |- and carried Demand  18, 234.0 containers from  85 to  10
###  |   |- and carried Demand  19,  24.0 containers from  85 to  10
###  |   |- and carried Demand  20,  57.0 containers from  85 to  10
###  |   |- and carried Demand  21, 126.0 containers from  85 to  10
###  |   |- and carried Demand  22,   1.0 containers from  85 to  10
###  |   |- and carried Demand  42, 114.0 containers from   1 to 155
###  |   |- and carried Demand  48,   5.0 containers from   1 to  83
###  |   |- and carried Demand  52,  34.0 containers from   1 to  40
###  |   |- and carried Demand 243, 131.0 containers from  86 to  50
###  |   |- and carried Demand 245,  40.0 containers from  86 to  32
###  |   |- and carried Demand 247, 234.0 containers from  86 to  10
###  |   |- and carried Demand 248,  24.0 containers from  86 to  10
###  |   |- and carried Demand 249,  57.0 containers from  86 to  10
###  |   |- and carried Demand 250, 126.0 containers from  86 to  10
###  |   |- and carried Demand 251,   1.0 containers from  86 to  10
###  |   |- and carried Demand 286,   9.0 containers from  40 to  10
###  |   |- and carried Demand 287,  67.0 containers from  40 to  10
###  |   |- and carried Demand 288,   6.0 containers from  40 to  10
###  |   |- and carried Demand 293,  50.0 containers from 155 to  83
###  |   |- and carried Demand 294, 363.0 containers from 155 to  83
###  |   |- and carried Demand 295, 114.0 containers from   2 to 155
###  |   |- and carried Demand 301,   5.0 containers from   2 to  83
###  |   |- and carried Demand 305,  16.0 containers from   2 to  40
###  |   |- and carried Demand 318,  22.0 containers from  83 to  50
###  |   |- and carried Demand 320, 126.0 containers from  83 to  10
###  |   |- and carried Demand 324,  13.0 containers from  83 to  10
###  |
### Vessels not used in the solution: [6, 7, 9, 10, 11]
###  |-----------------------------------------------------------------------------------------------------------------------
###
#############################################################################################################################

### Detialed variable overview

### All variables with value greater zero:
rho[42,18] = 1
eta[42,18,1] = 1
eta[42,18,2] = 1
eta[42,18,3] = 1
eta[42,18,4] = 1
eta[42,18,5] = 1
eta[42,18,6] = 1
eta[42,18,7] = 1
y[1,81,87] = 1
y[1,143,79] = 1
y[1,94,55] = 1
y[1,80,81] = 1
y[1,11,12] = 1
y[1,51,11] = 1
y[1,12,0] = 1
y[1,79,80] = 1
y[1,87,88] = 1
y[1,55,51] = 1
y[1,88,94] = 1
y[2,4,0] = 1
y[2,144,4] = 1
y[3,6,0] = 1
y[3,145,6] = 1
y[4,8,0] = 1
y[4,146,8] = 1
y[5,9,0] = 1
y[5,147,9] = 1
y[8,77,78] = 1
y[8,65,77] = 1
y[8,5,0] = 1
y[8,72,65] = 1
y[8,78,5] = 1
y[12,86,50] = 1
y[12,85,86] = 1
y[12,50,32] = 1
y[12,32,10] = 1
y[12,40,54] = 1
y[12,154,1] = 1
y[12,54,83] = 1
y[12,10,0] = 1
y[12,1,2] = 1
y[12,83,85] = 1
y[12,153,154] = 1
y[12,2,155] = 1
y[12,155,40] = 1
xD[14,86,50] = 131
xD[14,85,86] = 131
xD[16,86,50] = 40
xD[16,85,86] = 40
xD[16,50,32] = 40
xD[18,86,50] = 234
xD[18,85,86] = 234
xD[18,50,32] = 234
xD[18,32,10] = 234
xD[19,86,50] = 24
xD[19,85,86] = 24
xD[19,50,32] = 24
xD[19,32,10] = 24
xD[20,86,50] = 57
xD[20,85,86] = 57
xD[20,50,32] = 57
xD[20,32,10] = 57
xD[21,86,50] = 126
xD[21,85,86] = 126
xD[21,50,32] = 126
xD[21,32,10] = 126
xD[22,86,50] = 1
xD[22,85,86] = 1
xD[22,50,32] = 1
xD[22,32,10] = 1
xD[26,94,55] = 125
xD[26,87,88] = 125
xD[26,55,51] = 125
xD[26,88,94] = 125
xD[27,94,55] = 10
xD[27,87,88] = 10
xD[27,55,51] = 10
xD[27,88,94] = 10
xD[29,94,55] = 8
xD[29,51,11] = 8
xD[29,87,88] = 8
xD[29,55,51] = 8
xD[29,88,94] = 8
xD[30,94,55] = 224
xD[30,51,11] = 224
xD[30,87,88] = 224
xD[30,55,51] = 224
xD[30,88,94] = 224
xD[31,94,55] = 58
xD[31,11,12] = 58
xD[31,51,11] = 58
xD[31,87,88] = 58
xD[31,55,51] = 58
xD[31,88,94] = 58
xD[32,94,55] = 5
xD[32,11,12] = 5
xD[32,51,11] = 5
xD[32,87,88] = 5
xD[32,55,51] = 5
xD[32,88,94] = 5
xD[33,94,55] = 159
xD[33,51,11] = 159
xD[33,87,88] = 159
xD[33,55,51] = 159
xD[33,88,94] = 159
xD[42,1,2] = 114
xD[42,2,155] = 114
xD[48,40,54] = 5
xD[48,54,83] = 5
xD[48,1,2] = 5
xD[48,2,155] = 5
xD[48,155,40] = 5
xD[52,1,2] = 34
xD[52,2,155] = 34
xD[52,155,40] = 34
xD[71,51,11] = 12
xD[98,78,5] = 392
xD[99,78,5] = 13
xD[156,81,87] = 239
xD[156,94,55] = 239
xD[156,80,81] = 239
xD[156,51,11] = 239
xD[156,87,88] = 239
xD[156,55,51] = 239
xD[156,88,94] = 239
xD[157,81,87] = 8
xD[157,94,55] = 8
xD[157,80,81] = 8
xD[157,51,11] = 8
xD[157,87,88] = 8
xD[157,55,51] = 8
xD[157,88,94] = 8
xD[161,81,87] = 19
xD[161,94,55] = 19
xD[161,80,81] = 19
xD[161,51,11] = 19
xD[161,87,88] = 19
xD[161,55,51] = 19
xD[161,88,94] = 19
xD[173,94,55] = 125
xD[173,55,51] = 125
xD[173,88,94] = 125
xD[174,94,55] = 10
xD[174,55,51] = 10
xD[174,88,94] = 10
xD[176,94,55] = 8
xD[176,51,11] = 8
xD[176,55,51] = 8
xD[176,88,94] = 8
xD[177,94,55] = 224
xD[177,51,11] = 224
xD[177,55,51] = 224
xD[177,88,94] = 224
xD[178,94,55] = 58
xD[178,11,12] = 58
xD[178,51,11] = 58
xD[178,55,51] = 58
xD[178,88,94] = 58
xD[179,94,55] = 5
xD[179,11,12] = 5
xD[179,51,11] = 5
xD[179,55,51] = 5
xD[179,88,94] = 5
xD[180,94,55] = 159
xD[180,51,11] = 159
xD[180,55,51] = 159
xD[180,88,94] = 159
xD[243,86,50] = 131
xD[245,86,50] = 40
xD[245,50,32] = 40
xD[247,86,50] = 234
xD[247,50,32] = 234
xD[247,32,10] = 234
xD[248,86,50] = 24
xD[248,50,32] = 24
xD[248,32,10] = 24
xD[249,86,50] = 57
xD[249,50,32] = 57
xD[249,32,10] = 57
xD[250,86,50] = 126
xD[250,50,32] = 126
xD[250,32,10] = 126
xD[251,86,50] = 1
xD[251,50,32] = 1
xD[251,32,10] = 1
xD[286,86,50] = 9
xD[286,85,86] = 9
xD[286,50,32] = 9
xD[286,32,10] = 9
xD[286,40,54] = 9
xD[286,54,83] = 9
xD[286,83,85] = 9
xD[287,86,50] = 67
xD[287,85,86] = 67
xD[287,50,32] = 67
xD[287,32,10] = 67
xD[287,40,54] = 67
xD[287,54,83] = 67
xD[287,83,85] = 67
xD[288,86,50] = 6
xD[288,85,86] = 6
xD[288,50,32] = 6
xD[288,32,10] = 6
xD[288,40,54] = 6
xD[288,54,83] = 6
xD[288,83,85] = 6
xD[293,40,54] = 50
xD[293,54,83] = 50
xD[293,155,40] = 50
xD[294,40,54] = 363
xD[294,54,83] = 363
xD[294,155,40] = 363
xD[295,2,155] = 114
xD[301,40,54] = 5
xD[301,54,83] = 5
xD[301,2,155] = 5
xD[301,155,40] = 5
xD[305,2,155] = 16
xD[305,155,40] = 16
xD[318,86,50] = 22
xD[318,85,86] = 22
xD[318,83,85] = 22
xD[320,86,50] = 126
xD[320,85,86] = 126
xD[320,50,32] = 126
xD[320,32,10] = 126
xD[320,83,85] = 126
xD[324,86,50] = 13
xD[324,85,86] = 13
xD[324,50,32] = 13
xD[324,32,10] = 13
xD[324,83,85] = 13
xD[382,81,87] = 239
xD[382,94,55] = 239
xD[382,51,11] = 239
xD[382,87,88] = 239
xD[382,55,51] = 239
xD[382,88,94] = 239
xD[383,81,87] = 8
xD[383,94,55] = 8
xD[383,51,11] = 8
xD[383,87,88] = 8
xD[383,55,51] = 8
xD[383,88,94] = 8
xD[387,81,87] = 19
xD[387,94,55] = 19
xD[387,51,11] = 19
xD[387,87,88] = 19
xD[387,55,51] = 19
xD[387,88,94] = 19
xD[441,81,87] = 488
xD[441,94,55] = 488
xD[441,80,81] = 488
xD[441,11,12] = 488
xD[441,51,11] = 488
xD[441,79,80] = 488
xD[441,87,88] = 488
xD[441,55,51] = 488
xD[441,88,94] = 488
xD[442,81,87] = 5
xD[442,94,55] = 5
xD[442,80,81] = 5
xD[442,11,12] = 5
xD[442,51,11] = 5
xD[442,79,80] = 5
xD[442,87,88] = 5
xD[442,55,51] = 5
xD[442,88,94] = 5
xD[490,77,78] = 392
xD[490,78,5] = 392
xD[491,77,78] = 13
xD[491,78,5] = 13
xD[494,77,78] = 59
xD[494,78,5] = 59
xD[495,77,78] = 6
xD[495,78,5] = 6
xD[496,77,78] = 126
xD[496,78,5] = 126
xD[499,65,77] = 256
xD[503,77,78] = 3
xD[503,65,77] = 3
xD[503,78,5] = 3
zE[1] = 518
zE[2] = 584
zE[4] = 920
zE[5] = 1088
zE[6] = 1256
zE[8] = 1424
zE[9] = 1592
zE[10] = 1760
zE[11] = 1862
zE[12] = 1928
zE[32] = 1674
zE[40] = 708
zE[50] = 1626
zE[51] = 1788
zE[54] = 826
zE[55] = 1691
zE[65] = 497
zE[77] = 607
zE[78] = 613
zE[79] = 775
zE[80] = 829
zE[81] = 943
zE[83] = 1111
zE[85] = 1213
zE[86] = 1279
zE[87] = 1381
zE[88] = 1447
zE[94] = 1521
zE[154] = 470
zE[155] = 638
zX[1] = 561
zX[2] = 608
zX[4] = 944
zX[5] = 1112
zX[6] = 1280
zX[8] = 1448
zX[9] = 1616
zX[10] = 1784
zX[11] = 1905
zX[12] = 1952
zX[32] = 1695
zX[40] = 716
zX[50] = 1644
zX[51] = 1808
zX[54] = 845
zX[55] = 1715
zX[65] = 521
zX[72] = 276
zX[77] = 631
zX[78] = 658
zX[79] = 799
zX[80] = 853
zX[81] = 967
zX[83] = 1135
zX[85] = 1243
zX[86] = 1303
zX[87] = 1411
zX[88] = 1471
zX[94] = 1545
zX[143] = 238
zX[144] = 406
zX[145] = 574
zX[146] = 742
zX[147] = 910
zX[153] = 204
zX[154] = 486
zX[155] = 654
phi[1] = 1714
phi[2] = 538
phi[3] = 706
phi[4] = 706
phi[5] = 706
phi[8] = 836
phi[12] = 1580

### All variables with value smaller zero:

### End

real	1440m58.758s
user	5434m57.385s
sys	299m12.429s
	Freetype 2.4.12 environment removed
	Python 3.6.0 environment removed
	Gurobi 8.1.0 environment removed
