	Freetype 2.4.12 environment established
		library to render fonts
	Python 3.6.0 environment established
	Gurobi 8.1.0 environment established
Instance LSFRP: LSFDRP_5_3_1_1_fr.p
Instance LSFDP: LSFDRP_5_3_1_1_fd_52.p

*****************************************************************************************************************************
*** Solve LSFDRP_5_3_1_1_fd_52 with Gurobi
***
*** Graph info
*** |S|: 12
*** |S^E|: 0
*** |S^C|: 4
*** |V|: 162
*** |A|: 2732
*** |A^i|: 2732
*** |A^f|: 0
*** |M|: 532
*** |E|: 0

Changed value of parameter TimeLimit to 86400.0
   Prev: 1e+100  Min: 0.0  Max: 1e+100  Default: 1e+100
Changed value of parameter Threads to 4
   Prev: 0  Min: 0  Max: 1024  Default: 0
Optimize a model with 94319 rows, 1492000 columns and 5261875 nonzeros
Variable types: 1459208 continuous, 32792 integer (32792 binary)
Coefficient statistics:
  Matrix range     [1e+00, 3e+03]
  Objective range  [2e+00, 4e+07]
  Bounds range     [1e+00, 1e+00]
  RHS range        [1e+00, 7e+00]
Presolve removed 84889 rows and 1436562 columns (presolve time = 6s) ...
Presolve removed 84889 rows and 1440714 columns (presolve time = 28s) ...
Warning: Failed to open log file 'gurobi.log'
Presolve removed 84976 rows and 1440747 columns (presolve time = 32s) ...
Presolve removed 84976 rows and 1440747 columns
Presolve time: 32.11s
Presolved: 9343 rows, 51253 columns, 285169 nonzeros
Variable types: 22752 continuous, 28501 integer (28486 binary)

Root simplex log...

Iteration    Objective       Primal Inf.    Dual Inf.      Time
       0    5.4601468e+09   1.336409e+06   0.000000e+00     33s
   21142    5.8138494e+07   8.905188e+05   0.000000e+00     35s
   35042    3.1898337e+07   1.468644e+06   0.000000e+00     40s
   44241    2.2675833e+07   2.781030e+07   0.000000e+00     45s
   53919    1.9081547e+07   3.808502e+06   0.000000e+00     50s
   61878    1.6724240e+07   8.626747e+05   0.000000e+00     55s
   68442    1.4873693e+07   5.900169e+06   0.000000e+00     60s
   76461    1.3531954e+07   1.310104e+06   0.000000e+00     65s
   81739    1.1805734e+07   1.090993e+06   0.000000e+00     70s
   86275    1.0248058e+07   1.851022e+05   0.000000e+00     75s
   92803    9.0906255e+06   6.520148e+06   0.000000e+00     80s
   98547    8.4324844e+06   5.888616e+05   0.000000e+00     85s
  105024    7.5355757e+06   3.229941e+05   0.000000e+00     90s
  111226    7.0607188e+06   2.554996e+06   0.000000e+00     95s
  116598    6.8304354e+06   1.743513e+06   0.000000e+00    100s
  121843    6.6610888e+06   2.963279e+05   0.000000e+00    105s
  126507    6.5633044e+06   2.856178e+05   0.000000e+00    110s
  130557    6.4913814e+06   1.689594e+05   0.000000e+00    115s
  134307    6.4502924e+06   6.441855e+04   0.000000e+00    120s
  137577    6.4194903e+06   6.688437e+03   0.000000e+00    125s
  140626    6.4130643e+06   0.000000e+00   0.000000e+00    130s

Root relaxation: objective 6.413065e+06, 140626 iterations, 96.81 seconds

    Nodes    |    Current Node    |     Objective Bounds      |     Work
 Expl Unexpl |  Obj  Depth IntInf | Incumbent    BestBd   Gap | It/Node Time

     0     0 6413065.26    0  355          - 6413065.26      -     -  131s
H    0     0                    -4812721.453 6413065.26   233%     -  132s
H    0     0                    -4482860.125 6413065.26   243%     -  141s
H    0     0                    -4273574.169 6413065.26   250%     -  160s
     0     0 6205766.59    0  358 -4273574.2 6205766.59   245%     -  161s
H    0     0                    -4079054.280 6205766.59   252%     -  171s
     0     0 6188266.10    0  366 -4079054.3 6188266.10   252%     -  177s
     0     0 6174096.35    0  376 -4079054.3 6174096.35   251%     -  183s
     0     0 6174096.12    0  378 -4079054.3 6174096.12   251%     -  183s
     0     0 6083881.92    0  385 -4079054.3 6083881.92   249%     -  197s
H    0     0                    -3458601.757 6083881.92   276%     -  210s
     0     0 6069426.11    0  368 -3458601.8 6069426.11   275%     -  215s
     0     0 6069344.93    0  358 -3458601.8 6069344.93   275%     -  216s
     0     0 6064985.48    0  364 -3458601.8 6064985.48   275%     -  218s
     0     0 6064984.98    0  369 -3458601.8 6064984.98   275%     -  218s
     0     0 6058621.67    0  369 -3458601.8 6058621.67   275%     -  222s
     0     0 6054130.95    0  374 -3458601.8 6054130.95   275%     -  226s
     0     0 6054130.95    0  374 -3458601.8 6054130.95   275%     -  226s
     0     0 6048852.19    0  381 -3458601.8 6048852.19   275%     -  229s
     0     0 6048365.93    0  371 -3458601.8 6048365.93   275%     -  232s
     0     0 6048302.25    0  371 -3458601.8 6048302.25   275%     -  233s
     0     0 6045903.57    0  354 -3458601.8 6045903.57   275%     -  237s
     0     0 6044922.80    0  353 -3458601.8 6044922.80   275%     -  240s
     0     0 6044855.86    0  363 -3458601.8 6044855.86   275%     -  241s
     0     0 6043373.23    0  360 -3458601.8 6043373.23   275%     -  242s
     0     0 6041747.00    0  356 -3458601.8 6041747.00   275%     -  245s
     0     0 6041508.39    0  363 -3458601.8 6041508.39   275%     -  246s
     0     0 6041485.55    0  364 -3458601.8 6041485.55   275%     -  247s
     0     0 6038255.36    0  362 -3458601.8 6038255.36   275%     -  251s
     0     0 6037956.61    0  358 -3458601.8 6037956.61   275%     -  253s
     0     0 6037870.32    0  357 -3458601.8 6037870.32   275%     -  253s
     0     0 6037830.81    0  349 -3458601.8 6037830.81   275%     -  253s
     0     0 6037488.77    0  351 -3458601.8 6037488.77   275%     -  255s
     0     0 6037463.83    0  352 -3458601.8 6037463.83   275%     -  256s
     0     0 6036814.65    0  370 -3458601.8 6036814.65   275%     -  258s
     0     0 6036279.32    0  361 -3458601.8 6036279.32   275%     -  261s
     0     0 6036180.96    0  358 -3458601.8 6036180.96   275%     -  261s
     0     0 6036172.78    0  358 -3458601.8 6036172.78   275%     -  261s
     0     0 6035976.17    0  373 -3458601.8 6035976.17   275%     -  263s
     0     0 6035976.17    0  371 -3458601.8 6035976.17   275%     -  299s
H    0     0                    -3374282.716 6035976.17   279%     -  382s
     0     2 6035976.17    0  368 -3374282.7 6035976.17   279%     -  385s
     1     4 5994340.81    1  368 -3374282.7 6035381.34   279%  7677  482s
     3     8 5987927.29    2  359 -3374282.7 5994273.20   278% 17539  547s
     7    12 5986999.71    3  370 -3374282.7 5986999.71   277% 14949  570s
    11    16 5979063.01    4  375 -3374282.7 5979063.01   277% 11560  605s
    15    19 5977942.34    5  362 -3374282.7 5979044.38   277% 11024  650s
    19    22 5957230.56    6  333 -3374282.7 5979044.38   277% 11324  693s
    23    23 5952132.50    7  331 -3374282.7 5979044.38   277% 11989  729s
H   28    28                    -3027513.780 5979044.38   297% 11072  778s
H   29    29                    -2040485.156 5979044.38   393% 10784  778s
    33    33 5919242.89   10  340 -2040485.2 5979044.38   393% 10367  837s
    39    39 5913123.35   11  372 -2040485.2 5979044.38   393% 10559  861s
H   45    49                    -2033390.413 5979044.38   394%  9951  889s
    50    48 5698202.70   13  340 -2033390.4 5979044.38   394%  9953  913s
H   58    60                    -1444790.359 5979044.38   514%  8877  968s
H   59    60                    -1348229.054 5979044.38   543%  9266  968s
    63    63 5691367.63   14  342 -1348229.1 5979044.38   543%  8838 1060s
    69    70 5675662.89   16  364 -1348229.1 5979044.38   543% 10009 1105s
    76    79 5560402.23   17  348 -1348229.1 5979044.38   543%  9996 1139s
    81    84 5459419.97   18  343 -1348229.1 5979044.38   543% 10188 1167s
    85    84 5213928.93   18  317 -1348229.1 5979044.38   543% 10207 1198s
H   93    93                    -726230.2428 5979044.38   923%  9818 1297s
H   95    97                    -454024.9835 5979044.38  1417%  9674 1297s
    98   102 5397651.94   20  335 -454024.98 5979044.38  1417%  9723 1361s
   108   106 5345396.92   22  377 -454024.98 5979044.38  1417%  9469 1422s
   123   123 5138901.64   27  346 -454024.98 5979044.38  1417%  9097 1470s
H  125   123                    -454024.9824 5979044.38  1417%  8969 1470s
H  131   130                    -367921.7167 5979044.38  1725%  8676 1470s
   133   136 5315555.57   28  392 -367921.72 5979044.38  1725%  8602 1530s
   151   150 5301907.82   30  390 -367921.72 5979044.38  1725%  8164 1577s
   165   168 5250927.46   35  356 -367921.72 5979044.38  1725%  7866 1645s
H  168   171                    -252775.1359 5979044.38  2465%  7792 1645s
   171   170 5173823.48   38  306 -252775.14 5979044.38  2465%  7932 1682s
   186   189 5149635.41   44  332 -252775.14 5979044.38  2465%  7597 1742s
H  204   206                    -252775.1358 5979044.38  2465%  7406 1804s
H  212   213                    -252775.1355 5979044.38  2465%  7376 1804s
   214   215 5097221.47   52  318 -252775.14 5979044.38  2465%  7419 1878s
   231   231 4962567.31   55  270 -252775.14 5979044.38  2465%  7380 1935s
   258   260 4987566.70   56  268 -252775.14 5979044.38  2465%  6885 2027s
   277   278 4981096.77   57  262 -252775.14 5979044.38  2465%  6850 2101s
H  284   278                    -252775.1352 5979044.38  2465%  6729 2101s
   296   296 4888289.93   65  258 -252775.14 5979044.38  2465%  6778 2155s
H  300   296                    -196591.3601 5979044.38  3141%  6703 2155s
H  318   318                    -196591.3591 5979044.38  3141%  6519 2211s
H  321   320                    -196591.3588 5979044.38  3141%  6545 2211s
   342   344 4839199.98   72  235 -196591.36 5979044.38  3141%  6332 2266s
   366   367 4700584.01   73  289 -196591.36 5979044.38  3141%  6249 2321s
H  379   380                    -196591.3586 5979044.38  3141%  6159 2321s
H  383   383                    -78691.40180 5979044.38  7698%  6168 2321s
   387   387 4617951.18   81  305 -78691.402 5979044.38  7698%  6147 2369s
H  429   431                    -78691.40098 5979044.38  7698%  5785 2427s
H  458   460                    -75090.58718 5979044.38  8062%  5569 2428s
   461   461 3868471.15   92  293 -75090.587 5979044.38  8062%  5579 2486s
H  499   499                    -75090.58646 5979044.38  8062%  5379 2582s
H  519   517                    -75090.58602 5979044.38  8062%  5292 2582s
   534   533 3576775.62  115  295 -75090.586 5979044.38  8062%  5280 2656s
   582   577 3507761.73  123  267 -75090.586 5979044.38  8062%  5083 2748s
   651   641 3455605.16  133  256 -75090.586 5979044.38  8062%  4708 2818s
   688   672 3001431.87  142  236 -75090.586 5979044.38  8062%  4676 2909s
   705   684 2896631.22  148  242 -75090.586 5979044.38  8062%  4680 2963s
   750   725 2328020.76  167  190 -75090.586 5979044.38  8062%  4615 3021s
   805   776 2244515.54  205  191 -75090.586 5979044.38  8062%  4452 3109s
H  827   776                    -75090.58495 5979044.38  8062%  4385 3109s
   852   819 1975723.26  227  135 -75090.585 5979044.38  8062%  4422 3173s
   924   888 1290281.77  268   82 -75090.585 5956875.07  8033%  4225 3255s
H  998   915                    -75090.58456 5956875.07  8033%  4044 3255s
  1034   974 5635581.31    7  419 -75090.585 5956875.07  8033%  3959 3345s
  1081  1010 1180660.44  159  371 -75090.585 5956875.07  8033%  3920 3537s
  1083  1011 2606909.53   97  357 -75090.585 5956875.07  8033%  3913 3681s
  1084  1012 4893375.09   65  364 -75090.585 5956875.07  8033%  3909 3723s
  1085  1013 1415214.39  148  371 -75090.585 5956875.07  8033%  3905 3735s
  1086  1013 2120470.45   84  391 -75090.585 5956875.07  8033%  3902 3746s
  1087  1014 2280813.31  190  387 -75090.585 5956875.07  8033%  3898 3751s
  1090  1016 2748960.41  122  387 -75090.585 5956875.07  8033%  3887 3758s
  1091  1017 4101025.91   19  419 -75090.585 5956875.07  8033%  3884 3775s
  1092  1017 5133128.47   21  417 -75090.585 5947569.09  8021%  3880 3781s
  1093  1018 3086101.98   82  433 -75090.585 5941619.65  8013%  3877 3787s
  1094  1019 3328016.82   94  448 -75090.585 5938144.24  8008%  3873 3790s
  1096  1020 5210133.47   19  452 -75090.585 5937193.81  8007%  3866 3796s
  1097  1021 5360057.69   21  483 -75090.585 5888641.55  7942%  3863 3825s
  1098  1021 2094059.23  226  473 -75090.585 5878555.92  7929%  3859 3833s
  1099  1022 2145766.31  118  467 -75090.585 5874852.75  7924%  3856 3839s
  1100  1023 1620049.32  240  499 -75090.585 5872270.58  7920%  3852 3844s
  1101  1023 910513.471  289  507 -75090.585 5872033.74  7920%  3849 3848s
  1102  1024 4640704.99   77  444 -75090.585 5820023.97  7851%  3845 3873s
  1103  1025 5067412.17   26  425 -75090.585 5801859.99  7826%  3842 3882s
  1104  1025 3398844.55   53  456 -75090.585 5797824.50  7821%  3838 3886s
  1105  1026 4015418.73   89  478 -75090.585 5789938.00  7811%  3835 3895s
  1106  1027 2195622.88  142  484 -75090.585 5779083.78  7796%  3831 3900s
  1107  1027 3696342.37   31  466 -75090.585 5773235.69  7788%  3828 3907s
  1109  1029 4618350.80   19  469 -75090.585 5770911.77  7785%  3821 3910s
  1111  1030 2327217.78  168  492 -75090.585 5723474.91  7722%  3814 3915s
  1113  1031 4615340.49   82  496 -75090.585 5723474.91  7722%  3807 3920s
  1115  1033 4418566.90   30  494 -75090.585 5630687.04  7599%  3800 3968s
  1116  1033 1255930.87  154  518 -75090.585 5623765.65  7589%  3797 3978s
  1117  1034 2211611.56  129  516 -75090.585 5619317.73  7583%  3793 3989s
  1118  1035 2896511.30  149  515 -75090.585 5614939.37  7578%  3790 3994s
  1119  1035 1097319.89  150  532 -75090.585 5614171.97  7577%  3787 3996s
  1120  1036 5204416.84   25  529 -75090.585 5612750.18  7575%  3783 4000s
  1123  1038 3182307.57   66  548 -75090.585 5610304.12  7571%  3773 4005s
  1124  1039 5173369.41   39  545 -75090.585 5610050.83  7571%  3770 4010s
  1125  1039 1685636.44  244  516 -75090.585 5596944.27  7554%  3767 4038s
  1126  1040 4065213.26   15  532 -75090.585 5593884.53  7550%  3763 4042s
  1128  1041 2756820.51  116  550 -75090.585 5591349.11  7546%  3756 4046s
  1130  1043 4962565.05   56  554 -75090.585 5589849.15  7544%  3750 4051s
  1131  1043 4698675.06   55  564 -75090.585 5588693.85  7543%  3747 4055s
  1133  1045 5560381.69   18  561 -75090.585 5588096.77  7542%  3740 4063s
  1134  1045 4396615.06   27  566 -75090.585 5581033.66  7532%  3737 4080s
  1135  1046 4985193.03   37  558 -75090.585 5577714.22  7528%  3733 4085s
  1137  1047 4344147.07   85  562 -75090.585 5575581.82  7525%  3727 4096s
  1138  1048 731417.550  164  561 -75090.585 5571893.12  7520%  3723 4111s
  1140  1049 3609749.87   72  569 -75090.585 5569769.07  7517%  3717 4116s
  1141  1050 4617137.95   83  589 -75090.585 5568724.85  7516%  3714 4120s
  1143  1051 2981430.10   94  578 -75090.585 5567123.92  7514%  3707 4125s
  1145  1053 2893237.67  121  579 -75090.585 5561908.28  7507%  3701 4149s
  1146  1053 4875465.75   14  591 -75090.585 5560944.60  7506%  3697 4154s
  1147  1054 5001609.67   35  571 -75090.585 5559827.93  7504%  3694 4156s
  1149  1055 2266454.64  196  601 -75090.585 5557014.93  7500%  3688 4173s
  1150  1056 3434380.79   48  624 -75090.585 5556035.23  7499%  3685 4175s
  1152  1057 2512989.94   82  611 -75090.585 5554757.13  7497%  3678 4181s
  1153  1058 2687721.70  136  595 -75090.585 5551493.92  7493%  3675 4199s
  1154  1059 3459625.66  109  612 -75090.585 5550798.88  7492%  3672 4202s
  1155  1059 3252958.14   96  598 -75090.585 5550504.21  7492%  3669 4206s
  1156  1060 3237045.57  114  611 -75090.585 5549795.99  7491%  3666 4217s
  1157  1061 2765093.67  103  611 -75090.585 5549513.04  7490%  3662 4221s
  1158  1061 2753551.05  120  622 -75090.585 5549034.95  7490%  3659 4225s
  1163  1066 1715726.32  126  343 -75090.585 5549034.95  7490%  3963 4353s
  1164  1067 521246.190  196  389 -75090.585 5549034.95  7490%  3960 4390s
  1165  1068 2409346.69  128  385 -75090.585 5549034.95  7490%  3956 4420s
  1166  1068 5023197.88   23  424 -75090.585 5549034.95  7490%  3953 4456s
  1167  1069 3798286.46   33  458 -75090.585 5549034.95  7490%  3950 4473s
  1168  1070 2464991.53  118  471 -75090.585 5549034.95  7490%  3946 4480s
  1169  1070 555834.532  194  506 -75090.585 5549034.95  7490%  3943 4486s
  1170  1071 1158414.22  185  457 -75090.585 5549034.95  7490%  3939 4499s
  1171  1072 3516418.46   93  458 -75090.585 5549034.95  7490%  3936 4506s
  1172  1072 3712276.22   39  492 -75090.585 5549034.95  7490%  3933 4512s
  1173  1073 3471654.73  130  525 -75090.585 5549034.95  7490%  3929 4517s
  1174  1074 451776.503  137  516 -75090.585 5549034.95  7490%  3926 4522s
  1175  1074 2528630.57  112  522 -75090.585 5549034.95  7490%  3923 4528s
  1177  1076 1191876.77  173  585 -75090.585 5549034.95  7490%  3916 4546s
  1179  1077 2930220.69  147  612 -75090.585 5549034.95  7490%  3909 4551s
  1180  1078 2418222.13  129  609 -75090.585 5549034.95  7490%  3906 4555s
  1181  1078 1180660.44  159  577 -75090.585 5521806.72  7454%  3903 4600s
  1184  1080 4893375.09   65  582 -75090.585 5518914.29  7450%  3893 4607s
  1185  1081 1415214.39  148  589 -75090.585 5518784.48  7450%  3890 4611s
  1186  1082 2120470.45   84  580 -75090.585 5513930.42  7443%  3886 4624s
  1187  1082 2280813.31  190  585 -75090.585 5512766.21  7441%  3883 4627s
  1189  1084 1672428.26  247  591 -75090.585 5511228.25  7439%  3877 4632s
  1191  1085 4101025.91   19  594 -75090.585 5510493.62  7438%  3870 4637s
  1192  1086 5133128.47   21  587 -75090.585 5508460.25  7436%  3867 4663s
  1193  1086 3086101.98   82  584 -75090.585 5507936.89  7435%  3864 4665s
  1195  1088 4985193.03   37  601 -75090.585 5506836.72  7434%  3857 4671s
  1197  1089 5360057.69   21  608 -75090.585 5506208.68  7433%  3851 4677s
  1198  1090 2094059.23  226  596 -75090.585 5505770.37  7432%  3847 4689s
  1199  1090 2145766.31  118  604 -75090.585 5505529.29  7432%  3844 4692s
  1200  1091 1620049.32  240  596 -75090.585 5505233.35  7431%  3841 4739s
  1201  1092 910513.471  289  592 -75090.585 5505233.35  7431%  3838 4742s
  1202  1092 4640704.99   77  592 -75090.585 5505233.35  7431%  3835 4847s
  1203  1096 5496142.38   23  600 -75090.585 5502540.10  7428%  4091 5011s
  1205  1099 5492144.89   24  587 -75090.585 5492144.89  7414%  4111 5157s
  1209  1102 5476237.51   25  581 -75090.585 5492100.00  7414%  4146 5315s
  1213  1105 4535739.74   25  508 -75090.585 5475166.80  7391%  4202 5445s
  1217  1107 5474878.09   26  581 -75090.585 5474878.09  7391%  4225 5480s
  1221  1110 3829212.41   26  410 -75090.585 5474869.14  7391%  4304 5789s
  1225  1115 5450664.21   27  579 -75090.585 5474869.14  7391%  4354 5875s
  1231  1114 5053320.47   27  332 -75090.585 5450664.21  7359%  4409 5958s
  1236  1116 5428979.95   28  562 -75090.585 5450662.32  7359%  4439 6021s
  1242  1118 5335039.62   28  479 -75090.585 5428946.45  7330%  4490 6129s
  1250  1123 5332833.14   29  479 -75090.585 5428946.45  7330%  4513 6200s
  1257  1133 5244722.15   29  461 -75090.585 5335031.33  7205%  4566 6284s
  1262  1131 5318762.57   30  521 -75090.585 5335031.33  7205%  4602 6356s
  1270  1141 5021035.11   30  429 -75090.585 5335031.33  7205%  4636 6441s
  1277  1142 5275277.14   31  491 -75090.585 5335031.33  7205%  4686 6508s
  1284  1148 5222417.16   31  482 -75090.585 5335031.33  7205%  4732 6597s
  1296  1156 5275261.73   32  488 -75090.585 5335031.33  7205%  4747 6729s
  1306  1162 5242361.92   33  497 -75090.585 5335031.33  7205%  4825 6831s
  1319  1171 5239595.15   34  438 -75090.585 5335031.33  7205%  4864 6945s
  1331  1180 5199901.89   35  445 -75090.585 5335031.33  7205%  4886 7046s
  1337  1184 4225795.03   35  454 -75090.585 5335031.33  7205%  4966 7182s
  1345  1188 5181078.61   36  435 -75090.585 5335031.33  7205%  4992 7297s
  1361  1197 5173219.21   37  424 -75090.585 5335031.33  7205%  5023 7429s
  1379  1210 5169940.41   38  426 -75090.585 5335031.33  7205%  5026 7552s
  1392  1219 5129735.96   39  439 -75090.585 5335031.33  7205%  5078 7704s
  1406  1227 5129731.46   40  443 -75090.585 5335031.33  7205%  5113 7829s
  1421  1239 5129595.60   41  442 -75090.585 5335031.33  7205%  5121 7986s
  1439  1248 5128802.91   43  426 -75090.585 5335031.33  7205%  5159 8185s
  1459  1265 5124584.24   44  451 -75090.585 5335031.33  7205%  5183 8411s
  1479  1273 5123934.31   45  431 -75090.585 5335031.33  7205%  5246 8534s
  1495  1284 5119224.93   46  451 -75090.585 5335031.33  7205%  5282 8810s
  1520  1301 5089796.41   47  457 -75090.585 5335031.33  7205%  5349 9018s
  1542  1317 5089657.63   48  454 -75090.585 5335031.33  7205%  5376 9237s
  1565  1334 4887234.94   49  451 -75090.585 5335031.33  7205%  5431 9423s
H 1578  1286                    -75090.58307 5335031.33  7205%  5467 9423s
  1583  1285 4925321.96   51  440 -75090.583 5335031.33  7205%  5482 9614s
  1604  1300 4904447.62   53  450 -75090.583 5335031.33  7205%  5547 9791s
  1632  1319 4894483.20   55  475 -75090.583 5335031.33  7205%  5574 10002s
  1660  1339 4875601.32   57  486 -75090.583 5335031.33  7205%  5612 10186s
  1679  1346 4858870.78   59  463 -75090.583 5335031.33  7205%  5678 10390s
  1712  1369 4853915.79   61  465 -75090.583 5335031.33  7205%  5700 10607s
  1741  1388 4791923.96   63  350 -75090.583 5335031.33  7205%  5742 10819s
  1776  1413 4748619.94   64  350 -75090.583 5335031.33  7205%  5767 11063s
  1823  1442 4714489.91   68  368 -75090.583 5335031.33  7205%  5744 11347s
  1871  1472 4703361.94   71  376 -75090.583 5335031.33  7205%  5744 11604s
  1907  1495 4677723.13   74  367 -75090.583 5335031.33  7205%  5782 11844s
  1960  1531 3620894.47   76  298 -75090.583 5335031.33  7205%  5768 12072s
  2010  1558 4405816.41   79  378 -75090.583 5335031.33  7205%  5766 12314s
  2070  1597 4109824.29   82  363 -75090.583 5335031.33  7205%  5730 12571s
  2131  1631 4094374.83   84  220 -75090.583 5335031.33  7205%  5673 12863s
  2199  1665 4075561.63   87  239 -75090.583 5335031.33  7205%  5623 13134s
  2252  1677 4056137.95   90  348 -75090.583 5335031.33  7205%  5634 13420s
  2291  1701 4033668.63   94  350 -75090.583 5335031.33  7205%  5679 13774s
  2361  1746 1285088.02   98  160 -75090.583 5335031.33  7205%  5673 14070s
  2407  1775 4016053.23  101  358 -75090.583 5335031.33  7205%  5679 14409s
  2482  1817 2457389.69  106  301 -75090.583 5335031.33  7205%  5693 14792s
  2576  1882 3940387.87  110  354 -75090.583 5335031.33  7205%  5647 15113s
  2677  1918 3919908.96  114  339 -75090.583 5335031.33  7205%  5575 15460s
  2727  1941 3915852.97  118  355 -75090.583 5335031.33  7205%  5654 15691s
  2781  1979 3236668.60  122  263 -75090.583 5335031.33  7205%  5738 15915s
  2844  2017 2707310.32  129  259 -75090.583 5335031.33  7205%  5804 16262s
  2941  2080 2636083.01  135  299 -75090.583 5335031.33  7205%  5802 16613s
  3065  2158 2538071.40  140  268 -75090.583 5335031.33  7205%  5749 16982s
  3184  2238 2497261.99  146  344 -75090.583 5335031.33  7205%  5703 17399s
  3331  2325 2484174.52  152  334 -75090.583 5335031.33  7205%  5636 17790s
  3483  2412 2424491.91  161  332 -75090.583 5335031.33  7205%  5580 18144s
  3582  2452 2412608.35  170  343 -75090.583 5335031.33  7205%  5625 18462s
  3661  2490 2406862.40  179  314 -75090.583 5335031.33  7205%  5694 18893s
  3771  2556 2400932.95  188  316 -75090.583 5335031.33  7205%  5742 19337s
  3894  2620 2398260.96  197  317 -75090.583 5335031.33  7205%  5755 19895s
  4068  2705 2335333.88  205  323 -75090.583 5335031.33  7205%  5721 20450s
  4325  2744 2325836.08  215  341 -75090.583 5335031.33  7205%  5578 20861s
  4394  2811 2313855.39  225  238 -75090.583 5335031.33  7205%  5658 21393s
  4512  2912 2304832.65  235  314 -75090.583 5335031.33  7205%  5687 21892s
  4657  3055 2288220.32  246  324 -75090.583 5335031.33  7205%  5697 22464s
  4772  3172 2274510.08  259  272 -75090.583 5335031.33  7205%  5755 23085s
  4860  3250 2240178.57  271  315 -75090.583 5335031.33  7205%  5848 23718s
  5042  3413 1185210.88  288  140 -75090.583 5335031.33  7205%  5856 24410s
  5296  3649     cutoff  305      -75090.583 5335031.33  7205%  5779 25072s
  5560  3859 1563563.73  325  257 -75090.583 5335031.33  7205%  5714 25516s
  5832  4111 1528759.90  347  288 -75090.583 5335031.33  7205%  5659 26228s
  6183  4380     cutoff  374      -75090.583 5335031.33  7205%  5577 26960s
  6541  4645 1372446.08  410  223 -75090.583 5335031.33  7205%  5478 27412s
H 6663  4688                    -75090.57983 5335031.33  7205%  5488 27412s
  6741  4752 1142280.19  445  219 -75090.580 5207044.80  7034%  5507 28024s
  7234  5146 4326411.57   65  485 -75090.580 5207044.80  7034%  5322 28596s
  7718  5520 3208919.90  189  426 -75090.580 5157586.97  6968%  5144 29235s
  8150  5929 4869938.45   35  463 -75090.580 5157586.97  6968%  5013 29993s
  8551  6305 4676514.36   45  469 -75090.580 5157586.97  6968%  4929 30682s
  8768  6515 3914575.16   55  463 -75090.580 5157586.97  6968%  4954 31593s
  8919  6651 3648481.70   65  366 -75090.580 5157586.97  6968%  5007 32543s
  9309  7014 3219800.97   82  344 -75090.580 5157586.97  6968%  4976 33174s
  9531  7191 3027229.19  104  370 -75090.580 5157586.97  6968%  5032 33913s
  9869  7496 2980498.90  125  380 -75090.580 5157586.97  6968%  5047 34929s
 10236  7848 2913614.30  148  365 -75090.580 5157586.97  6968%  5046 35970s
 10694  8255 2640140.21  171  317 -75090.580 5157586.97  6968%  5023 36868s
 11104  8611 2306839.74  199  287 -75090.580 5078549.93  6863%  5026 37715s
 11686  9035 2386253.21   70  313 -75090.580 5053288.04  6830%  4950 38795s
 12376  9650 940814.040  119  291 -75090.580 5037574.07  6809%  4825 39832s
 12800 10026 3674783.43   87  476 -75090.580 5030179.88  6799%  4794 41160s
 13381 10561 3584265.75   35  250 -75090.580 5030179.88  6799%  4736 42121s
 13739 10896 2577845.96   71  336 -75090.580 5020600.02  6786%  4727 42916s
 14091 11202 4421958.92   44  428 -75090.580 5007243.60  6768%  4743 43982s
 14548 11597     cutoff   38      -75090.580 5003350.77  6763%  4731 45182s
 15096 11945 3353878.18   79  407 -75090.580 5000942.63  6760%  4695 46156s
 15592 12367 1563346.52   91  387 -75090.580 4995335.64  6752%  4666 47009s
 16207 12846 2357461.53  108  361 -75090.580 4984136.07  6737%  4600 47890s
 16664 13262 2245994.26   74  306 -75090.580 4972738.39  6722%  4573 48937s
 17256 13791 174337.761  119  239 -75090.580 4969684.40  6718%  4512 49891s
 17734 14203 3164438.41   52  351 -75090.580 4962134.13  6708%  4497 50940s
 18021 14444 2534971.85   70  219 -75090.580 4962134.13  6708%  4517 51799s
 18416 14803 221328.428   99  118 -75090.580 4962134.13  6708%  4513 52814s
 18864 15191 1626616.16  132  145 -75090.580 4946329.09  6687%  4502 53709s
 19438 15673 3834992.36   64  339 -75090.580 4943553.63  6683%  4452 54638s
 19941 16135 297416.434  103  264 -75090.580 4937051.85  6675%  4429 55422s
 20288 16437 145607.580  122  224 -75090.580 4935990.38  6673%  4393 56179s
 20775 16844 612752.318  360  371 -75090.580 4935974.05  6673%  4366 62045s
 20777 16845 2210490.48   56  336 -75090.580 4935974.05  6673%  4366 62105s
 20778 16846 4142072.04   58  349 -75090.580 4935974.05  6673%  4365 62129s
 20779 16847 4497223.86   37  359 -75090.580 4935974.05  6673%  4365 62155s
 20780 16847 1337017.22  152  445 -75090.580 4935974.05  6673%  4365 62168s
 20781 16848 3961718.48   47  461 -75090.580 4935974.05  6673%  4365 62186s
 20782 16849 3638456.82   78  452 -75090.580 4935974.05  6673%  4365 62199s
 20783 16849 916337.055  316  471 -75090.580 4935974.05  6673%  4364 62208s
 20784 16850 1484222.20  214  444 -75090.580 4935974.05  6673%  4364 62218s
 20785 16851 1438590.93  148  451 -75090.580 4935974.05  6673%  4364 62236s
 20786 16851 439233.232  176  472 -75090.580 4935974.05  6673%  4364 62246s
 20787 16852 2349100.91  402  466 -75090.580 4935974.05  6673%  4364 62251s
 20788 16853 3536055.37   76  499 -75090.580 4935974.05  6673%  4363 62261s
 20789 16853 2325956.62   54  484 -75090.580 4935974.05  6673%  4363 62269s
 20790 16854 1035968.53  246  492 -75090.580 4935974.05  6673%  4363 62274s
 20791 16855 3623861.38   61  523 -75090.580 4935974.05  6673%  4363 62281s
 20792 16855 2093334.98  347  510 -75090.580 4935974.05  6673%  4362 62288s
 20793 16856 2378651.98   66  551 -75090.580 4935974.05  6673%  4362 62294s
 20794 16857 3592967.81   65  549 -75090.580 4935974.05  6673%  4362 62300s
 20795 16857 1436634.29  238  539 -75090.580 4935974.05  6673%  4362 62309s
 20796 16858 1135910.58  113  539 -75090.580 4935974.05  6673%  4362 62312s
 20797 16859 2603880.03   89  546 -75090.580 4935974.05  6673%  4361 62315s
 20798 16859 553131.833  375  534 -75090.580 4935974.05  6673%  4361 62400s
 20799 16860 2204240.99  225  552 -75090.580 4935974.05  6673%  4361 62412s
 20800 16861 2921760.02  212  564 -75090.580 4935974.05  6673%  4361 62416s
 20802 16862 3543398.70   57  580 -75090.580 4935974.05  6673%  4360 62421s
 20803 16863 2201420.79   57  596 -75090.580 4935974.05  6673%  4360 62467s
 20804 16863 1595660.07  224  545 -75090.580 4935974.05  6673%  4360 62523s
 20805 16864 4258526.97   36  570 -75090.580 4935974.05  6673%  4360 62531s
 20806 16865 2202983.65   97  551 -75090.580 4935974.05  6673%  4360 62536s
 20808 16866 2025688.73   55  589 -75090.580 4935974.05  6673%  4359 62541s
 20810 16867 1038553.32  220  587 -75090.580 4935974.05  6673%  4359 62547s
 20811 16868 667755.428   85  576 -75090.580 4935974.05  6673%  4358 62554s
 20812 16869 4685082.60   44  572 -75090.580 4935974.05  6673%  4358 62556s
 20813 16869 2329059.96   92  584 -75090.580 4935974.05  6673%  4358 62592s
 20814 16870 3764370.44  112  590 -75090.580 4935974.05  6673%  4358 62704s
 20815 16871 4405420.27   46  566 -75090.580 4935974.05  6673%  4358 62714s
 20816 16871 2104265.58   38  561 -75090.580 4935974.05  6673%  4357 62719s
 20817 16872 3044967.08  100  585 -75090.580 4935974.05  6673%  4357 62724s
 20818 16873 1686998.97  173  577 -75090.580 4935974.05  6673%  4357 62726s
 20820 16874 47579.3949  203  582 -75090.580 4935974.05  6673%  4357 62781s
 20821 16875 318823.834  294  548 -75090.580 4935974.05  6673%  4356 62905s
 20823 16876 2220046.29  162  585 -75090.580 4935974.05  6673%  4356 62912s
 20825 16877 3763432.81   34  594 -75090.580 4935974.05  6673%  4356 62917s
 20826 16878 1580843.37  232  617 -75090.580 4935974.05  6673%  4355 62960s
 20827 16879 46894.0315  310  579 -75090.580 4935974.05  6673%  4355 63071s
 20829 16880 1010653.10  177  584 -75090.580 4935974.05  6673%  4355 63077s
 20831 16881 473648.254  118  607 -75090.580 4935974.05  6673%  4354 63082s
 20832 16882 3485201.94  100  617 -75090.580 4935974.05  6673%  4354 63108s
 20833 16883 552542.311  170  588 -75090.580 4935974.05  6673%  4354 63173s
 20834 16883 4051095.05   74  611 -75090.580 4935974.05  6673%  4354 63178s
 20835 16884 3184451.36   89  607 -75090.580 4935974.05  6673%  4353 63180s
 20836 16885 2821455.76  115  622 -75090.580 4935974.05  6673%  4353 63207s
 20837 16885 2121589.14  131  592 -75090.580 4935974.05  6673%  4353 63248s
 20838 16886 3627985.80  144  608 -75090.580 4935974.05  6673%  4353 63250s
 20840 16887 3309883.54   99  579 -75090.580 4935974.05  6673%  4352 63255s
 20843 16889 1038181.96  124  625 -75090.580 4935974.05  6673%  4352 63289s
 20844 16890 1927550.87  162  594 -75090.580 4935974.05  6673%  4352 63324s
 20845 16891 1058377.11  393  616 -75090.580 4935974.05  6673%  4351 63327s
 20847 16892 4817529.34   48  635 -75090.580 4935974.05  6673%  4351 63381s
 20848 16893 590391.260  120  617 -75090.580 4935974.05  6673%  4351 63417s
 20850 16894 2097001.66  213  618 -75090.580 4935974.05  6673%  4350 63422s
 20851 16895 2308090.78   79  603 -75090.580 4935974.05  6673%  4350 63453s
 20852 16895 1719256.69   81  603 -75090.580 4935974.05  6673%  4350 63508s
 20853 16896 4309193.65   50  624 -75090.580 4935974.05  6673%  4350 63511s
 20855 16897 1889527.73   88  637 -75090.580 4935974.05  6673%  4349 63516s
 20857 16899 1716334.00  169  635 -75090.580 4935974.05  6673%  4349 63548s
 20858 16899 945143.065   89  630 -75090.580 4935974.05  6673%  4349 63587s
 20859 16900 1591534.09  227  655 -75090.580 4935974.05  6673%  4348 63593s
 20860 16901 1405631.11   73  615 -75090.580 4935974.05  6673%  4348 63599s
 20861 16901 842833.732  275  642 -75090.580 4935974.05  6673%  4348 63602s
 20862 16902 3043112.94   83  645 -75090.580 4935974.05  6673%  4348 63606s
 20864 16903 2598240.15  228  631 -75090.580 4935974.05  6673%  4347 63612s
 20866 16905 3185689.26   40  645 -75090.580 4935974.05  6673%  4347 63618s
 20867 16905 2271054.38   47  644 -75090.580 4935974.05  6673%  4347 63620s
 20868 16906 1558641.71  255  664 -75090.580 4935974.05  6673%  4347 63656s
 20869 16907 1391432.67  236  609 -75090.580 4935974.05  6673%  4346 63692s
 20870 16907 3337328.92  156  621 -75090.580 4935974.05  6673%  4346 63702s
 20871 16908 1686333.66   97  605 -75090.580 4935974.05  6673%  4346 63705s
 20873 16909 774568.378  273  612 -75090.580 4935974.05  6673%  4346 63734s
 20874 16910 4160582.17   53  590 -75090.580 4935974.05  6673%  4345 63766s
 20876 16911 2420877.79  134  650 -75090.580 4935974.05  6673%  4345 63774s
 20877 16912 2210490.48   56  637 -75090.580 4935974.05  6673%  4345 63776s
 20879 16913 4497223.86   37  663 -75090.580 4935974.05  6673%  4344 63803s
 20880 16914 1337017.22  152  638 -75090.580 4935974.05  6673%  4344 63836s
 20881 16915 3961718.48   47  652 -75090.580 4935974.05  6673%  4344 63854s
 20882 16915 3638456.82   78  662 -75090.580 4935974.05  6673%  4344 63894s
 20883 16916 916337.055  316  670 -75090.580 4935974.05  6673%  4343 63978s
 20884 16917 1484222.20  214  649 -75090.580 4935974.05  6673%  4343 64021s
 20886 16918 439233.232  176  651 -75090.580 4935974.05  6673%  4343 64027s
 20888 16919 3536055.37   76  657 -75090.580 4935974.05  6673%  4342 64031s
 20889 16920 2325956.62   54  671 -75090.580 4935974.05  6673%  4342 64076s
 20890 16921 1035968.53  246  660 -75090.580 4935974.05  6673%  4342 64111s
 20892 16922 2093334.98  347  670 -75090.580 4935974.05  6673%  4342 64116s
 20893 16923 2378651.98   66  676 -75090.580 4935974.05  6673%  4341 64144s
 20894 16923 3592967.81   65  657 -75090.580 4935974.05  6673%  4341 64175s
 20895 16924 1436634.29  238  652 -75090.580 4935974.05  6673%  4341 64201s
 20896 16925 1135910.58  113  652 -75090.580 4935974.05  6673%  4341 64243s
 20897 16925 2603880.03   89  666 -75090.580 4935974.05  6673%  4341 64246s
 20898 16926 553131.833  375  673 -75090.580 4935974.05  6673%  4340 64250s
 20899 16927 2204240.99  225  663 -75090.580 4935974.05  6673%  4340 64273s
 20900 16927 2921760.02  212  615 -75090.580 4935974.05  6673%  4340 64306s
 20901 16928 1475050.26  244  645 -75090.580 4935974.05  6673%  4340 64335s
 20902 16929 3543398.70   57  632 -75090.580 4935974.05  6673%  4339 64369s
 20903 16929 2201420.79   57  664 -75090.580 4935974.05  6673%  4339 64372s
 20904 16930 1595660.07  224  668 -75090.580 4935974.05  6673%  4339 64375s
 20905 16931 4258526.97   36  661 -75090.580 4935974.05  6673%  4339 64406s
 20906 16931 2202983.65   97  667 -75090.580 4935974.05  6673%  4339 64441s
 20907 16932 3537380.44  121  650 -75090.580 4935974.05  6673%  4338 64467s
 20908 16933 2025688.73   55  623 -75090.580 4935974.05  6673%  4338 64505s
 20911 16935 667755.428   85  661 -75090.580 4935974.05  6673%  4338 64540s
 20912 16935 4685082.60   44  674 -75090.580 4935974.05  6673%  4337 64567s
 20914 16937 3764370.44  112  672 -75090.580 4935974.05  6673%  4337 64595s
 20915 16937 4405420.27   46  671 -75090.580 4935974.05  6673%  4337 64628s
 20916 16938 2104265.58   38  660 -75090.580 4935974.05  6673%  4337 64657s
 20917 16939 3044967.08  100  665 -75090.580 4935974.05  6673%  4336 64711s
 20918 16939 1686998.97  173  654 -75090.580 4935974.05  6673%  4336 64780s
 20919 16940 1833578.92  136  667 -75090.580 4935974.05  6673%  4336 64814s
 20920 16941 47579.3949  203  659 -75090.580 4935974.05  6673%  4336 64816s
 20921 16941 318823.834  294  679 -75090.580 4935974.05  6673%  4336 64875s
 20922 16942 3063585.50   63  674 -75090.580 4935974.05  6673%  4335 64916s
 20925 16944 3763432.81   34  688 -75090.580 4935974.05  6673%  4335 64950s
 20926 16945 1580843.37  232  677 -75090.580 4935974.05  6673%  4335 64988s
 20927 16945 46894.0315  310  685 -75090.580 4935974.05  6673%  4334 65062s
 20928 16946 2881798.31   86  653 -75090.580 4935974.05  6673%  4334 65095s
 20930 16947 956008.019  260  658 -75090.580 4935974.05  6673%  4334 65160s
 20931 16948 473648.254  118  648 -75090.580 4935974.05  6673%  4333 65199s
 20932 16949 3485201.94  100  650 -75090.580 4935974.05  6673%  4333 65201s
 20934 16950 4051095.05   74  687 -75090.580 4935974.05  6673%  4333 65207s
 20935 16951 3184451.36   89  679 -75090.580 4935974.05  6673%  4333 65289s
 20936 16951 2821455.76  115  683 -75090.580 4935974.05  6673%  4332 65339s
 20937 16952 2121589.14  131  675 -75090.580 4935974.05  6673%  4332 65367s
 20938 16953 3627985.80  144  626 -75090.580 4935974.05  6673%  4332 65411s
 20939 16953 2824571.63  123  652 -75090.580 4935974.05  6673%  4332 65417s
 20940 16954 3309883.54   99  640 -75090.580 4935974.05  6673%  4332 65428s
 20941 16955 4553995.69   49  632 -75090.580 4935974.05  6673%  4331 65432s
 20942 16955 1211125.31  186  639 -75090.580 4935974.05  6673%  4331 65436s
 20944 16957 1927550.87  162  649 -75090.580 4935974.05  6673%  4331 65441s
 20945 16957 1058377.11  393  635 -75090.580 4935974.05  6673%  4331 65509s
 20946 16958 515887.434  130  634 -75090.580 4935974.05  6673%  4330 65546s
 20948 16959 590391.260  120  670 -75090.580 4935974.05  6673%  4330 65552s
 20949 16960 2599617.11  127  651 -75090.580 4935974.05  6673%  4330 65585s
 20950 16961 2097001.66  213  641 -75090.580 4935974.05  6673%  4330 65619s
 20951 16961 2308090.78   79  661 -75090.580 4935974.05  6673%  4329 65649s
 20952 16962 1719256.69   81  642 -75090.580 4935974.05  6673%  4329 65685s
 20954 16963 1115119.40  213  638 -75090.580 4935974.05  6673%  4329 65691s
 20955 16964 1889527.73   88  646 -75090.580 4935974.05  6673%  4329 65728s
 20956 16965 2607905.99  225  592 -75090.580 4935974.05  6673%  4328 65775s
 20957 16965 1716334.00  169  607 -75090.580 4935974.05  6673%  4328 65806s
 20958 16966 945143.065   89  574 -75090.580 4935974.05  6673%  4328 65874s
 20959 16967 1591534.09  227  632 -75090.580 4935974.05  6673%  4328 65878s
 20960 16967 1405631.11   73  621 -75090.580 4935974.05  6673%  4327 65881s
 20962 16969 3043112.94   83  645 -75090.580 4935974.05  6673%  4327 65912s
 20963 16969 1665259.77  206  637 -75090.580 4935974.05  6673%  4327 65959s
 20964 16970 2598240.15  228  634 -75090.580 4935974.05  6673%  4327 65964s
 20965 16971 3668864.78   54  656 -75090.580 4935974.05  6673%  4326 65967s
 20966 16971 3185689.26   40  663 -75090.580 4935974.05  6673%  4326 65974s
 20967 16972 2271054.38   47  658 -75090.580 4935974.05  6673%  4326 66004s
 20968 16973 1558641.71  255  643 -75090.580 4935974.05  6673%  4326 66049s
 20969 16973 1391432.67  236  619 -75090.580 4935974.05  6673%  4326 66053s
 20970 16974 3337328.92  156  636 -75090.580 4935974.05  6673%  4325 66056s
 20971 16975 1686333.66   97  648 -75090.580 4935974.05  6673%  4325 66087s
 20972 16975 1473535.11   69  596 -75090.580 4935974.05  6673%  4325 66127s
 20973 16976 774568.378  273  639 -75090.580 4935974.05  6673%  4325 66131s
 20974 16977 4160582.17   53  660 -75090.580 4935974.05  6673%  4325 66161s
 20975 16977 612752.318  360  640 -75090.580 4935974.05  6673%  4324 66217s
 20977 16979 2210490.48   56  637 -75090.580 4935974.05  6673%  4324 66243s
 20978 16979 4142072.04   58  638 -75090.580 4935974.05  6673%  4324 66272s
 20979 16980 4497223.86   37  636 -75090.580 4935974.05  6673%  4324 66298s
 20980 16981 1337017.22  152  625 -75090.580 4935974.05  6673%  4323 66333s
 20981 16981 3961718.48   47  605 -75090.580 4935974.05  6673%  4323 66361s
 20982 16982 3638456.82   78  624 -75090.580 4935974.05  6673%  4323 66425s
 20983 16983 916337.055  316  629 -75090.580 4935974.05  6673%  4323 66454s
 20984 16983 1484222.20  214  628 -75090.580 4935974.05  6673%  4323 66496s
 20985 16984 1438590.93  148  647 -75090.580 4935974.05  6673%  4322 66525s
 20986 16985 439233.232  176  643 -75090.580 4935974.05  6673%  4322 66552s
 20987 16985 2349100.91  402  639 -75090.580 4935974.05  6673%  4322 66579s
 20988 16986 3536055.37   76  595 -75090.580 4935288.70  6672%  4322 66616s
 20989 16987 2325956.62   54  612 -75090.580 4934012.73  6671%  4322 66622s
 20991 16988 3623861.38   61  602 -75090.580 4933247.98  6670%  4321 66666s
 20992 16989 2093334.98  347  639 -75090.580 4931662.02  6668%  4321 66706s
 20994 16990 3592967.81   65  620 -75090.580 4930527.39  6666%  4320 66711s
 20995 16991 1436634.29  238  611 -75090.580 4930424.69  6666%  4320 66744s
 20996 16991 1135910.58  113  618 -75090.580 4929546.74  6665%  4320 66778s
 20997 16992 2603880.03   89  626 -75090.580 4928977.16  6664%  4320 66781s
 20998 16993 553131.833  375  627 -75090.580 4928725.01  6664%  4320 66807s
 20999 16993 2204240.99  225  633 -75090.580 4927491.12  6662%  4319 66837s
 21000 16994 2921760.02  212  644 -75090.580 4927128.65  6662%  4319 66863s
 21001 16995 1475050.26  244  623 -75090.580 4925453.80  6659%  4319 66896s
 21002 16995 3543398.70   57  630 -75090.580 4925355.07  6659%  4319 66919s
 21003 16996 2201420.79   57  630 -75090.580 4924611.17  6658%  4319 66951s
 21004 16997 1595660.07  224  634 -75090.580 4924373.26  6658%  4318 66975s
 21005 16997 4258526.97   36  636 -75090.580 4923710.67  6657%  4318 67004s
 21006 16998 2202983.65   97  642 -75090.580 4923640.93  6657%  4318 67030s
 21007 16999 3537380.44  121  647 -75090.580 4922199.94  6655%  4318 67061s
 21008 16999 2025688.73   55  658 -75090.580 4921870.03  6655%  4318 67088s
 21009 17000 2252918.26  120  658 -75090.580 4921639.66  6654%  4317 67118s
 21010 17001 1038553.32  220  675 -75090.580 4921550.90  6654%  4317 67148s
 21011 17001 667755.428   85  642 -75090.580 4920733.38  6653%  4317 67177s
 21012 17002 4685082.60   44  650 -75090.580 4920533.67  6653%  4317 67216s
 21013 17003 2329059.96   92  642 -75090.580 4919944.49  6652%  4317 67280s
 21014 17003 3764370.44  112  638 -75090.580 4919783.87  6652%  4316 67328s
 21015 17004 4405420.27   46  636 -75090.580 4919247.49  6651%  4316 67358s
 21016 17005 2104265.58   38  645 -75090.580 4918876.83  6651%  4316 67417s
 21017 17005 3044967.08  100  640 -75090.580 4918636.70  6650%  4316 67448s
 21018 17006 1686998.97  173  639 -75090.580 4918608.30  6650%  4316 67476s
 21019 17007 1833578.92  136  648 -75090.580 4918255.90  6650%  4315 67518s
 21020 17007 47579.3949  203  647 -75090.580 4918158.38  6650%  4315 67545s
 21021 17008 318823.834  294  653 -75090.580 4918143.45  6650%  4315 67572s
 21022 17009 3063585.50   63  646 -75090.580 4917863.34  6649%  4315 67596s
 21023 17009 2220046.29  162  637 -75090.580 4917598.53  6649%  4315 67624s
 21024 17010 2325215.41   65  625 -75090.580 4917429.80  6649%  4314 67652s
 21025 17011 3763432.81   34  628 -75090.580 4917352.27  6649%  4314 67685s
 21026 17011 1580843.37  232  629 -75090.580 4917157.62  6648%  4314 67717s
 21027 17012 46894.0315  310  635 -75090.580 4917146.80  6648%  4314 67751s
 21028 17013 2881798.31   86  637 -75090.580 4917112.41  6648%  4313 67776s
 21029 17013 1010653.10  177  640 -75090.580 4917109.67  6648%  4313 67805s
 21030 17014 956008.019  260  634 -75090.580 4916963.29  6648%  4313 67852s
 21031 17015 473648.254  118  631 -75090.580 4916833.61  6648%  4313 67884s
 21032 17015 3485201.94  100  627 -75090.580 4916791.26  6648%  4313 67909s
 21033 17016 552542.311  170  636 -75090.580 4916535.33  6647%  4312 67937s
 21034 17017 4051095.05   74  636 -75090.580 4916363.00  6647%  4312 67963s
 21035 17017 3184451.36   89  628 -75090.580 4915238.60  6646%  4312 67992s
 21036 17018 2821455.76  115  622 -75090.580 4914862.91  6645%  4312 68020s
 21037 17019 2121589.14  131  623 -75090.580 4914686.83  6645%  4312 68050s
 21038 17019 3627985.80  144  636 -75090.580 4914621.41  6645%  4311 68073s
 21039 17020 2824571.63  123  640 -75090.580 4914419.71  6645%  4311 68102s
 21040 17021 3309883.54   99  645 -75090.580 4914377.58  6645%  4311 68128s
 21041 17021 4553995.69   49  637 -75090.580 4912537.45  6642%  4311 68175s
 21042 17022 1211125.31  186  648 -75090.580 4912308.50  6642%  4311 68200s
 21043 17023 1038181.96  124  629 -75090.580 4910239.73  6639%  4310 68237s
 21044 17023 1927550.87  162  632 -75090.580 4909433.39  6638%  4310 68241s
 21045 17024 1058377.11  393  631 -75090.580 4909066.93  6638%  4310 68268s
 21046 17025 515887.434  130  624 -75090.580 4906565.90  6634%  4310 68305s
 21048 17026 590391.260  120  643 -75090.580 4905112.94  6632%  4309 68311s
 21049 17027 2599617.11  127  634 -75090.580 4904896.74  6632%  4309 68342s
 21050 17027 2097001.66  213  642 -75090.580 4904540.68  6631%  4309 68379s
 21051 17028 2308090.78   79  636 -75090.580 4904042.80  6631%  4309 68382s
 21052 17029 1719256.69   81  639 -75090.580 4903978.22  6631%  4309 68409s
 21053 17029 4309193.65   50  633 -75090.580 4903906.96  6631%  4308 68439s
 21054 17030 1115119.40  213  640 -75090.580 4903749.68  6630%  4308 68470s
 21055 17031 1889527.73   88  639 -75090.580 4902118.53  6628%  4308 68507s
 21056 17031 2607905.99  225  604 -75090.580 4901980.52  6628%  4308 68538s
 21057 17032 1716334.00  169  621 -75090.580 4901728.92  6628%  4308 68568s
 21058 17033 945143.065   89  611 -75090.580 4901594.69  6628%  4307 68596s
 21059 17033 1591534.09  227  652 -75090.580 4901318.25  6627%  4307 68630s
 21060 17034 1405631.11   73  634 -75090.580 4901260.33  6627%  4307 68660s
 21061 17035 842833.732  275  639 -75090.580 4901181.83  6627%  4307 68693s
 21062 17035 3043112.94   83  628 -75090.580 4901034.62  6627%  4307 68723s
 21063 17036 1665259.77  206  646 -75090.580 4899745.10  6625%  4306 68757s
 21064 17037 2598240.15  228  634 -75090.580 4899322.84  6625%  4306 68760s
 21065 17037 3668864.78   54  641 -75090.580 4899250.48  6624%  4306 68788s
 21066 17038 3185689.26   40  644 -75090.580 4898698.10  6624%  4306 68818s
 21067 17039 2271054.38   47  630 -75090.580 4898519.13  6623%  4306 68848s
 21068 17039 1558641.71  255  669 -75090.580 4897761.86  6622%  4305 68884s
 21069 17040 1391432.67  236  635 -75090.580 4897618.55  6622%  4305 68915s
 21070 17041 3337328.92  156  654 -75090.580 4897332.09  6622%  4305 68942s
 21071 17041 1686333.66   97  674 -75090.580 4897186.29  6622%  4305 68972s
 21072 17042 1473535.11   69  629 -75090.580 4896560.21  6621%  4304 69007s
 21073 17043 774568.378  273  656 -75090.580 4896423.52  6621%  4304 69033s
 21074 17043 4160582.17   53  648 -75090.580 4896294.83  6621%  4304 69064s
 21075 17044 612752.318  360  649 -75090.580 4896163.80  6620%  4304 69090s
 21076 17045 2420877.79  134  644 -75090.580 4895133.72  6619%  4304 69123s
 21077 17045 2210490.48   56  653 -75090.580 4894707.06  6618%  4303 69126s
 21078 17046 4142072.04   58  660 -75090.580 4894572.48  6618%  4303 69154s
 21079 17047 4497223.86   37  638 -75090.580 4894376.96  6618%  4303 69187s
 21080 17047 1337017.22  152  653 -75090.580 4894139.65  6618%  4303 69215s
 21081 17048 3961718.48   47  651 -75090.580 4893902.13  6617%  4303 69246s
 21082 17049 3638456.82   78  651 -75090.580 4893787.17  6617%  4302 69274s
 21083 17049 916337.055  316  648 -75090.580 4893379.21  6617%  4302 69306s
 21084 17050 1484222.20  214  647 -75090.580 4893308.48  6617%  4302 69334s
 21085 17051 1438590.93  148  642 -75090.580 4893286.80  6617%  4302 69365s
 21086 17051 439233.232  176  637 -75090.580 4892942.49  6616%  4302 69394s
 21087 17052 2349100.91  402  639 -75090.580 4892289.85  6615%  4301 69439s
 21088 17053 3536055.37   76  650 -75090.580 4892257.05  6615%  4301 69468s
 21089 17053 2325956.62   54  655 -75090.580 4890906.83  6613%  4301 69531s
 21090 17054 1035968.53  246  666 -75090.580 4890591.37  6613%  4301 69562s
 21091 17055 3623861.38   61  672 -75090.580 4890327.03  6613%  4301 69598s
 21092 17055 2093334.98  347  668 -75090.580 4890232.67  6612%  4300 69625s
 21093 17056 2378651.98   66  674 -75090.580 4890151.78  6612%  4300 69660s
 21094 17057 3592967.81   65  677 -75090.580 4889989.74  6612%  4300 69689s
 21095 17057 1436634.29  238  666 -75090.580 4889539.02  6612%  4300 69724s
 21096 17058 1135910.58  113  686 -75090.580 4888934.57  6611%  4300 69727s
 21097 17059 2603880.03   89  680 -75090.580 4888611.41  6610%  4299 69751s
 21098 17059 553131.833  375  671 -75090.580 4887716.30  6609%  4299 69787s
 21099 17060 2204240.99  225  677 -75090.580 4887425.78  6609%  4299 69816s
 21100 17061 2921760.02  212  674 -75090.580 4887158.85  6608%  4299 69854s
 21101 17061 1475050.26  244  682 -75090.580 4886968.10  6608%  4299 69885s
 21102 17062 3543398.70   57  688 -75090.580 4886905.00  6608%  4298 69915s
 21103 17063 2201420.79   57  687 -75090.580 4886888.75  6608%  4298 69942s
 21104 17063 1595660.07  224  686 -75090.580 4886863.96  6608%  4298 69985s
 21105 17064 4258526.97   36  686 -75090.580 4886863.96  6608%  4298 70231s
 21106 17068 4863632.75   37  665 -75090.580 4886110.71  6607%  4337 70472s
 21108 17071 4845438.43   38  660 -75090.580 4860137.60  6572%  4339 70656s
 21112 17074 4813189.18   39  638 -75090.580 4845433.88  6553%  4345 70810s
 21116 17076 4790684.82   39  593 -75090.580 4813141.77  6510%  4350 71049s
 21120 17079 4813138.53   40  641 -75090.580 4813138.53  6510%  4352 71098s
 21124 17082 3149067.92   40  465 -75090.580 4813070.68  6510%  4358 71483s
 21128 17086 4802286.85   41  629 -75090.580 4812904.53  6509%  4361 71647s
 21134 17084 4688159.30   41  539 -75090.580 4802285.45  6495%  4365 71782s
 21138 17086 4778757.20   42  590 -75090.580 4802285.45  6495%  4366 71838s
 21143 17092 4221284.41   42  597 -75090.580 4790683.62  6480%  4368 71999s
 21147 17095 4767965.91   43  581 -75090.580 4790683.62  6480%  4370 72122s
 21153 17098 4727547.05   44  569 -75090.580 4790683.62  6480%  4374 72357s
 21160 17098 4604022.22   45  537 -75090.580 4790683.62  6480%  4380 72548s
 21167 17106 4712826.22   45  556 -75090.580 4790683.62  6480%  4385 72684s
 21173 17108 4687731.71   46  565 -75090.580 4790683.62  6480%  4390 72867s
 21183 17119 4687449.62   47  576 -75090.580 4790683.62  6480%  4395 73045s
 21189 17118 4561075.58   48  526 -75090.580 4790683.62  6480%  4404 73229s
 21198 17131 4481468.29   48  509 -75090.580 4790683.62  6480%  4411 73358s
 21204 17130 4560570.73   49  530 -75090.580 4790683.62  6480%  4414 73611s
 21211 17136 4557321.22   50  553 -75090.580 4790683.62  6480%  4423 73775s
 21223 17144 4554446.33   51  577 -75090.580 4790683.62  6480%  4433 73961s
 21233 17152 4549197.32   52  555 -75090.580 4790683.62  6480%  4442 74169s
 21243 17156 4538653.28   53  511 -75090.580 4790683.62  6480%  4451 74519s
 21256 17163 4505619.15   55  517 -75090.580 4790683.62  6480%  4462 74780s
 21269 17174 4498616.85   56  519 -75090.580 4790683.62  6480%  4469 74959s
 21281 17180 4466553.31   57  517 -75090.580 4790683.62  6480%  4477 75180s
 21297 17193 4422646.30   58  501 -75090.580 4790683.62  6480%  4486 75433s
 21312 17199 4194205.50   60  512 -75090.580 4790683.62  6480%  4496 75656s
 21330 17210 4190169.45   62  508 -75090.580 4790683.62  6480%  4505 75856s
 21350 17227 3983569.49   63  452 -75090.580 4790683.62  6480%  4515 76108s
 21367 17236 4153138.00   65  569 -75090.580 4790683.62  6480%  4526 76403s
 21392 17252 4151971.27   67  565 -75090.580 4790683.62  6480%  4539 76608s
 21420 17275 3992184.58   69  509 -75090.580 4790683.62  6480%  4548 76824s
 21451 17287 4010538.59   72  490 -75090.580 4790683.62  6480%  4557 77035s
 21486 17310 3943818.69   74  476 -75090.580 4790683.62  6480%  4566 77290s
 21523 17328 3862096.27   77  442 -75090.580 4790683.62  6480%  4576 77547s
 21560 17342 3789234.78   79  471 -75090.580 4790683.62  6480%  4584 77770s
 21599 17357 3600623.20   81  413 -75090.580 4790683.62  6480%  4591 78049s
 21634 17372 3564769.72   84  413 -75090.580 4790683.62  6480%  4602 78246s
 21650 17374 3531567.64   87  417 -75090.580 4790683.62  6480%  4613 78483s
 21702 17400 3386785.59   89  492 -75090.580 4790683.62  6480%  4620 78713s
 21742 17407 3372512.34   93  482 -75090.580 4790683.62  6480%  4631 78891s
 21764 17418 3331137.29   97  487 -75090.580 4790683.62  6480%  4644 79072s
 21794 17432 3294721.86  101  475 -75090.580 4790683.62  6480%  4659 79223s
 21820 17447 3256591.70  104  475 -75090.580 4790683.62  6480%  4672 79405s
 21862 17471 3218894.56  108  465 -75090.580 4790683.62  6480%  4685 79606s
 21923 17506 3187002.12  111  505 -75090.580 4790683.62  6480%  4694 79828s
 21957 17524 3131101.89  115  479 -75090.580 4790683.62  6480%  4708 80020s
 21994 17549 3091392.56  118  489 -75090.580 4790683.62  6480%  4718 80215s
 22051 17588 2710436.96  121  457 -75090.580 4790683.62  6480%  4730 80524s
 22098 17618 3002688.63  126  485 -75090.580 4790683.62  6480%  4744 80875s
 22149 17651 2934357.59  130  503 -75090.580 4790683.62  6480%  4761 81221s
 22218 17696 1871956.79  134  439 -75090.580 4790683.62  6480%  4775 81589s
 22271 17723 2771341.04  138  526 -75090.580 4790683.62  6480%  4789 81976s
 22320 17753 2668949.22  142  520 -75090.580 4790683.62  6480%  4808 82411s
 22381 17799 2620806.90  147  528 -75090.580 4790683.62  6480%  4828 82871s
 22440 17833 2544837.95  151  547 -75090.580 4790683.62  6480%  4847 83384s
 22530 17888 1978289.29  157  395 -75090.580 4790683.62  6480%  4864 84595s
 22593 17918 2386726.80  164  477 -75090.580 4790683.62  6480%  4900 85229s
 22638 17942 800766.446  170  257 -75090.580 4790683.62  6480%  4939 85787s
 22754 18023 2057393.57  178  516 -75090.580 4790683.62  6480%  4954 86327s
 22916 18099 1941156.50  186  469 -75090.580 4790683.62  6480%  4954 86400s
H22919 17243                    -75090.55722 4790683.62  6480%  4954 86400s

Cutting planes:
  Gomory: 189
  Implied bound: 24
  Projected implied bound: 57
  MIR: 114
  Flow cover: 859
  Zero half: 1

Explored 22951 nodes (113756026 simplex iterations) in 86400.11 seconds
Thread count was 4 (of 16 available processors)

Solution count 10: -75090.6 -75090.6 -75090.6 ... -78691.4

Time limit reached
Best objective -7.509055713576e+04, best bound 4.790683621437e+06, gap 6479.8749%

***
***  |- Calculation finished, timelimit reached 86,400.13 (86400.13) sec.))
***  |-----------------------------------------------------------------------------------------------------------------------
***
*****************************************************************************************************************************
#############################################################################################################################
###
### Results
###
### The objective of the solution is -75,090.5571 (-75090.5571) and is feasible with a Gap of 64.7987
###
### Service 42 (SAMBA) is operated by 7 vessels from type 18 (PMax25)
###  |- Vessel  1 has the path [143, 77, 78, 5, 0]
###  |  143 (USMSY Out@238.0) - 77 (ESALG In@607.0/Out@631.0) - 78 (ESALG In@613.0/Out@658.0) - 5 (ARBUE In@1088.0/Out@1112.0
###  |  ) - 0 (DUMMY_END Ziel-Service 42)
###  |   |- and carried Demand  98, 392.0 containers from  78 to   5
###  |   |- and carried Demand  99,  13.0 containers from  78 to   5
###  |   |- and carried Demand 490, 392.0 containers from  77 to   5
###  |   |- and carried Demand 491,  13.0 containers from  77 to   5
###  |   |- and carried Demand 494,  59.0 containers from  77 to   5
###  |   |- and carried Demand 495,   6.0 containers from  77 to   5
###  |   |- and carried Demand 496, 126.0 containers from  77 to   5
###  |- Vessel  2 has the path [144, 4, 0]
###  |  144 (USMSY Out@406.0) - 4 (ARBUE In@920.0/Out@944.0) - 0 (DUMMY_END Ziel-Service 42)
###  |- Vessel  3 has the path [145, 6, 0]
###  |  145 (USMSY Out@574.0) - 6 (ARBUE In@1256.0/Out@1280.0) - 0 (DUMMY_END Ziel-Service 42)
###  |- Vessel  4 has the path [146, 83, 85, 86, 87, 88, 52, 33, 12, 0]
###  |  146 (USMSY Out@742.0) - 83 (ESALG In@1111.0/Out@1135.0) - 85 (ESALG In@1213.0/Out@1243.0) - 86 (ESALG In@1279.0/Out@1
###  |  303.0) - 87 (ESALG In@1381.0/Out@1411.0) - 88 (ESALG In@1447.0/Out@1471.0) - 52 (BRSSZ In@1794.0/Out@1812.0) - 33 (BR
###  |  PNG In@1842.0/Out@1863.0) - 12 (ARBUE In@1928.0/Out@1952.0) - 0 (DUMMY_END Ziel-Service 42)
###  |   |- and carried Demand  15,  14.0 containers from  85 to  52
###  |   |- and carried Demand  17,  25.0 containers from  85 to  12
###  |   |- and carried Demand  24,  16.0 containers from  85 to  12
###  |   |- and carried Demand  26, 125.0 containers from  87 to  52
###  |   |- and carried Demand  27,  10.0 containers from  87 to  52
###  |   |- and carried Demand  28,   4.0 containers from  87 to  33
###  |   |- and carried Demand  30, 224.0 containers from  87 to  12
###  |   |- and carried Demand  31,  58.0 containers from  87 to  12
###  |   |- and carried Demand  32,   5.0 containers from  87 to  12
###  |   |- and carried Demand  33, 159.0 containers from  87 to  12
###  |   |- and carried Demand 172, 166.0 containers from  33 to  12
###  |   |- and carried Demand 173, 125.0 containers from  88 to  52
###  |   |- and carried Demand 174,  10.0 containers from  88 to  52
###  |   |- and carried Demand 175,   4.0 containers from  88 to  33
###  |   |- and carried Demand 177, 224.0 containers from  88 to  12
###  |   |- and carried Demand 178,  58.0 containers from  88 to  12
###  |   |- and carried Demand 179,   5.0 containers from  88 to  12
###  |   |- and carried Demand 180, 159.0 containers from  88 to  12
###  |   |- and carried Demand 244,  14.0 containers from  86 to  52
###  |   |- and carried Demand 246,  25.0 containers from  86 to  12
###  |   |- and carried Demand 253,  16.0 containers from  86 to  12
###  |   |- and carried Demand 322, 200.0 containers from  83 to  12
###  |- Vessel  5 has the path [147, 9, 0]
###  |  147 (USMSY Out@910.0) - 9 (ARBUE In@1592.0/Out@1616.0) - 0 (DUMMY_END Ziel-Service 42)
###  |- Vessel  6 has the path [148, 10, 0]
###  |  148 (USMSY Out@1078.0) - 10 (ARBUE In@1760.0/Out@1784.0) - 0 (DUMMY_END Ziel-Service 42)
###  |- Vessel  8 has the path [72, 121, 66, 79, 80, 81, 47, 30, 8, 0]
###  |  72 (DEHAM Out@276.0) - 121 (NLRTM In@578.0/Out@594.0) - 66 (DEBRV In@665.0/Out@689.0) - 79 (ESALG In@775.0/Out@799.0)
###  |   - 80 (ESALG In@829.0/Out@853.0) - 81 (ESALG In@943.0/Out@967.0) - 47 (BRSSZ In@1290.0/Out@1308.0) - 30 (BRPNG In@133
###  |  8.0/Out@1359.0) - 8 (ARBUE In@1424.0/Out@1448.0) - 0 (DUMMY_END Ziel-Service 42)
###  |   |- and carried Demand 151, 111.0 containers from  80 to  47
###  |   |- and carried Demand 152,  13.0 containers from  80 to  47
###  |   |- and carried Demand 153,  41.0 containers from  80 to  30
###  |   |- and carried Demand 154, 279.0 containers from  80 to   8
###  |   |- and carried Demand 155,  12.0 containers from  80 to   8
###  |   |- and carried Demand 159, 194.0 containers from  80 to   8
###  |   |- and carried Demand 160,   2.0 containers from  80 to   8
###  |   |- and carried Demand 377, 111.0 containers from  81 to  47
###  |   |- and carried Demand 378,  13.0 containers from  81 to  47
###  |   |- and carried Demand 379,  41.0 containers from  81 to  30
###  |   |- and carried Demand 380, 279.0 containers from  81 to   8
###  |   |- and carried Demand 381,  12.0 containers from  81 to   8
###  |   |- and carried Demand 385, 194.0 containers from  81 to   8
###  |   |- and carried Demand 386,   2.0 containers from  81 to   8
###  |   |- and carried Demand 431,  14.0 containers from  79 to  47
###  |   |- and carried Demand 434, 239.0 containers from  79 to   8
###  |   |- and carried Demand 445, 325.0 containers from  66 to  79
###  |   |- and carried Demand 446, 406.0 containers from  66 to  47
###  |   |- and carried Demand 449,  18.0 containers from  66 to   8
###  |   |- and carried Demand 453, 299.0 containers from 121 to  47
###  |   |- and carried Demand 454,  31.0 containers from 121 to  47
###  |   |- and carried Demand 456,   1.0 containers from 121 to   8
###  |   |- and carried Demand 464,   2.0 containers from 121 to  79
###  |
### Vessels not used in the solution: [7, 9, 10, 11, 12]
###  |-----------------------------------------------------------------------------------------------------------------------
###
#############################################################################################################################

### Detialed variable overview

### All variables with value greater zero:
rho[42,18] = 1
eta[42,18,1] = 1
eta[42,18,2] = 1
eta[42,18,3] = 1
eta[42,18,4] = 1
eta[42,18,5] = 1
eta[42,18,6] = 1
eta[42,18,7] = 1
y[1,77,78] = 1
y[1,5,0] = 1
y[1,143,77] = 1
y[1,78,5] = 1
y[2,4,0] = 1
y[2,144,4] = 1
y[3,6,0] = 1
y[3,145,6] = 1
y[4,88,52] = 1
y[4,52,33] = 1
y[4,33,12] = 1
y[4,85,86] = 1
y[4,86,87] = 1
y[4,12,0] = 1
y[4,83,85] = 1
y[4,87,88] = 1
y[4,146,83] = 1
y[5,9,0] = 1
y[5,147,9] = 1
y[6,148,10] = 1
y[6,10,0] = 1
y[8,72,121] = 1
y[8,80,81] = 1
y[8,66,79] = 1
y[8,81,47] = 1
y[8,8,0] = 1
y[8,121,66] = 1
y[8,79,80] = 1
y[8,47,30] = 1
y[8,30,8] = 1
xD[15,88,52] = 14
xD[15,85,86] = 14
xD[15,86,87] = 14
xD[15,87,88] = 14
xD[17,88,52] = 25
xD[17,52,33] = 25
xD[17,33,12] = 25
xD[17,85,86] = 25
xD[17,86,87] = 25
xD[17,87,88] = 25
xD[24,88,52] = 16
xD[24,52,33] = 16
xD[24,33,12] = 16
xD[24,85,86] = 16
xD[24,86,87] = 16
xD[24,87,88] = 16
xD[26,88,52] = 125
xD[26,87,88] = 125
xD[27,88,52] = 10
xD[27,87,88] = 10
xD[28,88,52] = 4
xD[28,52,33] = 4
xD[28,87,88] = 4
xD[30,88,52] = 224
xD[30,52,33] = 224
xD[30,33,12] = 224
xD[30,87,88] = 224
xD[31,88,52] = 58
xD[31,52,33] = 58
xD[31,33,12] = 58
xD[31,87,88] = 58
xD[32,88,52] = 5
xD[32,52,33] = 5
xD[32,33,12] = 5
xD[32,87,88] = 5
xD[33,88,52] = 159
xD[33,52,33] = 159
xD[33,33,12] = 159
xD[33,87,88] = 159
xD[98,78,5] = 392
xD[99,78,5] = 13
xD[151,80,81] = 111
xD[151,81,47] = 111
xD[152,80,81] = 13
xD[152,81,47] = 13
xD[153,80,81] = 41
xD[153,81,47] = 41
xD[153,47,30] = 41
xD[154,80,81] = 279
xD[154,81,47] = 279
xD[154,47,30] = 279
xD[154,30,8] = 279
xD[155,80,81] = 12
xD[155,81,47] = 12
xD[155,47,30] = 12
xD[155,30,8] = 12
xD[159,80,81] = 194
xD[159,81,47] = 194
xD[159,47,30] = 194
xD[159,30,8] = 194
xD[160,80,81] = 2
xD[160,81,47] = 2
xD[160,47,30] = 2
xD[160,30,8] = 2
xD[172,33,12] = 166
xD[173,88,52] = 125
xD[174,88,52] = 10
xD[175,88,52] = 4
xD[175,52,33] = 4
xD[177,88,52] = 224
xD[177,52,33] = 224
xD[177,33,12] = 224
xD[178,88,52] = 58
xD[178,52,33] = 58
xD[178,33,12] = 58
xD[179,88,52] = 5
xD[179,52,33] = 5
xD[179,33,12] = 5
xD[180,88,52] = 159
xD[180,52,33] = 159
xD[180,33,12] = 159
xD[244,88,52] = 14
xD[244,86,87] = 14
xD[244,87,88] = 14
xD[246,88,52] = 25
xD[246,52,33] = 25
xD[246,33,12] = 25
xD[246,86,87] = 25
xD[246,87,88] = 25
xD[253,88,52] = 16
xD[253,52,33] = 16
xD[253,33,12] = 16
xD[253,86,87] = 16
xD[253,87,88] = 16
xD[322,88,52] = 200
xD[322,52,33] = 200
xD[322,33,12] = 200
xD[322,85,86] = 200
xD[322,86,87] = 200
xD[322,83,85] = 200
xD[322,87,88] = 200
xD[377,81,47] = 111
xD[378,81,47] = 13
xD[379,81,47] = 41
xD[379,47,30] = 41
xD[380,81,47] = 279
xD[380,47,30] = 279
xD[380,30,8] = 279
xD[381,81,47] = 12
xD[381,47,30] = 12
xD[381,30,8] = 12
xD[385,81,47] = 194
xD[385,47,30] = 194
xD[385,30,8] = 194
xD[386,81,47] = 2
xD[386,47,30] = 2
xD[386,30,8] = 2
xD[431,80,81] = 14
xD[431,81,47] = 14
xD[431,79,80] = 14
xD[434,80,81] = 239
xD[434,81,47] = 239
xD[434,79,80] = 239
xD[434,47,30] = 239
xD[434,30,8] = 239
xD[445,66,79] = 325
xD[446,80,81] = 406
xD[446,66,79] = 406
xD[446,81,47] = 406
xD[446,79,80] = 406
xD[449,80,81] = 18
xD[449,66,79] = 18
xD[449,81,47] = 18
xD[449,79,80] = 18
xD[449,47,30] = 18
xD[449,30,8] = 18
xD[453,80,81] = 299
xD[453,66,79] = 299
xD[453,81,47] = 299
xD[453,121,66] = 299
xD[453,79,80] = 299
xD[454,80,81] = 31
xD[454,66,79] = 31
xD[454,81,47] = 31
xD[454,121,66] = 31
xD[454,79,80] = 31
xD[456,80,81] = 1
xD[456,66,79] = 1
xD[456,81,47] = 1
xD[456,121,66] = 1
xD[456,79,80] = 1
xD[456,47,30] = 1
xD[456,30,8] = 1
xD[464,66,79] = 2
xD[464,121,66] = 2
xD[490,77,78] = 392
xD[490,78,5] = 392
xD[491,77,78] = 13
xD[491,78,5] = 13
xD[494,77,78] = 59
xD[494,78,5] = 59
xD[495,77,78] = 6
xD[495,78,5] = 6
xD[496,77,78] = 126
xD[496,78,5] = 126
zE[4] = 920
zE[5] = 1088
zE[6] = 1256
zE[8] = 1424
zE[9] = 1592
zE[10] = 1760
zE[12] = 1928
zE[30] = 1338
zE[33] = 1842
zE[47] = 1290
zE[52] = 1794
zE[66] = 665
zE[77] = 607
zE[78] = 613
zE[79] = 775
zE[80] = 829
zE[81] = 943
zE[83] = 1111
zE[85] = 1213
zE[86] = 1279
zE[87] = 1381
zE[88] = 1447
zE[121] = 578
zX[4] = 944
zX[5] = 1112
zX[6] = 1280
zX[8] = 1448
zX[9] = 1616
zX[10] = 1784
zX[12] = 1952
zX[30] = 1359
zX[33] = 1863
zX[47] = 1308
zX[52] = 1812
zX[66] = 689
zX[72] = 276
zX[77] = 631
zX[78] = 658
zX[79] = 799
zX[80] = 853
zX[81] = 967
zX[83] = 1135
zX[85] = 1243
zX[86] = 1303
zX[87] = 1411
zX[88] = 1471
zX[121] = 594
zX[143] = 238
zX[144] = 406
zX[145] = 574
zX[146] = 742
zX[147] = 910
zX[148] = 1078
phi[1] = 874
phi[2] = 538
phi[3] = 706
phi[4] = 1210
phi[5] = 706
phi[6] = 706
phi[8] = 1172

### All variables with value smaller zero:

### End

real	1441m0.035s
user	5448m20.202s
sys	306m54.971s
	Freetype 2.4.12 environment removed
	Python 3.6.0 environment removed
	Gurobi 8.1.0 environment removed
