	Freetype 2.4.12 environment established
		library to render fonts
	Python 3.6.0 environment established
	Gurobi 8.1.0 environment established
Instance LSFRP: LSFDRP_5_3_1_1_fr.p
Instance LSFDP: LSFDRP_5_3_1_1_fd_43.p

*****************************************************************************************************************************
*** Solve LSFDRP_5_3_1_1_fd_43 with Gurobi
***
*** Graph info
*** |S|: 12
*** |S^E|: 0
*** |S^C|: 4
*** |V|: 162
*** |A|: 2732
*** |A^i|: 2732
*** |A^f|: 0
*** |M|: 532
*** |E|: 0

Changed value of parameter TimeLimit to 86400.0
   Prev: 1e+100  Min: 0.0  Max: 1e+100  Default: 1e+100
Changed value of parameter Threads to 4
   Prev: 0  Min: 0  Max: 1024  Default: 0
Optimize a model with 94319 rows, 1492000 columns and 5261875 nonzeros
Variable types: 1459208 continuous, 32792 integer (32792 binary)
Coefficient statistics:
  Matrix range     [1e+00, 3e+03]
  Objective range  [2e+00, 4e+07]
  Bounds range     [1e+00, 1e+00]
  RHS range        [1e+00, 7e+00]
Presolve removed 84889 rows and 1436562 columns (presolve time = 6s) ...
Presolve removed 84889 rows and 1440714 columns (presolve time = 27s) ...
Warning: Failed to open log file 'gurobi.log'
Presolve removed 84976 rows and 1440747 columns (presolve time = 31s) ...
Presolve removed 84976 rows and 1440747 columns
Presolve time: 31.40s
Presolved: 9343 rows, 51253 columns, 285169 nonzeros
Variable types: 22752 continuous, 28501 integer (28486 binary)

Root simplex log...

Iteration    Objective       Primal Inf.    Dual Inf.      Time
       0    5.4601468e+09   1.336409e+06   0.000000e+00     33s
   22597    5.2573684e+07   5.509343e+05   0.000000e+00     35s
   34696    2.8647945e+07   7.147635e+05   0.000000e+00     40s
   43946    2.1686176e+07   7.262384e+05   0.000000e+00     45s
   52134    1.9463649e+07   3.025088e+07   0.000000e+00     50s
   59607    1.7710754e+07   5.641200e+05   0.000000e+00     55s
   67216    1.6359513e+07   1.537670e+07   0.000000e+00     60s
   74759    1.4533223e+07   5.453172e+07   0.000000e+00     65s
Warning: Markowitz tolerance tightened to 0.125
   84046    1.3416353e+07   6.975143e+08   0.000000e+00     70s
   94180    1.2407915e+07   1.550453e+08   0.000000e+00     75s
  102810    1.1175591e+07   1.316986e+08   0.000000e+00     80s
  110887    1.0845100e+07   9.860069e+07   0.000000e+00     85s
  117182    1.0657933e+07   2.949389e+06   0.000000e+00     90s
  123137    1.0500792e+07   2.550704e+07   0.000000e+00     95s
  129947    1.0440728e+07   9.517988e+06   0.000000e+00    100s
  136786    1.0392860e+07   6.830645e+07   0.000000e+00    105s
  142590    1.0255691e+07   7.700536e+07   0.000000e+00    110s
  148807    1.0132848e+07   5.998264e+06   0.000000e+00    115s
  153936    1.0069919e+07   1.164649e+08   0.000000e+00    120s
  159475    1.0057992e+07   7.157147e+06   0.000000e+00    125s
  164792    1.0025905e+07   1.099473e+06   0.000000e+00    130s
  170387    9.9898432e+06   3.945163e+06   0.000000e+00    135s
  175273    9.9615531e+06   6.491396e+06   0.000000e+00    140s
  179787    9.9497340e+06   3.475926e+06   0.000000e+00    145s
  183657    9.9332618e+06   1.372249e+06   0.000000e+00    150s
  188196    9.8852604e+06   1.389739e+06   0.000000e+00    155s
  191516    9.8693918e+06   9.388654e+04   0.000000e+00    160s
  195201    9.8566157e+06   7.016021e+06   0.000000e+00    165s
  198711    9.8515843e+06   5.854277e+05   0.000000e+00    170s
  201893    9.8454251e+06   2.906141e+05   0.000000e+00    175s
  205052    9.7523907e+06   3.827868e+07   0.000000e+00    180s
  210946    9.7234708e+06   2.186048e+06   0.000000e+00    185s
  214838    9.7051170e+06   1.345050e+06   0.000000e+00    190s
  217899    9.7039379e+06   1.757330e+05   0.000000e+00    195s
  220909    9.6961064e+06   7.357562e+04   0.000000e+00    200s
  223819    9.6877178e+06   6.470554e+04   0.000000e+00    205s
  227353    9.4895930e+06   7.190861e+04   0.000000e+00    210s
  230276    9.4647189e+06   5.211922e+04   0.000000e+00    215s
  234130    9.2706834e+06   1.623458e+05   0.000000e+00    220s
  237759    9.1878681e+06   1.524257e+06   0.000000e+00    225s
  241653    9.1389633e+06   9.326247e+04   0.000000e+00    230s
  244623    9.1028962e+06   5.069629e+04   0.000000e+00    235s
  247693    9.0376185e+06   5.869560e+04   0.000000e+00    240s
  250563    9.0169675e+06   4.360599e+04   0.000000e+00    245s
  253403    9.0137924e+06   2.238796e+04   0.000000e+00    250s
  256273    9.0059861e+06   1.533036e+04   0.000000e+00    255s
  259283    8.9758358e+06   1.537101e+04   0.000000e+00    260s
  262203    8.9189321e+06   1.795920e+05   0.000000e+00    265s
  265023    8.9011374e+06   1.634582e+04   0.000000e+00    270s
  268672    8.8395670e+06   1.040471e+05   0.000000e+00    275s
  271602    8.7683237e+06   6.636531e+04   0.000000e+00    280s
  274852    8.6951404e+06   2.133124e+04   0.000000e+00    285s
  277602    8.6843011e+06   1.036165e+04   0.000000e+00    290s
  280372    8.6746348e+06   7.940184e+03   0.000000e+00    295s
  283032    8.5094359e+06   1.872850e+05   0.000000e+00    300s
  285882    8.4759839e+06   2.862410e+04   0.000000e+00    305s
  290889    8.0536877e+06   1.135747e+06   0.000000e+00    310s
  294718    7.9847575e+06   1.550111e+05   0.000000e+00    315s
  298237    7.9451528e+06   6.056600e+05   0.000000e+00    320s
  302441    7.9160256e+06   3.883844e+06   0.000000e+00    325s
  305501    7.8984485e+06   1.150709e+06   0.000000e+00    330s
  308261    7.8819057e+06   7.397222e+03   0.000000e+00    335s
  310911    7.8563352e+06   7.594678e+03   0.000000e+00    340s
  313881    7.7981164e+06   3.313995e+04   0.000000e+00    345s
  317294    7.7801731e+06   1.587219e+04   0.000000e+00    350s
  320516    7.7626825e+06   9.166264e+05   0.000000e+00    355s
  324023    7.7581292e+06   1.510231e+04   0.000000e+00    360s
  326843    7.7430487e+06   4.515393e+04   0.000000e+00    365s
  331256    7.7004154e+06   2.659390e+06   0.000000e+00    370s
  334604    7.6869187e+06   2.432816e+04   0.000000e+00    375s
  337534    7.6101001e+06   8.524549e+04   0.000000e+00    380s
  340304    7.6007638e+06   3.865928e+03   0.000000e+00    385s
  343014    7.5891883e+06   9.589420e+03   0.000000e+00    390s
  346194    7.5194376e+06   2.013040e+05   0.000000e+00    395s
  349684    7.3935469e+06   3.067633e+04   0.000000e+00    400s
  352874    7.3568345e+06   1.501915e+04   0.000000e+00    405s
  355784    7.3310811e+06   3.439444e+04   0.000000e+00    410s
  358624    7.3084544e+06   1.792718e+04   0.000000e+00    415s
  361704    7.2843669e+06   3.436833e+03   0.000000e+00    420s
  364734    7.1928915e+06   2.670856e+03   0.000000e+00    425s
  367824    7.1790907e+06   1.811992e+03   0.000000e+00    430s
  370694    7.1535151e+06   1.699875e+03   0.000000e+00    435s
  373704    7.0774274e+06   1.973676e+03   0.000000e+00    440s
  376804    7.0214395e+06   1.661047e+05   0.000000e+00    445s
  379654    7.0037936e+06   1.676695e+03   0.000000e+00    450s
  382554    6.9984442e+06   1.336108e+03   0.000000e+00    455s
  385384    6.9836554e+06   5.502669e+04   0.000000e+00    460s
  388164    6.9672534e+06   4.541609e+03   0.000000e+00    465s
  391024    6.9551667e+06   1.073123e+03   0.000000e+00    470s
  393734    6.9504177e+06   6.261435e+02   0.000000e+00    475s
  396514    6.9420139e+06   6.221299e+02   0.000000e+00    480s
  399004    6.9335065e+06   8.442516e+02   0.000000e+00    485s
  401634    6.9292109e+06   7.009224e+02   0.000000e+00    490s
  404424    6.9204148e+06   4.691806e+02   0.000000e+00    495s
  407204    6.9152428e+06   1.262861e+03   0.000000e+00    500s
  410154    6.9079704e+06   1.780532e+05   0.000000e+00    505s
  413024    6.9049613e+06   1.386794e+02   0.000000e+00    510s
  415924    6.8931208e+06   1.739057e+02   0.000000e+00    515s
  419024    6.8811125e+06   4.552980e+02   0.000000e+00    520s
  422124    6.8682373e+06   9.533065e+01   0.000000e+00    525s
  424914    6.8647307e+06   4.752945e+01   0.000000e+00    530s
  427644    6.8618756e+06   1.327879e+01   0.000000e+00    535s
  430078    6.8591702e+06   0.000000e+00   0.000000e+00    539s

Root relaxation: objective 6.859170e+06, 430078 iterations, 506.59 seconds
Total elapsed time = 540.08s

    Nodes    |    Current Node    |     Objective Bounds      |     Work
 Expl Unexpl |  Obj  Depth IntInf | Incumbent    BestBd   Gap | It/Node Time

     0     0 6859170.17    0  343          - 6859170.17      -     -  540s
H    0     0                    -4355496.297 6859170.17   257%     -  542s
H    0     0                    -3062450.679 6859170.17   324%     -  554s
H    0     0                    -2815974.941 6859170.17   344%     -  556s
     0     0 6813268.68    0  376 -2815974.9 6813268.68   342%     -  564s
H    0     0                    -1685317.163 6813268.68   504%     -  575s
     0     0 6779722.12    0  384 -1685317.2 6779722.12   502%     -  585s
     0     0 6778036.24    0  397 -1685317.2 6778036.24   502%     -  588s
     0     0 6777959.19    0  397 -1685317.2 6777959.19   502%     -  588s
     0     0 6759212.12    0  391 -1685317.2 6759212.12   501%     -  595s
H    0     0                    -1685317.162 6759212.12   501%     -  603s
     0     0 6739093.04    0  390 -1685317.2 6739093.04   500%     -  607s
     0     0 6738929.18    0  398 -1685317.2 6738929.18   500%     -  608s
     0     0 6722720.25    0  420 -1685317.2 6722720.25   499%     -  616s
     0     0 6720719.20    0  417 -1685317.2 6720719.20   499%     -  626s
     0     0 6719860.91    0  425 -1685317.2 6719860.91   499%     -  629s
     0     0 6719832.53    0  417 -1685317.2 6719832.53   499%     -  629s
     0     0 6719819.02    0  424 -1685317.2 6719819.02   499%     -  630s
     0     0 6710238.20    0  429 -1685317.2 6710238.20   498%     -  637s
     0     0 6709418.34    0  456 -1685317.2 6709418.34   498%     -  655s
     0     0 6709409.63    0  459 -1685317.2 6709409.63   498%     -  655s
     0     0 6701422.70    0  420 -1685317.2 6701422.70   498%     -  663s
     0     0 6700270.73    0  444 -1685317.2 6700270.73   498%     -  674s
     0     0 6699957.07    0  439 -1685317.2 6699957.07   498%     -  675s
     0     0 6699945.25    0  443 -1685317.2 6699945.25   498%     -  675s
     0     0 6699080.05    0  427 -1685317.2 6699080.05   497%     -  678s
     0     0 6698197.11    0  433 -1685317.2 6698197.11   497%     -  719s
     0     0 6698031.53    0  429 -1685317.2 6698031.53   497%     -  721s
     0     0 6698030.72    0  432 -1685317.2 6698030.72   497%     -  721s
     0     0 6697897.83    0  438 -1685317.2 6697897.83   497%     -  723s
     0     0 6697813.41    0  434 -1685317.2 6697813.41   497%     -  725s
     0     0 6697780.56    0  431 -1685317.2 6697780.56   497%     -  726s
     0     0 6697331.91    0  424 -1685317.2 6697331.91   497%     -  729s
     0     0 6697307.43    0  428 -1685317.2 6697307.43   497%     -  731s
     0     0 6693916.65    0  442 -1685317.2 6693916.65   497%     -  735s
     0     0 6693511.49    0  437 -1685317.2 6693511.49   497%     -  738s
     0     0 6692104.86    0  438 -1685317.2 6692104.86   497%     -  741s
     0     0 6692104.86    0  439 -1685317.2 6692104.86   497%     -  741s
     0     0 6686599.18    0  438 -1685317.2 6686599.18   497%     -  745s
     0     0 6685958.00    0  440 -1685317.2 6685958.00   497%     -  747s
     0     0 6685958.00    0  440 -1685317.2 6685958.00   497%     -  747s
     0     0 6684378.80    0  447 -1685317.2 6684378.80   497%     -  749s
     0     0 6680597.08    0  442 -1685317.2 6680597.08   496%     -  755s
     0     0 6680470.76    0  439 -1685317.2 6680470.76   496%     -  756s
     0     0 6680464.69    0  438 -1685317.2 6680464.69   496%     -  756s
     0     0 6677483.30    0  446 -1685317.2 6677483.30   496%     -  760s
     0     0 6677441.16    0  445 -1685317.2 6677441.16   496%     -  762s
     0     0 6676480.62    0  452 -1685317.2 6676480.62   496%     -  765s
     0     0 6676197.27    0  445 -1685317.2 6676197.27   496%     -  767s
     0     0 6676182.97    0  445 -1685317.2 6676182.97   496%     -  767s
     0     0 6675836.86    0  454 -1685317.2 6675836.86   496%     -  769s
     0     0 6675793.22    0  450 -1685317.2 6675793.22   496%     -  771s
     0     0 6675312.98    0  450 -1685317.2 6675312.98   496%     -  773s
     0     0 6675299.33    0  446 -1685317.2 6675299.33   496%     -  776s
     0     0 6675119.97    0  437 -1685317.2 6675119.97   496%     -  779s
     0     0 6675119.97    0  437 -1685317.2 6675119.97   496%     -  809s
     0     2 6675119.97    0  436 -1685317.2 6675119.97   496%     -  893s
     1     4 6674738.93    1  438 -1685317.2 6674738.93   496%   199  959s
     3     8 6671128.13    2  439 -1685317.2 6671128.13   496%  9348 1012s
     7    12 6645490.60    3  452 -1685317.2 6648601.77   495% 13121 1036s
    11    16 6642796.12    4  448 -1685317.2 6648601.77   495% 10195 1052s
    15    19 6478126.55    5  423 -1685317.2 6648601.77   495% 10118 1099s
    19    21 6480327.84    5  437 -1685317.2 6648601.77   495% 10833 1158s
    23    23 6477639.70    6  441 -1685317.2 6648601.77   495% 11930 1194s
    29    30 6445489.69    8  422 -1685317.2 6648601.77   495% 11376 1221s
H   31    33                    -1685317.158 6648601.77   495% 11100 1221s
    33    37 6437190.29    9  420 -1685317.2 6648601.77   495% 10999 1244s
    38    34 6058281.41   11  388 -1685317.2 6648601.77   495% 10845 1290s
    44    46 6435094.54   11  407 -1685317.2 6648601.77   495%  9865 1330s
    50    55 6193140.47   12  446 -1685317.2 6648601.77   495% 10205 1410s
    55    54 6342409.78   13  446 -1685317.2 6648601.77   495% 10576 1469s
    60    62 6085375.51   14  383 -1685317.2 6648601.77   495% 10766 1542s
H   61    62                    -1149544.999 6648601.77   678% 10589 1542s
    65    66 6158340.58   15  464 -1149545.0 6648601.77   678% 11049 1580s
    74    75 6097959.59   16  404 -1149545.0 6648601.77   678% 10400 1645s
    78    76 6068247.00   17  437 -1149545.0 6648601.77   678% 10752 1679s
    89    92 5998389.01   19  387 -1149545.0 6648601.77   678%  9899 1709s
    99    98 5927015.97   21  386 -1149545.0 6648601.77   678%  9214 1752s
   110   111 5897444.57   23  395 -1149545.0 6648601.77   678%  8736 1842s
   124   127 5869462.54   26  394 -1149545.0 6648601.77   678%  8674 1881s
   139   141 5749916.12   31  399 -1149545.0 6648601.77   678%  8224 1924s
   152   151 5542423.27   32  397 -1149545.0 6648601.77   678%  8013 1977s
   172   174 5534491.25   33  394 -1149545.0 6648601.77   678%  7540 2018s
   179   179 5471574.17   35  380 -1149545.0 6648601.77   678%  7634 2083s
   199   197 5433840.44   38  386 -1149545.0 6648601.77   678%  7323 2116s
   217   222 5378323.81   43  384 -1149545.0 6648601.77   678%  6879 2167s
   244   242 5349008.34   45  373 -1149545.0 6648601.77   678%  6527 2204s
   280   282 5158172.28   49  362 -1149545.0 6648601.77   678%  5937 2254s
H  309   295                    -1149544.999 6648601.77   678%  5638 2254s
   310   309 5137355.45   50  372 -1149545.0 6648601.77   678%  5639 2297s
   335   333 5078836.35   56  385 -1149545.0 6648601.77   678%  5433 2334s
H  343   340                    -1149544.998 6648601.77   678%  5373 2334s
   378   378 4974403.46   62  365 -1149545.0 6648601.77   678%  5029 2378s
   410   411 4875262.38   68  383 -1149545.0 6648601.77   678%  4853 2443s
   446   445 4638371.86   70  358 -1149545.0 6648601.77   678%  4731 2483s
   509   505 4596805.81   72  369 -1149545.0 6648601.77   678%  4320 2543s
   566   550 4439283.50   74  368 -1149545.0 6648601.77   678%  4078 2580s
   630   585 4328279.37   78  368 -1149545.0 6648601.77   678%  3781 2660s
H  633   570                    -935438.5992 6648601.77   811%  3765 2660s
   661   591 4244148.93   84  383 -935438.60 6648601.77   811%  3755 2705s
   696   623 4128018.57   90  355 -935438.60 6648601.77   811%  3706 2758s
   727   651 4110595.09   92  359 -935438.60 6648601.77   811%  3686 2796s
H  750   661                    -935438.5989 6648601.77   811%  3603 2796s
   784   700 3999225.38  101  345 -935438.60 6648601.77   811%  3551 2865s
H  796   706                    -935438.5986 6648601.77   811%  3583 2865s
H  798   705                    -907213.4994 6648601.77   833%  3585 2865s
   800   714 3635541.55  102  368 -907213.50 6648601.77   833%  3611 2922s
   818   725 3500954.57  107  363 -907213.50 6648601.77   833%  3667 3001s
   842   750 3387860.09  116  364 -907213.50 6648601.77   833%  3686 3090s
   862   766 3038816.40  120  363 -907213.50 6648601.77   833%  3722 3140s
H  872   769                    -907213.4984 6648601.77   833%  3735 3140s
H  896   797                    -894136.4984 6648601.77   844%  3674 3140s
   930   835 2935875.43  123  342 -894136.50 6648601.77   844%  3562 3203s
   989   865 2661926.01  134  279 -894136.50 6648601.77   844%  3483 3306s
  1013   887 2392493.51  139  249 -894136.50 6648601.77   844%  3503 3351s
  1096   957 7001.03913  123  437 -894136.50 6648601.77   844%  3335 3521s
  1098   958 6208877.55    9  346 -894136.50 6648601.77   844%  3329 3633s
  1099   959 3801355.83   29  399 -894136.50 6648601.77   844%  3326 3654s
  1100   960 1198862.03   81  396 -894136.50 6648601.77   844%  3323 3674s
  1101   960 83917.0229  126  409 -894136.50 6586177.16   837%  3320 3685s
  1102   961 2116048.41   43  415 -894136.50 6579043.72   836%  3317 3691s
  1103   962 1635490.37   68  436 -894136.50 6572256.20   835%  3314 3695s
  1107   964 -641816.95  137  424 -894136.50 6566075.47   834%  3302 3701s
  1111   967 -706302.05  143  437 -894136.50 6562822.28   834%  3290 3705s
  1114   969 1450222.72   77  438 -894136.50 6560196.14   834%  3282 3711s
  1116   970 1099127.06   93  484 -894136.50 6509224.22   828%  3276 3745s
  1117   971 4928181.97   65  477 -894136.50 6417262.30   818%  3273 3762s
  1118   972 3682871.85   14  458 -894136.50 6379518.08   813%  3270 3776s
  1120   973 2650784.42  137  498 -894136.50 6366615.22   812%  3264 3786s
  1124   976 1943076.70   43  498 -894136.50 6363982.66   812%  3252 3793s
  1125   976 3456649.85  114  504 -894136.50 6336174.91   809%  3249 3810s
  1126   977 6193140.47   13  509 -894136.50 6314114.61   806%  3247 3820s
  1127   978 2216023.26   34  548 -894136.50 6303558.19   805%  3244 3829s
  1128   978 171256.332  112  556 -894136.50 6301942.98   805%  3241 3832s
  1129   979 1189970.96   71  564 -894136.50 6297972.30   804%  3238 3836s
  1130   980 2114031.58   31  550 -894136.50 6294375.35   804%  3235 3840s
  1132   981 45858.0390  104  574 -894136.50 6292996.47   804%  3229 3845s
  1134   982 1081440.10   26  572 -894136.50 6292732.77   804%  3224 3850s
  1135   983 4449597.37    6  574 -894136.50 6268231.15   801%  3221 3892s
  1136   984 5283834.18   20  571 -894136.50 6261481.27   800%  3218 3898s
  1137   984 5416433.58   41  595 -894136.50 6255698.51   800%  3215 3901s
  1139   986 -554214.29  133  564 -894136.50 6253463.16   799%  3210 3906s
  1141   987 5868268.11   27  558 -894136.50 6251978.44   799%  3204 3910s
  1143   988 5803357.22   16  557 -894136.50 6251547.00   799%  3198 3915s
  1144   989 -516311.26  132  583 -894136.50 6245061.91   798%  3196 3930s
  1145   990 2426911.46  134  589 -894136.50 6241489.91   798%  3193 3935s
  1146   990 3846126.87   28  601 -894136.50 6221939.22   796%  3190 3960s
  1148   992 1389054.23   64  567 -894136.50 6216045.23   795%  3184 3970s
  1151   994 1535898.90   47  572 -894136.50 6211765.45   795%  3176 3981s
  1153   995 4427327.17   76  568 -894136.50 6207763.82   794%  3171 3988s
  1154   996 4127291.93   91  572 -894136.50 6206747.39   794%  3168 3990s
  1159   999 2512999.86   19  575 -894136.50 6205355.51   794%  3154 3996s
  1160  1000 1153354.60   89  591 -894136.50 6198378.84   793%  3151 4025s
  1161  1000 875990.064   28  591 -894136.50 6194419.53   793%  3149 4031s
  1163  1002 2544713.09   38  617 -894136.50 6191149.29   792%  3143 4044s
  1164  1002 2116048.41   43  614 -894136.50 6190758.49   792%  3141 4047s
  1166  1004 5002147.36   12  617 -894136.50 6190126.13   792%  3135 4051s
  1168  1005 -42835.291  145  619 -894136.50 6189220.43   792%  3130 4056s
  1169  1006 171256.332  112  638 -894136.50 6189096.29   792%  3127 4060s
  1170  1006 6185750.79    7  598 -894136.50 6185750.79   792%  3124 4075s
  1172  1008 585235.740  108  621 -894136.50 6182615.55   791%  3119 4080s
  1174  1009 1507866.23   21  611 -894136.50 6181969.57   791%  3114 4085s
  1175  1010 2516428.82   41  603 -894136.50 6179675.79   791%  3111 4098s
  1177  1011 2141424.41   33  628 -894136.50 6178980.04   791%  3106 4100s
  1179  1012 6058281.41   12  636 -894136.50 6178630.59   791%  3101 4105s
  1180  1013 -242969.45   45  626 -894136.50 6176781.85   791%  3098 4121s
  1182  1014 -219909.16  125  648 -894136.50 6174997.11   791%  3093 4126s
  1185  1016 4461267.69   74  662 -894136.50 6174308.75   791%  3085 4131s
  1186  1017 2004188.35   55  629 -894136.50 6171389.65   790%  3082 4146s
  1188  1018 6058281.41   12  651 -894136.50 6170099.18   790%  3077 4151s
  1190  1020 333052.189   84  645 -894136.50 6169363.27   790%  3072 4156s
  1191  1020 2901154.05  132  645 -894136.50 6169252.21   790%  3069 4160s
  1192  1021 3275629.32    4  660 -894136.50 6167641.06   790%  3067 4184s
  1193  1022 1841119.95   73  653 -894136.50 6167362.79   790%  3064 4185s
  1195  1023 204128.600  120  667 -894136.50 6166508.10   790%  3059 4205s
  1197  1024 4607749.81   23  648 -894136.50 6164389.78   789%  3054 4211s
  1199  1026 3801355.83   29  685 -894136.50 6164120.54   789%  3049 4217s
  1200  1026 1198862.03   81  669 -894136.50 6162985.86   789%  3046 4225s
  1202  1028 2116048.41   43  684 -894136.50 6162682.59   789%  3041 4231s
  1203  1028 1635490.37   68  676 -894136.50 6162206.56   789%  3039 4244s
  1204  1029 -139513.44  118  690 -894136.50 6162084.30   789%  3036 4247s
  1205  1030 1737277.77   76  681 -894136.50 6161626.10   789%  3034 4251s
  1210  1034 4191929.65   89  359 -894136.50 6161626.10   789%  3326 4374s
  1211  1035 -706302.05  143  418 -894136.50 6161626.10   789%  3323 4399s
  1212  1036 -94240.983  162  399 -894136.50 6161626.10   789%  3321 4420s
  1213  1036 5691864.46   32  393 -894136.50 6161626.10   789%  3318 4437s
  1214  1037 1450222.72   77  394 -894136.50 6161626.10   789%  3315 4449s
  1215  1038 5053383.51   59  479 -894136.50 6161626.10   789%  3312 4461s
  1216  1038 1099127.06   93  498 -894136.50 6161626.10   789%  3310 4472s
  1217  1039 4928181.97   65  501 -894136.50 6161626.10   789%  3307 4483s
  1218  1040 3682871.85   14  531 -894136.50 6161626.10   789%  3304 4490s
  1219  1040 -224216.98   44  484 -894136.50 6161626.10   789%  3302 4503s
  1220  1041 2650784.42  137  499 -894136.50 6161626.10   789%  3299 4513s
  1221  1042 2201022.49   28  533 -894136.50 6161626.10   789%  3296 4516s
  1222  1042 4127291.93   91  527 -894136.50 6161626.10   789%  3294 4523s
  1223  1043 -67522.629  151  517 -894136.50 6161626.10   789%  3291 4525s
  1226  1045 6161626.10   13  519 -894136.50 6161626.10   789%  3283 4555s
  1229  1047 1189970.96   71  517 -894136.50 6161373.67   789%  3275 4560s
  1232  1049 45858.0390  104  540 -894136.50 6158811.55   789%  3267 4566s
  1234  1050 1081440.10   26  531 -894136.50 6156668.16   789%  3261 4570s
  1236  1052 5283834.18   20  529 -894136.50 6152927.09   788%  3256 4575s
  1237  1052 5416433.58   41  554 -894136.50 6151277.01   788%  3254 4588s
  1238  1053 239694.344  102  566 -894136.50 6150285.91   788%  3251 4590s
  1240  1054 1732617.92   66  573 -894136.50 6148883.02   788%  3246 4595s
  1242  1056 -512830.56   78  613 -894136.50 6147149.33   787%  3240 4600s
  1245  1058 2426911.46  134  610 -894136.50 6145905.95   787%  3233 4606s
  1247  1059 3652199.09   47  611 -894136.50 6143665.29   787%  3227 4612s
  1248  1060 1389054.23   64  572 -894136.50 6142878.59   787%  3225 4615s
  1251  1062 1535898.90   47  599 -894136.50 6141567.40   787%  3217 4620s
  1253  1063 4427327.17   76  591 -894136.50 6138287.75   787%  3212 4645s
  1254  1064 4127291.93   91  597 -894136.50 6135902.58   786%  3209 4651s
  1255  1064 3741958.74   13  610 -894136.50 6134879.12   786%  3207 4656s
  1258  1066 3038593.87  121  631 -894136.50 6132805.64   786%  3199 4660s
  1261  1068 875990.064   28  619 -894136.50 6130956.14   786%  3192 4667s
  1262  1069 2134132.78   29  623 -894136.50 6126054.56   785%  3189 4697s
  1263  1070 2544713.09   38  633 -894136.50 6124045.17   785%  3187 4702s
  1264  1070 2116048.41   43  614 -894136.50 6118619.62   784%  3184 4712s
  1266  1072 5002147.36   12  590 -894136.50 6116623.95   784%  3179 4716s
  1269  1074 171256.332  112  598 -894136.50 6115461.12   784%  3172 4722s
H 1269  1019                    -894136.4983 6107735.55   783%  3172 4742s
  1271  1020 4461267.69   74  597 -894136.50 6105896.97   783%  3167 4746s
  1272  1021 585235.740  108  631 -894136.50 6104386.14   783%  3164 4750s
  1275  1023 2516428.82   41  601 -894136.50 6102761.23   783%  3157 4755s
  1277  1024 2141424.41   33  607 -894136.50 6101244.99   782%  3152 4777s
  1278  1025 4452480.72   25  614 -894136.50 6099823.14   782%  3149 4780s
  1280  1026 -242969.45   45  614 -894136.50 6099385.82   782%  3144 4785s
H 1280   973                    -894136.4980 6098679.02   782%  3144 4803s
  1282   974 -219909.16  125  625 -894136.50 6082817.38   780%  3139 4813s
  1283   975 5534430.65   34  602 -894136.50 6082328.10   780%  3137 4815s
  1287   978 2287244.92   60  628 -894136.50 6081360.63   780%  3127 4822s
H 1287   928                    -894136.4976 6078852.85   780%  3127 4842s
  1290   930 333052.189   84  651 -894136.50 6078218.36   780%  3120 4845s
  1292   931 3275629.32    4  658 -894136.50 6076710.33   780%  3115 4868s
  1293   932 1841119.95   73  601 -894136.50 6075937.31   780%  3113 4870s
  1296   934 7001.03913  123  655 -894136.50 6074415.17   779%  3105 4877s
  1297   934 4607749.81   23  642 -894136.50 6073719.55   779%  3103 4894s
  1298   935 6073046.13    9  639 -894136.50 6073046.13   779%  3101 4897s
  1300   936 1198862.03   81  639 -894136.50 6072558.27   779%  3096 4900s
  1302   938 2116048.41   43  643 -894136.50 6070187.58   779%  3091 4925s
  1303   938 1635490.37   68  647 -894136.50 6068158.70   779%  3089 4930s
  1306   940 9698.56121  136  657 -894136.50 6066616.71   778%  3082 4937s
  1308   942 -651444.18   60  652 -894136.50 6065916.09   778%  3077 4940s
  1311   944 -706302.05  143  646 -894136.50 6065416.92   778%  3070 4947s
  1312   944 -94240.983  162  645 -894136.50 6064493.63   778%  3068 4991s
  1314   946 1450222.72   77  642 -894136.50 6063237.74   778%  3063 4995s
  1318   948 3682871.85   14  656 -894136.50 6062468.07   778%  3054 5000s
  1320   950 2650784.42  137  677 -894136.50 6061000.09   778%  3049 5009s
  1321   950 2201022.49   28  688 -894136.50 6060886.23   778%  3047 5012s
  1322   951 4127291.93   91  652 -894136.50 6060524.42   778%  3044 5017s
  1324   952 1943076.70   43  651 -894136.50 6060248.39   778%  3040 5022s
  1325   953 3456649.85  114  672 -894136.50 6059432.77   778%  3037 5071s
  1328   958 6059152.46   24  674 -894136.50 6059152.46   778%  3305 5344s
  1330   961 6058905.98   25  672 -894136.50 6058905.98   778%  3335 5499s
  1334   964 6058697.56   26  677 -894136.50 6058697.56   778%  3397 5550s
  1338   967 4762749.01   26  460 -894136.50 6058602.64   778%  3429 5791s
  1342   969 6058489.66   27  678 -894136.50 6058489.66   778%  3515 5847s
  1346   972 4034771.35   27  337 -894136.50 6058481.04   778%  3567 5974s
  1350   975 6054531.07   28  657 -894136.50 6057436.54   777%  3572 6027s
  1354   977 5593767.70   28  479 -894136.50 6054520.64   777%  3637 6197s
  1358   977 6054520.64   29  654 -894136.50 6054520.64   777%  3695 6271s
  1365   978 6045079.74   30  640 -894136.50 6053875.28   777%  3735 6320s
  1370   986 4626869.27   30  463 -894136.50 6045066.97   776%  3804 6412s
  1376   990 6044430.24   31  636 -894136.50 6044430.24   776%  3840 6492s
  1384   989 6040796.06   32  637 -894136.50 6043640.07   776%  3867 6652s
  1390   997 5803684.47   32  540 -894136.50 6040791.42   776%  3950 6751s
  1398  1001 6034399.75   33  642 -894136.50 6040142.66   776%  3995 6845s
  1407  1012 5725956.68   33  478 -894136.50 6034399.75   775%  4058 6957s
  1416  1014 6034397.42   34  644 -894136.50 6034397.42   775%  4113 7088s
  1425  1021 6033785.42   35  652 -894136.50 6033785.42   775%  4180 7207s
  1437  1028 6033170.97   36  657 -894136.50 6033170.97   775%  4238 7279s
  1449  1039 6029395.49   37  670 -894136.50 6029395.49   774%  4286 7421s
  1458  1041 6011966.11   38  642 -894136.50 6011966.11   772%  4392 7530s
  1470  1053 6009793.43   39  643 -894136.50 6009793.43   772%  4445 7647s
  1482  1056 6007682.45   40  630 -894136.50 6007682.45   772%  4531 7762s
  1498  1070 5724983.03   41  580 -894136.50 5981435.06   769%  4582 7852s
  1514  1083 5961046.77   42  580 -894136.50 5961046.77   767%  4608 7957s
  1523  1084 5960230.40   43  605 -894136.50 5960230.40   767%  4678 8139s
  1541  1097 5960040.54   44  600 -894136.50 5960040.54   767%  4751 8266s
  1556  1108 5933577.22   45  604 -894136.50 5933577.22   764%  4863 8402s
  1569  1118 5930957.89   46  637 -894136.50 5930957.89   763%  4915 8512s
  1592  1129 5929622.13   47  602 -894136.50 5929622.13   763%  4929 8662s
H 1594  1080                    -894136.4901 5929620.23   763%  4965 8662s
  1616  1092 5928298.73   48  620 -894136.49 5928298.73   763%  4991 8786s
  1642  1112 5920741.57   49  602 -894136.49 5920741.57   762%  5069 8941s
  1669  1127 5890850.63   50  618 -894136.49 5890850.63   759%  5098 9069s
  1697  1140 5890850.63   51  620 -894136.49 5890850.63   759%  5122 9226s
  1728  1156 5878974.86   53  605 -894136.49 5878974.86   758%  5191 9397s
  1758  1157 5878750.61   54  606 -894136.49 5878750.61   757%  5230 9540s
  1787  1176 5587633.43   55  462 -894136.49 5876846.03   757%  5290 9635s
  1798  1177 5863808.12   56  625 -894136.49 5873250.10   757%  5371 9776s
  1814  1185 5861834.59   57  611 -894136.49 5873250.10   757%  5460 9888s
  1831  1199 5618975.08   58  540 -894136.49 5873250.10   757%  5570 10003s
  1851  1212 5780054.48   59  549 -894136.49 5873250.10   757%  5644 10126s
  1881  1233 5834452.41   61  578 -894136.49 5873250.10   757%  5692 10263s
  1914  1253 5826485.33   62  581 -894136.49 5873250.10   757%  5733 10428s
  1955  1281 5515226.44   64  451 -894136.49 5873250.10   757%  5785 10560s
  1989  1305 5774771.51   64  586 -894136.49 5873250.10   757%  5818 10724s
  2034  1334 5772600.39   66  581 -894136.49 5873250.10   757%  5841 10877s
  2092  1370 5760436.62   68  596 -894136.49 5873250.10   757%  5853 11035s
  2155  1408 5739729.08   70  578 -894136.49 5873250.10   757%  5875 11242s
  2219  1450 5730893.74   72  592 -894136.49 5873250.10   757%  5893 11417s
  2292  1490 5583820.67   74  547 -894136.49 5873250.10   757%  5874 11579s
  2369  1532 5686581.82   76  536 -894136.49 5873250.10   757%  5826 11804s
  2437  1556 5675644.03   78  533 -894136.49 5873250.10   757%  5849 12045s
  2475  1570 5534044.72   80  568 -894136.49 5873250.10   757%  5956 12301s
  2521  1587 4960034.76   82  386 -894136.49 5873250.10   757%  6060 12572s
  2575  1590 5513941.46   84  501 -894136.49 5873250.10   757%  6106 12849s
  2653  1600 5493153.68   86  488 -894136.49 5873250.10   757%  6107 13116s
  2722  1630 5482517.17   88  444 -894136.49 5873250.10   757%  6121 13451s
  2836  1686 5470756.73   91  448 -894136.49 5873250.10   757%  6051 13799s
  2951  1733 5425294.15   94  518 -894136.49 5873250.10   757%  6024 14033s
  3032  1756 5394024.73   96  498 -894136.49 5873250.10   757%  6046 14328s
H 3108  1688                    -879441.9346 5873250.10   768%  6014 14328s
H 3140  1675                    -778669.7510 5873250.10   854%  5998 14627s
H 3241  1691                    -778669.7507 5873250.10   854%  5991 14857s
H 3329  1636                    -778669.7481 5873250.10   854%  5909 14857s
H 3393  1641                    -778669.7465 5873250.10   854%  5843 14857s
  3443  1678 5317545.39  103  513 -778669.75 5873250.10   854%  5801 15086s
  3590  1825 4675373.88  105  370 -778669.75 5873250.10   854%  5707 15401s
  3748  1956 5034645.06  109  417 -778669.75 5873250.10   854%  5639 15755s
  3888  2077 4965613.01  113  425 -778669.75 5873250.10   854%  5594 16072s
  4056  2241 4446166.41  117  326 -778669.75 5873250.10   854%  5516 16493s
H 4219  2376                    -747416.7491 5873250.10   886%  5479 18412s
H 4233  2383                    -677659.6703 5873250.10   967%  5654 18412s
H 4370  2497                    -677659.6699 5873250.10   967%  5541 18802s
H 4443  2570                    -677659.6669 5873250.10   967%  5585 18802s
  4459  2590 4785414.85  128  400 -677659.67 5873250.10   967%  5603 19176s
H 4672  2698                    -395520.3138 5873250.10  1585%  5470 19176s
H 4702  2709                    -301502.3139 5873250.10  2048%  5462 19590s
H 4877  2863                    -301502.3136 5873250.10  2048%  5433 20048s
H 4931  2917                    -301502.3131 5873250.10  2048%  5463 20048s
H 5043  3019                    -301502.3126 5873250.10  2048%  5383 20048s
  5134  3115 4144463.39  147  363 -301502.31 5873250.10  2048%  5336 20528s
  5221  3194 3993034.07  156  357 -301502.31 5873250.10  2048%  5409 21172s
  5349  3325 3846741.76  168  354 -301502.31 5873250.10  2048%  5454 21860s
  5623  3592 3799413.16  183  326 -301502.31 5873250.10  2048%  5376 22657s
H 5722  3683                    -301502.3116 5873250.10  2048%  5433 22657s
  5842  3798 3764522.99  196  303 -301502.31 5873250.10  2048%  5369 23329s
  5948  3897 1903448.47  208  296 -301502.31 5873250.10  2048%  5431 24103s
  6067  4002 2872370.47  228  239 -301502.31 5752885.68  2008%  5509 24931s
  6383  4285 3153460.52   38  204 -301502.31 5747136.63  2006%  5453 25820s
  6644  4520 5157594.63   51  425 -301502.31 5737970.99  2003%  5408 26611s
  6883  4754 4997472.23   53  386 -301502.31 5737970.99  2003%  5403 27448s
  7205  5038 4461795.91   62  407 -301502.31 5737970.99  2003%  5346 28117s
  7533  5338 3970876.28   79  368 -301502.31 5737970.99  2003%  5323 29201s
  7897  5611 2277819.61  145  267 -301502.31 5725956.11  1999%  5279 30076s
  8307  5970 4351326.75   48  352 -301502.31 5725956.11  1999%  5197 31103s
  8690  6306 2310407.81   86  249 -301502.31 5717066.31  1996%  5133 32041s
  8942  6532 5512484.48   42  478 -301502.31 5708161.56  1993%  5122 32880s
  9105  6686 4985838.18   66  474 -301502.31 5708161.56  1993%  5150 33641s
  9347  6927 4462749.13  133  488 -301502.31 5708161.56  1993%  5165 34738s
H 9348  6898                    -266292.4472 5708161.56  2244%  5165 34738s
H 9693  7221                    -266292.4471 5708161.56  2244%  5147 35593s
H 9889  7404                    -266292.4469 5707073.40  2243%  5088 35593s
H 9941  7341                    -140975.5861 5687324.75  4134%  5104 35593s
 10134  7495 5572866.64   36  487 -140975.59 5681432.14  4130%  5109 36525s
H10152  7429                    -75090.58590 5681432.14  7666%  5138 36525s
 10504  7676 5285979.30   45  436 -75090.586 5681432.14  7666%  5121 37267s
H10698  7864                    -75090.58586 5681432.14  7666%  5187 38451s
H10992  8149                    -75090.58564 5681432.14  7666%  5181 38451s
H11090  8238                    -75090.58417 5681432.14  7666%  5178 39705s
 11554  8668 3960734.45   85  341 -75090.584 5681432.14  7666%  5164 40955s
 11890  8944 3662673.23  106  345 -75090.584 5681432.14  7666%  5202 42138s
 12451  9473 3356083.45  130  362 -75090.584 5681432.14  7666%  5153 43164s
 12985  9885 1766171.69  215  228 -75090.584 5637641.61  7608%  5139 44417s
 13396 10231 4422209.13   49  312 -75090.584 5637641.61  7608%  5142 45620s
 13928 10735 3349989.90  113  375 -75090.584 5637641.61  7608%  5100 46766s
 14540 11266 2897293.36  174  372 -75090.584 5620894.88  7585%  5032 47790s
 15161 11828 4773806.37   44  492 -75090.584 5620373.38  7585%  4971 48786s
 15438 12064 3503386.18  101  384 -75090.584 5620373.38  7585%  4999 49815s
 15903 12507 502810.998  321  343 -75090.584 5617955.88  7582%  4975 50777s
 16237 12815 3056281.59   67  313 -75090.584 5616263.48  7579%  4985 51670s
 16741 13287 2703454.60   94  461 -75090.584 5611197.31  7573%  4950 52707s
 17394 13860 4744363.51   61  475 -75090.584 5611000.26  7572%  4892 53691s
 17689 14141 2548451.65  129  353 -75090.584 5607163.25  7567%  4913 54618s
 18005 14409 2678979.91   40  295 -75090.584 5593699.04  7549%  4936 55532s
 18325 14645 4312762.77   49  454 -75090.584 5593233.95  7549%  4969 56375s
 18704 14955 3591568.58  116  395 -75090.584 5593233.95  7549%  4982 57381s
 19143 15368 2364077.03  208  370 -75090.584 5585065.34  7538%  4974 58449s
 19641 15811 4975318.97   62  454 -75090.584 5585065.34  7538%  4948 59428s
 20099 16221 3260969.12  132  324 -75090.584 5585065.34  7538%  4926 60469s
 20526 16586 4416532.37   43  411 -75090.584 5577062.20  7527%  4911 61598s
 20946 16980 1217332.68  191  437 -75090.584 5577062.20  7527%  4915 67648s
 20948 16981 5396233.39   40  355 -75090.584 5577062.20  7527%  4915 67710s
 20949 16982 4072071.35   71  408 -75090.584 5577062.20  7527%  4915 67731s
 20950 16983 969542.339  199  436 -75090.584 5577062.20  7527%  4914 67745s
 20951 16983 2711024.84  147  452 -75090.584 5577062.20  7527%  4914 67757s
 20952 16984 3089615.07  174  484 -75090.584 5577062.20  7527%  4914 67775s
 20953 16985 1039826.21  264  480 -75090.584 5577062.20  7527%  4914 67801s
 20954 16985 3511175.90  147  468 -75090.584 5577062.20  7527%  4913 67808s
 20955 16986 3980049.89   79  474 -75090.584 5577062.20  7527%  4913 67817s
 20956 16987 5217569.73   51  476 -75090.584 5577062.20  7527%  4913 67827s
 20957 16987 1062279.17  322  485 -75090.584 5577062.20  7527%  4913 67838s
 20958 16988 2000435.27  249  452 -75090.584 5577062.20  7527%  4913 67848s
 20959 16989 2262305.64  175  484 -75090.584 5577062.20  7527%  4912 67855s
 20960 16989 812757.846  339  486 -75090.584 5577062.20  7527%  4912 67862s
 20961 16990 375635.540  253  482 -75090.584 5577062.20  7527%  4912 67867s
 20962 16991 -11036.831  381  498 -75090.584 5577062.20  7527%  4912 67871s
 20964 16992 5411243.77   41  525 -75090.584 5577062.20  7527%  4911 67883s
 20965 16993 1452000.02  162  532 -75090.584 5577062.20  7527%  4911 67886s
 20966 16993 1170629.66  296  556 -75090.584 5577062.20  7527%  4911 67890s
 20967 16994 376191.882  247  554 -75090.584 5577062.20  7527%  4910 67895s
 20969 16995 1512748.81   76  549 -75090.584 5577062.20  7527%  4910 67904s
 20970 16996 2499511.09   65  570 -75090.584 5577062.20  7527%  4910 67906s
 20973 16998 3485707.63  121  543 -75090.584 5577062.20  7527%  4909 67910s
 20975 16999 1708838.46  173  564 -75090.584 5577062.20  7527%  4909 67915s
 20978 17001 3817971.12  136  580 -75090.584 5577062.20  7527%  4908 67921s
 20982 17004 102621.500   46  560 -75090.584 5577062.20  7527%  4907 67925s
 20984 17005 2158088.49  155  518 -75090.584 5577062.20  7527%  4906 67990s
 20985 17006 4773147.61   44  490 -75090.584 5577062.20  7527%  4906 68010s
 20986 17007 2547586.44  146  506 -75090.584 5577062.20  7527%  4906 68017s
 20987 17007 1486164.08   73  514 -75090.584 5577062.20  7527%  4906 68021s
 20989 17009 3175939.12  142  534 -75090.584 5577062.20  7527%  4905 68026s
 20991 17010 3139677.46  120  552 -75090.584 5577062.20  7527%  4905 68030s
 20993 17011 1254458.68  205  543 -75090.584 5577062.20  7527%  4904 68035s
 20995 17013 1588943.58  163  555 -75090.584 5577062.20  7527%  4904 68074s
 20996 17013 3476831.30  111  484 -75090.584 5577062.20  7527%  4904 68202s
 20997 17014 3560754.68  145  493 -75090.584 5577062.20  7527%  4903 68206s
 20998 17015 2679714.94  226  544 -75090.584 5577062.20  7527%  4903 68210s
 21000 17016 3746879.99  104  509 -75090.584 5577062.20  7527%  4903 68216s
 21003 17018 3816526.02   74  509 -75090.584 5577062.20  7527%  4902 68220s
 21006 17020 3204780.00  136  539 -75090.584 5577062.20  7527%  4901 68225s
 21008 17021 3037368.19  148  539 -75090.584 5577062.20  7527%  4901 68257s
 21009 17022 2773972.34  129  509 -75090.584 5577062.20  7527%  4901 68339s
 21010 17023 3318338.81  128  476 -75090.584 5542222.22  7481%  4900 68360s
 21011 17023 2614229.74  171  515 -75090.584 5529996.56  7464%  4900 68367s
 21012 17024 3100142.33  151  504 -75090.584 5525497.60  7458%  4900 68375s
 21014 17025 350967.803  223  507 -75090.584 5520318.42  7452%  4899 68381s
 21016 17027 1535071.05   54  510 -75090.584 5517288.68  7448%  4899 68386s
 21017 17027 1120668.01  301  514 -75090.584 5517165.12  7447%  4899 68449s
 21018 17028 516091.987  318  545 -75090.584 5486072.42  7406%  4899 68522s
 21019 17029 1508221.43  104  554 -75090.584 5480874.74  7399%  4898 68530s
 21020 17029 1788143.88  166  570 -75090.584 5475755.92  7392%  4898 68537s
 21021 17030 1898893.39   76  580 -75090.584 5470903.57  7386%  4898 68541s
 21022 17031 610768.281   78  577 -75090.584 5467037.28  7381%  4898 68545s
 21024 17032 491382.474  209  553 -75090.584 5465900.63  7379%  4897 68550s
 21026 17033 5410315.10   76  564 -75090.584 5465097.93  7378%  4897 68595s
 21027 17034 3812040.03   97  559 -75090.584 5459879.21  7371%  4896 68694s
 21028 17035 2993567.54  104  573 -75090.584 5450665.60  7359%  4896 68701s
 21030 17036 3485263.55   90  592 -75090.584 5448689.69  7356%  4896 68706s
 21032 17037 4500788.82   57  589 -75090.584 5446327.90  7353%  4895 68711s
 21035 17039 3745140.58   60  590 -75090.584 5444737.17  7351%  4895 68716s
H21035 16185                    -75090.44965 5444659.00  7351%  4895 68787s
 21037 16187 2259086.23  147  520 -75090.450 5433071.98  7335%  4894 68831s
 21038 16187 2628223.98  167  546 -75090.450 5427796.11  7328%  4894 68839s
 21039 16188 466058.178  113  579 -75090.450 5423821.43  7323%  4894 68843s
 21040 16189 374941.238  299  560 -75090.450 5421574.68  7320%  4893 68846s
 21041 16189 142409.412  253  536 -75090.450 5414306.56  7310%  4893 68852s
 21043 16191 1163483.40  233  547 -75090.450 5413371.65  7309%  4893 68856s
 21045 16192 -9093.7172  229  579 -75090.450 5412687.73  7308%  4892 68860s
 21048 16194 5396233.39   40  599 -75090.450 5411205.16  7306%  4892 68894s
 21049 16195 4072071.35   71  567 -75090.450 5395134.43  7285%  4891 68937s
 21050 16195 969542.339  199  596 -75090.450 5391363.66  7280%  4891 68942s
 21051 16196 2711024.84  147  557 -75090.450 5389283.31  7277%  4891 68946s
 21052 16197 3089615.07  174  547 -75090.450 5388220.60  7276%  4891 68950s
 21055 16199 3980049.89   79  549 -75090.450 5386783.06  7274%  4890 68955s
 21058 16201 2000435.27  249  552 -75090.450 5385887.69  7273%  4889 68960s
 21060 16202 812757.846  339  557 -75090.450 5385575.00  7272%  4889 68991s
H21060 15390                    -75090.44443 5385575.00  7272%  4889 69024s
 21061 15391 375635.540  253  544 -75090.444 5381670.43  7267%  4888 69031s
 21062 15391 -11036.831  381  589 -75090.444 5377154.66  7261%  4888 69035s
 21064 15393 5374517.59   41  584 -75090.444 5374517.59  7257%  4888 69041s
 21066 15394 1170629.66  296  580 -75090.444 5374196.44  7257%  4887 69073s
 21067 15395 376191.882  247  607 -75090.444 5372313.63  7254%  4887 69113s
 21068 15395 2549694.10  132  576 -75090.444 5368710.41  7250%  4887 69117s
 21069 15396 1512748.81   76  569 -75090.444 5367883.36  7249%  4887 69120s
 21073 15399 3485707.63  121  564 -75090.444 5366528.98  7247%  4886 69126s
 21075 15400 1708838.46  173  580 -75090.444 5365626.04  7246%  4885 69130s
 21077 15401 2055143.17  142  584 -75090.444 5365355.93  7245%  4885 69160s
 21078 15402 3817971.12  136  580 -75090.444 5353316.72  7229%  4885 69202s
 21079 15403 1233787.57  226  580 -75090.444 5349430.43  7224%  4884 69206s
 21082 15405 102621.500   46  582 -75090.444 5348270.01  7222%  4884 69239s
 21083 15405 2424336.49  112  543 -75090.444 5342220.24  7214%  4883 69273s
 21084 15406 2158088.49  155  578 -75090.444 5338683.04  7210%  4883 69278s
 21086 15407 2547586.44  146  588 -75090.444 5335730.33  7206%  4883 69282s
 21088 15409 4199375.06  170  593 -75090.444 5335083.14  7205%  4882 69285s
 21090 15410 3493063.61   48  588 -75090.444 5334859.60  7205%  4882 69318s
 21091 15411 3139677.46  120  588 -75090.444 5333927.96  7203%  4882 69356s
 21094 15413 244572.044  104  599 -75090.444 5332772.86  7202%  4881 69360s
 21095 15413 1588943.58  163  612 -75090.444 5332696.17  7202%  4881 69391s
 21096 15414 3476831.30  111  596 -75090.444 5329789.76  7198%  4880 69438s
 21097 15415 3560754.68  145  586 -75090.444 5327969.23  7195%  4880 69442s
 21098 15415 2679714.94  226  586 -75090.444 5327116.80  7194%  4880 69445s
 21101 15417 4444573.21  137  595 -75090.444 5326528.09  7193%  4879 69480s
 21102 15418 293444.701  268  577 -75090.444 5326177.43  7193%  4879 69514s
 21103 15419 3816526.02   74  570 -75090.444 5325993.15  7193%  4879 69516s
 21105 15420 1706132.27  207  563 -75090.444 5325802.40  7193%  4878 69543s
 21106 15421 3204780.00  136  556 -75090.444 5324527.75  7191%  4878 69575s
 21109 15423 2773972.34  129  589 -75090.444 5322592.60  7188%  4877 69612s
 21110 15423 3318338.81  128  574 -75090.444 5313631.46  7176%  4877 69654s
 21111 15424 2614229.74  171  554 -75090.444 5310907.16  7173%  4877 69658s
 21112 15425 3100142.33  151  548 -75090.444 5310467.66  7172%  4877 69660s
 21116 15427 1535071.05   54  564 -75090.444 5309615.00  7171%  4876 69666s
 21117 15428 1120668.01  301  577 -75090.444 5309489.48  7171%  4876 69693s
 21118 15429 516091.987  318  589 -75090.444 5308574.37  7170%  4875 69725s
 21122 15431 610768.281   78  588 -75090.444 5307670.83  7168%  4874 69756s
 21123 15432 3299946.23  113  562 -75090.444 5305047.07  7165%  4874 69793s
 21124 15433 491382.474  209  554 -75090.444 5303699.27  7163%  4874 69798s
 21125 15433 928423.037  236  556 -75090.444 5303072.12  7162%  4874 69800s
 21127 15435 3812040.03   97  552 -75090.444 5302741.39  7162%  4873 69829s
 21128 15435 2993567.54  104  560 -75090.444 5301903.40  7161%  4873 69867s
 21130 15437 3485263.55   90  570 -75090.444 5301430.56  7160%  4873 69897s
 21131 15437 4120424.47  189  556 -75090.444 5279942.58  7131%  4872 69941s
 21133 15439 1500852.13  160  578 -75090.444 5278943.96  7130%  4872 69945s
 21135 15440 3745140.58   60  579 -75090.444 5278546.26  7130%  4871 69979s
 21136 15441 142952.623  100  586 -75090.444 5278237.31  7129%  4871 70045s
 21137 15441 2259086.23  147  582 -75090.444 5278141.41  7129%  4871 70076s
 21138 15442 2628223.98  167  582 -75090.444 5277194.07  7128%  4871 70113s
 21139 15443 466058.178  113  592 -75090.444 5276793.03  7127%  4870 70116s
 21141 15444 142409.412  253  599 -75090.444 5276249.88  7127%  4870 70174s
 21142 15445 2492556.19  190  598 -75090.444 5269518.34  7118%  4870 70214s
 21143 15445 1163483.40  233  555 -75090.444 5262733.65  7109%  4870 70220s
 21145 15447 -9093.7172  229  591 -75090.444 5261287.90  7107%  4869 70226s
 21148 15449 5260625.13   40  596 -75090.444 5260625.13  7106%  4868 70231s
 21150 15450 969542.339  199  603 -75090.444 5260109.67  7105%  4868 70289s
 21151 15451 2711024.84  147  590 -75090.444 5258997.14  7104%  4868 70326s
 21153 15452 1039826.21  264  588 -75090.444 5258154.87  7102%  4867 70330s
 21154 15453 3511175.90  147  601 -75090.444 5258118.38  7102%  4867 70365s
 21155 15453 3980049.89   79  596 -75090.444 5256265.09  7100%  4867 70402s
 21157 15455 1062279.17  322  594 -75090.444 5255528.80  7099%  4866 70405s
 21158 15455 2000435.27  249  608 -75090.444 5255414.45  7099%  4866 70437s
 21159 15456 2262305.64  175  592 -75090.444 5254441.35  7097%  4866 70471s
 21160 15457 812757.846  339  583 -75090.444 5253388.59  7096%  4866 70475s
 21161 15457 375635.540  253  600 -75090.444 5253267.19  7096%  4865 70503s
 21162 15458 -11036.831  381  537 -75090.444 5244825.48  7085%  4865 70544s
 21163 15459 3477677.80  105  576 -75090.444 5244430.47  7084%  4865 70547s
H21163 14682                    -75090.23970 5244430.47  7084%  4865 70551s
 21166 14684 1170629.66  296  573 -75090.240 5243848.79  7083%  4864 70583s
 21167 14684 376191.882  247  579 -75090.240 5238680.98  7077%  4864 70654s
 21168 14685 2549694.10  132  579 -75090.240 5237243.07  7075%  4864 70658s
 21169 14686 1512748.81   76  566 -75090.240 5236493.58  7074%  4864 70662s
 21170 14686 2499511.09   65  595 -75090.240 5235850.47  7073%  4863 70665s
 21171 14687 5158177.75   60  571 -75090.240 5235740.84  7073%  4863 70696s
 21172 14688 198558.877   52  570 -75090.240 5229485.81  7064%  4863 70761s
 21173 14688 3485707.63  121  589 -75090.240 5224578.85  7058%  4863 70772s
 21174 14689 2040838.86   88  603 -75090.240 5223649.91  7056%  4862 70775s
 21175 14690 1708838.46  173  610 -75090.240 5221592.28  7054%  4862 70780s
 21177 14691 2055143.17  142  636 -75090.240 5219076.42  7050%  4862 70786s
 21179 14692 1233787.57  226  630 -75090.240 5218176.43  7049%  4861 70816s
 21180 14693 1639602.90  150  602 -75090.240 5213244.41  7043%  4861 70888s
 21181 14694 3652388.37  159  585 -75090.240 5212147.28  7041%  4861 70891s
 21182 14694 102621.500   46  598 -75090.240 5209019.82  7037%  4861 70898s
 21183 14695 2424336.49  112  622 -75090.240 5207895.61  7036%  4860 70902s
 21185 14696 4773147.61   44  620 -75090.240 5207363.13  7035%  4860 70905s
 21187 14698 1486164.08   73  622 -75090.240 5207070.88  7034%  4859 70935s
 21188 14698 4199375.06  170  597 -75090.240 5203402.74  7030%  4859 70973s
 21189 14699 3175939.12  142  609 -75090.240 5197382.34  7022%  4859 70981s
 21190 14700 3493063.61   48  601 -75090.240 5195389.21  7019%  4859 70985s
 21192 14701 879867.465  132  601 -75090.240 5194705.47  7018%  4858 71019s
 21193 14702 1254458.68  205  583 -75090.240 5189897.98  7012%  4858 71055s
 21195 14703 1588943.58  163  623 -75090.240 5188352.29  7009%  4858 71060s
 21199 14706 3375509.23  113  636 -75090.240 5186937.91  7008%  4857 71068s
 21200 14706 3746879.99  104  637 -75090.240 5186610.79  7007%  4856 71070s
 21202 14708 293444.701  268  634 -75090.240 5186349.92  7007%  4856 71102s
 21203 14708 3816526.02   74  609 -75090.240 5186109.97  7007%  4856 71135s
 21204 14709 825870.014  244  610 -75090.240 5186027.17  7006%  4856 71168s
 21205 14710 1706132.27  207  624 -75090.240 5184601.16  7004%  4855 71204s
 21206 14710 3204780.00  136  618 -75090.240 5184430.59  7004%  4855 71205s
 21207 14711 3648793.02  112  629 -75090.240 5184366.31  7004%  4855 71233s
 21208 14712 3037368.19  148  588 -75090.240 5183185.84  7003%  4855 71268s
 21209 14712 2773972.34  129  590 -75090.240 5182223.40  7001%  4854 71270s
 21213 14715 1322266.00  237  606 -75090.240 5181559.23  7000%  4853 71305s
 21214 14716 350967.803  223  577 -75090.240 5179444.97  6998%  4853 71344s
 21215 14716 590655.914  166  544 -75090.240 5178630.51  6997%  4853 71346s
 21217 14718 1120668.01  301  574 -75090.240 5177506.17  6995%  4853 71352s
 21220 14720 1788143.88  166  572 -75090.240 5177030.50  6994%  4852 71387s
 21221 14720 1898893.39   76  571 -75090.240 5175549.48  6992%  4852 71424s
 21222 14721 610768.281   78  574 -75090.240 5175355.17  6992%  4851 71425s
 21224 14722 491382.474  209  564 -75090.240 5175036.85  6992%  4851 71455s
 21225 14723 928423.037  236  602 -75090.240 5172348.41  6988%  4851 71495s
 21227 14724 3812040.03   97  582 -75090.240 5170809.89  6986%  4850 71500s
 21229 14726 2615902.32   50  596 -75090.240 5170474.84  6986%  4850 71530s
 21230 14726 3485263.55   90  578 -75090.240 5165818.05  6979%  4850 71570s
 21232 14728 4500788.82   57  585 -75090.240 5165009.03  6978%  4849 71575s
 21234 14729 729328.083  120  602 -75090.240 5164521.17  6978%  4849 71609s
 21235 14730 3745140.58   60  607 -75090.240 5163155.69  6976%  4848 71640s
 21237 14731 2259086.23  147  589 -75090.240 5162279.54  6975%  4848 71671s
 21238 14732 2628223.98  167  567 -75090.240 5161101.64  6973%  4848 71707s
 21239 14732 466058.178  113  576 -75090.240 5158177.90  6969%  4848 71711s
 21241 14734 142409.412  253  575 -75090.240 5157916.45  6969%  4847 71747s
 21242 14734 2492556.19  190  574 -75090.240 5152520.18  6962%  4847 71792s
 21243 14735 1163483.40  233  580 -75090.240 5151861.75  6961%  4847 71795s
 21246 14737 1217332.68  191  578 -75090.240 5151129.88  6960%  4846 71800s
 21249 14739 4072071.35   71  581 -75090.240 5150525.78  6959%  4845 71838s
 21250 14740 969542.339  199  595 -75090.240 5146559.71  6954%  4845 71881s
 21252 14741 3089615.07  174  582 -75090.240 5145726.27  6953%  4845 71885s
 21253 14742 1039826.21  264  586 -75090.240 5145639.62  6953%  4844 71915s
 21254 14742 3511175.90  147  598 -75090.240 5145278.76  6952%  4844 71984s
 21255 14743 3980049.89   79  619 -75090.240 5145141.98  6952%  4844 71989s
 21256 14744 5144959.67   51  592 -75090.240 5144959.67  6952%  4844 71990s
 21258 14745 2000435.27  249  612 -75090.240 5144768.32  6951%  4843 72025s
 21259 14746 2262305.64  175  594 -75090.240 5143362.98  6950%  4843 72067s
 21260 14746 812757.846  339  590 -75090.240 5142990.19  6949%  4843 72071s
 21261 14747 375635.540  253  602 -75090.240 5142914.97  6949%  4843 72108s
 21262 14748 -11036.831  381  582 -75090.240 5124680.42  6925%  4842 72211s
 21263 14748 3477677.80  105  571 -75090.240 5118151.09  6916%  4842 72217s
 21264 14749 5116526.02   41  577 -75090.240 5116526.02  6914%  4842 72221s
 21266 14750 1170629.66  296  572 -75090.240 5114669.39  6911%  4841 72228s
 21267 14751 376191.882  247  580 -75090.240 5114276.33  6911%  4841 72230s
 21268 14752 2549694.10  132  590 -75090.240 5114159.26  6911%  4841 72258s
 21269 14752 1512748.81   76  580 -75090.240 5110819.00  6906%  4841 72302s
 21270 14753 2499511.09   65  578 -75090.240 5110257.73  6905%  4840 72306s
 21272 14754 198558.877   52  595 -75090.240 5109084.90  6904%  4840 72311s
 21274 14756 2040838.86   88  591 -75090.240 5108466.41  6903%  4840 72315s
 21275 14756 1708838.46  173  589 -75090.240 5108395.65  6903%  4839 72352s
 21276 14757 3856553.04   62  620 -75090.240 5086665.23  6874%  4839 72464s
 21277 14758 2055143.17  142  623 -75090.240 5074659.43  6858%  4839 72474s
 21278 14758 3817971.12  136  623 -75090.240 5072095.67  6855%  4839 72478s
 21279 14759 1233787.57  226  615 -75090.240 5062041.58  6841%  4838 72489s
 21280 14760 1639602.90  150  628 -75090.240 5061224.10  6840%  4838 72493s
 21281 14760 3652388.37  159  630 -75090.240 5060210.15  6839%  4838 72497s
 21282 14761 102621.500   46  627 -75090.240 5059233.12  6838%  4838 72502s
 21284 14762 2158088.49  155  633 -75090.240 5058390.25  6836%  4837 72505s
 21286 14764 2547586.44  146  626 -75090.240 5058174.24  6836%  4837 72542s
 21287 14764 1486164.08   73  598 -75090.240 5053788.88  6830%  4837 72585s
 21288 14765 4199375.06  170  627 -75090.240 5052179.93  6828%  4836 72592s
 21289 14766 3175939.12  142  610 -75090.240 5051182.42  6827%  4836 72595s
 21292 14768 879867.465  132  624 -75090.240 5050492.82  6826%  4835 72628s
 21293 14768 1254458.68  205  617 -75090.240 5049327.73  6824%  4835 72670s
 21296 14770 3476831.30  111  621 -75090.240 5047672.09  6822%  4835 72704s
 21297 14771 3560754.68  145  621 -75090.240 5047329.84  6822%  4834 72741s
 21299 14772 3375509.23  113  610 -75090.240 5046652.38  6821%  4834 72745s
 21300 14773 3746879.99  104  623 -75090.240 5046526.83  6821%  4834 72776s
 21301 14774 4444573.21  137  628 -75090.240 5045774.60  6820%  4833 72813s
 21302 14774 293444.701  268  627 -75090.240 5045332.48  6819%  4833 72815s
 21306 14777 3204780.00  136  623 -75090.240 5044722.33  6818%  4832 72851s
 21307 14778 3648793.02  112  616 -75090.240 5044249.10  6818%  4832 72890s
 21310 14780 3318338.81  128  625 -75090.240 5043385.05  6816%  4831 72896s
 21311 14780 2614229.74  171  635 -75090.240 5043319.06  6816%  4831 72929s
 21312 14781 3100142.33  151  625 -75090.240 5041780.11  6814%  4831 72971s
 21314 14782 350967.803  223  628 -75090.240 5041549.55  6814%  4830 73008s
 21315 14783 590655.914  166  635 -75090.240 5041478.00  6814%  4830 73042s
 21316 14784 1535071.05   54  634 -75090.240 5041467.88  6814%  4830 73074s
 21317 14784 1120668.01  301  597 -75090.240 5040563.33  6813%  4830 73112s
 21319 14786 1508221.43  104  589 -75090.240 5040025.01  6812%  4829 73144s
 21320 14786 1788143.88  166  603 -75090.240 5039794.44  6812%  4829 73177s
 21322 14788 610768.281   78  601 -75090.240 5039625.77  6811%  4829 73210s
 21323 14788 3299946.23  113  617 -75090.240 5039098.65  6811%  4828 73245s
 21324 14789 491382.474  209  606 -75090.240 5039045.53  6811%  4828 73278s
 21325 14790 928423.037  236  608 -75090.240 5038966.41  6811%  4828 73316s
 21326 14790 5038921.02   76  608 -75090.240 5038921.02  6810%  4828 73362s
 21327 14791 3812040.03   97  605 -75090.240 5038572.34  6810%  4828 73398s
 21328 14792 2993567.54  104  607 -75090.240 5038422.37  6810%  4827 73400s
 21329 14792 2615902.32   50  595 -75090.240 5038384.36  6810%  4827 73431s
 21330 14793 3485263.55   90  606 -75090.240 5038362.54  6810%  4827 73464s
 21331 14794 4120424.47  189  609 -75090.240 5038358.44  6810%  4827 73495s
 21332 14794 4500788.82   57  600 -75090.240 5037771.67  6809%  4826 73533s
 21333 14795 1500852.13  160  594 -75090.240 5037677.31  6809%  4826 73567s
 21334 14796 729328.083  120  601 -75090.240 5037476.66  6809%  4826 73604s
 21335 14796 3745140.58   60  592 -75090.240 5037422.95  6808%  4826 73637s
 21336 14797 142952.623  100  602 -75090.240 5037173.78  6808%  4825 73675s
 21338 14798 2628223.98  167  597 -75090.240 5037007.05  6808%  4825 73710s
 21339 14799 466058.178  113  576 -75090.240 5036501.33  6807%  4825 73746s
 21341 14800 142409.412  253  576 -75090.240 5036322.60  6807%  4824 73778s
 21342 14801 2492556.19  190  572 -75090.240 5035605.34  6806%  4824 73819s
 21343 14802 1163483.40  233  544 -75090.240 5035505.97  6806%  4824 73852s
 21344 14802 2449005.54  151  568 -75090.240 5035439.17  6806%  4824 73886s
 21345 14803 -9093.7172  229  568 -75090.240 5035315.80  6806%  4823 73914s
 21346 14804 1217332.68  191  571 -75090.240 5035043.09  6805%  4823 73951s
 21348 14805 5034783.08   40  566 -75090.240 5034783.08  6805%  4823 73986s
 21349 14806 4072071.35   71  566 -75090.240 5034632.96  6805%  4823 74025s
 21350 14806 969542.339  199  583 -75090.240 5034582.44  6805%  4822 74055s
 21351 14807 2711024.84  147  580 -75090.240 5030713.92  6800%  4822 74098s
 21352 14808 3089615.07  174  588 -75090.240 5030290.61  6799%  4822 74101s
 21353 14808 1039826.21  264  587 -75090.240 5030209.19  6799%  4822 74136s
 21354 14809 3511175.90  147  584 -75090.240 5029969.86  6799%  4821 74175s
 21355 14810 3980049.89   79  592 -75090.240 5029961.03  6799%  4821 74208s
 21356 14810 5029868.79   51  601 -75090.240 5029868.79  6798%  4821 74244s
 21358 14812 2000435.27  249  591 -75090.240 5029652.19  6798%  4821 74277s
 21359 14812 2262305.64  175  597 -75090.240 5029631.81  6798%  4820 74313s
 21360 14813 812757.846  339  602 -75090.240 5029629.00  6798%  4820 74343s
 21361 14814 375635.540  253  599 -75090.240 5029628.14  6798%  4820 74380s
 21362 14814 -11036.831  381  598 -75090.240 5029574.22  6798%  4820 74414s
 21363 14815 3477677.80  105  604 -75090.240 5029568.53  6798%  4819 74449s
 21364 14816 5029406.23   41  592 -75090.240 5029406.23  6798%  4819 74450s
 21365 14816 1452000.02  162  596 -75090.240 5029401.72  6798%  4819 74481s
 21366 14817 1170629.66  296  591 -75090.240 5029126.72  6797%  4819 74515s
 21367 14818 376191.882  247  589 -75090.240 5029082.15  6797%  4818 74543s
 21368 14818 2549694.10  132  585 -75090.240 5029060.12  6797%  4818 74578s
 21369 14819 1512748.81   76  590 -75090.240 5029049.47  6797%  4818 74607s
 21370 14820 2499511.09   65  597 -75090.240 5028762.92  6797%  4818 74642s
 21372 14821 198558.877   52  596 -75090.240 5028371.71  6796%  4817 74675s
 21373 14822 3485707.63  121  586 -75090.240 5028214.54  6796%  4817 74712s
 21374 14822 2040838.86   88  590 -75090.240 5028083.90  6796%  4817 74742s
 21375 14823 1708838.46  173  604 -75090.240 5028027.32  6796%  4817 74779s
 21376 14824 3856553.04   62  587 -75090.240 5027992.91  6796%  4816 74813s
 21377 14824 2055143.17  142  596 -75090.240 5026157.05  6793%  4816 74873s
 21378 14825 3817971.12  136  606 -75090.240 5025744.91  6793%  4816 74875s
 21380 14826 1639602.90  150  599 -75090.240 5024995.56  6792%  4816 74880s
 21382 14828 102621.500   46  595 -75090.240 5024787.83  6792%  4815 74917s
 21383 14828 2424336.49  112  593 -75090.240 5023959.81  6791%  4815 74955s
 21384 14829 2158088.49  155  596 -75090.240 5023884.77  6790%  4815 74986s
 21385 14830 4773147.61   44  590 -75090.240 5023617.62  6790%  4814 75020s
 21387 14831 1486164.08   73  613 -75090.240 5023269.55  6790%  4814 75057s
 21388 14832 4199375.06  170  601 -75090.240 5023234.59  6790%  4814 75091s
 21389 14832 3175939.12  142  607 -75090.240 5023209.24  6790%  4814 75124s
 21390 14833 3493063.61   48  603 -75090.240 5023203.90  6790%  4813 75159s
 21391 14834 3139677.46  120  607 -75090.240 5023184.12  6790%  4813 75189s
 21392 14834 879867.465  132  610 -75090.240 5022049.09  6788%  4813 75228s
 21393 14835 1254458.68  205  614 -75090.240 5021023.02  6787%  4813 75232s
 21394 14836 244572.044  104  611 -75090.240 5020912.86  6787%  4812 75266s
 21395 14836 1588943.58  163  605 -75090.240 5019773.43  6785%  4812 75303s
 21396 14837 3476831.30  111  616 -75090.240 5019555.66  6785%  4812 75305s
 21398 14838 2679714.94  226  626 -75090.240 5019372.18  6784%  4812 75340s
 21399 14839 3375509.23  113  617 -75090.240 5019040.92  6784%  4811 75378s
 21400 14840 3746879.99  104  621 -75090.240 5018894.72  6784%  4811 75380s
 21401 14840 4444573.21  137  615 -75090.240 5018818.60  6784%  4811 75417s
 21402 14841 293444.701  268  548 -75090.240 5016056.89  6780%  4811 75454s
 21403 14842 3816526.02   74  557 -75090.240 5015649.72  6779%  4810 75457s
 21405 14843 1706132.27  207  565 -75090.240 5015024.68  6779%  4810 75461s
 21406 14844 3204780.00  136  562 -75090.240 5014984.94  6779%  4810 75495s
 21407 14844 3648793.02  112  561 -75090.240 5014598.65  6778%  4809 75529s
H21407 14094                    -75089.42656 5014584.28  6778%  4809 75562s
 21409 14096 2773972.34  129  565 -75089.427 5014475.87  6778%  4809 75598s
 21410 14096 3318338.81  128  571 -75089.427 5014469.09  6778%  4809 75628s
 21411 14097 2614229.74  171  576 -75089.427 5013452.66  6777%  4809 75669s
 21412 14098 3100142.33  151  578 -75089.427 5013215.22  6776%  4808 75670s
 21414 14099 350967.803  223  569 -75089.427 5012918.75  6776%  4808 75709s
 21415 14100 590655.914  166  593 -75089.427 5012810.93  6776%  4808 75747s
 21416 14100 1535071.05   54  591 -75089.427 5012791.68  6776%  4807 75778s
 21417 14101 1120668.01  301  596 -75089.427 5012784.30  6776%  4807 75811s
 21418 14102 516091.987  318  598 -75089.427 5012754.38  6776%  4807 75841s
 21419 14102 1508221.43  104  597 -75089.427 5012742.72  6776%  4807 75874s
 21420 14103 1788143.88  166  604 -75089.427 5012737.23  6776%  4807 75905s
 21421 14104 1898893.39   76  602 -75089.427 5012736.09  6776%  4806 75937s
 21422 14104 610768.281   78  610 -75089.427 5012736.09  6776%  4806 75969s
 21423 14105 3299946.23  113  609 -75089.427 5012735.54  6776%  4806 76005s
 21424 14106 491382.474  209  609 -75089.427 5012732.62  6776%  4806 76038s
 21425 14106 928423.037  236  592 -75089.427 5011907.45  6775%  4805 76077s
 21426 14107 5011802.06   76  590 -75089.427 5011802.06  6774%  4805 76112s
 21427 14108 3812040.03   97  597 -75089.427 5011754.18  6774%  4805 76159s
 21428 14108 2993567.54  104  597 -75089.427 5011754.18  6774%  4805 76355s
 21429 14112 5011637.62   38  590 -75089.427 5011637.62  6774%  4851 76483s
 21431 14115 4979612.83   39  560 -75089.427 4991900.06  6748%  4852 76716s
 21435 14118 4961244.56   40  590 -75089.427 4972038.37  6721%  4858 76789s
 21439 14121 4921831.99   40  499 -75089.427 4961244.21  6707%  4859 76903s
 21443 14123 4961123.92   41  598 -75089.427 4961123.92  6707%  4861 76936s
 21447 14126 3099367.43   41  444 -75089.427 4961113.36  6707%  4863 77053s
 21451 14129 4943336.39   42  536 -75089.427 4961105.04  6707%  4867 77152s
 21455 14132 4635960.34   42  484 -75089.427 4943336.39  6683%  4871 77247s
 21460 14130 4939913.44   43  524 -75089.427 4943336.39  6683%  4872 77289s
 21465 14131 4924098.00   43  542 -75089.427 4939913.25  6679%  4874 77323s
 21470 14137 4917955.60   44  541 -75089.427 4939913.25  6679%  4874 77405s
 21476 14144 4074505.35   44  448 -75089.427 4939913.25  6679%  4878 77491s
 21483 14149 4906288.54   45  516 -75089.427 4939913.25  6679%  4881 77563s
 21490 14151 4700900.10   45  512 -75089.427 4939913.25  6679%  4886 77672s
 21498 14151 4900758.05   46  543 -75089.427 4939913.25  6679%  4890 77744s
 21507 14163 4878330.47   47  567 -75089.427 4939913.25  6679%  4893 77811s
 21515 14166 4353984.63   47  441 -75089.427 4939913.25  6679%  4896 77859s
 21525 14175 4849101.28   48  513 -75089.427 4939913.25  6679%  4897 77950s
 21535 14179 4733867.66   48  568 -75089.427 4939913.25  6679%  4900 78001s
 21545 14186 4841988.74   49  506 -75089.427 4939913.25  6679%  4901 78062s
 21556 14192 4838750.06   50  517 -75089.427 4939913.25  6679%  4903 78121s
 21569 14202 4838462.86   51  534 -75089.427 4939913.25  6679%  4904 78225s
 21583 14212 4806910.80   52  540 -75089.427 4939913.25  6679%  4907 78317s
 21599 14219 4797105.15   53  551 -75089.427 4939913.25  6679%  4910 78406s
 21616 14232 4795561.45   54  557 -75089.427 4939913.25  6679%  4912 78493s
 21636 14244 4791160.83   55  550 -75089.427 4939913.25  6679%  4914 78562s
 21657 14255 4787877.79   56  536 -75089.427 4939913.25  6679%  4915 78654s
 21678 14270 4775258.56   57  533 -75089.427 4939913.25  6679%  4918 78724s
 21699 14282 4620545.34   57  513 -75089.427 4939913.25  6679%  4919 78826s
 21719 14291 4705466.74   59  565 -75089.427 4939913.25  6679%  4921 78887s
 21742 14306 4697211.50   60  546 -75089.427 4939913.25  6679%  4921 78955s
 21768 14314 4593992.10   61  529 -75089.427 4939913.25  6679%  4921 79063s
 21789 14316 4585657.33   62  518 -75089.427 4939913.25  6679%  4924 79166s
 21801 14329 4565148.01   63  519 -75089.427 4939913.25  6679%  4931 79258s
 21819 14337 4558543.33   64  526 -75089.427 4939913.25  6679%  4935 79350s
 21840 14350 4552080.55   65  506 -75089.427 4939913.25  6679%  4940 79475s
 21862 14364 4518123.92   66  526 -75089.427 4939913.25  6679%  4946 79595s
 21888 14380 4471011.98   68  525 -75089.427 4939913.25  6679%  4949 79736s
 21910 14396 4460470.87   69  535 -75089.427 4939913.25  6679%  4955 79907s
 21940 14413 4428442.71   71  494 -75089.427 4939913.25  6679%  4959 80051s
 21969 14431 4221708.68   73  477 -75089.427 4939913.25  6679%  4963 80211s
 22005 14450 4371225.44   75  484 -75089.427 4939913.25  6679%  4964 80378s
 22039 14464 4339729.67   78  460 -75089.427 4939913.25  6679%  4969 80498s
 22070 14485 1754605.91   79  381 -75089.427 4939913.25  6679%  4977 80667s
 22090 14493 4218507.09   80  422 -75089.427 4939913.25  6679%  4979 80866s
 22126 14517 4093000.19   82  475 -75089.427 4939913.25  6679%  4986 81050s
 22166 14539 4081944.18   85  419 -75089.427 4939913.25  6679%  4991 81251s
 22226 14571 4040396.01   87  468 -75089.427 4939913.25  6679%  4992 81446s
 22278 14600 3964473.80   90  451 -75089.427 4939913.25  6679%  4995 81664s
 22340 14628 3922287.42   93  423 -75089.427 4939913.25  6679%  4996 81876s
 22423 14675 3677404.79   96  397 -75089.427 4939913.25  6679%  4993 82083s
 22522 14714 3381827.87  100  446 -75089.427 4939913.25  6679%  4986 82372s
 22588 14721 3755880.97  104  496 -75089.427 4939913.25  6679%  4991 82543s
 22677 14735 2628644.11  106  446 -75089.427 4939913.25  6679%  4991 82811s
 22791 14732 3729962.99  109  505 -75089.427 4939913.25  6679%  4984 83004s
 22843 14748 3334761.95  111  432 -75089.427 4939913.25  6679%  4987 83257s
 22929 14796 3628515.84  115  425 -75089.427 4939913.25  6679%  4982 83524s
 23009 14843 3005264.22  116  414 -75089.427 4939913.25  6679%  4978 83762s
 23048 14871 3566490.84  120  424 -75089.427 4939913.25  6679%  4985 84083s
 23123 14915 3491059.06  123  429 -75089.427 4939913.25  6679%  4990 84432s
 23221 14974 3473546.13  127  419 -75089.427 4939913.25  6679%  4988 84810s
 23350 15041 3428483.35  132  430 -75089.427 4939913.25  6679%  4982 85134s
 23427 15066 3396637.29  137  458 -75089.427 4939913.25  6679%  4987 85432s
 23500 15116 3384461.39  142  427 -75089.427 4939913.25  6679%  4991 85778s
 23585 15171 3123350.90  148  368 -75089.427 4939913.25  6679%  4996 86130s
 23725 15263 3248250.54  153  512 -75089.427 4939913.25  6679%  4989 86400s

Cutting planes:
  Gomory: 167
  Implied bound: 36
  Projected implied bound: 71
  MIR: 130
  Flow cover: 756
  Zero half: 2

Explored 23859 nodes (119238767 simplex iterations) in 86400.11 seconds
Thread count was 4 (of 16 available processors)

Solution count 10: -75089.4 -75090.2 -75090.4 ... -266292

Time limit reached
Warning: max constraint violation (2.2750e-06) exceeds tolerance
Best objective -7.508942345590e+04, best bound 4.939913251892e+06, gap 6678.7071%

***
***  |- Calculation finished, timelimit reached 86,400.13 (86400.13) sec.))
***  |-----------------------------------------------------------------------------------------------------------------------
***
*****************************************************************************************************************************
#############################################################################################################################
###
### Results
###
### The objective of the solution is -75,089.4235 (-75089.4235) and is feasible with a Gap of 66.7871
###
### Service 42 (SAMBA) is operated by 7 vessels from type 18 (PMax25)
###  |- Vessel  1 has the path [143, 77, 78, 5, 0]
###  |  143 (USMSY Out@238.0) - 77 (ESALG In@607.0/Out@631.0) - 78 (ESALG In@613.0/Out@658.0) - 5 (ARBUE In@1088.0/Out@1112.0
###  |  ) - 0 (DUMMY_END Ziel-Service 42)
###  |   |- and carried Demand  98, 392.0 containers from  78 to   5
###  |   |- and carried Demand  99,  13.0 containers from  78 to   5
###  |   |- and carried Demand 490, 392.0 containers from  77 to   5
###  |   |- and carried Demand 491,  13.0 containers from  77 to   5
###  |   |- and carried Demand 494,  59.0 containers from  77 to   5
###  |   |- and carried Demand 495,   6.0 containers from  77 to   5
###  |   |- and carried Demand 496, 126.0 containers from  77 to   5
###  |- Vessel  2 has the path [144, 4, 0]
###  |  144 (USMSY Out@406.0) - 4 (ARBUE In@920.0/Out@944.0) - 0 (DUMMY_END Ziel-Service 42)
###  |- Vessel  3 has the path [145, 6, 0]
###  |  145 (USMSY Out@574.0) - 6 (ARBUE In@1256.0/Out@1280.0) - 0 (DUMMY_END Ziel-Service 42)
###  |- Vessel  4 has the path [146, 83, 85, 86, 87, 88, 52, 33, 12, 0]
###  |  146 (USMSY Out@742.0) - 83 (ESALG In@1111.0/Out@1135.0) - 85 (ESALG In@1213.0/Out@1243.0) - 86 (ESALG In@1279.0/Out@1
###  |  303.0) - 87 (ESALG In@1381.0/Out@1411.0) - 88 (ESALG In@1447.0/Out@1471.0) - 52 (BRSSZ In@1794.0/Out@1812.0) - 33 (BR
###  |  PNG In@1842.0/Out@1863.0) - 12 (ARBUE In@1928.0/Out@1952.0) - 0 (DUMMY_END Ziel-Service 42)
###  |   |- and carried Demand  15,  14.0 containers from  85 to  52
###  |   |- and carried Demand  17,  25.0 containers from  85 to  12
###  |   |- and carried Demand  24,  16.0 containers from  85 to  12
###  |   |- and carried Demand  26, 125.0 containers from  87 to  52
###  |   |- and carried Demand  27,  10.0 containers from  87 to  52
###  |   |- and carried Demand  28,   4.0 containers from  87 to  33
###  |   |- and carried Demand  30, 224.0 containers from  87 to  12
###  |   |- and carried Demand  31,  58.0 containers from  87 to  12
###  |   |- and carried Demand  32,   5.0 containers from  87 to  12
###  |   |- and carried Demand  33, 159.0 containers from  87 to  12
###  |   |- and carried Demand 172, 166.0 containers from  33 to  12
###  |   |- and carried Demand 173, 125.0 containers from  88 to  52
###  |   |- and carried Demand 174,  10.0 containers from  88 to  52
###  |   |- and carried Demand 175,   4.0 containers from  88 to  33
###  |   |- and carried Demand 177, 224.0 containers from  88 to  12
###  |   |- and carried Demand 178,  58.0 containers from  88 to  12
###  |   |- and carried Demand 179,   5.0 containers from  88 to  12
###  |   |- and carried Demand 180, 159.0 containers from  88 to  12
###  |   |- and carried Demand 244,  14.0 containers from  86 to  52
###  |   |- and carried Demand 246,  25.0 containers from  86 to  12
###  |   |- and carried Demand 253,  16.0 containers from  86 to  12
###  |   |- and carried Demand 322, 200.0 containers from  83 to  12
###  |- Vessel  5 has the path [147, 9, 0]
###  |  147 (USMSY Out@910.0) - 9 (ARBUE In@1592.0/Out@1616.0) - 0 (DUMMY_END Ziel-Service 42)
###  |- Vessel  6 has the path [148, 10, 0]
###  |  148 (USMSY Out@1078.0) - 10 (ARBUE In@1760.0/Out@1784.0) - 0 (DUMMY_END Ziel-Service 42)
###  |- Vessel  8 has the path [72, 121, 66, 79, 80, 81, 47, 30, 8, 0]
###  |  72 (DEHAM Out@276.0) - 121 (NLRTM In@578.0/Out@594.0) - 66 (DEBRV In@665.0/Out@689.0) - 79 (ESALG In@775.0/Out@799.0)
###  |   - 80 (ESALG In@829.0/Out@853.0) - 81 (ESALG In@943.0/Out@967.0) - 47 (BRSSZ In@1290.0/Out@1308.0) - 30 (BRPNG In@133
###  |  8.0/Out@1359.0) - 8 (ARBUE In@1424.0/Out@1448.0) - 0 (DUMMY_END Ziel-Service 42)
###  |   |- and carried Demand 151, 111.0 containers from  80 to  47
###  |   |- and carried Demand 152,  13.0 containers from  80 to  47
###  |   |- and carried Demand 153,  41.0 containers from  80 to  30
###  |   |- and carried Demand 154, 279.0 containers from  80 to   8
###  |   |- and carried Demand 155,  12.0 containers from  80 to   8
###  |   |- and carried Demand 159, 194.0 containers from  80 to   8
###  |   |- and carried Demand 160,   2.0 containers from  80 to   8
###  |   |- and carried Demand 377, 111.0 containers from  81 to  47
###  |   |- and carried Demand 378,  13.0 containers from  81 to  47
###  |   |- and carried Demand 379,  41.0 containers from  81 to  30
###  |   |- and carried Demand 380, 279.0 containers from  81 to   8
###  |   |- and carried Demand 381,  12.0 containers from  81 to   8
###  |   |- and carried Demand 385, 194.0 containers from  81 to   8
###  |   |- and carried Demand 386,   2.0 containers from  81 to   8
###  |   |- and carried Demand 431,  14.0 containers from  79 to  47
###  |   |- and carried Demand 434, 239.0 containers from  79 to   8
###  |   |- and carried Demand 445, 325.0 containers from  66 to  79
###  |   |- and carried Demand 446, 406.0 containers from  66 to  47
###  |   |- and carried Demand 449,  18.0 containers from  66 to   8
###  |   |- and carried Demand 453, 299.0 containers from 121 to  47
###  |   |- and carried Demand 454,  31.0 containers from 121 to  47
###  |   |- and carried Demand 456,   1.0 containers from 121 to   8
###  |   |- and carried Demand 464,   2.0 containers from 121 to  79
###  |
### Vessels not used in the solution: [7, 9, 10, 11, 12]
###  |-----------------------------------------------------------------------------------------------------------------------
###
#############################################################################################################################

### Detialed variable overview

### All variables with value greater zero:
rho[42,18] = 1
eta[42,18,1] = 1
eta[42,18,2] = 1
eta[42,18,3] = 1
eta[42,18,4] = 1
eta[42,18,5] = 1
eta[42,18,6] = 1
eta[42,18,7] = 1
y[1,77,78] = 1
y[1,5,0] = 1
y[1,143,77] = 1
y[1,78,5] = 1
y[2,4,0] = 1
y[2,144,4] = 1
y[3,6,0] = 1
y[3,145,6] = 1
y[4,88,52] = 0.999999
y[4,52,33] = 0.999999
y[4,33,12] = 0.999999
y[4,85,86] = 0.999999
y[4,86,87] = 0.999999
y[4,12,0] = 0.999999
y[4,83,85] = 1
y[4,87,88] = 0.999999
y[4,146,83] = 1
y[5,9,0] = 1
y[5,147,9] = 1
y[6,148,10] = 1
y[6,10,0] = 1
y[8,72,121] = 1
y[8,80,81] = 1
y[8,66,79] = 1
y[8,81,47] = 1
y[8,8,0] = 1
y[8,121,66] = 1
y[8,79,80] = 1
y[8,47,30] = 1
y[8,30,8] = 1
xD[15,88,52] = 14
xD[15,85,86] = 14
xD[15,86,87] = 14
xD[15,87,88] = 14
xD[17,88,52] = 25
xD[17,52,33] = 25
xD[17,33,12] = 25
xD[17,85,86] = 25
xD[17,86,87] = 25
xD[17,87,88] = 25
xD[24,88,52] = 16
xD[24,52,33] = 16
xD[24,33,12] = 16
xD[24,85,86] = 16
xD[24,86,87] = 16
xD[24,87,88] = 16
xD[26,88,52] = 125
xD[26,87,88] = 125
xD[27,88,52] = 10
xD[27,87,88] = 10
xD[28,88,52] = 4
xD[28,52,33] = 4
xD[28,87,88] = 4
xD[30,88,52] = 224
xD[30,52,33] = 224
xD[30,33,12] = 224
xD[30,87,88] = 224
xD[31,88,52] = 58
xD[31,52,33] = 58
xD[31,33,12] = 58
xD[31,87,88] = 58
xD[32,88,52] = 5
xD[32,52,33] = 5
xD[32,33,12] = 5
xD[32,87,88] = 5
xD[33,88,52] = 159
xD[33,52,33] = 159
xD[33,33,12] = 159
xD[33,87,88] = 159
xD[98,78,5] = 392
xD[99,78,5] = 13
xD[151,80,81] = 111
xD[151,81,47] = 111
xD[152,80,81] = 13
xD[152,81,47] = 13
xD[153,80,81] = 41
xD[153,81,47] = 41
xD[153,47,30] = 41
xD[154,80,81] = 279
xD[154,81,47] = 279
xD[154,47,30] = 279
xD[154,30,8] = 279
xD[155,80,81] = 12
xD[155,81,47] = 12
xD[155,47,30] = 12
xD[155,30,8] = 12
xD[159,80,81] = 194
xD[159,81,47] = 194
xD[159,47,30] = 194
xD[159,30,8] = 194
xD[160,80,81] = 2
xD[160,81,47] = 2
xD[160,47,30] = 2
xD[160,30,8] = 2
xD[172,33,12] = 166
xD[173,88,52] = 125
xD[174,88,52] = 10
xD[175,88,52] = 4
xD[175,52,33] = 4
xD[177,88,52] = 224
xD[177,52,33] = 224
xD[177,33,12] = 224
xD[178,88,52] = 57.9985
xD[178,52,33] = 57.9985
xD[178,33,12] = 57.9985
xD[179,88,52] = 5
xD[179,52,33] = 5
xD[179,33,12] = 5
xD[180,88,52] = 159
xD[180,52,33] = 159
xD[180,33,12] = 159
xD[244,88,52] = 14
xD[244,86,87] = 14
xD[244,87,88] = 14
xD[246,88,52] = 25
xD[246,52,33] = 25
xD[246,33,12] = 25
xD[246,86,87] = 25
xD[246,87,88] = 25
xD[253,88,52] = 16
xD[253,52,33] = 16
xD[253,33,12] = 16
xD[253,86,87] = 16
xD[253,87,88] = 16
xD[322,88,52] = 200
xD[322,52,33] = 200
xD[322,33,12] = 200
xD[322,85,86] = 200
xD[322,86,87] = 200
xD[322,83,85] = 200
xD[322,87,88] = 200
xD[377,81,47] = 111
xD[378,81,47] = 13
xD[379,81,47] = 41
xD[379,47,30] = 41
xD[380,81,47] = 279
xD[380,47,30] = 279
xD[380,30,8] = 279
xD[381,81,47] = 12
xD[381,47,30] = 12
xD[381,30,8] = 12
xD[385,81,47] = 194
xD[385,47,30] = 194
xD[385,30,8] = 194
xD[386,81,47] = 2
xD[386,47,30] = 2
xD[386,30,8] = 2
xD[431,80,81] = 14
xD[431,81,47] = 14
xD[431,79,80] = 14
xD[434,80,81] = 239
xD[434,81,47] = 239
xD[434,79,80] = 239
xD[434,47,30] = 239
xD[434,30,8] = 239
xD[445,66,79] = 325
xD[446,80,81] = 406
xD[446,66,79] = 406
xD[446,81,47] = 406
xD[446,79,80] = 406
xD[449,80,81] = 18
xD[449,66,79] = 18
xD[449,81,47] = 18
xD[449,79,80] = 18
xD[449,47,30] = 18
xD[449,30,8] = 18
xD[453,80,81] = 299
xD[453,66,79] = 299
xD[453,81,47] = 299
xD[453,121,66] = 299
xD[453,79,80] = 299
xD[454,80,81] = 31
xD[454,66,79] = 31
xD[454,81,47] = 31
xD[454,121,66] = 31
xD[454,79,80] = 31
xD[456,80,81] = 1
xD[456,66,79] = 1
xD[456,81,47] = 1
xD[456,121,66] = 1
xD[456,79,80] = 1
xD[456,47,30] = 1
xD[456,30,8] = 1
xD[464,66,79] = 2
xD[464,121,66] = 2
xD[490,77,78] = 392
xD[490,78,5] = 392
xD[491,77,78] = 13
xD[491,78,5] = 13
xD[494,77,78] = 59
xD[494,78,5] = 59
xD[495,77,78] = 6
xD[495,78,5] = 6
xD[496,77,78] = 126
xD[496,78,5] = 126
zE[4] = 920
zE[5] = 1088
zE[6] = 1256
zE[8] = 1424
zE[9] = 1592
zE[10] = 1760
zE[12] = 1928
zE[30] = 1338
zE[33] = 1842
zE[47] = 1290
zE[52] = 1794
zE[66] = 665
zE[77] = 607
zE[78] = 613
zE[79] = 775
zE[80] = 829
zE[81] = 943
zE[83] = 1111
zE[85] = 1213
zE[86] = 1279
zE[87] = 1381
zE[88] = 1447
zE[121] = 578
zX[4] = 944
zX[5] = 1112
zX[6] = 1280
zX[8] = 1448
zX[9] = 1616
zX[10] = 1784
zX[12] = 1952
zX[30] = 1359
zX[33] = 1863
zX[47] = 1308
zX[52] = 1812
zX[66] = 689
zX[72] = 276
zX[77] = 631
zX[78] = 658
zX[79] = 799
zX[80] = 853
zX[81] = 967
zX[83] = 1135
zX[85] = 1243
zX[86] = 1303
zX[87] = 1411
zX[88] = 1471
zX[121] = 594
zX[143] = 238
zX[144] = 406
zX[145] = 574
zX[146] = 742
zX[147] = 910
zX[148] = 1078
phi[1] = 874
phi[2] = 538
phi[3] = 706
phi[4] = 1210
phi[5] = 706.001
phi[6] = 706
phi[8] = 1172

### All variables with value smaller zero:

### End

real	1441m9.663s
user	5414m0.378s
sys	324m13.831s
	Freetype 2.4.12 environment removed
	Python 3.6.0 environment removed
	Gurobi 8.1.0 environment removed
