	Freetype 2.4.12 environment established
		library to render fonts
	Python 3.6.0 environment established
	Gurobi 8.1.0 environment established
Instance LSFRP: LSFDRP_5_3_1_1_fr.p
Instance LSFDP: LSFDRP_5_3_1_1_fd_49.p

*****************************************************************************************************************************
*** Solve LSFDRP_5_3_1_1_fd_49 with Gurobi
***
*** Graph info
*** |S|: 12
*** |S^E|: 0
*** |S^C|: 4
*** |V|: 162
*** |A|: 2732
*** |A^i|: 2732
*** |A^f|: 0
*** |M|: 532
*** |E|: 0

Changed value of parameter TimeLimit to 86400.0
   Prev: 1e+100  Min: 0.0  Max: 1e+100  Default: 1e+100
Changed value of parameter Threads to 4
   Prev: 0  Min: 0  Max: 1024  Default: 0
Optimize a model with 94319 rows, 1492000 columns and 5261875 nonzeros
Variable types: 1459208 continuous, 32792 integer (32792 binary)
Coefficient statistics:
  Matrix range     [1e+00, 3e+03]
  Objective range  [2e+00, 4e+07]
  Bounds range     [1e+00, 1e+00]
  RHS range        [1e+00, 7e+00]
Presolve removed 84876 rows and 1436549 columns (presolve time = 5s) ...
Presolve removed 84889 rows and 1440714 columns (presolve time = 29s) ...
Presolve removed 84972 rows and 1440743 columns (presolve time = 30s) ...
Warning: Failed to open log file 'gurobi.log'
Presolve removed 84976 rows and 1440747 columns
Presolve time: 32.67s
Presolved: 9343 rows, 51253 columns, 285169 nonzeros
Variable types: 22752 continuous, 28501 integer (28486 binary)

Root simplex log...

Iteration    Objective       Primal Inf.    Dual Inf.      Time
       0    5.4601468e+09   1.336409e+06   0.000000e+00     34s
   16516    1.2828491e+08   1.049424e+06   0.000000e+00     35s
   32676    3.5636174e+07   3.580483e+06   0.000000e+00     40s
   44815    2.5661825e+07   8.651283e+05   0.000000e+00     45s
   53221    2.1087749e+07   1.122151e+06   0.000000e+00     50s
   61717    1.9027860e+07   4.828720e+06   0.000000e+00     55s
   68099    1.7331616e+07   7.333876e+05   0.000000e+00     60s
   74725    1.6453538e+07   2.074358e+06   0.000000e+00     65s
Warning: Markowitz tolerance tightened to 0.03125
   81750    1.4718230e+07   2.653409e+07   0.000000e+00     70s
   89770    1.3629504e+07   2.744243e+07   0.000000e+00     75s
   96271    1.2894091e+07   1.276455e+06   0.000000e+00     80s
  103309    1.2211988e+07   7.011721e+05   0.000000e+00     85s
  109578    1.0605758e+07   6.973102e+05   0.000000e+00     90s
  115065    9.7631961e+06   4.900610e+05   0.000000e+00     95s
  120632    9.1608418e+06   4.351828e+06   0.000000e+00    100s
  126161    8.5470390e+06   6.505537e+05   0.000000e+00    105s
  130949    8.0727447e+06   5.779255e+05   0.000000e+00    110s
  137340    7.4542867e+06   6.499259e+05   0.000000e+00    115s
  142373    7.0842956e+06   6.978075e+05   0.000000e+00    120s
  146916    6.8511473e+06   5.919393e+04   0.000000e+00    125s
  151720    6.7664229e+06   8.362195e+04   0.000000e+00    130s
  156490    6.6294791e+06   3.991740e+04   0.000000e+00    135s
  160460    6.5813148e+06   3.830427e+03   0.000000e+00    140s
  163500    6.5556268e+06   1.027948e+02   0.000000e+00    145s
  164976    6.5544460e+06   0.000000e+00   0.000000e+00    147s

Root relaxation: objective 6.554446e+06, 164976 iterations, 113.21 seconds

    Nodes    |    Current Node    |     Objective Bounds      |     Work
 Expl Unexpl |  Obj  Depth IntInf | Incumbent    BestBd   Gap | It/Node Time

     0     0 6554445.97    0  349          - 6554445.97      -     -  147s
H    0     0                    -4763062.469 6554445.97   238%     -  149s
H    0     0                    -3184243.739 6554445.97   306%     -  160s
     0     0 6352355.44    0  372 -3184243.7 6352355.44   299%     -  175s
     0     0 6339878.21    0  380 -3184243.7 6339878.21   299%     -  193s
     0     0 6331806.03    0  377 -3184243.7 6331806.03   299%     -  199s
     0     0 6331687.85    0  378 -3184243.7 6331687.85   299%     -  200s
     0     0 6315655.69    0  373 -3184243.7 6315655.69   298%     -  209s
     0     0 6313104.96    0  370 -3184243.7 6313104.96   298%     -  213s
     0     0 6311294.06    0  391 -3184243.7 6311294.06   298%     -  216s
     0     0 6300749.66    0  399 -3184243.7 6300749.66   298%     -  220s
     0     0 6299758.42    0  409 -3184243.7 6299758.42   298%     -  223s
     0     0 6299301.85    0  412 -3184243.7 6299301.85   298%     -  224s
     0     0 6299143.60    0  401 -3184243.7 6299143.60   298%     -  225s
     0     0 6299100.31    0  402 -3184243.7 6299100.31   298%     -  226s
     0     0 6287161.52    0  369 -3184243.7 6287161.52   297%     -  229s
     0     0 6286843.48    0  387 -3184243.7 6286843.48   297%     -  232s
     0     0 6286120.07    0  386 -3184243.7 6286120.07   297%     -  234s
     0     0 6286030.51    0  382 -3184243.7 6286030.51   297%     -  236s
     0     0 6286017.19    0  378 -3184243.7 6286017.19   297%     -  236s
     0     0 6284114.13    0  393 -3184243.7 6284114.13   297%     -  241s
H    0     0                    -2609492.308 6284114.13   341%     -  251s
     0     0 6283868.89    0  406 -2609492.3 6283868.89   341%     -  252s
     0     0 6282408.14    0  406 -2609492.3 6282408.14   341%     -  255s
     0     0 6281901.57    0  384 -2609492.3 6281901.57   341%     -  258s
     0     0 6281850.32    0  392 -2609492.3 6281850.32   341%     -  258s
     0     0 6279544.53    0  392 -2609492.3 6279544.53   341%     -  262s
     0     0 6279310.43    0  401 -2609492.3 6279310.43   341%     -  264s
     0     0 6279068.15    0  405 -2609492.3 6279068.15   341%     -  265s
     0     0 6278981.44    0  406 -2609492.3 6278981.44   341%     -  266s
     0     0 6278923.36    0  398 -2609492.3 6278923.36   341%     -  266s
     0     0 6278284.08    0  397 -2609492.3 6278284.08   341%     -  270s
     0     0 6278247.27    0  400 -2609492.3 6278247.27   341%     -  272s
     0     0 6277118.93    0  403 -2609492.3 6277118.93   341%     -  275s
     0     0 6276795.28    0  421 -2609492.3 6276795.28   341%     -  279s
     0     0 6276739.08    0  417 -2609492.3 6276739.08   341%     -  279s
     0     0 6276187.04    0  445 -2609492.3 6276187.04   341%     -  282s
     0     0 6276016.26    0  448 -2609492.3 6276016.26   341%     -  285s
     0     0 6276001.62    0  446 -2609492.3 6276001.62   341%     -  285s
     0     0 6275723.59    0  425 -2609492.3 6275723.59   340%     -  287s
     0     0 6275703.50    0  424 -2609492.3 6275703.50   340%     -  289s
     0     0 6275061.69    0  419 -2609492.3 6275061.69   340%     -  292s
     0     0 6275061.69    0  418 -2609492.3 6275061.69   340%     -  333s
H    0     0                    -2399047.335 6275061.69   362%     -  390s
H    0     2                    -2399047.335 6275061.69   362%     -  396s
     0     2 6275061.69    0  418 -2399047.3 6275061.69   362%     -  396s
     1     4 6231126.49    1  426 -2399047.3 6275061.69   362%  6810  458s
     3     8 6226968.66    2  430 -2399047.3 6230849.10   360%  9355  527s
     7    12 6203187.32    3  423 -2399047.3 6226780.58   360% 13040  567s
    11    16 6110875.19    3  399 -2399047.3 6203131.57   359% 12631  620s
    15    20 6195226.13    4  417 -2399047.3 6202773.04   359% 13026  636s
    19    20 6188662.84    5  412 -2399047.3 6202773.04   359% 11035  709s
    23    25 6175302.36    6  397 -2399047.3 6202773.04   359% 12688  721s
H   27    27                    -1940355.692 6202773.04   420% 11514  757s
    31    28 6137188.80    8  408 -1940355.7 6202773.04   420% 11036  770s
    39    40 6104617.75   10  404 -1940355.7 6202773.04   420%  9310  785s
    43    45 6082050.12   11  411 -1940355.7 6202773.04   420%  8945  834s
    48    53 5865968.71   11  390 -1940355.7 6202773.04   420%  9398  869s
    53    53 6063700.21   12  402 -1940355.7 6202773.04   420%  9396  890s
H   58    60                    -1728323.791 6202773.04   459%  9087  934s
H   62    63                    -1669085.145 6202773.04   472%  8706  934s
    64    63 6023693.88   13  417 -1669085.1 6202773.04   472%  8698  961s
    70    69 5964110.38   15  432 -1669085.1 6202773.04   472%  8535  989s
    76    80 5836657.16   15  397 -1669085.1 6202773.04   472%  8672 1035s
    80    82 5952596.14   16  461 -1669085.1 6202773.04   472%  8805 1055s
    85    85 5944249.63   18  442 -1669085.1 6202773.04   472%  8640 1090s
    92    93 5874657.97   19  430 -1669085.1 6202773.04   472%  8744 1137s
H   95    97                    -1661331.713 6202773.04   473%  8545 1137s
    96    98 5867344.20   20  434 -1661331.7 6202773.04   473%  8583 1336s
   102   102 5835439.66   22  446 -1661331.7 6202773.04   473% 10126 1421s
H  112   106                    -1331313.059 6202773.04   566% 10109 1421s
   116   114 5832207.57   23  435 -1331313.1 6202773.04   566% 10217 1462s
H  127   129                    -1286445.677 6202773.04   582%  9897 1524s
   138   139 5794880.80   27  423 -1286445.7 6202773.04   582%  9615 1574s
   154   156 5217356.98   32  379 -1286445.7 6202773.04   582%  9329 1632s
H  163   163                    -1208092.519 6202773.04   613%  9257 1681s
H  169   169                    -1125470.900 6202773.04   651%  9123 1681s
   174   174 5602362.67   37  431 -1125470.9 6202773.04   651%  9054 1749s
   196   201 4858243.41   41  382 -1125470.9 6202773.04   651%  8694 1826s
H  198   201                    -1125470.899 6202773.04   651%  8624 1826s
H  200   202                    -1039521.785 6202773.04   697%  8754 1826s
   207   208 4701003.45   42  393 -1039521.8 6202773.04   697%  8771 1875s
   219   216 5457750.16   42  438 -1039521.8 6202773.04   697%  8654 1989s
   245   249 5394274.33   48  435 -1039521.8 6202773.04   697%  8259 2049s
   257   255 5199466.24   50  422 -1039521.8 6202773.04   697%  8284 2126s
H  263   258                    -1039521.783 6202773.04   697%  8200 2126s
H  269   265                    -468464.5180 6202773.04  1424%  8148 2126s
   277   279 5240521.86   52  412 -468464.52 6202773.04  1424%  8024 2290s
   294   296 4935165.85   57  430 -468464.52 6202773.04  1424%  8080 2351s
   309   310 5066744.25   58  379 -468464.52 6202773.04  1424%  7993 2434s
H  321   325                    -468464.5174 6202773.04  1424%  7842 2434s
   327   325 4994163.95   66  371 -468464.52 6202773.04  1424%  7945 2498s
H  363   369                    -468464.5171 6202773.04  1424%  7462 2590s
   384   383 4684670.08   80  389 -468464.52 6202773.04  1424%  7454 2659s
   416   416 4677595.61   81  392 -468464.52 6202773.04  1424%  7160 2729s
   470   469 4562308.91   85  353 -468464.52 6202773.04  1424%  6598 2793s
H  497   487                    -468464.5167 6202773.04  1424%  6293 2793s
   523   527 4554072.35   86  352 -468464.52 6202773.04  1424%  6029 2876s
   582   581 4453935.56  102  375 -468464.52 6202773.04  1424%  5678 2973s
   673   674 4119786.90  117  352 -468464.52 6202773.04  1424%  5200 3041s
   768   770 4047312.73  118  353 -468464.52 6202773.04  1424%  4724 3100s
   873   871 3880643.31  124  372 -468464.52 6202773.04  1424%  4297 3157s
   928   924 3755631.45  130  377 -468464.52 6202773.04  1424%  4177 3230s
H  974   958                    -468464.4604 6202773.04  1424%  4096 3230s
   979   959 3673098.44  131  320 -468464.46 6202773.04  1424%  4130 3312s
  1071  1045 3429711.25  138  332 -468464.46 6202773.04  1424%  3943 3451s
  1143  1105 3234485.60  147  305 -468464.46 6188657.86  1421%  3857 3515s
H 1174  1138                    -468464.4486 6188657.86  1421%  3846 3515s
  1232  1195 3042388.08  165  291 -468464.45 6188657.86  1421%  3672 3593s
  1318  1249 2952692.54  173  291 -468464.45 6188657.86  1421%  3535 3681s
H 1346  1277                    -468464.4427 6188657.86  1421%  3504 3681s
  1383  1293 2592483.07  199  277 -468464.44 6188657.86  1421%  3495 3771s
  1408  1314 2166227.57  213  236 -468464.44 6188657.86  1421%  3564 3878s
  1476  1380 1541506.74  264  151 -468464.44 6174915.40  1418%  3544 3968s
H 1549  1418                    -67228.43124 6174915.40  9285%  3442 3968s
  1566  1428 37785.8402  312  418 -67228.431 6174915.40  9285%  3466 4181s
H 1567  1357                    8010.5673778 6174915.40      -  3464 4305s
H 1568  1289                    15135.567221 6174915.40      -  3462 4331s
H 1568  1225                    15135.567622 6174915.40      -  3462 4344s
  1570  1227 4925073.47   27  419 15135.5676 6174915.40      -  3457 4362s
  1571  1227 5334736.38    6  349 15135.5676 6171493.38      -  3455 4389s
  1572  1228 15135.5676  409  393 15135.5676 6166251.66      -  3453 4396s
  1573  1229 4224159.54   23  412 15135.5676 6157268.31      -  3451 4402s
  1574  1229 2799059.24  193  412 15135.5676 6153550.75      -  3449 4405s
  1577  1231 4949407.88   17  410 15135.5676 6149585.09      -  3442 4428s
  1578  1232 3395503.10   42  425 15135.5676 6149106.73      -  3440 4431s
H 1578  1170                    15135.568313 6051432.18      -  3440 4473s
  1580  1171 2728572.07  108  428 15135.5683 6022264.14      -  3436 4482s
  1581  1172 4978948.83   13  431 15135.5683 6016838.36      -  3433 4489s
  1582  1173 4046934.41  123  462 15135.5683 6012485.07      -  3431 4495s
  1584  1174 20959.4054  251  471 15135.5683 6009374.53      -  3427 4502s
  1585  1175 3137555.78  169  478 15135.5683 5990837.84      -  3425 4532s
  1586  1175 4068969.61   54  519 15135.5683 5974375.49      -  3423 4544s
  1587  1176 5078401.45   10  533 15135.5683 5961192.90      -  3420 4551s
  1589  1177 3011432.42   83  527 15135.5683 5956997.62      -  3416 4556s
  1591  1179 4512375.27   96  537 15135.5683 5952209.23      -  3412 4563s
  1592  1179 3202067.21  153  531 15135.5683 5951159.55      -  3410 4565s
  1594  1181 3986160.94   68  541 15135.5683 5939653.65      -  3405 4583s
  1595  1181 5932667.31   10  575 15135.5683 5932667.31      -  3403 4590s
  1596  1182 5199443.77   51  551 15135.5683 5895486.17      -  3401 4603s
  1597  1183 3915095.45   86  570 15135.5683 5888181.87      -  3399 4612s
  1598  1183 2818356.11  242  569 15135.5683 5886319.19      -  3397 4616s
  1599  1184 1936636.22  221  574 15135.5683 5883250.95      -  3395 4624s
  1600  1185 3521613.28   82  571 15135.5683 5881877.25      -  3393 4627s
  1602  1186 5294794.33   11  555 15135.5683 5880104.14      -  3388 4632s
  1603  1187 601245.946  215  569 15135.5683 5879785.89      -  3386 4635s
  1604  1187 3030914.80  169  544 15135.5683 5869074.20      -  3384 4650s
  1605  1188 1429368.49  268  534 15135.5683 5858867.20      -  3382 4657s
  1606  1189 1196391.69  232  567 15135.5683 5853586.30      -  3380 4662s
  1607  1189 4674889.37   38  570 15135.5683 5850105.08      -  3378 4668s
  1608  1190 4795712.49   32  585 15135.5683 5847731.73      -  3376 4673s
  1609  1191 2445158.49  143  575 15135.5683 5846191.27      -  3374 4676s
  1611  1192 747062.516  292  595 15135.5683 5843668.80      -  3369 4681s
  1613  1193 2919146.11  216  529 15135.5683 5835613.46      -  3365 4709s
  1614  1194 2969174.80  151  547 15135.5683 5833627.90      -  3363 4714s
  1615  1195 2925585.37  215  547 15135.5683 5832066.30      -  3361 4717s
  1616  1195 1035772.78  176  560 15135.5683 5831687.67      -  3359 4720s
  1617  1196 2635683.37  156  569 15135.5683 5822237.72      -  3357 4736s
  1618  1197 2779087.00  103  551 15135.5683 5817544.43      -  3355 4741s
  1619  1197 4011416.88   60  590 15135.5683 5814901.90      -  3353 4745s
  1622  1199 3206488.94   72  578 15135.5683 5812575.89      -  3347 4752s
  1623  1200 391668.393  376  604 15135.5683 5810198.89      -  3345 4782s
  1625  1201 4946460.35   14  579 15135.5683 5808562.39      -  3340 4787s
  1627  1203 4376203.85   47  588 15135.5683 5807286.41      -  3336 4792s
  1628  1203 3863103.76  109  589 15135.5683 5807158.09      -  3334 4795s
  1629  1204 4489644.33   98  593 15135.5683 5805873.73      -  3332 4807s
  1630  1205 3164556.33  171  608 15135.5683 5804145.80      -  3330 4812s
  1631  1205 3649536.57   97  616 15135.5683 5803441.03      -  3328 4815s
  1633  1207 3159400.20   64  588 15135.5683 5801983.28      -  3324 4869s
  1634  1207 977836.923  292  586 15135.5683 5801983.28      -  3322 4872s
  1635  1208 1839175.84  211  586 15135.5683 5801983.28      -  3320 4987s
  1636  1212 5801880.56   16  578 15135.5683 5801880.56      -  3537 5121s
  1638  1215 5778976.39   17  581 15135.5683 5789312.20      -  3541 5285s
  1642  1218 5776628.92   18  600 15135.5683 5776628.92      -  3556 5437s
  1646  1220 4646769.17   18  519 15135.5683 5776628.92      -  3590 5548s
  1650  1223 5776548.83   19  603 15135.5683 5776548.83      -  3608 5564s
  1654  1226 4701135.04   19  428 15135.5683 5776548.83      -  3640 5699s
  1658  1230 5775828.34   20  604 15135.5683 5775828.34      -  3690 5744s
  1663  1229 5411211.43   20  419 15135.5683 5775568.33      -  3702 5745s
  1664  1228 5732339.12   21  581 15135.5683 5775137.96      -  3704 5828s
  1668  1231 4819991.69   21  475 15135.5683 5765469.55      -  3743 5889s
  1672  1233 5722864.57   22  577 15135.5683 5765469.55      -  3758 5999s
  1679  1239 5710868.92   23  527 15135.5683 5765469.55      -  3800 6090s
  1687  1243 5460051.90   24  556 15135.5683 5765469.55      -  3860 6145s
  1694  1248 5615462.72   24  519 15135.5683 5765469.55      -  3882 6199s
  1702  1253 5582697.14   25  510 15135.5683 5765469.55      -  3898 6257s
  1711  1262 5602014.28   25  511 15135.5683 5765469.55      -  3916 6359s
  1720  1264 5595698.69   27  503 15135.5683 5765469.55      -  3966 6418s
  1728  1273 5592918.69   28  506 15135.5683 5765469.55      -  3996 6505s
H 1730  1212                    15135.568510 5765469.55      -  4012 6505s
H 1732  1156                    15135.571440 5765469.55      -  4035 6505s
  1735  1157 5578622.62   29  499 15135.5714 5765469.55      -  4055 6586s
  1743  1159 5539046.17   30  489 15135.5714 5765469.55      -  4115 6644s
  1755  1170 5442419.48   31  529 15135.5714 5765469.55      -  4138 6753s
  1762  1173 5432324.09   32  520 15135.5714 5765469.55      -  4197 6833s
  1769  1179 5426071.62   33  538 15135.5714 5765469.55      -  4206 6964s
  1780  1186 5424434.60   35  521 15135.5714 5765469.55      -  4287 7051s
  1788  1190 5415568.45   36  527 15135.5714 5765469.55      -  4356 7185s
  1800  1201 5411925.56   37  529 15135.5714 5765469.55      -  4434 7407s
  1807  1202 5403649.47   38  523 15135.5714 5765469.55      -  4523 7503s
  1820  1214 5396442.15   39  495 15135.5714 5765469.55      -  4601 7606s
  1833  1220 5283067.84   41  474 15135.5714 5765469.55      -  4655 7716s
  1843  1229 4196627.23   42  432 15135.5714 5765469.55      -  4699 7829s
  1856  1235 5132350.45   44  529 15135.5714 5765469.55      -  4760 7934s
  1873  1249 5110739.89   46  518 15135.5714 5765469.55      -  4812 8032s
  1882  1253 5086489.99   47  495 15135.5714 5765469.55      -  4860 8161s
  1899  1262 5080948.40   49  483 15135.5714 5765469.55      -  4932 8308s
  1922  1281 5002463.91   51  509 15135.5714 5765469.55      -  4982 8487s
  1937  1285 4971448.88   53  482 15135.5714 5765469.55      -  5082 8737s
  1957  1302 4956385.95   55  487 15135.5714 5765469.55      -  5174 8904s
  1979  1322 3013550.40   57  422 15135.5714 5765469.55      -  5285 9081s
H 1993  1270                    15135.572114 5765469.55      -  5338 9081s
  2001  1271 4847460.28   59  405 15135.5721 5765469.55      -  5353 9309s
  2026  1294 4803293.81   61  468 15135.5721 5765469.55      -  5448 9468s
  2057  1315 4498273.54   62  471 15135.5721 5765469.55      -  5521 9697s
  2085  1325 4626714.79   64  498 15135.5721 5765469.55      -  5620 9966s
  2115  1358 4587457.42   66  470 15135.5721 5765469.55      -  5717 10178s
  2148  1365 4576036.07   68  461 15135.5721 5765469.55      -  5796 10456s
  2191  1384 4540606.96   70  490 15135.5721 5765469.55      -  5921 10756s
  2225  1399 4510927.05   73  493 15135.5721 5765469.55      -  6000 10952s
  2252  1410 4495127.95   75  500 15135.5721 5765469.55      -  6108 11167s
  2298  1443 4460320.00   77  519 15135.5721 5765469.55      -  6160 11395s
H 2314  1398                    15556.996826 5765469.55      -  6251 11395s
H 2348  1369                    15556.997882 5765469.55      -  6171 11637s
H 2363  1329                    15557.039718 5765469.55      -  6223 11637s
  2405  1351 4441100.79   81  507 15557.0397 5765469.55      -  6178 11889s
  2437  1364 4432147.76   84  482 15557.0397 5765469.55      -  6227 12107s
  2475  1390 4341169.62   86  423 15557.0397 5765469.55      -  6338 12307s
  2513  1414 4306297.52   89  449 15557.0397 5765469.55      -  6451 12627s
  2557  1436 4126059.83   93  439 15557.0397 5765469.55      -  6561 12945s
  2611  1472 3619571.01   97  405 15557.0397 5765469.55      -  6642 13277s
  2675  1502 3753804.51  103  396 15557.0397 5765469.55      -  6716 13634s
  2780  1568 3576104.27  108  376 15557.0397 5765469.55      -  6710 13951s
  2897  1632 3491025.48  114  369 15557.0397 5765469.55      -  6675 14272s
H 3009  1588                    115644.61732 5765469.55  4886%  6670 14272s
H 3012  1600                    115644.61745 5765469.55  4886%  6665 14618s
H 3020  1565                    115644.62048 5765469.55  4886%  6706 14619s
  3137  1608 3417719.94  124  386 115644.620 5765469.55  4886%  6657 14951s
  3270  1628 3379127.40  129  335 115644.620 5765469.55  4886%  6611 15193s
  3342  1666 3326962.06  134  348 115644.620 5765469.55  4886%  6679 15442s
  3461  1736 3300713.88  141  347 115644.620 5765469.55  4886%  6675 15705s
  3623  1829 3201214.55  149  320 115644.620 5765469.55  4886%  6590 16000s
  3726  1882 3100080.03  159  280 115644.620 5765469.55  4886%  6639 16378s
  3881  1952 2976432.60  171  277 115644.620 5765469.55  4886%  6617 16843s
  4111  2127 2888302.22  184  302 115644.620 5765469.55  4886%  6496 17272s
  4290  2206 2816831.59  198  280 115644.620 5765469.55  4886%  6485 17809s
  4502  2348 2523626.41  210  266 115644.620 5684193.63  4815%  6392 18277s
  4691  2440 5543786.81   23  529 115644.620 5684193.63  4815%  6347 18745s
  4832  2578 4826541.92   36  491 115644.620 5684193.63  4815%  6329 19287s
H 4934  2678                    115644.62081 5684193.63  4815%  6288 19287s
  5135  2857 4357313.25   61  446 115644.621 5684193.63  4815%  6142 19753s
  5396  3060 3334659.17  118  378 115644.621 5684193.63  4815%  6016 20293s
  5657  3314 1081340.38  273  199 115644.621 5605561.77  4747%  5912 20985s
  5940  3571 5093113.40   34  388 115644.621 5593494.29  4737%  5801 21430s
  6079  3703 3951830.50   81  312 115644.621 5593458.81  4737%  5840 21891s
H 6282  3896                    115644.62335 5593458.81  4737%  5698 21891s
  6487  4086 4587295.80   24  406 115644.623 5593458.81  4737%  5661 22389s
  6953  4427 3238299.69   70  375 115644.623 5582697.14  4727%  5487 22919s
  7242  4675 4977934.94   38  409 115644.623 5562554.86  4710%  5419 23652s
  7419  4835 2634436.13   91  325 115644.623 5558516.25  4707%  5429 24435s
  7705  5103 3015550.27   30  402 115644.623 5543560.37  4694%  5384 25148s
  8152  5524 5232126.78   26  469 115644.623 5543560.37  4694%  5242 25928s
  8463  5749 4690977.26   38  446 115644.623 5543560.37  4694%  5225 26665s
  8692  5939 3590638.76   51  219 115644.623 5526312.90  4679%  5226 27538s
  9144  6310 3693761.86   37  375 115644.623 5500953.30  4657%  5131 28296s
  9379  6523 4869389.12   37  430 115644.623 5500953.30  4657%  5140 29015s
  9717  6814 3968101.56   58  294 115644.623 5484762.29  4643%  5104 29696s
 10074  7145 5173196.73   34  513 115644.623 5470083.49  4630%  5101 30367s
 10517  7513 2821585.62   24  322 115644.623 5464460.58  4625%  5046 31285s
 10862  7799 5210067.07   34  520 115644.623 5459379.45  4621%  5043 32185s
 11095  8002 4007718.68   69  470 115644.623 5457021.11  4619%  5087 33131s
 11408  8261 3850479.77   32  412 115644.623 5450893.91  4613%  5096 33930s
 11852  8639 3880939.01   32  337 115644.623 5440285.80  4604%  5091 34733s
 12226  8943 3309910.34   43  317 115644.623 5435459.29  4600%  5081 35687s
 12601  9276 4048732.85   58  420 115644.623 5433982.23  4599%  5081 36524s
 13143  9753 4941170.91   32  480 115644.623 5432659.96  4598%  5030 37217s
 13393  9960 1504528.78  118  336 115644.623 5432541.43  4598%  5080 38060s
 13776 10231 4382754.85   41  428 115644.623 5416890.57  4584%  5089 38987s
 14159 10562 4211686.01   51  370 115644.623 5411335.51  4579%  5093 39886s
 14782 11102 4055260.65   46  433 115644.623 5410872.16  4579%  5013 40829s
 15219 11476 4610797.16   37  451 115644.623 5405528.58  4574%  5010 41669s
 15701 11891 3429987.37   40  345 115644.623 5401562.50  4571%  5003 42461s
 16170 12223 5236360.82   26  446 115644.623 5396905.31  4567%  4981 43162s
 16554 12570 1304329.32  121  297 115644.623 5387418.01  4559%  4987 43900s
 16954 12902 4122554.31   61  407 115644.623 5383889.65  4556%  4976 44772s
 17291 13203 4587165.30   41  439 115644.623 5383330.50  4555%  4989 45706s
 17588 13435 4331147.45   36  495 115644.623 5375889.53  4549%  5008 46361s
 18006 13820 3467572.29   60  405 115644.623 5375708.05  4548%  4998 47210s
 18358 14118 2410594.13   40  284 115644.623 5365201.90  4539%  5006 48121s
 18799 14453 3893537.43   35  329 115644.623 5351721.40  4528%  4992 49031s
 19130 14700 3179231.27   71  397 115644.623 5347086.97  4524%  5016 49750s
 19397 14942 417286.285  171  236 115644.623 5342572.82  4520%  5008 50566s
 19682 15171 3580977.75   64  420 115644.623 5341218.73  4519%  5029 51246s
 20240 15644 4264234.12   31  261 115644.623 5339293.56  4517%  5003 52456s
 20554 15929 4829944.78   27  435 115644.623 5338408.68  4516%  5028 53492s
 20825 16181 3695675.69   35  418 115644.623 5338408.68  4516%  5057 59065s
 20827 16182 756309.437  168  339 115644.623 5338408.68  4516%  5056 59130s
 20828 16183 445576.025  190  349 115644.623 5338408.68  4516%  5056 59158s
 20829 16184 650277.003  257  418 115644.623 5338408.68  4516%  5056 59173s
 20830 16184 2253179.01   79  426 115644.623 5338408.68  4516%  5055 59189s
 20831 16185 2171149.58   51  450 115644.623 5338408.68  4516%  5055 59201s
 20832 16186 1951229.21   73  469 115644.623 5338408.68  4516%  5055 59208s
 20833 16186 1538721.90  127  476 115644.623 5338408.68  4516%  5055 59217s
 20834 16187 2430925.63   99  482 115644.623 5338408.68  4516%  5054 59228s
 20835 16188 4021011.36   26  497 115644.623 5338408.68  4516%  5054 59234s
 20836 16188 3394699.17   60  515 115644.623 5338408.68  4516%  5054 59236s
 20837 16189 4313072.53   56  521 115644.623 5338408.68  4516%  5054 59241s
 20839 16190 1003615.53  277  536 115644.623 5338408.68  4516%  5053 59247s
 20840 16191 4786225.25   46  525 115644.623 5338408.68  4516%  5053 59252s
 20842 16192 3378344.29   99  503 115644.623 5338408.68  4516%  5052 59255s
 20844 16194 2594723.39  196  526 115644.623 5338408.68  4516%  5052 59261s
 20846 16195 3485091.15   46  533 115644.623 5338408.68  4516%  5052 59266s
 20850 16198 1354587.88   48  564 115644.623 5338408.68  4516%  5051 59271s
 20852 16199 3607907.57   59  501 115644.623 5338408.68  4516%  5050 59275s
 20853 16200 1511130.04  139  559 115644.623 5338408.68  4516%  5050 59392s
 20854 16200 1476445.11   77  549 115644.623 5338408.68  4516%  5050 59396s
 20855 16201 3716265.29  112  554 115644.623 5338408.68  4516%  5049 59401s
 20857 16202 2003721.01   81  570 115644.623 5338408.68  4516%  5049 59407s
 20859 16204 2393903.13   41  579 115644.623 5338408.68  4516%  5048 59410s
 20860 16204 2391850.38   43  578 115644.623 5338408.68  4516%  5048 59460s
 20861 16205 3610912.41   58  562 115644.623 5338408.68  4516%  5048 59531s
 20862 16206 1102438.42  179  553 115644.623 5338408.68  4516%  5048 59538s
 20863 16206 4495366.61   40  561 115644.623 5338408.68  4516%  5047 59544s
 20864 16207 2286846.19   49  569 115644.623 5338408.68  4516%  5047 59548s
 20865 16208 1791445.24   60  569 115644.623 5338408.68  4516%  5047 59551s
 20868 16210 863637.544   87  572 115644.623 5338408.68  4516%  5046 59555s
 20870 16211 3510173.01  108  573 115644.623 5338408.68  4516%  5046 59590s
 20871 16212 1588979.47   38  567 115644.623 5338408.68  4516%  5045 59643s
 20872 16212 501936.580   93  590 115644.623 5338408.68  4516%  5045 59647s
 20874 16214 2242415.89   43  587 115644.623 5338408.68  4516%  5045 59651s
 20877 16216 3353881.01   58  587 115644.623 5338408.68  4516%  5044 59656s
 20878 16216 4160703.39   46  588 115644.623 5338408.68  4516%  5044 59690s
 20879 16217 2255027.08   82  578 115644.623 5338408.68  4516%  5044 59731s
 20880 16218 3016459.44   76  548 115644.623 5338408.68  4516%  5043 59735s
 20883 16220 1399851.12   91  578 115644.623 5338408.68  4516%  5043 59768s
 20884 16220 2029019.78  107  570 115644.623 5338408.68  4516%  5042 59818s
 20885 16221 4101394.32   38  511 115644.623 5338408.68  4516%  5042 59820s
 20887 16222 3322495.54   43  594 115644.623 5338408.68  4516%  5042 59856s
 20888 16223 3053762.55   71  575 115644.623 5338408.68  4516%  5041 59901s
 20890 16224 3246907.67   46  581 115644.623 5338408.68  4516%  5041 59935s
 20891 16225 2050231.74  111  579 115644.623 5331604.83  4510%  5041 60142s
 20893 16226 2499359.17  122  602 115644.623 5324188.39  4504%  5040 60150s
 20895 16228 3087975.53   81  613 115644.623 5318923.28  4499%  5040 60156s
 20897 16229 1266823.96  164  590 115644.623 5316392.77  4497%  5039 60160s
 20899 16230 4668525.29   29  605 115644.623 5315679.83  4497%  5039 60202s
 20900 16231 1989590.55   56  611 115644.623 5311507.57  4493%  5038 60248s
 20901 16232 986231.780   30  607 115644.623 5310243.99  4492%  5038 60250s
 20903 16233 975171.632   71  617 115644.623 5306525.68  4489%  5038 60256s
 20905 16234 1191975.83   71  615 115644.623 5305334.54  4488%  5037 60305s
 20906 16235 2953690.77   78  608 115644.623 5301181.16  4484%  5037 60350s
 20909 16237 2914505.00  111  621 115644.623 5294652.55  4478%  5036 60358s
 20910 16238 2780528.46   66  614 115644.623 5294443.26  4478%  5036 60417s
 20911 16238 342418.244  217  625 115644.623 5272232.25  4459%  5036 60489s
 20912 16239 530320.588  143  622 115644.623 5270065.52  4457%  5036 60492s
 20913 16240 3388191.02   61  629 115644.623 5269457.13  4457%  5035 60495s
 20916 16242 1903652.89   93  622 115644.623 5268122.62  4455%  5035 60533s
 20917 16242 2584024.33  122  626 115644.623 5265755.07  4453%  5034 60602s
 20918 16243 4108947.89   27  626 115644.623 5263202.64  4451%  5034 60607s
 20919 16244 1164976.24  128  652 115644.623 5262698.82  4451%  5034 60610s
 20921 16245 296066.737   96  633 115644.623 5261960.83  4450%  5033 60711s
 20922 16246 3244222.19   81  640 115644.623 5253747.45  4443%  5033 60769s
 20923 16246 891927.453   64  629 115644.623 5246026.05  4436%  5033 60777s
 20924 16247 3496500.80   39  644 115644.623 5245235.68  4436%  5033 60780s
 20927 16249 756309.437  168  652 115644.623 5241671.09  4433%  5032 60787s
 20928 16250 445576.025  190  667 115644.623 5240170.75  4431%  5032 60791s
 20930 16251 2253179.01   79  658 115644.623 5239247.46  4430%  5031 60843s
 20931 16252 2171149.58   51  635 115644.623 5220843.69  4415%  5031 60904s
 20932 16252 1951229.21   73  622 115644.623 5212187.53  4407%  5031 60913s
 20933 16253 1538721.90  127  630 115644.623 5210038.24  4405%  5031 60917s
 20934 16254 2430925.63   99  641 115644.623 5209175.18  4404%  5030 60920s
 20935 16254 4021011.36   26  645 115644.623 5206824.85  4402%  5030 60925s
 20937 16256 4313072.53   56  650 115644.623 5206050.82  4402%  5030 60966s
 20938 16256 550301.156  175  641 115644.623 5189375.16  4387%  5029 61011s
 20939 16257 1003615.53  277  642 115644.623 5186283.57  4385%  5029 61015s
 20941 16258 3974192.87   78  643 115644.623 5184697.09  4383%  5029 61020s
 20942 16259 3378344.29   99  646 115644.623 5184261.33  4383%  5028 61051s
 20943 16260 3214603.91   97  631 115644.623 5182532.19  4381%  5028 61091s
 20945 16261 3426119.71   70  640 115644.623 5181038.35  4380%  5028 61143s
 20946 16262 3485091.15   46  604 115644.623 5179962.61  4379%  5027 61265s
 20948 16263 5179148.00   33  610 115644.623 5179148.00  4379%  5027 61332s
 20949 16264 696957.218  104  610 115644.623 5176365.36  4376%  5027 61409s
 20950 16264 1354587.88   48  638 115644.623 5173144.45  4373%  5026 61415s
 20951 16265 682293.170  156  650 115644.623 5172841.17  4373%  5026 61471s
 20952 16266 3607907.57   59  669 115644.623 5164771.15  4366%  5026 61519s
 20953 16266 1511130.04  139  657 115644.623 5164129.72  4366%  5026 61522s
 20954 16267 1476445.11   77  652 115644.623 5163387.38  4365%  5025 61525s
 20955 16268 3716265.29  112  649 115644.623 5162970.23  4365%  5025 61552s
 20956 16268 4918272.18   37  661 115644.623 5160993.00  4363%  5025 61587s
 20958 16270 3663900.01   37  668 115644.623 5158865.69  4361%  5025 61592s
 20959 16270 2393903.13   41  659 115644.623 5158606.40  4361%  5024 61637s
 20960 16271 2391850.38   43  670 115644.623 5153721.91  4357%  5024 61679s
 20961 16272 3610912.41   58  684 115644.623 5151737.53  4355%  5024 61684s
 20962 16272 1102438.42  179  690 115644.623 5150498.37  4354%  5024 61688s
 20963 16273 4495366.61   40  691 115644.623 5150084.38  4353%  5023 61722s
 20964 16274 2286846.19   49  690 115644.623 5148149.13  4352%  5023 61765s
 20965 16274 1791445.24   60  681 115644.623 5147923.10  4352%  5023 61797s
 20966 16275 650821.441  158  653 115644.623 5143244.36  4347%  5023 61839s
 20967 16276 2590560.12   59  658 115644.623 5142102.30  4346%  5022 61843s
 20968 16276 863637.544   87  634 115644.623 5141695.95  4346%  5022 61920s
H20968 15459                    115644.65541 5131992.32  4338%  5022 61969s
 20970 15461 3510173.01  108  647 115644.655 5130470.62  4336%  5022 61972s
 20971 15461 1588979.47   38  652 115644.655 5130049.75  4336%  5021 62002s
 20972 15462 501936.580   93  655 115644.655 5129137.54  4335%  5021 62063s
 20973 15463 2833438.75   35  652 115644.655 5127833.41  4334%  5021 62067s
 20974 15463 2242415.89   43  645 115644.655 5127494.56  4334%  5021 62096s
 20975 15464 2025551.07   91  637 115644.655 5127031.57  4333%  5020 62156s
 20976 15465 2530839.54  100  652 115644.655 5125710.26  4332%  5020 62160s
 20978 15466 4160703.39   46  645 115644.655 5124944.56  4332%  5020 62198s
 20979 15467 2255027.08   82  601 115644.655 5120493.88  4328%  5019 62240s
 20980 15467 3016459.44   76  641 115644.655 5118432.33  4326%  5019 62245s
 20981 15468 1305173.22   67  634 115644.655 5115282.75  4323%  5019 62250s
 20983 15469 1399851.12   91  661 115644.655 5114327.41  4322%  5019 62288s
 20984 15470 2029019.78  107  638 115644.655 5112645.18  4321%  5018 62331s
 20985 15471 4101394.32   38  651 115644.655 5112339.55  4321%  5018 62363s
H20985 14695                    115644.75785 5112339.55  4321%  5018 62394s
 20986 14695 2225379.89  122  635 115644.758 5110955.52  4320%  5018 62400s
H20986 13958                    115644.75897 5110508.77  4319%  5018 62431s
 20988 13960 3053762.55   71  657 115644.759 5108933.16  4318%  5017 62467s
 20989 13960 4195410.76   44  642 115644.759 5108713.41  4318%  5017 62496s
 20990 13961 3246907.67   46  643 115644.759 5106644.68  4316%  5017 62537s
 20991 13962 2050231.74  111  643 115644.759 5106169.60  4315%  5017 62568s
 20992 13962 1359538.72  145  640 115644.759 5105055.53  4314%  5016 62601s
 20993 13963 2499359.17  122  642 115644.759 5104667.84  4314%  5016 62630s
 20994 13964 4256715.14   48  644 115644.759 5104443.01  4314%  5016 62672s
 20995 13964 3087975.53   81  646 115644.759 5104231.30  4314%  5016 62700s
 20996 13965 1963176.55   51  645 115644.759 5102560.83  4312%  5015 62745s
 20997 13966 1266823.96  164  635 115644.759 5099831.01  4310%  5015 62750s
 20999 13967 4668525.29   29  633 115644.759 5098633.98  4309%  5015 62783s
 21000 13968 1989590.55   56  619 115644.759 5097048.91  4308%  5014 62818s
 21001 13968 986231.780   30  646 115644.759 5095592.50  4306%  5014 62821s
 21003 13970 975171.632   71  641 115644.759 5094509.21  4305%  5014 62852s
 21004 13970 2735807.58  109  613 115644.759 5092081.85  4303%  5014 62892s
 21005 13971 1191975.83   71  654 115644.759 5091756.14  4303%  5013 62922s
 21006 13972 2953690.77   78  652 115644.759 5090568.82  4302%  5013 62958s
 21007 13972 2112467.58  114  641 115644.759 5089982.90  4301%  5013 62960s
 21008 13973 5089610.12   22  643 115644.759 5089610.12  4301%  5013 62989s
 21009 13974 2914505.00  111  644 115644.759 5088377.58  4300%  5012 63030s
 21010 13974 2780528.46   66  648 115644.759 5088176.50  4300%  5012 63081s
 21011 13975 342418.244  217  651 115644.759 5083296.36  4296%  5012 63119s
 21012 13976 530320.588  143  626 115644.759 5082313.17  4295%  5012 63122s
 21014 13977 4712230.34   49  636 115644.759 5080744.90  4293%  5011 63161s
 21015 13978 1230950.21   71  657 115644.759 5079515.76  4292%  5011 63202s
 21016 13978 1903652.89   93  628 115644.759 5073966.36  4288%  5011 63209s
 21017 13979 2584024.33  122  618 115644.759 5072706.51  4286%  5010 63212s
 21018 13980 4108947.89   27  634 115644.759 5072252.92  4286%  5010 63244s
H21018 13277                    115644.75962 5072252.92  4286%  5010 63275s
 21020 13278 3992778.64   51  643 115644.760 5069857.41  4284%  5010 63282s
 21021 13279 296066.737   96  653 115644.760 5069101.29  4283%  5009 63285s
 21022 13279 3244222.19   81  652 115644.760 5068760.24  4283%  5009 63334s
 21023 13280 891927.453   64  622 115644.760 5066814.48  4281%  5009 63382s
 21024 13281 3496500.80   39  605 115644.760 5066127.77  4281%  5009 63385s
 21025 13281 3695675.69   35  622 115644.760 5065670.13  4280%  5009 63415s
 21026 13282 1574631.40  158  627 115644.760 5061795.15  4277%  5008 63454s
 21027 13283 756309.437  168  642 115644.760 5059667.25  4275%  5008 63459s
 21028 13283 445576.025  190  627 115644.760 5056843.67  4273%  5008 63476s
 21029 13284 650277.003  257  644 115644.760 5056568.36  4273%  5008 63504s
 21030 13285 2253179.01   79  629 115644.760 5055566.90  4272%  5007 63542s
 21031 13285 2171149.58   51  645 115644.760 5055361.78  4271%  5007 63576s
 21032 13286 1951229.21   73  636 115644.760 5053331.45  4270%  5007 63632s
 21034 13287 2430925.63   99  655 115644.760 5052026.19  4269%  5006 63637s
 21035 13288 4021011.36   26  666 115644.760 5051784.72  4268%  5006 63667s
 21036 13289 3394699.17   60  664 115644.760 5049755.21  4267%  5006 63743s
 21037 13289 4313072.53   56  677 115644.760 5049097.72  4266%  5006 63746s
 21038 13290 550301.156  175  667 115644.760 5048921.99  4266%  5005 63775s
 21039 13291 1003615.53  277  680 115644.760 5047161.36  4264%  5005 63811s
 21041 13292 3974192.87   78  666 115644.760 5045145.02  4263%  5005 63817s
 21042 13293 3378344.29   99  672 115644.760 5044999.29  4262%  5004 63845s
 21043 13293 3214603.91   97  671 115644.760 5044683.22  4262%  5004 63883s
 21044 13294 2594723.39  196  668 115644.760 5044402.08  4262%  5004 63917s
H21044 12626                    115644.75971 5044402.08  4262%  5004 63952s
 21045 12627 3426119.71   70  662 115644.760 5041690.56  4260%  5004 63955s
 21047 12628 1562113.58  156  673 115644.760 5040525.04  4259%  5003 63986s
 21048 12629 5038936.77   33  665 115644.760 5038936.77  4257%  5003 64026s
 21049 12629 696957.218  104  681 115644.760 5038721.59  4257%  5003 64056s
 21050 12630 1354587.88   48  692 115644.760 5035645.42  4254%  5003 64126s
 21051 12631 682293.170  156  698 115644.760 5033542.63  4253%  5002 64131s
 21053 12632 1511130.04  139  690 115644.760 5032950.84  4252%  5002 64169s
 21054 12633 1476445.11   77  691 115644.760 5032605.85  4252%  5002 64214s
 21055 12633 3716265.29  112  669 115644.760 5031613.25  4251%  5001 64220s
 21057 12635 2003721.01   81  661 115644.760 5030097.90  4250%  5001 64257s
 21058 12635 3663900.01   37  675 115644.760 5014773.67  4236%  5001 64341s
 21059 12636 2393903.13   41  667 115644.760 5010417.63  4233%  5000 64347s
 21060 12637 2391850.38   43  663 115644.760 5009949.35  4232%  5000 64380s
 21061 12637 3610912.41   58  675 115644.760 5007071.19  4230%  5000 64422s
 21063 12639 4495366.61   40  674 115644.760 5005646.61  4228%  4999 64427s
 21064 12639 2286846.19   49  670 115644.760 5005313.88  4228%  4999 64472s
 21065 12640 1791445.24   60  661 115644.760 5004452.86  4227%  4999 64543s
 21066 12641 650821.441  158  671 115644.760 5002891.82  4226%  4999 64547s
 21067 12641 2590560.12   59  668 115644.760 5002536.70  4226%  4999 64578s
 21068 12642 863637.544   87  653 115644.760 5001220.03  4225%  4998 64646s
 21069 12643 2668700.26   41  655 115644.760 5000872.28  4224%  4998 64678s
 21070 12643 3510173.01  108  670 115644.760 5000123.16  4224%  4998 64717s
 21071 12644 1588979.47   38  677 115644.760 4999821.31  4223%  4998 64749s
 21072 12645 501936.580   93  679 115644.760 4999140.11  4223%  4997 64788s
 21073 12645 2833438.75   35  687 115644.760 4998738.02  4222%  4997 64820s
 21074 12646 2242415.89   43  667 115644.760 4998388.33  4222%  4997 64853s
 21075 12647 2025551.07   91  684 115644.760 4998198.21  4222%  4997 64886s
 21076 12647 2530839.54  100  669 115644.760 4995032.79  4219%  4996 64957s
 21077 12648 3353881.01   58  671 115644.760 4994154.70  4219%  4996 64974s
 21078 12649 4160703.39   46  678 115644.760 4993924.73  4218%  4996 65004s
 21079 12649 2255027.08   82  699 115644.760 4993207.23  4218%  4996 65039s
 21080 12650 3016459.44   76  668 115644.760 4992839.68  4217%  4995 65070s
 21081 12651 1305173.22   67  685 115644.760 4992446.30  4217%  4995 65107s
 21082 12651 3335538.19   76  684 115644.760 4992305.96  4217%  4995 65138s
 21083 12652 1399851.12   91  676 115644.760 4988909.88  4214%  4995 65179s
 21084 12653 2029019.78  107  698 115644.760 4988216.84  4213%  4994 65183s
 21085 12653 4101394.32   38  681 115644.760 4987883.22  4213%  4994 65217s
 21086 12654 2225379.89  122  677 115644.760 4987171.65  4212%  4994 65257s
 21087 12655 3322495.54   43  676 115644.760 4987044.64  4212%  4994 65287s
 21088 12655 3053762.55   71  699 115644.760 4984887.81  4211%  4994 65328s
 21089 12656 4195410.76   44  674 115644.760 4984126.55  4210%  4993 65331s
 21091 12657 2050231.74  111  703 115644.760 4983404.74  4209%  4993 65365s
 21092 12658 1359538.72  145  700 115644.760 4983183.24  4209%  4993 65403s
 21093 12659 2499359.17  122  708 115644.760 4983137.06  4209%  4992 65435s
 21094 12659 4256715.14   48  697 115644.760 4982985.83  4209%  4992 65472s
 21095 12660 3087975.53   81  693 115644.760 4982917.16  4209%  4992 65505s
 21096 12661 1963176.55   51  714 115644.760 4982775.89  4209%  4992 65544s
 21097 12661 1266823.96  164  715 115644.760 4982643.89  4209%  4991 65577s
 21098 12662 706348.953  146  709 115644.760 4981280.33  4207%  4991 65616s
 21099 12663 4668525.29   29  701 115644.760 4981179.40  4207%  4991 65649s
 21100 12663 1989590.55   56  698 115644.760 4980892.42  4207%  4991 65685s
 21101 12664 986231.780   30  702 115644.760 4980665.21  4207%  4990 65719s
 21102 12665 3064497.15   88  685 115644.760 4975414.89  4202%  4990 65760s
 21103 12665 975171.632   71  680 115644.760 4975114.57  4202%  4990 65789s
 21104 12666 2735807.58  109  672 115644.760 4974652.29  4202%  4990 65827s
 21105 12667 1191975.83   71  681 115644.760 4974278.93  4201%  4990 65860s
 21106 12667 2953690.77   78  678 115644.760 4973869.89  4201%  4989 65899s
 21107 12668 2112467.58  114  706 115644.760 4973767.04  4201%  4989 65933s
 21108 12669 4973490.03   22  687 115644.760 4973490.03  4201%  4989 65974s
 21109 12669 2914505.00  111  699 115644.760 4973394.36  4201%  4989 66004s
 21110 12670 2780528.46   66  704 115644.760 4973174.55  4200%  4988 66044s
 21111 12671 342418.244  217  696 115644.760 4973101.83  4200%  4988 66072s
 21112 12671 530320.588  143  706 115644.760 4972795.19  4200%  4988 66112s
 21113 12672 3388191.02   61  702 115644.760 4972744.12  4200%  4988 66146s
 21114 12673 4712230.34   49  692 115644.760 4972712.31  4200%  4987 66182s
 21115 12673 1230950.21   71  695 115644.760 4972700.71  4200%  4987 66212s
 21116 12674 1903652.89   93  696 115644.760 4972673.31  4200%  4987 66250s
 21117 12675 2584024.33  122  687 115644.760 4972605.06  4200%  4987 66283s
 21118 12675 4108947.89   27  692 115644.760 4972433.50  4200%  4986 66321s
 21119 12676 1164976.24  128  695 115644.760 4972412.48  4200%  4986 66351s
 21120 12677 3992778.64   51  679 115644.760 4972306.25  4200%  4986 66381s
 21121 12677 296066.737   96  684 115644.760 4972209.82  4200%  4986 66412s
 21122 12678 3244222.19   81  687 115644.760 4971956.44  4199%  4986 66445s
 21123 12679 891927.453   64  679 115644.760 4971853.51  4199%  4985 66481s
 21124 12679 3496500.80   39  673 115644.760 4971665.30  4199%  4985 66518s
 21125 12680 3695675.69   35  670 115644.760 4971604.90  4199%  4985 66550s
 21126 12681 1574631.40  158  664 115644.760 4971583.78  4199%  4985 66587s
 21127 12681 756309.437  168  676 115644.760 4971583.76  4199%  4984 66618s
 21128 12682 445576.025  190  661 115644.760 4971502.00  4199%  4984 66654s
 21129 12683 650277.003  257  667 115644.760 4971485.59  4199%  4984 66685s
 21130 12683 2253179.01   79  666 115644.760 4971326.96  4199%  4984 66749s
 21131 12684 2171149.58   51  662 115644.760 4971275.41  4199%  4983 66780s
 21132 12685 1951229.21   73  688 115644.760 4970706.53  4198%  4983 66822s
 21133 12685 1538721.90  127  694 115644.760 4970344.61  4198%  4983 66853s
 21134 12686 2430925.63   99  674 115644.760 4968442.98  4196%  4983 66888s
 21135 12687 4021011.36   26  700 115644.760 4968150.51  4196%  4982 66918s
 21136 12687 3394699.17   60  671 115644.760 4967231.15  4195%  4982 66953s
 21137 12688 4313072.53   56  683 115644.760 4966522.45  4195%  4982 66956s
 21138 12689 550301.156  175  668 115644.760 4966325.80  4194%  4982 66989s
 21139 12689 1003615.53  277  652 115644.760 4965923.34  4194%  4982 67023s
 21140 12690 4786225.25   46  649 115644.760 4965681.50  4194%  4981 67054s
 21141 12691 3974192.87   78  648 115644.760 4965227.85  4194%  4981 67089s
 21142 12691 3378344.29   99  648 115644.760 4965123.95  4193%  4981 67118s
 21143 12692 3214603.91   97  645 115644.760 4964661.89  4193%  4981 67154s
 21144 12693 2594723.39  196  654 115644.760 4964556.96  4193%  4980 67185s
 21145 12693 3426119.71   70  665 115644.760 4964209.75  4193%  4980 67218s
 21146 12694 3485091.15   46  656 115644.760 4964131.06  4193%  4980 67246s
 21147 12695 1562113.58  156  659 115644.760 4964026.92  4192%  4980 67277s
 21148 12695 4963961.24   33  659 115644.760 4963961.24  4192%  4979 67306s
 21149 12696 696957.218  104  676 115644.760 4963234.20  4192%  4979 67340s
 21150 12697 1354587.88   48  667 115644.760 4963130.37  4192%  4979 67367s
 21151 12697 682293.170  156  680 115644.760 4962978.25  4192%  4979 67427s
 21152 12698 3607907.57   59  694 115644.760 4962701.82  4191%  4978 67455s
 21153 12699 1511130.04  139  677 115644.760 4961484.60  4190%  4978 67486s
 21154 12699 1476445.11   77  674 115644.760 4961355.13  4190%  4978 67516s
 21155 12700 3716265.29  112  673 115644.760 4960682.18  4190%  4978 67549s
 21156 12701 4918272.18   37  670 115644.760 4960538.00  4189%  4978 67576s
 21157 12701 2003721.01   81  679 115644.760 4960445.26  4189%  4977 67603s
 21158 12702 3663900.01   37  688 115644.760 4960415.72  4189%  4977 67631s
 21159 12703 2393903.13   41  680 115644.760 4960194.61  4189%  4977 67661s
 21160 12703 2391850.38   43  663 115644.760 4960054.29  4189%  4977 67689s
 21161 12704 3610912.41   58  655 115644.760 4959937.37  4189%  4976 67726s
 21162 12705 1102438.42  179  655 115644.760 4959937.37  4189%  4976 67934s
 21163 12708 4948884.60   25  620 115644.760 4959834.58  4189%  5013 68145s
 21165 12712 4947043.93   26  621 115644.760 4947043.93  4178%  5014 68321s
 21169 12714 4945838.14   27  624 115644.760 4945838.14  4177%  5019 68430s
 21173 12717 2724138.46   27  479 115644.760 4945314.92  4176%  5024 68585s
 21177 12720 4936040.77   28  608 115644.760 4945104.77  4176%  5028 68646s
 21181 12722 4779182.87   28  501 115644.760 4936040.52  4168%  5029 68801s
 21185 12725 4926455.38   29  623 115644.760 4936035.00  4168%  5035 68860s
 21189 12728 4581665.91   29  383 115644.760 4926454.72  4160%  5037 68996s
H21192 12086                    115644.92407 4926454.72  4160%  5041 68996s
 21193 12081 4924499.31   30  622 115644.924 4924499.31  4158%  5042 69113s
 21199 12088 4858143.87   31  583 115644.924 4924493.09  4158%  5048 69209s
 21206 12097 4921680.53   31  625 115644.924 4921680.53  4156%  5048 69661s
 21213 12098 4904627.55   33  616 115644.924 4904627.55  4141%  5058 69765s
 21222 12104 4903435.49   34  617 115644.924 4903435.49  4140%  5063 69914s
 21229 12110 4893579.33   35  613 115644.924 4893579.33  4132%  5068 70083s
 21240 12118 4843861.14   36  580 115644.924 4857635.61  4100%  5072 70183s
 21249 12124 4836049.17   37  572 115644.924 4857635.61  4100%  5075 70350s
 21258 12129 4833865.57   38  573 115644.924 4857635.61  4100%  5082 70518s
 21267 12136 4824966.57   39  587 115644.924 4857635.61  4100%  5089 70681s
 21278 12140 4820760.24   40  591 115644.924 4857635.61  4100%  5094 70830s
 21288 12151 4656674.59   41  569 115644.924 4857635.61  4100%  5101 70984s
 21296 12154 4757309.00   42  519 115644.924 4857635.61  4100%  5106 71174s
 21304 12163 4752372.83   43  542 115644.924 4857635.61  4100%  5114 71360s
 21316 12163 4751385.79   44  539 115644.924 4857635.61  4100%  5121 71557s
 21330 12172 3836956.70   45  430 115644.924 4857635.61  4100%  5130 71679s
 21344 12188 4436939.09   46  483 115644.924 4857635.61  4100%  5134 71865s
 21362 12198 4597552.10   47  492 115644.924 4857635.61  4100%  5137 72031s
 21382 12212 4549685.03   49  480 115644.924 4857635.61  4100%  5141 72193s
 21404 12226 4433318.16   50  474 115644.924 4857635.61  4100%  5146 72349s
 21429 12242 4462756.95   51  447 115644.924 4857635.61  4100%  5147 72534s
 21458 12264 4336536.12   52  403 115644.924 4857635.61  4100%  5151 72740s
 21486 12277 4277160.77   54  402 115644.924 4857635.61  4100%  5156 72917s
 21513 12287 4160920.82   56  355 115644.924 4857635.61  4100%  5160 73147s
 21547 12308 4076387.91   59  355 115644.924 4857635.61  4100%  5164 73330s
 21577 12317 3938431.99   61  373 115644.924 4857635.61  4100%  5169 73556s
 21617 12332 3712199.72   63  399 115644.924 4857635.61  4100%  5171 73738s
 21657 12346 3692093.88   65  366 115644.924 4857635.61  4100%  5173 73984s
 21688 12353 3628476.75   68  377 115644.924 4857635.61  4100%  5179 74113s
 21713 12367 3163459.57   70  344 115644.924 4857635.61  4100%  5188 74265s
 21735 12379 3540345.34   73  367 115644.924 4857635.61  4100%  5197 74400s
 21784 12402 3536030.17   75  361 115644.924 4857635.61  4100%  5200 74624s
 21843 12420 3492610.10   78  370 115644.924 4857635.61  4100%  5203 74760s
 21876 12433 3381226.29   81  351 115644.924 4857635.61  4100%  5212 74898s
 21914 12453 3331195.81   84  359 115644.924 4857635.61  4100%  5219 75114s
 21972 12477 3060099.36   88  405 115644.924 4857635.61  4100%  5224 75343s
 22026 12487 3041197.20   91  397 115644.924 4857635.61  4100%  5231 75569s
 22112 12501 2932480.80   94  398 115644.924 4857635.61  4100%  5229 75808s
 22181 12540 2796613.43   97  426 115644.924 4856257.95  4099%  5229 76015s
 22214 12549 2604938.80  101  414 115644.924 4856257.95  4099%  5238 76197s
 22256 12569 2492147.27  105  405 115644.924 4856257.95  4099%  5247 76457s
 22316 12596 2443749.61  109  383 115644.924 4856257.95  4099%  5254 76700s
 22392 12614 1556653.46  114  372 115644.924 4856257.95  4099%  5254 76884s
 22418 12623 1939101.39  119  402 115644.924 4856257.95  4099%  5261 77115s
 22476 12657 1910140.11  125  415 115644.924 4856257.95  4099%  5268 77428s
 22548 12698 1719726.42  132  451 115644.924 4856257.95  4099%  5270 77783s
 22652 12752 1589231.25  139  403 115644.924 4856257.95  4099%  5270 78146s
 22749 12796 1469141.12  147  371 115644.924 4856257.95  4099%  5269 78389s
 22839 12836 1419071.78  155  380 115644.924 4856257.95  4099%  5271 78707s
 22960 12892 1404420.89  162  394 115644.924 4856257.95  4099%  5269 79067s
 23046 12924 1384252.96  172  392 115644.924 4856257.95  4099%  5277 79302s
 23139 12976 1149467.77  181  380 115644.924 4856257.95  4099%  5286 79642s
 23364 13029 905311.527  203  365 115644.924 4856257.95  4099%  5265 79971s
 23520 13082 849234.624  221  379 115644.924 4738547.28  3997%  5258 80244s
 23678 13145 2894882.53   33  428 115644.924 4738547.28  3997%  5254 80531s
 23829 13211 2446655.24   43  305 115644.924 4728822.57  3989%  5243 80875s
 23948 13279 4621529.54   36  522 115644.924 4728822.57  3989%  5248 81294s
 24007 13305 3984415.21   47  402 115644.924 4728822.57  3989%  5264 81695s
 24085 13349 1907350.97   79  462 115644.924 4715726.09  3978%  5278 82150s
 24218 13415 3794478.93   37  366 115644.924 4714899.16  3977%  5286 82612s
 24381 13458 4693509.38   34  576 115644.924 4714899.16  3977%  5287 83054s
 24546 13517 3992746.88   44  430 115644.924 4714899.16  3977%  5284 83551s
 24727 13595 3097663.74   88  464 115644.924 4714899.16  3977%  5276 84052s
 25068 13809 1101547.22  241  285 115644.924 4667261.90  3936%  5235 84578s
 25379 13983 3505840.33   46  447 115644.924 4656637.99  3927%  5206 85134s
 25535 14060 2071461.01   97  448 115644.924 4642763.67  3915%  5210 85750s
 25833 14230 3410811.55   44  371 115644.924 4642372.21  3914%  5198 86345s
 26054 14340 1802438.24   92  338 115644.924 4642372.21  3914%  5197 86400s

Cutting planes:
  Gomory: 181
  Implied bound: 51
  Projected implied bound: 70
  MIR: 193
  Flow cover: 1225
  Zero half: 3

Explored 26099 nodes (135720911 simplex iterations) in 86400.10 seconds
Thread count was 4 (of 16 available processors)

Solution count 10: 115645 115645 115645 ... 115645

Time limit reached
Best objective 1.156449240671e+05, best bound 4.642372205792e+06, gap 3914.3329%

***
***  |- Calculation finished, timelimit reached 86,400.12 (86400.12) sec.))
***  |-----------------------------------------------------------------------------------------------------------------------
***
*****************************************************************************************************************************
#############################################################################################################################
###
### Results
###
### The objective of the solution is 115,644.9241 (115644.9241) and is feasible with a Gap of 39.1433
###
### Service 42 (SAMBA) is operated by 7 vessels from type 18 (PMax25)
###  |- Vessel  1 has the path [143, 4, 0]
###  |  143 (USMSY Out@238.0) - 4 (ARBUE In@920.0/Out@944.0) - 0 (DUMMY_END Ziel-Service 42)
###  |- Vessel  2 has the path [144, 79, 80, 81, 82, 83, 85, 86, 87, 88, 94, 55, 51, 11, 12, 0]
###  |  144 (USMSY Out@406.0) - 79 (ESALG In@775.0/Out@799.0) - 80 (ESALG In@829.0/Out@853.0) - 81 (ESALG In@943.0/Out@967.0)
###  |   - 82 (ESALG In@1045.0/Out@1075.0) - 83 (ESALG In@1111.0/Out@1135.0) - 85 (ESALG In@1213.0/Out@1243.0) - 86 (ESALG In
###  |  @1279.0/Out@1303.0) - 87 (ESALG In@1381.0/Out@1411.0) - 88 (ESALG In@1447.0/Out@1471.0) - 94 (ESLPA In@1521.0/Out@154
###  |  5.0) - 55 (BRSUA In@1691.0/Out@1715.0) - 51 (BRSSZ In@1788.0/Out@1808.0) - 11 (ARBUE In@1862.0/Out@1905.0) - 12 (ARBU
###  |  E In@1928.0/Out@1952.0) - 0 (DUMMY_END Ziel-Service 42)
###  |   |- and carried Demand   7, 200.0 containers from  82 to  12
###  |   |- and carried Demand  20,  57.0 containers from  85 to  11
###  |   |- and carried Demand  24,  16.0 containers from  85 to  11
###  |   |- and carried Demand  29,   8.0 containers from  87 to  11
###  |   |- and carried Demand  30, 224.0 containers from  87 to  11
###  |   |- and carried Demand  31,  58.0 containers from  87 to  12
###  |   |- and carried Demand  32,   5.0 containers from  87 to  12
###  |   |- and carried Demand  33, 159.0 containers from  87 to  11
###  |   |- and carried Demand  71,  12.0 containers from  51 to  11
###  |   |- and carried Demand 156, 239.0 containers from  80 to  11
###  |   |- and carried Demand 157,   8.0 containers from  80 to  11
###  |   |- and carried Demand 161,  19.0 containers from  80 to  11
###  |   |- and carried Demand 173,  47.0 containers from  88 to  51
###  |   |- and carried Demand 176,   8.0 containers from  88 to  11
###  |   |- and carried Demand 177, 224.0 containers from  88 to  11
###  |   |- and carried Demand 178,  58.0 containers from  88 to  12
###  |   |- and carried Demand 179,   5.0 containers from  88 to  12
###  |   |- and carried Demand 180, 159.0 containers from  88 to  11
###  |   |- and carried Demand 249,  57.0 containers from  86 to  11
###  |   |- and carried Demand 253,  16.0 containers from  86 to  11
###  |   |- and carried Demand 322, 200.0 containers from  83 to  12
###  |   |- and carried Demand 382, 239.0 containers from  81 to  11
###  |   |- and carried Demand 383,   8.0 containers from  81 to  11
###  |   |- and carried Demand 387,  19.0 containers from  81 to  11
###  |   |- and carried Demand 441, 488.0 containers from  79 to  12
###  |   |- and carried Demand 442,   5.0 containers from  79 to  12
###  |- Vessel  3 has the path [145, 6, 0]
###  |  145 (USMSY Out@574.0) - 6 (ARBUE In@1256.0/Out@1280.0) - 0 (DUMMY_END Ziel-Service 42)
###  |- Vessel  4 has the path [146, 8, 0]
###  |  146 (USMSY Out@742.0) - 8 (ARBUE In@1424.0/Out@1448.0) - 0 (DUMMY_END Ziel-Service 42)
###  |- Vessel  5 has the path [147, 9, 0]
###  |  147 (USMSY Out@910.0) - 9 (ARBUE In@1592.0/Out@1616.0) - 0 (DUMMY_END Ziel-Service 42)
###  |- Vessel  6 has the path [148, 10, 0]
###  |  148 (USMSY Out@1078.0) - 10 (ARBUE In@1760.0/Out@1784.0) - 0 (DUMMY_END Ziel-Service 42)
###  |- Vessel  8 has the path [72, 65, 77, 78, 5, 0]
###  |  72 (DEHAM Out@276.0) - 65 (DEBRV In@497.0/Out@521.0) - 77 (ESALG In@607.0/Out@631.0) - 78 (ESALG In@613.0/Out@658.0) 
###  |  - 5 (ARBUE In@1088.0/Out@1112.0) - 0 (DUMMY_END Ziel-Service 42)
###  |   |- and carried Demand  98, 392.0 containers from  78 to   5
###  |   |- and carried Demand  99,  13.0 containers from  78 to   5
###  |   |- and carried Demand 490, 392.0 containers from  77 to   5
###  |   |- and carried Demand 491,  13.0 containers from  77 to   5
###  |   |- and carried Demand 494,  59.0 containers from  77 to   5
###  |   |- and carried Demand 495,   6.0 containers from  77 to   5
###  |   |- and carried Demand 496, 126.0 containers from  77 to   5
###  |   |- and carried Demand 499, 256.0 containers from  65 to  77
###  |   |- and carried Demand 503,   3.0 containers from  65 to   5
###  |
### Vessels not used in the solution: [7, 9, 10, 11, 12]
###  |-----------------------------------------------------------------------------------------------------------------------
###
#############################################################################################################################

### Detialed variable overview

### All variables with value greater zero:
rho[42,18] = 1
eta[42,18,1] = 1
eta[42,18,2] = 1
eta[42,18,3] = 1
eta[42,18,4] = 1
eta[42,18,5] = 1
eta[42,18,6] = 1
eta[42,18,7] = 1
y[1,4,0] = 1
y[1,143,4] = 1
y[2,94,55] = 1
y[2,85,86] = 1
y[2,80,81] = 1
y[2,144,79] = 1
y[2,11,12] = 1
y[2,86,87] = 1
y[2,51,11] = 1
y[2,12,0] = 1
y[2,83,85] = 1
y[2,81,82] = 1
y[2,79,80] = 1
y[2,87,88] = 1
y[2,55,51] = 1
y[2,82,83] = 1
y[2,88,94] = 1
y[3,6,0] = 1
y[3,145,6] = 1
y[4,8,0] = 1
y[4,146,8] = 1
y[5,9,0] = 1
y[5,147,9] = 1
y[6,148,10] = 1
y[6,10,0] = 1
y[8,77,78] = 1
y[8,65,77] = 1
y[8,5,0] = 1
y[8,72,65] = 1
y[8,78,5] = 1
xD[7,94,55] = 200
xD[7,85,86] = 200
xD[7,11,12] = 200
xD[7,86,87] = 200
xD[7,51,11] = 200
xD[7,83,85] = 200
xD[7,87,88] = 200
xD[7,55,51] = 200
xD[7,82,83] = 200
xD[7,88,94] = 200
xD[20,94,55] = 57
xD[20,85,86] = 57
xD[20,86,87] = 57
xD[20,51,11] = 57
xD[20,87,88] = 57
xD[20,55,51] = 57
xD[20,88,94] = 57
xD[24,94,55] = 16
xD[24,85,86] = 16
xD[24,86,87] = 16
xD[24,51,11] = 16
xD[24,87,88] = 16
xD[24,55,51] = 16
xD[24,88,94] = 16
xD[29,94,55] = 8
xD[29,51,11] = 8
xD[29,87,88] = 8
xD[29,55,51] = 8
xD[29,88,94] = 8
xD[30,94,55] = 224
xD[30,51,11] = 224
xD[30,87,88] = 224
xD[30,55,51] = 224
xD[30,88,94] = 224
xD[31,94,55] = 58
xD[31,11,12] = 58
xD[31,51,11] = 58
xD[31,87,88] = 58
xD[31,55,51] = 58
xD[31,88,94] = 58
xD[32,94,55] = 5
xD[32,11,12] = 5
xD[32,51,11] = 5
xD[32,87,88] = 5
xD[32,55,51] = 5
xD[32,88,94] = 5
xD[33,94,55] = 159
xD[33,51,11] = 159
xD[33,87,88] = 159
xD[33,55,51] = 159
xD[33,88,94] = 159
xD[71,51,11] = 12
xD[98,78,5] = 392
xD[99,78,5] = 13
xD[156,94,55] = 239
xD[156,85,86] = 239
xD[156,80,81] = 239
xD[156,86,87] = 239
xD[156,51,11] = 239
xD[156,83,85] = 239
xD[156,81,82] = 239
xD[156,87,88] = 239
xD[156,55,51] = 239
xD[156,82,83] = 239
xD[156,88,94] = 239
xD[157,94,55] = 8
xD[157,85,86] = 8
xD[157,80,81] = 8
xD[157,86,87] = 8
xD[157,51,11] = 8
xD[157,83,85] = 8
xD[157,81,82] = 8
xD[157,87,88] = 8
xD[157,55,51] = 8
xD[157,82,83] = 8
xD[157,88,94] = 8
xD[161,94,55] = 19
xD[161,85,86] = 19
xD[161,80,81] = 19
xD[161,86,87] = 19
xD[161,51,11] = 19
xD[161,83,85] = 19
xD[161,81,82] = 19
xD[161,87,88] = 19
xD[161,55,51] = 19
xD[161,82,83] = 19
xD[161,88,94] = 19
xD[173,94,55] = 46.9999
xD[173,55,51] = 46.9999
xD[173,88,94] = 46.9999
xD[176,94,55] = 8
xD[176,51,11] = 8
xD[176,55,51] = 8
xD[176,88,94] = 8
xD[177,94,55] = 224
xD[177,51,11] = 224
xD[177,55,51] = 224
xD[177,88,94] = 224
xD[178,94,55] = 58
xD[178,11,12] = 58
xD[178,51,11] = 58
xD[178,55,51] = 58
xD[178,88,94] = 58
xD[179,94,55] = 5
xD[179,11,12] = 5
xD[179,51,11] = 5
xD[179,55,51] = 5
xD[179,88,94] = 5
xD[180,94,55] = 159
xD[180,51,11] = 159
xD[180,55,51] = 159
xD[180,88,94] = 159
xD[249,94,55] = 57
xD[249,86,87] = 57
xD[249,51,11] = 57
xD[249,87,88] = 57
xD[249,55,51] = 57
xD[249,88,94] = 57
xD[253,94,55] = 16
xD[253,86,87] = 16
xD[253,51,11] = 16
xD[253,87,88] = 16
xD[253,55,51] = 16
xD[253,88,94] = 16
xD[322,94,55] = 200
xD[322,85,86] = 200
xD[322,11,12] = 200
xD[322,86,87] = 200
xD[322,51,11] = 200
xD[322,83,85] = 200
xD[322,87,88] = 200
xD[322,55,51] = 200
xD[322,88,94] = 200
xD[382,94,55] = 239
xD[382,85,86] = 239
xD[382,86,87] = 239
xD[382,51,11] = 239
xD[382,83,85] = 239
xD[382,81,82] = 239
xD[382,87,88] = 239
xD[382,55,51] = 239
xD[382,82,83] = 239
xD[382,88,94] = 239
xD[383,94,55] = 8
xD[383,85,86] = 8
xD[383,86,87] = 8
xD[383,51,11] = 8
xD[383,83,85] = 8
xD[383,81,82] = 8
xD[383,87,88] = 8
xD[383,55,51] = 8
xD[383,82,83] = 8
xD[383,88,94] = 8
xD[387,94,55] = 19
xD[387,85,86] = 19
xD[387,86,87] = 19
xD[387,51,11] = 19
xD[387,83,85] = 19
xD[387,81,82] = 19
xD[387,87,88] = 19
xD[387,55,51] = 19
xD[387,82,83] = 19
xD[387,88,94] = 19
xD[441,94,55] = 488
xD[441,85,86] = 488
xD[441,80,81] = 488
xD[441,11,12] = 488
xD[441,86,87] = 488
xD[441,51,11] = 488
xD[441,83,85] = 488
xD[441,81,82] = 488
xD[441,79,80] = 488
xD[441,87,88] = 488
xD[441,55,51] = 488
xD[441,82,83] = 488
xD[441,88,94] = 488
xD[442,94,55] = 5
xD[442,85,86] = 5
xD[442,80,81] = 5
xD[442,11,12] = 5
xD[442,86,87] = 5
xD[442,51,11] = 5
xD[442,83,85] = 5
xD[442,81,82] = 5
xD[442,79,80] = 5
xD[442,87,88] = 5
xD[442,55,51] = 5
xD[442,82,83] = 5
xD[442,88,94] = 5
xD[490,77,78] = 392
xD[490,78,5] = 392
xD[491,77,78] = 13
xD[491,78,5] = 13
xD[494,77,78] = 59
xD[494,78,5] = 59
xD[495,77,78] = 6
xD[495,78,5] = 6
xD[496,77,78] = 126
xD[496,78,5] = 126
xD[499,65,77] = 256
xD[503,77,78] = 3
xD[503,65,77] = 3
xD[503,78,5] = 3
zE[4] = 920
zE[5] = 1088
zE[6] = 1256
zE[8] = 1424
zE[9] = 1592
zE[10] = 1760
zE[11] = 1862
zE[12] = 1928
zE[51] = 1788
zE[55] = 1691
zE[65] = 497
zE[77] = 607
zE[78] = 613
zE[79] = 775
zE[80] = 829
zE[81] = 943
zE[82] = 1045
zE[83] = 1111
zE[85] = 1213
zE[86] = 1279
zE[87] = 1381
zE[88] = 1447
zE[94] = 1521
zX[4] = 944
zX[5] = 1112
zX[6] = 1280
zX[8] = 1448
zX[9] = 1616
zX[10] = 1784
zX[11] = 1905
zX[12] = 1952
zX[51] = 1808
zX[55] = 1715
zX[65] = 521
zX[72] = 276
zX[77] = 631
zX[78] = 658
zX[79] = 799
zX[80] = 853
zX[81] = 967
zX[82] = 1075
zX[83] = 1135
zX[85] = 1243
zX[86] = 1303
zX[87] = 1411
zX[88] = 1471
zX[94] = 1545
zX[143] = 238
zX[144] = 406
zX[145] = 574
zX[146] = 742
zX[147] = 910
zX[148] = 1078
phi[1] = 706
phi[2] = 1546
phi[3] = 706
phi[4] = 706
phi[5] = 706
phi[6] = 706
phi[8] = 836

### All variables with value smaller zero:

### End

real	1441m1.382s
user	5461m59.934s
sys	291m55.731s
	Freetype 2.4.12 environment removed
	Python 3.6.0 environment removed
	Gurobi 8.1.0 environment removed
