	Freetype 2.4.12 environment established
		library to render fonts
	Python 3.6.0 environment established
	Gurobi 8.1.0 environment established
Instance LSFRP: LSFDRP_5_3_1_1_fr.p
Instance LSFDP: LSFDRP_5_3_1_1_fd_46.p

*****************************************************************************************************************************
*** Solve LSFDRP_5_3_1_1_fd_46 with Gurobi
***
*** Graph info
*** |S|: 12
*** |S^E|: 0
*** |S^C|: 4
*** |V|: 162
*** |A|: 2732
*** |A^i|: 2732
*** |A^f|: 0
*** |M|: 532
*** |E|: 0

Changed value of parameter TimeLimit to 86400.0
   Prev: 1e+100  Min: 0.0  Max: 1e+100  Default: 1e+100
Changed value of parameter Threads to 4
   Prev: 0  Min: 0  Max: 1024  Default: 0
Optimize a model with 94319 rows, 1492000 columns and 5261875 nonzeros
Variable types: 1459208 continuous, 32792 integer (32792 binary)
Coefficient statistics:
  Matrix range     [1e+00, 3e+03]
  Objective range  [2e+00, 4e+07]
  Bounds range     [1e+00, 1e+00]
  RHS range        [1e+00, 7e+00]
Presolve removed 84889 rows and 1436562 columns (presolve time = 5s) ...
Presolve removed 84889 rows and 1440714 columns (presolve time = 29s) ...
Warning: Failed to open log file 'gurobi.log'
Presolve removed 84972 rows and 1440743 columns (presolve time = 30s) ...
Presolve removed 84976 rows and 1440747 columns
Presolve time: 32.29s
Presolved: 9343 rows, 51253 columns, 285169 nonzeros
Variable types: 22752 continuous, 28501 integer (28486 binary)

Root simplex log...

Iteration    Objective       Primal Inf.    Dual Inf.      Time
       0    5.4601468e+09   1.336409e+06   0.000000e+00     34s
   20483    6.1318368e+07   1.172416e+06   0.000000e+00     35s
   33740    3.2320317e+07   9.246444e+05   0.000000e+00     40s
   45111    2.7515946e+07   1.499412e+06   0.000000e+00     45s
   53585    2.4665747e+07   8.579915e+05   0.000000e+00     50s
   61597    2.0264989e+07   3.901755e+06   0.000000e+00     55s
   71312    1.7472650e+07   3.270167e+05   0.000000e+00     60s
   78528    1.5649701e+07   1.321610e+06   0.000000e+00     65s
   86229    1.4313644e+07   1.052054e+06   0.000000e+00     70s
   94143    1.3416249e+07   9.632777e+05   0.000000e+00     75s
  101536    1.1688131e+07   2.485085e+06   0.000000e+00     80s
  109391    1.0321211e+07   1.706033e+06   0.000000e+00     85s
  116165    9.2972283e+06   2.910641e+05   0.000000e+00     90s
  121800    8.8813638e+06   1.011075e+06   0.000000e+00     95s
  127245    8.2856158e+06   9.060100e+04   0.000000e+00    100s
  132823    7.6809872e+06   1.007673e+06   0.000000e+00    105s
  138227    7.0903110e+06   1.544631e+05   0.000000e+00    110s
  142765    6.9565201e+06   4.613867e+04   0.000000e+00    115s
  146825    6.9100186e+06   2.324008e+04   0.000000e+00    120s
  150855    6.8273358e+06   4.771673e+05   0.000000e+00    125s
  154515    6.7801746e+06   3.506770e+04   0.000000e+00    130s
  157935    6.7360074e+06   8.504578e+04   0.000000e+00    135s
  161395    6.7010285e+06   1.597589e+05   0.000000e+00    140s
  163718    6.6984997e+06   0.000000e+00   0.000000e+00    144s

Root relaxation: objective 6.698500e+06, 163718 iterations, 110.19 seconds

    Nodes    |    Current Node    |     Objective Bounds      |     Work
 Expl Unexpl |  Obj  Depth IntInf | Incumbent    BestBd   Gap | It/Node Time

     0     0 6698499.65    0  346          - 6698499.65      -     -  144s
H    0     0                    -4329600.011 6698499.65   255%     -  162s
H    0     0                    -3771418.023 6698499.65   278%     -  173s
     0     0 6569727.42    0  375 -3771418.0 6569727.42   274%     -  189s
H    0     0                    -3241797.923 6569727.42   303%     -  204s
     0     0 6553946.09    0  378 -3241797.9 6553946.09   302%     -  217s
     0     0 6550297.44    0  379 -3241797.9 6550297.44   302%     -  222s
     0     0 6547534.59    0  377 -3241797.9 6547534.59   302%     -  226s
     0     0 6547515.17    0  374 -3241797.9 6547515.17   302%     -  227s
     0     0 6547515.17    0  375 -3241797.9 6547515.17   302%     -  227s
     0     0 6411989.08    0  378 -3241797.9 6411989.08   298%     -  251s
     0     0 6411014.38    0  381 -3241797.9 6411014.38   298%     -  255s
     0     0 6410964.50    0  382 -3241797.9 6410964.50   298%     -  256s
     0     0 6410927.89    0  382 -3241797.9 6410927.89   298%     -  256s
     0     0 6398105.92    0  383 -3241797.9 6398105.92   297%     -  263s
H    0     0                    -2775255.686 6398105.92   331%     -  275s
     0     0 6387039.11    0  390 -2775255.7 6387039.11   330%     -  280s
     0     0 6386268.60    0  392 -2775255.7 6386268.60   330%     -  282s
     0     0 6386254.90    0  383 -2775255.7 6386254.90   330%     -  282s
     0     0 6345271.90    0  377 -2775255.7 6345271.90   329%     -  288s
     0     0 6342031.06    0  371 -2775255.7 6342031.06   329%     -  292s
     0     0 6341302.28    0  386 -2775255.7 6341302.28   328%     -  295s
     0     0 6340677.44    0  385 -2775255.7 6340677.44   328%     -  297s
     0     0 6340067.94    0  379 -2775255.7 6340067.94   328%     -  300s
     0     0 6339992.80    0  381 -2775255.7 6339992.80   328%     -  300s
     0     0 6310679.23    0  393 -2775255.7 6310679.23   327%     -  309s
     0     0 6309879.32    0  380 -2775255.7 6309879.32   327%     -  312s
     0     0 6309833.26    0  397 -2775255.7 6309833.26   327%     -  313s
     0     0 6303205.55    0  411 -2775255.7 6303205.55   327%     -  316s
     0     0 6302398.72    0  416 -2775255.7 6302398.72   327%     -  319s
     0     0 6302247.68    0  415 -2775255.7 6302247.68   327%     -  320s
     0     0 6302216.97    0  415 -2775255.7 6302216.97   327%     -  321s
     0     0 6286680.66    0  384 -2775255.7 6286680.66   327%     -  328s
     0     0 6286425.41    0  381 -2775255.7 6286425.41   327%     -  331s
     0     0 6285284.48    0  374 -2775255.7 6285284.48   326%     -  332s
     0     0 6285235.23    0  373 -2775255.7 6285235.23   326%     -  332s
     0     0 6284506.54    0  385 -2775255.7 6284506.54   326%     -  335s
     0     0 6278204.56    0  405 -2775255.7 6278204.56   326%     -  339s
     0     0 6277721.98    0  403 -2775255.7 6277721.98   326%     -  340s
     0     0 6277679.06    0  405 -2775255.7 6277679.06   326%     -  341s
     0     0 6277188.44    0  421 -2775255.7 6277188.44   326%     -  343s
     0     0 6276752.55    0  419 -2775255.7 6276752.55   326%     -  346s
     0     0 6276698.74    0  423 -2775255.7 6276698.74   326%     -  347s
     0     0 6236835.66    0  421 -2775255.7 6236835.66   325%     -  354s
     0     0 6236693.70    0  408 -2775255.7 6236693.70   325%     -  357s
     0     0 6236435.36    0  414 -2775255.7 6236435.36   325%     -  358s
     0     0 6236410.62    0  417 -2775255.7 6236410.62   325%     -  359s
     0     0 6236157.92    0  415 -2775255.7 6236157.92   325%     -  361s
     0     0 6235092.62    0  415 -2775255.7 6235092.62   325%     -  365s
     0     0 6234931.67    0  409 -2775255.7 6234931.67   325%     -  366s
     0     0 6234787.89    0  417 -2775255.7 6234787.89   325%     -  367s
     0     0 6234786.85    0  417 -2775255.7 6234786.85   325%     -  367s
     0     0 6233031.48    0  436 -2775255.7 6233031.48   325%     -  370s
     0     0 6232938.89    0  434 -2775255.7 6232938.89   325%     -  374s
     0     0 6231438.71    0  427 -2775255.7 6231438.71   325%     -  377s
H    0     0                    -2352106.851 6231438.71   365%     -  393s
     0     0 6230968.27    0  437 -2352106.9 6230968.27   365%     -  394s
     0     0 6230955.37    0  435 -2352106.9 6230955.37   365%     -  395s
     0     0 6230904.54    0  433 -2352106.9 6230904.54   365%     -  396s
     0     0 6230894.66    0  431 -2352106.9 6230894.66   365%     -  398s
     0     0 6230554.70    0  431 -2352106.9 6230554.70   365%     -  400s
     0     0 6230554.70    0  430 -2352106.9 6230554.70   365%     -  443s
     0     2 6230554.70    0  428 -2352106.9 6230554.70   365%     -  453s
     1     4 6209859.15    1  440 -2352106.9 6221503.53   365%  6399  542s
     3     8 6203911.10    2  435 -2352106.9 6209859.15   364% 11974  601s
     7    12 6198436.95    3  433 -2352106.9 6203478.68   364% 10954  636s
    11    16 6194192.73    4  435 -2352106.9 6203478.68   364%  9098  675s
    15    18 6191175.87    5  432 -2352106.9 6203478.68   364%  9109  764s
    19    23 6184041.02    6  470 -2352106.9 6203478.68   364% 12028  799s
    23    23 6169192.27    7  459 -2352106.9 6203478.68   364% 11431  883s
H   28    27                    -1937354.027 6203478.68   420% 10350  925s
    32    36 5904225.62    8  416 -1937354.0 6203478.68   420% 10687  957s
    37    39 6052983.24    9  474 -1937354.0 6203478.68   420% 10609  990s
    41    38 6000898.02   10  452 -1937354.0 6203478.68   420% 11193 1028s
    47    49 5993228.94   11  452 -1937354.0 6203478.68   420% 10642 1084s
    54    55 5971371.13   13  461 -1937354.0 6203478.68   420% 10591 1108s
H   61    59                    -1937354.025 6203478.68   420%  9954 1136s
H   64    63                    -1937354.024 6203478.68   420%  9661 1136s
    67    69 5159927.36   15  403 -1937354.0 6203478.68   420% 10256 1224s
    76    77 5934257.63   16  429 -1937354.0 6203478.68   420%  9371 1247s
    84    86 5777829.32   18  402 -1937354.0 6203478.68   420%  9143 1295s
    96    98 5832878.63   19  426 -1937354.0 6203478.68   420%  8603 1344s
H   99   101                    -1867941.688 6203478.68   432%  8400 1344s
   101   103 5514952.25   19  410 -1867941.7 6203478.68   432%  8731 1410s
   109   107 5829567.17   20  437 -1867941.7 6203478.68   432%  8670 1457s
   122   123 5767464.64   24  456 -1867941.7 6203478.68   432%  8427 1585s
   135   139 5311566.61   25  389 -1867941.7 6203478.68   432%  8284 1639s
H  136   139                    -1619710.737 6203478.68   483%  8223 1639s
H  137   140                    -1296937.884 6203478.68   578%  8241 1639s
   141   141 5602673.56   26  411 -1296937.9 6203478.68   578%  8343 1712s
   152   152 5539244.72   28  432 -1296937.9 6203478.68   578%  8397 1794s
H  165   164                    -1009738.922 6203478.68   714%  8260 1835s
   177   179 5478789.24   31  441 -1009738.9 6203478.68   714%  8067 1892s
   192   192 5426288.55   33  445 -1009738.9 6203478.68   714%  7949 1965s
H  207   198                    -888052.6696 6203478.68   799%  7549 1965s
   224   226 5386421.36   39  418 -888052.67 6203478.68   799%  7167 2070s
H  244   247                    -888052.6691 6203478.68   799%  7127 2157s
H  245   247                    -888052.6685 6203478.68   799%  7170 2157s
H  257   259                    -800390.4016 6203478.68   875%  7152 2157s
   262   265 5266007.05   43  451 -800390.40 6203478.68   875%  7125 2269s
H  284   281                    -800390.4010 6203478.68   875%  7029 2342s
H  288   287                    -800390.4009 6203478.68   875%  6995 2342s
H  299   300                    -800390.4001 6203478.68   875%  6810 2342s
   315   318 5206585.20   48  425 -800390.40 6203478.68   875%  6700 2428s
   348   347 5109482.09   58  430 -800390.40 6203478.68   875%  6474 2500s
   374   375 5044134.88   61  424 -800390.40 6203478.68   875%  6331 2640s
   387   388 4956244.08   62  414 -800390.40 6203478.68   875%  6416 2723s
   414   418 4905742.87   66  426 -800390.40 6203478.68   875%  6255 2822s
   421   421 4465370.43   68  386 -800390.40 6203478.68   875%  6636 2907s
   452   453 4495715.61   70  432 -800390.40 6203478.68   875%  6468 3002s
   474   477 4407647.58   76  384 -800390.40 6203478.68   875%  6533 3090s
   505   503 4327916.53   78  433 -800390.40 6203478.68   875%  6447 3199s
   560   559 4167367.62   84  408 -800390.40 6203478.68   875%  6130 3328s
   588   589 4137904.66   89  391 -800390.40 6203478.68   875%  5919 3440s
   635   639 4088937.13  102  381 -800390.40 6203478.68   875%  5758 3545s
   655   657 4004263.31  110  367 -800390.40 6203478.68   875%  5911 3685s
   693   692 3918964.00  114  390 -800390.40 6203478.68   875%  5885 3798s
   753   755 3878074.18  120  430 -800390.40 6203478.68   875%  5712 3910s
H  771   764                    -430582.9829 6203478.68  1541%  5735 3910s
   797   795 3823990.17  127  426 -430582.98 6203478.68  1541%  5686 4036s
H  798   795                    -430582.9823 6203478.68  1541%  5679 4036s
H  809   806                    -430582.9819 6203478.68  1541%  5758 4036s
   827   817 3776848.09  130  460 -430582.98 6203478.68  1541%  5756 4127s
   890   881 3722551.79  134  466 -430582.98 6203478.68  1541%  5601 4214s
H  915   892                    -430582.9819 6203478.68  1541%  5558 4214s
   962   956 3631121.65  145  425 -430582.98 6203478.68  1541%  5435 4341s
  1017  1007 3568118.90  158  447 -430582.98 6203478.68  1541%  5450 4440s
  1067  1051 3396992.69  162  432 -430582.98 6203478.68  1541%  5432 4551s
  1143  1130 3365601.57  171  415 -430582.98 6203478.68  1541%  5339 4664s
  1237  1216 3220313.88  182  404 -430582.98 6203478.68  1541%  5143 4809s
H 1250  1229                    -430582.9815 6203478.68  1541%  5142 4809s
  1326  1293 2943076.21  194  416 -430582.98 6203478.68  1541%  5017 4982s
  1401  1363 2824888.87  230  409 -430582.98 6203478.68  1541%  4963 5192s
  1488  1452 2729195.50  258  333 -430582.98 6203478.68  1541%  4878 5342s
  1576  1523 2427107.73  312  191 -430582.98 6203478.68  1541%  4834 5459s
  1697  1648 775942.169  389  191 -430582.98 6189012.95  1537%  4688 5634s
H 1747  1669                    -325244.7978 6189012.95  2003%  4708 5634s
  1789  1714 3797020.67  127  430 -325244.80 6189012.95  2003%  4641 5839s
  1791  1715 2901333.06  123  355 -325244.80 6189012.95  2003%  4636 5956s
  1792  1716 4337916.84   53  367 -325244.80 6189012.95  2003%  4633 5988s
  1793  1717 3918947.84  115  365 -325244.80 6189012.95  2003%  4631 5997s
  1794  1717 3089373.00  241  370 -325244.80 6189012.95  2003%  4628 6007s
  1795  1718 6081657.97    9  377 -325244.80 6183222.06  2001%  4626 6013s
  1796  1719 5079393.96   41  383 -325244.80 6178850.23  2000%  4623 6017s
  1797  1719 2397826.53  295  398 -325244.80 6176526.70  1999%  4620 6022s
  1799  1721 4127325.91   95  395 -325244.80 6174446.55  1998%  4615 6025s
  1802  1723 2967380.88  190  418 -325244.80 6172903.65  1998%  4608 6030s
  1804  1724 2279191.42   52  432 -325244.80 6172500.09  1998%  4602 6036s
  1805  1725 1923412.46  258  459 -325244.80 6128874.69  1984%  4600 6070s
  1806  1725 4420261.76  167  458 -325244.80 6107456.85  1978%  4597 6080s
  1807  1726 2266305.21   53  443 -325244.80 6097764.46  1975%  4595 6087s
  1808  1727 946208.520  355  429 -325244.80 6095921.80  1974%  4592 6092s
  1809  1727 3675660.05  140  429 -325244.80 6095135.71  1974%  4590 6095s
  1810  1728 2579259.39   73  458 -325244.80 6094944.51  1974%  4587 6100s
  1811  1729 2730278.24  257  495 -325244.80 6067046.77  1965%  4585 6117s
  1812  1729 4624895.06  120  491 -325244.80 6048584.89  1960%  4582 6126s
  1813  1730 4004245.74  111  497 -325244.80 6034716.92  1955%  4580 6135s
  1814  1731 1779374.55  240  479 -325244.80 6028887.36  1954%  4577 6146s
  1815  1731 5195410.03   29  500 -325244.80 6026129.06  1953%  4575 6152s
  1817  1733 2561753.95  266  509 -325244.80 6025468.14  1953%  4570 6156s
  1819  1734 4278431.05   68  527 -325244.80 6024669.00  1952%  4564 6160s
  1821  1735 3834635.07  120  540 -325244.80 6011619.26  1948%  4559 6193s
  1822  1736 2893250.01  212  513 -325244.80 6003288.35  1946%  4557 6208s
  1823  1737 4825668.09   72  523 -325244.80 6001265.65  1945%  4554 6213s
  1824  1737 5403777.06    9  535 -325244.80 6000253.91  1945%  4552 6215s
  1825  1738 5371926.60   22  539 -325244.80 5998879.77  1944%  4549 6221s
  1827  1739 4049352.59   81  551 -325244.80 5998321.31  1944%  4544 6226s
  1828  1740 5130131.04   38  526 -325244.80 5982879.35  1940%  4542 6258s
  1829  1741 441014.757  371  550 -325244.80 5978501.25  1938%  4540 6263s
  1830  1741 1767929.89  242  543 -325244.80 5962275.62  1933%  4537 6270s
  1831  1742 2529618.77  164  568 -325244.80 5960079.99  1932%  4535 6275s
  1832  1743 4535965.98   47  551 -325244.80 5958397.14  1932%  4532 6280s
  1835  1745 532701.380  343  570 -325244.80 5956659.78  1931%  4525 6285s
  1837  1746 3057065.40  247  585 -325244.80 5956310.62  1931%  4520 6290s
  1838  1747 3374454.04  168  563 -325244.80 5950878.90  1930%  4517 6318s
  1839  1747 4380576.07   99  587 -325244.80 5946966.18  1928%  4515 6323s
  1840  1748 3906875.95  113  573 -325244.80 5945167.45  1928%  4512 6325s
  1842  1749 4465281.68   69  566 -325244.80 5942994.23  1927%  4507 6331s
  1843  1750 2029890.80  266  594 -325244.80 5941822.60  1927%  4505 6335s
  1845  1751 2539969.03  157  605 -325244.80 5941257.22  1927%  4500 6340s
  1846  1752 4484552.42  141  593 -325244.80 5939944.39  1926%  4498 6350s
  1849  1754 2429288.43  294  627 -325244.80 5938002.46  1926%  4490 6356s
  1851  1755 603538.488  317  609 -325244.80 5934331.58  1925%  4486 6375s
  1853  1757 4958846.93   59  619 -325244.80 5932647.47  1924%  4481 6380s
  1857  1759 4132537.74   38  619 -325244.80 5931005.11  1924%  4471 6387s
  1859  1761 2737299.84  194  601 -325244.80 5930529.02  1923%  4466 6393s
  1860  1761 1371028.83  298  603 -325244.80 5922214.15  1921%  4464 6408s
  1861  1762 5110091.55   26  600 -325244.80 5919337.67  1920%  4461 6411s
  1863  1763 5192745.20   30  617 -325244.80 5917066.80  1919%  4457 6417s
  1865  1765 2307959.45  216  616 -325244.80 5916399.06  1919%  4452 6430s
  1868  1767 3028974.68  252  616 -325244.80 5913762.53  1918%  4445 6453s
  1869  1767 5151921.00   56  619 -325244.80 5912979.92  1918%  4442 6455s
  1872  1769 5328496.12   12  629 -325244.80 5912097.65  1918%  4435 6461s
  1873  1770 4217132.44   30  605 -325244.80 5909887.34  1917%  4433 6480s
  1875  1771 2035577.19   69  580 -325244.80 5908109.30  1917%  4428 6485s
  1877  1773 3623145.24  150  607 -325244.80 5905960.02  1916%  4423 6503s
  1878  1773 3064485.71  245  603 -325244.80 5905137.28  1916%  4421 6505s
  1881  1775 4167330.67   84  600 -325244.80 5903969.94  1915%  4414 6511s
  1883  1777 5338833.87   16  594 -325244.80 5903443.64  1915%  4409 6528s
  1884  1777 2333355.51  204  620 -325244.80 5902687.67  1915%  4407 6530s
  1886  1779 3875559.31  116  616 -325244.80 5901940.76  1915%  4402 6556s
  1888  1780 916163.079  307  602 -325244.80 5901161.55  1914%  4398 6560s
  1890  1781 3175896.72  225  638 -325244.80 5900741.40  1914%  4393 6566s
  1891  1782 2901333.06  123  649 -325244.80 5897983.59  1913%  4391 6581s
  1893  1783 3918947.84  115  633 -325244.80 5897357.13  1913%  4386 6585s
  1895  1785 5897025.10    9  630 -325244.80 5897025.10  1913%  4381 6600s
  1897  1786 2397826.53  295  631 -325244.80 5896621.68  1913%  4377 6606s
  1902  1790 2967380.88  190  346 -325244.80 5896621.68  1913%  4554 6729s
  1903  1791 5527180.51   10  391 -325244.80 5896621.68  1913%  4551 6771s
  1904  1792 2279191.42   52  399 -325244.80 5896621.68  1913%  4549 6800s
  1905  1792 1923412.46  258  413 -325244.80 5896621.68  1913%  4547 6825s
  1906  1793 4420261.76  167  466 -325244.80 5896621.68  1913%  4544 6840s
  1907  1794 2266305.21   53  504 -325244.80 5896621.68  1913%  4542 6856s
  1908  1794 946208.520  355  488 -325244.80 5896621.68  1913%  4539 6869s
  1909  1795 3675660.05  140  441 -325244.80 5896621.68  1913%  4537 6881s
  1910  1796 2579259.39   73  504 -325244.80 5896621.68  1913%  4535 6887s
  1911  1796 2730278.24  257  526 -325244.80 5896621.68  1913%  4532 6891s
  1912  1797 4624895.06  120  513 -325244.80 5896621.68  1913%  4530 6897s
  1914  1798 1779374.55  240  538 -325244.80 5896621.68  1913%  4525 6905s
  1915  1799 5195410.03   29  562 -325244.80 5896621.68  1913%  4523 6911s
  1916  1800 3785607.83   40  567 -325244.80 5896621.68  1913%  4521 6916s
  1918  1801 5411934.74   21  577 -325244.80 5896621.68  1913%  4516 6922s
  1920  1802 4122852.57   75  559 -325244.80 5896621.68  1913%  4511 6925s
H 1921  1712                    -325244.7949 5896621.68  1913%  4509 6956s
  1924  1714 5403777.06    9  586 -325244.79 5896621.68  1913%  4502 6961s
  1928  1717 5130131.04   38  602 -325244.79 5896621.68  1913%  4492 6966s
  1931  1719 2529618.77  164  603 -325244.79 5895025.86  1912%  4485 6971s
  1933  1720 1370525.99  299  604 -325244.79 5889877.70  1911%  4481 6990s
  1935  1721 532701.380  343  636 -325244.79 5886898.34  1910%  4476 6995s
  1938  1723 3374454.04  168  633 -325244.79 5885655.43  1910%  4469 7001s
  1939  1724 4380576.07   99  639 -325244.79 5884031.61  1909%  4467 7014s
  1940  1725 3906875.95  113  649 -325244.79 5883566.25  1909%  4465 7017s
  1942  1726 4465281.68   69  635 -325244.79 5882792.18  1909%  4460 7020s
  1945  1728 2539969.03  157  644 -325244.79 5881907.10  1908%  4453 7027s
  1946  1729 4484552.42  141  623 -325244.79 5880973.47  1908%  4451 7039s
  1947  1729 4962321.76   64  631 -325244.79 5880133.72  1908%  4449 7041s
  1949  1731 2429288.43  294  622 -325244.79 5879472.85  1908%  4444 7047s
  1950  1731 3875876.94  118  611 -325244.79 5874538.28  1906%  4442 7077s
  1951  1732 603538.488  317  612 -325244.79 5872572.51  1906%  4439 7081s
  1953  1733 4958846.93   59  619 -325244.79 5871739.43  1905%  4435 7088s
  1954  1734 4436844.13  178  618 -325244.79 5871153.77  1905%  4433 7098s
  1955  1735 977632.017  302  633 -325244.79 5870218.32  1905%  4430 7101s
  1956  1735 3116767.63  237  631 -325244.79 5868612.44  1904%  4428 7106s
  1958  1737 1300237.02   92  623 -325244.79 5867871.57  1904%  4424 7112s
  1959  1737 2737299.84  194  602 -325244.79 5866861.79  1904%  4421 7124s
  1960  1738 1371028.83  298  632 -325244.79 5866766.92  1904%  4419 7127s
  1961  1739 5110091.55   26  624 -325244.79 5866225.78  1904%  4417 7138s
  1962  1739 908255.062  364  610 -325244.79 5865878.00  1904%  4415 7140s
  1964  1741 2893482.40  211  663 -325244.79 5865464.46  1903%  4410 7191s
  1966  1742 3058818.28  159  663 -325244.79 5865464.46  1903%  4406 7293s
  1967  1746 5860274.84   27  647 -325244.79 5860274.84  1902%  4558 7452s
  1969  1749 5697030.52   28  583 -325244.79 5857515.98  1901%  4573 7648s
  1973  1752 5690114.76   29  605 -325244.79 5841227.13  1896%  4591 7814s
  1977  1754 5379896.46   29  463 -325244.79 5806805.34  1885%  4611 7964s
  1981  1757 5689916.41   30  607 -325244.79 5806805.34  1885%  4638 8045s
  1985  1760 3451137.86   30  371 -325244.79 5799380.09  1883%  4677 8162s
  1989  1764 5689808.33   31  607 -325244.79 5776538.60  1876%  4691 8285s
  1997  1762 5689795.79   32  608 -325244.79 5774110.99  1875%  4726 8360s
  2003  1770 5678891.07   33  605 -325244.79 5771641.69  1875%  4746 8465s
  2009  1772 5658218.50   34  590 -325244.79 5769594.61  1874%  4781 8547s
  2015  1776 5325885.72   34  559 -325244.79 5766231.67  1873%  4821 8656s
  2022  1780 5541929.28   35  603 -325244.79 5745301.58  1866%  4851 8757s
  2028  1785 5480800.19   35  583 -325244.79 5737080.79  1864%  4892 8926s
  2035  1789 5526930.16   36  581 -325244.79 5733876.39  1863%  4958 9029s
  2043  1792 5482152.74   37  593 -325244.79 5733655.88  1863%  5008 9137s
  2052  1800 5479491.35   38  602 -325244.79 5688295.53  1849%  5042 9298s
  2062  1808 5453275.21   39  593 -325244.79 5666751.20  1842%  5079 9483s
  2071  1813 5440186.37   40  611 -325244.79 5650786.55  1837%  5139 9574s
  2080  1820 5425238.86   41  617 -325244.79 5611969.41  1825%  5164 9680s
  2087  1823 5421295.59   42  617 -325244.79 5611969.41  1825%  5225 9782s
  2096  1828 5371478.29   43  611 -325244.79 5611969.41  1825%  5281 9922s
  2109  1839 5369131.91   44  611 -325244.79 5611969.41  1825%  5317 10036s
  2116  1844 5368131.90   45  611 -325244.79 5611969.41  1825%  5367 10230s
  2131  1853 5368131.90   46  608 -325244.79 5611969.41  1825%  5424 10395s
  2147  1866 5338932.74   47  605 -325244.79 5611969.41  1825%  5477 10617s
  2157  1868 5334301.86   49  629 -325244.79 5611969.41  1825%  5595 10746s
  2174  1883 5332379.24   51  620 -325244.79 5611969.41  1825%  5634 10930s
  2188  1890 5300500.68   53  609 -325244.79 5611969.41  1825%  5704 11099s
  2205  1901 5293467.04   55  598 -325244.79 5611969.41  1825%  5756 11265s
  2225  1916 5271203.86   57  569 -325244.79 5611969.41  1825%  5807 11427s
  2248  1932 5261937.82   59  553 -325244.79 5611969.41  1825%  5864 11627s
  2261  1940 5250597.40   61  560 -325244.79 5611969.41  1825%  5984 11793s
  2284  1954 5250553.58   62  543 -325244.79 5611969.41  1825%  5993 11984s
  2311  1975 5082123.20   63  586 -325244.79 5611969.41  1825%  6025 12176s
  2330  1985 5207996.17   66  560 -325244.79 5611969.41  1825%  6078 12430s
  2356  2005 5105041.05   69  570 -325244.79 5611969.41  1825%  6135 12649s
  2382  2019 5091894.88   72  576 -325244.79 5611969.41  1825%  6193 12909s
  2403  2028 5074775.83   74  568 -325244.79 5611969.41  1825%  6259 13148s
  2440  2061 5012108.21   75  534 -325244.79 5611969.41  1825%  6291 13420s
  2477  2076 4991965.16   79  544 -325244.79 5611969.41  1825%  6326 13740s
  2513  2101 4226690.64   81  486 -325244.79 5611969.41  1825%  6414 14030s
  2534  2112 4984875.23   83  543 -325244.79 5611969.41  1825%  6494 14323s
  2567  2139 4872509.49   86  556 -325244.79 5611969.41  1825%  6561 14616s
  2605  2155 4812295.96   89  538 -325244.79 5611969.41  1825%  6625 14939s
  2655  2192 4780149.69   92  505 -325244.79 5611969.41  1825%  6650 15299s
  2707  2219 4760782.27   94  509 -325244.79 5611969.41  1825%  6707 15616s
  2770  2247 4282289.29   98  465 -325244.79 5611969.41  1825%  6711 15942s
  2836  2276 4583695.52  101  421 -325244.79 5611969.41  1825%  6696 16257s
  2877  2291 3753130.43  104  364 -325244.79 5611969.41  1825%  6753 16494s
  2949  2338 4161503.69  107  338 -325244.79 5611969.41  1825%  6745 16730s
  3026  2381 4376894.12  112  473 -325244.79 5611969.41  1825%  6696 16971s
  3100  2423 4157770.98  117  462 -325244.79 5611969.41  1825%  6701 17228s
  3171  2467 4085508.70  122  455 -325244.79 5611969.41  1825%  6720 17621s
  3259  2527 4012589.29  128  456 -325244.79 5611969.41  1825%  6692 18058s
  3346  2580 3966087.67  133  459 -325244.79 5611969.41  1825%  6688 18532s
  3464  2654 3923187.07  139  464 -325244.79 5611969.41  1825%  6637 18951s
  3593  2722 3890088.03  145  462 -325244.79 5611969.41  1825%  6554 19441s
  3663  2758 3779378.99  154  454 -325244.79 5611969.41  1825%  6620 19801s
  3736  2791 3743453.66  158  462 -325244.79 5611969.41  1825%  6687 20294s
  3857  2840 3681519.90  166  406 -325244.79 5611969.41  1825%  6710 20751s
  3950  2872 3666633.91  174  414 -325244.79 5611969.41  1825%  6768 21198s
  4097  2881 3583807.48  182  385 -325244.79 5611969.41  1825%  6671 21698s
  4267  2890 3517999.94  191  389 -325244.79 5611969.41  1825%  6580 22216s
  4390  2969 3476758.02  200  374 -325244.79 5611969.41  1825%  6588 22782s
  4492  3028 3032802.27  212  379 -325244.79 5611969.41  1825%  6637 23371s
  4642  3111 2484774.51  222  349 -325244.79 5611969.41  1825%  6629 24011s
  4856  3227 2185039.51  239  314 -325244.79 5611969.41  1825%  6563 24620s
  5124  3367 2139685.19  255  358 -325244.79 5611969.41  1825%  6436 25211s
  5379  3485 2013446.02  271  367 -325244.79 5611969.41  1825%  6327 25801s
  5643  3552 1979037.84  283  367 -325244.79 5611969.41  1825%  6251 26297s
  5911  3607 1953120.48  302  339 -325244.79 5611969.41  1825%  6176 26894s
  6356  3748     cutoff  321      -325244.79 5611969.41  1825%  5934 27274s
  6695  3949 1647357.93  353  224 -325244.79 5611969.41  1825%  5777 27674s
  7106  4102     cutoff  438      -325244.79 5605198.77  1823%  5612 28112s
  7507  4397 3690498.21   52  419 -325244.79 5605198.77  1823%  5439 28558s
  7758  4623 2257180.14  137  318 -325244.79 5542963.28  1804%  5398 29012s
H 7873  4623                    -325244.7809 5542963.28  1804%  5342 29012s
H 8106  4936                    -285177.2643 5493605.59  2026%  5265 29012s
  8139  4969 5386253.45   34  569 -285177.26 5493605.59  2026%  5273 29541s
H 8307  5109                    -239085.2664 5493605.59  2398%  5264 29541s
H 8459  5239                    -239085.2659 5493605.59  2398%  5205 30181s
H 8481  5215                    -163940.1983 5493605.59  3451%  5222 30181s
H 8607  5284                    -108391.6186 5493605.59  5168%  5181 30181s
  8735  5409 3417824.25   61  364 -108391.62 5493605.59  5168%  5180 30739s
H 8757  5432                    -108391.6182 5493605.59  5168%  5186 30739s
H 8814  5487                    -108391.6167 5493605.59  5168%  5179 30739s
  8940  5609 3463027.38   80  473 -108391.62 5493605.59  5168%  5168 31477s
  9396  6018 1515791.23  130  338 -108391.62 5423733.07  5104%  5042 32278s
H 9859  6420                    -108391.6164 5420568.02  5101%  4887 32278s
  9969  6534 5282169.40   37  577 -108391.62 5420568.02  5101%  4907 33091s
 10394  6921 2925681.52   81  444 -108391.62 5408178.62  5089%  4833 33970s
 10755  7259 4371407.43   49  508 -108391.62 5381291.09  5065%  4813 34764s
 11140  7581 4669661.08   44  472 -108391.62 5372843.79  5057%  4796 35695s
H11627  8023                    -108391.6159 5358960.74  5044%  4713 35695s
 11649  8033 5085282.35   36  461 -108391.62 5358960.74  5044%  4735 36712s
 11986  8212 4756310.29   48  430 -108391.62 5358960.74  5044%  4755 37768s
 12227  8441 4208988.60   61  437 -108391.62 5358960.74  5044%  4803 38874s
 12383  8576 3526831.29  129  431 -108391.62 5358960.74  5044%  4796 38875s
 12602  8777 3762383.12   75  400 -108391.62 5358960.74  5044%  4775 39964s
 12913  9074 3079381.16   91  429 -108391.62 5358960.74  5044%  4802 40972s
 13320  9409 1153653.16  115  290 -108391.62 5358960.74  5044%  4798 42044s
 13878  9864 1732961.01  153  384 -108391.62 5358960.74  5044%  4757 42909s
 14417 10332 1554689.07  192  336 -108391.62 5358960.74  5044%  4701 43887s
 14956 10684     cutoff  273      -108391.62 5324205.88  5012%  4659 44788s
 15414 11004 5115047.57   48  550 -108391.62 5320605.23  5009%  4632 45692s
 16009 11510 4474887.09   41  524 -108391.62 5310498.44  4999%  4572 46704s
 16713 12095 5252672.68   39  611 -108391.62 5308178.29  4997%  4484 47494s
H16720 12095                    -108391.5634 5308178.29  4997%  4485 47494s
 17273 12592 3922302.38   90  402 -108391.56 5300491.58  4990%  4422 48296s
 17934 13216 4135656.83   48  426 -108391.56 5292143.39  4982%  4346 49129s
 18392 13634 1028337.35   80  284 -108391.56 5289318.51  4980%  4313 49992s
 18831 14006 3607973.86   47  382 -108391.56 5281362.02  4972%  4296 50701s
 19270 14368 2658817.90   67  339 -108391.56 5281362.02  4972%  4277 51523s
 19811 14871 1639178.93   94  261 -108391.56 5281362.02  4972%  4237 52262s
 20195 15208 1169229.71  131  313 -108391.56 5267537.06  4960%  4228 53145s
 20815 15750 3142213.74   79  430 -108391.56 5266024.14  4958%  4173 58860s
 20817 15751 404873.335  308  324 -108391.56 5266024.14  4958%  4173 58921s
 20818 15752 4870492.19   51  389 -108391.56 5266024.14  4958%  4173 58944s
 20819 15753 3175178.48  121  412 -108391.56 5266024.14  4958%  4172 58970s
 20820 15753 2665897.05  131  459 -108391.56 5266024.14  4958%  4172 58981s
 20821 15754 2999325.30   50  449 -108391.56 5266024.14  4958%  4172 58997s
 20822 15755 3071219.62   65  433 -108391.56 5266024.14  4958%  4172 59009s
 20823 15755 2029060.56  107  430 -108391.56 5266024.14  4958%  4172 59017s
 20824 15756 1371025.16  239  418 -108391.56 5266024.14  4958%  4171 59024s
 20825 15757 704244.667  175  440 -108391.56 5266024.14  4958%  4171 59030s
 20826 15757 4082667.92   40  473 -108391.56 5266024.14  4958%  4171 59037s
 20827 15758 1101572.58  116  502 -108391.56 5266024.14  4958%  4171 59047s
 20828 15759 2452970.77  119  482 -108391.56 5266024.14  4958%  4171 59053s
 20829 15759 2896709.48  112  473 -108391.56 5266024.14  4958%  4170 59056s
 20830 15760 5105524.65   47  500 -108391.56 5266024.14  4958%  4170 59060s
 20832 15761 923234.950   66  494 -108391.56 5266024.14  4958%  4170 59065s
 20834 15763 714786.559  189  520 -108391.56 5266024.14  4958%  4169 59070s
 20836 15764 1154393.20  189  505 -108391.56 5266024.14  4958%  4169 59080s
 20839 15766 4665344.38   52  525 -108391.56 5266024.14  4958%  4168 59087s
 20840 15767 1202036.35  224  521 -108391.56 5266024.14  4958%  4168 59174s
 20841 15767 2554957.95   99  542 -108391.56 5266024.14  4958%  4168 59176s
 20843 15769 1373372.40  101  525 -108391.56 5266024.14  4958%  4168 59182s
 20845 15770 1635893.30  176  553 -108391.56 5266024.14  4958%  4167 59187s
 20847 15771 1418398.05  207  550 -108391.56 5266024.14  4958%  4167 59194s
 20848 15772 2049696.94  252  562 -108391.56 5266024.14  4958%  4167 59196s
 20851 15774 638645.172  112  562 -108391.56 5266024.14  4958%  4166 59200s
 20852 15775 2994583.10   57  564 -108391.56 5266024.14  4958%  4166 59241s
 20853 15775 377474.213  224  529 -108391.56 5266024.14  4958%  4166 59352s
 20854 15776 4460950.45   73  519 -108391.56 5266024.14  4958%  4165 59366s
 20855 15777 2357789.95  126  515 -108391.56 5266024.14  4958%  4165 59373s
 20856 15777 1612329.21  188  535 -108391.56 5266024.14  4958%  4165 59376s
 20857 15778 3763836.76   84  547 -108391.56 5266024.14  4958%  4165 59380s
 20859 15779 1742332.53   79  530 -108391.56 5266024.14  4958%  4164 59386s
 20860 15780 1296094.93  167  517 -108391.56 5266024.14  4958%  4164 59390s
 20862 15781 3630156.29   53  561 -108391.56 5266024.14  4958%  4164 59395s
 20863 15782 251577.252  184  563 -108391.56 5266024.14  4958%  4164 59441s
 20864 15783 1394355.47  100  539 -108391.56 5266024.14  4958%  4163 59505s
 20865 15783 366818.842   71  549 -108391.56 5266024.14  4958%  4163 59510s
 20866 15784 547479.864  299  545 -108391.56 5266024.14  4958%  4163 59518s
 20867 15785 2872108.26  177  536 -108391.56 5266024.14  4958%  4163 59523s
 20868 15785 2299192.40  113  556 -108391.56 5266024.14  4958%  4163 59526s
 20869 15786 1821766.20   71  542 -108391.56 5266024.14  4958%  4162 59530s
 20870 15787 1438162.54  220  545 -108391.56 5266024.14  4958%  4162 59536s
 20872 15788 1402894.03   90  540 -108391.56 5266024.14  4958%  4162 59582s
 20873 15789 1036341.82  110  587 -108391.56 5266024.14  4958%  4162 59686s
 20874 15789 1157035.46  227  598 -108391.56 5266024.14  4958%  4161 59690s
 20876 15791 456490.440  251  530 -108391.56 5266024.14  4958%  4161 59696s
 20878 15792 4648592.70   64  548 -108391.56 5266024.14  4958%  4161 59744s
 20879 15793 1826439.81  132  565 -108391.56 5266024.14  4958%  4160 59810s
 20880 15793 312093.111  246  553 -108391.56 5266024.14  4958%  4160 59820s
 20882 15795 1457941.96  291  559 -108391.56 5266024.14  4958%  4160 59826s
 20883 15795 799076.014  350  589 -108391.56 5266024.14  4958%  4160 59830s
 20884 15796 2130818.94  105  569 -108391.56 5266024.14  4958%  4159 59836s
 20887 15798 668793.237  253  581 -108391.56 5266024.14  4958%  4159 59840s
 20888 15799 1753188.22  189  588 -108391.56 5266024.14  4958%  4159 59870s
 20889 15799 2739344.01   67  539 -108391.56 5266024.14  4958%  4158 59916s
 20890 15800 716744.755  151  516 -108391.56 5266024.14  4958%  4158 59921s
 20891 15801 3470688.99   48  526 -108391.56 5266024.14  4958%  4158 59925s
 20893 15802 4155319.82   57  572 -108391.56 5266024.14  4958%  4158 59930s
 20896 15804 1627953.18  138  562 -108391.56 5266024.14  4958%  4157 59936s
 20898 15805 1725632.54  170  579 -108391.56 5266024.14  4958%  4157 59971s
 20899 15806 1314644.67  192  567 -108391.56 5266024.14  4958%  4156 60022s
 20900 15807 2462158.85  160  555 -108391.56 5266024.14  4958%  4156 60025s
 20901 15807 3277037.09   92  564 -108391.56 5266024.14  4958%  4156 60030s
 20903 15809 2020738.23   59  581 -108391.56 5266024.14  4958%  4156 60036s
 20905 15810 1256971.74   86  599 -108391.56 5266024.14  4958%  4155 60074s
 20906 15811 1934822.21  206  589 -108391.56 5266024.14  4958%  4155 60106s
 20908 15812 1953036.84   95  589 -108391.56 5266024.14  4958%  4155 60111s
 20910 15813 1336770.35  224  597 -108391.56 5266024.14  4958%  4154 60115s
 20911 15814 606740.140  187  533 -108391.56 5266024.14  4958%  4154 60124s
 20912 15815 3038267.07  118  554 -108391.56 5266024.14  4958%  4154 60125s
 20914 15816 1426532.58  188  585 -108391.56 5266024.14  4958%  4153 60130s
 20916 15817 248981.705  197  603 -108391.56 5266024.14  4958%  4153 60161s
 20917 15818 404873.335  308  579 -108391.56 5266024.14  4958%  4153 60193s
 20918 15819 4870492.19   51  549 -108391.56 5266024.14  4958%  4153 60197s
 20920 15820 2665897.05  131  588 -108391.56 5266024.14  4958%  4152 60201s
 20921 15821 2999325.30   50  603 -108391.56 5266024.14  4958%  4152 60205s
 20923 15822 2029060.56  107  619 -108391.56 5266024.14  4958%  4152 60210s
 20925 15823 704244.667  175  571 -108391.56 5266024.14  4958%  4151 60215s
 20926 15824 4082667.92   40  589 -108391.56 5266024.14  4958%  4151 60245s
 20927 15825 1101572.58  116  552 -108391.56 5256186.00  4949%  4151 60315s
 20928 15825 2452970.77  119  517 -108391.56 5251827.26  4945%  4151 60321s
 20929 15826 2896709.48  112  544 -108391.56 5245016.24  4939%  4150 60325s
 20930 15827 5105524.65   47  550 -108391.56 5233498.51  4928%  4150 60332s
 20932 15828 923234.950   66  584 -108391.56 5231450.30  4926%  4150 60336s
 20934 15829 714786.559  189  597 -108391.56 5229478.24  4925%  4149 60341s
 20936 15831 1154393.20  189  617 -108391.56 5227910.59  4923%  4149 60346s
 20939 15833 4665344.38   52  612 -108391.56 5225889.41  4921%  4148 60351s
 20941 15834 2554957.95   99  626 -108391.56 5224787.29  4920%  4148 60355s
 20943 15835 1373372.40  101  625 -108391.56 5222711.42  4918%  4148 60362s
 20945 15837 1635893.30  176  622 -108391.56 5222270.76  4918%  4147 60394s
 20946 15837 673642.434  219  618 -108391.56 5214131.45  4910%  4147 60431s
 20947 15838 1418398.05  207  617 -108391.56 5212452.33  4909%  4147 60435s
 20950 15840 2169406.35  116  599 -108391.56 5211274.00  4908%  4146 60470s
 20951 15841 638645.172  112  608 -108391.56 5209534.38  4906%  4146 60501s
 20953 15842 377474.213  224  635 -108391.56 5208296.16  4905%  4146 60505s
 20955 15843 2357789.95  126  613 -108391.56 5205869.91  4903%  4145 60510s
 20957 15845 3763836.76   84  633 -108391.56 5205163.38  4902%  4145 60544s
 20958 15845 891897.916  219  637 -108391.56 5202345.67  4900%  4145 60610s
 20961 15847 1042321.03  127  627 -108391.56 5201453.44  4899%  4144 60642s
 20962 15848 3630156.29   53  536 -108391.56 5155963.49  4857%  4144 60690s
 20964 15849 1394355.47  100  517 -108391.56 5153382.61  4854%  4143 60695s
 20966 15851 547479.864  299  532 -108391.56 5152499.23  4854%  4143 60725s
 20967 15851 2872108.26  177  540 -108391.56 5151641.88  4853%  4143 60761s
 20969 15853 1821766.20   71  554 -108391.56 5150377.77  4852%  4142 60766s
 20970 15853 1438162.54  220  544 -108391.56 5150225.86  4852%  4142 60794s
 20971 15854 699043.218  285  546 -108391.56 5140473.44  4843%  4142 60856s
 20973 15855 1036341.82  110  544 -108391.56 5138445.72  4841%  4142 60862s
 20974 15856 1157035.46  227  529 -108391.56 5137481.37  4840%  4141 60865s
 20976 15857 456490.440  251  567 -108391.56 5136538.27  4839%  4141 60899s
 20977 15858 241303.429  141  589 -108391.56 5134345.09  4837%  4141 60932s
 20979 15859 1826439.81  132  601 -108391.56 5133594.59  4836%  4141 60935s
 20980 15860 312093.111  246  604 -108391.56 5133449.57  4836%  4140 60967s
 20981 15861 960101.065  200  575 -108391.56 5128326.25  4831%  4140 61000s
 20982 15861 1457941.96  291  575 -108391.56 5124672.56  4828%  4140 61005s
 20983 15862 799076.014  350  574 -108391.56 5124466.42  4828%  4140 61033s
 20984 15863 2130818.94  105  565 -108391.56 5120933.21  4824%  4140 61089s
 20985 15863 1603183.97  282  578 -108391.56 5120298.32  4824%  4139 61092s
 20987 15865 668793.237  253  598 -108391.56 5119630.20  4823%  4139 61095s
 20989 15866 2739344.01   67  575 -108391.56 5119321.89  4823%  4139 61126s
 20990 15867 716744.755  151  552 -108391.56 5118573.77  4822%  4138 61161s
 20991 15867 3470688.99   48  588 -108391.56 5117244.51  4821%  4138 61165s
 20993 15869 4155319.82   57  582 -108391.56 5116900.57  4821%  4138 61192s
 20994 15869 2604085.48   76  566 -108391.56 5114431.72  4818%  4138 61224s
 20995 15870 2460707.27   86  551 -108391.56 5113947.36  4818%  4137 61226s
 20997 15871 3373173.62  111  567 -108391.56 5113540.92  4818%  4137 61255s
 20998 15872 1725632.54  170  603 -108391.56 5105947.26  4811%  4137 61290s
 21001 15874 3277037.09   92  591 -108391.56 5104188.37  4809%  4136 61321s
 21002 15875 1654594.14   90  599 -108391.56 5103853.57  4809%  4136 61353s
 21003 15875 2020738.23   59  609 -108391.56 5103571.40  4808%  4136 61355s
 21006 15877 1934822.21  206  601 -108391.56 5100995.37  4806%  4135 61361s
 21008 15879 1953036.84   95  610 -108391.56 5100533.37  4806%  4135 61392s
 21009 15879 3433305.47  138  606 -108391.56 5100044.75  4805%  4135 61422s
 21011 15881 606740.140  187  606 -108391.56 5099447.08  4805%  4134 61452s
 21012 15881 3038267.07  118  601 -108391.56 5092714.79  4798%  4134 61490s
 21014 15883 1426532.58  188  604 -108391.56 5091807.81  4798%  4134 61524s
 21015 15883 3142213.74   79  608 -108391.56 5090965.06  4797%  4133 61556s
 21018 15885 4870492.19   51  604 -108391.56 5090360.65  4796%  4133 61587s
 21019 15886 3175178.48  121  582 -108391.56 5087483.11  4794%  4133 61639s
 21020 15887 2665897.05  131  584 -108391.56 5086538.78  4793%  4132 61641s
 21021 15887 2999325.30   50  590 -108391.56 5086397.62  4793%  4132 61670s
 21022 15888 3071219.62   65  594 -108391.56 5084662.63  4791%  4132 61730s
 21025 15890 704244.667  175  611 -108391.56 5083806.73  4790%  4131 61767s
 21026 15891 4082667.92   40  617 -108391.56 5082693.29  4789%  4131 61803s
 21028 15892 2452970.77  119  591 -108391.56 5081582.94  4788%  4131 61806s
 21029 15893 2896709.48  112  581 -108391.56 5080152.20  4787%  4131 61810s
 21030 15893 5080005.68   47  587 -108391.56 5080005.68  4787%  4130 61843s
 21031 15894 3739166.91   67  586 -108391.56 5079003.02  4786%  4130 61892s
 21033 15895 1241716.52  218  595 -108391.56 5078679.13  4785%  4130 61926s
 21034 15896 714786.559  189  609 -108391.56 5076330.83  4783%  4130 61985s
 21036 15897 1154393.20  189  597 -108391.56 5072169.62  4779%  4129 61991s
 21038 15899 3205007.78   74  599 -108391.56 5071636.18  4779%  4129 61995s
 21039 15899 4665344.38   52  605 -108391.56 5071540.86  4779%  4129 62021s
 21040 15900 1202036.35  224  619 -108391.56 5070136.96  4778%  4129 62054s
 21041 15901 2554957.95   99  614 -108391.56 5069722.25  4777%  4128 62056s
 21042 15901 4229529.20   43  609 -108391.56 5069538.28  4777%  4128 62086s
 21043 15902 1373372.40  101  609 -108391.56 5067819.60  4775%  4128 62148s
 21044 15903 1208422.92  196  598 -108391.56 5067531.59  4775%  4128 62150s
 21047 15905 1418398.05  207  609 -108391.56 5066917.37  4775%  4127 62181s
 21048 15905 2049696.94  252  611 -108391.56 5058938.72  4767%  4127 62219s
 21049 15906 3021310.69  121  594 -108391.56 5058105.26  4767%  4127 62224s
 21050 15907 2169406.35  116  590 -108391.56 5057931.26  4766%  4127 62252s
 21051 15907 638645.172  112  610 -108391.56 5057250.52  4766%  4126 62284s
 21052 15908 2994583.10   57  608 -108391.56 5056816.63  4765%  4126 62287s
 21053 15909 377474.213  224  611 -108391.56 5056695.22  4765%  4126 62317s
 21054 15909 4460950.45   73  616 -108391.56 5056155.24  4765%  4126 62348s
 21055 15910 2357789.95  126  605 -108391.56 5056071.09  4765%  4126 62375s
 21056 15911 1612329.21  188  639 -108391.56 5053565.08  4762%  4125 62407s
 21057 15911 3763836.76   84  633 -108391.56 5053489.86  4762%  4125 62437s
 21058 15912 891897.916  219  608 -108391.56 5051601.50  4761%  4125 62468s
 21059 15913 1742332.53   79  620 -108391.56 5050728.09  4760%  4125 62471s
 21060 15913 1296094.93  167  602 -108391.56 5050558.90  4760%  4125 62501s
 21061 15914 1042321.03  127  575 -108391.56 5046647.81  4756%  4124 62540s
 21063 15915 251577.252  184  561 -108391.56 5045519.13  4755%  4124 62570s
 21064 15916 1394355.47  100  586 -108391.56 5043749.80  4753%  4124 62601s
 21065 15917 366818.842   71  599 -108391.56 5043109.53  4753%  4124 62605s
 21067 15918 2872108.26  177  604 -108391.56 5042224.10  4752%  4123 62611s
 21069 15919 1821766.20   71  618 -108391.56 5041895.45  4752%  4123 62643s
 21070 15920 1438162.54  220  601 -108391.56 5031176.50  4742%  4123 62677s
 21071 15921 699043.218  285  589 -108391.56 5029814.86  4740%  4122 62680s
 21073 15922 1036341.82  110  605 -108391.56 5029396.74  4740%  4122 62711s
 21074 15923 1157035.46  227  627 -108391.56 5028180.67  4739%  4122 62742s
 21075 15923 145414.766  140  593 -108391.56 5027411.11  4738%  4122 62745s
 21078 15925 4648592.70   64  625 -108391.56 5026028.07  4737%  4121 62750s
 21079 15926 1826439.81  132  618 -108391.56 5025871.33  4737%  4121 62779s
 21080 15927 312093.111  246  619 -108391.56 5025127.98  4736%  4121 62809s
 21081 15927 960101.065  200  620 -108391.56 5024933.52  4736%  4120 62840s
 21082 15928 1457941.96  291  609 -108391.56 5023785.80  4735%  4120 62873s
 21083 15929 799076.014  350  613 -108391.56 5023215.91  4734%  4120 62876s
 21085 15930 1603183.97  282  607 -108391.56 5022790.53  4734%  4120 62908s
 21086 15931 1929803.07  117  605 -108391.56 5016589.04  4728%  4119 62944s
 21087 15931 668793.237  253  600 -108391.56 5015652.39  4727%  4119 62946s
 21090 15933 716744.755  151  631 -108391.56 5014327.50  4726%  4119 62951s
 21092 15935 4272521.37   53  636 -108391.56 5013765.92  4726%  4118 62982s
 21093 15935 4155319.82   57  621 -108391.56 5013038.14  4725%  4118 63013s
 21095 15937 2460707.27   86  595 -108391.56 5012286.94  4724%  4118 63015s
 21096 15937 1627953.18  138  628 -108391.56 5012160.55  4724%  4118 63044s
 21097 15938 3373173.62  111  636 -108391.56 5010474.58  4723%  4117 63080s
 21099 15939 1314644.67  192  634 -108391.56 5009180.03  4721%  4117 63112s
 21100 15940 2462158.85  160  622 -108391.56 5007718.65  4720%  4117 63147s
 21102 15941 1654594.14   90  623 -108391.56 5006972.42  4719%  4116 63180s
 21103 15942 2020738.23   59  629 -108391.56 5005086.19  4718%  4116 63213s
 21104 15943 2715083.10   92  642 -108391.56 5004321.44  4717%  4116 63215s
 21106 15944 1934822.21  206  640 -108391.56 5000950.00  4714%  4116 63222s
 21107 15945 1045429.05  312  643 -108391.56 5000827.83  4714%  4115 63254s
 21108 15945 1953036.84   95  648 -108391.56 5000476.93  4713%  4115 63292s
 21109 15946 3433305.47  138  643 -108391.56 5000336.73  4713%  4115 63329s
 21110 15947 1336770.35  224  648 -108391.56 4999609.52  4713%  4115 63366s
 21111 15947 606740.140  187  650 -108391.56 4999488.80  4712%  4115 63397s
 21112 15948 3038267.07  118  643 -108391.56 4999080.24  4712%  4114 63430s
 21114 15949 1426532.58  188  646 -108391.56 4998327.93  4711%  4114 63435s
 21116 15951 248981.705  197  618 -108391.56 4997905.99  4711%  4114 63466s
 21117 15951 404873.335  308  619 -108391.56 4994851.90  4708%  4113 63529s
 21118 15952 4870492.19   51  616 -108391.56 4993916.74  4707%  4113 63533s
 21119 15953 3175178.48  121  623 -108391.56 4993217.95  4707%  4113 63536s
 21120 15953 2665897.05  131  624 -108391.56 4993039.62  4706%  4113 63566s
 21121 15954 2999325.30   50  636 -108391.56 4989072.32  4703%  4113 63602s
 21123 15955 2029060.56  107  640 -108391.56 4987522.24  4701%  4112 63607s
 21125 15957 704244.667  175  634 -108391.56 4986892.74  4701%  4112 63612s
 21126 15957 4082667.92   40  640 -108391.56 4986737.58  4701%  4112 63639s
 21127 15958 1101572.58  116  640 -108391.56 4985731.01  4700%  4112 63684s
 21128 15959 2452970.77  119  623 -108391.56 4984587.28  4699%  4111 63691s
 21130 15960 4983755.30   47  650 -108391.56 4983755.30  4698%  4111 63697s
 21131 15961 3739166.91   67  652 -108391.56 4983295.93  4697%  4111 63700s
 21132 15961 923234.950   66  657 -108391.56 4983132.74  4697%  4111 63753s
 21133 15962 1241716.52  218  643 -108391.56 4982172.04  4696%  4110 63800s
 21134 15963 714786.559  189  642 -108391.56 4969014.12  4684%  4110 63815s
 21135 15963 2453150.65   78  640 -108391.56 4968024.07  4683%  4110 63820s
 21136 15964 1154393.20  189  641 -108391.56 4967830.32  4683%  4110 63863s
 21137 15965 739117.363  189  658 -108391.56 4967315.43  4683%  4110 63909s
 21138 15965 3205007.78   74  676 -108391.56 4967147.17  4683%  4109 63944s
 21139 15966 4665344.38   52  666 -108391.56 4966927.36  4682%  4109 63993s
 21140 15967 1202036.35  224  652 -108391.56 4965669.41  4681%  4109 63999s
 21141 15967 2554957.95   99  652 -108391.56 4965170.35  4681%  4109 64003s
 21142 15968 4229529.20   43  657 -108391.56 4964953.06  4681%  4109 64006s
 21143 15969 1373372.40  101  648 -108391.56 4964823.59  4680%  4108 64049s
 21144 15969 1208422.92  196  631 -108391.56 4964024.92  4680%  4108 64084s
 21145 15970 1635893.30  176  633 -108391.56 4963854.57  4680%  4108 64113s
 21146 15971 673642.434  219  640 -108391.56 4963681.55  4679%  4108 64150s
 21149 15973 3021310.69  121  640 -108391.56 4962991.30  4679%  4107 64184s
 21150 15973 2169406.35  116  648 -108391.56 4962632.90  4678%  4107 64215s
 21151 15974 638645.172  112  652 -108391.56 4962495.04  4678%  4107 64245s
 21152 15975 2994583.10   57  652 -108391.56 4962327.15  4678%  4107 64279s
 21153 15975 377474.213  224  644 -108391.56 4962187.09  4678%  4106 64308s
 21154 15976 4460950.45   73  636 -108391.56 4958337.45  4674%  4106 64342s
 21155 15977 2357789.95  126  625 -108391.56 4958129.60  4674%  4106 64345s
 21157 15978 3763836.76   84  641 -108391.56 4957731.87  4674%  4106 64381s
 21158 15979 891897.916  219  629 -108391.56 4956289.69  4673%  4105 64416s
 21159 15979 1742332.53   79  627 -108391.56 4955062.33  4671%  4105 64420s
 21161 15981 1042321.03  127  636 -108391.56 4954207.41  4671%  4105 64426s
 21162 15981 3630156.29   53  625 -108391.56 4954136.94  4671%  4105 64454s
 21163 15982 251577.252  184  635 -108391.56 4953829.60  4670%  4105 64497s
 21164 15983 1394355.47  100  638 -108391.56 4953770.64  4670%  4104 64526s
 21165 15983 366818.842   71  633 -108391.56 4953246.31  4670%  4104 64573s
 21166 15984 547479.864  299  624 -108391.56 4953118.48  4670%  4104 64615s
 21167 15985 2872108.26  177  633 -108391.56 4952999.75  4670%  4104 64660s
 21168 15985 2299192.40  113  618 -108391.56 4952878.98  4669%  4104 64692s
 21169 15986 1821766.20   71  624 -108391.56 4952790.22  4669%  4103 64726s
 21170 15987 1438162.54  220  629 -108391.56 4952745.83  4669%  4103 64753s
 21171 15987 699043.218  285  623 -108391.56 4952667.27  4669%  4103 64783s
 21172 15988 1402894.03   90  628 -108391.56 4952622.70  4669%  4103 64813s
 21173 15989 1036341.82  110  629 -108391.56 4952156.22  4669%  4103 64846s
 21175 15990 145414.766  140  637 -108391.56 4951864.79  4668%  4102 64875s
 21176 15991 456490.440  251  631 -108391.56 4951607.51  4668%  4102 64905s
 21178 15992 4648592.70   64  645 -108391.56 4951324.98  4668%  4102 64937s
 21179 15993 1826439.81  132  626 -108391.56 4944681.52  4662%  4101 64981s
 21180 15993 312093.111  246  652 -108391.56 4944498.27  4662%  4101 65012s
 21181 15994 960101.065  200  640 -108391.56 4944007.52  4661%  4101 65046s
 21182 15995 1457941.96  291  630 -108391.56 4943822.17  4661%  4101 65077s
 21183 15995 799076.014  350  635 -108391.56 4943293.18  4661%  4101 65112s
 21184 15996 2130818.94  105  624 -108391.56 4943006.96  4660%  4100 65115s
 21185 15997 1603183.97  282  641 -108391.56 4942897.08  4660%  4100 65148s
 21186 15997 1929803.07  117  651 -108391.56 4942692.36  4660%  4100 65197s
 21187 15998 668793.237  253  653 -108391.56 4942624.95  4660%  4100 65239s
 21188 15999 1753188.22  189  662 -108391.56 4942568.40  4660%  4100 65285s
 21189 15999 2739344.01   67  657 -108391.56 4942523.96  4660%  4099 65331s
 21190 16000 716744.755  151  655 -108391.56 4942434.04  4660%  4099 65375s
 21191 16001 3470688.99   48  653 -108391.56 4942369.98  4660%  4099 65429s
 21192 16001 4272521.37   53  665 -108391.56 4938907.21  4657%  4099 65464s
 21193 16002 4155319.82   57  674 -108391.56 4937952.42  4656%  4099 65468s
 21194 16003 2604085.48   76  673 -108391.56 4937628.36  4655%  4099 65471s
 21195 16003 2460707.27   86  683 -108391.56 4937452.70  4655%  4098 65504s
 21196 16004 1627953.18  138  676 -108391.56 4936851.57  4655%  4098 65540s
 21197 16005 3373173.62  111  681 -108391.56 4936719.25  4655%  4098 65574s
 21198 16005 1725632.54  170  673 -108391.56 4936366.17  4654%  4098 65609s
 21199 16006 1314644.67  192  676 -108391.56 4936056.17  4654%  4098 65612s
 21200 16007 2462158.85  160  674 -108391.56 4935931.42  4654%  4097 65644s
 21201 16007 3277037.09   92  686 -108391.56 4935736.56  4654%  4097 65677s
 21202 16008 1654594.14   90  672 -108391.56 4935684.73  4654%  4097 65709s
 21203 16009 2020738.23   59  670 -108391.56 4935193.98  4653%  4097 65741s
 21204 16009 2715083.10   92  673 -108391.56 4935028.24  4653%  4097 65773s
 21205 16010 1256971.74   86  674 -108391.56 4934974.95  4653%  4096 65806s
 21206 16011 1934822.21  206  679 -108391.56 4934956.58  4653%  4096 65838s
 21207 16011 1045429.05  312  687 -108391.56 4934937.22  4653%  4096 65870s
 21208 16012 1953036.84   95  685 -108391.56 4934927.24  4653%  4096 65897s
 21209 16013 3433305.47  138  687 -108391.56 4934913.57  4653%  4096 65927s
 21210 16013 1336770.35  224  681 -108391.56 4934913.41  4653%  4095 65958s
 21211 16014 606740.140  187  685 -108391.56 4934912.04  4653%  4095 65988s
 21212 16015 3038267.07  118  697 -108391.56 4934907.97  4653%  4095 66017s
 21213 16015 2452535.30  205  682 -108391.56 4934893.27  4653%  4095 66048s
 21214 16016 1426532.58  188  679 -108391.56 4934841.56  4653%  4095 66080s
 21215 16017 3142213.74   79  672 -108391.56 4934691.59  4653%  4094 66111s
 21216 16017 248981.705  197  681 -108391.56 4934639.76  4653%  4094 66141s
 21217 16018 404873.335  308  682 -108391.56 4934596.47  4653%  4094 66173s
 21218 16019 4870492.19   51  678 -108391.56 4934526.72  4653%  4094 66200s
 21219 16019 3175178.48  121  657 -108391.56 4933818.75  4652%  4094 66238s
 21220 16020 2665897.05  131  660 -108391.56 4933716.38  4652%  4093 66272s
 21221 16021 2999325.30   50  659 -108391.56 4933197.11  4651%  4093 66306s
 21223 16022 2029060.56  107  684 -108391.56 4932936.76  4651%  4093 66338s
 21224 16023 1371025.16  239  684 -108391.56 4932851.63  4651%  4093 66370s
 21225 16023 704244.667  175  677 -108391.56 4932819.48  4651%  4093 66399s
 21226 16024 4082667.92   40  680 -108391.56 4932790.12  4651%  4092 66428s
 21227 16025 1101572.58  116  681 -108391.56 4932782.31  4651%  4092 66459s
 21228 16025 2452970.77  119  682 -108391.56 4932213.65  4650%  4092 66514s
 21229 16026 2896709.48  112  676 -108391.56 4932197.03  4650%  4092 66546s
 21230 16027 4930969.19   47  685 -108391.56 4930969.19  4649%  4092 66580s
 21231 16027 3739166.91   67  685 -108391.56 4930958.82  4649%  4091 66608s
 21232 16028 923234.950   66  684 -108391.56 4930902.78  4649%  4091 66641s
 21233 16029 1241716.52  218  690 -108391.56 4930871.93  4649%  4091 66680s
 21234 16029 714786.559  189  682 -108391.56 4930803.75  4649%  4091 66712s
 21235 16030 2453150.65   78  673 -108391.56 4930729.66  4649%  4091 66744s
 21236 16031 1154393.20  189  678 -108391.56 4930266.53  4649%  4090 66777s
 21237 16031 739117.363  189  670 -108391.56 4927421.78  4646%  4090 66784s
 21238 16032 3205007.78   74  679 -108391.56 4926827.00  4645%  4090 66788s
 21239 16033 4665344.38   52  672 -108391.56 4926708.78  4645%  4090 66820s
 21240 16033 1202036.35  224  691 -108391.56 4926440.69  4645%  4090 66870s
 21241 16034 2554957.95   99  691 -108391.56 4926440.69  4645%  4089 66936s
 21242 16038 4925217.40   36  672 -108391.56 4926360.57  4645%  3739 67130s
 21244 16041 4885828.27   37  664 -108391.56 4919717.18  4639%  3741 67315s
 21248 16044 4560866.28   38  418 -108391.56 4883844.74  4606%  3747 67471s
 21252 16046 4869565.53   38  646 -108391.56 4869565.53  4593%  3749 67680s
 21256 16049 4746407.67   39  585 -108391.56 4869465.77  4592%  3758 67803s
 21260 16052 4805626.61   39  628 -108391.56 4805626.61  4534%  3760 67916s
 21264 16055 4775035.86   40  611 -108391.56 4805624.24  4534%  3765 68024s
 21269 16057 4781996.47   40  589 -108391.56 4781996.47  4512%  3767 68156s
 21274 16057 4764907.56   41  626 -108391.56 4781996.41  4512%  3770 68214s
 21280 16058 3704732.12   41  414 -108391.56 4781996.41  4512%  3775 68363s
 21287 16068 4760566.90   42  625 -108391.56 4781996.41  4512%  3778 68460s
 21293 16071 4758288.34   43  606 -108391.56 4781996.41  4512%  3784 68585s
 21300 16076 4751694.11   44  599 -108391.56 4781996.41  4512%  3789 68692s
 21308 16075 4750075.24   45  591 -108391.56 4781996.41  4512%  3795 68818s
 21318 16088 4749999.96   46  596 -108391.56 4781996.41  4512%  3799 68946s
 21327 16094 4741331.40   47  598 -108391.56 4781996.41  4512%  3804 69045s
 21335 16098 4731621.67   48  595 -108391.56 4781996.41  4512%  3811 69319s
 21343 16103 4704545.63   49  589 -108391.56 4781996.41  4512%  3823 69422s
 21351 16106 4689707.93   50  585 -108391.56 4781996.41  4512%  3830 69604s
 21362 16115 4510515.82   51  573 -108391.56 4781996.41  4512%  3840 69714s
 21373 16125 4679633.75   52  548 -108391.56 4781996.41  4512%  3844 69835s
 21383 16134 4665770.72   53  592 -108391.56 4781996.41  4512%  3851 70041s
 21393 16131 4663666.64   54  593 -108391.56 4781996.41  4512%  3862 70188s
 21404 16142 4545382.78   55  440 -108391.56 4781996.41  4512%  3872 70367s
 21416 16155 4635505.20   57  611 -108391.56 4781996.41  4512%  3880 70536s
 21429 16160 4599196.87   59  613 -108391.56 4781996.41  4512%  3889 70753s
 21443 16167 4587974.90   60  609 -108391.56 4781996.41  4512%  3898 70914s
 21459 16177 4363021.46   61  522 -108391.56 4781996.41  4512%  3908 71114s
 21475 16191 4536276.03   62  596 -108391.56 4781996.41  4512%  3919 71352s
 21492 16195 4206147.14   64  540 -108391.56 4781996.41  4512%  3932 71565s
 21509 16208 4415256.01   65  508 -108391.56 4781996.41  4512%  3942 71848s
 21527 16220 4202436.34   67  541 -108391.56 4781996.41  4512%  3957 72060s
 21550 16229 4249516.57   69  587 -108391.56 4781996.41  4512%  3968 72296s
 21568 16236 4220321.19   70  547 -108391.56 4781996.41  4512%  3983 72524s
 21591 16248 4204705.65   73  557 -108391.56 4781996.41  4512%  3997 72762s
 21615 16258 4181888.66   76  531 -108391.56 4781996.41  4512%  4012 72983s
 21650 16278 3968832.89   78  469 -108391.56 4781996.41  4512%  4024 73224s
 21686 16296 3477523.90   80  376 -108391.56 4781996.41  4512%  4035 73467s
 21727 16308 3973134.02   83  517 -108391.56 4781996.41  4512%  4043 73697s
 21761 16321 3941365.84   86  493 -108391.56 4781996.41  4512%  4057 73889s
 21785 16336 3884466.30   89  483 -108391.56 4781996.41  4512%  4073 74152s
 21810 16342 3834185.47   92  505 -108391.56 4781996.41  4512%  4092 74406s
 21833 16369 3811026.43   94  362 -108391.56 4781996.41  4512%  4110 74699s
 21866 16386 3691366.26   97  408 -108391.56 4781996.41  4512%  4127 75034s
 21902 16404 3121575.28  102  358 -108391.56 4781996.41  4512%  4148 75432s
 21937 16437 3472692.62  107  387 -108391.56 4781996.41  4512%  4171 75745s
 21978 16460 2148578.83  112  282 -108391.56 4781996.41  4512%  4192 76067s
 22015 16468 3338681.33  117  354 -108391.56 4781996.41  4512%  4214 76417s
 22066 16506 3092394.58  124  383 -108391.56 4781996.41  4512%  4235 76763s
 22108 16534 2894918.61  129  372 -108391.56 4781996.41  4512%  4259 77127s
 22153 16566 2820514.21  134  339 -108391.56 4781996.41  4512%  4283 77517s
 22204 16603 2799567.08  140  363 -108391.56 4781996.41  4512%  4309 77902s
 22254 16640 2649266.56  147  355 -108391.56 4781996.41  4512%  4337 78318s
 22309 16663 2252980.48  153  331 -108391.56 4781996.41  4512%  4366 78736s
 22374 16692 1583050.03  161  330 -108391.56 4781996.41  4512%  4395 79157s
 22463 16760 1489462.48  169  335 -108391.56 4781996.41  4512%  4418 79624s
 22538 16795 401843.330  178  262 -108391.56 4781996.41  4512%  4457 80056s
 22648 16841 826177.113  190  255 -108391.56 4781996.41  4512%  4484 80500s
 22830 16872     cutoff  206      -108391.56 4760549.79  4492%  4500 80856s
 22957 16886 4258197.70   43  476 -108391.56 4760534.98  4492%  4516 81134s
 23016 16915 3927867.73   54  402 -108391.56 4760534.98  4492%  4541 81474s
 23057 16933 3989245.75   55  447 -108391.56 4760534.98  4492%  4569 81968s
 23108 16964 3390753.82   58  480 -108391.56 4760534.98  4492%  4600 82448s
 23190 17018 3506359.79   74  421 -108391.56 4760534.98  4492%  4626 82945s
 23321 17106 3106953.21   93  331 -108391.56 4760534.98  4492%  4646 83476s
 23476 17168 2806726.08  123  348 -108391.56 4760534.98  4492%  4665 83824s
 23682 17275 2246945.39  193  239 -108391.56 4760534.98  4492%  4666 84183s
 23800 17336 1615233.23  230  168 -108391.56 4760534.98  4492%  4693 84559s
 23928 17408 1193981.78  273  245 -108391.56 4760534.98  4492%  4724 84998s
 24169 17502 318182.332  381  133 -108391.56 4712831.00  4448%  4735 85505s
 24322 17557 4351318.54   53  514 -108391.56 4712831.00  4448%  4759 86129s
 24461 17620 3119236.91   58  391 -108391.56 4712831.00  4448%  4788 86400s

Cutting planes:
  Gomory: 164
  Implied bound: 40
  Projected implied bound: 43
  MIR: 135
  Flow cover: 838

Explored 24533 nodes (126465652 simplex iterations) in 86400.66 seconds
Thread count was 4 (of 16 available processors)

Solution count 10: -108392 -108392 -108392 ... -285177

Time limit reached
Warning: max constraint violation (1.6208e-05) exceeds tolerance
Best objective -1.083915605178e+05, best bound 4.712830997018e+06, gap 4447.9686%

***
***  |- Calculation finished, timelimit reached 86,400.68 (86400.68) sec.))
***  |-----------------------------------------------------------------------------------------------------------------------
***
*****************************************************************************************************************************
#############################################################################################################################
###
### Results
###
### The objective of the solution is -108,391.5605 (-108391.5605) and is feasible with a Gap of 44.4797
###
### Service 42 (SAMBA) is operated by 7 vessels from type 18 (PMax25)
###  |- Vessel  1 has the path [143, 66, 67, 80, 81, 47, 30, 8, 0]
###  |  143 (USMSY Out@238.0) - 66 (DEBRV In@665.0/Out@689.0) - 67 (DEBRV In@719.0/Out@743.0) - 80 (ESALG In@829.0/Out@853.0)
###  |   - 81 (ESALG In@943.0/Out@967.0) - 47 (BRSSZ In@1290.0/Out@1308.0) - 30 (BRPNG In@1338.0/Out@1359.0) - 8 (ARBUE In@14
###  |  24.0/Out@1448.0) - 0 (DUMMY_END Ziel-Service 42)
###  |   |- and carried Demand 143, 406.0 containers from  67 to  47
###  |   |- and carried Demand 146,  18.0 containers from  67 to   8
###  |   |- and carried Demand 151, 111.0 containers from  80 to  47
###  |   |- and carried Demand 152,  13.0 containers from  80 to  47
###  |   |- and carried Demand 153,  41.0 containers from  80 to  30
###  |   |- and carried Demand 154, 279.0 containers from  80 to   8
###  |   |- and carried Demand 155,  12.0 containers from  80 to   8
###  |   |- and carried Demand 159, 194.0 containers from  80 to   8
###  |   |- and carried Demand 160,   2.0 containers from  80 to   8
###  |   |- and carried Demand 377, 111.0 containers from  81 to  47
###  |   |- and carried Demand 378,  13.0 containers from  81 to  47
###  |   |- and carried Demand 379,  41.0 containers from  81 to  30
###  |   |- and carried Demand 380, 279.0 containers from  81 to   8
###  |   |- and carried Demand 381,  12.0 containers from  81 to   8
###  |   |- and carried Demand 385, 194.0 containers from  81 to   8
###  |   |- and carried Demand 386,   2.0 containers from  81 to   8
###  |   |- and carried Demand 446, 406.0 containers from  66 to  47
###  |   |- and carried Demand 449,  18.0 containers from  66 to   8
###  |- Vessel  2 has the path [144, 4, 0]
###  |  144 (USMSY Out@406.0) - 4 (ARBUE In@920.0/Out@944.0) - 0 (DUMMY_END Ziel-Service 42)
###  |- Vessel  3 has the path [145, 79, 82, 83, 85, 86, 87, 88, 52, 33, 12, 0]
###  |  145 (USMSY Out@574.0) - 79 (ESALG In@775.0/Out@799.0) - 82 (ESALG In@1045.0/Out@1075.0) - 83 (ESALG In@1111.0/Out@113
###  |  5.0) - 85 (ESALG In@1213.0/Out@1243.0) - 86 (ESALG In@1279.0/Out@1303.0) - 87 (ESALG In@1381.0/Out@1411.0) - 88 (ESAL
###  |  G In@1447.0/Out@1471.0) - 52 (BRSSZ In@1794.0/Out@1812.0) - 33 (BRPNG In@1842.0/Out@1863.0) - 12 (ARBUE In@1928.0/Out
###  |  @1952.0) - 0 (DUMMY_END Ziel-Service 42)
###  |   |- and carried Demand   7, 200.0 containers from  82 to  12
###  |   |- and carried Demand  15,  14.0 containers from  85 to  52
###  |   |- and carried Demand  17,  25.0 containers from  85 to  12
###  |   |- and carried Demand  24,  16.0 containers from  85 to  12
###  |   |- and carried Demand  26, 125.0 containers from  87 to  52
###  |   |- and carried Demand  27,  10.0 containers from  87 to  52
###  |   |- and carried Demand  28,   4.0 containers from  87 to  33
###  |   |- and carried Demand  30, 224.0 containers from  87 to  12
###  |   |- and carried Demand  31,  58.0 containers from  87 to  12
###  |   |- and carried Demand  32,   5.0 containers from  87 to  12
###  |   |- and carried Demand  33, 159.0 containers from  87 to  12
###  |   |- and carried Demand 172, 166.0 containers from  33 to  12
###  |   |- and carried Demand 173, 125.0 containers from  88 to  52
###  |   |- and carried Demand 174,  10.0 containers from  88 to  52
###  |   |- and carried Demand 175,   4.0 containers from  88 to  33
###  |   |- and carried Demand 177, 224.0 containers from  88 to  12
###  |   |- and carried Demand 178,  58.0 containers from  88 to  12
###  |   |- and carried Demand 179,   5.0 containers from  88 to  12
###  |   |- and carried Demand 180, 159.0 containers from  88 to  12
###  |   |- and carried Demand 244,  14.0 containers from  86 to  52
###  |   |- and carried Demand 246,  25.0 containers from  86 to  12
###  |   |- and carried Demand 253,  16.0 containers from  86 to  12
###  |   |- and carried Demand 322, 200.0 containers from  83 to  12
###  |   |- and carried Demand 441, 488.0 containers from  79 to  12
###  |   |- and carried Demand 442,   5.0 containers from  79 to  12
###  |- Vessel  4 has the path [146, 6, 0]
###  |  146 (USMSY Out@742.0) - 6 (ARBUE In@1256.0/Out@1280.0) - 0 (DUMMY_END Ziel-Service 42)
###  |- Vessel  5 has the path [147, 9, 0]
###  |  147 (USMSY Out@910.0) - 9 (ARBUE In@1592.0/Out@1616.0) - 0 (DUMMY_END Ziel-Service 42)
###  |- Vessel  6 has the path [148, 10, 0]
###  |  148 (USMSY Out@1078.0) - 10 (ARBUE In@1760.0/Out@1784.0) - 0 (DUMMY_END Ziel-Service 42)
###  |- Vessel  8 has the path [72, 65, 77, 78, 5, 0]
###  |  72 (DEHAM Out@276.0) - 65 (DEBRV In@497.0/Out@521.0) - 77 (ESALG In@607.0/Out@631.0) - 78 (ESALG In@613.0/Out@658.0) 
###  |  - 5 (ARBUE In@1088.0/Out@1112.0) - 0 (DUMMY_END Ziel-Service 42)
###  |   |- and carried Demand  98, 392.0 containers from  78 to   5
###  |   |- and carried Demand  99,  13.0 containers from  78 to   5
###  |   |- and carried Demand 490, 392.0 containers from  77 to   5
###  |   |- and carried Demand 491,  13.0 containers from  77 to   5
###  |   |- and carried Demand 494,  59.0 containers from  77 to   5
###  |   |- and carried Demand 495,   6.0 containers from  77 to   5
###  |   |- and carried Demand 496, 126.0 containers from  77 to   5
###  |   |- and carried Demand 499, 256.0 containers from  65 to  77
###  |   |- and carried Demand 503,   3.0 containers from  65 to   5
###  |
### Vessels not used in the solution: [7, 9, 10, 11, 12]
###  |-----------------------------------------------------------------------------------------------------------------------
###
#############################################################################################################################

### Detialed variable overview

### All variables with value greater zero:
rho[42,18] = 1
eta[42,18,1] = 1
eta[42,18,2] = 1
eta[42,18,3] = 1
eta[42,18,4] = 1
eta[42,18,5] = 1
eta[42,18,6] = 1
eta[42,18,7] = 1
y[1,67,80] = 1
y[1,66,67] = 1
y[1,80,81] = 1
y[1,81,47] = 1
y[1,8,0] = 1
y[1,143,66] = 1
y[1,47,30] = 1
y[1,30,8] = 1
y[2,4,0] = 1
y[2,144,4] = 1
y[3,79,82] = 1
y[3,88,52] = 1
y[3,52,33] = 1
y[3,33,12] = 1
y[3,85,86] = 1
y[3,145,79] = 1
y[3,86,87] = 1
y[3,12,0] = 1
y[3,83,85] = 1
y[3,87,88] = 1
y[3,82,83] = 1
y[4,6,0] = 1
y[4,146,6] = 1
y[5,9,0] = 1
y[5,147,9] = 1
y[6,148,10] = 1
y[6,10,0] = 1
y[8,77,78] = 1
y[8,65,77] = 1
y[8,5,0] = 1
y[8,72,65] = 1
y[8,78,5] = 1
xD[7,88,52] = 200
xD[7,52,33] = 200
xD[7,33,12] = 200
xD[7,85,86] = 200
xD[7,86,87] = 200
xD[7,83,85] = 200
xD[7,87,88] = 200
xD[7,82,83] = 200
xD[15,88,52] = 14
xD[15,85,86] = 14
xD[15,86,87] = 14
xD[15,87,88] = 14
xD[17,88,52] = 25
xD[17,52,33] = 25
xD[17,33,12] = 25
xD[17,85,86] = 25
xD[17,86,87] = 25
xD[17,87,88] = 25
xD[24,88,52] = 16
xD[24,52,33] = 16
xD[24,33,12] = 16
xD[24,85,86] = 16
xD[24,86,87] = 16
xD[24,87,88] = 16
xD[26,88,52] = 125
xD[26,87,88] = 125
xD[27,88,52] = 10
xD[27,87,88] = 10
xD[28,88,52] = 4
xD[28,52,33] = 4
xD[28,87,88] = 4
xD[30,88,52] = 224
xD[30,52,33] = 224
xD[30,33,12] = 224
xD[30,87,88] = 224
xD[31,88,52] = 58
xD[31,52,33] = 58
xD[31,33,12] = 58
xD[31,87,88] = 58
xD[32,88,52] = 5
xD[32,52,33] = 5
xD[32,33,12] = 5
xD[32,87,88] = 5
xD[33,88,52] = 159
xD[33,52,33] = 159
xD[33,33,12] = 159
xD[33,87,88] = 159
xD[98,78,5] = 392
xD[99,78,5] = 13
xD[143,67,80] = 406
xD[143,80,81] = 406
xD[143,81,47] = 406
xD[146,67,80] = 18
xD[146,80,81] = 18
xD[146,81,47] = 18
xD[146,47,30] = 18
xD[146,30,8] = 18
xD[151,80,81] = 111
xD[151,81,47] = 111
xD[152,80,81] = 13
xD[152,81,47] = 13
xD[153,80,81] = 41
xD[153,81,47] = 41
xD[153,47,30] = 41
xD[154,80,81] = 279
xD[154,81,47] = 279
xD[154,47,30] = 279
xD[154,30,8] = 279
xD[155,80,81] = 12
xD[155,81,47] = 12
xD[155,47,30] = 12
xD[155,30,8] = 12
xD[159,80,81] = 194
xD[159,81,47] = 194
xD[159,47,30] = 194
xD[159,30,8] = 194
xD[160,80,81] = 2
xD[160,81,47] = 2
xD[160,47,30] = 2
xD[160,30,8] = 2
xD[172,33,12] = 166
xD[173,88,52] = 125
xD[174,88,52] = 10
xD[175,88,52] = 4
xD[175,52,33] = 4
xD[177,88,52] = 224
xD[177,52,33] = 224
xD[177,33,12] = 224
xD[178,88,52] = 58
xD[178,52,33] = 58
xD[178,33,12] = 58
xD[179,88,52] = 5
xD[179,52,33] = 5
xD[179,33,12] = 5
xD[180,88,52] = 159
xD[180,52,33] = 159
xD[180,33,12] = 159
xD[244,88,52] = 14
xD[244,86,87] = 14
xD[244,87,88] = 14
xD[246,88,52] = 25
xD[246,52,33] = 25
xD[246,33,12] = 25
xD[246,86,87] = 25
xD[246,87,88] = 25
xD[253,88,52] = 16
xD[253,52,33] = 16
xD[253,33,12] = 16
xD[253,86,87] = 16
xD[253,87,88] = 16
xD[322,88,52] = 200
xD[322,52,33] = 200
xD[322,33,12] = 200
xD[322,85,86] = 200
xD[322,86,87] = 200
xD[322,83,85] = 200
xD[322,87,88] = 200
xD[377,81,47] = 111
xD[378,81,47] = 13
xD[379,81,47] = 41
xD[379,47,30] = 41
xD[380,81,47] = 279
xD[380,47,30] = 279
xD[380,30,8] = 279
xD[381,81,47] = 12
xD[381,47,30] = 12
xD[381,30,8] = 12
xD[385,81,47] = 194
xD[385,47,30] = 194
xD[385,30,8] = 194
xD[386,81,47] = 2
xD[386,47,30] = 2
xD[386,30,8] = 2
xD[441,79,82] = 488
xD[441,88,52] = 488
xD[441,52,33] = 488
xD[441,33,12] = 488
xD[441,85,86] = 488
xD[441,86,87] = 488
xD[441,83,85] = 488
xD[441,87,88] = 488
xD[441,82,83] = 488
xD[442,79,82] = 5
xD[442,88,52] = 5
xD[442,52,33] = 5
xD[442,33,12] = 5
xD[442,85,86] = 5
xD[442,86,87] = 5
xD[442,83,85] = 5
xD[442,87,88] = 5
xD[442,82,83] = 5
xD[446,67,80] = 406
xD[446,66,67] = 406
xD[446,80,81] = 406
xD[446,81,47] = 406
xD[449,67,80] = 18
xD[449,66,67] = 18
xD[449,80,81] = 18
xD[449,81,47] = 18
xD[449,47,30] = 18
xD[449,30,8] = 18
xD[490,77,78] = 392
xD[490,78,5] = 392
xD[491,77,78] = 13
xD[491,78,5] = 13
xD[494,77,78] = 59
xD[494,78,5] = 59
xD[495,77,78] = 6
xD[495,78,5] = 6
xD[496,77,78] = 126
xD[496,78,5] = 126
xD[499,65,77] = 256
xD[503,77,78] = 3
xD[503,65,77] = 3
xD[503,78,5] = 3
zE[4] = 920
zE[5] = 1088
zE[6] = 1256
zE[8] = 1424
zE[9] = 1592
zE[10] = 1760
zE[12] = 1928
zE[30] = 1338
zE[33] = 1842
zE[47] = 1290
zE[52] = 1794
zE[65] = 497
zE[66] = 665
zE[67] = 719
zE[77] = 607
zE[78] = 613
zE[79] = 775
zE[80] = 829
zE[81] = 943
zE[82] = 1045
zE[83] = 1111
zE[85] = 1213
zE[86] = 1279
zE[87] = 1381
zE[88] = 1447
zX[4] = 944
zX[5] = 1112
zX[6] = 1280
zX[8] = 1448
zX[9] = 1616
zX[10] = 1784
zX[12] = 1952
zX[30] = 1359
zX[33] = 1863
zX[47] = 1308
zX[52] = 1812
zX[65] = 521
zX[66] = 689
zX[67] = 743
zX[72] = 276
zX[77] = 631
zX[78] = 658
zX[79] = 799
zX[80] = 853
zX[81] = 967
zX[82] = 1075
zX[83] = 1135
zX[85] = 1243
zX[86] = 1303
zX[87] = 1411
zX[88] = 1471
zX[143] = 238
zX[144] = 406
zX[145] = 574
zX[146] = 742
zX[147] = 910
zX[148] = 1078
phi[1] = 1210
phi[2] = 538
phi[3] = 1378
phi[4] = 538
phi[5] = 706
phi[6] = 706
phi[8] = 836

### All variables with value smaller zero:

### End

real	1441m1.737s
user	5457m9.401s
sys	293m36.768s
	Freetype 2.4.12 environment removed
	Python 3.6.0 environment removed
	Gurobi 8.1.0 environment removed
