### Additional Information to the goal services
# Basic costs on route 7: 33069841.528584734
# Basic costs on route 177: 16358025.557504097
# Basic costs on route 81: 73656760.12612462
# Basic costs on route 24: 14852451.564652154
# Basic costs on route 121: 7176505.269300086
# Direct costs (not staggered):
# For goal service 7:
# n_min: 3
# n_max: 6
# lowest costs of the goal service 7 with configuration (7, 19, 6) at 0.0
# For goal service 177:
# n_min: 2
# n_max: 3
# lowest costs of the goal service 177 with configuration (177, 18, 3) at 0.0
# For goal service 81:
# n_min: 6
# n_max: 6
# lowest costs of the goal service 81 with configuration (81, 18, 6) at 0.0
# For goal service 24:
# n_min: 2
# n_max: 4
# lowest costs of the goal service 24 with configuration (24, 18, 3) at 0.0
# For goal service 121:
# n_min: 1
# n_max: 2
# lowest costs of the goal service 121 with configuration (121, 30, 2) at 0.0
# (7, 18, 1): 19705751.87859004
# (7, 18, 2): 20078162.51859004
# (7, 18, 3): 18105618.512753375
# (7, 18, 4): 12937089.552753374
# (7, 18, 5): 7768560.592753366
# (7, 18, 6): 2600031.6327533796
# (7, 19, 1): 20386727.641361266
# (7, 19, 2): 20796357.001361266
# (7, 19, 3): 17252058.642300278
# (7, 19, 4): 10374309.233490273
# (7, 19, 5): 3496559.8246802613
# (7, 19, 6): 0.0
# (7, 30, 1): 21759931.32880444
# (7, 30, 2): 22206811.32880444
# (7, 30, 3): 20832586.347938776
# (7, 30, 4): 13682688.89655678
# (7, 30, 5): 6532791.445174769
# (7, 30, 6): 1507450.066697292
# (24, 18, 1): 8993160.517257726
# (24, 18, 2): 4951657.791435869
# (24, 18, 3): 0.0
# (24, 18, 4): 372410.64000000246
# (24, 19, 1): 13889247.37486901
# (24, 19, 2): 8087507.567006862
# (24, 19, 3): 4231100.325081481
# (24, 19, 4): 4640729.68508148
# (24, 30, 1): 13606992.706361605
# (24, 30, 2): 8653245.526150221
# (24, 30, 3): 3999059.0108637977
# (24, 30, 4): 4445939.010863801
# (81, 18, 1): 4717447.096635804
# (81, 18, 2): 5089857.736635804
# (81, 18, 3): 5462268.376635805
# (81, 18, 4): 5834679.016635805
# (81, 18, 5): 5168528.959999993
# (81, 18, 6): 0.0
# (81, 19, 1): 9849471.293917045
# (81, 19, 2): 10259100.653917044
# (81, 19, 3): 10668730.013917059
# (81, 19, 4): 11078359.373917043
# (81, 19, 5): 8497466.412376538
# (81, 19, 6): 1619717.0035665631
# (81, 30, 1): 7236202.448101103
# (81, 30, 2): 7683082.448101103
# (81, 30, 3): 8129962.448101103
# (81, 30, 4): 8576842.448101103
# (81, 30, 5): 9023722.448101088
# (81, 30, 6): 3053239.074225202
# (121, 18, 1): 5827691.674500614
# (121, 18, 2): 659162.7145006144
# (121, 19, 1): 6704135.935995501
# (121, 19, 2): 531439.6628086967
# (121, 30, 1): 6896286.052803252
# (121, 30, 2): 0.0
# (177, 18, 1): 7294673.530791728
# (177, 18, 2): 5168528.960000003
# (177, 18, 3): 0.0
# (177, 19, 1): 10857893.968551403
# (177, 19, 2): 7458518.617266333
# (177, 19, 3): 580769.2084563356
# (177, 30, 1): 10677358.015862884
# (177, 30, 2): 8536607.24887078
# (177, 30, 3): 1386709.7974887807
# -------------------------------------------
