### Additional Information to the goal services
# Basic costs on route 7: 74842272.93311279
# Basic costs on route 177: 37020794.68277244
# Basic costs on route 81: 166696878.18017676
# Basic costs on route 24: 33613443.01473909
# Basic costs on route 121: 16241564.55683704
# Direct costs (not staggered):
# For goal service 7:
# n_min: 3
# n_max: 6
# lowest costs of the goal service 7 with configuration (7, 19, 6) at 0.0
# For goal service 177:
# n_min: 2
# n_max: 3
# lowest costs of the goal service 177 with configuration (177, 18, 3) at 0.0
# For goal service 81:
# n_min: 6
# n_max: 6
# lowest costs of the goal service 81 with configuration (81, 18, 6) at 0.0
# For goal service 24:
# n_min: 2
# n_max: 4
# lowest costs of the goal service 24 with configuration (24, 18, 3) at 0.0
# For goal service 121:
# n_min: 1
# n_max: 2
# lowest costs of the goal service 121 with configuration (121, 30, 2) at 0.0
# (7, 18, 1): 44597227.935756445
# (7, 18, 2): 45440052.01575644
# (7, 18, 3): 40975873.47623135
# (7, 18, 4): 29278676.356231347
# (7, 18, 5): 17581479.236231342
# (7, 18, 6): 5884282.116231367
# (7, 19, 1): 46138383.60939658
# (7, 19, 2): 47065439.52939658
# (7, 19, 3): 39044132.716784865
# (7, 19, 4): 23478699.84421487
# (7, 19, 5): 7913266.9716448635
# (7, 19, 6): 0.0
# (7, 30, 1): 49246160.37571533
# (7, 30, 2): 50257520.37571533
# (7, 30, 3): 47147432.261124626
# (7, 30, 4): 30966085.39747064
# (7, 30, 5): 14784738.53381662
# (7, 30, 6): 3411597.5193675905
# (24, 18, 1): 20352942.223267473
# (24, 18, 2): 11206383.422723271
# (24, 18, 3): 0.0
# (24, 18, 4): 842824.0799999982
# (24, 19, 1): 31433559.848387755
# (24, 19, 2): 18303306.59901554
# (24, 19, 3): 9575648.104131773
# (24, 19, 4): 10502704.02413176
# (24, 30, 1): 30794772.967028886
# (24, 30, 2): 19583660.927603126
# (24, 30, 3): 9050501.97195492
# (24, 30, 4): 10061861.971954912
# (81, 18, 1): 10676327.639754742
# (81, 18, 2): 11519151.719754726
# (81, 18, 3): 12361975.799754739
# (81, 18, 4): 13204799.879754722
# (81, 18, 5): 11697197.120000035
# (81, 18, 6): 0.0
# (81, 19, 1): 22290908.7178123
# (81, 19, 2): 23217964.637812316
# (81, 19, 3): 24145020.557812303
# (81, 19, 4): 25072076.47781232
# (81, 19, 5): 19231108.19643116
# (81, 19, 6): 3665675.3238612115
# (81, 30, 1): 16376668.698334128
# (81, 30, 2): 17388028.698334128
# (81, 30, 3): 18399388.698334068
# (81, 30, 4): 19410748.698334128
# (81, 30, 5): 20422108.698334068
# (81, 30, 6): 6909962.115351766
# (121, 18, 1): 13188986.421238232
# (121, 18, 2): 1491789.3012382314
# (121, 19, 1): 15172518.170937192
# (121, 19, 2): 1202731.8684617877
# (121, 30, 1): 15607384.224765249
# (121, 30, 2): 0.0
# (177, 18, 1): 16508997.990739152
# (177, 18, 2): 11697197.119999982
# (177, 18, 3): 0.0
# (177, 19, 1): 24573128.45514264
# (177, 19, 2): 16879805.291708007
# (177, 19, 3): 1314372.4191380143
# (177, 30, 1): 24164547.088531785
# (177, 30, 2): 19319690.089549653
# (177, 30, 3): 3138343.2258956432
# -------------------------------------------
