### Additional Information to the goal services
# Basic costs on route 7: 59177611.15641478
# Basic costs on route 177: 29272256.26079681
# Basic costs on route 81: 131806833.9099072
# Basic costs on route 24: 26578071.22095649
# Basic costs on route 121: 12842167.324010685
# Direct costs (not staggered):
# For goal service 7:
# n_min: 3
# n_max: 6
# lowest costs of the goal service 7 with configuration (7, 19, 6) at 0.0
# For goal service 177:
# n_min: 2
# n_max: 3
# lowest costs of the goal service 177 with configuration (177, 18, 3) at 0.0
# For goal service 81:
# n_min: 6
# n_max: 6
# lowest costs of the goal service 81 with configuration (81, 18, 6) at 0.0
# For goal service 24:
# n_min: 2
# n_max: 4
# lowest costs of the goal service 24 with configuration (24, 18, 3) at 0.0
# For goal service 121:
# n_min: 1
# n_max: 2
# lowest costs of the goal service 121 with configuration (121, 30, 2) at 0.0
# (7, 18, 1): 35262924.41431905
# (7, 18, 2): 35929343.454319045
# (7, 18, 3): 32399527.864927113
# (7, 18, 4): 23150581.30492711
# (7, 18, 5): 13901634.744927093
# (7, 18, 6): 4652688.184927113
# (7, 19, 1): 36481512.62138331
# (7, 19, 2): 37214533.58138332
# (7, 19, 3): 30872104.938853145
# (7, 19, 4): 18564553.36519313
# (7, 19, 5): 6257001.791533127
# (7, 19, 6): 0.0
# (7, 30, 1): 38938824.483123735
# (7, 30, 2): 39738504.483123735
# (7, 30, 3): 37279365.04367992
# (7, 30, 4): 24484811.709627926
# (7, 30, 5): 11690258.37557593
# (7, 30, 6): 2697542.224616222
# (24, 18, 1): 16093024.083513819
# (24, 18, 2): 8860861.310990497
# (24, 18, 3): 0.0
# (24, 18, 4): 666419.0399999991
# (24, 19, 1): 24854442.670818232
# (24, 19, 2): 14472381.962012291
# (24, 19, 3): 7571442.686987914
# (24, 19, 4): 8304463.646987915
# (24, 30, 1): 24349355.369278654
# (24, 30, 2): 15484755.152058288
# (24, 30, 3): 7156210.861545742
# (24, 30, 4): 7955890.861545742
# (81, 18, 1): 8441747.43608512
# (81, 18, 2): 9108166.476085141
# (81, 18, 3): 9774585.516085133
# (81, 18, 4): 10441004.556085125
# (81, 18, 5): 9248946.560000017
# (81, 18, 6): 0.0
# (81, 19, 1): 17625369.683851615
# (81, 19, 2): 18358390.643851593
# (81, 19, 3): 19091411.60385157
# (81, 19, 4): 19824432.56385161
# (81, 19, 5): 15205992.52741076
# (81, 19, 6): 2898440.9537507147
# (81, 30, 1): 12948993.854496732
# (81, 30, 2): 13748673.854496732
# (81, 30, 3): 14548353.854496732
# (81, 30, 4): 15348033.854496732
# (81, 30, 5): 16147713.854496732
# (81, 30, 6): 5463690.974929348
# (121, 18, 1): 10428500.891211625
# (121, 18, 2): 1179554.3312116247
# (121, 19, 1): 11996874.832834054
# (121, 19, 2): 950997.2913418729
# (121, 30, 1): 12340722.410279501
# (121, 30, 2): 0.0
# (177, 18, 1): 13053626.31825887
# (177, 18, 2): 9248946.559999991
# (177, 18, 3): 0.0
# (177, 19, 1): 19429915.522670936
# (177, 19, 2): 13346822.78879239
# (177, 19, 3): 1039271.2151323892
# (177, 30, 1): 19106851.186280947
# (177, 30, 2): 15276034.02429508
# (177, 30, 3): 2481480.6902430765
# -------------------------------------------
