### Additional Information
# Routes included into the instance: {42}
#
### Additional Information to the vessels
# 1: k: 18, Start port: USMSY, tE: 218, 
# 2: k: 18, Start port: USMSY, tE: 386, 
# 3: k: 18, Start port: USMSY, tE: 554, 
# 4: k: 18, Start port: USMSY, tE: 722, 
# 5: k: 18, Start port: USMSY, tE: 890, 
# 6: k: 18, Start port: USMSY, tE: 1058, 
# 7: k: 18, Start port: USMSY, tE: 1226, 
# 8: k: 18, Start port: DEHAM, tE: 244, 
# 9: k: 18, Start port: ESBCN, tE: 58, 
# 10: k: 18, Start port: ZAPLZ, tE: 162, 
# 11: k: 18, Start port: ECGYE, tE: 222, 
# 12: k: 18, Start port: UYMVD, tE: 188, 
# -------------------------------------------
