### Additional Information to the goal services
# Basic costs on route 42: -92668947.41196314
# Direct costs (not staggered):
# For goal service 42:
# n_min: 4
# n_max: 7
# lowest costs of the goal service 42 with configuration (42, 18, 7) at 0.0
# (42, 18, 1): 11123634.507656038
# (42, 18, 2): 11378441.787656039
# (42, 18, 3): 11633249.06765604
# (42, 18, 4): 10609085.760000005
# (42, 18, 5): 7072723.840000004
# (42, 18, 6): 3536361.920000002
# (42, 18, 7): 0.0
# -------------------------------------------
