### Additional Information to the goal services
# Basic costs on route 42: -178209514.25377524
# Direct costs (not staggered):
# For goal service 42:
# n_min: 4
# n_max: 7
# lowest costs of the goal service 42 with configuration (42, 18, 7) at 0.0
# (42, 18, 1): 21391604.82241544
# (42, 18, 2): 21881618.82241544
# (42, 18, 3): 22371632.82241544
# (42, 18, 4): 20402088.0
# (42, 18, 5): 13601392.0
# (42, 18, 6): 6800696.0
# (42, 18, 7): 0.0
# -------------------------------------------
