	Freetype 2.4.12 environment established
		library to render fonts
	Python 3.6.0 environment established
	Gurobi 8.1.0 environment established
Instance LSFRP: LSFDRP_2_4_0_0_fr.p
Instance LSFDP: LSFDRP_2_4_0_0_fd_00.p

*****************************************************************************************************************************
*** Solve LSFDRP_2_4_0_0_fd_00 with Gurobi
***
*** Graph info
*** |S|: 18
*** |S^E|: 0
*** |S^C|: 0
*** |V|: 458
*** |A|: 18883
*** |A^i|: 18832
*** |A^f|: 51
*** |M|: 382
*** |E|: 22

Changed value of parameter TimeLimit to 86400.0
   Prev: 1e+100  Min: 0.0  Max: 1e+100  Default: 1e+100
Changed value of parameter Threads to 4
   Prev: 0  Min: 0  Max: 1024  Default: 0
Optimize a model with 226517 rows, 7592833 columns and 26848534 nonzeros
Variable types: 7252870 continuous, 339963 integer (339963 binary)
Coefficient statistics:
  Matrix range     [1e+00, 4e+03]
  Objective range  [2e+00, 5e+06]
  Bounds range     [1e+00, 1e+00]
  RHS range        [1e+00, 4e+03]
Presolve removed 8264 rows and 1137 columns (presolve time = 5s) ...
Presolve removed 61141 rows and 3802478 columns (presolve time = 10s) ...
Presolve removed 112337 rows and 5641381 columns (presolve time = 15s) ...
Presolve removed 154190 rows and 6797314 columns (presolve time = 20s) ...
Presolve removed 168659 rows and 6883012 columns (presolve time = 25s) ...
Presolve removed 170751 rows and 6888209 columns (presolve time = 31s) ...
Presolve removed 170844 rows and 6889562 columns (presolve time = 36s) ...
Warning: Failed to open log file 'gurobi.log'
Presolve removed 170853 rows and 6889562 columns (presolve time = 46s) ...
Presolve removed 170853 rows and 7003532 columns (presolve time = 380s) ...
Presolve removed 199759 rows and 7344112 columns (presolve time = 385s) ...
Presolve removed 202438 rows and 7352214 columns (presolve time = 394s) ...
Presolve removed 202511 rows and 7362188 columns (presolve time = 452s) ...
Presolve removed 202511 rows and 7362188 columns
Presolve time: 451.81s
Presolved: 24006 rows, 230645 columns, 1011730 nonzeros
Variable types: 97390 continuous, 133255 integer (133210 binary)

Deterministic concurrent LP optimizer: primal and dual simplex
Showing first log only...


Root simplex log...

Iteration    Objective       Primal Inf.    Dual Inf.      Time
       0   -7.8987571e+04   1.040000e+02   2.560471e+09    457s
   22225   -5.9192458e+06   0.000000e+00   2.652667e+10    460s
   33192   -3.8204232e+06   0.000000e+00   1.659632e+10    465s
   45627   -6.3533339e+04   0.000000e+00   2.507537e+11    470s
   57616    3.2995147e+06   0.000000e+00   2.461769e+10    475s
   68347    5.0877599e+06   0.000000e+00   1.790095e+10    480s
   79274    6.4474031e+06   0.000000e+00   1.015876e+11    485s
   89566    7.6849383e+06   0.000000e+00   2.483228e+10    490s
   99204    8.2487374e+06   0.000000e+00   1.604130e+09    495s
  108172    8.6777380e+06   0.000000e+00   1.991697e+09    500s
  117179    8.9248267e+06   0.000000e+00   1.254017e+10    505s
  126313    9.3324522e+06   0.000000e+00   7.189356e+09    510s
  134838    9.5817585e+06   0.000000e+00   2.247219e+10    515s
  142705    9.8062820e+06   0.000000e+00   2.336270e+10    520s
  150941    1.0034299e+07   0.000000e+00   7.783895e+09    525s
  158343    1.0296284e+07   0.000000e+00   1.331713e+10    530s
  165393    1.0470465e+07   0.000000e+00   7.317191e+10    535s
  172380    1.0574847e+07   0.000000e+00   3.214688e+08    540s
  179634    1.0678316e+07   0.000000e+00   2.460105e+10    545s
  186863    1.0803157e+07   0.000000e+00   1.829699e+09    550s
Concurrent spin time: 0.00s

Solved with dual simplex

Root relaxation: objective 1.119920e+07, 72858 iterations, 95.52 seconds

    Nodes    |    Current Node    |     Objective Bounds      |     Work
 Expl Unexpl |  Obj  Depth IntInf | Incumbent    BestBd   Gap | It/Node Time

     0     0 1.0985e+07    0  462          - 1.0985e+07      -     -  595s
H    0     0                    -6402845.296 1.0985e+07   272%     -  596s
H    0     0                    -3468108.447 1.0985e+07   417%     -  604s
     0     0 1.0782e+07    0  507 -3468108.4 1.0782e+07   411%     -  690s
H    0     0                    -2743197.503 1.0782e+07   493%     -  742s
     0     0 1.0764e+07    0  504 -2743197.5 1.0764e+07   492%     -  754s
     0     0 1.0762e+07    0  518 -2743197.5 1.0762e+07   492%     -  759s
     0     0 1.0760e+07    0  530 -2743197.5 1.0760e+07   492%     -  762s
     0     0 1.0760e+07    0  530 -2743197.5 1.0760e+07   492%     -  762s
     0     0 1.0676e+07    0  512 -2743197.5 1.0676e+07   489%     -  794s
     0     0 1.0675e+07    0  525 -2743197.5 1.0675e+07   489%     -  796s
     0     0 1.0675e+07    0  528 -2743197.5 1.0675e+07   489%     -  796s
     0     0 1.0226e+07    0  535 -2743197.5 1.0226e+07   473%     -  847s
H    0     0                    -2743197.502 1.0226e+07   473%     -  848s
     0     0 1.0223e+07    0  561 -2743197.5 1.0223e+07   473%     -  863s
     0     0 1.0218e+07    0  552 -2743197.5 1.0218e+07   472%     -  876s
     0     0 1.0218e+07    0  553 -2743197.5 1.0218e+07   472%     -  879s
     0     0 1.0195e+07    0  556 -2743197.5 1.0195e+07   472%     -  880s
     0     0 1.0189e+07    0  555 -2743197.5 1.0189e+07   471%     -  881s
     0     0 1.0188e+07    0  555 -2743197.5 1.0188e+07   471%     -  882s
     0     0 1.0188e+07    0  550 -2743197.5 1.0188e+07   471%     -  882s
     0     0 9614722.07    0  513 -2743197.5 9614722.07   450%     -  955s
H    0     0                    -2716720.502 9614722.07   454%     -  956s
     0     0 9613042.77    0  529 -2716720.5 9613042.77   454%     -  960s
     0     0 9611679.00    0  517 -2716720.5 9611679.00   454%     -  962s
     0     0 9611667.33    0  517 -2716720.5 9611667.33   454%     -  962s
     0     0 9542984.71    0  492 -2716720.5 9542984.71   451%     - 1022s
     0     0 9538103.26    0  532 -2716720.5 9538103.26   451%     - 1028s
     0     0 9535921.20    0  511 -2716720.5 9535921.20   451%     - 1032s
     0     0 9535483.26    0  515 -2716720.5 9535483.26   451%     - 1032s
     0     0 9531776.66    0  516 -2716720.5 9531776.66   451%     - 1036s
     0     0 9531020.11    0  508 -2716720.5 9531020.11   451%     - 1038s
     0     0 9530890.08    0  511 -2716720.5 9530890.08   451%     - 1039s
     0     0 9524212.12    0  580 -2716720.5 9524212.12   451%     - 1072s
H    0     0                    -2644376.277 9524212.12   460%     - 1131s
     0     0 9518935.35    0  559 -2644376.3 9518935.35   460%     - 1142s
     0     0 9516154.44    0  587 -2644376.3 9516154.44   460%     - 1145s
     0     0 9515996.91    0  586 -2644376.3 9515996.91   460%     - 1147s
     0     0 9499411.37    0  576 -2644376.3 9499411.37   459%     - 1187s
H    0     0                    -2559105.398 9499411.37   471%     - 1348s
     0     0 9496887.31    0  595 -2559105.4 9496887.31   471%     - 1352s
     0     0 9495760.14    0  608 -2559105.4 9495760.14   471%     - 1355s
     0     0 9495452.33    0  621 -2559105.4 9495452.33   471%     - 1357s
     0     0 9495264.99    0  619 -2559105.4 9495264.99   471%     - 1358s
     0     0 9459245.00    0  583 -2559105.4 9459245.00   470%     - 1378s
     0     0 9457857.66    0  575 -2559105.4 9457857.66   470%     - 1384s
     0     0 9455900.16    0  588 -2559105.4 9455900.16   470%     - 1386s
     0     0 9455538.60    0  590 -2559105.4 9455538.60   469%     - 1387s
     0     0 9455318.10    0  590 -2559105.4 9455318.10   469%     - 1389s
     0     0 9442085.33    0  581 -2559105.4 9442085.33   469%     - 1422s
     0     0 9440587.51    0  597 -2559105.4 9440587.51   469%     - 1427s
     0     0 9439963.70    0  575 -2559105.4 9439963.70   469%     - 1430s
     0     0 9439953.13    0  573 -2559105.4 9439953.13   469%     - 1431s
     0     0 9353292.26    0  550 -2559105.4 9353292.26   465%     - 1487s
     0     0 9351143.64    0  555 -2559105.4 9351143.64   465%     - 1509s
     0     0 9350910.11    0  563 -2559105.4 9350910.11   465%     - 1510s
     0     0 8907746.32    0  562 -2559105.4 8907746.32   448%     - 1715s
     0     0 8904145.76    0  580 -2559105.4 8904145.76   448%     - 1727s
     0     0 8903733.37    0  579 -2559105.4 8903733.37   448%     - 1731s
     0     0 8903710.34    0  574 -2559105.4 8903710.34   448%     - 1733s
     0     0 7764654.62    0  515 -2559105.4 7764654.62   403%     - 1925s
     0     0 7759958.04    0  513 -2559105.4 7759958.04   403%     - 1933s
     0     0 7759060.30    0  519 -2559105.4 7759060.30   403%     - 1940s
     0     0 7758500.87    0  537 -2559105.4 7758500.87   403%     - 1943s
     0     0 7757995.34    0  555 -2559105.4 7757995.34   403%     - 1945s
     0     0 7752453.34    0  564 -2559105.4 7752453.34   403%     - 1971s
     0     0 7750467.85    0  506 -2559105.4 7750467.85   403%     - 1975s
     0     0 7750126.20    0  518 -2559105.4 7750126.20   403%     - 1976s
     0     0 7743065.39    0  592 -2559105.4 7743065.39   403%     - 1998s
     0     0 7741802.46    0  571 -2559105.4 7741802.46   403%     - 2001s
     0     0 7740977.29    0  614 -2559105.4 7740977.29   402%     - 2002s
     0     0 7740551.62    0  606 -2559105.4 7740551.62   402%     - 2003s
     0     0 7708579.74    0  541 -2559105.4 7708579.74   401%     - 2051s
     0     0 7708348.84    0  556 -2559105.4 7708348.84   401%     - 2053s
     0     0 7707725.57    0  550 -2559105.4 7707725.57   401%     - 2075s
     0     0 7707332.78    0  544 -2559105.4 7707332.78   401%     - 2077s
     0     0 7706797.88    0  561 -2559105.4 7706797.88   401%     - 2104s
     0     0 7706797.88    0  556 -2559105.4 7706797.88   401%     - 2198s
     0     2 7706797.88    0  556 -2559105.4 7706797.88   401%     - 2332s
     1     4 7679856.77    1  556 -2559105.4 7689780.07   400%  1241 2363s
     3     8 7671296.38    2  508 -2559105.4 7677844.47   400%  1412 2455s
     7    12 7663503.51    3  546 -2559105.4 7670504.48   400%  3413 2515s
    11    14 7650136.81    3  525 -2559105.4 7663456.71   399%  4289 2557s
    15    18 7662190.13    4  546 -2559105.4 7662190.13   399%  4130 2619s
    19    15 7660740.89    5  558 -2559105.4 7662178.76   399%  4669 2682s
    23    24 7649447.77    6  517 -2559105.4 7662178.76   399%  6313 2920s
H   27    27                    -2556507.029 7662178.76   400%  6226 3627s
H   29    29                    -2132850.144 7662178.76   459%  8330 3627s
    31    33 7625993.86    7  509 -2132850.1 7662178.76   459% 10948 3721s
    36    33 7589994.59    8  482 -2132850.1 7662178.76   459% 13576 5255s
    40    43 7611453.93    8  479 -2132850.1 7662178.76   459% 14590 5383s
    44    39 7611453.93    9  476 -2132850.1 7662178.76   459% 13656 5488s
    51    53 7574399.03   11  488 -2132850.1 7662178.76   459% 12712 5647s
H   57    56                    -2132850.142 7662178.76   459% 12330 5904s
H   60    60                    -1589443.897 7662178.76   582% 12344 5904s
    62    65 6939389.65   13  436 -1589443.9 7662178.76   582% 12494 5999s
    66    59 6944918.88   14  473 -1589443.9 7662178.76   582% 12371 6164s
    76    72 6898486.33   15  448 -1589443.9 7662178.76   582% 11751 6410s
    87    88 6900756.98   18  429 -1589443.9 7662178.76   582% 11152 6628s
H   89    89                    -501126.2639 7662178.76  1629% 10993 6628s
    94    91 6897119.72   19  416 -501126.26 7662178.76  1629% 10802 7280s
   103   103 6893814.90   20  400 -501126.26 7662178.76  1629% 11034 7431s
   115   114 6879838.18   24  413 -501126.26 7662178.76  1629% 10299 7568s
H  129   129                    -501126.2622 7662178.76  1629%  9727 7765s
H  137   138                    -498527.8921 7662178.76  1637%  9229 7765s
   139   137 6821949.44   36  410 -498527.89 7662178.76  1637%  9267 7894s
   156   155 6401944.77   42  369 -498527.89 7662178.76  1637%  8688 8021s
   173   168 5957976.29   44  355 -498527.89 7660704.60  1637%  8236 8136s
   192   184 6746326.68    6  459 -498527.89 7660704.60  1637%  7793 8239s
   212   204 7132683.72    7  448 -498527.89 7660704.60  1637%  7386 8517s
   227   219 7071980.99    9  481 -498527.89 7660704.60  1637%  7144 8624s
   240   231 6625269.67   11  399 -498527.89 7660704.60  1637%  7115 8736s
   254   247 7025123.08   14  453 -498527.89 7660704.60  1637%  7063 8874s
   265   253 7020668.00   15  440 -498527.89 7660704.60  1637%  7083 9001s
   278   270 6947843.91   16  431 -498527.89 7660704.60  1637%  7135 9139s
   291   284 6989800.30   19  416 -498527.89 7660704.60  1637%  7112 9354s
   301   291 6935266.58   20  436 -498527.89 7660704.60  1637%  7201 9500s
   318   307 6736493.14   24  415 -498527.89 7660704.60  1637%  7176 9647s
   336   332 3955631.33   28  350 -498527.89 7660704.60  1637%  7191 9807s
   352   343 5967749.94   29  360 -498527.89 7660704.60  1637%  7102 9988s
   377   364 5903663.40   32  363 -498527.89 7660704.60  1637%  7021 10168s
   425   414 5846243.99   35  340 -498527.89 7660704.60  1637%  6577 10334s
   460   447 5650522.26   42  320 -498527.89 7660704.60  1637%  6413 10514s
   506   487 5639746.66   44  326 -498527.89 7660704.60  1637%  6132 10674s
   574   541 5290610.04   47  310 -498527.89 7660704.60  1637%  5652 10883s
   623   585 5414862.04   54  330 -498527.89 7660704.60  1637%  5356 11097s
H  677   602                    -463788.5796 7660704.60  1752%  5121 11097s
   685   616 5389346.46   60  323 -463788.58 7660704.60  1752%  5072 11458s
H  688   615                    -459003.5630 7660704.60  1769%  5074 11458s
   699   624 5001777.78   61  312 -459003.56 7660704.60  1769%  5099 11710s
H  713   633                    -432526.5568 7660704.60  1871%  5085 11710s
   722   645 4946155.29   67  299 -432526.56 7660704.60  1871%  5100 11887s
   777   699 4884634.25   79  323 -432526.56 7660704.60  1871%  4909 12109s
   870   781 2830690.34   93  314 -432526.56 7660704.60  1871%  4598 12282s
H  878   786                    -428645.1581 7660704.60  1887%  4595 12283s
   927   830 4530314.23   96  303 -428645.16 7660704.60  1887%  4423 12487s
H  963   840                    -428645.1566 7660704.60  1887%  4349 12487s
   995   892 4501489.12   99  288 -428645.16 7660704.60  1887%  4271 12687s
H 1005   908                    -428645.1491 7660704.60  1887%  4262 12687s
H 1087   990                    -424763.7487 7660704.60  1904%  4019 12697s
  1088   991 6424213.30   20  556 -424763.75 7660704.60  1904%  4015 13016s
  1090   992 1504827.49  298  443 -424763.75 7660704.60  1904%  4008 13148s
  1091   993 4302679.87    4  393 -424763.75 7660704.60  1904%  4004 13247s
  1092   994 5404523.86   56  436 -424763.75 7660704.60  1904%  4000 13270s
  1093   994 -336161.73  129  436 -424763.75 7543802.25  1876%  3997 13359s
  1094   995 3575889.22   22  464 -424763.75 7522296.53  1871%  3993 13385s
  1095   996 3458404.97   78  470 -424763.75 7511710.27  1868%  3989 13398s
  1096   996 2203492.96  113  470 -424763.75 7479651.08  1861%  3986 13432s
  1097   997 7008334.73   18  471 -424763.75 7474075.31  1860%  3982 13447s
  1098   998 2009558.71  127  484 -424763.75 7473718.82  1860%  3978 13450s
  1100   999 1855497.47  163  471 -424763.75 7472873.92  1859%  3971 13457s
  1102  1000 4166816.23   75  470 -424763.75 7472601.81  1859%  3964 13469s
  1103  1001 4435673.45   60  495 -424763.75 7390599.56  1840%  3960 13523s
  1104  1002 1571530.78  277  532 -424763.75 7320725.20  1823%  3957 13561s
  1105  1002 -358857.72  102  542 -424763.75 7301758.53  1819%  3953 13590s
  1106  1003 6625269.67   12  506 -424763.75 7277950.31  1813%  3950 13619s
  1107  1004 2812242.79   94  553 -424763.75 7267617.97  1811%  3946 13632s
  1108  1004 1819809.17  176  580 -424763.75 7262808.28  1810%  3942 13645s
  1109  1005 -322906.05  121  584 -424763.75 7261053.69  1809%  3939 13653s
  1110  1006 -298156.67  111  574 -424763.75 7260052.35  1809%  3935 13658s
  1111  1006 1542340.72  289  545 -424763.75 7241461.74  1805%  3932 13672s
  1113  1008 6499780.95   15  571 -424763.75 7237932.76  1804%  3925 13681s
  1114  1008 6968885.09   15  600 -424763.75 7237430.46  1804%  3921 13686s
  1116  1010 6891137.90   22  570 -424763.75 7235998.10  1804%  3914 13692s
  1117  1010 -370453.19   97  557 -424763.75 7235932.17  1804%  3911 13699s
  1118  1011 1716003.36  232  551 -424763.75 7194469.72  1794%  3907 13744s
  1119  1012 -298156.67  111  550 -424763.75 7144835.30  1782%  3904 13770s
  1120  1012 5031320.09   44  557 -424763.75 7139231.35  1781%  3900 13791s
  1121  1013 6954842.76   16  571 -424763.75 7137420.90  1780%  3897 13796s
  1122  1014 1729945.13  221  583 -424763.75 7133068.72  1779%  3893 13806s
  1123  1014 1400988.11  337  591 -424763.75 7131537.78  1779%  3890 13811s
  1124  1015 4951475.21   67  585 -424763.75 7129794.76  1779%  3886 13824s
  1125  1016 6879665.40   24  601 -424763.75 7128498.76  1778%  3883 13829s
  1126  1016 6847985.04   31  602 -424763.75 7128177.87  1778%  3879 13831s
  1127  1017 1418838.95  325  618 -424763.75 7126812.71  1778%  3876 13837s
  1128  1018 1131843.68  283  577 -424763.75 7125630.86  1778%  3873 13840s
  1130  1019 4489491.14  102  595 -424763.75 7124176.20  1777%  3866 13847s
  1131  1020 3955331.09   29  592 -424763.75 7123903.99  1777%  3862 13850s
  1132  1020 5404717.44   57  597 -424763.75 7123744.73  1777%  3859 13857s
  1133  1021 5921832.18   12  600 -424763.75 7107893.05  1773%  3855 13907s
  1134  1022 -406520.31  147  625 -424763.75 7103778.28  1772%  3852 13918s
  1135  1022 6873369.51   27  606 -424763.75 7102672.57  1772%  3849 13923s
  1136  1023 3164908.47   27  623 -424763.75 7101561.04  1772%  3845 13928s
  1137  1024 4302598.96   52  632 -424763.75 7100986.09  1772%  3842 13931s
  1139  1025 1146727.13  191  636 -424763.75 7100534.61  1772%  3835 13943s
  1140  1026 1532887.55  184  645 -424763.75 7096614.24  1771%  3832 13967s
  1141  1026 3706603.63   10  621 -424763.75 7092747.84  1770%  3828 13973s
  1142  1027 478147.522   79  651 -424763.75 7090999.78  1769%  3825 13979s
  1143  1028 6341244.38   28  663 -424763.75 7090134.89  1769%  3822 13982s
  1144  1028 6709439.54   10  670 -424763.75 7089354.42  1769%  3818 13985s
  1146  1030 2546775.43   83  682 -424763.75 7088346.59  1769%  3812 13991s
  1147  1030 6042005.83   46  685 -424763.75 7088245.33  1769%  3808 14000s
  1148  1031 2397199.73   86  655 -424763.75 7084434.92  1768%  3805 14043s
  1149  1032 6788679.18   17  629 -424763.75 7079478.54  1767%  3802 14058s
  1150  1032 -317622.18   30  615 -424763.75 7077519.32  1766%  3798 14065s
  1152  1034 -403824.55  139  665 -424763.75 7075224.37  1766%  3792 14072s
  1153  1034 251485.886  107  664 -424763.75 7074768.82  1766%  3789 14075s
  1154  1035 -323642.15  123  669 -424763.75 7074727.81  1766%  3785 14083s
  1155  1036 4928545.88   62  620 -424763.75 7063692.30  1763%  3782 14109s
  1156  1036 1995763.01   41  626 -424763.75 7062399.77  1763%  3779 14115s
  1157  1037 6778932.21   28  618 -424763.75 7060582.96  1762%  3775 14120s
  1159  1038 3714322.46   10  641 -424763.75 7059369.41  1762%  3769 14127s
  1160  1039 7059080.92    9  646 -424763.75 7059080.92  1762%  3766 14130s
  1162  1040 1737540.97  212  648 -424763.75 7058262.59  1762%  3759 14142s
  1163  1041 1810533.69  180  672 -424763.75 7057329.67  1761%  3756 14170s
  1165  1042 7056909.83    4  675 -424763.75 7056909.83  1761%  3750 14181s
  1166  1043 -391596.89  123  656 -424763.75 7056556.95  1761%  3746 14199s
  1167  1044 6912671.96   17  679 -424763.75 7056388.07  1761%  3743 14207s
  1168  1044 7034296.88   11  641 -424763.75 7055301.33  1761%  3740 14414s
  1169  1045 1676735.96  261  657 -424763.75 7054951.73  1761%  3737 14418s
  1170  1046 7054878.68   11  653 -424763.75 7054878.68  1761%  3734 14427s
  1171  1046 6423107.05   13  664 -424763.75 7054368.79  1761%  3730 14891s
  1172  1047 1550218.01  287  664 -424763.75 7053754.17  1761%  3727 14896s
  1173  1048 5839486.29   53  661 -424763.75 7053650.14  1761%  3724 14906s
  1174  1048 5002965.61   61  669 -424763.75 7053575.65  1761%  3721 14918s
  1175  1049 -309326.06  117  660 -424763.75 7053490.07  1761%  3718 14928s
  1176  1050 1568345.48  279  671 -424763.75 7053456.76  1761%  3714 14938s
  1177  1050 1698103.66  247  670 -424763.75 7053456.76  1761%  3711 14945s
  1179  1053 5497529.17   50  556 -424763.75 7053456.76  1761%  3927 14959s
  1181  1054 1819809.17  176  395 -424763.75 7053456.76  1761%  3920 15152s
  1182  1055 -391596.89  123  434 -424763.75 7053456.76  1761%  3917 15358s
  1183  1056 1960644.41   42  428 -424763.75 6901451.62  1725%  3913 15523s
H 1183  1003                    -424763.7365 6901451.62  1725%  3913 15664s
  1184  1003 2749628.01   54  418 -424763.74 6678686.09  1672%  3910 15665s
H 1184   952                    -424763.7293 6678686.09  1672%  3910 15730s
  1186   954 2651953.09  110  478 -424763.73 6618005.63  1658%  3903 15780s
  1187   954 1447938.96   56  523 -424763.73 6600075.98  1654%  3900 15836s
  1188   955 6424213.30   20  533 -424763.73 6597713.80  1653%  3897 15843s
  1189   956 1799259.99  188  536 -424763.73 6593924.62  1652%  3894 15854s
  1190   956 1504827.49  298  520 -424763.73 6587507.63  1651%  3890 15863s
  1191   957 4302679.87    4  523 -424763.73 6585796.34  1650%  3887 15872s
  1192   958 5404523.86   56  523 -424763.73 6581253.56  1649%  3884 15883s
  1193   958 -336161.73  129  522 -424763.73 6579980.05  1649%  3881 15887s
  1194   959 3575889.22   22  534 -424763.73 6579171.53  1649%  3877 15890s
  1195   960 3458404.97   78  545 -424763.73 6577513.82  1649%  3874 15898s
  1196   960 2203492.96  113  556 -424763.73 6577294.69  1648%  3871 15906s
  1197   961 6555733.22   18  575 -424763.73 6555733.22  1643%  3868 15995s
  1198   962 2009558.71  127  606 -424763.73 6550589.54  1642%  3864 16012s
  1199   962 6545597.44    6  587 -424763.73 6545597.44  1641%  3861 16021s
  1200   963 1855497.47  163  595 -424763.73 6543059.17  1640%  3858 16027s
  1201   964 1434789.15  319  610 -424763.73 6539758.77  1640%  3855 16034s
  1202   964 4166816.23   75  566 -424763.73 6537865.15  1639%  3851 16043s
  1203   965 4435673.45   60  591 -424763.73 6535334.61  1639%  3848 16052s
  1204   966 1571530.78  277  608 -424763.73 6533920.72  1638%  3845 16057s
  1205   966 -358857.72  102  582 -424763.73 6532735.58  1638%  3842 16060s
  1207   968 2812242.79   94  598 -424763.73 6532236.45  1638%  3836 16071s
  1208   968 1819809.17  176  630 -424763.73 6528221.82  1637%  3832 16092s
  1209   969 -322906.05  121  635 -424763.73 6527238.57  1637%  3829 16099s
  1210   970 -298156.67  111  650 -424763.73 6526650.34  1637%  3826 16104s
  1211   970 1542340.72  289  651 -424763.73 6526266.37  1636%  3823 16109s
  1212   971 -200515.83   87  657 -424763.73 6526168.51  1636%  3820 16118s
  1213   972 6499780.95   15  650 -424763.73 6524641.76  1636%  3817 16132s
  1214   972 6523871.89   15  637 -424763.73 6523871.89  1636%  3813 16138s
  1215   973 911137.908   57  632 -424763.73 6523655.69  1636%  3810 16147s
  1216   974 6520504.43   22  634 -424763.73 6520504.43  1635%  3807 16189s
  1217   974 -370453.19   97  635 -424763.73 6519359.57  1635%  3804 16208s
  1218   975 1716003.36  232  650 -424763.73 6518678.78  1635%  3801 16228s
  1219   976 -298156.67  111  664 -424763.73 6518224.30  1635%  3798 16233s
  1220   976 5031320.09   44  663 -424763.73 6518086.34  1635%  3795 16243s
  1221   977 6516330.27   16  637 -424763.73 6516330.27  1634%  3792 16267s
  1222   978 1729945.13  221  638 -424763.73 6515732.62  1634%  3788 16276s
  1223   978 1400988.11  337  638 -424763.73 6515560.83  1634%  3785 16288s
  1224   979 4951475.21   67  655 -424763.73 6513792.33  1634%  3782 16324s
  1225   980 6513581.80   24  657 -424763.73 6513581.80  1633%  3779 16336s
  1226   980 6509408.50   31  650 -424763.73 6509408.50  1632%  3776 16357s
  1227   981 1418838.95  325  650 -424763.73 6508059.63  1632%  3773 16361s
  1228   982 1131843.68  283  649 -424763.73 6507838.06  1632%  3770 16371s
H 1228   932                    -327384.0794 6506932.58  2088%  3770 16401s
  1230   933 4489491.14  102  655 -327384.08 6506492.42  2087%  3764 16406s
  1231   934 3955331.09   29  665 -327384.08 6506175.54  2087%  3761 16411s
  1232   934 5404717.44   57  686 -327384.08 6505929.86  2087%  3758 16415s
  1233   935 5921832.18   12  654 -327384.08 6505159.34  2087%  3755 16420s
  1234   936 -327384.08  147  652 -327384.08 6505067.38  2087%  3752 16429s
H 1234   889                    -327384.0790 6504321.75  2087%  3752 16442s
  1236   890 3164908.47   27  665 -327384.08 6503856.85  2087%  3746 16445s
  1237   891 4302598.96   52  664 -327384.08 6503752.95  2087%  3742 16456s
  1238   891 1700918.30  244  665 -327384.08 6503546.89  2087%  3739 16469s
  1239   892 1146727.13  191  673 -327384.08 6503489.88  2087%  3736 16478s
  1240   893 1532887.55  184  675 -327384.08 6503372.74  2086%  3733 16493s
  1241   893 3706603.63   10  681 -327384.08 6503337.50  2086%  3730 16502s
  1242   894 478147.522   79  684 -327384.08 6502638.53  2086%  3727 16532s
  1243   895 6341244.38   28  686 -327384.08 6502547.61  2086%  3724 16547s
  1244   895 6502438.41   10  692 -327384.08 6502438.41  2086%  3721 16560s
  1245   896 6502340.74   18  686 -327384.08 6502340.74  2086%  3718 16569s
  1246   897 2546775.43   83  689 -327384.08 6502322.65  2086%  3715 16575s
  1247   897 6042005.83   46  688 -327384.08 6502322.65  2086%  3712 16580s
  1249   900 6502322.65   17  556 -327384.08 6502322.65  2086%  3945 16585s
  1251   901 -204786.28   88  389 -327384.08 6502322.65  2086%  3939 16832s
  1252   902 -327384.08  139  426 -327384.08 6502322.65  2086%  3936 16955s
  1253   903 251485.886  107  409 -327384.08 6502322.65  2086%  3932 17070s
  1254   903 -323642.15  123  442 -327384.08 6502322.65  2086%  3929 17126s
  1255   904 4928545.88   62  452 -327384.08 6502322.65  2086%  3926 17178s
  1256   905 1995763.01   41  502 -327384.08 6502322.65  2086%  3923 17217s
  1257   905 6502322.65   28  554 -327384.08 6502322.65  2086%  3920 17305s
  1258   906 38394.3106  133  580 -327384.08 6502322.65  2086%  3917 17336s
  1259   907 3714322.46   10  608 -327384.08 6502322.65  2086%  3914 17388s
  1260   907 6502322.65    9  622 -327384.08 6502322.65  2086%  3911 17412s
  1261   908 4934763.04   71  613 -327384.08 6502322.65  2086%  3907 17424s
  1262   909 1737540.97  212  620 -327384.08 6502322.65  2086%  3904 17436s
  1263   909 1810533.69  180  620 -327384.08 6502322.65  2086%  3901 17454s
  1264   910 1740242.77   77  609 -327384.08 6502322.65  2086%  3898 17472s
  1265   911 6502322.65    4  629 -327384.08 6502322.65  2086%  3895 17488s
  1266   911 -327384.08  123  649 -327384.08 6502322.65  2086%  3892 17502s
  1267   912 6501280.22   17  634 -327384.08 6501280.22  2086%  3889 17519s
  1268   913 6500105.66   11  641 -327384.08 6500105.66  2085%  3886 17523s
  1269   913 1676735.96  261  651 -327384.08 6499063.50  2085%  3883 17539s
  1270   914 6498892.49   11  659 -327384.08 6498892.49  2085%  3880 17549s
  1271   915 6423107.05   13  644 -327384.08 6491454.44  2083%  3877 17665s
  1272   915 1550218.01  287  658 -327384.08 6488726.30  2082%  3874 17676s
  1273   916 5839486.29   53  684 -327384.08 6485985.56  2081%  3871 17687s
  1274   917 5002965.61   61  688 -327384.08 6485343.10  2081%  3868 17690s
  1276   918 1568345.48  279  692 -327384.08 6484096.56  2081%  3861 17701s
  1278   919 2531210.22   84  705 -327384.08 6483619.64  2080%  3855 17711s
  1279   920 5497529.17   50  694 -327384.08 6479787.43  2079%  3852 17739s
  1280   921 6479392.92   19  715 -327384.08 6479392.92  2079%  3849 17743s
  1281   921 1819809.17  176  705 -327384.08 6478122.41  2079%  3846 17747s
  1282   922 -327384.08  123  701 -327384.08 6477890.98  2079%  3843 17750s
  1284   923 2749628.01   54  701 -327384.08 6477488.23  2079%  3837 17760s
  1285   924 2305169.12   67  708 -327384.08 6476435.23  2078%  3834 17775s
  1287   925 1447938.96   56  707 -327384.08 6476081.40  2078%  3828 17785s
  1288   926 6424213.30   20  717 -327384.08 6475583.20  2078%  3826 17797s
  1289   927 1799259.99  188  718 -327384.08 6474986.06  2078%  3823 17801s
  1290   927 1504827.49  298  726 -327384.08 6474869.29  2078%  3820 17809s
  1291   928 4302679.87    4  725 -327384.08 6474633.93  2078%  3817 17822s
  1292   929 5404523.86   56  713 -327384.08 6474435.76  2078%  3814 17830s
  1293   929 -327384.08  129  712 -327384.08 6474111.34  2078%  3811 17844s
  1294   930 3575889.22   22  722 -327384.08 6474044.70  2078%  3808 17852s
  1295   931 3458404.97   78  714 -327384.08 6473748.73  2077%  3805 17865s
  1297   932 6473344.93   18  710 -327384.08 6473344.93  2077%  3799 17875s
  1298   933 2009558.71  127  715 -327384.08 6473108.35  2077%  3796 17890s
  1299   933 6472981.95    6  716 -327384.08 6472981.95  2077%  3793 17898s
  1300   934 1855497.47  163  691 -327384.08 6472836.47  2077%  3790 18002s
  1301   935 1434789.15  319  690 -327384.08 6472836.47  2077%  3787 18010s
  1302   935 4166816.23   75  690 -327384.08 6472836.47  2077%  3784 18180s
  1303   939 6349546.86   36  676 -327384.08 6472836.47  2077%  4030 18957s
  1305   942 6348321.58   37  676 -327384.08 6348321.58  2039%  4038 19832s
  1309   945 6347849.82   38  680 -327384.08 6348321.58  2039%  4149 20332s
  1313   948 5335011.53   38  520 -327384.08 6347849.34  2039%  4252 20875s
  1317   950 6347376.11   39  679 -327384.08 6347376.11  2039%  4278 21109s
  1321   952 5392418.11   39  543 -327384.08 6347376.11  2039%  4393 21708s
  1325   957 6347236.25   40  679 -327384.08 6347236.25  2039%  4477 22180s
  1332   956 6340935.68   41  638 -327384.08 6347205.28  2039%  4629 22520s
  1337   962 6241136.44   41  572 -327384.08 6340935.48  2037%  4732 22790s
  1344   962 6327633.70   42  642 -327384.08 6327633.70  2033%  4776 23168s
  1353   971 6300494.57   43  631 -327384.08 6323850.85  2032%  4862 23343s
  1361   976 6305257.90   44  610 -327384.08 6323739.04  2032%  4919 23701s
  1368   981 6000252.52   44  566 -327384.08 6305256.81  2026%  5011 23935s
  1377   985 5663630.01   45  491 -327384.08 6301121.61  2025%  5117 24421s
  1384   990 6289679.74   46  615 -327384.08 6300527.08  2025%  5166 24749s
  1395   999 6283225.91   47  563 -327384.08 6300493.27  2024%  5214 24983s
  1403  1005 6260143.18   48  591 -327384.08 6300493.27  2024%  5265 25293s
  1410  1011 5624353.73   49  502 -327384.08 6300493.27  2024%  5411 25721s
  1415  1009 6217647.23   50  580 -327384.08 6300493.27  2024%  5498 26223s
  1424  1017 6208002.29   51  570 -327384.08 6300493.27  2024%  5561 26683s
  1434  1024 1893398.38   52  365 -327384.08 6300493.27  2024%  5742 27502s
  1442  1029 6135809.73   53  549 -327384.08 6300493.27  2024%  5799 27837s
  1459  1042 -144984.08   54  403 -327384.08 6300493.27  2024%  5932 28644s
  1466  1044 6133261.26   55  568 -327384.08 6300493.27  2024%  6034 29117s
  1475  1051 6133261.26   56  568 -327384.08 6300493.27  2024%  6106 29496s
  1494  1066 6126001.12   57  538 -327384.08 6300493.27  2024%  6170 30060s
  1508  1073 6119577.45   59  558 -327384.08 6300493.27  2024%  6293 30418s
  1526  1086 6114332.24   60  555 -327384.08 6300493.27  2024%  6375 30782s
  1544  1099 2654527.14   61  375 -327384.08 6300493.27  2024%  6520 31142s
  1552  1097 6094565.49   62  543 -327384.08 6300493.27  2024%  6615 31640s
  1572  1115 6078435.96   64  546 -327384.08 6300493.27  2024%  6740 32210s
H 1583  1076                    -327384.0787 6300493.27  2024%  6787 32210s
  1593  1079 6072346.94   66  555 -327384.08 6300493.27  2024%  6841 32741s
  1610  1091 6071969.40   67  565 -327384.08 6300493.27  2024%  7008 33318s
H 1613  1045                    -327384.0785 6300493.27  2024%  7029 33318s
  1628  1059 6038414.08   69  542 -327384.08 6300493.27  2024%  7165 33784s
  1655  1072 5959965.76   71  524 -327384.08 6300493.27  2024%  7230 34399s
  1689  1100 5959276.98   73  505 -327384.08 6300493.27  2024%  7278 34951s
  1725  1118 5945821.95   74  486 -327384.08 6300493.27  2024%  7321 35584s
  1757  1142 5944199.13   75  501 -327384.08 6300493.27  2024%  7389 36290s
  1799  1164 5917007.23   80  512 -327384.08 6300493.27  2024%  7468 36860s
  1842  1195 5899233.93   83  460 -327384.08 6300493.27  2024%  7495 37449s
  1902  1238 4993922.63   86  460 -327384.08 6300493.27  2024%  7489 38023s
  1974  1284 5754448.14   91  499 -327384.08 6300493.27  2024%  7380 38669s
  1982  1290 5750346.13   92  513 -327384.08 6300493.27  2024%  7374 39310s
  2056  1342 3588489.71   98  421 -327384.08 6300493.27  2024%  7331 39934s
  2137  1394 4572229.90  107  408 -327384.08 6300493.27  2024%  7243 40583s
  2246  1468 3132815.97  123  320 -327384.08 6300493.27  2024%  7074 41236s
  2366  1542 3069138.71  138  334 -327384.08 6300493.27  2024%  6915 41854s
  2497  1620 3007707.91  157  332 -327384.08 6300493.27  2024%  6711 42479s
  2647  1716 2933976.12  177  324 -327384.08 6300493.27  2024%  6489 43085s
  2806  1775 2877748.44  197  312 -327384.08 6300493.27  2024%  6262 43694s
  2947  1848 2768275.59  220  291 -327384.08 6300493.27  2024%  6118 44138s
  3049  1897 2716599.91  240  320 -327384.08 6300493.27  2024%  6073 44617s
  3177  1976 2615129.10  259  279 -327384.08 6300493.27  2024%  6006 45094s
H 3242  1976                    -327384.0495 6300493.27  2024%  5957 45094s
  3326  1986 1759935.93  281  239 -327384.05 6300493.27  2024%  5891 45608s
  3526  2061 2252669.88  314  234 -327384.05 6300493.27  2024%  5741 46114s
  3743  2140 2117072.42  348  245 -327384.05 6300493.27  2024%  5600 46626s
  4047  2300 1870636.48  393  235 -327384.05 6300493.11  2024%  5333 47308s
  4421  2528 6250964.38   46  629 -327384.05 6300493.11  2024%  4998 47790s
  4644  2737 6246591.22   48  610 -327384.05 6300493.11  2024%  4825 48268s
  4723  2808 6205182.28   52  607 -327384.05 6300493.11  2024%  4828 48790s
  4847  2931 6037481.29   56  538 -327384.05 6300493.11  2024%  4806 49286s
  4977  3058 6037965.09   56  506 -327384.05 6300493.11  2024%  4736 49840s
  5248  3323 5967986.31   61  510 -327384.05 6300493.11  2024%  4570 50432s
  5499  3522 5869376.59   67  525 -327384.05 6300493.11  2024%  4460 51037s
  5654  3674 5698159.51   68  463 -327384.05 6300493.11  2024%  4434 51696s
  5896  3879 3985094.01   72  387 -327384.05 6300493.11  2024%  4351 52375s
  6142  4092 3261360.02   90  307 -327384.05 6300493.11  2024%  4278 53033s
  6481  4332 2303734.64  117  294 -327384.05 6300493.11  2024%  4158 53618s
  6937  4655 1271520.50  192  220 -327384.05 6289440.81  2021%  3976 54326s
  7355  4914 5804313.57   50  546 -327384.05 6287143.94  2020%  3824 54988s
  7580  5097 5528798.79   57  509 -327384.05 6287143.94  2020%  3774 55596s
  7680  5177 4039541.64   72  400 -327384.05 6287143.94  2020%  3784 56249s
  7965  5462 1600658.48  169  259 -327384.05 6287143.94  2020%  3715 56946s
  8348  5805 -145672.16  336  200 -327384.05 6283193.77  2019%  3595 57857s
  8595  6009 3762208.62   48  460 -327384.05 6281548.86  2019%  3568 58772s
  8934  6279 5350340.88   54  427 -327384.05 6281548.86  2019%  3508 59720s
  9174  6521 1976105.70   98  352 -327384.05 6272783.22  2016%  3494 60576s
  9363  6695 5116008.52   51  526 -327384.05 6272783.22  2016%  3492 61492s
  9714  7030 4812388.80   60  519 -327384.05 6272783.22  2016%  3449 62650s
 10176  7446 4675607.58   68  511 -327384.05 6272783.22  2016%  3378 63648s
 10484  7737 4577140.83   79  435 -327384.05 6272783.22  2016%  3356 64613s
 10704  7956 4384878.90   92  467 -327384.05 6272783.22  2016%  3345 65640s
 11009  8251 3554893.70  113  412 -327384.05 6272783.22  2016%  3320 66818s
 11342  8549 2653041.13  147  328 -327384.05 6272783.22  2016%  3313 68416s
 11733  8926 2546886.48  172  291 -327384.05 6272783.22  2016%  3294 69584s
 12151  9328 2496939.62  198  329 -327384.05 6272783.22  2016%  3253 71266s
 12451  9590 2394043.56  227  301 -327384.05 6272783.22  2016%  3259 72417s
 12763  9903 2359652.88  250  285 -327384.05 6272783.22  2016%  3244 73503s
 13318 10457 2312131.55  277  305 -327384.05 6272783.22  2016%  3163 74474s
 13883 11015 2161452.66  309  249 -327384.05 6272783.22  2016%  3070 75374s
 14440 11542 1937640.29  337  267 -327384.05 6272783.22  2016%  2981 76372s
 14797 11827 1891616.03  367  275 -327384.05 6272783.22  2016%  2969 77318s
 15024 12051 1611560.50  402  246 -327384.05 6272783.22  2016%  2983 78266s
 15446 12445 1525026.21  438  240 -327384.05 6272783.22  2016%  2966 79186s
 15870 12817 1350948.27  480  288 -327384.05 6272783.22  2016%  2938 80107s
 16188 13062 1298891.68  531  273 -327384.05 6272783.22  2016%  2937 80963s
 16255 13123 896875.618  543  242 -327384.05 6272783.22  2016%  2933 81928s
 16871 13613 1187028.15  601  316 -327384.05 6272783.22  2016%  2891 82806s
 17270 13851     cutoff  685      -327384.05 6242683.15  2007%  2883 83800s
 17482 13971 2056615.98   53  318 -327384.05 6241133.84  2006%  2891 84776s
 17651 14114 6143208.75   44  558 -327384.05 6241133.84  2006%  2907 85698s
H17776 14183                    -327384.0302 6241133.84  2006%  2923 85698s
 17891 14332 5419676.45   62  498 -327384.03 6241133.84  2006%  2908 86400s

Cutting planes:
  Gomory: 16
  Implied bound: 7
  Projected implied bound: 26
  Clique: 1
  MIR: 46
  Flow cover: 522
  Zero half: 3

Explored 18008 nodes (52885973 simplex iterations) in 86404.49 seconds
Thread count was 4 (of 16 available processors)

Solution count 10: -327384 -327384 -327384 ... -428645

Time limit reached
Warning: max constraint violation (1.4303e-04) exceeds tolerance
Best objective -3.273840706390e+05, best bound 6.241133835052e+06, gap 2006.3645%

***
***  |- Calculation finished, timelimit reached 86,404.61 (86404.61) sec.))
***  |-----------------------------------------------------------------------------------------------------------------------
***
*****************************************************************************************************************************
#############################################################################################################################
###
### Results
###
### The objective of the solution is -327,384.0706 (-327384.0706) and is feasible with a Gap of 20.0636
###
### Service 7 (ME3) is operated by 5 vessels from type 19 (PMax28)
###  |- Vessel  6 has the path [219, 364, 334, 352, 229, 327, -3]
###  |  219 (NLRTM Out@260.0) - 364 (TRMER In@411.0/Out@455.0) - 334 (EGPSD In@531.0/Out@550.0) - 352 (OMSLL In@710.0/Out@722
###  |  .0) - 229 (OMSLL In@721.0/Out@736.0) - 327 (AEJEA In@858.0/Out@891.0) - -3 (DUMMY_END Ziel-Service 7)
###  |   |- and carried Demand 207,  288.0 containers from 352 to 327
###  |   |- and carried Demand 208,   14.0 containers from 352 to 327
###  |   |- and carried Demand 214,  164.0 containers from 334 to 327
###  |   |- and carried Demand 215,   58.0 containers from 334 to 327
###  |- Vessel  7 has the path [221, 137, 203, 115, 367, 330, -3]
###  |  221 (NLRTM Out@428.0) - 137 (FRLEH In@447.0/Out@463.0) - 203 (MAPTM In@543.0/Out@564.0) - 115 (ESALG In@589.0/Out@601
###  |  .0) - 367 (TRMER In@915.0/Out@959.0) - 330 (AEJEA In@1362.0/Out@1395.0) - -3 (DUMMY_END Ziel-Service 7)
###  |   |- and carried Demand  25,   68.0 containers from 221 to 115
###  |   |- and carried Demand  26,    6.0 containers from 221 to 137
###  |   |- and carried Demand  29,   60.0 containers from 203 to 115
###  |   |- and carried Demand  30,   11.0 containers from 203 to 115
###  |   |- and carried Demand 123,   68.0 containers from 221 to 115
###  |   |- and carried Demand 126,   60.0 containers from 203 to 115
###  |   |- and carried Demand 127,   11.0 containers from 203 to 115
###  |- Vessel  8 has the path [223, 366, 328, -3]
###  |  223 (NLRTM Out@596.0) - 366 (TRMER In@747.0/Out@791.0) - 328 (AEJEA In@1026.0/Out@1059.0) - -3 (DUMMY_END Ziel-Servic
###  |  e 7)
###  |- Vessel 15 has the path [134, 356, 325, -3]
###  |  134 (FRLEH Out@158.0) - 356 (TRAMB In@347.0/Out@395.0) - 325 (AEJEA In@690.0/Out@723.0) - -3 (DUMMY_END Ziel-Service 
###  |  7)
###  |- Vessel 16 has the path [136, 365, 338, 339, 329, -3]
###  |  136 (FRLEH Out@326.0) - 365 (TRMER In@579.0/Out@623.0) - 338 (EGPSD In@867.0/Out@886.0) - 339 (EGPSD In@957.0/Out@973
###  |  .0) - 329 (AEJEA In@1194.0/Out@1227.0) - -3 (DUMMY_END Ziel-Service 7)
###  |   |- and carried Demand 206,  467.0 containers from 338 to 329
###  |   |- and carried Demand 210,  467.0 containers from 339 to 329
###  |
### Service 24 (WAF7) is operated by 3 vessels from type 18 (PMax25)
###  |- Vessel  1 has the path [100, 276, -1]
###  |  100 (DEHAM Out@288.0) - 276 (ESALG In@496.0/Out@515.0) - -1 (DUMMY_END Ziel-Service 24)
###  |- Vessel  2 has the path [101, 277, -1]
###  |  101 (DEHAM Out@456.0) - 277 (ESALG In@664.0/Out@683.0) - -1 (DUMMY_END Ziel-Service 24)
###  |- Vessel 13 has the path [104, 291, 202, 114, 278, -1]
###  |  104 (DKAAR Out@220.0) - 291 (MAPTM In@379.0/Out@398.0) - 202 (MAPTM In@406.0/Out@427.0) - 114 (ESALG In@452.0/Out@464
###  |  .0) - 278 (ESALG In@832.0/Out@851.0) - -1 (DUMMY_END Ziel-Service 24)
###  |   |- and carried Demand  52,  484.0 containers from 202 to 114
###  |   |- and carried Demand  53,   18.0 containers from 202 to 114
###  |   |- and carried Demand 132,  214.0 containers from 202 to 278
###  |   |- and carried Demand 133,   10.0 containers from 202 to 278
###  |   |- and carried Demand 134,  484.0 containers from 202 to 114
###  |   |- and carried Demand 135,   18.0 containers from 202 to 114
###  |   |- and carried Demand 138,  214.0 containers from 291 to 278
###  |   |- and carried Demand 139,   10.0 containers from 291 to 278
###  |   |- and carried Demand 140,  484.0 containers from 291 to 114
###  |   |- and carried Demand 141,   18.0 containers from 291 to 114
###  |
### Service 81 (MECL1) is operated by 6 vessels from type 30 (PMax35)
###  |- Vessel  9 has the path [1, 274, 199, 371, 424, 230, 375, 428, 408, -4]
###  |  1 (BEANR Out@66.0) - 274 (ESALG In@160.0/Out@179.0) - 199 (MAPTM In@207.0/Out@228.0) - 371 (AEJEA In@563.0/Out@587.0)
###  |   - 424 (PKBQM In@644.0/Out@674.0) - 230 (OMSLL In@889.0/Out@904.0) - 375 (AEJEA In@1235.0/Out@1259.0) - 428 (PKBQM In
###  |  @1316.0/Out@1346.0) - 408 (INNSA In@1410.0/Out@1426.0) - -4 (DUMMY_END Ziel-Service 81)
###  |   |- and carried Demand 306,   31.0 containers from 428 to 408
###  |   |- and carried Demand 307,   37.0 containers from 375 to 408
###  |   |- and carried Demand 308,  211.0 containers from 375 to 408
###  |   |- and carried Demand 309,  176.0 containers from 375 to 428
###  |   |- and carried Demand 377,  704.0 containers from 371 to 408
###  |   |- and carried Demand 378,    8.0 containers from 371 to 408
###  |   |- and carried Demand 379,  156.0 containers from 371 to 424
###  |   |- and carried Demand 380,   45.0 containers from 371 to 424
###  |- Vessel 10 has the path [2, 160, 404, -4]
###  |  2 (BEANR Out@234.0) - 160 (GRPIR In@528.0/Out@553.0) - 404 (INNSA In@738.0/Out@754.0) - -4 (DUMMY_END Ziel-Service 81
###  |  )
###  |- Vessel 11 has the path [5, 266, 373, 426, 231, 376, 429, 409, -4]
###  |  5 (BEANR Out@402.0) - 266 (TRALI In@668.0/Out@686.0) - 373 (AEJEA In@899.0/Out@923.0) - 426 (PKBQM In@980.0/Out@1010.
###  |  0) - 231 (OMSLL In@1132.0/Out@1145.0) - 376 (AEJEA In@1403.0/Out@1427.0) - 429 (PKBQM In@1484.0/Out@1514.0) - 409 (IN
###  |  NSA In@1578.0/Out@1594.0) - -4 (DUMMY_END Ziel-Service 81)
###  |   |- and carried Demand 289,   34.0 containers from 429 to 409
###  |   |- and carried Demand 290,   84.0 containers from 376 to 429
###  |   |- and carried Demand 291,   50.0 containers from 376 to 429
###  |   |- and carried Demand 342,  254.0 containers from 426 to 409
###  |   |- and carried Demand 343,    1.0 containers from 426 to 409
###  |   |- and carried Demand 344,  135.0 containers from 426 to 409
###  |   |- and carried Demand 347,   75.0 containers from 373 to 409
###  |   |- and carried Demand 348,  200.0 containers from 373 to 426
###  |   |- and carried Demand 349,   24.0 containers from 373 to 426
###  |   |- and carried Demand 350,   26.0 containers from 373 to 409
###  |   |- and carried Demand 351,  144.0 containers from 373 to 409
###  |   |- and carried Demand 352,    1.0 containers from 373 to 409
###  |- Vessel 12 has the path [8, 267, 374, 427, 407, -4]
###  |  8 (BEANR Out@570.0) - 267 (TRALI In@836.0/Out@854.0) - 374 (AEJEA In@1067.0/Out@1091.0) - 427 (PKBQM In@1148.0/Out@11
###  |  78.0) - 407 (INNSA In@1242.0/Out@1258.0) - -4 (DUMMY_END Ziel-Service 81)
###  |   |- and carried Demand 329,   86.0 containers from 374 to 427
###  |   |- and carried Demand 330,  118.0 containers from 374 to 427
###  |- Vessel 17 has the path [145, 268, 372, 425, 405, -4]
###  |  145 (GBFXT Out@302.0) - 268 (TRAMB In@576.0/Out@603.0) - 372 (AEJEA In@731.0/Out@755.0) - 425 (PKBQM In@812.0/Out@842
###  |  .0) - 405 (INNSA In@906.0/Out@922.0) - -4 (DUMMY_END Ziel-Service 81)
###  |   |- and carried Demand 361,   44.0 containers from 425 to 405
###  |   |- and carried Demand 366,  133.0 containers from 372 to 425
###  |   |- and carried Demand 367,   61.0 containers from 372 to 425
###  |- Vessel 18 has the path [148, 222, 273, 406, -4]
###  |  148 (GBFXT Out@470.0) - 222 (NLRTM In@500.0/Out@512.0) - 273 (TRZMK In@785.0/Out@799.0) - 406 (INNSA In@1074.0/Out@10
###  |  90.0) - -4 (DUMMY_END Ziel-Service 81)
###  |
### Service 121 (SAE) is operated by 1 vessels from type 19 (PMax28)
###  |- Vessel  5 has the path [218, 290, 200, 112, 275, 201, 113, 315, 311, 301, -2]
###  |  218 (NLRTM Out@92.0) - 290 (MAPTM In@211.0/Out@230.0) - 200 (MAPTM In@238.0/Out@259.0) - 112 (ESALG In@284.0/Out@296.
###  |  0) - 275 (ESALG In@328.0/Out@347.0) - 201 (MAPTM In@375.0/Out@396.0) - 113 (ESALG In@421.0/Out@433.0) - 315 (USORF In
###  |  @873.0/Out@881.0) - 311 (USMIA In@935.0/Out@943.0) - 301 (HNPCR In@998.0/Out@1011.0) - -2 (DUMMY_END Ziel-Service 121
###  |  )
###  |   |- and carried Demand   5,   42.0 containers from 218 to 112
###  |   |- and carried Demand  17,  484.0 containers from 201 to 113
###  |   |- and carried Demand  18,   18.0 containers from 201 to 113
###  |   |- and carried Demand  46,  580.0 containers from 200 to 112
###  |   |- and carried Demand 116,   42.0 containers from 218 to 112
###  |   |- and carried Demand 121,  484.0 containers from 201 to 113
###  |   |- and carried Demand 122,   18.0 containers from 201 to 113
###  |   |- and carried Demand 131,  580.0 containers from 200 to 112
###  |   |- and carried Demand 145,  580.0 containers from 290 to 112
###  |   |- and carried Demand 170,   10.0 containers from 311 to 301
###  |   |- and carried Demand 171,   75.0 containers from 315 to 301
###  |   |- and carried Demand 172,  114.0 containers from 315 to 301
###  |
### Service 177 (WCSA) is operated by 3 vessels from type 18 (PMax25)
###  |- Vessel  3 has the path [102, 358, 269, 236, 0]
###  |  102 (DEHAM Out@624.0) - 358 (TRAMB In@683.0/Out@731.0) - 269 (TRAMB In@744.0/Out@771.0) - 236 (PABLB In@1640.0/Out@16
###  |  52.0) - 0 (DUMMY_END Ziel-Service 177)
###  |- Vessel  4 has the path [103, 235, 0]
###  |  103 (DEHAM Out@792.0) - 235 (PABLB In@1472.0/Out@1484.0) - 0 (DUMMY_END Ziel-Service 177)
###  |- Vessel 14 has the path [105, 272, 234, 0]
###  |  105 (DKAAR Out@388.0) - 272 (TRZMK In@617.0/Out@631.0) - 234 (PABLB In@1304.0/Out@1316.0) - 0 (DUMMY_END Ziel-Service
###  |   177)
###  |
### Vessels not used in the solution: []
###  |-----------------------------------------------------------------------------------------------------------------------
###
#############################################################################################################################

### Detialed variable overview

### All variables with value greater zero:
rho[7,19] = 1
rho[81,30] = 1
rho[177,18] = 1
rho[24,18] = 1
rho[121,19] = 1
eta[7,19,1] = 1
eta[7,19,2] = 1
eta[7,19,3] = 1
eta[7,19,4] = 1
eta[7,19,5] = 1
eta[81,30,1] = 1
eta[81,30,2] = 1
eta[81,30,3] = 1
eta[81,30,4] = 1
eta[81,30,5] = 1
eta[81,30,6] = 1
eta[177,18,1] = 1
eta[177,18,2] = 1
eta[177,18,3] = 1
eta[24,18,1] = 1
eta[24,18,2] = 1
eta[24,18,3] = 1
eta[121,19,1] = 1
y[1,276,-1] = 1
y[1,100,276] = 1
y[2,101,277] = 1
y[2,277,-1] = 1
y[3,269,236] = 1
y[3,102,358] = 1
y[3,358,269] = 1
y[3,236,0] = 1
y[4,235,0] = 1
y[4,103,235] = 1
y[5,218,290] = 1
y[5,200,112] = 1
y[5,301,-2] = 1
y[5,290,200] = 1
y[5,112,275] = 1
y[5,275,201] = 1
y[5,113,315] = 1
y[5,315,311] = 1
y[5,201,113] = 1
y[5,311,301] = 1
y[6,229,327] = 1
y[6,327,-3] = 1
y[6,352,229] = 1
y[6,364,334] = 1
y[6,334,352] = 1
y[6,219,364] = 1
y[7,137,203] = 1
y[7,221,137] = 1
y[7,367,330] = 1
y[7,203,115] = 1
y[7,115,367] = 1
y[7,330,-3] = 1
y[8,223,366] = 1
y[8,328,-3] = 1
y[8,366,328] = 1
y[9,274,199] = 1
y[9,375,428] = 1
y[9,1,274] = 1
y[9,199,371] = 1
y[9,424,230] = 1
y[9,428,408] = 1
y[9,230,375] = 1
y[9,408,-4] = 1
y[9,371,424] = 1
y[10,160,404] = 1
y[10,404,-4] = 1
y[10,2,160] = 1
y[11,231,376] = 1
y[11,373,426] = 1
y[11,426,231] = 1
y[11,376,429] = 1
y[11,409,-4] = 1
y[11,429,409] = 1
y[11,5,266] = 1
y[11,266,373] = 1
y[12,407,-4] = 1
y[12,427,407] = 1
y[12,267,374] = 1
y[12,8,267] = 1
y[12,374,427] = 1
y[13,104,291] = 1
y[13,291,202] = 1
y[13,114,278] = 1
y[13,202,114] = 1
y[13,278,-1] = 1
y[14,234,0] = 1
y[14,105,272] = 1
y[14,272,234] = 1
y[15,356,325] = 1
y[15,134,356] = 1
y[15,325,-3] = 1
y[16,136,365] = 1
y[16,329,-3] = 1
y[16,339,329] = 1
y[16,365,338] = 1
y[16,338,339] = 1
y[17,372,425] = 1
y[17,268,372] = 1
y[17,425,405] = 1
y[17,405,-4] = 1
y[17,145,268] = 1
y[18,148,222] = 1
y[18,273,406] = 1
y[18,222,273] = 1
y[18,406,-4] = 1
xD[5,218,290] = 42
xD[5,200,112] = 42
xD[5,290,200] = 42
xD[17,201,113] = 484
xD[18,201,113] = 18
xD[25,137,203] = 68
xD[25,221,137] = 68
xD[25,203,115] = 68
xD[26,221,137] = 6
xD[29,203,115] = 60
xD[30,203,115] = 11
xD[46,200,112] = 580
xD[52,202,114] = 484
xD[53,202,114] = 18
xD[116,218,290] = 42
xD[116,200,112] = 42
xD[116,290,200] = 42
xD[121,201,113] = 484
xD[122,201,113] = 18
xD[123,137,203] = 68
xD[123,221,137] = 68
xD[123,203,115] = 68
xD[126,203,115] = 60
xD[127,203,115] = 11
xD[131,200,112] = 580
xD[132,114,278] = 214
xD[132,202,114] = 214
xD[133,114,278] = 10
xD[133,202,114] = 10
xD[134,202,114] = 484
xD[135,202,114] = 18
xD[138,291,202] = 214
xD[138,114,278] = 214
xD[138,202,114] = 214
xD[139,291,202] = 10
xD[139,114,278] = 10
xD[139,202,114] = 10
xD[140,291,202] = 484
xD[140,202,114] = 484
xD[141,291,202] = 18
xD[141,202,114] = 18
xD[145,200,112] = 580
xD[145,290,200] = 580
xD[170,311,301] = 10
xD[171,315,311] = 75
xD[171,311,301] = 75
xD[172,315,311] = 114
xD[172,311,301] = 114
xD[206,339,329] = 467
xD[206,338,339] = 467
xD[207,229,327] = 288
xD[207,352,229] = 288
xD[208,229,327] = 14
xD[208,352,229] = 14
xD[210,339,329] = 467
xD[214,229,327] = 164
xD[214,352,229] = 164
xD[214,334,352] = 164
xD[215,229,327] = 58
xD[215,352,229] = 58
xD[215,334,352] = 58
xD[289,429,409] = 34
xD[290,376,429] = 84
xD[291,376,429] = 50
xD[306,428,408] = 31
xD[307,375,428] = 37
xD[307,428,408] = 37
xD[308,375,428] = 211
xD[308,428,408] = 211
xD[309,375,428] = 176
xD[329,374,427] = 86
xD[330,374,427] = 118
xD[342,231,376] = 254
xD[342,426,231] = 254
xD[342,376,429] = 254
xD[342,429,409] = 254
xD[343,231,376] = 1
xD[343,426,231] = 1
xD[343,376,429] = 1
xD[343,429,409] = 1
xD[344,231,376] = 135
xD[344,426,231] = 135
xD[344,376,429] = 135
xD[344,429,409] = 135
xD[347,231,376] = 75
xD[347,373,426] = 75
xD[347,426,231] = 75
xD[347,376,429] = 75
xD[347,429,409] = 75
xD[348,373,426] = 200
xD[349,373,426] = 24
xD[350,231,376] = 26
xD[350,373,426] = 26
xD[350,426,231] = 26
xD[350,376,429] = 26
xD[350,429,409] = 26
xD[351,231,376] = 144
xD[351,373,426] = 144
xD[351,426,231] = 144
xD[351,376,429] = 144
xD[351,429,409] = 144
xD[352,231,376] = 1
xD[352,373,426] = 1
xD[352,426,231] = 1
xD[352,376,429] = 1
xD[352,429,409] = 1
xD[361,425,405] = 44
xD[366,372,425] = 133
xD[367,372,425] = 61
xD[377,375,428] = 704
xD[377,424,230] = 704
xD[377,428,408] = 704
xD[377,230,375] = 704
xD[377,371,424] = 704
xD[378,375,428] = 8
xD[378,424,230] = 8
xD[378,428,408] = 8
xD[378,230,375] = 8
xD[378,371,424] = 8
xD[379,371,424] = 156
xD[380,371,424] = 45
zE[112] = 284
zE[113] = 421
zE[114] = 452
zE[115] = 589
zE[137] = 447
zE[160] = 528
zE[199] = 207
zE[200] = 238
zE[201] = 375
zE[202] = 406
zE[203] = 543
zE[222] = 500
zE[229] = 721
zE[230] = 889
zE[231] = 1132
zE[234] = 1304
zE[235] = 1472
zE[236] = 1640
zE[266] = 668
zE[267] = 836
zE[268] = 576
zE[269] = 744
zE[272] = 617
zE[273] = 785
zE[274] = 160
zE[275] = 328
zE[276] = 496
zE[277] = 664
zE[278] = 832
zE[290] = 211
zE[291] = 379
zE[301] = 998
zE[311] = 935
zE[315] = 873
zE[325] = 690
zE[327] = 858
zE[328] = 1026
zE[329] = 1194
zE[330] = 1362
zE[334] = 531
zE[338] = 867
zE[339] = 957
zE[352] = 710
zE[356] = 347
zE[358] = 683
zE[364] = 411
zE[365] = 579
zE[366] = 747
zE[367] = 915
zE[371] = 563
zE[372] = 731
zE[373] = 899
zE[374] = 1067
zE[375] = 1235
zE[376] = 1403
zE[404] = 738
zE[405] = 906
zE[406] = 1074
zE[407] = 1242
zE[408] = 1410
zE[409] = 1578
zE[424] = 644
zE[425] = 812
zE[426] = 980
zE[427] = 1148
zE[428] = 1316
zE[429] = 1484
zX[1] = 66
zX[2] = 234
zX[5] = 402
zX[8] = 570
zX[100] = 288
zX[101] = 456
zX[102] = 624
zX[103] = 792
zX[104] = 220
zX[105] = 388
zX[112] = 296
zX[113] = 433
zX[114] = 464
zX[115] = 601
zX[134] = 158
zX[136] = 326
zX[137] = 463
zX[145] = 302
zX[148] = 470
zX[160] = 553
zX[199] = 228
zX[200] = 259
zX[201] = 396
zX[202] = 427
zX[203] = 564
zX[218] = 92
zX[219] = 260
zX[221] = 428
zX[222] = 512
zX[223] = 596
zX[229] = 736
zX[230] = 904
zX[231] = 1145
zX[234] = 1316
zX[235] = 1484
zX[236] = 1652
zX[266] = 686
zX[267] = 854
zX[268] = 603
zX[269] = 771
zX[272] = 631
zX[273] = 799
zX[274] = 179
zX[275] = 347
zX[276] = 515
zX[277] = 683
zX[278] = 851
zX[290] = 230
zX[291] = 398
zX[301] = 1011
zX[311] = 943
zX[315] = 881
zX[325] = 723
zX[327] = 891
zX[328] = 1059
zX[329] = 1227
zX[330] = 1395
zX[334] = 550
zX[338] = 886
zX[339] = 973
zX[352] = 722
zX[356] = 395
zX[358] = 731
zX[364] = 455
zX[365] = 623
zX[366] = 791
zX[367] = 959
zX[371] = 587
zX[372] = 755
zX[373] = 923
zX[374] = 1091
zX[375] = 1259
zX[376] = 1427
zX[404] = 754
zX[405] = 922
zX[406] = 1090
zX[407] = 1258
zX[408] = 1426
zX[409] = 1594
zX[424] = 674
zX[425] = 842
zX[426] = 1010
zX[427] = 1178
zX[428] = 1346
zX[429] = 1514
phi[1] = 227
phi[2] = 227
phi[3] = 1028
phi[4] = 692
phi[5] = 919
phi[6] = 631
phi[7] = 967
phi[8] = 463
phi[9] = 1360
phi[10] = 520
phi[11] = 1192
phi[12] = 688
phi[13] = 631
phi[14] = 928
phi[15] = 565
phi[16] = 901
phi[17] = 620
phi[18] = 620

### All variables with value smaller zero:

### End

real	1449m11.615s
user	5416m47.271s
sys	325m48.925s
	Freetype 2.4.12 environment removed
	Python 3.6.0 environment removed
	Gurobi 8.1.0 environment removed
