### Additional Information to the goal services
# Basic costs on route 7: -839731098.573722
# Basic costs on route 177: -47037419.5723646
# Basic costs on route 81: 178326892.93693328
# Basic costs on route 24: 35958566.94599995
# Basic costs on route 121: 17374696.967779152
# Direct costs (not staggered):
# For goal service 7:
# n_min: 3
# n_max: 6
# lowest costs of the goal service 7 with configuration (7, 30, 6) at 0.0
# For goal service 177:
# n_min: 2
# n_max: 3
# lowest costs of the goal service 177 with configuration (177, 19, 3) at 0.0
# For goal service 81:
# n_min: 6
# n_max: 6
# lowest costs of the goal service 81 with configuration (81, 18, 6) at 0.0
# For goal service 24:
# n_min: 2
# n_max: 4
# lowest costs of the goal service 24 with configuration (24, 18, 3) at 0.0
# For goal service 121:
# n_min: 1
# n_max: 2
# lowest costs of the goal service 121 with configuration (121, 30, 2) at 0.0
# (7, 18, 1): 316930117.7419045
# (7, 18, 2): 317831743.5019045
# (7, 18, 3): 313056110.6456683
# (7, 18, 4): 300542830.0056684
# (7, 18, 5): 288029549.3656684
# (7, 18, 6): 275516268.7256683
# (7, 19, 1): 208381147.91303062
# (7, 19, 2): 209372882.15303063
# (7, 19, 3): 200791949.28372514
# (7, 19, 4): 184140555.97818518
# (7, 19, 5): 167489162.6726451
# (7, 19, 6): 159023807.3076297
# (7, 30, 1): 49032323.05562782
# (7, 30, 2): 50114243.05562782
# (7, 30, 3): 46787172.04932153
# (7, 30, 4): 29476894.00913346
# (7, 30, 5): 12166615.968945503
# (7, 30, 6): 0.0
# (24, 18, 1): 21772914.93651869
# (24, 18, 2): 11988224.126634203
# (24, 18, 3): 0.0
# (24, 18, 4): 901625.7599999979
# (24, 19, 1): 33626598.907577604
# (24, 19, 2): 19580281.478016622
# (24, 19, 3): 10243716.576513074
# (24, 19, 4): 11235450.816513069
# (24, 30, 1): 32943245.4996123
# (24, 30, 2): 20949962.852784753
# (24, 30, 3): 9681932.342091307
# (24, 30, 4): 10763852.342091307
# (81, 18, 1): 11421187.707644552
# (81, 18, 2): 12322813.467644572
# (81, 18, 3): 13224439.227644533
# (81, 18, 4): 14126064.987644553
# (81, 18, 5): 12513280.640000045
# (81, 18, 6): 0.0
# (81, 19, 1): 23846088.39579922
# (81, 19, 2): 24837822.6357992
# (81, 19, 3): 25829556.87579918
# (81, 19, 4): 26821291.11579922
# (81, 19, 5): 20572813.419438004
# (81, 19, 6): 3921420.113898009
# (81, 30, 1): 17519226.979613215
# (81, 30, 2): 18601146.979613215
# (81, 30, 3): 19683066.979613215
# (81, 30, 4): 20764986.979613215
# (81, 30, 5): 21846906.979613245
# (81, 30, 6): 7392052.495492637
# (121, 18, 1): 14109148.264580444
# (121, 18, 2): 1595867.624580443
# (121, 19, 1): 16231065.95030491
# (121, 19, 2): 1286643.3941684254
# (121, 30, 1): 16696271.496260509
# (121, 30, 2): 0.0
# (177, 18, 1): 17975253.28278532
# (177, 18, 2): 12827745.374552727
# (177, 18, 3): 314464.73455274105
# (177, 19, 1): 24881459.945493333
# (177, 19, 2): 16651393.305540003
# (177, 19, 3): 0.0
# (177, 30, 1): 24444372.902142167
# (177, 30, 2): 19261502.62416128
# (177, 30, 3): 1951224.5839732885
# -------------------------------------------
