### Additional Information to the goal services
# Basic costs on route 7: -401610525.4048236
# Basic costs on route 177: -22496157.186783068
# Basic costs on route 81: 85286774.88288115
# Basic costs on route 24: 17197575.49591302
# Basic costs on route 121: 8309637.680242207
# Direct costs (not staggered):
# For goal service 7:
# n_min: 3
# n_max: 6
# lowest costs of the goal service 7 with configuration (7, 30, 6) at 0.0
# For goal service 177:
# n_min: 2
# n_max: 3
# lowest costs of the goal service 177 with configuration (177, 19, 3) at 0.0
# For goal service 81:
# n_min: 6
# n_max: 6
# lowest costs of the goal service 81 with configuration (81, 18, 6) at 0.0
# For goal service 24:
# n_min: 2
# n_max: 4
# lowest costs of the goal service 24 with configuration (24, 18, 3) at 0.0
# For goal service 121:
# n_min: 1
# n_max: 2
# lowest costs of the goal service 121 with configuration (121, 30, 2) at 0.0
# (7, 18, 1): 151575273.70264998
# (7, 18, 2): 152006486.02265
# (7, 18, 3): 149722487.70010227
# (7, 18, 4): 143737875.22010225
# (7, 18, 5): 137753262.74010226
# (7, 18, 6): 131768650.26010227
# (7, 19, 1): 99660549.00188428
# (7, 19, 2): 100134856.68188429
# (7, 19, 3): 96030932.26612943
# (7, 19, 4): 88067222.42434943
# (7, 19, 5): 80103512.58256942
# (7, 19, 6): 76054864.36451858
# (7, 30, 1): 23450241.461387217
# (7, 30, 2): 23967681.461387217
# (7, 30, 3): 22376473.588805974
# (7, 30, 4): 14097644.960889935
# (7, 30, 5): 5818816.332973957
# (7, 30, 6): 0.0
# (24, 18, 1): 10413133.230508938
# (24, 18, 2): 5733498.495346792
# (24, 18, 3): 0.0
# (24, 18, 4): 431212.3199999966
# (24, 19, 1): 16082286.434058852
# (24, 19, 2): 9364482.446007952
# (24, 19, 3): 4899168.797462761
# (24, 19, 4): 5373476.477462769
# (24, 30, 1): 15755465.238945011
# (24, 30, 2): 10019547.451331832
# (24, 30, 3): 4630489.3810001835
# (24, 30, 4): 5147929.3810001835
# (81, 18, 1): 5462307.164525643
# (81, 18, 2): 5893519.484525651
# (81, 18, 3): 6324731.804525644
# (81, 18, 4): 6755944.124525651
# (81, 18, 5): 5984612.479999974
# (81, 18, 6): 0.0
# (81, 19, 1): 11404650.971903965
# (81, 19, 2): 11878958.651903957
# (81, 19, 3): 12353266.331903964
# (81, 19, 4): 12827574.011903957
# (81, 19, 5): 9839171.635383382
# (81, 19, 6): 1875461.7936033905
# (81, 30, 1): 8378760.729380205
# (81, 30, 2): 8896200.729380205
# (81, 30, 3): 9413640.729380235
# (81, 30, 4): 9931080.729380205
# (81, 30, 5): 10448520.729380235
# (81, 30, 6): 3535329.4543660283
# (121, 18, 1): 6747853.517842814
# (121, 18, 2): 763241.0378428157
# (121, 19, 1): 7762683.715363214
# (121, 19, 2): 615351.1885153335
# (121, 30, 1): 7985173.324298501
# (121, 30, 2): 0.0
# (177, 18, 1): 8596860.265679937
# (177, 18, 2): 6135008.657394778
# (177, 18, 3): 150396.17739478126
# (177, 19, 1): 11899828.669583764
# (177, 19, 2): 7963709.841779996
# (177, 19, 3): 0.0
# (177, 30, 1): 11690787.040154956
# (177, 30, 2): 9212022.994164102
# (177, 30, 3): 933194.3662480935
# -------------------------------------------
