### Additional Information to the goal services
# Basic costs on route 7: -730200955.2814974
# Basic costs on route 177: -40902103.97596922
# Basic costs on route 81: 155066863.42342028
# Basic costs on route 24: 31268319.083478212
# Basic costs on route 121: 15108432.145894917
# Direct costs (not staggered):
# For goal service 7:
# n_min: 3
# n_max: 6
# lowest costs of the goal service 7 with configuration (7, 30, 6) at 0.0
# For goal service 177:
# n_min: 2
# n_max: 3
# lowest costs of the goal service 177 with configuration (177, 19, 3) at 0.0
# For goal service 81:
# n_min: 6
# n_max: 6
# lowest costs of the goal service 81 with configuration (81, 18, 6) at 0.0
# For goal service 24:
# n_min: 2
# n_max: 4
# lowest costs of the goal service 24 with configuration (24, 18, 3) at 0.0
# For goal service 121:
# n_min: 1
# n_max: 2
# lowest costs of the goal service 121 with configuration (121, 30, 2) at 0.0
# (7, 18, 1): 275591406.7320908
# (7, 18, 2): 276375429.1320908
# (7, 18, 3): 272222704.9092767
# (7, 18, 4): 261341591.3092767
# (7, 18, 5): 250460477.70927674
# (7, 18, 6): 239579364.10927677
# (7, 19, 1): 181200998.18524396
# (7, 19, 2): 182063375.785244
# (7, 19, 3): 174601695.02932608
# (7, 19, 4): 160122222.5897261
# (7, 19, 5): 145642750.1501261
# (7, 19, 6): 138281571.57185185
# (7, 30, 1): 42636802.65706766
# (7, 30, 2): 43577602.65706766
# (7, 30, 3): 40684497.43419254
# (7, 30, 4): 25632081.747072577
# (7, 30, 5): 10579666.059952617
# (7, 30, 6): 0.0
# (24, 18, 1): 18932969.510016263
# (24, 18, 2): 10424542.718812354
# (24, 18, 3): 0.0
# (24, 18, 4): 784022.4000000134
# (24, 19, 1): 29240520.78919793
# (24, 19, 2): 17026331.720014468
# (24, 19, 3): 8907579.631750487
# (24, 19, 4): 9769957.231750503
# (24, 30, 1): 28646300.434445485
# (24, 30, 2): 18217359.002421528
# (24, 30, 3): 8419071.601818532
# (24, 30, 4): 9359871.601818532
# (81, 18, 1): 9931467.571864843
# (81, 18, 2): 10715489.97186485
# (81, 18, 3): 11499512.371864825
# (81, 18, 4): 12283534.771864831
# (81, 18, 5): 10881113.599999994
# (81, 18, 6): 0.0
# (81, 19, 1): 20735729.03982535
# (81, 19, 2): 21598106.639825344
# (81, 19, 3): 22460484.239825368
# (81, 19, 4): 23322861.839825362
# (81, 19, 5): 17889402.973424345
# (81, 19, 6): 3409930.5338243246
# (81, 30, 1): 15234110.417054951
# (81, 30, 2): 16174910.417054951
# (81, 30, 3): 17115710.41705492
# (81, 30, 4): 18056510.41705495
# (81, 30, 5): 18997310.41705495
# (81, 30, 6): 6427871.735210925
# (121, 18, 1): 12268824.57789603
# (121, 18, 2): 1387710.9778960329
# (121, 19, 1): 14113970.391569478
# (121, 19, 2): 1118820.342755152
# (121, 30, 1): 14518496.953270001
# (121, 30, 2): 0.0
# (177, 18, 1): 15630655.028508976
# (177, 18, 2): 11154561.19526323
# (177, 18, 3): 273447.5952632427
# (177, 19, 1): 21636052.12651594
# (177, 19, 2): 14479472.439599998
# (177, 19, 3): 0.0
# (177, 30, 1): 21255976.43664538
# (177, 30, 2): 16749132.716661997
# (177, 30, 3): 1696717.029541999
# -------------------------------------------
