### Additional Information to the goal services
# Basic costs on route 81: -466339474.1000294
# Direct costs (not staggered):
# For goal service 81:
# n_min: 6
# n_max: 6
# lowest costs of the goal service 81 with configuration (81, 30, 6) at 0.0
# (81, 18, 1): 171618074.47666478
# (81, 18, 2): 172166890.1566648
# (81, 18, 3): 172715705.8366648
# (81, 18, 4): 173264521.5166648
# (81, 18, 5): 172282826.6963594
# (81, 18, 6): 164666047.17635942
# (81, 19, 1): 118240470.1514638
# (81, 19, 2): 118844134.47146386
# (81, 19, 3): 119447798.79146385
# (81, 19, 4): 120051463.11146384
# (81, 19, 5): 116248041.9049831
# (81, 19, 6): 106112411.19726312
# (81, 30, 1): 6164367.077290833
# (81, 30, 2): 6822927.077290833
# (81, 30, 3): 7481487.077290833
# (81, 30, 4): 8140047.077290833
# (81, 30, 5): 8798607.077290833
# (81, 30, 6): 0.0
# -------------------------------------------
