### Additional Information to the goal services
# Basic costs on route 81: -766129136.0214767
# Direct costs (not staggered):
# For goal service 81:
# n_min: 6
# n_max: 6
# lowest costs of the goal service 81 with configuration (81, 30, 6) at 0.0
# (81, 18, 1): 281943979.49737775
# (81, 18, 2): 282845605.25737774
# (81, 18, 3): 283747231.01737773
# (81, 18, 4): 284648856.7773777
# (81, 18, 5): 283036072.4297332
# (81, 18, 6): 270522791.7897332
# (81, 19, 1): 194252200.96311903
# (81, 19, 2): 195243935.20311904
# (81, 19, 3): 196235669.44311905
# (81, 19, 4): 197227403.68311906
# (81, 19, 5): 190978925.98675787
# (81, 19, 6): 174327532.6812179
# (81, 30, 1): 10127174.484120488
# (81, 30, 2): 11209094.484120488
# (81, 30, 3): 12291014.484120488
# (81, 30, 4): 13372934.484120488
# (81, 30, 5): 14454854.484120607
# (81, 30, 6): 0.0
# -------------------------------------------
