### Additional Information to the goal services
# Basic costs on route 81: -216514755.83215648
# Direct costs (not staggered):
# For goal service 81:
# n_min: 6
# n_max: 6
# lowest costs of the goal service 81 with configuration (81, 30, 6) at 0.0
# (81, 18, 1): 79679820.29273719
# (81, 18, 2): 79934627.57273719
# (81, 18, 3): 80189434.85273719
# (81, 18, 4): 80444242.13273719
# (81, 18, 5): 79988455.25188112
# (81, 18, 6): 76452093.33188114
# (81, 19, 1): 54897361.14175105
# (81, 19, 2): 55177633.86175102
# (81, 19, 3): 55457906.58175105
# (81, 19, 4): 55738179.30175105
# (81, 19, 5): 53972305.170170695
# (81, 19, 6): 49266476.62730071
# (81, 30, 1): 2862027.5715993047
# (81, 30, 2): 3167787.5715993047
# (81, 30, 3): 3473547.5715993047
# (81, 30, 4): 3779307.5715993047
# (81, 30, 5): 4085067.5715993047
# (81, 30, 6): 0.0
# -------------------------------------------
