### Additional Information to the goal services
# Basic costs on route 81: -516304417.75360394
# Direct costs (not staggered):
# For goal service 81:
# n_min: 6
# n_max: 6
# lowest costs of the goal service 81 with configuration (81, 30, 6) at 0.0
# (81, 18, 1): 190005725.31345022
# (81, 18, 2): 190613342.67345023
# (81, 18, 3): 191220960.03345025
# (81, 18, 4): 191828577.39345026
# (81, 18, 5): 190741700.985255
# (81, 18, 6): 182308837.94525504
# (81, 19, 1): 130909091.9534064
# (81, 19, 2): 131577434.59340644
# (81, 19, 3): 132245777.23340642
# (81, 19, 4): 132914119.87340641
# (81, 19, 5): 128703189.25194561
# (81, 19, 6): 117481598.11125565
# (81, 30, 1): 6824834.978429079
# (81, 30, 2): 7553954.978429079
# (81, 30, 3): 8283074.978429079
# (81, 30, 4): 9012194.978429079
# (81, 30, 5): 9741314.978429079
# (81, 30, 6): 0.0
# -------------------------------------------
