### Additional Information to the goal services
# Basic costs on route 81: -716164192.3679023
# Direct costs (not staggered):
# For goal service 81:
# n_min: 6
# n_max: 6
# lowest costs of the goal service 81 with configuration (81, 30, 6) at 0.0
# (81, 18, 1): 263556328.66059244
# (81, 18, 2): 264399152.74059242
# (81, 18, 3): 265241976.8205924
# (81, 18, 4): 266084800.90059245
# (81, 18, 5): 264577198.14083773
# (81, 18, 6): 252880001.02083766
# (81, 19, 1): 181583579.16117656
# (81, 19, 2): 182510635.08117664
# (81, 19, 3): 183437691.0011766
# (81, 19, 4): 184364746.9211766
# (81, 19, 5): 178523778.63979542
# (81, 19, 6): 162958345.7672255
# (81, 30, 1): 9466706.582982302
# (81, 30, 2): 10478066.582982302
# (81, 30, 3): 11489426.582982302
# (81, 30, 4): 12500786.582982302
# (81, 30, 5): 13512146.582982302
# (81, 30, 6): 0.0
# -------------------------------------------
