	Freetype 2.4.12 environment established
		library to render fonts
	Python 3.6.0 environment established
	Gurobi 8.1.0 environment established
Instance LSFRP: LSFDRP_5_3_0_1_fr.p
Instance LSFDP: LSFDRP_5_3_0_1_fd_31.p

*****************************************************************************************************************************
*** Solve LSFDRP_5_3_0_1_fd_31 with Gurobi
***
*** Graph info
*** |S|: 7
*** |S^E|: 0
*** |S^C|: 0
*** |V|: 162
*** |A|: 2732
*** |A^i|: 2732
*** |A^f|: 0
*** |M|: 532
*** |E|: 0

Changed value of parameter TimeLimit to 86400.0
   Prev: 1e+100  Min: 0.0  Max: 1e+100  Default: 1e+100
Changed value of parameter Threads to 4
   Prev: 0  Min: 0  Max: 1024  Default: 0
Optimize a model with 93584 rows, 1478335 columns and 5126353 nonzeros
Variable types: 1459203 continuous, 19132 integer (19132 binary)
Coefficient statistics:
  Matrix range     [1e+00, 3e+03]
  Objective range  [2e+00, 3e+07]
  Bounds range     [1e+00, 1e+00]
  RHS range        [1e+00, 7e+00]
Presolve removed 85980 rows and 1446473 columns (presolve time = 5s) ...
Presolve removed 85980 rows and 1448308 columns (presolve time = 14s) ...
Presolve removed 85980 rows and 1448310 columns (presolve time = 15s) ...
Warning: Failed to open log file 'gurobi.log'
Presolve removed 86020 rows and 1448313 columns
Presolve time: 18.34s
Presolved: 7564 rows, 30022 columns, 158246 nonzeros
Variable types: 20242 continuous, 9780 integer (9773 binary)

Root simplex log...

Iteration    Objective       Primal Inf.    Dual Inf.      Time
       0    4.5132313e+09   1.089818e+06   0.000000e+00     19s
   16691    7.0472305e+07   3.874972e+05   0.000000e+00     20s
   33591    1.0461308e+07   2.912887e+05   0.000000e+00     25s
   45353    7.9816637e+06   7.914879e+05   0.000000e+00     30s
   55981    5.8212105e+06   3.291569e+05   0.000000e+00     35s
   64699    4.1366499e+06   6.306408e+05   0.000000e+00     40s
   71869    3.3252590e+06   3.065044e+05   0.000000e+00     45s
   77349    3.0901477e+06   1.676236e+05   0.000000e+00     50s
   82729    2.9342181e+06   1.755562e+04   0.000000e+00     55s
   87819    2.8587818e+06   1.471819e+05   0.000000e+00     60s
   91403    2.8496089e+06   0.000000e+00   0.000000e+00     63s

Root relaxation: objective 2.849609e+06, 91403 iterations, 44.45 seconds

    Nodes    |    Current Node    |     Objective Bounds      |     Work
 Expl Unexpl |  Obj  Depth IntInf | Incumbent    BestBd   Gap | It/Node Time

     0     0 2849608.93    0  203          - 2849608.93      -     -   63s
H    0     0                    -5350665.248 2849608.93   153%     -   63s
H    0     0                    -4614080.842 2849608.93   162%     -   64s
H    0     0                    -3431247.701 2849608.93   183%     -   66s
     0     0 2839325.71    0  238 -3431247.7 2839325.71   183%     -   70s
H    0     0                    -3431247.453 2839325.71   183%     -   73s
     0     0 2790639.65    0  226 -3431247.5 2790639.65   181%     -   79s
     0     0 2790140.30    0  225 -3431247.5 2790140.30   181%     -   79s
     0     0 2782856.28    0  235 -3431247.5 2782856.28   181%     -   81s
     0     0 2782856.28    0  235 -3431247.5 2782856.28   181%     -   81s
     0     0 2768466.08    0  215 -3431247.5 2768466.08   181%     -   84s
H    0     0                    -2935496.171 2768466.08   194%     -   87s
     0     0 2767444.96    0  219 -2935496.2 2767444.96   194%     -   88s
     0     0 2767023.21    0  223 -2935496.2 2767023.21   194%     -   88s
     0     0 2766921.48    0  223 -2935496.2 2766921.48   194%     -   88s
     0     0 2766683.79    0  223 -2935496.2 2766683.79   194%     -   88s
     0     0 2766682.13    0  223 -2935496.2 2766682.13   194%     -   88s
     0     0 2764482.80    0  218 -2935496.2 2764482.80   194%     -   89s
     0     0 2762177.12    0  239 -2935496.2 2762177.12   194%     -   93s
     0     0 2761985.38    0  235 -2935496.2 2761985.38   194%     -   94s
     0     0 2761922.22    0  237 -2935496.2 2761922.22   194%     -   94s
     0     0 2761051.87    0  242 -2935496.2 2761051.87   194%     -   95s
     0     0 2761044.10    0  239 -2935496.2 2761044.10   194%     -   95s
     0     0 2755673.09    0  242 -2935496.2 2755673.09   194%     -   96s
     0     0 2753926.72    0  253 -2935496.2 2753926.72   194%     -  100s
     0     0 2753926.72    0  253 -2935496.2 2753926.72   194%     -  100s
     0     0 2753311.19    0  252 -2935496.2 2753311.19   194%     -  101s
     0     0 2752465.99    0  247 -2935496.2 2752465.99   194%     -  102s
     0     0 2752465.02    0  247 -2935496.2 2752465.02   194%     -  102s
     0     0 2750766.76    0  240 -2935496.2 2750766.76   194%     -  103s
     0     0 2750766.28    0  242 -2935496.2 2750766.28   194%     -  103s
     0     0 2750766.28    0  242 -2935496.2 2750766.28   194%     -  116s
     0     2 2750766.28    0  242 -2935496.2 2750766.28   194%     -  144s
     1     4 2516086.12    1  232 -2935496.2 2749536.89   194%  5270  159s
     3     8 2161381.83    2  198 -2935496.2 2515465.95   186%  9758  187s
     7    12 2148243.13    3  209 -2935496.2 2161296.06   174% 10056  205s
    11    16 2111730.85    4  207 -2935496.2 2161296.06   174%  9432  227s
    15    18 2084286.77    5  222 -2935496.2 2161296.06   174%  9579  230s
    23    25 2054077.04    7  224 -2935496.2 2161296.06   174%  7040  250s
H   28    31                    -2749892.821 2161296.06   179%  6618  264s
    32    31 2027514.61    9  223 -2749892.8 2161296.06   179%  6406  270s
    38    38 1999262.80   11  219 -2749892.8 2161296.06   179%  5794  277s
    45    48 1964656.22   13  205 -2749892.8 2161296.06   179%  5295  291s
    49    51 1948372.25   14  217 -2749892.8 2161296.06   179%  5415  297s
    55    57 1914186.27   16  220 -2749892.8 2161296.06   179%  5157  305s
    60    57 1847012.66   17  216 -2749892.8 2161296.06   179%  5049  317s
H   61    58                    -2479102.025 2161296.06   187%  4966  317s
H   63    61                    -2383335.009 2161296.06   191%  5014  317s
    64    68 1883283.14   17  219 -2383335.0 2161296.06   191%  5049  331s
    69    68 1796058.04   18  220 -2383335.0 2161296.06   191%  5282  348s
    76    81 1021750.28   18  182 -2383335.0 2161296.06   191%  5452  366s
    84    86 1542886.24   19  205 -2383335.0 2161296.06   191%  5420  378s
    92    93 1217608.94   20  175 -2383335.0 2161296.06   191%  5415  395s
    99   100 1286623.46   20  174 -2383335.0 2161296.06   191%  5385  417s
   109   108 -1015861.6   21  141 -2383335.0 2161296.06   191%  5408  436s
   120   121 1223192.38   21  173 -2383335.0 2161296.06   191%  5156  452s
   128   130 -1176673.5   22  137 -2383335.0 2161296.06   191%  5406  473s
H  129   130                    -2110759.179 2161296.06   202%  5364  473s
H  139   141                    -2081649.713 2161296.06   204%  5053  473s
   140   134 907613.975   23  199 -2081649.7 2161296.06   204%  5109  490s
   158   155 -679012.69   23  136 -2081649.7 2161296.06   204%  4885  507s
H  174   162                    -1790021.313 2161296.06   221%  4550  519s
H  179   168                    -1761398.090 2161296.06   223%  4533  519s
   188   176 607046.244   26  194 -1761398.1 2161296.06   223%  4384  530s
   210   193 71107.3268   30  169 -1761398.1 2161296.06   223%  4152  550s
   235   208 -245170.25   31   78 -1761398.1 2161296.06   223%  3866  559s
   258   237 -9349.3876   34  148 -1761398.1 2148243.13   222%  3656  572s
   279   253 -225286.72   38  146 -1761398.1 2148243.13   222%  3521  596s
   291   258     cutoff   39      -1761398.1 2148243.13   222%  3666  612s
   297   262 -616104.59   40  145 -1761398.1 2148243.13   222%  3738  632s
H  303   264                    -1761398.087 2148243.13   222%  3725  632s
   306   270 -866113.97   42  158 -1761398.1 2148243.13   222%  3851  656s
   324   286 -890235.74   43  146 -1761398.1 2148243.13   222%  3823  672s
   363   308     cutoff   57      -1761398.1 2074548.15   218%  3580  691s
   391   331 1741139.77    5  182 -1761398.1 2054077.04   217%  3478  709s
   406   339 1345100.07    9  173 -1761398.1 2054077.04   217%  3503  726s
   441   370 247020.788   13  171 -1761398.1 2054077.04   217%  3373  749s
   473   391 -361121.59   17  166 -1761398.1 2054077.04   217%  3313  771s
   488   405 -641833.96   20  158 -1761398.1 2054077.04   217%  3336  798s
   505   409 -1126521.9   27   71 -1761398.1 2054077.04   217%  3329  831s
   559   446     cutoff   29      -1761398.1 2038214.90   216%  3209  872s
   575   450 630288.499    9  165 -1761398.1 2021840.78   215%  3328  893s
H  600   452                    -1761398.081 2021840.78   215%  3274  893s
   618   486 -10293.166   13  120 -1761398.1 1999056.13   213%  3237  924s
   655   508 1108070.99   12  160 -1761398.1 1999056.13   213%  3185  948s
   683   527 575886.874   20  159 -1761398.1 1999056.13   213%  3188  971s
   700   541 -501244.22   26   67 -1761398.1 1963428.35   211%  3234  995s
   763   582 827843.964   13  189 -1761398.1 1963428.35   211%  3101 1021s
   794   604 150492.207   14  147 -1761398.1 1963428.35   211%  3059 1048s
   861   657 -1628377.7   28   93 -1761398.1 1947391.39   211%  2931 1076s
   933   712 369254.563   17  169 -1761398.1 1947391.39   211%  2859 1113s
   974   724 -155597.60   19  158 -1761398.1 1822042.51   203%  2838 1157s
  1065   789 -409497.39   35  242 -1761398.1 1821419.86   203%  2734 1210s
  1067   790 673802.378   23  198 -1761398.1 1821419.86   203%  2729 1254s
  1068   791 1821419.86    6  224 -1761398.1 1821419.86   203%  2727 1261s
  1070   792 438264.802   24  211 -1761398.1 1821419.86   203%  2721 1265s
  1072   794 111643.593   16  215 -1761398.1 1821419.86   203%  2716 1277s
  1074   795 -68830.053   13  215 -1761398.1 1821419.86   203%  2711 1304s
  1075   799 1821419.86   13  216 -1761398.1 1821419.86   203%  2814 1351s
  1077   802 1821419.86   14  198 -1761398.1 1821419.86   203%  2836 1387s
  1081   805 1821419.86   15  209 -1761398.1 1821419.86   203%  2842 1413s
  1085   807 1641984.39   15  142 -1761398.1 1821419.86   203%  2850 1451s
  1089   810 1694655.88   16  207 -1761398.1 1821419.86   203%  2901 1475s
  1093   813 1821419.86   16  184 -1761398.1 1821419.86   203%  2923 1507s
  1097   815 1517056.30   17  161 -1761398.1 1821419.86   203%  2970 1525s
  1101   818 1095074.70   17  162 -1761398.1 1670269.30   195%  2993 1551s
  1105   813 1312904.28   18  160 -1761398.1 1670269.30   195%  3025 1571s
  1112   820 1385011.99   18  178 -1761398.1 1670269.30   195%  3036 1591s
  1118   823 1200158.43   19  156 -1761398.1 1670269.30   195%  3051 1608s
  1126   825 913045.809   20  146 -1761398.1 1670269.30   195%  3069 1642s
  1134   831 631513.957   21  144 -1761398.1 1670269.30   195%  3122 1660s
  1143   833 775070.698   21  131 -1761398.1 1670269.30   195%  3133 1677s
  1153   840 697331.250   22  153 -1761398.1 1670269.30   195%  3141 1693s
  1164   842 588227.653   24  140 -1761398.1 1670269.30   195%  3158 1710s
  1175   846 549646.142   26  155 -1761398.1 1670269.30   195%  3179 1721s
  1185   843 152028.369   27  127 -1761398.1 1670269.30   195%  3181 1740s
  1199   847 47446.3389   28  135 -1761398.1 1670269.30   195%  3183 1757s
  1217   858 -1680257.1   29   61 -1761398.1 1670269.30   195%  3174 1768s
  1233   859 -424879.64   30   76 -1761398.1 1670269.30   195%  3162 1784s
  1244   863 -96575.374   32  136 -1761398.1 1670269.30   195%  3188 1797s
  1255   865     cutoff   33      -1761398.1 1670269.30   195%  3221 1816s
  1265   874 -187721.13   34  139 -1761398.1 1670269.30   195%  3231 1828s
  1279   872 -132896.27   37  134 -1761398.1 1670269.30   195%  3243 1846s
  1298   876 -153431.95   39  138 -1761398.1 1670269.30   195%  3260 1860s
  1319   878 -190183.56   41  142 -1761398.1 1670269.30   195%  3239 1875s
  1335   883 -477614.66   43   86 -1761398.1 1670269.30   195%  3260 1890s
  1351   884 -1417035.4   45   49 -1761398.1 1670269.30   195%  3258 1905s
  1392   895     cutoff   52      -1761398.1 1670269.30   195%  3207 1917s
  1431   895     cutoff   60      -1761398.1 1670269.30   195%  3151 1930s
  1473   887     cutoff   73      -1761398.1 1628559.82   192%  3098 1956s
  1517   894 691613.842   19  187 -1761398.1 1549203.11   188%  3080 1975s
  1537   898 554313.043   20  171 -1761398.1 1549203.11   188%  3082 1992s
  1581   914 353463.614   24  171 -1761398.1 1549203.11   188%  3022 2007s
  1626   925 143292.945   31  132 -1761398.1 1549203.11   188%  2976 2026s
  1671   923 -242760.92   38  144 -1761398.1 1549203.11   188%  2938 2041s
  1718   910 -1108260.1   46   79 -1761398.1 1477847.58   184%  2894 2064s
  1751   927 310180.214   18  196 -1761398.1 1477847.58   184%  2877 2084s
  1789   928 -601609.37   21  142 -1761398.1 1477847.58   184%  2862 2107s
  1853   955 -1628187.5   48   97 -1761398.1 1200158.43   168%  2815 2132s
  1932   975 787588.832   21  200 -1761398.1 1173035.39   167%  2749 2160s
  1969   989 484148.524   25  174 -1761398.1 1173035.39   167%  2748 2182s
  2015   998 376712.599   34  140 -1761398.1 1173035.39   167%  2724 2204s
  2126  1031 -11725.006   49  101 -1761398.1 1173035.39   167%  2632 2225s
  2197  1047 -1155395.9   64  154 -1761398.1 1084839.25   162%  2588 2245s
  2263  1038 -913785.01   22  123 -1761398.1 1015751.97   158%  2554 2270s
  2393  1084 -393164.04   21  112 -1761398.1 966794.131   155%  2465 2294s
  2491  1119 845432.156   20  159 -1761398.1 966794.131   155%  2408 2318s
  2592  1152 565623.016   26  158 -1761398.1 966794.131   155%  2358 2342s
  2649  1167 356543.616   33  152 -1761398.1 966794.131   155%  2339 2370s
  2755  1194 22467.8532   47  142 -1761398.1 966794.131   155%  2304 2405s
  2832  1222 -837579.15   52   99 -1761398.1 966794.131   155%  2291 2441s
  2873  1232     cutoff   56      -1761398.1 846829.358   148%  2302 2480s
  2986  1245 -1082983.1   26   72 -1761398.1 824402.892   147%  2263 2520s
  3119  1287 728012.654   26  194 -1761398.1 804933.255   146%  2202 2581s
  3226  1323     cutoff   46      -1761398.1 804933.255   146%  2179 2624s
  3356  1350 -1395454.7   73  119 -1761398.1 789638.301   145%  2135 2660s
  3488  1401 -1603201.8   51   71 -1761398.1 775895.945   144%  2084 2702s
  3643  1505 -925807.13   24   75 -1761398.1 738317.007   142%  2038 2759s
  3831  1626 -1483094.4   49  136 -1761398.1 712547.298   140%  1987 2801s
  3971  1712 181313.720   24  123 -1761398.1 712547.298   140%  1955 2851s
  4154  1801 -1287507.0   60   42 -1761398.1 686934.637   139%  1914 2913s
  4280  1865 -572297.97   32  118 -1761398.1 676777.402   138%  1901 2975s
  4375  1931 -1427120.0   63  122 -1761398.1 659141.048   137%  1908 3040s
  4558  2040 -1675129.3   25  133 -1761398.1 643459.221   137%  1887 3101s
  4721  2119 31186.2067   24   71 -1761398.1 629162.807   136%  1868 3159s
  4886  2207 -1063598.5   25   97 -1761398.1 624421.001   135%  1847 3232s
  5035  2296 -913004.44   24   62 -1761398.1 613716.288   135%  1840 3303s
  5138  2345 -200963.28   38  130 -1761398.1 607995.173   135%  1852 3382s
  5269  2403 -899269.72   42   82 -1761398.1 607995.173   135%  1867 3458s
  5390  2469 -1120081.6   50  109 -1761398.1 587324.332   133%  1865 3556s
  5628  2594 -1081479.9   28  111 -1761398.1 558252.941   132%  1843 3643s
  5828  2702 -1145501.5   50  132 -1761398.1 546396.991   131%  1829 3726s
  6016  2812 -1283413.8   30   35 -1761398.1 520116.587   130%  1823 3818s
  6280  2944 -883955.47   32  165 -1761398.1 501716.479   128%  1800 3912s
  6654  3096 -1212850.8   19   95 -1761398.1 476402.491   127%  1758 4000s
  6968  3251 -1050511.9   35  178 -1761398.1 448409.407   125%  1731 4092s
  7247  3353 -908378.87   40   72 -1761398.1 435171.296   125%  1720 4198s
  7624  3523 -478187.84   33  110 -1761398.1 407806.055   123%  1693 4301s
  7939  3668     cutoff   50      -1761398.1 396235.722   122%  1674 4402s
  8260  3807 -422539.33   50   93 -1761398.1 377954.922   121%  1661 4501s
  8629  3990 -1400464.0   26   99 -1761398.1 354294.060   120%  1637 4613s
  8928  4139 95416.1850   25  144 -1761398.1 332908.981   119%  1635 4725s
  9291  4292 35498.3258   27   71 -1761398.1 316051.625   118%  1617 4837s
  9706  4463 -462068.90   26   80 -1761398.1 300178.989   117%  1597 4964s
 10225  4693 -585545.53   25  113 -1761398.1 273451.844   116%  1568 5094s
 10825  4951 -1464624.5   41   61 -1761398.1 257861.176   115%  1540 5239s
 11356  5161 -146600.73   27  148 -1761398.1 233994.000   113%  1524 5385s
 11941  5363 -1473907.3   30   86 -1761398.1 199309.664   111%  1495 5515s
 12493  5603 -720761.03   27  133 -1761398.1 179574.997   110%  1477 5658s
 13018  5870 -660615.34   34  126 -1761398.1 153357.035   109%  1462 5795s
 13547  6118 -116436.51   24   89 -1761398.1 132545.907   108%  1452 5905s
 13673  6164 -1734092.1   30   93 -1761398.1 128782.553   107%  1448 6047s
 14162  6375 -1173843.5   41  108 -1761398.1 112200.064   106%  1441 6178s
 14693  6584 -1536174.8   33  111 -1761398.1 95663.5944   105%  1430 6313s
 15175  6735 -749428.24   27   89 -1761398.1 60468.7031   103%  1426 6456s
 15600  6908 -573567.58   48   94 -1761398.1 56256.4776   103%  1420 6584s
 16301  7183 -871073.15   45  113 -1761398.1 26807.3258   102%  1399 6726s
 16961  7422 -122428.53   41  143 -1761398.1 8695.08708   100%  1382 6853s
 17251  7468 -36647.231   24   80 -1761398.1 4680.84770   100%  1391 6982s
 17916  7768     cutoff   42      -1761398.1 -19574.082  98.9%  1377 7110s
 18398  7932 -1164248.5   52  104 -1761398.1 -31679.319  98.2%  1373 7234s
 18936  8129 -264423.87   34   79 -1761398.1 -56451.827  96.8%  1364 7354s
 19532  8397 -1067862.2   42  124 -1761398.1 -68651.690  96.1%  1350 7507s
 20022  8551 -1577247.5   69   65 -1761398.1 -88996.386  94.9%  1344 7625s
 20657  8803 -465135.10   31  134 -1761398.1 -102749.33  94.2%  1330 9577s
 21247  9002     cutoff   29      -1761398.1 -114012.26  93.5%  1318 9657s
 21772  9177 -1465716.9   37   96 -1761398.1 -132894.23  92.5%  1311 9739s
 22275  9318     cutoff   39      -1761398.1 -145151.53  91.8%  1306 9825s
 22678  9477     cutoff   50      -1761398.1 -159434.50  90.9%  1306 9918s
 23052  9577 -1499922.0   28  125 -1761398.1 -169092.48  90.4%  1307 9999s
 23504  9719     cutoff   41      -1761398.1 -179996.06  89.8%  1306 10101s
 23885  9840 -1172221.2   46  124 -1761398.1 -190844.76  89.2%  1305 10185s
 24235  9956 -529305.80   32  114 -1761398.1 -198024.79  88.8%  1309 10262s
 24651 10087 -739490.50   37  193 -1761398.1 -209028.48  88.1%  1307 10343s
 25077 10209 -837141.05   41  136 -1761398.1 -219742.32  87.5%  1307 10418s
 25483 10381     cutoff   31      -1761398.1 -222748.31  87.4%  1308 10493s
 25883 10478 -1494783.1   33   89 -1761398.1 -240694.93  86.3%  1310 10568s
 26350 10644 -847006.95   28  123 -1761398.1 -249832.79  85.8%  1308 10645s
 26757 10731 -1317359.7   63  100 -1761398.1 -254707.58  85.5%  1309 10727s
 27163 10812 -1180981.9   60  173 -1761398.1 -266174.54  84.9%  1311 10809s
 27634 10977     cutoff   30      -1761398.1 -280005.29  84.1%  1309 10887s
 28013 11088 -1620962.4   46  117 -1761398.1 -291235.79  83.5%  1312 10966s
 28486 11236 -799929.44   29  105 -1761398.1 -302806.26  82.8%  1311 11042s
 28821 11348 -1195861.9   28  155 -1761398.1 -308879.55  82.5%  1311 11121s
 29249 11421 -1335959.4   36  142 -1761398.1 -313712.00  82.2%  1312 11198s
 29738 11619 -1115870.7   29   88 -1761398.1 -326247.01  81.5%  1308 11284s
 30130 11708 -748948.73   33  106 -1761398.1 -328810.80  81.3%  1307 11365s
 30748 11824 -782490.76   35  147 -1761398.1 -348792.31  80.2%  1302 11449s
 31213 12046     cutoff   31      -1761398.1 -353692.15  79.9%  1300 11531s
 31621 12152 -1548740.3   38  130 -1761398.1 -366778.84  79.2%  1300 11602s
 32068 12308     cutoff   28      -1761398.1 -374478.74  78.7%  1300 11674s
 32542 12399 -1040058.9   41   96 -1761398.1 -385750.68  78.1%  1297 11748s
 32952 12509     cutoff   36      -1761398.1 -391502.13  77.8%  1297 11825s
 33443 12684     cutoff   38      -1761398.1 -401453.79  77.2%  1294 11900s
 33745 12769 -1135120.5   31  170 -1761398.1 -409101.13  76.8%  1298 11973s
 34127 12848 -1440218.8   34  106 -1761398.1 -413504.61  76.5%  1299 12046s
 34542 12912     cutoff   36      -1761398.1 -422008.63  76.0%  1301 12120s
 34901 13008 -1171700.9   42   97 -1761398.1 -433534.81  75.4%  1302 12200s
 35397 13194 -1645905.8   45  111 -1761398.1 -440951.50  75.0%  1301 12274s
 35674 13196     cutoff   33      -1761398.1 -447008.04  74.6%  1301 12352s
 36224 13341 -1639981.2   47   47 -1761398.1 -459664.54  73.9%  1298 12437s
 36651 13410 -563816.91   47  168 -1761398.1 -464690.83  73.6%  1298 12537s
H36695 13410                    -1761398.070 -464690.83  73.6%  1298 12537s
 36998 13482 -1175524.6   33   98 -1761398.1 -473675.67  73.1%  1300 12618s
 37283 13611 -666449.99   45  152 -1761398.1 -476605.11  72.9%  1302 12739s
 37562 13677     cutoff   57      -1761398.1 -476605.11  72.9%  1305 12815s
 37844 13724 -1287624.9   77   97 -1761398.1 -480587.82  72.7%  1308 12891s
 38221 13792     cutoff   34      -1761398.1 -489448.42  72.2%  1309 12964s
 38630 13893     cutoff   70      -1761398.1 -501639.06  71.5%  1309 13039s
 39001 13984     cutoff   51      -1761398.1 -505932.98  71.3%  1309 13122s
 39464 14116     cutoff   35      -1761398.1 -516807.45  70.7%  1307 13229s
 39850 14189 -1624269.7   33   96 -1761398.1 -527698.41  70.0%  1307 13330s
 40351 14302 -850009.35   38   69 -1761398.1 -533833.84  69.7%  1304 13400s
 40831 14411 -1102586.2   36  137 -1761398.1 -545955.94  69.0%  1302 13471s
 41240 14489 -1551710.4   45   90 -1761398.1 -555599.16  68.5%  1302 13628s
H41516 14533                    -1761397.954 -556696.24  68.4%  1301 13628s
 41595 14547 -1192846.9   51  111 -1761398.0 -559179.14  68.3%  1302 13714s
 41950 14629 -608790.68   53  158 -1761398.0 -566382.36  67.8%  1303 13791s
 42414 14788     cutoff   36      -1761398.0 -573568.92  67.4%  1299 13869s
 43003 14975 -1379857.6   27  118 -1761398.0 -585840.78  66.7%  1295 13943s
 43436 15112     cutoff   43      -1761398.0 -592535.84  66.4%  1295 14038s
 43793 15179 -1723290.5   29  137 -1761398.0 -601003.72  65.9%  1295 14112s
 44209 15297 -1554339.6   58  140 -1761398.0 -607061.91  65.5%  1296 14206s
 44428 15324 -1071524.0   21  161 -1761398.0 -609568.53  65.4%  1296 14277s
 44920 15420     cutoff   61      -1761398.0 -620195.90  64.8%  1296 14353s
 45367 15532 -879387.24   54   71 -1761398.0 -625476.95  64.5%  1296 14425s
 45826 15640     cutoff   42      -1761398.0 -628402.36  64.3%  1294 14493s
 46320 15773 -844673.55   36  120 -1761398.0 -635553.21  63.9%  1293 14563s
 46664 15889 -1069820.3   53  119 -1761398.0 -637973.32  63.8%  1294 14641s
 47278 16042 -1462757.3   29   89 -1761398.0 -646494.39  63.3%  1289 14709s
 47672 16095 -1510857.6   34   91 -1761398.0 -652140.37  63.0%  1289 14777s
 48067 16139 -1330493.7   22  132 -1761398.0 -658117.30  62.6%  1290 14984s
 48480 16265 -1109836.4   64  179 -1761398.0 -664543.66  62.3%  1289 15072s
 48882 16339 -1007672.2   52   83 -1761398.0 -667689.58  62.1%  1290 15157s
 49203 16373 -889517.16   40  176 -1761398.0 -672116.12  61.8%  1292 15228s
 49806 16581 -1152592.1   57  145 -1761398.0 -675855.16  61.6%  1287 15295s
 50287 16648 -1511181.1   31  149 -1761398.0 -684768.00  61.1%  1286 15362s
 50638 16705 -949691.28   70  145 -1761398.0 -689308.93  60.9%  1288 15430s
 51168 16838 -1483827.8   42  130 -1761398.0 -694741.63  60.6%  1284 15498s
 51489 16893 -1254714.6   43   54 -1761398.0 -700772.25  60.2%  1286 15565s
 51791 16902     cutoff   25      -1761398.0 -706496.11  59.9%  1287 15632s
 52400 17115     cutoff   29      -1761398.0 -711240.50  59.6%  1282 15702s
 52802 17129 -1067914.4   39  144 -1761398.0 -717828.29  59.2%  1283 15769s
 53251 17245 -1522710.0   38   76 -1761398.0 -725281.00  58.8%  1282 15833s
 53710 17345 -1552265.1   54  174 -1761398.0 -732380.48  58.4%  1281 15899s
 54128 17417 -1456082.4   68   96 -1761398.0 -734377.14  58.3%  1281 15968s
 54596 17533     cutoff   49      -1761398.0 -745143.83  57.7%  1280 16036s
 55009 17601 -1155919.3   41   83 -1761398.0 -753407.40  57.2%  1281 16098s
 55421 17662 -851969.62   62  119 -1761398.0 -757173.57  57.0%  1280 16161s
 55911 17777     cutoff   51      -1761398.0 -761218.20  56.8%  1278 16331s
 56395 17873 -1202961.3   40  122 -1761398.0 -765036.88  56.6%  1276 16400s
 56819 17926 -1267495.7   44   57 -1761398.0 -772734.63  56.1%  1277 16464s
 57213 17961     cutoff   34      -1761398.0 -776300.87  55.9%  1278 16532s
 57733 18021 -1525196.0   22  105 -1761398.0 -784717.70  55.4%  1276 16594s
 58233 18130 -1498596.5   39  113 -1761398.0 -790398.33  55.1%  1274 16660s
 58657 18161     cutoff   66      -1761398.0 -795235.76  54.9%  1274 16722s
 59120 18224 -960676.46   47   85 -1761398.0 -801207.34  54.5%  1273 16781s
 59553 18246     cutoff   26      -1761398.0 -806061.51  54.2%  1272 16836s
 59946 18298     cutoff   32      -1761398.0 -813853.35  53.8%  1271 16899s
 60482 18451 -1562437.2   38   49 -1761398.0 -819328.25  53.5%  1268 16959s
 60903 18498 -1216615.9   38  122 -1761398.0 -821935.38  53.3%  1268 17019s
 61343 18579     cutoff   50      -1761398.0 -825209.79  53.2%  1267 17078s
 61798 18668 -1045197.4   52  159 -1761398.0 -832352.61  52.7%  1266 17136s
 62329 18826 -1302516.9   33   59 -1761398.0 -834349.91  52.6%  1263 17195s
 62819 18894 -949045.16   44  118 -1761398.0 -842368.58  52.2%  1261 17261s
 63335 18985 -1695097.9   52   51 -1761398.0 -845474.63  52.0%  1259 17318s
 63794 19016 -1229234.9   41  106 -1761398.0 -851876.74  51.6%  1257 17372s
 64190 19079 -1455809.3   31   99 -1761398.0 -857821.88  51.3%  1256 17430s
 64610 19111 -1533158.2   32  113 -1761398.0 -862437.00  51.0%  1255 17484s
 64977 19132     cutoff   42      -1761398.0 -868930.91  50.7%  1255 17538s
 65337 19145     cutoff   40      -1761398.0 -873478.16  50.4%  1255 17594s
 65832 19268     cutoff   48      -1761398.0 -877862.91  50.2%  1252 17650s
 66280 19324 -1537515.9   24  166 -1761398.0 -882605.09  49.9%  1251 17704s
 66668 19376 -1641889.6   30  113 -1761398.0 -885104.74  49.7%  1251 17763s
 67157 19449 -1267016.2   31  168 -1761398.0 -889899.80  49.5%  1248 17828s
 67578 19488 -1310605.9   79   94 -1761398.0 -895443.53  49.2%  1247 17901s
 67985 19518     cutoff   49      -1761398.0 -899702.57  48.9%  1246 17955s
 68413 19546 -1654252.9   38   58 -1761398.0 -905357.37  48.6%  1244 18007s
 68699 19516 -1343653.1   27   76 -1761398.0 -908758.55  48.4%  1245 18068s
 69110 19542     cutoff   50      -1761398.0 -913885.98  48.1%  1244 18122s
 69567 19615 -1605641.1   49   91 -1761398.0 -916664.91  48.0%  1242 18175s
 70070 19690 -1401294.8   52  119 -1761398.0 -921756.63  47.7%  1239 18227s
 70524 19744 -1308763.5   45  129 -1761398.0 -924943.90  47.5%  1238 18281s
 70947 19817 -1147894.3   28  208 -1761398.0 -927622.95  47.3%  1237 18334s
 71340 19851     cutoff   40      -1761398.0 -932367.13  47.1%  1236 18384s
 71759 19920 -1485676.4   57   41 -1761398.0 -935496.14  46.9%  1235 18435s
 72167 19935     cutoff   36      -1761398.0 -939776.96  46.6%  1234 18498s
 72667 20050     cutoff   34      -1761398.0 -943419.22  46.4%  1231 18551s
 73015 20019 -1668844.2   43  117 -1761398.0 -947214.35  46.2%  1231 18601s
 73400 20035 -1739492.0   67   63 -1761398.0 -950608.72  46.0%  1230 18657s
 73793 20106 -1544780.7   62   90 -1761398.0 -953724.90  45.9%  1229 18711s
 74242 20160     cutoff   38      -1761398.0 -958231.27  45.6%  1228 18760s
 74563 20146 -1263750.5   51   63 -1761398.0 -961166.46  45.4%  1228 18814s
 75000 20211     cutoff   39      -1761398.0 -965188.97  45.2%  1227 18864s
 75390 20249     cutoff   30      -1761398.0 -969638.81  45.0%  1226 18914s
 75683 20337     cutoff   41      -1761398.0 -970704.05  44.9%  1226 19034s
 75838 20297     cutoff   69      -1761398.0 -970956.84  44.9%  1226 19085s
 76225 20312 -1481338.6   45  167 -1761398.0 -976944.25  44.5%  1225 19139s
 76618 20327 -1714661.7   51   80 -1761398.0 -980074.02  44.4%  1223 19189s
 76808 20360     cutoff   38      -1761398.0 -980389.64  44.3%  1222 19190s
 76971 20317     cutoff   67      -1761398.0 -984115.74  44.1%  1222 19243s
 77347 20292     cutoff   31      -1761398.0 -986351.39  44.0%  1222 19296s
 77834 20324     cutoff   57      -1761398.0 -989689.21  43.8%  1220 19347s
 78164 20344 -1067057.8   78  164 -1761398.0 -993600.68  43.6%  1219 19397s
 78540 20375 -1349035.5   42   76 -1761398.0 -997561.20  43.4%  1219 19446s
 79006 20415 -1042239.3   42   46 -1761398.0 -1000591.1  43.2%  1217 19500s
 79450 20455     cutoff   61      -1761398.0 -1004197.3  43.0%  1216 19552s
 79813 20488 -1689141.9   62   47 -1761398.0 -1007016.6  42.8%  1215 19611s
 80256 20544 -1670019.3   20  172 -1761398.0 -1010124.8  42.7%  1214 19675s
 80683 20576 -1255801.7   89  185 -1761398.0 -1012699.5  42.5%  1212 19723s
 81117 20635 -1143779.0   36  133 -1761398.0 -1015857.9  42.3%  1211 19771s
 81484 20640 -1600044.6   33  121 -1761398.0 -1017307.4  42.2%  1210 19814s
 81948 20674     cutoff   45      -1761398.0 -1021323.7  42.0%  1207 19860s
 82263 20666     cutoff   48      -1761398.0 -1024792.1  41.8%  1208 19909s
 82713 20681 -1337846.8   65  115 -1761398.0 -1026858.0  41.7%  1206 19956s
 83030 20698 -1558853.9   38  169 -1761398.0 -1031009.7  41.5%  1206 20001s
 83342 20712 -1580339.4   31   92 -1761398.0 -1032939.5  41.4%  1206 20048s
 83711 20709 -1546850.6   39   47 -1761398.0 -1037399.4  41.1%  1205 20099s
 84048 20701 -1331881.1   44   72 -1761398.0 -1040464.8  40.9%  1205 20145s
 84405 20660 -1512276.5   47   91 -1761398.0 -1043511.5  40.8%  1204 20193s
 84840 20741     cutoff   52      -1761398.0 -1046607.5  40.6%  1202 20240s
 85230 20770     cutoff   71      -1761398.0 -1048735.6  40.5%  1201 20289s
 85498 20746 -1225639.6   40   70 -1761398.0 -1052153.2  40.3%  1201 20336s
 85856 20768 -1708384.3   45   46 -1761398.0 -1053488.8  40.2%  1200 20384s
 86150 20770 -1718193.8   47   99 -1761398.0 -1053759.1  40.2%  1201 20429s
 86496 20765     cutoff   39      -1761398.0 -1056883.1  40.0%  1200 20478s
 86803 20765     cutoff   56      -1761398.0 -1062741.9  39.7%  1201 20526s
 87111 20721 -1623407.8   37  110 -1761398.0 -1064445.8  39.6%  1200 20566s
 87424 20712 -1618857.3   29  116 -1761398.0 -1069075.2  39.3%  1200 20613s
 87813 20705 -1369876.4   25  143 -1761398.0 -1071754.6  39.2%  1199 20660s
 88222 20744 -1340507.0   36   92 -1761398.0 -1075062.3  39.0%  1198 20707s
 88516 20731 -1217913.2   38   84 -1761398.0 -1078291.6  38.8%  1197 20754s
 88929 20747     cutoff   45      -1761398.0 -1081427.0  38.6%  1196 20799s
 89333 20772 -1195089.8   45  126 -1761398.0 -1084385.1  38.4%  1194 20845s
 89707 20772     cutoff   47      -1761398.0 -1087197.9  38.3%  1193 20884s
 90052 20769 -1287039.1   38   96 -1761398.0 -1090835.5  38.1%  1192 20928s
 90433 20753 -1593460.9   45   51 -1761398.0 -1093060.2  37.9%  1191 20975s
 90790 20754 -1245270.9   37  103 -1761398.0 -1096181.6  37.8%  1190 21011s
 91141 20776     cutoff   33      -1761398.0 -1099237.7  37.6%  1188 21055s
 91611 20827     cutoff   62      -1761398.0 -1101405.9  37.5%  1186 21092s
 91952 20797     cutoff   38      -1761398.0 -1104422.0  37.3%  1186 21135s
 92201 20752 -1174833.8   53  114 -1761398.0 -1107270.4  37.1%  1185 21168s
 92496 20725 -1130771.5   45   67 -1761398.0 -1110107.8  37.0%  1185 21206s
 92901 20714     cutoff   25      -1761398.0 -1112684.4  36.8%  1183 21242s
 93209 20693     cutoff   36      -1761398.0 -1115446.0  36.7%  1182 21274s
 93597 20700 -1674445.5   37  100 -1761398.0 -1118199.6  36.5%  1180 21317s
 93927 20690 -1607492.6   52   42 -1761398.0 -1120845.4  36.4%  1180 21353s
 94268 20665     cutoff   66      -1761398.0 -1123469.3  36.2%  1179 21394s
 94590 20660 -1432061.9   42   69 -1761398.0 -1126164.3  36.1%  1179 21435s
 94933 20646     cutoff   52      -1761398.0 -1127690.3  36.0%  1178 21478s
 95245 20636 -1314422.2   53   51 -1761398.0 -1130660.8  35.8%  1177 21517s
 95648 20654     cutoff   33      -1761398.0 -1133364.1  35.7%  1176 21563s
 95921 20618     cutoff   41      -1761398.0 -1134859.8  35.6%  1175 21608s
 96318 20599 -1378417.0   33   94 -1761398.0 -1138247.5  35.4%  1174 21648s
 96607 20564     cutoff   44      -1761398.0 -1140440.7  35.3%  1174 21683s
 96908 20548     cutoff   68      -1761398.0 -1144262.9  35.0%  1172 21726s
 97219 20532     cutoff   54      -1761398.0 -1146591.2  34.9%  1172 21770s
 97624 20566 -1423075.4   66   85 -1761398.0 -1149440.8  34.7%  1171 21812s
 97958 20567 -1300393.5   34   89 -1761398.0 -1151917.1  34.6%  1170 21857s
 98231 20527     cutoff   43      -1761398.0 -1153488.2  34.5%  1170 21900s
 98659 20539     cutoff   32      -1761398.0 -1156664.7  34.3%  1168 21938s
 98988 20510     cutoff   47      -1761398.0 -1159300.0  34.2%  1167 21980s
 99274 20474     cutoff   53      -1761398.0 -1160895.7  34.1%  1167 22005s
 99561 20432     cutoff   41      -1761398.0 -1164241.2  33.9%  1166 22041s
 99833 20391     cutoff   54      -1761398.0 -1166131.1  33.8%  1165 22068s
 100111 20361 -1519035.6   44   73 -1761398.0 -1168569.5  33.7%  1164 22111s
 100363 20311     cutoff   40      -1761398.0 -1170399.9  33.6%  1164 22149s
 100609 20275     cutoff   50      -1761398.0 -1173950.6  33.4%  1163 22187s
 100869 20228     cutoff   30      -1761398.0 -1176488.6  33.2%  1164 22225s
 101225 20231     cutoff   44      -1761398.0 -1179076.0  33.1%  1163 22258s
 101521 20210     cutoff   82      -1761398.0 -1181441.4  32.9%  1162 22293s
 101789 20180     cutoff   41      -1761398.0 -1183797.3  32.8%  1161 22320s
 101959 20114 infeasible   32      -1761398.0 -1186520.8  32.6%  1161 22351s
 102155 20060 -1713160.2   63   97 -1761398.0 -1188402.7  32.5%  1162 22392s
 102565 20083     cutoff   64      -1761398.0 -1190968.3  32.4%  1160 22426s
 102869 20034 -1590746.0   36   90 -1761398.0 -1193311.9  32.3%  1159 22454s
 103136 19980 -1212037.0   57  172 -1761398.0 -1195759.1  32.1%  1158 22484s
 103471 19960 -1609303.8   44  116 -1761398.0 -1197968.9  32.0%  1157 22518s
 103805 19913     cutoff   44      -1761398.0 -1200409.3  31.8%  1156 22547s
 104068 19871 -1602773.6   40   78 -1761398.0 -1202424.5  31.7%  1155 22567s
 104308 19837 -1644538.4   40  156 -1761398.0 -1204674.4  31.6%  1154 22596s
 104617 19811 -1246082.8   70   70 -1761398.0 -1207221.3  31.5%  1153 22633s
 104909 19780     cutoff   60      -1761398.0 -1209909.9  31.3%  1152 22656s
 105198 19747     cutoff   36      -1761398.0 -1212096.1  31.2%  1151 22692s
 105401 19698     cutoff   35      -1761398.0 -1214262.9  31.1%  1151 22730s
 105772 19678     cutoff   47      -1761398.0 -1215871.2  31.0%  1149 22765s
 106085 19640 -1355023.6   43   97 -1761398.0 -1217939.4  30.9%  1148 22796s
 106400 19617 -1374107.2   34   93 -1761398.0 -1219670.1  30.8%  1147 22832s
 106736 19619 -1400900.1   82  169 -1761398.0 -1221257.7  30.7%  1146 22866s
 107068 19598 -1549125.9   41   98 -1761398.0 -1223755.3  30.5%  1145 22898s
 107473 19605     cutoff   31      -1761398.0 -1225994.6  30.4%  1143 22923s
 107763 19547     cutoff   38      -1761398.0 -1228027.8  30.3%  1142 22954s
 108077 19514     cutoff   39      -1761398.0 -1229675.5  30.2%  1140 22979s
 108334 19482     cutoff   40      -1761398.0 -1231763.2  30.1%  1140 23006s
 108640 19472     cutoff   61      -1761398.0 -1233888.5  29.9%  1138 23029s
 108917 19446     cutoff   35      -1761398.0 -1236293.2  29.8%  1137 23056s
 109170 19405     cutoff   30      -1761398.0 -1238353.3  29.7%  1137 23082s
 109408 19357     cutoff   80      -1761398.0 -1240583.2  29.6%  1136 23103s
 109643 19328     cutoff   46      -1761398.0 -1243114.4  29.4%  1135 23123s
 109875 19281 -1429233.0   51   53 -1761398.0 -1244921.8  29.3%  1135 23147s
 110119 19235 -1574565.9   49   27 -1761398.0 -1247377.9  29.2%  1134 23182s
 110368 19204     cutoff   38      -1761398.0 -1248687.6  29.1%  1133 23207s
 110646 19167     cutoff   48      -1761398.0 -1251313.2  29.0%  1132 23227s
 110870 19109 -1530622.5   76  139 -1761398.0 -1253791.9  28.8%  1132 23257s
 111142 19054     cutoff   38      -1761398.0 -1255770.8  28.7%  1131 23285s
 111348 18982     cutoff   65      -1761398.0 -1257853.1  28.6%  1130 23310s
 111654 18953     cutoff   66      -1761398.0 -1259553.7  28.5%  1129 23333s
 111902 18919 -1682985.7   44   97 -1761398.0 -1261550.6  28.4%  1129 23356s
 112271 18893     cutoff   43      -1761398.0 -1263705.4  28.3%  1127 23389s
 112645 18894     cutoff   43      -1761398.0 -1265741.1  28.1%  1125 23407s
 112866 18841     cutoff   68      -1761398.0 -1267800.6  28.0%  1124 23440s
 113150 18789     cutoff   62      -1761398.0 -1269182.5  27.9%  1123 23459s
 113471 18780     cutoff   33      -1761398.0 -1271374.7  27.8%  1122 23477s
 113662 18715     cutoff   44      -1761398.0 -1273397.2  27.7%  1121 23502s
 113878 18662 -1340703.7   33  177 -1761398.0 -1275389.2  27.6%  1120 23526s
 114232 18619 -1455473.5   31   25 -1761398.0 -1277421.0  27.5%  1119 23557s
 114477 18584     cutoff   49      -1761398.0 -1279671.6  27.3%  1118 23580s
 114745 18536     cutoff   53      -1761398.0 -1281840.3  27.2%  1117 23612s
 114988 18510     cutoff   24      -1761398.0 -1283615.9  27.1%  1117 23769s
 115178 18457     cutoff   45      -1761398.0 -1284246.6  27.1%  1116 23801s
 115417 18402     cutoff   69      -1761398.0 -1287435.3  26.9%  1115 23823s
 115706 18351     cutoff   54      -1761398.0 -1289479.7  26.8%  1114 23847s
 115991 18314     cutoff   40      -1761398.0 -1291567.2  26.7%  1113 23869s
 116359 18318 -1590545.6   82  125 -1761398.0 -1293534.2  26.6%  1111 23888s
 116614 18256     cutoff   42      -1761398.0 -1295574.1  26.4%  1110 23905s
 116849 18208 -1309525.7   71  111 -1761398.0 -1297622.0  26.3%  1109 23934s
 117146 18177     cutoff   42      -1761398.0 -1299258.9  26.2%  1108 23956s
 117413 18135     cutoff   48      -1761398.0 -1301166.7  26.1%  1107 23971s
 117685 18118     cutoff   41      -1761398.0 -1303090.9  26.0%  1106 23993s
 118024 18106     cutoff   36      -1761398.0 -1305142.2  25.9%  1104 24011s
 118262 18072     cutoff   54      -1761398.0 -1306890.2  25.8%  1103 24034s
 118582 18045     cutoff   52      -1761398.0 -1308686.4  25.7%  1102 24060s
 118813 17987     cutoff   38      -1761398.0 -1310476.1  25.6%  1101 24075s
 119008 17929     cutoff   36      -1761398.0 -1312363.1  25.5%  1100 24100s
 119267 17888     cutoff   35      -1761398.0 -1314190.8  25.4%  1099 24127s
 119513 17839     cutoff   32      -1761398.0 -1315825.8  25.3%  1098 24150s
 119716 17770     cutoff   39      -1761398.0 -1318157.6  25.2%  1098 24169s
 119964 17716 -1711280.1   30  113 -1761398.0 -1320150.5  25.1%  1097 24193s
 120186 17648 -1330570.0   34   44 -1761398.0 -1321951.9  24.9%  1096 24209s
 120335 17575     cutoff   31      -1761398.0 -1323777.2  24.8%  1096 24235s
 120594 17533 -1520160.9   44  146 -1761398.0 -1325645.5  24.7%  1094 24257s
 120878 17489     cutoff   50      -1761398.0 -1327303.1  24.6%  1093 24271s
 121088 17437 -1578946.4   42   45 -1761398.0 -1328945.1  24.6%  1092 24296s
 121350 17395 -1730139.7   57   76 -1761398.0 -1330883.1  24.4%  1092 24313s
 121629 17379     cutoff   40      -1761398.0 -1332525.4  24.3%  1090 24330s
 121848 17316     cutoff   35      -1761398.0 -1333988.1  24.3%  1089 24349s
 122078 17261     cutoff   35      -1761398.0 -1335756.2  24.2%  1089 24374s
 122292 17214     cutoff   55      -1761398.0 -1337218.3  24.1%  1088 24398s
 122515 17150     cutoff   43      -1761398.0 -1339051.9  24.0%  1087 24413s
 122717 17096 -1436810.8   57   59 -1761398.0 -1340785.5  23.9%  1086 24430s
 122952 17040     cutoff   53      -1761398.0 -1342601.2  23.8%  1086 24449s
 123222 17016     cutoff   48      -1761398.0 -1344281.9  23.7%  1084 24474s
 123481 16979     cutoff   44      -1761398.0 -1346170.5  23.6%  1083 24493s
 123717 16925     cutoff   30      -1761398.0 -1348167.0  23.5%  1083 24509s
 123920 16861     cutoff   35      -1761398.0 -1350041.1  23.4%  1082 24527s
 124059 16786 -1676386.9   80   66 -1761398.0 -1351476.3  23.3%  1082 24540s
 124317 16735     cutoff   54      -1761398.0 -1353218.0  23.2%  1081 24558s
 124514 16671     cutoff   61      -1761398.0 -1354872.3  23.1%  1080 24574s
 124742 16622 -1672580.3   38  160 -1761398.0 -1356486.0  23.0%  1079 24592s
 124933 16569     cutoff   40      -1761398.0 -1358289.0  22.9%  1078 24608s
 125152 16521     cutoff   51      -1761398.0 -1359938.9  22.8%  1078 24620s
 125357 16465     cutoff   38      -1761398.0 -1361420.4  22.7%  1077 24633s
 125501 16386     cutoff   27      -1761398.0 -1362858.8  22.6%  1076 24651s
 125737 16347     cutoff   37      -1761398.0 -1364172.7  22.6%  1075 24667s
 125918 16288     cutoff   45      -1761398.0 -1365424.5  22.5%  1075 24676s
 126071 16219 -1559787.5   35   81 -1761398.0 -1367046.5  22.4%  1074 24697s
 126295 16147     cutoff   33      -1761398.0 -1368578.8  22.3%  1073 24711s
 126491 16091     cutoff   38      -1761398.0 -1369990.2  22.2%  1073 24726s
 126662 16022     cutoff   53      -1761398.0 -1371659.2  22.1%  1072 24747s
 126866 15956     cutoff   51      -1761398.0 -1372883.3  22.1%  1071 24766s
 127080 15894     cutoff   42      -1761398.0 -1374216.8  22.0%  1071 24786s
 127294 15832 -1555295.3   64   80 -1761398.0 -1375814.5  21.9%  1070 24801s
 127509 15766     cutoff   70      -1761398.0 -1377314.3  21.8%  1069 24813s
 127707 15700     cutoff   45      -1761398.0 -1379174.8  21.7%  1068 24821s
 127834 15617     cutoff   36      -1761398.0 -1380861.5  21.6%  1068 24839s
 128046 15548     cutoff   40      -1761398.0 -1382267.6  21.5%  1067 24851s
 128217 15482 -1648055.1   63   76 -1761398.0 -1383786.7  21.4%  1066 24868s
 128437 15415 -1450647.1   42   83 -1761398.0 -1385341.0  21.3%  1066 24884s
 128660 15338     cutoff   34      -1761398.0 -1386983.8  21.3%  1065 24905s
 128927 15287     cutoff  107      -1761398.0 -1388510.1  21.2%  1064 24916s
 129152 15225 -1700934.1   39   92 -1761398.0 -1390080.9  21.1%  1063 24933s
 129341 15159     cutoff   77      -1761398.0 -1391656.4  21.0%  1062 24947s
 129526 15094     cutoff   39      -1761398.0 -1393063.7  20.9%  1061 24970s
 129746 15049     cutoff   36      -1761398.0 -1394711.8  20.8%  1060 24997s
 129877 14974 -1546658.5   62  143 -1761398.0 -1395400.2  20.8%  1060 25025s
 130116 14932     cutoff   64      -1761398.0 -1397124.7  20.7%  1059 25038s
 130280 14856     cutoff   33      -1761398.0 -1399043.5  20.6%  1059 25057s
 130598 14818 -1601738.5   88  142 -1761398.0 -1400414.7  20.5%  1057 25077s
 130789 14746     cutoff   47      -1761398.0 -1401752.2  20.4%  1057 25094s
 131009 14697     cutoff   25      -1761398.0 -1403184.9  20.3%  1056 25107s
 131236 14636     cutoff   76      -1761398.0 -1404561.7  20.3%  1055 25119s
 131531 14609     cutoff   56      -1761398.0 -1406217.5  20.2%  1053 25135s
 131698 14555 -1587353.3   35  111 -1761398.0 -1407736.6  20.1%  1053 25150s
 131890 14493     cutoff   45      -1761398.0 -1409187.3  20.0%  1052 25167s
 132098 14447     cutoff   95      -1761398.0 -1410539.0  19.9%  1052 25178s
 132251 14364     cutoff   36      -1761398.0 -1411788.6  19.8%  1051 25191s
 132468 14308     cutoff   51      -1761398.0 -1413287.4  19.8%  1050 25208s
 132661 14237     cutoff   57      -1761398.0 -1414843.9  19.7%  1050 25224s
 132819 14157     cutoff   51      -1761398.0 -1416371.6  19.6%  1050 25235s
 133003 14104     cutoff   64      -1761398.0 -1417775.1  19.5%  1049 25249s
 133206 14045     cutoff   38      -1761398.0 -1419108.2  19.4%  1048 25261s
 133412 13978     cutoff   44      -1761398.0 -1420636.6  19.3%  1047 25271s
 133601 13906     cutoff   37      -1761398.0 -1421981.3  19.3%  1046 25288s
 133820 13835     cutoff   29      -1761398.0 -1423327.0  19.2%  1045 25303s
 134018 13763 -1424832.8   33  128 -1761398.0 -1424682.9  19.1%  1045 25311s
 134172 13690     cutoff   75      -1761398.0 -1426134.0  19.0%  1044 25325s
 134365 13626 -1522978.0   38   81 -1761398.0 -1427645.9  18.9%  1043 25336s
 134562 13573     cutoff   44      -1761398.0 -1429404.0  18.8%  1043 25348s
 134687 13490     cutoff   39      -1761398.0 -1430821.9  18.8%  1042 25359s
 134859 13419 -1600294.2   35  112 -1761398.0 -1432140.7  18.7%  1042 25373s
 135049 13353     cutoff   60      -1761398.0 -1433495.1  18.6%  1041 25388s
 135232 13303     cutoff   60      -1761398.0 -1435200.7  18.5%  1040 25398s
 135353 13225     cutoff   57      -1761398.0 -1436621.7  18.4%  1040 25405s
 135507 13148     cutoff   83      -1761398.0 -1438234.8  18.3%  1039 25417s
 135716 13087     cutoff   62      -1761398.0 -1439792.3  18.3%  1038 25439s
 135986 13033     cutoff   39      -1761398.0 -1441178.5  18.2%  1037 25458s
 136171 12967     cutoff   45      -1761398.0 -1442945.7  18.1%  1037 25475s
 136350 12898     cutoff   42      -1761398.0 -1444337.9  18.0%  1036 25492s
 136534 12845     cutoff   68      -1761398.0 -1445515.0  17.9%  1036 25498s
 136670 12774     cutoff   50      -1761398.0 -1446880.5  17.9%  1035 25509s
 136863 12707     cutoff   57      -1761398.0 -1448223.8  17.8%  1034 25522s
 137092 12647     cutoff   75      -1761398.0 -1449526.0  17.7%  1033 25536s
 137290 12581 -1683780.9   52   94 -1761398.0 -1450848.1  17.6%  1032 25548s
 137455 12507 -1485658.3   41   98 -1761398.0 -1452194.7  17.6%  1031 25556s
 137625 12465     cutoff   74      -1761398.0 -1453964.2  17.5%  1031 25730s
 137777 12399 -1662016.0   39   70 -1761398.0 -1454248.1  17.4%  1030 25744s
 137920 12320     cutoff   39      -1761398.0 -1456260.9  17.3%  1030 25755s
 138089 12251     cutoff   80      -1761398.0 -1457810.4  17.2%  1029 25764s
 138236 12168     cutoff   32      -1761398.0 -1459414.7  17.1%  1028 25774s
 138402 12095     cutoff   49      -1761398.0 -1460873.5  17.1%  1028 25783s
 138556 12021     cutoff   41      -1761398.0 -1462421.3  17.0%  1027 25797s
 138698 11946 -1510624.2   33   84 -1761398.0 -1463670.5  16.9%  1026 25810s
 138879 11873     cutoff   55      -1761398.0 -1465111.6  16.8%  1026 25817s
 139025 11805     cutoff   30      -1761398.0 -1466609.6  16.7%  1025 25828s
 139238 11746 -1591003.4   51   84 -1761398.0 -1467707.3  16.7%  1024 25843s
 139459 11668     cutoff   34      -1761398.0 -1469226.0  16.6%  1023 25851s
 139612 11606     cutoff   62      -1761398.0 -1470682.3  16.5%  1022 25858s
 139777 11544     cutoff   47      -1761398.0 -1472098.8  16.4%  1021 25868s
 139917 11468     cutoff   63      -1761398.0 -1473606.6  16.3%  1020 25879s
 140093 11400     cutoff   62      -1761398.0 -1474537.5  16.3%  1020 25887s
 140240 11331     cutoff   40      -1761398.0 -1475753.5  16.2%  1019 25908s
 140408 11260 -1496200.6   34  113 -1761398.0 -1476924.6  16.2%  1018 25919s
 140621 11207 -1507284.4   45   66 -1761398.0 -1478280.6  16.1%  1017 25929s
 140768 11125     cutoff   53      -1761398.0 -1479671.2  16.0%  1017 25936s
 140932 11050     cutoff   64      -1761398.0 -1481133.4  15.9%  1016 25947s
 141088 10972 -1521265.6   61   61 -1761398.0 -1482658.7  15.8%  1015 25958s
 141265 10902 -1588331.0   33   69 -1761398.0 -1484202.6  15.7%  1015 25967s
 141425 10830     cutoff   40      -1761398.0 -1485640.3  15.7%  1014 25979s
 141615 10763     cutoff   62      -1761398.0 -1487055.7  15.6%  1013 25988s
 141834 10692     cutoff   69      -1761398.0 -1488547.0  15.5%  1012 25995s
 141976 10619     cutoff   34      -1761398.0 -1490028.4  15.4%  1012 26002s
 142122 10538     cutoff   34      -1761398.0 -1491158.7  15.3%  1011 26012s
 142295 10466     cutoff   51      -1761398.0 -1492406.2  15.3%  1011 26025s
 142478 10410     cutoff   46      -1761398.0 -1493696.7  15.2%  1010 26034s
 142658 10339 -1533267.9   39   22 -1761398.0 -1494861.6  15.1%  1009 26043s
 142821 10267     cutoff   48      -1761398.0 -1496428.2  15.0%  1008 26049s
 142954 10195     cutoff   37      -1761398.0 -1497826.1  15.0%  1008 26057s
 143114 10119     cutoff   47      -1761398.0 -1499488.3  14.9%  1007 26065s
 143280 10040     cutoff   48      -1761398.0 -1501041.6  14.8%  1006 26071s
 143457  9981     cutoff   51      -1761398.0 -1502868.4  14.7%  1005 26082s
 143636  9914 -1634337.4   40   46 -1761398.0 -1504335.9  14.6%  1005 26092s
 143775  9844     cutoff   73      -1761398.0 -1505938.4  14.5%  1004 26099s
 143904  9769     cutoff   95      -1761398.0 -1507463.5  14.4%  1004 26108s
 144079  9701     cutoff   49      -1761398.0 -1509214.0  14.3%  1003 26117s
 144224  9622     cutoff   61      -1761398.0 -1510684.9  14.2%  1002 26123s
 144378  9553     cutoff   30      -1761398.0 -1511872.2  14.2%  1002 26133s
 144558  9503     cutoff   35      -1761398.0 -1513192.2  14.1%  1001 26145s
 144730  9438     cutoff   57      -1761398.0 -1514225.2  14.0%  1000 26152s
 144889  9363 -1519951.3   38  130 -1761398.0 -1515782.0  13.9%   999 26160s
 145076  9297 -1716229.0   33   98 -1761398.0 -1516979.2  13.9%   998 26175s
 145274  9226     cutoff   93      -1761398.0 -1518488.2  13.8%   998 26190s
 145445  9149     cutoff   58      -1761398.0 -1519698.0  13.7%   997 26196s
 145571  9066     cutoff   37      -1761398.0 -1521029.3  13.6%   996 26203s
 145692  8982     cutoff   54      -1761398.0 -1522233.6  13.6%   996 26210s
 145843  8913     cutoff   75      -1761398.0 -1523568.8  13.5%   995 26215s
 145988  8830     cutoff   91      -1761398.0 -1525004.9  13.4%   994 26222s
 146106  8747 -1579381.4   47   68 -1761398.0 -1526139.4  13.4%   994 26231s
 146239  8674     cutoff   42      -1761398.0 -1527492.1  13.3%   993 26239s
 146410  8602     cutoff   42      -1761398.0 -1528901.4  13.2%   993 26247s
 146533  8520     cutoff   70      -1761398.0 -1530282.2  13.1%   992 26254s
 146681  8439 -1629337.7   47   57 -1761398.0 -1531599.2  13.0%   992 26261s
 146849  8366     cutoff   38      -1761398.0 -1532970.3  13.0%   991 26267s
 146967  8282     cutoff   57      -1761398.0 -1534218.2  12.9%   990 26273s
 147091  8200     cutoff   39      -1761398.0 -1535513.2  12.8%   990 26285s
 147263  8130     cutoff   48      -1761398.0 -1536861.6  12.7%   989 26291s
 147418  8054     cutoff   37      -1761398.0 -1538301.2  12.7%   988 26296s
 147583  7981     cutoff   38      -1761398.0 -1539526.2  12.6%   988 26305s
 147874  7832     cutoff   42      -1761398.0 -1542538.5  12.4%   986 26313s
 148000  7754     cutoff   36      -1761398.0 -1544193.1  12.3%   985 26318s
 148170  7677     cutoff   29      -1761398.0 -1545758.3  12.2%   985 26327s
 148357  7618     cutoff   61      -1761398.0 -1547275.3  12.2%   984 26334s
 148502  7537     cutoff   47      -1761398.0 -1548503.2  12.1%   983 26338s
 148637  7459 -1611931.7   46  102 -1761398.0 -1549802.3  12.0%   982 26344s
 148759  7377     cutoff   49      -1761398.0 -1551015.8  11.9%   982 26351s
 148908  7302     cutoff   47      -1761398.0 -1552498.9  11.9%   981 26356s
 149078  7235     cutoff   48      -1761398.0 -1553778.9  11.8%   980 26362s
 149222  7155     cutoff   48      -1761398.0 -1555334.0  11.7%   979 26368s
 149384  7076     cutoff   70      -1761398.0 -1556662.4  11.6%   979 26373s
 149500  6993     cutoff   50      -1761398.0 -1558152.3  11.5%   978 26380s
 149609  6911     cutoff   46      -1761398.0 -1559633.0  11.5%   978 26386s
 149771  6840     cutoff   52      -1761398.0 -1561098.8  11.4%   977 26391s
 149894  6764     cutoff   42      -1761398.0 -1562342.0  11.3%   976 26398s
 150011  6704     cutoff   37      -1761398.0 -1563636.4  11.2%   976 26414s
 150140  6623     cutoff   49      -1761398.0 -1564323.0  11.2%   976 26417s
 150276  6544     cutoff   38      -1761398.0 -1565796.6  11.1%   975 26422s
 150421  6468     cutoff   64      -1761398.0 -1567062.3  11.0%   974 26428s
 150591  6397     cutoff   76      -1761398.0 -1568733.8  10.9%   973 26432s
 150732  6319     cutoff   46      -1761398.0 -1569895.8  10.9%   973 26442s
 150853  6236     cutoff   33      -1761398.0 -1571374.5  10.8%   972 26446s
 151103  6080     cutoff   37      -1761398.0 -1574279.1  10.6%   971 26453s
 151207  5997     cutoff   44      -1761398.0 -1575956.8  10.5%   970 26458s
 151335  5914     cutoff   32      -1761398.0 -1577600.6  10.4%   970 26461s
 151474  5835     cutoff   35      -1761398.0 -1578899.1  10.4%   969 26465s
 151606  5755     cutoff   65      -1761398.0 -1580326.5  10.3%   969 26471s
 151751  5672     cutoff   40      -1761398.0 -1581676.5  10.2%   968 26475s
 152013  5515     cutoff   77      -1761398.0 -1584525.9  10.0%   967 26483s
 152156  5431 -1719284.4   59   97 -1761398.0 -1585969.5  10.0%   966 26486s
 152402  5269     cutoff   47      -1761398.0 -1588906.0  9.79%   965 26492s
 152511  5185     cutoff   71      -1761398.0 -1590449.5  9.71%   964 26495s
 152755  5019     cutoff   65      -1761398.0 -1593258.7  9.55%   963 26503s
 152877  4935     cutoff   52      -1761398.0 -1594665.6  9.47%   963 26506s
 153001  4860     cutoff   39      -1761398.0 -1596136.6  9.38%   962 26511s
 153263  4706     cutoff   50      -1761398.0 -1599353.9  9.20%   961 26518s
 153363  4623     cutoff   46      -1761398.0 -1600853.5  9.11%   960 26522s
 153524  4550     cutoff   49      -1761398.0 -1602481.3  9.02%   959 26526s
 153791  4393     cutoff   32      -1761398.0 -1605674.4  8.84%   958 26532s
 153920  4314     cutoff   32      -1761398.0 -1607221.0  8.75%   957 26535s
 154187  4159     cutoff   56      -1761398.0 -1610328.4  8.58%   956 26541s
 154319  4076     cutoff   38      -1761398.0 -1611846.3  8.49%   955 26545s
 154542  3916     cutoff   47      -1761398.0 -1615070.9  8.31%   954 26553s
 154666  3832     cutoff   81      -1761398.0 -1616684.5  8.22%   954 26557s
 154897  3665 -1627270.7   34  103 -1761398.0 -1620278.3  8.01%   952 26563s
 155023  3589     cutoff   63      -1761398.0 -1621999.9  7.91%   952 26568s
 155166  3512     cutoff   34      -1761398.0 -1623823.0  7.81%   951 26571s
 155387  3346     cutoff   49      -1761398.0 -1627130.5  7.62%   950 26575s
 155618  3178     cutoff   53      -1761398.0 -1630344.8  7.44%   949 26582s
 155831  3016     cutoff   49      -1761398.0 -1634424.9  7.21%   948 26586s
 156059  2850     cutoff   82      -1761398.0 -1637823.6  7.02%   947 26590s
 156261  2682     cutoff   57      -1761398.0 -1641548.1  6.80%   946 26595s
 156481  2516 -1662136.2   42   61 -1761398.0 -1645105.3  6.60%   944 26601s
 156590  2433     cutoff   41      -1761398.0 -1646857.4  6.50%   944 26605s
 156826  2267     cutoff   27      -1761398.0 -1650778.1  6.28%   943 26610s
 157028  2102     cutoff   47      -1761398.0 -1654583.6  6.06%   942 26615s
 157359  1854     cutoff   43      -1761398.0 -1661006.8  5.70%   940 26620s
 157577  1686     cutoff   41      -1761398.0 -1665309.7  5.46%   939 26625s
 157926  1436     cutoff   50      -1761398.0 -1672882.1  5.03%   937 26631s
 158254  1191     cutoff   45      -1761398.0 -1681577.7  4.53%   935 26635s
 158763   774     cutoff   56      -1761398.0 -1696278.6  3.70%   932 26641s
 159070   523     cutoff   39      -1761398.0 -1707483.0  3.06%   931 26645s
 159630    19     cutoff   34      -1761398.0 -1747700.3  0.78%   928 26651s

Cutting planes:
  Gomory: 40
  Implied bound: 14
  Projected implied bound: 18
  MIR: 95
  Flow cover: 513

Explored 159738 nodes (148206450 simplex iterations) in 26653.15 seconds
Thread count was 4 (of 16 available processors)

Solution count 10: -1.7614e+06 -1.7614e+06 -1.7614e+06 ... -2.4791e+06

Optimal solution found (tolerance 1.00e-04)
Best objective -1.761398090000e+06, best bound -1.761397953942e+06, gap 0.0000%

***
***  |- Calculation finished, took 26,653.17 (26653.17) sec.
***  |-----------------------------------------------------------------------------------------------------------------------
***
*****************************************************************************************************************************
#############################################################################################################################
###
### Results
###
### The objective of the solution is -1,761,398.09 (-1761398.09) and is feasible with a Gap of 0.0
###
### Service 42 (SAMBA) is operated by 7 vessels from type 18 (PMax25)
###  |- Vessel 1 has the path [143, 77, 78, 5, 0]
###  |  143 (USMSY Out@238.0) - 77 (ESALG In@607.0/Out@631.0) - 78 (ESALG In@613.0/Out@658.0) - 5 (ARBUE In@1088.0/Out@1112.0
###  |  ) - 0 (DUMMY_END Ziel-Service 42)
###  |   |- and carried Demand  98, 392.0 containers from  78 to   5
###  |   |- and carried Demand  99,  13.0 containers from  78 to   5
###  |   |- and carried Demand 490, 392.0 containers from  77 to   5
###  |   |- and carried Demand 491,  13.0 containers from  77 to   5
###  |   |- and carried Demand 494,  59.0 containers from  77 to   5
###  |   |- and carried Demand 495,   6.0 containers from  77 to   5
###  |   |- and carried Demand 496, 126.0 containers from  77 to   5
###  |- Vessel 2 has the path [144, 79, 80, 81, 82, 83, 85, 86, 87, 88, 94, 55, 51, 11, 12, 0]
###  |  144 (USMSY Out@406.0) - 79 (ESALG In@775.0/Out@799.0) - 80 (ESALG In@829.0/Out@853.0) - 81 (ESALG In@943.0/Out@967.0)
###  |   - 82 (ESALG In@1045.0/Out@1075.0) - 83 (ESALG In@1111.0/Out@1135.0) - 85 (ESALG In@1213.0/Out@1243.0) - 86 (ESALG In
###  |  @1279.0/Out@1303.0) - 87 (ESALG In@1381.0/Out@1411.0) - 88 (ESALG In@1447.0/Out@1471.0) - 94 (ESLPA In@1521.0/Out@154
###  |  5.0) - 55 (BRSUA In@1691.0/Out@1715.0) - 51 (BRSSZ In@1788.0/Out@1808.0) - 11 (ARBUE In@1862.0/Out@1905.0) - 12 (ARBU
###  |  E In@1928.0/Out@1952.0) - 0 (DUMMY_END Ziel-Service 42)
###  |   |- and carried Demand   7, 200.0 containers from  82 to  12
###  |   |- and carried Demand  20,  57.0 containers from  85 to  11
###  |   |- and carried Demand  24,  16.0 containers from  85 to  11
###  |   |- and carried Demand  26,  47.0 containers from  87 to  51
###  |   |- and carried Demand  29,   8.0 containers from  87 to  11
###  |   |- and carried Demand  30, 224.0 containers from  87 to  11
###  |   |- and carried Demand  31,  58.0 containers from  87 to  12
###  |   |- and carried Demand  32,   5.0 containers from  87 to  12
###  |   |- and carried Demand  33, 159.0 containers from  87 to  11
###  |   |- and carried Demand  71,  12.0 containers from  51 to  11
###  |   |- and carried Demand 156, 239.0 containers from  80 to  11
###  |   |- and carried Demand 157,   8.0 containers from  80 to  11
###  |   |- and carried Demand 161,  19.0 containers from  80 to  11
###  |   |- and carried Demand 176,   8.0 containers from  88 to  11
###  |   |- and carried Demand 177, 224.0 containers from  88 to  11
###  |   |- and carried Demand 178,  58.0 containers from  88 to  12
###  |   |- and carried Demand 179,   5.0 containers from  88 to  12
###  |   |- and carried Demand 180, 159.0 containers from  88 to  11
###  |   |- and carried Demand 249,  57.0 containers from  86 to  11
###  |   |- and carried Demand 253,  16.0 containers from  86 to  11
###  |   |- and carried Demand 322, 200.0 containers from  83 to  12
###  |   |- and carried Demand 382, 239.0 containers from  81 to  11
###  |   |- and carried Demand 383,   8.0 containers from  81 to  11
###  |   |- and carried Demand 387,  19.0 containers from  81 to  11
###  |   |- and carried Demand 441, 488.0 containers from  79 to  12
###  |   |- and carried Demand 442,   5.0 containers from  79 to  12
###  |- Vessel 3 has the path [145, 4, 0]
###  |  145 (USMSY Out@574.0) - 4 (ARBUE In@920.0/Out@944.0) - 0 (DUMMY_END Ziel-Service 42)
###  |- Vessel 4 has the path [146, 6, 0]
###  |  146 (USMSY Out@742.0) - 6 (ARBUE In@1256.0/Out@1280.0) - 0 (DUMMY_END Ziel-Service 42)
###  |- Vessel 5 has the path [147, 8, 0]
###  |  147 (USMSY Out@910.0) - 8 (ARBUE In@1424.0/Out@1448.0) - 0 (DUMMY_END Ziel-Service 42)
###  |- Vessel 6 has the path [148, 9, 0]
###  |  148 (USMSY Out@1078.0) - 9 (ARBUE In@1592.0/Out@1616.0) - 0 (DUMMY_END Ziel-Service 42)
###  |- Vessel 7 has the path [149, 10, 0]
###  |  149 (USMSY Out@1246.0) - 10 (ARBUE In@1760.0/Out@1784.0) - 0 (DUMMY_END Ziel-Service 42)
###  |
### Vessels not used in the solution: []
###  |-----------------------------------------------------------------------------------------------------------------------
###
#############################################################################################################################

### Detialed variable overview

### All variables with value greater zero:
rho[42,18] = 1
eta[42,18,1] = 1
eta[42,18,2] = 1
eta[42,18,3] = 1
eta[42,18,4] = 1
eta[42,18,5] = 1
eta[42,18,6] = 1
eta[42,18,7] = 1
y[1,77,78] = 1
y[1,5,0] = 1
y[1,143,77] = 1
y[1,78,5] = 1
y[2,94,55] = 1
y[2,85,86] = 1
y[2,80,81] = 1
y[2,144,79] = 1
y[2,11,12] = 1
y[2,86,87] = 1
y[2,51,11] = 1
y[2,12,0] = 1
y[2,83,85] = 1
y[2,81,82] = 1
y[2,79,80] = 1
y[2,87,88] = 1
y[2,55,51] = 1
y[2,82,83] = 1
y[2,88,94] = 1
y[3,145,4] = 1
y[3,4,0] = 1
y[4,6,0] = 1
y[4,146,6] = 1
y[5,8,0] = 1
y[5,147,8] = 1
y[6,9,0] = 1
y[6,148,9] = 1
y[7,149,10] = 1
y[7,10,0] = 1
xD[7,94,55] = 200
xD[7,85,86] = 200
xD[7,11,12] = 200
xD[7,86,87] = 200
xD[7,51,11] = 200
xD[7,83,85] = 200
xD[7,87,88] = 200
xD[7,55,51] = 200
xD[7,82,83] = 200
xD[7,88,94] = 200
xD[20,94,55] = 57
xD[20,85,86] = 57
xD[20,86,87] = 57
xD[20,51,11] = 57
xD[20,87,88] = 57
xD[20,55,51] = 57
xD[20,88,94] = 57
xD[24,94,55] = 16
xD[24,85,86] = 16
xD[24,86,87] = 16
xD[24,51,11] = 16
xD[24,87,88] = 16
xD[24,55,51] = 16
xD[24,88,94] = 16
xD[26,94,55] = 47
xD[26,87,88] = 47
xD[26,55,51] = 47
xD[26,88,94] = 47
xD[29,94,55] = 8
xD[29,51,11] = 8
xD[29,87,88] = 8
xD[29,55,51] = 8
xD[29,88,94] = 8
xD[30,94,55] = 224
xD[30,51,11] = 224
xD[30,87,88] = 224
xD[30,55,51] = 224
xD[30,88,94] = 224
xD[31,94,55] = 58
xD[31,11,12] = 58
xD[31,51,11] = 58
xD[31,87,88] = 58
xD[31,55,51] = 58
xD[31,88,94] = 58
xD[32,94,55] = 5
xD[32,11,12] = 5
xD[32,51,11] = 5
xD[32,87,88] = 5
xD[32,55,51] = 5
xD[32,88,94] = 5
xD[33,94,55] = 159
xD[33,51,11] = 159
xD[33,87,88] = 159
xD[33,55,51] = 159
xD[33,88,94] = 159
xD[71,51,11] = 12
xD[98,78,5] = 392
xD[99,78,5] = 13
xD[156,94,55] = 239
xD[156,85,86] = 239
xD[156,80,81] = 239
xD[156,86,87] = 239
xD[156,51,11] = 239
xD[156,83,85] = 239
xD[156,81,82] = 239
xD[156,87,88] = 239
xD[156,55,51] = 239
xD[156,82,83] = 239
xD[156,88,94] = 239
xD[157,94,55] = 8
xD[157,85,86] = 8
xD[157,80,81] = 8
xD[157,86,87] = 8
xD[157,51,11] = 8
xD[157,83,85] = 8
xD[157,81,82] = 8
xD[157,87,88] = 8
xD[157,55,51] = 8
xD[157,82,83] = 8
xD[157,88,94] = 8
xD[161,94,55] = 19
xD[161,85,86] = 19
xD[161,80,81] = 19
xD[161,86,87] = 19
xD[161,51,11] = 19
xD[161,83,85] = 19
xD[161,81,82] = 19
xD[161,87,88] = 19
xD[161,55,51] = 19
xD[161,82,83] = 19
xD[161,88,94] = 19
xD[176,94,55] = 8
xD[176,51,11] = 8
xD[176,55,51] = 8
xD[176,88,94] = 8
xD[177,94,55] = 224
xD[177,51,11] = 224
xD[177,55,51] = 224
xD[177,88,94] = 224
xD[178,94,55] = 58
xD[178,11,12] = 58
xD[178,51,11] = 58
xD[178,55,51] = 58
xD[178,88,94] = 58
xD[179,94,55] = 5
xD[179,11,12] = 5
xD[179,51,11] = 5
xD[179,55,51] = 5
xD[179,88,94] = 5
xD[180,94,55] = 159
xD[180,51,11] = 159
xD[180,55,51] = 159
xD[180,88,94] = 159
xD[249,94,55] = 57
xD[249,86,87] = 57
xD[249,51,11] = 57
xD[249,87,88] = 57
xD[249,55,51] = 57
xD[249,88,94] = 57
xD[253,94,55] = 16
xD[253,86,87] = 16
xD[253,51,11] = 16
xD[253,87,88] = 16
xD[253,55,51] = 16
xD[253,88,94] = 16
xD[322,94,55] = 200
xD[322,85,86] = 200
xD[322,11,12] = 200
xD[322,86,87] = 200
xD[322,51,11] = 200
xD[322,83,85] = 200
xD[322,87,88] = 200
xD[322,55,51] = 200
xD[322,88,94] = 200
xD[382,94,55] = 239
xD[382,85,86] = 239
xD[382,86,87] = 239
xD[382,51,11] = 239
xD[382,83,85] = 239
xD[382,81,82] = 239
xD[382,87,88] = 239
xD[382,55,51] = 239
xD[382,82,83] = 239
xD[382,88,94] = 239
xD[383,94,55] = 8
xD[383,85,86] = 8
xD[383,86,87] = 8
xD[383,51,11] = 8
xD[383,83,85] = 8
xD[383,81,82] = 8
xD[383,87,88] = 8
xD[383,55,51] = 8
xD[383,82,83] = 8
xD[383,88,94] = 8
xD[387,94,55] = 19
xD[387,85,86] = 19
xD[387,86,87] = 19
xD[387,51,11] = 19
xD[387,83,85] = 19
xD[387,81,82] = 19
xD[387,87,88] = 19
xD[387,55,51] = 19
xD[387,82,83] = 19
xD[387,88,94] = 19
xD[441,94,55] = 488
xD[441,85,86] = 488
xD[441,80,81] = 488
xD[441,11,12] = 488
xD[441,86,87] = 488
xD[441,51,11] = 488
xD[441,83,85] = 488
xD[441,81,82] = 488
xD[441,79,80] = 488
xD[441,87,88] = 488
xD[441,55,51] = 488
xD[441,82,83] = 488
xD[441,88,94] = 488
xD[442,94,55] = 5
xD[442,85,86] = 5
xD[442,80,81] = 5
xD[442,11,12] = 5
xD[442,86,87] = 5
xD[442,51,11] = 5
xD[442,83,85] = 5
xD[442,81,82] = 5
xD[442,79,80] = 5
xD[442,87,88] = 5
xD[442,55,51] = 5
xD[442,82,83] = 5
xD[442,88,94] = 5
xD[490,77,78] = 392
xD[490,78,5] = 392
xD[491,77,78] = 13
xD[491,78,5] = 13
xD[494,77,78] = 59
xD[494,78,5] = 59
xD[495,77,78] = 6
xD[495,78,5] = 6
xD[496,77,78] = 126
xD[496,78,5] = 126
zE[4] = 920
zE[5] = 1088
zE[6] = 1256
zE[8] = 1424
zE[9] = 1592
zE[10] = 1760
zE[11] = 1862
zE[12] = 1928
zE[51] = 1788
zE[55] = 1691
zE[77] = 607
zE[78] = 613
zE[79] = 775
zE[80] = 829
zE[81] = 943
zE[82] = 1045
zE[83] = 1111
zE[85] = 1213
zE[86] = 1279
zE[87] = 1381
zE[88] = 1447
zE[94] = 1521
zX[4] = 944
zX[5] = 1112
zX[6] = 1280
zX[8] = 1448
zX[9] = 1616
zX[10] = 1784
zX[11] = 1905
zX[12] = 1952
zX[51] = 1808
zX[55] = 1715
zX[77] = 631
zX[78] = 658
zX[79] = 799
zX[80] = 853
zX[81] = 967
zX[82] = 1075
zX[83] = 1135
zX[85] = 1243
zX[86] = 1303
zX[87] = 1411
zX[88] = 1471
zX[94] = 1545
zX[143] = 238
zX[144] = 406
zX[145] = 574
zX[146] = 742
zX[147] = 910
zX[148] = 1078
zX[149] = 1246
phi[1] = 874
phi[2] = 1546
phi[3] = 370
phi[4] = 538
phi[5] = 538
phi[6] = 538
phi[7] = 538

### All variables with value smaller zero:

### End

real	445m14.099s
user	1685m39.629s
sys	88m53.136s
	Freetype 2.4.12 environment removed
	Python 3.6.0 environment removed
	Gurobi 8.1.0 environment removed
