	Freetype 2.4.12 environment established
		library to render fonts
	Python 3.6.0 environment established
	Gurobi 8.1.0 environment established
Instance LSFRP: LSFDRP_5_3_0_1_fr.p
Instance LSFDP: LSFDRP_5_3_0_1_fd_37.p

*****************************************************************************************************************************
*** Solve LSFDRP_5_3_0_1_fd_37 with Gurobi
***
*** Graph info
*** |S|: 7
*** |S^E|: 0
*** |S^C|: 0
*** |V|: 162
*** |A|: 2732
*** |A^i|: 2732
*** |A^f|: 0
*** |M|: 532
*** |E|: 0

Changed value of parameter TimeLimit to 86400.0
   Prev: 1e+100  Min: 0.0  Max: 1e+100  Default: 1e+100
Changed value of parameter Threads to 4
   Prev: 0  Min: 0  Max: 1024  Default: 0
Optimize a model with 93584 rows, 1478335 columns and 5126353 nonzeros
Variable types: 1459203 continuous, 19132 integer (19132 binary)
Coefficient statistics:
  Matrix range     [1e+00, 3e+03]
  Objective range  [2e+00, 3e+07]
  Bounds range     [1e+00, 1e+00]
  RHS range        [1e+00, 7e+00]
Presolve removed 85980 rows and 1446473 columns (presolve time = 6s) ...
Presolve removed 85980 rows and 1448308 columns (presolve time = 14s) ...
Presolve removed 86020 rows and 1448313 columns (presolve time = 15s) ...
Warning: Failed to open log file 'gurobi.log'
Presolve removed 86020 rows and 1448313 columns
Presolve time: 17.50s
Presolved: 7564 rows, 30022 columns, 158246 nonzeros
Variable types: 20242 continuous, 9780 integer (9773 binary)

Root simplex log...

Iteration    Objective       Primal Inf.    Dual Inf.      Time
       0    4.5132313e+09   1.089818e+06   0.000000e+00     18s
   20689    3.3157621e+07   1.041718e+05   0.000000e+00     20s
   34464    9.4865731e+06   7.740891e+05   0.000000e+00     25s
   44379    6.7343180e+06   1.806380e+06   0.000000e+00     30s
   53480    4.2385824e+06   3.142016e+05   0.000000e+00     35s
   60861    3.3584351e+06   1.971524e+05   0.000000e+00     40s
   67241    2.9960056e+06   5.261624e+04   0.000000e+00     45s
   73091    2.8730490e+06   2.165726e+04   0.000000e+00     50s
   77196    2.8496089e+06   0.000000e+00   0.000000e+00     54s

Root relaxation: objective 2.849609e+06, 77196 iterations, 35.91 seconds

    Nodes    |    Current Node    |     Objective Bounds      |     Work
 Expl Unexpl |  Obj  Depth IntInf | Incumbent    BestBd   Gap | It/Node Time

     0     0 2849608.93    0  204          - 2849608.93      -     -   54s
H    0     0                    -6709097.622 2849608.93   142%     -   54s
H    0     0                    -4620719.842 2849608.93   162%     -   54s
H    0     0                    -3519562.542 2849608.93   181%     -   63s
     0     0 2833973.74    0  220 -3519562.5 2833973.74   181%     -   68s
     0     0 2791777.49    0  215 -3519562.5 2791777.49   179%     -   71s
     0     0 2790787.49    0  222 -3519562.5 2790787.49   179%     -   72s
     0     0 2783531.04    0  218 -3519562.5 2783531.04   179%     -   73s
     0     0 2783509.53    0  217 -3519562.5 2783509.53   179%     -   74s
     0     0 2783509.53    0  217 -3519562.5 2783509.53   179%     -   74s
     0     0 2768240.13    0  210 -3519562.5 2768240.13   179%     -   77s
     0     0 2767355.74    0  218 -3519562.5 2767355.74   179%     -   77s
     0     0 2766966.08    0  216 -3519562.5 2766966.08   179%     -   77s
     0     0 2766856.37    0  216 -3519562.5 2766856.37   179%     -   78s
     0     0 2766847.50    0  216 -3519562.5 2766847.50   179%     -   78s
     0     0 2764569.60    0  222 -3519562.5 2764569.60   179%     -   79s
     0     0 2762588.07    0  223 -3519562.5 2762588.07   178%     -   80s
     0     0 2762568.49    0  223 -3519562.5 2762568.49   178%     -   80s
     0     0 2761850.84    0  222 -3519562.5 2761850.84   178%     -   80s
     0     0 2759694.18    0  224 -3519562.5 2759694.18   178%     -   81s
     0     0 2759263.57    0  235 -3519562.5 2759263.57   178%     -   81s
     0     0 2759263.57    0  235 -3519562.5 2759263.57   178%     -   81s
     0     0 2756692.21    0  234 -3519562.5 2756692.21   178%     -   82s
     0     0 2755010.79    0  235 -3519562.5 2755010.79   178%     -   83s
     0     0 2754824.09    0  236 -3519562.5 2754824.09   178%     -   83s
     0     0 2754129.51    0  238 -3519562.5 2754129.51   178%     -   83s
     0     0 2754129.51    0  238 -3519562.5 2754129.51   178%     -   83s
     0     0 2753446.11    0  243 -3519562.5 2753446.11   178%     -   84s
     0     0 2750208.80    0  239 -3519562.5 2750208.80   178%     -   85s
     0     0 2750181.21    0  239 -3519562.5 2750181.21   178%     -   85s
     0     0 2749857.57    0  242 -3519562.5 2749857.57   178%     -   85s
     0     0 2749040.34    0  242 -3519562.5 2749040.34   178%     -   86s
     0     0 2748931.46    0  228 -3519562.5 2748931.46   178%     -   86s
     0     0 2748436.25    0  246 -3519562.5 2748436.25   178%     -   87s
     0     0 2748436.25    0  246 -3519562.5 2748436.25   178%     -   88s
     0     0 2748370.77    0  246 -3519562.5 2748370.77   178%     -   88s
     0     0 2748370.77    0  246 -3519562.5 2748370.77   178%     -  102s
H    0     0                    -3104715.575 2748370.77   189%     -  121s
     0     2 2748370.77    0  246 -3104715.6 2748370.77   189%     -  121s
     1     4 2252794.27    1  233 -3104715.6 2747464.07   188% 11865  154s
     3     8 2161190.15    2  198 -3104715.6 2250185.10   172% 14843  170s
    11    16 2084705.03    4  179 -3104715.6 2159289.41   170%  7437  184s
    15    17 1599538.36    5  150 -3104715.6 2159289.41   170%  7119  195s
    23    22 2045431.20    6  176 -3104715.6 2159289.41   170%  5421  202s
H   29    30                    -2603019.065 2159289.41   183%  4649  208s
H   30    31                    -2589308.027 2159289.41   183%  4509  208s
    33    34 2005436.55    9  184 -2589308.0 2159289.41   183%  4165  218s
    39    41 1997707.02   11  184 -2589308.0 2159289.41   183%  3984  238s
    46    49 1923349.12   13  182 -2589308.0 2159289.41   183%  4512  250s
    51    53 -258216.31   14  187 -2589308.0 2159289.41   183%  5606  278s
    57    57 1622433.27   15  211 -2589308.0 2159289.41   183%  6287  287s
    62    62 1618626.70   16  206 -2589308.0 2159289.41   183%  6146  300s
    68    69 11706.0888   17  189 -2589308.0 2159289.41   183%  6028  311s
    77    79 1016362.53   18  157 -2589308.0 2159289.41   183%  5702  319s
    84    84 1335255.37   18  225 -2589308.0 2159289.41   183%  5388  338s
    92    89 1186404.02   21  231 -2589308.0 2159289.41   183%  5581  344s
   105   104 983658.079   24  209 -2589308.0 2159289.41   183%  5055  353s
   117   120 503848.939   24  197 -2589308.0 2159289.41   183%  4733  367s
   123   121 912493.320   25  202 -2589308.0 2159289.41   183%  4793  377s
   130   129 615217.248   27  203 -2589308.0 2159289.41   183%  4813  393s
   142   139 -1670443.4   32  114 -2589308.0 2159289.41   183%  4887  409s
   154   154 274438.053   33  163 -2589308.0 2159289.41   183%  4669  420s
   177   176 -143747.76   37  134 -2589308.0 2159289.41   183%  4329  433s
   184   184 -170462.11   38  137 -2589308.0 2159289.41   183%  4366  452s
   196   196 63452.0847   38  173 -2589308.0 2159289.41   183%  4357  466s
   211   207 -299839.03   40  160 -2589308.0 2159289.41   183%  4275  479s
   227   222 -461843.81   43  114 -2589308.0 2159289.41   183%  4196  494s
   257   238 -859470.65   46  115 -2589308.0 2159289.41   183%  3934  518s
H  275   248                    -2140167.894 2159289.41   201%  3705  518s
   294   263 -1880012.7   56   74 -2140167.9 2159289.41   201%  3596  537s
H  300   263                    -2140167.892 2159289.41   201%  3526  537s
   321   280 -1406772.5   71   66 -2140167.9 2054705.89   196%  3489  558s
   345   297 734914.044    4  158 -2140167.9 2054705.89   196%  3460  577s
   373   321 403015.087    6  129 -2140167.9 2054705.89   196%  3309  607s
   405   345 -687114.80    6  148 -2140167.9 2054705.89   196%  3252  622s
   450   372 174078.804    8   86 -2140167.9 2054705.89   196%  2995  642s
   478   389 -398703.52   14   67 -2140167.9 2054705.89   196%  2984  654s
   513   408 -1296201.5   30   49 -2140167.9 2045387.87   196%  2908  671s
   543   423 631988.524    7  121 -2140167.9 2045387.87   196%  2893  687s
   579   446 -961369.13    8   61 -2140167.9 1999124.34   193%  2851  714s
H  596   456                    -2128440.090 1999124.34   194%  2932  732s
   604   461 308991.133    9   69 -2128440.1 1925942.24   190%  3002  763s
   633   477 -692109.18   12  156 -2128440.1 1925942.24   190%  3054  779s
   651   492     cutoff   14      -2128440.1 1925942.24   190%  3090  797s
   708   533     cutoff   14      -2128440.1 1925942.24   190%  2990  827s
   765   555 -365066.77   14  112 -2128440.1 1925942.24   190%  2888  851s
   848   604     cutoff   17      -2128440.1 1799067.31   185%  2760  887s
   914   628 86704.3495   15  190 -2128440.1 1621828.57   176%  2729  919s
  1006   692 168350.364    8  126 -2128440.1 1584543.76   174%  2643  955s
H 1028   700                    -2128440.090 1584543.76   174%  2647  955s
  1053   712 267593.791   13  246 -2128440.1 1584543.76   174%  2646 1005s
H 1054   677                    -1761398.090 1584543.76   190%  2644 1039s
  1056   678 -1761398.1  102  215 -1761398.1 1584543.76   190%  2639 1048s
  1057   679 -1274916.5   13  210 -1761398.1 1584543.76   190%  2636 1051s
  1059   680 -1761398.1   95  220 -1761398.1 1584543.76   190%  2631 1066s
  1061   681 -1761398.1   60  220 -1761398.1 1584543.76   190%  2626 1090s
  1062   685 1584543.76   12  208 -1761398.1 1584543.76   190%  2714 1134s
  1064   688 1584543.76   13  210 -1761398.1 1584543.76   190%  2730 1170s
  1068   691 1584543.76   14  215 -1761398.1 1584543.76   190%  2747 1195s
  1072   694 1510589.22   14  182 -1761398.1 1584543.76   190%  2756 1235s
  1076   696 1584543.76   15  223 -1761398.1 1584543.76   190%  2775 1261s
  1080   698 1584543.76   15  195 -1761398.1 1584543.76   190%  2790 1279s
  1084   702 1584543.76   16  181 -1761398.1 1584543.76   190%  2821 1296s
  1089   702 1584543.76   16  209 -1761398.1 1584543.76   190%  2835 1321s
  1094   704 1584543.76   17  197 -1761398.1 1584543.76   190%  2856 1349s
  1101   708 1584543.76   18  195 -1761398.1 1584543.76   190%  2879 1366s
  1109   714 1584543.76   19  172 -1761398.1 1584543.76   190%  2908 1384s
  1116   716 1584543.76   19  171 -1761398.1 1584543.76   190%  2931 1402s
  1125   720 1584543.76   20  155 -1761398.1 1584543.76   190%  2935 1413s
  1130   725 245434.296   20  132 -1761398.1 1584543.76   190%  2956 1431s
  1141   733 1584543.76   21  180 -1761398.1 1584543.76   190%  2948 1442s
  1152   730 993224.489   21  153 -1761398.1 1584543.76   190%  2948 1451s
  1167   729 1468833.43   22  174 -1761398.1 1584543.76   190%  2930 1460s
  1186   737 943383.893   22  175 -1761398.1 1584543.76   190%  2899 1473s
  1203   733 1251675.32   23  149 -1761398.1 1584543.76   190%  2877 1482s
  1220   733 1172921.76   23  129 -1761398.1 1584543.76   190%  2859 1492s
  1232   731 898907.018   24  112 -1761398.1 1584543.76   190%  2857 1501s
  1252   733 918191.177   24  129 -1761398.1 1584543.76   190%  2831 1512s
  1274   731 798913.578   25  108 -1761398.1 1584543.76   190%  2797 1524s
  1284   737 -448485.32   26  102 -1761398.1 1584543.76   190%  2805 1536s
  1293   742 323667.066   29   81 -1761398.1 1584543.76   190%  2810 1554s
  1305   749 -54440.452   32   57 -1761398.1 1584543.76   190%  2834 1563s
  1319   743 41250.1395   36   82 -1761398.1 1584543.76   190%  2828 1573s
  1361   761     cutoff   42      -1761398.1 1584543.76   190%  2769 1583s
  1402   762 -520862.39   48   80 -1761398.1 1584543.76   190%  2711 1597s
  1456   764 -823667.06   57   94 -1761398.1 1584543.76   190%  2639 1607s
  1501   768     cutoff   67      -1761398.1 1584543.76   190%  2578 1626s
  1514   772 891808.726   19  173 -1761398.1 1584543.76   190%  2594 1638s
  1524   780 -562646.96   20  118 -1761398.1 1584543.76   190%  2596 1649s
  1542   781 -1201936.7   22  121 -1761398.1 1584543.76   190%  2589 1668s
  1579   797 -1562798.5   39  108 -1761398.1 1584543.76   190%  2550 1680s
  1625   788 867418.402   20  164 -1761398.1 1584543.76   190%  2508 1692s
  1671   810 400870.543   19  145 -1761398.1 1584543.76   190%  2456 1708s
  1686   809 -288037.72   21  134 -1761398.1 1584543.76   190%  2455 1724s
  1710   821 -375730.89   21  166 -1761398.1 1584543.76   190%  2452 1740s
  1716   824 -548453.73   22  113 -1761398.1 1584543.76   190%  2463 1760s
  1726   820 -1430805.9   24  145 -1761398.1 1584543.76   190%  2490 1773s
  1754   817 855338.740   20  154 -1761398.1 1584543.76   190%  2483 1801s
  1776   826 408160.263   22  164 -1761398.1 1584543.76   190%  2490 1820s
  1794   833 -434022.90   24  123 -1761398.1 1584543.76   190%  2497 1844s
  1825   848 -1710874.9   42   91 -1761398.1 1584543.76   190%  2500 1871s
  1837   846 445323.168   20   95 -1761398.1 1584543.76   190%  2514 1890s
  1897   870 -1455593.7   40  105 -1761398.1 1584543.76   190%  2470 1908s
  1929   891 -354023.29   22  133 -1761398.1 1584543.76   190%  2472 1924s
  1964   903 -916340.29   25   64 -1761398.1 1584543.76   190%  2461 1947s
  2025   935     cutoff   40      -1761398.1 1557476.16   188%  2419 1968s
  2098   953 -976498.72   26   57 -1761398.1 1527416.30   187%  2372 1991s
  2174   962 395167.976   22  133 -1761398.1 1508704.85   186%  2334 2014s
  2209   964 -167708.13   26   99 -1761398.1 1508704.85   186%  2333 2034s
  2270   991 -1662911.0   38  126 -1761398.1 1473833.18   184%  2309 2055s
  2349  1019 190655.675   20  118 -1761398.1 1428130.38   181%  2271 2094s
  2436  1038 -337572.70   18  123 -1761398.1 1419954.62   181%  2246 2123s
  2478  1052 -103446.12   19  134 -1761398.1 1419954.62   181%  2255 2147s
  2525  1059 -717680.14   37  115 -1761398.1 1419954.62   181%  2253 2174s
  2608  1072 -1028934.2   57   62 -1761398.1 1419954.62   181%  2227 2204s
  2644  1086 -1230178.1   84  125 -1761398.1 1383205.44   179%  2233 2228s
  2734  1096 -1622638.8   36   61 -1761398.1 1356817.70   177%  2206 2258s
  2817  1124 -535578.19   40  111 -1761398.1 1329762.85   175%  2185 2290s
  2880  1121 -1023413.4   39  107 -1761398.1 1327201.48   175%  2181 2328s
  2975  1138 -239463.80   25  160 -1761398.1 1259164.13   171%  2167 2376s
  3088  1161 560036.416   26  181 -1761398.1 1227569.00   170%  2150 2425s
H 3103  1163                    -1761398.090 1227569.00   170%  2157 2425s
  3162  1207 22930.4444   31  129 -1761398.1 1217841.17   169%  2151 2464s
  3227  1232 -319392.76   34  108 -1761398.1 1217841.17   169%  2158 2513s
  3369  1314 -1248799.4   60  102 -1761398.1 1106080.34   163%  2125 2566s
  3486  1382 544424.139   29  124 -1761398.1 1076384.16   161%  2107 2627s
  3656  1490 186299.346   21  151 -1761398.1 1016424.41   158%  2063 2691s
  3731  1525 -212463.22   32  155 -1761398.1 1016424.41   158%  2070 2744s
  3823  1568 -884249.64   56  124 -1761398.1 977741.619   156%  2067 2805s
  4005  1701 -542863.40   23  133 -1761398.1 943378.104   154%  2016 2866s
  4162  1809 -422904.36   32  111 -1761398.1 918058.309   152%  1980 2936s
  4431  1953 -743123.37   40  115 -1761398.1 881109.512   150%  1919 2999s
  4678  2088 -655017.51   20  101 -1761398.1 856553.348   149%  1869 3072s
  4861  2201 -782146.73   24  108 -1761398.1 831278.038   147%  1842 3141s
  5055  2325 -7682.8004   35  142 -1761398.1 775874.349   144%  1808 3216s
  5229  2405 -53288.831   32   66 -1761398.1 762839.245   143%  1777 3298s
  5446  2520 343736.607   24   81 -1761398.1 715808.738   141%  1758 3375s
  5692  2644 -803195.27   31   88 -1761398.1 670587.159   138%  1730 3464s
  5957  2763 294612.997   26  153 -1761398.1 642108.150   136%  1710 3574s
  6187  2894 -796040.31   54  156 -1761398.1 635230.728   136%  1694 3675s
  6319  2966 -840591.87   32   79 -1761398.1 626306.560   136%  1699 3774s
  6624  3128 573430.229   28  127 -1761398.1 584398.839   133%  1670 3871s
  6812  3220 283823.660   32  134 -1761398.1 573430.229   133%  1672 3979s
  7022  3310 -1594729.6   33   76 -1761398.1 555426.417   132%  1666 4085s
  7250  3404 -1194687.4   27   80 -1761398.1 554400.157   131%  1666 4202s
  7569  3545 -1673796.4   36   72 -1761398.1 517020.748   129%  1651 4315s
  7941  3689 -1154770.1   32   98 -1761398.1 491870.215   128%  1631 4442s
  8306  3845 -1214950.8   75   80 -1761398.1 459348.144   126%  1604 4581s
  8845  4068 -733029.82   43  114 -1761398.1 407850.491   123%  1564 4704s
  9145  4172 -1041217.5   23   94 -1761398.1 399308.468   123%  1544 4844s
  9791  4418 -566452.33   24   99 -1761398.1 350234.739   120%  1494 4979s
 10285  4535 -525023.77   24   77 -1761398.1 303572.696   117%  1464 5138s
 10891  4731 -1569856.6   16   62 -1761398.1 254750.746   114%  1436 5288s
 11440  4917 -262176.62   30  149 -1761398.1 221578.592   113%  1416 5448s
 11846  4999 -1081154.3   24  103 -1761398.1 200164.212   111%  1416 5595s
 12467  5213 -1605296.2   20   75 -1761398.1 174389.597   110%  1391 5750s
 12994  5349     cutoff   31      -1761398.1 133134.780   108%  1375 5910s
 13563  5572 -563486.49   31   76 -1761398.1 106758.483   106%  1358 6052s
 14231  5777 -318424.52   41  121 -1761398.1 65318.6176   104%  1334 6195s
 14778  5959 -452963.77   46  134 -1761398.1 50928.4073   103%  1323 6340s
 15318  6073     cutoff   27      -1761398.1 16723.8581   101%  1314 6473s
 16089  6286 -950286.21   35   85 -1761398.1 -7697.8873   100%  1286 6601s
 16655  6467 -1051959.0   19   84 -1761398.1 -37698.036  97.9%  1274 6711s
H16657  6467                    -1761398.089 -37698.036  97.9%  1274 6711s
 16769  6439 -1592979.6   40   75 -1761398.1 -41593.903  97.6%  1271 6854s
 17572  6686     cutoff   35      -1761398.1 -71587.087  95.9%  1244 6981s
H17957  6760                    -1761398.084 -94938.385  94.6%  1238 6981s
 17958  6762     cutoff   27      -1761398.1 -96333.310  94.5%  1240 7110s
 18413  6828     cutoff   28      -1761398.1 -100310.51  94.3%  1235 7240s
 18951  6922 -1062209.5   38   38 -1761398.1 -122776.89  93.0%  1225 7363s
 19569  7067     cutoff   24      -1761398.1 -136283.60  92.3%  1214 7474s
 19958  7103 -624654.20   26   91 -1761398.1 -158033.28  91.0%  1212 7594s
 20456  7203 -1275316.2   37   95 -1761398.1 -175140.79  90.1%  1206 7728s
 21092  7361 -589462.51   33  116 -1761398.1 -196597.72  88.8%  1194 9712s
 21500  7442     cutoff   49      -1761398.1 -202246.68  88.5%  1194 9802s
 21814  7489 -1665206.0   39  114 -1761398.1 -222629.01  87.4%  1197 9889s
 22293  7584 -1182501.7   55   94 -1761398.1 -238837.93  86.4%  1193 9975s
 22743  7689 -912281.14   35   92 -1761398.1 -254551.00  85.5%  1190 10057s
 23061  7748     cutoff   24      -1761398.1 -265110.63  84.9%  1193 10131s
 23468  7861 -1502529.1   33  130 -1761398.1 -277762.62  84.2%  1192 10210s
 23852  8021 -777179.88   42  143 -1761398.1 -285335.18  83.8%  1191 10293s
 24191  8142 -1487338.8   33  111 -1761398.1 -291848.04  83.4%  1191 10377s
 24645  8268 -744950.63   28  105 -1761398.1 -311418.03  82.3%  1188 10457s
 25087  8363 -1246734.5   52  125 -1761398.1 -325901.50  81.5%  1185 10535s
 25420  8463 -748585.27   32  118 -1761398.1 -340981.58  80.6%  1189 10612s
 25796  8565 -1420704.7   42  137 -1761398.1 -346350.51  80.3%  1188 10698s
 26160  8602 -809757.85   36   87 -1761398.1 -359458.95  79.6%  1190 10785s
 26649  8715 -1360262.2   40   78 -1761398.1 -371763.15  78.9%  1187 10865s
 27134  8791 -1578314.2   33   94 -1761398.1 -389459.53  77.9%  1182 10945s
 27634  8943 -733307.43   39  218 -1761398.1 -406349.17  76.9%  1179 11018s
 28052  9032 -1171404.2   66  174 -1761398.1 -416786.96  76.3%  1178 11111s
 28470  9179 -1391267.7   58  138 -1761398.1 -433369.88  75.4%  1176 11266s
 28837  9256 -1720193.2   55   63 -1761398.1 -438434.62  75.1%  1173 11353s
 29311  9403     cutoff   36      -1761398.1 -448832.52  74.5%  1171 11433s
 29716  9460 -1034741.2   46  117 -1761398.1 -454075.74  74.2%  1171 11523s
 30131  9544 -766248.87   34  121 -1761398.1 -471651.57  73.2%  1171 11595s
 30526  9615 -942758.12   31  159 -1761398.1 -482390.63  72.6%  1172 11675s
 30900  9662     cutoff   83      -1761398.1 -489674.50  72.2%  1174 11765s
 31310  9750 -1484726.2   29   94 -1761398.1 -503314.47  71.4%  1174 11856s
 31712  9812 -1384953.7   27  126 -1761398.1 -517081.21  70.6%  1175 11932s
 32066  9838 -1515918.5   44  103 -1761398.1 -525640.14  70.2%  1177 12007s
 32443  9921 -1178506.7   35  143 -1761398.1 -539156.04  69.4%  1179 12109s
 32563  9886     cutoff   40      -1761398.1 -540808.92  69.3%  1178 12192s
 32994  9941     cutoff   26      -1761398.1 -553971.52  68.5%  1178 12275s
 33386 10005 -1702928.2   34   60 -1761398.1 -560437.25  68.2%  1178 12358s
 33754 10053 -1342975.4   22  113 -1761398.1 -569461.59  67.7%  1181 12433s
 34248 10128 -975629.94   33   73 -1761398.1 -589656.01  66.5%  1179 12507s
 34574 10161 -1151869.9   29   66 -1761398.1 -592625.73  66.4%  1182 12617s
 34949 10218     cutoff   36      -1761398.1 -603286.88  65.7%  1183 12698s
 35360 10234 -1611474.8   47  114 -1761398.1 -612177.56  65.2%  1183 12782s
 35863 10309 -1494318.8   22  138 -1761398.1 -620727.17  64.8%  1181 12862s
 36329 10373 -825866.69   34  106 -1761398.1 -633291.94  64.0%  1179 12938s
 36821 10474 -1425202.6   31   89 -1761398.1 -643383.23  63.5%  1177 13011s
 37200 10547 -1734806.0   39  108 -1761398.1 -648717.52  63.2%  1178 13085s
 37647 10570 -1710493.3   40   98 -1761398.1 -663473.29  62.3%  1177 13168s
 38038 10575     cutoff   38      -1761398.1 -678327.77  61.5%  1177 13254s
 38496 10645 -1152649.0   36  135 -1761398.1 -689972.48  60.8%  1176 13373s
 38891 10655 -1132505.1   44  122 -1761398.1 -700936.01  60.2%  1176 13469s
 39437 10741 -953103.85   41  111 -1761398.1 -714294.53  59.4%  1173 13550s
 39848 10790 -1411196.1   34  105 -1761398.1 -720653.82  59.1%  1173 13620s
 40341 10861     cutoff   42      -1761398.1 -732685.18  58.4%  1170 13728s
 40746 10915 -735584.28   41  210 -1761398.1 -735584.28  58.2%  1170 13809s
 41293 11077 -860601.70   42  181 -1761398.1 -748402.31  57.5%  1166 13938s
H41295 11077                    -1761398.047 -748402.31  57.5%  1166 13938s
 41423 11031 -1162203.9   45  170 -1761398.0 -749142.00  57.5%  1165 14009s
 41930 11081 -1230505.1   59  165 -1761398.0 -761173.52  56.8%  1162 14087s
 42378 11136 -1013999.8   31   81 -1761398.0 -768668.35  56.4%  1159 14159s
 42807 11184 -897106.08   34   56 -1761398.0 -777062.08  55.9%  1158 14230s
 43255 11240 -1354340.6   28   72 -1761398.0 -786855.63  55.3%  1156 14304s
 43641 11259 -1153291.9   50   41 -1761398.0 -792855.01  55.0%  1156 14402s
 44162 11314 -1233368.3   45  118 -1761398.0 -804136.50  54.3%  1152 14473s
 44560 11317     cutoff   40      -1761398.0 -811321.59  53.9%  1152 14542s
 45000 11334     cutoff   35      -1761398.0 -822516.44  53.3%  1150 14608s
 45439 11400     cutoff   24      -1761398.0 -828984.51  52.9%  1147 14676s
 45821 11437 -1036670.4   33  133 -1761398.0 -838036.21  52.4%  1147 14743s
 46326 11505     cutoff   56      -1761398.0 -845409.62  52.0%  1144 14810s
 46809 11552 -1095119.8   47  118 -1761398.0 -851523.69  51.7%  1142 14886s
 47307 11630     cutoff   32      -1761398.0 -861329.33  51.1%  1138 14958s
 47613 11650 -1446144.0   42  134 -1761398.0 -864021.47  50.9%  1139 15021s
 48108 11694 -1118334.4   39   62 -1761398.0 -873251.19  50.4%  1136 15079s
 48514 11732 -1310185.5   29  115 -1761398.0 -885539.46  49.7%  1134 15144s
 49053 11802 -1514697.0   50   60 -1761398.0 -893622.54  49.3%  1131 15204s
 49486 11844 -1537762.2   29  103 -1761398.0 -901470.61  48.8%  1130 15272s
 49915 11894 -934924.33   44   82 -1761398.0 -906757.99  48.5%  1127 15332s
 50400 11911 -1544771.5   27  122 -1761398.0 -916976.07  47.9%  1125 15390s
 50934 11985 -1182531.5   36   65 -1761398.0 -927398.87  47.3%  1121 15447s
 51501 12081     cutoff   49      -1761398.0 -933337.26  47.0%  1117 15506s
 51957 12131     cutoff   25      -1761398.0 -939532.03  46.7%  1115 15564s
 52373 12132 -1387880.2   64  136 -1761398.0 -945586.71  46.3%  1114 15660s
 52822 12149 -1319317.0   28   46 -1761398.0 -952518.92  45.9%  1111 15715s
 53273 12176 -1221637.1   42  103 -1761398.0 -959627.64  45.5%  1110 15771s
 53653 12181     cutoff   40      -1761398.0 -963654.40  45.3%  1109 15826s
 54051 12178 -1313508.5   28  139 -1761398.0 -972310.83  44.8%  1108 15885s
 54542 12206 -1437718.1   39   74 -1761398.0 -979121.69  44.4%  1106 15940s
 54960 12248     cutoff   39      -1761398.0 -986486.90  44.0%  1104 16000s
 55407 12282     cutoff   36      -1761398.0 -991810.90  43.7%  1102 16066s
 55991 12378 -1211601.3   58   90 -1761398.0 -996331.59  43.4%  1098 16119s
 56500 12406 -1395971.9   54  177 -1761398.0 -1000766.6  43.2%  1094 16174s
 56871 12420     cutoff   28      -1761398.0 -1011483.9  42.6%  1093 16220s
 57290 12400     cutoff   55      -1761398.0 -1017707.6  42.2%  1090 16269s
 57793 12455 -1040126.6   41  120 -1761398.0 -1023079.0  41.9%  1086 16323s
 58186 12460 -1649974.0   51  115 -1761398.0 -1029208.1  41.6%  1085 16374s
 58676 12490     cutoff   41      -1761398.0 -1034792.0  41.3%  1083 16424s
 59088 12479 -1526020.0   26  133 -1761398.0 -1039294.9  41.0%  1081 16475s
 59448 12460     cutoff   40      -1761398.0 -1045377.1  40.7%  1079 16531s
 59844 12438 -1558024.0   32   70 -1761398.0 -1050216.3  40.4%  1078 16579s
 60284 12469 -1229480.4   19  115 -1761398.0 -1056949.8  40.0%  1075 16630s
 60703 12432 -1346357.9   54   85 -1761398.0 -1061873.1  39.7%  1073 16674s
 61161 12417     cutoff   34      -1761398.0 -1067970.4  39.4%  1070 16719s
 61576 12411 -1074470.5   47  126 -1761398.0 -1073545.4  39.1%  1068 16769s
 62013 12439 -1298976.3   48   88 -1761398.0 -1078613.6  38.8%  1066 16817s
 62337 12427     cutoff   31      -1761398.0 -1083532.9  38.5%  1065 16866s
 62704 12407     cutoff   57      -1761398.0 -1089006.6  38.2%  1062 16909s
 63158 12382     cutoff   42      -1761398.0 -1095017.4  37.8%  1060 16954s
 63535 12360 -1381046.2   55  112 -1761398.0 -1099956.5  37.6%  1057 17003s
 63864 12355 -1609246.6   29   87 -1761398.0 -1105266.6  37.3%  1056 17048s
 64194 12331 -1644303.3   41   88 -1761398.0 -1110113.3  37.0%  1055 17119s
 64560 12299     cutoff   55      -1761398.0 -1115888.0  36.6%  1054 17165s
 64871 12255 -1488159.3   56   40 -1761398.0 -1120111.8  36.4%  1053 17199s
 65185 12206     cutoff   36      -1761398.0 -1125378.9  36.1%  1051 17242s
 65538 12174 -1519626.0   41   22 -1761398.0 -1130438.5  35.8%  1049 17287s
 65871 12146     cutoff   30      -1761398.0 -1134967.7  35.6%  1048 17331s
 66298 12143     cutoff   47      -1761398.0 -1140319.0  35.3%  1046 17377s
 66598 12089 -1509988.9   38   73 -1761398.0 -1144852.9  35.0%  1046 17421s
 66970 12071 -1152925.5   23   99 -1761398.0 -1149592.0  34.7%  1045 17466s
 67314 12049 -1621612.8   40   98 -1761398.0 -1154199.7  34.5%  1044 17513s
 67652 11994 -1173653.3   42  110 -1761398.0 -1158642.9  34.2%  1043 17561s
 67941 11953     cutoff   29      -1761398.0 -1164429.1  33.9%  1042 17607s
 68338 11920 -1275012.4   40  170 -1761398.0 -1170291.0  33.6%  1041 17663s
 68676 11875     cutoff   48      -1761398.0 -1174402.9  33.3%  1039 17702s
 69011 11812 -1699903.3   26  105 -1761398.0 -1179300.4  33.0%  1038 17738s
 69361 11777 -1530212.3   35   74 -1761398.0 -1183336.5  32.8%  1036 17773s
 69725 11748     cutoff   40      -1761398.0 -1186473.2  32.6%  1034 17918s
 69988 11687 -1691679.3   78   81 -1761398.0 -1189689.4  32.5%  1033 17948s
 70300 11641 -1477167.3   50  122 -1761398.0 -1194361.7  32.2%  1031 17985s
 70608 11592     cutoff   54      -1761398.0 -1199204.7  31.9%  1030 18021s
 70894 11546     cutoff   38      -1761398.0 -1203514.7  31.7%  1029 18053s
 71125 11477 -1361486.4   55   58 -1761398.0 -1207319.8  31.5%  1028 18089s
 71383 11421 -1460293.4   32   57 -1761398.0 -1211708.3  31.2%  1028 18121s
 71617 11359     cutoff   33      -1761398.0 -1215771.7  31.0%  1027 18152s
 72009 11346     cutoff   37      -1761398.0 -1219893.5  30.7%  1024 18193s
 72304 11289     cutoff   40      -1761398.0 -1223467.0  30.5%  1024 18229s
 72593 11242 -1606181.1   45   25 -1761398.0 -1227011.4  30.3%  1023 18265s
 72828 11183 -1368207.4   24  105 -1761398.0 -1231815.7  30.1%  1022 18294s
 73103 11123 -1555040.5   41   85 -1761398.0 -1235641.2  29.8%  1021 18333s
 73410 11072 -1427588.0   42   73 -1761398.0 -1239604.6  29.6%  1020 18367s
 73709 11025     cutoff   26      -1761398.0 -1241494.1  29.5%  1019 18398s
 73967 10970     cutoff   39      -1761398.0 -1246868.4  29.2%  1018 18431s
 74260 10914 -1650810.8   75  105 -1761398.0 -1250626.7  29.0%  1017 18473s
 74553 10881     cutoff   37      -1761398.0 -1254640.5  28.8%  1016 18505s
 74808 10823 -1757916.8   36   53 -1761398.0 -1258085.8  28.6%  1015 18547s
 75163 10803     cutoff   51      -1761398.0 -1261725.3  28.4%  1013 18568s
 75381 10736     cutoff   47      -1761398.0 -1265573.5  28.1%  1012 18598s
 75661 10694 -1611276.1   42   72 -1761398.0 -1269221.3  27.9%  1011 18621s
 75895 10637     cutoff   36      -1761398.0 -1272642.1  27.7%  1010 18645s
 76096 10571 -1384570.7   29   94 -1761398.0 -1276114.7  27.6%  1009 18670s
 76384 10528 -1341097.6   38  150 -1761398.0 -1280111.2  27.3%  1008 18702s
 76667 10503     cutoff   33      -1761398.0 -1283574.7  27.1%  1006 18729s
 76906 10446     cutoff   23      -1761398.0 -1288123.3  26.9%  1005 18769s
 77196 10395     cutoff   24      -1761398.0 -1292609.6  26.6%  1003 18795s
 77426 10334     cutoff   58      -1761398.0 -1296924.4  26.4%  1002 18818s
 77630 10263 -1732316.8   43   64 -1761398.0 -1300397.5  26.2%  1001 18846s
 77910 10204     cutoff   52      -1761398.0 -1304121.5  26.0%  1000 18873s
 78136 10150     cutoff   43      -1761398.0 -1307747.4  25.8%   999 18903s
 78379 10083     cutoff   52      -1761398.0 -1310651.1  25.6%   997 18928s
 78609 10013     cutoff   51      -1761398.0 -1313825.6  25.4%   996 18954s
 78834  9955 -1713269.7   55   34 -1761398.0 -1317143.0  25.2%   995 18981s
 79119  9913     cutoff   48      -1761398.0 -1320868.2  25.0%   994 19009s
 79328  9838 -1488158.3   49   65 -1761398.0 -1324407.1  24.8%   993 19030s
 79590  9785 -1555459.9   33   74 -1761398.0 -1327357.7  24.6%   991 19050s
 79829  9730     cutoff   38      -1761398.0 -1330388.4  24.5%   990 19073s
 79986  9646     cutoff   70      -1761398.0 -1333610.2  24.3%   989 19093s
 80199  9579 -1620376.1   45   70 -1761398.0 -1336456.6  24.1%   988 19116s
 80398  9503 -1630909.1   26  148 -1761398.0 -1339573.2  23.9%   988 19145s
 80655  9461     cutoff   40      -1761398.0 -1342867.6  23.8%   986 19171s
 80854  9388     cutoff   55      -1761398.0 -1346054.2  23.6%   986 19187s
 81028  9312     cutoff   60      -1761398.0 -1349181.2  23.4%   985 19210s
 81286  9253     cutoff   35      -1761398.0 -1352899.5  23.2%   984 19230s
 81535  9189     cutoff   41      -1761398.0 -1356253.7  23.0%   983 19254s
 81814  9162 -1560699.7   38   53 -1761398.0 -1359593.7  22.8%   981 19278s
 82050  9084     cutoff   61      -1761398.0 -1362531.6  22.6%   980 19293s
 82255  9014     cutoff   63      -1761398.0 -1365322.8  22.5%   979 19306s
 82442  8939     cutoff   66      -1761398.0 -1368643.2  22.3%   978 19327s
 82644  8871     cutoff   38      -1761398.0 -1372297.7  22.1%   977 19347s
 82813  8795 -1395142.4   36   92 -1761398.0 -1375769.5  21.9%   976 19366s
 83009  8726 infeasible   60      -1761398.0 -1378895.5  21.7%   976 19384s
 83220  8650     cutoff   53      -1761398.0 -1382095.4  21.5%   974 19404s
 83442  8591     cutoff   31      -1761398.0 -1384490.4  21.4%   973 19422s
 83701  8545 -1609695.2   47   58 -1761398.0 -1387448.5  21.2%   972 19436s
 83900  8481     cutoff   94      -1761398.0 -1390882.6  21.0%   970 19455s
 84094  8414 -1599600.3   25  112 -1761398.0 -1393825.5  20.9%   970 19467s
 84309  8350     cutoff   36      -1761398.0 -1396246.5  20.7%   968 19484s
 84514  8290     cutoff   61      -1761398.0 -1399347.8  20.6%   967 19495s
 84700  8213     cutoff   55      -1761398.0 -1402185.9  20.4%   966 19515s
 84873  8147 -1651994.5   51   41 -1761398.0 -1405361.3  20.2%   965 19541s
 85146  8102     cutoff   29      -1761398.0 -1408182.6  20.1%   963 19562s
 85366  8032     cutoff   47      -1761398.0 -1411099.8  19.9%   962 19579s
 85596  7967     cutoff   49      -1761398.0 -1414133.8  19.7%   961 19600s
 85771  7904     cutoff   31      -1761398.0 -1416938.4  19.6%   960 19617s
 85968  7839 -1697639.1   43  167 -1761398.0 -1419923.3  19.4%   959 19634s
 86170  7770     cutoff   39      -1761398.0 -1422460.2  19.2%   958 19645s
 86344  7691 -1595359.2   39   96 -1761398.0 -1425127.1  19.1%   957 19659s
 86523  7609     cutoff   42      -1761398.0 -1428076.0  18.9%   956 19671s
 86714  7547     cutoff   47      -1761398.0 -1430919.1  18.8%   955 19686s
 86885  7469     cutoff   82      -1761398.0 -1433943.2  18.6%   954 19697s
 87090  7409 -1661870.2   33  113 -1761398.0 -1436253.0  18.5%   953 19712s
 87269  7337     cutoff   41      -1761398.0 -1438664.3  18.3%   952 19721s
 87482  7276     cutoff   34      -1761398.0 -1441530.3  18.2%   950 19728s
 87625  7200     cutoff   50      -1761398.0 -1444472.9  18.0%   949 19741s
 87841  7138     cutoff   31      -1761398.0 -1447150.6  17.8%   948 19757s
 88020  7062     cutoff   67      -1761398.0 -1449971.1  17.7%   947 19772s
 88196  6984     cutoff   44      -1761398.0 -1452970.9  17.5%   946 19794s
 88400  6919 -1587384.6   35   69 -1761398.0 -1455755.9  17.4%   945 19804s
 88583  6857     cutoff   52      -1761398.0 -1458191.5  17.2%   943 19815s
 88806  6801     cutoff   40      -1761398.0 -1460592.5  17.1%   942 19827s
 88988  6726     cutoff   53      -1761398.0 -1463441.7  16.9%   941 19843s
 89155  6646     cutoff   39      -1761398.0 -1465874.9  16.8%   940 19849s
 89290  6567     cutoff   40      -1761398.0 -1468618.5  16.6%   939 19867s
 89470  6499     cutoff   64      -1761398.0 -1471307.5  16.5%   938 19874s
 89633  6420 -1652986.5   25   24 -1761398.0 -1473964.6  16.3%   937 19881s
 89827  6344     cutoff   38      -1761398.0 -1476792.1  16.2%   935 19893s
 90039  6278     cutoff   44      -1761398.0 -1479950.3  16.0%   934 19905s
 90188  6199     cutoff   45      -1761398.0 -1482693.6  15.8%   933 19911s
 90312  6116     cutoff   41      -1761398.0 -1484804.6  15.7%   932 19921s
 90483  6038 -1539518.0   34   40 -1761398.0 -1487516.5  15.5%   931 19932s
 90664  5959     cutoff   67      -1761398.0 -1490015.1  15.4%   930 19938s
 90795  5878     cutoff   42      -1761398.0 -1492603.2  15.3%   929 19950s
 90932  5798     cutoff   46      -1761398.0 -1494804.4  15.1%   929 19958s
 91050  5719     cutoff   32      -1761398.0 -1497437.9  15.0%   928 19971s
 91209  5640     cutoff   43      -1761398.0 -1500017.6  14.8%   927 19983s
 91359  5562     cutoff   65      -1761398.0 -1502279.7  14.7%   926 19995s
 91509  5484     cutoff   42      -1761398.0 -1504815.5  14.6%   926 20003s
 91650  5407     cutoff  115      -1761398.0 -1506980.3  14.4%   925 20013s
 91824  5328     cutoff   60      -1761398.0 -1509711.5  14.3%   924 20024s
 91956  5248     cutoff   53      -1761398.0 -1512177.3  14.1%   923 20030s
 92082  5166     cutoff   36      -1761398.0 -1514627.8  14.0%   922 20041s
 92238  5090     cutoff   36      -1761398.0 -1516866.1  13.9%   921 20051s
 92375  5009     cutoff   44      -1761398.0 -1519497.5  13.7%   921 20058s
 92504  4930     cutoff   67      -1761398.0 -1522054.4  13.6%   920 20066s
 92630  4853 -1580307.9   35   96 -1761398.0 -1524997.7  13.4%   919 20073s
 92788  4772     cutoff   38      -1761398.0 -1527403.0  13.3%   918 20082s
 92921  4697     cutoff   51      -1761398.0 -1530212.0  13.1%   917 20089s
 93053  4614     cutoff   59      -1761398.0 -1532814.5  13.0%   916 20094s
 93191  4533     cutoff   41      -1761398.0 -1535022.6  12.9%   915 20099s
 93324  4458     cutoff   31      -1761398.0 -1537578.1  12.7%   914 20105s
 93460  4382     cutoff   45      -1761398.0 -1540115.3  12.6%   913 20112s
 93576  4299     cutoff   35      -1761398.0 -1542511.1  12.4%   913 20119s
 93691  4215     cutoff   46      -1761398.0 -1545495.4  12.3%   912 20123s
 93828  4141     cutoff   54      -1761398.0 -1548345.5  12.1%   911 20130s
 93949  4057     cutoff   48      -1761398.0 -1550740.2  12.0%   910 20136s
 94077  3977     cutoff   68      -1761398.0 -1553331.6  11.8%   909 20142s
 94210  3898 -1632684.7   37   47 -1761398.0 -1555754.9  11.7%   908 20146s
 94368  3830     cutoff   63      -1761398.0 -1558310.9  11.5%   907 20150s
 94490  3748     cutoff   84      -1761398.0 -1560915.6  11.4%   906 20155s
 94625  3671     cutoff   58      -1761398.0 -1563619.3  11.2%   905 20160s
 94768  3595     cutoff   47      -1761398.0 -1566730.2  11.1%   904 20165s
 94880  3515 -1682923.6   28   93 -1761398.0 -1569683.1  10.9%   904 20171s
 95018  3433     cutoff   49      -1761398.0 -1571889.9  10.8%   903 20183s
 95152  3353     cutoff   62      -1761398.0 -1574271.7  10.6%   902 20187s
 95270  3275     cutoff   29      -1761398.0 -1576704.0  10.5%   901 20191s
 95399  3194     cutoff   38      -1761398.0 -1579175.3  10.3%   900 20195s
 95507  3111     cutoff   52      -1761398.0 -1582165.6  10.2%   899 20201s
 95628  3028     cutoff   39      -1761398.0 -1584788.8  10.0%   898 20205s
 95734  2944     cutoff   43      -1761398.0 -1587240.7  9.89%   898 20210s
 95984  2779     cutoff   42      -1761398.0 -1592416.2  9.59%   896 20218s
 96104  2698     cutoff   31      -1761398.0 -1595259.9  9.43%   895 20220s
 96334  2536     cutoff   52      -1761398.0 -1600482.3  9.14%   893 20227s
 96447  2453     cutoff   54      -1761398.0 -1603507.2  8.96%   893 20231s
 96566  2369     cutoff   66      -1761398.0 -1607108.6  8.76%   892 20235s
 96904  2124 -1674141.2   52   58 -1761398.0 -1615620.0  8.28%   889 20242s
 97039  2041     cutoff   35      -1761398.0 -1618632.9  8.11%   888 20248s
 97151  1961     cutoff   43      -1761398.0 -1621524.2  7.94%   887 20252s
 97359  1796     cutoff   26      -1761398.0 -1627362.1  7.61%   886 20259s
 97518  1716     cutoff   67      -1761398.0 -1631226.6  7.39%   885 20262s
 97737  1549     cutoff   52      -1761398.0 -1638013.0  7.00%   883 20267s
 97948  1385     cutoff   58      -1761398.0 -1645074.9  6.60%   881 20273s
 98049  1303     cutoff   29      -1761398.0 -1647745.8  6.45%   880 20275s
 98346  1051     cutoff   43      -1761398.0 -1658966.3  5.82%   878 20282s
 98558   883     cutoff   55      -1761398.0 -1667395.5  5.34%   877 20287s
 98752   717     cutoff   35      -1761398.0 -1677452.9  4.77%   875 20290s
 99054   465     cutoff   35      -1761398.0 -1693950.3  3.83%   873 20297s
 99254   297     cutoff   68      -1761398.0 -1707384.7  3.07%   871 20300s

Cutting planes:
  Gomory: 36
  Implied bound: 11
  Projected implied bound: 5
  MIR: 85
  Flow cover: 391

Explored 99675 nodes (86588147 simplex iterations) in 20306.72 seconds
Thread count was 4 (of 16 available processors)

Solution count 10: -1.7614e+06 -1.7614e+06 -1.7614e+06 ... -2.58931e+06

Optimal solution found (tolerance 1.00e-04)
Best objective -1.761398090000e+06, best bound -1.761398046927e+06, gap 0.0000%

***
***  |- Calculation finished, took 20,306.74 (20306.74) sec.
***  |-----------------------------------------------------------------------------------------------------------------------
***
*****************************************************************************************************************************
#############################################################################################################################
###
### Results
###
### The objective of the solution is -1,761,398.09 (-1761398.09) and is feasible with a Gap of 0.0
###
### Service 42 (SAMBA) is operated by 7 vessels from type 18 (PMax25)
###  |- Vessel 1 has the path [143, 77, 78, 5, 0]
###  |  143 (USMSY Out@238.0) - 77 (ESALG In@607.0/Out@631.0) - 78 (ESALG In@613.0/Out@658.0) - 5 (ARBUE In@1088.0/Out@1112.0
###  |  ) - 0 (DUMMY_END Ziel-Service 42)
###  |   |- and carried Demand  98, 392.0 containers from  78 to   5
###  |   |- and carried Demand  99,  13.0 containers from  78 to   5
###  |   |- and carried Demand 490, 392.0 containers from  77 to   5
###  |   |- and carried Demand 491,  13.0 containers from  77 to   5
###  |   |- and carried Demand 494,  59.0 containers from  77 to   5
###  |   |- and carried Demand 495,   6.0 containers from  77 to   5
###  |   |- and carried Demand 496, 126.0 containers from  77 to   5
###  |- Vessel 2 has the path [144, 79, 80, 81, 82, 83, 85, 86, 87, 88, 94, 55, 51, 11, 12, 0]
###  |  144 (USMSY Out@406.0) - 79 (ESALG In@775.0/Out@799.0) - 80 (ESALG In@829.0/Out@853.0) - 81 (ESALG In@943.0/Out@967.0)
###  |   - 82 (ESALG In@1045.0/Out@1075.0) - 83 (ESALG In@1111.0/Out@1135.0) - 85 (ESALG In@1213.0/Out@1243.0) - 86 (ESALG In
###  |  @1279.0/Out@1303.0) - 87 (ESALG In@1381.0/Out@1411.0) - 88 (ESALG In@1447.0/Out@1471.0) - 94 (ESLPA In@1521.0/Out@154
###  |  5.0) - 55 (BRSUA In@1691.0/Out@1715.0) - 51 (BRSSZ In@1788.0/Out@1808.0) - 11 (ARBUE In@1862.0/Out@1905.0) - 12 (ARBU
###  |  E In@1928.0/Out@1952.0) - 0 (DUMMY_END Ziel-Service 42)
###  |   |- and carried Demand   7, 200.0 containers from  82 to  12
###  |   |- and carried Demand  20,  57.0 containers from  85 to  11
###  |   |- and carried Demand  24,  16.0 containers from  85 to  11
###  |   |- and carried Demand  26,  47.0 containers from  87 to  51
###  |   |- and carried Demand  29,   8.0 containers from  87 to  11
###  |   |- and carried Demand  30, 224.0 containers from  87 to  11
###  |   |- and carried Demand  31,  58.0 containers from  87 to  12
###  |   |- and carried Demand  32,   5.0 containers from  87 to  12
###  |   |- and carried Demand  33, 159.0 containers from  87 to  11
###  |   |- and carried Demand  71,  12.0 containers from  51 to  11
###  |   |- and carried Demand 156, 239.0 containers from  80 to  11
###  |   |- and carried Demand 157,   8.0 containers from  80 to  11
###  |   |- and carried Demand 161,  19.0 containers from  80 to  11
###  |   |- and carried Demand 176,   8.0 containers from  88 to  11
###  |   |- and carried Demand 177, 224.0 containers from  88 to  11
###  |   |- and carried Demand 178,  58.0 containers from  88 to  12
###  |   |- and carried Demand 179,   5.0 containers from  88 to  12
###  |   |- and carried Demand 180, 159.0 containers from  88 to  11
###  |   |- and carried Demand 249,  57.0 containers from  86 to  11
###  |   |- and carried Demand 253,  16.0 containers from  86 to  11
###  |   |- and carried Demand 322, 200.0 containers from  83 to  12
###  |   |- and carried Demand 382, 239.0 containers from  81 to  11
###  |   |- and carried Demand 383,   8.0 containers from  81 to  11
###  |   |- and carried Demand 387,  19.0 containers from  81 to  11
###  |   |- and carried Demand 441, 488.0 containers from  79 to  12
###  |   |- and carried Demand 442,   5.0 containers from  79 to  12
###  |- Vessel 3 has the path [145, 4, 0]
###  |  145 (USMSY Out@574.0) - 4 (ARBUE In@920.0/Out@944.0) - 0 (DUMMY_END Ziel-Service 42)
###  |- Vessel 4 has the path [146, 6, 0]
###  |  146 (USMSY Out@742.0) - 6 (ARBUE In@1256.0/Out@1280.0) - 0 (DUMMY_END Ziel-Service 42)
###  |- Vessel 5 has the path [147, 8, 0]
###  |  147 (USMSY Out@910.0) - 8 (ARBUE In@1424.0/Out@1448.0) - 0 (DUMMY_END Ziel-Service 42)
###  |- Vessel 6 has the path [148, 9, 0]
###  |  148 (USMSY Out@1078.0) - 9 (ARBUE In@1592.0/Out@1616.0) - 0 (DUMMY_END Ziel-Service 42)
###  |- Vessel 7 has the path [149, 10, 0]
###  |  149 (USMSY Out@1246.0) - 10 (ARBUE In@1760.0/Out@1784.0) - 0 (DUMMY_END Ziel-Service 42)
###  |
### Vessels not used in the solution: []
###  |-----------------------------------------------------------------------------------------------------------------------
###
#############################################################################################################################

### Detialed variable overview

### All variables with value greater zero:
rho[42,18] = 1
eta[42,18,1] = 1
eta[42,18,2] = 1
eta[42,18,3] = 1
eta[42,18,4] = 1
eta[42,18,5] = 1
eta[42,18,6] = 1
eta[42,18,7] = 1
y[1,77,78] = 1
y[1,5,0] = 1
y[1,143,77] = 1
y[1,78,5] = 1
y[2,94,55] = 1
y[2,85,86] = 1
y[2,80,81] = 1
y[2,144,79] = 1
y[2,11,12] = 1
y[2,86,87] = 1
y[2,51,11] = 1
y[2,12,0] = 1
y[2,83,85] = 1
y[2,81,82] = 1
y[2,79,80] = 1
y[2,87,88] = 1
y[2,55,51] = 1
y[2,82,83] = 1
y[2,88,94] = 1
y[3,145,4] = 1
y[3,4,0] = 1
y[4,6,0] = 1
y[4,146,6] = 1
y[5,8,0] = 1
y[5,147,8] = 1
y[6,9,0] = 1
y[6,148,9] = 1
y[7,149,10] = 1
y[7,10,0] = 1
xD[7,94,55] = 200
xD[7,85,86] = 200
xD[7,11,12] = 200
xD[7,86,87] = 200
xD[7,51,11] = 200
xD[7,83,85] = 200
xD[7,87,88] = 200
xD[7,55,51] = 200
xD[7,82,83] = 200
xD[7,88,94] = 200
xD[20,94,55] = 57
xD[20,85,86] = 57
xD[20,86,87] = 57
xD[20,51,11] = 57
xD[20,87,88] = 57
xD[20,55,51] = 57
xD[20,88,94] = 57
xD[24,94,55] = 16
xD[24,85,86] = 16
xD[24,86,87] = 16
xD[24,51,11] = 16
xD[24,87,88] = 16
xD[24,55,51] = 16
xD[24,88,94] = 16
xD[26,94,55] = 47
xD[26,87,88] = 47
xD[26,55,51] = 47
xD[26,88,94] = 47
xD[29,94,55] = 8
xD[29,51,11] = 8
xD[29,87,88] = 8
xD[29,55,51] = 8
xD[29,88,94] = 8
xD[30,94,55] = 224
xD[30,51,11] = 224
xD[30,87,88] = 224
xD[30,55,51] = 224
xD[30,88,94] = 224
xD[31,94,55] = 58
xD[31,11,12] = 58
xD[31,51,11] = 58
xD[31,87,88] = 58
xD[31,55,51] = 58
xD[31,88,94] = 58
xD[32,94,55] = 5
xD[32,11,12] = 5
xD[32,51,11] = 5
xD[32,87,88] = 5
xD[32,55,51] = 5
xD[32,88,94] = 5
xD[33,94,55] = 159
xD[33,51,11] = 159
xD[33,87,88] = 159
xD[33,55,51] = 159
xD[33,88,94] = 159
xD[71,51,11] = 12
xD[98,78,5] = 392
xD[99,78,5] = 13
xD[156,94,55] = 239
xD[156,85,86] = 239
xD[156,80,81] = 239
xD[156,86,87] = 239
xD[156,51,11] = 239
xD[156,83,85] = 239
xD[156,81,82] = 239
xD[156,87,88] = 239
xD[156,55,51] = 239
xD[156,82,83] = 239
xD[156,88,94] = 239
xD[157,94,55] = 8
xD[157,85,86] = 8
xD[157,80,81] = 8
xD[157,86,87] = 8
xD[157,51,11] = 8
xD[157,83,85] = 8
xD[157,81,82] = 8
xD[157,87,88] = 8
xD[157,55,51] = 8
xD[157,82,83] = 8
xD[157,88,94] = 8
xD[161,94,55] = 19
xD[161,85,86] = 19
xD[161,80,81] = 19
xD[161,86,87] = 19
xD[161,51,11] = 19
xD[161,83,85] = 19
xD[161,81,82] = 19
xD[161,87,88] = 19
xD[161,55,51] = 19
xD[161,82,83] = 19
xD[161,88,94] = 19
xD[176,94,55] = 8
xD[176,51,11] = 8
xD[176,55,51] = 8
xD[176,88,94] = 8
xD[177,94,55] = 224
xD[177,51,11] = 224
xD[177,55,51] = 224
xD[177,88,94] = 224
xD[178,94,55] = 58
xD[178,11,12] = 58
xD[178,51,11] = 58
xD[178,55,51] = 58
xD[178,88,94] = 58
xD[179,94,55] = 5
xD[179,11,12] = 5
xD[179,51,11] = 5
xD[179,55,51] = 5
xD[179,88,94] = 5
xD[180,94,55] = 159
xD[180,51,11] = 159
xD[180,55,51] = 159
xD[180,88,94] = 159
xD[249,94,55] = 57
xD[249,86,87] = 57
xD[249,51,11] = 57
xD[249,87,88] = 57
xD[249,55,51] = 57
xD[249,88,94] = 57
xD[253,94,55] = 16
xD[253,86,87] = 16
xD[253,51,11] = 16
xD[253,87,88] = 16
xD[253,55,51] = 16
xD[253,88,94] = 16
xD[322,94,55] = 200
xD[322,85,86] = 200
xD[322,11,12] = 200
xD[322,86,87] = 200
xD[322,51,11] = 200
xD[322,83,85] = 200
xD[322,87,88] = 200
xD[322,55,51] = 200
xD[322,88,94] = 200
xD[382,94,55] = 239
xD[382,85,86] = 239
xD[382,86,87] = 239
xD[382,51,11] = 239
xD[382,83,85] = 239
xD[382,81,82] = 239
xD[382,87,88] = 239
xD[382,55,51] = 239
xD[382,82,83] = 239
xD[382,88,94] = 239
xD[383,94,55] = 8
xD[383,85,86] = 8
xD[383,86,87] = 8
xD[383,51,11] = 8
xD[383,83,85] = 8
xD[383,81,82] = 8
xD[383,87,88] = 8
xD[383,55,51] = 8
xD[383,82,83] = 8
xD[383,88,94] = 8
xD[387,94,55] = 19
xD[387,85,86] = 19
xD[387,86,87] = 19
xD[387,51,11] = 19
xD[387,83,85] = 19
xD[387,81,82] = 19
xD[387,87,88] = 19
xD[387,55,51] = 19
xD[387,82,83] = 19
xD[387,88,94] = 19
xD[441,94,55] = 488
xD[441,85,86] = 488
xD[441,80,81] = 488
xD[441,11,12] = 488
xD[441,86,87] = 488
xD[441,51,11] = 488
xD[441,83,85] = 488
xD[441,81,82] = 488
xD[441,79,80] = 488
xD[441,87,88] = 488
xD[441,55,51] = 488
xD[441,82,83] = 488
xD[441,88,94] = 488
xD[442,94,55] = 5
xD[442,85,86] = 5
xD[442,80,81] = 5
xD[442,11,12] = 5
xD[442,86,87] = 5
xD[442,51,11] = 5
xD[442,83,85] = 5
xD[442,81,82] = 5
xD[442,79,80] = 5
xD[442,87,88] = 5
xD[442,55,51] = 5
xD[442,82,83] = 5
xD[442,88,94] = 5
xD[490,77,78] = 392
xD[490,78,5] = 392
xD[491,77,78] = 13
xD[491,78,5] = 13
xD[494,77,78] = 59
xD[494,78,5] = 59
xD[495,77,78] = 6
xD[495,78,5] = 6
xD[496,77,78] = 126
xD[496,78,5] = 126
zE[4] = 920
zE[5] = 1088
zE[6] = 1256
zE[8] = 1424
zE[9] = 1592
zE[10] = 1760
zE[11] = 1862
zE[12] = 1928
zE[51] = 1788
zE[55] = 1691
zE[77] = 607
zE[78] = 613
zE[79] = 775
zE[80] = 829
zE[81] = 943
zE[82] = 1045
zE[83] = 1111
zE[85] = 1213
zE[86] = 1279
zE[87] = 1381
zE[88] = 1447
zE[94] = 1521
zX[4] = 944
zX[5] = 1112
zX[6] = 1280
zX[8] = 1448
zX[9] = 1616
zX[10] = 1784
zX[11] = 1905
zX[12] = 1952
zX[51] = 1808
zX[55] = 1715
zX[77] = 631
zX[78] = 658
zX[79] = 799
zX[80] = 853
zX[81] = 967
zX[82] = 1075
zX[83] = 1135
zX[85] = 1243
zX[86] = 1303
zX[87] = 1411
zX[88] = 1471
zX[94] = 1545
zX[143] = 238
zX[144] = 406
zX[145] = 574
zX[146] = 742
zX[147] = 910
zX[148] = 1078
zX[149] = 1246
phi[1] = 874
phi[2] = 1546
phi[3] = 370
phi[4] = 538
phi[5] = 538
phi[6] = 538
phi[7] = 538

### All variables with value smaller zero:

### End

real	339m25.027s
user	1283m0.298s
sys	69m19.094s
	Freetype 2.4.12 environment removed
	Python 3.6.0 environment removed
	Gurobi 8.1.0 environment removed
