	Freetype 2.4.12 environment established
		library to render fonts
	Python 3.6.0 environment established
	Gurobi 8.1.0 environment established
Instance LSFRP: LSFDRP_5_3_0_1_fr.p
Instance LSFDP: LSFDRP_5_3_0_1_fd_28.p

*****************************************************************************************************************************
*** Solve LSFDRP_5_3_0_1_fd_28 with Gurobi
***
*** Graph info
*** |S|: 7
*** |S^E|: 0
*** |S^C|: 0
*** |V|: 162
*** |A|: 2732
*** |A^i|: 2732
*** |A^f|: 0
*** |M|: 532
*** |E|: 0

Changed value of parameter TimeLimit to 86400.0
   Prev: 1e+100  Min: 0.0  Max: 1e+100  Default: 1e+100
Changed value of parameter Threads to 4
   Prev: 0  Min: 0  Max: 1024  Default: 0
Optimize a model with 93584 rows, 1478335 columns and 5126353 nonzeros
Variable types: 1459203 continuous, 19132 integer (19132 binary)
Coefficient statistics:
  Matrix range     [1e+00, 3e+03]
  Objective range  [2e+00, 2e+07]
  Bounds range     [1e+00, 1e+00]
  RHS range        [1e+00, 7e+00]
Presolve removed 85980 rows and 1448308 columns (presolve time = 12s) ...
Warning: Failed to open log file 'gurobi.log'
Presolve removed 86020 rows and 1448313 columns (presolve time = 15s) ...
Presolve removed 86020 rows and 1448313 columns
Presolve time: 15.29s
Presolved: 7564 rows, 30022 columns, 158246 nonzeros
Variable types: 20242 continuous, 9780 integer (9773 binary)

Root simplex log...

Iteration    Objective       Primal Inf.    Dual Inf.      Time
       0    4.5132313e+09   1.089818e+06   0.000000e+00     16s
   28639    1.2514558e+07   1.067466e+06   0.000000e+00     20s
   41800    7.5994812e+06   6.035477e+05   0.000000e+00     25s
   53326    4.6940575e+06   8.875404e+05   0.000000e+00     30s
   62850    3.6205917e+06   1.069227e+05   0.000000e+00     35s
   70438    3.1339484e+06   8.385163e+04   0.000000e+00     40s
   76408    2.9021407e+06   1.393763e+04   0.000000e+00     45s
   81738    2.8504339e+06   9.334500e+01   0.000000e+00     50s
   82425    2.8496089e+06   0.000000e+00   0.000000e+00     51s

Root relaxation: objective 2.849609e+06, 82425 iterations, 34.82 seconds

    Nodes    |    Current Node    |     Objective Bounds      |     Work
 Expl Unexpl |  Obj  Depth IntInf | Incumbent    BestBd   Gap | It/Node Time

     0     0 2849608.93    0  198          - 2849608.93      -     -   51s
H    0     0                    -6709097.622 2849608.93   142%     -   51s
H    0     0                    -5178133.732 2849608.93   155%     -   51s
H    0     0                    -4100742.336 2849608.93   169%     -   53s
H    0     0                    -3933786.321 2849608.93   172%     -   58s
     0     0 2837938.02    0  241 -3933786.3 2837938.02   172%     -   58s
H    0     0                    -3610597.773 2837938.02   179%     -   61s
     0     0 2794219.52    0  232 -3610597.8 2794219.52   177%     -   64s
     0     0 2793681.39    0  230 -3610597.8 2793681.39   177%     -   64s
     0     0 2786496.74    0  249 -3610597.8 2786496.74   177%     -   66s
     0     0 2786480.52    0  246 -3610597.8 2786480.52   177%     -   66s
     0     0 2770664.34    0  222 -3610597.8 2770664.34   177%     -   67s
H    0     0                    -2852874.551 2770664.34   197%     -   70s
     0     0 2768208.55    0  215 -2852874.6 2768208.55   197%     -   71s
     0     0 2767447.90    0  209 -2852874.6 2767447.90   197%     -   71s
     0     0 2767299.05    0  210 -2852874.6 2767299.05   197%     -   72s
     0     0 2767299.05    0  210 -2852874.6 2767299.05   197%     -   72s
     0     0 2757752.56    0  244 -2852874.6 2757752.56   197%     -   74s
     0     0 2757617.85    0  244 -2852874.6 2757617.85   197%     -   77s
     0     0 2755897.55    0  246 -2852874.6 2755897.55   197%     -   78s
     0     0 2755387.34    0  243 -2852874.6 2755387.34   197%     -   78s
     0     0 2754959.59    0  243 -2852874.6 2754959.59   197%     -   78s
     0     0 2754959.59    0  243 -2852874.6 2754959.59   197%     -   78s
     0     0 2752573.64    0  247 -2852874.6 2752573.64   196%     -   79s
     0     0 2751934.47    0  242 -2852874.6 2751934.47   196%     -   80s
     0     0 2749267.11    0  238 -2852874.6 2749267.11   196%     -   81s
     0     0 2748022.75    0  240 -2852874.6 2748022.75   196%     -   81s
     0     0 2747974.66    0  240 -2852874.6 2747974.66   196%     -   81s
     0     0 2747972.94    0  240 -2852874.6 2747972.94   196%     -   81s
     0     0 2742201.40    0  225 -2852874.6 2742201.40   196%     -   83s
     0     0 2741970.87    0  232 -2852874.6 2741970.87   196%     -   83s
     0     0 2738603.42    0  240 -2852874.6 2738603.42   196%     -   84s
     0     0 2738310.46    0  230 -2852874.6 2738310.46   196%     -   85s
     0     0 2738197.87    0  230 -2852874.6 2738197.87   196%     -   85s
     0     0 2737523.82    0  231 -2852874.6 2737523.82   196%     -   85s
     0     0 2736881.17    0  231 -2852874.6 2736881.17   196%     -   86s
     0     0 2736859.42    0  231 -2852874.6 2736859.42   196%     -   86s
     0     0 2736854.42    0  231 -2852874.6 2736854.42   196%     -   86s
     0     0 2736850.39    0  231 -2852874.6 2736850.39   196%     -   87s
     0     0 2736850.39    0  232 -2852874.6 2736850.39   196%     -   87s
     0     0 2736795.60    0  232 -2852874.6 2736795.60   196%     -   87s
     0     0 2736795.60    0  232 -2852874.6 2736795.60   196%     -   88s
     0     0 2736795.60    0  232 -2852874.6 2736795.60   196%     -   88s
     0     0 2736795.60    0  232 -2852874.6 2736795.60   196%     -   88s
     0     0 2736652.20    0  232 -2852874.6 2736652.20   196%     -   89s
     0     0 2736652.20    0  231 -2852874.6 2736652.20   196%     -  101s
     0     2 2736652.20    0  231 -2852874.6 2736652.20   196%     -  130s
     1     4 2501434.77    1  236 -2852874.6 2729543.35   196%  5880  145s
     3     8 1938734.50    2  212 -2852874.6 2501098.42   188% 11251  164s
     7    12 1368485.17    3  145 -2852874.6 2365556.65   183% 10788  173s
    11    16 1749588.27    3  145 -2852874.6 2365526.84   183%  8447  184s
    15    19 1724707.94    4  118 -2852874.6 2365526.84   183%  8329  203s
    19    21 1673321.12    5  119 -2852874.6 2365526.84   183%  8397  217s
    23    23 1656104.60    6  138 -2852874.6 2365526.84   183%  8352  231s
H   29    30                    -2523054.540 2365526.84   194%  7354  261s
    33    32 1593820.99    9  153 -2523054.5 2365526.84   194%  7735  269s
    40    40 1553917.17   11  164 -2523054.5 2365526.84   194%  6853  273s
    49    50 1513343.63   14  157 -2523054.5 2365526.84   194%  5884  287s
    56    58 1463980.06   16  130 -2523054.5 2365526.84   194%  5680  302s
    62    65 1207743.15   17  118 -2523054.5 2365526.84   194%  5926  322s
H   66    67                    -2257556.477 2365526.84   205%  6080  337s
H   70    72                    -2230567.561 2365526.84   206%  6098  337s
    71    74 1131291.39   18  154 -2230567.6 2365526.84   206%  6233  360s
    76    73 1119038.36   19  146 -2230567.6 2365526.84   206%  7087  367s
    83    82 1068552.00   21  148 -2230567.6 2365526.84   206%  6711  390s
    89    89 -2214804.2   22   80 -2230567.6 2365526.84   206%  7239  428s
    93    91 758315.474   23  145 -2230567.6 2365526.84   206%  7931  439s
   107   104 -539049.11   27  106 -2230567.6 2365526.84   206%  7359  455s
   116   110 575526.222   28  158 -2230567.6 2365526.84   206%  7173  466s
   128   125 260905.160   30  175 -2230567.6 2365526.84   206%  6810  474s
   145   141 125354.270   35  177 -2230567.6 2365526.84   206%  6256  487s
   162   158  686.69448   41  158 -2230567.6 2365526.84   206%  5812  495s
   182   177 -391190.43   47  102 -2230567.6 2365526.84   206%  5408  504s
   200   195 -733585.65   52  115 -2230567.6 2365526.84   206%  5170  519s
   215   214 -163419.28   55  138 -2230567.6 2365526.84   206%  4894  529s
   240   237 -390336.35   58  127 -2230567.6 2365526.84   206%  4599  539s
   250   246 -504632.22   61  123 -2230567.6 2365526.84   206%  4551  552s
   276   266 -636527.38   69  104 -2230567.6 2365526.84   206%  4357  563s
   309   295 -1917201.8   81   39 -2230567.6 2348428.38   205%  4051  583s
H  352   327                    -2119808.331 2348428.38   211%  3748  596s
   394   364 582129.077    8  103 -2119808.3 2348428.38   211%  3492  622s
   408   370 562889.324    9  124 -2119808.3 2348428.38   211%  3433  639s
   454   408 351139.045   15  132 -2119808.3 2348428.38   211%  3248  654s
   482   431 97664.6571   15   79 -2119808.3 2348428.38   211%  3184  667s
   531   451 -1608168.6   16  113 -2119808.3 1982402.12   194%  3039  700s
   590   481 1373631.55    5  214 -2119808.3 1937402.33   191%  2961  725s
   606   486 1073916.45    6  124 -2119808.3 1937402.33   191%  2977  747s
   645   505 1009647.51    7  119 -2119808.3 1937402.33   191%  2910  762s
   672   521 333942.642   10  112 -2119808.3 1749588.27   183%  2878  784s
   715   551 444015.863   13  169 -2119808.3 1749588.27   183%  2839  807s
   750   583     cutoff   14      -2119808.3 1749588.27   183%  2825  822s
H  807   610                    -1890108.933 1749588.27   193%  2707  822s
   839   632     cutoff   18      -1890108.9 1673083.22   189%  2612  850s
H  857   621                    -1790021.313 1673083.22   193%  2596  850s
   920   664 1271878.47    5  144 -1790021.3 1673083.22   193%  2524  870s
   953   685 758235.691    8  147 -1790021.3 1673083.22   193%  2530  897s
   998   728 273363.925   12  123 -1790021.3 1673083.22   193%  2499  916s
H 1029   752                    -1761398.090 1673083.22   195%  2487  916s
H 1046   769                    -1761398.089 1673083.22   195%  2472  920s
  1047   770 379189.436   26  231 -1761398.1 1673083.22   195%  2470  968s
  1049   771 362042.321    9  203 -1761398.1 1673083.22   195%  2465 1007s
  1050   772 -226936.81   23  207 -1761398.1 1673083.22   195%  2463 1014s
  1051   773 -1491228.5   23  216 -1761398.1 1673083.22   195%  2460 1015s
  1056   776 -578206.59   31  220 -1761398.1 1673083.22   195%  2449 1021s
  1058   777 610880.347   54  216 -1761398.1 1673083.22   195%  2444 1031s
  1060   779 -1612965.9   53  216 -1761398.1 1673083.22   195%  2439 1050s
  1061   782 1673083.22   16  216 -1761398.1 1673083.22   195%  2533 1088s
  1063   786 1673083.22   17  213 -1761398.1 1673083.22   195%  2540 1129s
  1067   788 1673083.22   18  214 -1761398.1 1673083.22   195%  2558 1171s
  1071   791 1489744.94   18  179 -1761398.1 1673083.22   195%  2606 1205s
  1075   794 1673083.22   19  197 -1761398.1 1673083.22   195%  2655 1225s
  1079   796 1673083.22   19  178 -1761398.1 1673083.22   195%  2687 1249s
  1083   800 1673083.22   20  178 -1761398.1 1673083.22   195%  2721 1269s
  1088   800 944165.606   20  150 -1761398.1 1673083.22   195%  2769 1301s
  1092   801 1673083.22   21  182 -1761398.1 1673083.22   195%  2795 1318s
  1099   805 1673083.22   22  172 -1761398.1 1673083.22   195%  2827 1335s
  1105   807 1418400.57   23  141 -1761398.1 1673083.22   195%  2859 1354s
  1114   814 1417690.11   24  137 -1761398.1 1673083.22   195%  2874 1364s
  1122   822 1395452.60   25  140 -1761398.1 1673083.22   195%  2882 1383s
  1127   822 1381925.67   26  142 -1761398.1 1673083.22   195%  2912 1404s
  1133   825 1362673.91   27  142 -1761398.1 1673083.22   195%  2952 1420s
  1142   829 348166.495   28   87 -1761398.1 1673083.22   195%  2995 1433s
  1150   836 857815.136   28  164 -1761398.1 1673083.22   195%  3018 1448s
  1160   836 838716.481   29  160 -1761398.1 1673083.22   195%  3028 1471s
  1175   848 778397.789   30  156 -1761398.1 1673083.22   195%  3035 1491s
  1191   846 122486.711   32  110 -1761398.1 1673083.22   195%  3034 1507s
  1209   853 73062.1943   33  108 -1761398.1 1673083.22   195%  3021 1523s
  1225   852 -1051642.4   35  107 -1761398.1 1673083.22   195%  3027 1541s
  1247   859 -1551409.3   40  107 -1761398.1 1673083.22   195%  3005 1563s
  1266   859 962714.129   21  205 -1761398.1 1673083.22   195%  3009 1578s
  1283   855 61321.3908   21  143 -1761398.1 1673083.22   195%  3000 1602s
  1299   863 954989.498   22  166 -1761398.1 1673083.22   195%  3015 1616s
  1312   869 884990.140   27  162 -1761398.1 1673083.22   195%  3018 1631s
  1322   872 775032.549   30  172 -1761398.1 1673083.22   195%  3021 1649s
  1342   871 266852.523   29  149 -1761398.1 1673083.22   195%  3033 1663s
  1375   887 520801.591   34  142 -1761398.1 1673083.22   195%  2990 1682s
  1404   892 -24611.383   36  101 -1761398.1 1673083.22   195%  2968 1702s
  1432   892 234052.879   40  155 -1761398.1 1673083.22   195%  2952 1725s
  1460   907 -1045500.9   41  157 -1761398.1 1673083.22   195%  2934 1743s
  1499   921 -833701.69   43  110 -1761398.1 1487191.89   184%  2906 1763s
  1544   936 956853.832   25  144 -1761398.1 1486882.02   184%  2873 1779s
  1577   938 927516.012   26  114 -1761398.1 1486882.02   184%  2848 1796s
  1610   942 690266.564   32  156 -1761398.1 1486882.02   184%  2837 1817s
  1623   946 -377591.92   37  110 -1761398.1 1441797.35   182%  2851 1838s
  1708   963 439787.342   27  164 -1761398.1 1381396.13   178%  2759 1859s
  1744   966 -1251788.2   34  127 -1761398.1 1363037.84   177%  2746 1892s
  1787   987 329542.792   21  185 -1761398.1 1249620.25   171%  2730 1911s
  1814  1001 56623.0377   27  158 -1761398.1 1249620.25   171%  2732 1938s
  1844  1003 -1283201.1   34  100 -1761398.1 1218548.20   169%  2737 1968s
  1879  1010 -930362.29   29  116 -1761398.1 1027067.24   158%  2748 1992s
  1916  1005 264035.947   22  163 -1761398.1 1027067.24   158%  2741 2018s
  1991  1009 -162669.27   26  129 -1761398.1 1027067.24   158%  2694 2047s
  2064  1009 -663559.31   29  102 -1761398.1 1027067.24   158%  2659 2070s
  2086   999 -804877.36   32   85 -1761398.1 1017628.00   158%  2664 2096s
  2180  1018 619598.018   23  157 -1761398.1 1015549.94   158%  2603 2125s
  2238  1020 -1512431.4   33  136 -1761398.1 964899.098   155%  2589 2156s
  2335  1057 346595.027   25  128 -1761398.1 954584.359   154%  2526 2186s
  2383  1069 -1457880.9   36  101 -1761398.1 943535.365   154%  2531 2218s
  2484  1066 -354204.76   26  126 -1761398.1 914912.515   152%  2479 2255s
  2609  1107 -27884.742   28  177 -1761398.1 914912.515   152%  2421 2288s
  2655  1124 -1151740.9   39  139 -1761398.1 893238.846   151%  2412 2323s
  2805  1180 -1509107.5   46  101 -1761398.1 882020.140   150%  2326 2359s
  2930  1216 -806759.14   24   76 -1761398.1 882020.140   150%  2277 2401s
  3019  1224     cutoff   28      -1761398.1 882020.140   150%  2258 2440s
  3206  1264 -1487015.4   30   93 -1761398.1 762839.201   143%  2174 2488s
  3338  1296 -831760.94   29  100 -1761398.1 758602.465   143%  2148 2528s
  3497  1378 -933326.97   33  113 -1761398.1 733214.448   142%  2103 2568s
  3654  1451 -349282.63   38  102 -1761398.1 690068.375   139%  2054 2614s
  3834  1556 659445.778   25  119 -1761398.1 665677.858   138%  2003 2657s
  3947  1605 -453465.81   29  103 -1761398.1 659142.595   137%  1992 2701s
  4098  1717 26949.1795   21  110 -1761398.1 633896.915   136%  1960 2744s
  4307  1810 -554933.96   32  128 -1761398.1 612702.045   135%  1912 2793s
  4482  1895     cutoff   28      -1761398.1 597659.472   134%  1878 2840s
  4755  2076     cutoff   28      -1761398.1 572485.220   133%  1827 2888s
  4949  2175 -663110.76   33  120 -1761398.1 572485.220   133%  1805 2941s
  5149  2233 -1105967.5   41   95 -1761398.1 572485.220   133%  1787 2996s
  5321  2322     cutoff   61      -1761398.1 527486.279   130%  1775 3055s
  5616  2429 -76030.533   26  111 -1761398.1 498411.720   128%  1737 3116s
  5907  2553 -422602.65   30  130 -1761398.1 451765.241   126%  1702 3178s
  6174  2705 -717011.61   29   87 -1761398.1 445796.002   125%  1671 3239s
  6477  2854 19675.8597   28  105 -1761398.1 419906.672   124%  1644 3302s
  6777  3000 -285820.92   46   69 -1761398.1 399607.162   123%  1615 3369s
  7092  3152 -1475707.7   55   79 -1761398.1 377644.010   121%  1587 3436s
  7401  3300 -857098.71   54  106 -1761398.1 355851.082   120%  1557 3510s
  7762  3469     cutoff   39      -1761398.1 327148.868   119%  1533 3585s
  8101  3617 -1545371.5   34   86 -1761398.1 306865.233   117%  1520 3660s
  8351  3728     cutoff   31      -1761398.1 288804.170   116%  1520 3747s
  8700  3902 -983041.94   28  128 -1761398.1 264689.170   115%  1506 3828s
  9098  4101 65286.4152   56  139 -1761398.1 245467.343   114%  1486 3912s
  9485  4273 infeasible   61      -1761398.1 231730.280   113%  1469 4005s
  9964  4478     cutoff   45      -1761398.1 211473.157   112%  1448 4099s
 10360  4625     cutoff   29      -1761398.1 178574.316   110%  1432 4199s
 10887  4846 -1146591.9   68   68 -1761398.1 157125.735   109%  1410 4303s
 11371  5069 -613052.44   39  101 -1761398.1 139473.242   108%  1396 4403s
 11908  5295 -1502932.3   34  110 -1761398.1 100375.250   106%  1382 4515s
 12525  5516 -924369.28   31   88 -1761398.1 64802.4014   104%  1362 4621s
 13037  5723 -180732.23   63   65 -1761398.1 46584.3908   103%  1351 4717s
 13620  6021 -82272.207   35  115 -1761398.1 35936.1955   102%  1331 4811s
 14141  6279 -833396.34   35   92 -1761398.1 8072.53849   100%  1314 4925s
 14317  6335 -1660271.8   31   73 -1761398.1 -469.75194   100%  1309 5020s
 14785  6461 -1682300.1   60   86 -1761398.1 -15733.589  99.1%  1303 5113s
 15419  6688 -1588160.9   37   94 -1761398.1 -46394.222  97.4%  1284 5205s
 15971  6903 -991014.19   38   97 -1761398.1 -65683.590  96.3%  1274 5298s
 16466  7095     cutoff   49      -1761398.1 -81446.797  95.4%  1267 5391s
 16942  7295 -1702755.5   41   89 -1761398.1 -94811.832  94.6%  1261 5479s
 17403  7439 -1172994.4   41  130 -1761398.1 -97369.841  94.5%  1258 5566s
 17917  7625 -583636.17   36   95 -1761398.1 -123014.60  93.0%  1253 5654s
 18426  7819 -490902.91   41  110 -1761398.1 -139258.38  92.1%  1247 5744s
 18862  7987 -1289172.0   41   60 -1761398.1 -149905.80  91.5%  1245 5834s
 19408  8109 -992153.62   38   66 -1761398.1 -166602.20  90.5%  1234 5917s
 19888  8263 -1013673.5   27   62 -1761398.1 -180061.99  89.8%  1230 5999s
 20352  8412 -1338007.4   41   85 -1761398.1 -195466.70  88.9%  1225 6082s
 20953  8633     cutoff   29      -1761398.1 -203673.61  88.4%  1214 8390s
 21465  8778 -950317.15   34  130 -1761398.1 -224916.26  87.2%  1208 8491s
 22064  8968 -556055.45   32   97 -1761398.1 -240237.49  86.4%  1198 8576s
 22565  9107 -1436724.1   39  112 -1761398.1 -251866.01  85.7%  1192 8664s
 22962  9214     cutoff   43      -1761398.1 -265154.86  84.9%  1192 8742s
 23369  9304 -1100706.1   47   96 -1761398.1 -272919.03  84.5%  1190 8825s
 23797  9411 infeasible   31      -1761398.1 -280938.05  84.1%  1189 8904s
 24211  9528 -1304328.3   34   61 -1761398.1 -296516.57  83.2%  1189 8979s
 24690  9673     cutoff  116      -1761398.1 -303864.90  82.7%  1184 9055s
 25048  9766 -1322176.5   44  158 -1761398.1 -318741.45  81.9%  1187 9140s
 25418  9847 -1087618.9   42  110 -1761398.1 -327724.55  81.4%  1188 9224s
 25837  9940 -705218.03   37  102 -1761398.1 -339290.39  80.7%  1189 9335s
 26178  9988 -1334229.0   40  144 -1761398.1 -354123.29  79.9%  1192 9411s
 26555 10092 -1295303.0   48   82 -1761398.1 -361111.70  79.5%  1192 9489s
 27050 10253 -1218905.8   34  129 -1761398.1 -371355.59  78.9%  1188 9572s
 27394 10328 -1637841.6   26  146 -1761398.1 -381636.06  78.3%  1192 9663s
 27842 10442 -1595825.7   39   61 -1761398.1 -395027.64  77.6%  1190 9749s
 28156 10528 -539119.70   36   49 -1761398.1 -400423.69  77.3%  1193 9832s
 28505 10635 -1733185.1   44  108 -1761398.1 -400423.69  77.3%  1196 9919s
 28834 10717 -634457.50   62   99 -1761398.1 -406724.89  76.9%  1195 9997s
 29293 10810 -927240.97   41  204 -1761398.1 -422808.02  76.0%  1194 10078s
 29758 10959 -1124034.5   32  178 -1761398.1 -425487.32  75.8%  1192 10154s
 30130 11003 -1271073.2   38   84 -1761398.1 -438436.29  75.1%  1194 10254s
 30604 11139     cutoff   37      -1761398.1 -450687.63  74.4%  1191 10328s
 31107 11286 -1600338.3   24  115 -1761398.1 -451784.82  74.4%  1188 10407s
 31468 11342 -1490048.1   43   99 -1761398.1 -452854.76  74.3%  1190 10492s
 31913 11464 -1367765.3   70  119 -1761398.1 -471384.80  73.2%  1188 10576s
 32382 11554 -845711.90   44  120 -1761398.1 -480643.97  72.7%  1187 10675s
 32733 11627     cutoff   41      -1761398.1 -487844.17  72.3%  1188 10757s
 33102 11743 -1264883.2   31  146 -1761398.1 -495572.67  71.9%  1190 10836s
 33574 11844     cutoff   42      -1761398.1 -504481.67  71.4%  1188 10914s
 34044 11946 -1715824.8   31  146 -1761398.1 -513618.22  70.8%  1186 10993s
 34521 12043 -1261804.5   38   48 -1761398.1 -520475.86  70.5%  1184 11067s
 34898 12137     cutoff   38      -1761398.1 -527377.97  70.1%  1185 11141s
 35410 12281 -1152105.8   36  168 -1761398.1 -536996.70  69.5%  1181 11214s
 35897 12396     cutoff   71      -1761398.1 -542976.56  69.2%  1179 11290s
H36105 12450                    -1761398.089 -545109.38  69.1%  1179 11290s
 36333 12523 -1314459.1   49  128 -1761398.1 -551006.29  68.7%  1178 11367s
 36680 12616 -1001933.7   37  140 -1761398.1 -554536.67  68.5%  1176 11448s
 37079 12697 -1089117.5   46   95 -1761398.1 -563197.12  68.0%  1176 11524s
 37455 12737 -1158162.3   32  105 -1761398.1 -571430.84  67.6%  1176 11599s
 37867 12862 -842723.98   31  153 -1761398.1 -577482.95  67.2%  1175 11674s
 38207 12902 -1723175.6   45  138 -1761398.1 -583889.42  66.9%  1176 11751s
 38613 12994 -1339325.3   52  158 -1761398.1 -592003.75  66.4%  1175 11825s
 38961 13040 -1196303.4   58  150 -1761398.1 -598781.71  66.0%  1176 11906s
 39338 13112     cutoff  110      -1761398.1 -607230.61  65.5%  1176 12004s
 39391 13120 -936285.83   37  126 -1761398.1 -607622.16  65.5%  1177 12005s
 39690 13179 -1504438.1   29  125 -1761398.1 -612698.02  65.2%  1177 12115s
 40107 13305 -804215.83   37  145 -1761398.1 -615456.45  65.1%  1175 12203s
 40584 13485 -1249932.8   43  202 -1761398.1 -619920.62  64.8%  1170 12284s
 40864 13528 -1013830.1   50  152 -1761398.1 -630504.44  64.2%  1172 12362s
 41276 13617     cutoff   37      -1761398.1 -635200.88  63.9%  1172 12440s
 41447 13611     cutoff   30      -1761398.1 -641714.64  63.6%  1170 12520s
 41802 13671     cutoff   32      -1761398.1 -648308.38  63.2%  1171 12605s
 42128 13700 -1356254.7   26  143 -1761398.1 -657371.07  62.7%  1173 12684s
 42577 13771 -1278185.2   30   90 -1761398.1 -662760.76  62.4%  1172 12769s
 43042 13891 -1571706.7   48  128 -1761398.1 -673262.09  61.8%  1170 12845s
 43475 13948 -931107.12   34   91 -1761398.1 -681173.55  61.3%  1169 12926s
 43950 14050 -1381580.6   48   54 -1761398.1 -686051.59  61.1%  1168 13001s
 44317 14077     cutoff   46      -1761398.1 -693908.40  60.6%  1170 13103s
 44688 14141 -1397503.0   36   94 -1761398.1 -698533.48  60.3%  1171 13181s
 44971 14180 -1293832.0   29   92 -1761398.1 -702166.18  60.1%  1173 13258s
 45463 14298     cutoff   39      -1761398.1 -710801.20  59.6%  1171 13333s
 45947 14348 -1689495.7   35   86 -1761398.1 -714494.04  59.4%  1170 13408s
 46322 14366 -1404252.3   42  107 -1761398.1 -721979.84  59.0%  1171 13480s
 46780 14433 -1194618.4   40   77 -1761398.1 -729084.19  58.6%  1170 13557s
 47263 14527     cutoff   42      -1761398.1 -735721.07  58.2%  1169 13630s
 47645 14594     cutoff   32      -1761398.1 -741866.11  57.9%  1168 13699s
 48021 14655 -1752108.4   47  162 -1761398.1 -746463.31  57.6%  1168 13777s
 48446 14761 -1331316.2   37  116 -1761398.1 -755777.48  57.1%  1168 13845s
 48876 14875 -1544428.7   25   90 -1761398.1 -761982.92  56.7%  1168 13916s
 49440 14981 -1286133.6   72  125 -1761398.1 -767901.62  56.4%  1164 13994s
 49863 15046     cutoff   41      -1761398.1 -775123.61  56.0%  1164 14068s
 50397 15214 -1669728.3   41   54 -1761398.1 -779913.62  55.7%  1161 14139s
 50759 15230     cutoff   31      -1761398.1 -786210.15  55.4%  1162 14211s
 51239 15303 -1501663.6   44   73 -1761398.1 -790823.96  55.1%  1160 14281s
 51658 15366 -1633212.0   29  109 -1761398.1 -796150.61  54.8%  1160 14357s
 52098 15459 -1416852.2   36   71 -1761398.1 -802659.81  54.4%  1159 14449s
 52354 15450 -1202279.0   37   73 -1761398.1 -804200.10  54.3%  1158 14521s
 52705 15506 -1211624.6   51   52 -1761398.1 -809031.23  54.1%  1160 14592s
 53163 15614 -1259449.9   55  161 -1761398.1 -814632.94  53.8%  1158 14659s
 53602 15698 -917637.12   33  113 -1761398.1 -818911.82  53.5%  1157 14728s
 54120 15812     cutoff   37      -1761398.1 -824768.09  53.2%  1155 14794s
 54556 15861 -1740352.6   36   63 -1761398.1 -832175.53  52.8%  1154 14859s
 55007 15923 -1528551.2   44  147 -1761398.1 -838039.44  52.4%  1152 14947s
 55348 15953 -1371621.6   43   38 -1761398.1 -840351.53  52.3%  1152 15014s
 55676 15953     cutoff   55      -1761398.1 -847609.81  51.9%  1153 15075s
 56098 15988 -1496233.6   37   84 -1761398.1 -855227.54  51.4%  1153 15140s
 56474 16022 -1372635.3   38   68 -1761398.1 -859938.37  51.2%  1153 15204s
 56852 16073 -1315904.5   52   76 -1761398.1 -863651.58  51.0%  1152 15269s
 57248 16093 -1326118.1   45   61 -1761398.1 -870552.09  50.6%  1153 15334s
 57735 16147     cutoff   47      -1761398.1 -871979.56  50.5%  1150 15398s
 58170 16175 -1187653.3   47   45 -1761398.1 -878675.44  50.1%  1149 15460s
 58606 16209 -1453802.9   36  159 -1761398.1 -884803.40  49.8%  1148 15525s
 59082 16326 -1329176.9   57   56 -1761398.1 -887199.58  49.6%  1145 15587s
 59477 16357 -1222916.2   44   40 -1761398.1 -893926.34  49.2%  1145 15649s
 59880 16376 -1491335.6   58   63 -1761398.1 -897887.62  49.0%  1145 15787s
 60270 16394     cutoff   49      -1761398.1 -904229.33  48.7%  1144 15850s
 60730 16427     cutoff   38      -1761398.1 -910907.67  48.3%  1142 15913s
 61120 16489     cutoff   38      -1761398.1 -912990.86  48.2%  1142 15976s
 61608 16594 -1238377.9   32   94 -1761398.1 -920026.61  47.8%  1140 16040s
 62018 16625 -1098292.7   38  128 -1761398.1 -924802.74  47.5%  1139 16102s
 62475 16704 -1589210.0   32  102 -1761398.1 -928175.17  47.3%  1138 16169s
 62900 16787     cutoff  186      -1761398.1 -932928.10  47.0%  1137 16269s
 63147 16793 -1597943.9   56   48 -1761398.1 -933696.12  47.0%  1136 16330s
 63586 16833     cutoff   42      -1761398.1 -939951.20  46.6%  1135 16392s
 64024 16876     cutoff   46      -1761398.1 -944146.41  46.4%  1134 16472s
H64026 16876                    -1761398.089 -944146.41  46.4%  1134 16472s
 64456 16887     cutoff   34      -1761398.1 -948154.13  46.2%  1133 16542s
 64906 16994 -1252569.6   32  115 -1761398.1 -952618.23  45.9%  1131 16606s
 65214 17027     cutoff   30      -1761398.1 -957628.35  45.6%  1131 16666s
 65611 17042     cutoff   36      -1761398.1 -962967.62  45.3%  1128 16729s
 65972 17111 -1557369.6   50  101 -1761398.1 -966050.46  45.2%  1127 16791s
 66315 17159     cutoff   49      -1761398.1 -969509.77  45.0%  1127 16852s
 66683 17163     cutoff   55      -1761398.1 -974949.77  44.6%  1127 16919s
 66987 17197 -1326831.8   61  152 -1761398.1 -979215.52  44.4%  1127 16981s
 67361 17217 -1414199.1   36   85 -1761398.1 -981378.08  44.3%  1126 17044s
 67722 17266 -1551757.1   30   81 -1761398.1 -986155.12  44.0%  1125 17107s
 67974 17261 -1664449.9   72   99 -1761398.1 -988336.04  43.9%  1125 17168s
 68306 17263     cutoff   74      -1761398.1 -992242.04  43.7%  1126 17236s
 68720 17337 -1173709.1   42   52 -1761398.1 -995656.63  43.5%  1126 17394s
 69155 17373 -1362464.5   45  164 -1761398.1 -998222.82  43.3%  1125 17452s
 69573 17378     cutoff   43      -1761398.1 -1003308.0  43.0%  1123 17513s
 70054 17452 -1121056.5   29  127 -1761398.1 -1008285.5  42.8%  1120 17572s
 70482 17512     cutoff   36      -1761398.1 -1012537.9  42.5%  1118 17635s
 70850 17497 -1472476.8   47   31 -1761398.1 -1016405.8  42.3%  1118 17693s
 71176 17480     cutoff   54      -1761398.1 -1020558.8  42.1%  1118 17741s
 71584 17493     cutoff   45      -1761398.1 -1025116.2  41.8%  1116 17798s
 71980 17500     cutoff   44      -1761398.1 -1029555.0  41.5%  1115 17855s
 72424 17537     cutoff   41      -1761398.1 -1032197.0  41.4%  1113 17914s
 72759 17533     cutoff   42      -1761398.1 -1036748.5  41.1%  1112 17988s
 73196 17573     cutoff   33      -1761398.1 -1042502.0  40.8%  1110 18053s
 73555 17554 -1710485.2   42  103 -1761398.1 -1043915.1  40.7%  1110 18108s
 73966 17564 -1603574.4   43   74 -1761398.1 -1049313.3  40.4%  1108 18163s
 74337 17528 -1706595.3   43    9 -1761398.1 -1053125.2  40.2%  1108 18218s
 74661 17504     cutoff   34      -1761398.1 -1056674.3  40.0%  1107 18373s
 74994 17470 -1396258.0   62   88 -1761398.1 -1060527.5  39.8%  1105 18430s
 75406 17509     cutoff   30      -1761398.1 -1065512.9  39.5%  1103 18490s
 75795 17525     cutoff   49      -1761398.1 -1069217.8  39.3%  1102 18544s
 76152 17513 -1134036.8   65   89 -1761398.1 -1072701.7  39.1%  1101 18589s
 76499 17500     cutoff   50      -1761398.1 -1077192.8  38.8%  1099 18640s
 76861 17501     cutoff   53      -1761398.1 -1081360.3  38.6%  1098 18700s
 77113 17479     cutoff   38      -1761398.1 -1083778.3  38.5%  1098 18743s
 77473 17481     cutoff   47      -1761398.1 -1088353.2  38.2%  1096 18789s
 77933 17515     cutoff   37      -1761398.1 -1092370.5  38.0%  1094 18836s
 78260 17487     cutoff   45      -1761398.1 -1096087.0  37.8%  1093 18891s
 78528 17479 -1588578.7   37   52 -1761398.1 -1098492.6  37.6%  1094 18943s
 78874 17468     cutoff   41      -1761398.1 -1102792.9  37.4%  1093 18993s
 79238 17481     cutoff   38      -1761398.1 -1105612.4  37.2%  1092 19037s
 79545 17444 -1701206.4   52   82 -1761398.1 -1108669.5  37.1%  1091 19224s
 79889 17411 -1362251.2   30  123 -1761398.1 -1111718.2  36.9%  1090 19276s
 80307 17443 -1267333.9   35  123 -1761398.1 -1116075.1  36.6%  1089 19329s
 80686 17422     cutoff   36      -1761398.1 -1119688.6  36.4%  1087 19373s
 81069 17436 -1244319.5   36  121 -1761398.1 -1123599.1  36.2%  1086 19419s
 81489 17418     cutoff   38      -1761398.1 -1127061.2  36.0%  1084 19462s
 81827 17379     cutoff   35      -1761398.1 -1130440.4  35.8%  1083 19503s
 82195 17383 -1516122.6   43   51 -1761398.1 -1133839.3  35.6%  1081 19548s
 82492 17342 -1218198.3   31   56 -1761398.1 -1137654.2  35.4%  1080 19594s
 82867 17332     cutoff   42      -1761398.1 -1141540.8  35.2%  1079 19643s
 83178 17320     cutoff   34      -1761398.1 -1145097.4  35.0%  1078 19689s
 83528 17337 -1436213.9   39   87 -1761398.1 -1148727.9  34.8%  1077 19955s
 83770 17293 -1584328.6   47   78 -1761398.1 -1150447.9  34.7%  1077 20000s
 84196 17314     cutoff   28      -1761398.1 -1154127.1  34.5%  1075 20040s
 84496 17292 -1313589.7   63   88 -1761398.1 -1156971.0  34.3%  1074 20082s
 84845 17264 -1415667.7   35   89 -1761398.1 -1160499.8  34.1%  1073 20130s
 85149 17211     cutoff   32      -1761398.1 -1163660.7  33.9%  1072 20180s
 85541 17209     cutoff   68      -1761398.1 -1166512.2  33.8%  1071 20224s
 85875 17163     cutoff   42      -1761398.1 -1170160.7  33.6%  1070 20257s
 86147 17129     cutoff   34      -1761398.1 -1173334.8  33.4%  1069 20297s
 86479 17108     cutoff   34      -1761398.1 -1176653.7  33.2%  1068 20340s
 86826 17102     cutoff   33      -1761398.1 -1179900.4  33.0%  1067 20390s
 87174 17095 -1684601.7   48   38 -1761398.1 -1183361.4  32.8%  1066 20421s
 87510 17082     cutoff   38      -1761398.1 -1186303.6  32.6%  1064 20474s
 87752 17037     cutoff   57      -1761398.1 -1188821.2  32.5%  1064 20506s
 88079 16997     cutoff   35      -1761398.1 -1191723.1  32.3%  1063 20533s
 88369 16965 -1394902.6   42   92 -1761398.1 -1195118.3  32.1%  1062 20579s
 88676 16962 -1558550.1   67  155 -1761398.1 -1197183.3  32.0%  1061 20625s
 89052 16928 -1573362.9   47  117 -1761398.1 -1200515.1  31.8%  1060 20665s
 89471 16925 -1543154.3   37  121 -1761398.1 -1204013.4  31.6%  1058 20695s
 89811 16892     cutoff   40      -1761398.1 -1206793.0  31.5%  1056 20736s
 90124 16834 -1725558.2   47   64 -1761398.1 -1209485.0  31.3%  1055 20776s
 90351 16781     cutoff   31      -1761398.1 -1212540.5  31.2%  1055 20812s
 90600 16727     cutoff   39      -1761398.1 -1215236.6  31.0%  1054 20847s
 90896 16684 -1219321.0   37   81 -1761398.1 -1218163.1  30.8%  1054 20880s
 91245 16652 -1633723.1   36  123 -1761398.1 -1221106.2  30.7%  1052 20908s
 91512 16594     cutoff   37      -1761398.1 -1223838.8  30.5%  1051 20939s
 91733 16538     cutoff   34      -1761398.1 -1226617.0  30.4%  1051 20982s
 92016 16524     cutoff   33      -1761398.1 -1229097.9  30.2%  1050 21017s
 92329 16516     cutoff   42      -1761398.1 -1232169.7  30.0%  1048 21046s
 92579 16469     cutoff   59      -1761398.1 -1234933.9  29.9%  1048 21078s
 92851 16442     cutoff   32      -1761398.1 -1237911.6  29.7%  1047 21105s
 93087 16396     cutoff   41      -1761398.1 -1240051.7  29.6%  1046 21134s
 93387 16382 -1274308.3   55   85 -1761398.1 -1242490.4  29.5%  1045 21164s
 93684 16337     cutoff   45      -1761398.1 -1244545.4  29.3%  1043 21193s
 93942 16291     cutoff   36      -1761398.1 -1247484.9  29.2%  1042 21232s
 94217 16243     cutoff   41      -1761398.1 -1249702.6  29.1%  1042 21288s
 94487 16191     cutoff   62      -1761398.1 -1252136.1  28.9%  1041 21322s
 94734 16132 -1434483.9   47   68 -1761398.1 -1254748.0  28.8%  1040 21348s
 94903 16057     cutoff   45      -1761398.1 -1257564.4  28.6%  1040 21380s
 95207 16025     cutoff   41      -1761398.1 -1259938.5  28.5%  1039 21421s
 95522 15988 -1690723.1   57  112 -1761398.1 -1262245.2  28.3%  1038 21460s
 95878 15966 -1338067.6   45   47 -1761398.1 -1265951.7  28.1%  1036 21496s
 96126 15926     cutoff   46      -1761398.1 -1268693.1  28.0%  1035 21525s
 96343 15870     cutoff   37      -1761398.1 -1270952.6  27.8%  1035 21551s
 96641 15809     cutoff   46      -1761398.1 -1273702.7  27.7%  1033 21572s
 96900 15779     cutoff   35      -1761398.1 -1276299.3  27.5%  1032 21606s
 97101 15743     cutoff   43      -1761398.1 -1278772.1  27.4%  1032 21635s
 97368 15691 -1516431.5   43   57 -1761398.1 -1281403.8  27.3%  1031 21674s
 97618 15643     cutoff   50      -1761398.1 -1283490.1  27.1%  1030 21709s
 97857 15597 -1449611.1   31  102 -1761398.1 -1285285.6  27.0%  1030 21747s
 98182 15575     cutoff   38      -1761398.1 -1288088.5  26.9%  1028 21778s
 98463 15541 -1308052.5   31   87 -1761398.1 -1290196.9  26.8%  1027 21816s
 98754 15527     cutoff   38      -1761398.1 -1292020.6  26.6%  1026 21842s
 99073 15504 -1613870.5   49  128 -1761398.1 -1294687.9  26.5%  1025 21867s
 99355 15457     cutoff   41      -1761398.1 -1296789.0  26.4%  1024 21888s
 99624 15436 -1357749.5   48  122 -1761398.1 -1298677.6  26.3%  1023 21926s
 99892 15399     cutoff   41      -1761398.1 -1299870.8  26.2%  1022 21957s
 100172 15358     cutoff   67      -1761398.1 -1302812.5  26.0%  1021 22005s
 100414 15314     cutoff   42      -1761398.1 -1304483.2  25.9%  1020 22034s
 100681 15264     cutoff   39      -1761398.1 -1307493.9  25.8%  1019 22062s
 100916 15201     cutoff   43      -1761398.1 -1309457.8  25.7%  1018 22080s
 101176 15164     cutoff   41      -1761398.1 -1311825.9  25.5%  1017 22105s
 101398 15118     cutoff   49      -1761398.1 -1314024.6  25.4%  1016 22127s
 101577 15053     cutoff   45      -1761398.1 -1316356.7  25.3%  1015 22164s
 101893 15023     cutoff   44      -1761398.1 -1318329.2  25.2%  1014 22204s
 102142 14976     cutoff   70      -1761398.1 -1320495.5  25.0%  1013 22237s
 102371 14916     cutoff   50      -1761398.1 -1322556.2  24.9%  1012 22257s
 102569 14841 -1470578.5   39   45 -1761398.1 -1324533.9  24.8%  1012 22278s
 102843 14795 -1745056.7   51   31 -1761398.1 -1326729.9  24.7%  1010 22306s
 103172 14766 -1468508.8   56   52 -1761398.1 -1328974.9  24.5%  1008 22321s
 103355 14697     cutoff   28      -1761398.1 -1331183.9  24.4%  1008 22338s
 103515 14617     cutoff   46      -1761398.1 -1333453.8  24.3%  1007 22378s
 103753 14567 -1711269.1   62  100 -1761398.1 -1335308.7  24.2%  1007 22399s
 103983 14504 -1422188.8   49   32 -1761398.1 -1337147.1  24.1%  1006 22425s
 104278 14476     cutoff   43      -1761398.1 -1339125.6  24.0%  1004 22445s
 104441 14405     cutoff   38      -1761398.1 -1341067.5  23.9%  1004 22467s
 104669 14342 -1663707.6   51   31 -1761398.1 -1342982.0  23.8%  1003 22502s
 104943 14276 -1751076.2   61   52 -1761398.1 -1344835.5  23.6%  1002 22524s
 105128 14201     cutoff   39      -1761398.1 -1346692.7  23.5%  1001 22554s
 105389 14138     cutoff   38      -1761398.1 -1348947.4  23.4%  1000 22582s
 105574 14065     cutoff   29      -1761398.1 -1351412.7  23.3%   999 22603s
 105743 13998     cutoff   51      -1761398.1 -1353432.2  23.2%   999 22626s
 105947 13934     cutoff   85      -1761398.1 -1355291.9  23.1%   998 22648s
 106205 13889     cutoff   53      -1761398.1 -1357635.2  22.9%   997 22661s
 106349 13807     cutoff   45      -1761398.1 -1359803.7  22.8%   997 22678s
 106578 13759 -1663798.8   38   31 -1761398.1 -1361662.0  22.7%   996 22701s
 106834 13714     cutoff   43      -1761398.1 -1363582.7  22.6%   995 22714s
 107002 13640     cutoff   39      -1761398.1 -1365272.2  22.5%   994 22739s
 107288 13598     cutoff   47      -1761398.1 -1367356.8  22.4%   993 22755s
 107511 13546     cutoff   49      -1761398.1 -1369632.8  22.2%   992 22773s
 107738 13481 -1630399.9   33   70 -1761398.1 -1371470.0  22.1%   991 22803s
 107950 13422     cutoff   39      -1761398.1 -1373112.2  22.0%   990 22824s
 108159 13373 -1445740.8   50  137 -1761398.1 -1374873.8  21.9%   989 22859s
 108407 13343     cutoff   47      -1761398.1 -1376633.8  21.8%   988 22892s
 108646 13289 -1397500.7   44  105 -1761398.1 -1378912.9  21.7%   987 22911s
 108851 13215     cutoff   58      -1761398.1 -1381089.9  21.6%   986 22929s
 109047 13148     cutoff   43      -1761398.1 -1383017.7  21.5%   985 22943s
 109228 13084     cutoff   44      -1761398.1 -1384545.5  21.4%   984 22962s
 109476 13037 -1441391.3   49   52 -1761398.1 -1386651.6  21.3%   983 22977s
 109687 12977 -1683117.7   35   78 -1761398.1 -1388735.7  21.2%   982 22990s
 109833 12903     cutoff   33      -1761398.1 -1390741.7  21.0%   982 23008s
 110062 12831     cutoff   45      -1761398.1 -1392670.1  20.9%   981 23024s
 110257 12771     cutoff   46      -1761398.1 -1394861.7  20.8%   980 23038s
 110462 12711     cutoff   70      -1761398.1 -1396778.4  20.7%   979 23055s
 110656 12640     cutoff   35      -1761398.1 -1398527.3  20.6%   978 23088s
 110903 12586     cutoff   49      -1761398.1 -1400825.9  20.5%   977 23108s
 111124 12532     cutoff   78      -1761398.1 -1402896.0  20.4%   976 23127s
 111337 12466     cutoff   47      -1761398.1 -1404616.7  20.3%   975 23152s
 111566 12436     cutoff   34      -1761398.1 -1406338.6  20.2%   974 23171s
 111761 12368     cutoff   37      -1761398.1 -1408499.7  20.0%   973 23191s
 111949 12296     cutoff   53      -1761398.1 -1410066.9  19.9%   972 23203s
 112147 12229     cutoff   74      -1761398.1 -1411826.4  19.8%   971 23216s
 112319 12155     cutoff   28      -1761398.1 -1413604.1  19.7%   970 23238s
 112479 12084     cutoff   50      -1761398.1 -1415357.7  19.6%   970 23255s
 112666 12017     cutoff   53      -1761398.1 -1417211.0  19.5%   969 23272s
 112848 11945     cutoff   63      -1761398.1 -1418944.9  19.4%   969 23286s
 113031 11883 -1428950.6   35  109 -1761398.1 -1420755.5  19.3%   968 23299s
 113228 11828 -1739231.4   39  100 -1761398.1 -1422740.6  19.2%   967 23316s
 113412 11767     cutoff   34      -1761398.1 -1424524.4  19.1%   966 23332s
 113634 11703     cutoff   35      -1761398.1 -1426765.6  19.0%   965 23351s
 113874 11646     cutoff   34      -1761398.1 -1428515.1  18.9%   964 23363s
 114073 11598     cutoff   38      -1761398.1 -1430289.8  18.8%   963 23378s
 114311 11542     cutoff   62      -1761398.1 -1431886.6  18.7%   962 23395s
 114492 11470 -1565825.4   43   69 -1761398.1 -1433658.0  18.6%   961 23419s
 114646 11393     cutoff   37      -1761398.1 -1435381.2  18.5%   961 23438s
 114870 11338     cutoff   43      -1761398.1 -1437101.4  18.4%   960 23452s
 115083 11274     cutoff   29      -1761398.1 -1439242.0  18.3%   959 23471s
 115278 11207     cutoff   62      -1761398.1 -1441107.7  18.2%   958 23485s
 115455 11133     cutoff   48      -1761398.1 -1442726.9  18.1%   957 23500s
 115685 11058     cutoff   38      -1761398.1 -1444099.0  18.0%   956 23512s
 115853 10977 -1656353.8   44   44 -1761398.1 -1445853.2  17.9%   956 23525s
 116020 10902 -1758468.1   57   96 -1761398.1 -1447626.7  17.8%   955 23536s
 116187 10835     cutoff   42      -1761398.1 -1449322.4  17.7%   954 23546s
 116316 10755     cutoff   45      -1761398.1 -1451023.8  17.6%   954 23556s
 116475 10684     cutoff   44      -1761398.1 -1452741.0  17.5%   953 23584s
 116645 10605     cutoff   55      -1761398.1 -1454254.7  17.4%   953 23600s
 116836 10536     cutoff   31      -1761398.1 -1456214.0  17.3%   952 23616s
 117009 10461     cutoff   48      -1761398.1 -1457995.9  17.2%   951 23629s
 117186 10390     cutoff   36      -1761398.1 -1459822.4  17.1%   951 23641s
 117346 10311     cutoff   66      -1761398.1 -1461215.4  17.0%   950 23656s
 117572 10259     cutoff   68      -1761398.1 -1462612.1  17.0%   949 23669s
 117744 10186     cutoff   45      -1761398.1 -1464400.2  16.9%   948 23678s
 117891 10111     cutoff   28      -1761398.1 -1466063.5  16.8%   948 23690s
 118044 10029     cutoff   50      -1761398.1 -1467642.5  16.7%   947 23701s
 118250  9982     cutoff   49      -1761398.1 -1469273.6  16.6%   946 23720s
 118512  9929     cutoff   58      -1761398.1 -1470906.3  16.5%   945 23735s
 118677  9862     cutoff   54      -1761398.1 -1472900.9  16.4%   944 23751s
 118842  9791     cutoff   56      -1761398.1 -1474746.3  16.3%   943 23765s
 119008  9714 -1541177.0   37  104 -1761398.1 -1476230.1  16.2%   943 23776s
 119168  9636 -1541819.2   54  120 -1761398.1 -1478023.7  16.1%   942 23786s
 119294  9561     cutoff   37      -1761398.1 -1479886.5  16.0%   941 23799s
 119439  9497     cutoff   43      -1761398.1 -1481989.5  15.9%   941 23806s
 119588  9421     cutoff   44      -1761398.1 -1483688.9  15.8%   940 23818s
 119764  9350     cutoff   46      -1761398.1 -1485797.0  15.6%   939 23828s
 119941  9288     cutoff   54      -1761398.1 -1487529.6  15.5%   938 23836s
 120076  9207     cutoff   52      -1761398.1 -1489194.2  15.5%   938 23854s
 120250  9129 infeasible   49      -1761398.1 -1491121.8  15.3%   937 23862s
 120423  9054 -1745049.6   30  113 -1761398.1 -1492834.8  15.2%   936 23870s
 120606  8986     cutoff   60      -1761398.1 -1494710.9  15.1%   935 23881s
 120753  8903     cutoff   49      -1761398.1 -1496367.2  15.0%   935 23887s
 120891  8831     cutoff   53      -1761398.1 -1498409.9  14.9%   934 24096s
 121058  8767     cutoff   38      -1761398.1 -1499973.5  14.8%   933 24106s
 121206  8693     cutoff   43      -1761398.1 -1502021.9  14.7%   933 24115s
 121357  8612     cutoff   66      -1761398.1 -1503460.3  14.6%   932 24122s
 121500  8528     cutoff   41      -1761398.1 -1505050.0  14.6%   931 24128s
 121631  8444     cutoff   45      -1761398.1 -1506833.8  14.5%   930 24136s
 121794  8370     cutoff   33      -1761398.1 -1508451.8  14.4%   930 24144s
 121997  8300 -1743463.0   48   71 -1761398.1 -1510293.0  14.3%   928 24152s
 122170  8218     cutoff   55      -1761398.1 -1511953.2  14.2%   928 24165s
 122328  8144     cutoff   56      -1761398.1 -1513340.9  14.1%   927 24176s
 122460  8066 -1536204.3   37   91 -1761398.1 -1515091.2  14.0%   926 24187s
 122634  7989     cutoff   64      -1761398.1 -1516714.2  13.9%   926 24193s
 122797  7916     cutoff   46      -1761398.1 -1518398.0  13.8%   925 24200s
 122926  7833     cutoff   47      -1761398.1 -1520111.0  13.7%   924 24207s
 123097  7770     cutoff   65      -1761398.1 -1521813.9  13.6%   923 24214s
 123223  7693     cutoff   54      -1761398.1 -1523210.3  13.5%   923 24219s
 123380  7618     cutoff   33      -1761398.1 -1524831.6  13.4%   922 24225s
 123529  7542     cutoff   39      -1761398.1 -1526693.9  13.3%   921 24234s
 123689  7466     cutoff   48      -1761398.1 -1528051.3  13.2%   920 24241s
 123847  7389     cutoff   71      -1761398.1 -1529863.1  13.1%   920 24248s
 123973  7306     cutoff   45      -1761398.1 -1531569.2  13.0%   919 24253s
 124091  7223     cutoff   58      -1761398.1 -1533149.7  13.0%   918 24273s
 124213  7142 -1535907.4   34   84 -1761398.1 -1535213.7  12.8%   918 24278s
 124326  7060     cutoff   38      -1761398.1 -1537137.0  12.7%   917 24285s
 124496  6990     cutoff   52      -1761398.1 -1538928.0  12.6%   916 24291s
 124639  6911 -1542279.3   56   86 -1761398.1 -1540564.2  12.5%   916 24302s
 124839  6838     cutoff   55      -1761398.1 -1542099.3  12.5%   915 24310s
 125087  6674     cutoff   46      -1761398.1 -1545564.2  12.3%   913 24322s
 125235  6593 -1695470.5   58   77 -1761398.1 -1547458.1  12.1%   913 24328s
 125379  6513     cutoff   55      -1761398.1 -1549320.7  12.0%   912 24334s
 125540  6436     cutoff   37      -1761398.1 -1550576.6  12.0%   911 24354s
 125668  6353     cutoff   44      -1761398.1 -1552263.6  11.9%   910 24359s
 125807  6275     cutoff   37      -1761398.1 -1553860.3  11.8%   910 24365s
 125959  6206     cutoff   39      -1761398.1 -1555441.9  11.7%   909 24373s
 126105  6127     cutoff   60      -1761398.1 -1556842.1  11.6%   908 24379s
 126218  6043     cutoff   66      -1761398.1 -1558474.4  11.5%   908 24386s
 126351  5970 -1571816.2   36   91 -1761398.1 -1560034.9  11.4%   907 24391s
 126477  5890     cutoff   49      -1761398.1 -1561590.7  11.3%   906 24395s
 126586  5806     cutoff   40      -1761398.1 -1563107.9  11.3%   906 24400s
 126814  5643     cutoff   68      -1761398.1 -1566165.3  11.1%   905 24408s
 126925  5560     cutoff   53      -1761398.1 -1567797.0  11.0%   904 24412s
 127040  5476     cutoff   49      -1761398.1 -1569685.2  10.9%   903 24417s
 127182  5403     cutoff   58      -1761398.1 -1571481.0  10.8%   903 24422s
 127315  5322     cutoff   34      -1761398.1 -1572946.3  10.7%   902 24428s
 127461  5244     cutoff   40      -1761398.1 -1574494.9  10.6%   901 24433s
 127589  5174     cutoff   39      -1761398.1 -1576161.0  10.5%   900 24438s
 127724  5093     cutoff   27      -1761398.1 -1577843.5  10.4%   900 24443s
 127839  5012     cutoff   36      -1761398.1 -1579561.3  10.3%   899 24447s
 127960  4929 -1640679.2   35   33 -1761398.1 -1581395.7  10.2%   899 24450s
 128074  4846 -1651972.2   53  197 -1761398.1 -1583199.1  10.1%   898 24455s
 128308  4679     cutoff   37      -1761398.1 -1586755.1  9.92%   897 24463s
 128432  4606     cutoff   38      -1761398.1 -1588422.5  9.82%   896 24467s
 128570  4527     cutoff   43      -1761398.1 -1590181.8  9.72%   895 24471s
 128667  4443     cutoff   56      -1761398.1 -1592165.0  9.61%   895 24475s
 128782  4360     cutoff   55      -1761398.1 -1593880.9  9.51%   894 24480s
 128927  4280     cutoff   85      -1761398.1 -1595670.9  9.41%   893 24485s
 129046  4200 -1677375.1   45   55 -1761398.1 -1597456.9  9.31%   893 24491s
 129175  4118     cutoff   38      -1761398.1 -1599406.4  9.20%   892 24497s
 129430  3962     cutoff   39      -1761398.1 -1603078.8  8.99%   891 24502s
 129629  3794     cutoff   59      -1761398.1 -1606468.5  8.80%   890 24508s
 129754  3712 -1652639.4   39   83 -1761398.1 -1608267.5  8.69%   889 24512s
 129868  3629 -1674040.0   35   62 -1761398.1 -1609936.8  8.60%   888 24516s
 129996  3546     cutoff   35      -1761398.1 -1611923.9  8.49%   888 24521s
 130197  3380     cutoff   45      -1761398.1 -1615747.1  8.27%   887 24525s
 130419  3215     cutoff   47      -1761398.1 -1619567.6  8.05%   885 24532s
 130546  3135     cutoff   47      -1761398.1 -1621605.0  7.94%   885 24535s
 130761  2970     cutoff   44      -1761398.1 -1625898.2  7.69%   884 24541s
 130978  2806     cutoff   33      -1761398.1 -1629906.4  7.47%   882 24546s
 131175  2642     cutoff   36      -1761398.1 -1634442.9  7.21%   881 24550s
 131468  2390     cutoff   36      -1761398.1 -1640649.7  6.86%   879 24557s
 131574  2306     cutoff   44      -1761398.1 -1642916.3  6.73%   879 24561s
 131676  2222     cutoff   52      -1761398.1 -1645167.4  6.60%   878 24565s
 132007  1973     cutoff   58      -1761398.1 -1651953.3  6.21%   876 24571s
 132299  1722     cutoff   35      -1761398.1 -1659204.1  5.80%   875 24577s
 132492  1554     cutoff   56      -1761398.1 -1665016.4  5.47%   873 24581s
 132800  1303     cutoff   84      -1761398.1 -1674508.2  4.93%   872 24585s
 133103  1053     cutoff   57      -1761398.1 -1684117.6  4.39%   870 24597s
 133387   801     cutoff   81      -1761398.1 -1693618.3  3.85%   868 24600s
 133782   465     cutoff   84      -1761398.1 -1709463.5  2.95%   866 24605s
 134163   130     cutoff   72      -1761398.1 -1735638.5  1.46%   863 24610s

Cutting planes:
  Gomory: 34
  Implied bound: 15
  Projected implied bound: 13
  MIR: 93
  Flow cover: 489
  Mod-K: 1

Explored 134387 nodes (115951131 simplex iterations) in 24613.20 seconds
Thread count was 4 (of 16 available processors)

Solution count 10: -1.7614e+06 -1.7614e+06 -1.7614e+06 ... -2.52305e+06

Optimal solution found (tolerance 1.00e-04)
Best objective -1.761398090000e+06, best bound -1.761398088623e+06, gap 0.0000%

***
***  |- Calculation finished, took 24,613.22 (24613.22) sec.
***  |-----------------------------------------------------------------------------------------------------------------------
***
*****************************************************************************************************************************
#############################################################################################################################
###
### Results
###
### The objective of the solution is -1,761,398.09 (-1761398.09) and is feasible with a Gap of 0.0
###
### Service 42 (SAMBA) is operated by 7 vessels from type 18 (PMax25)
###  |- Vessel 1 has the path [143, 77, 78, 5, 0]
###  |  143 (USMSY Out@238.0) - 77 (ESALG In@607.0/Out@631.0) - 78 (ESALG In@613.0/Out@658.0) - 5 (ARBUE In@1088.0/Out@1112.0
###  |  ) - 0 (DUMMY_END Ziel-Service 42)
###  |   |- and carried Demand  98, 392.0 containers from  78 to   5
###  |   |- and carried Demand  99,  13.0 containers from  78 to   5
###  |   |- and carried Demand 490, 392.0 containers from  77 to   5
###  |   |- and carried Demand 491,  13.0 containers from  77 to   5
###  |   |- and carried Demand 494,  59.0 containers from  77 to   5
###  |   |- and carried Demand 495,   6.0 containers from  77 to   5
###  |   |- and carried Demand 496, 126.0 containers from  77 to   5
###  |- Vessel 2 has the path [144, 4, 0]
###  |  144 (USMSY Out@406.0) - 4 (ARBUE In@920.0/Out@944.0) - 0 (DUMMY_END Ziel-Service 42)
###  |- Vessel 3 has the path [145, 79, 80, 81, 82, 83, 85, 86, 87, 88, 94, 55, 51, 11, 12, 0]
###  |  145 (USMSY Out@574.0) - 79 (ESALG In@775.0/Out@799.0) - 80 (ESALG In@829.0/Out@853.0) - 81 (ESALG In@943.0/Out@967.0)
###  |   - 82 (ESALG In@1045.0/Out@1075.0) - 83 (ESALG In@1111.0/Out@1135.0) - 85 (ESALG In@1213.0/Out@1243.0) - 86 (ESALG In
###  |  @1279.0/Out@1303.0) - 87 (ESALG In@1381.0/Out@1411.0) - 88 (ESALG In@1447.0/Out@1471.0) - 94 (ESLPA In@1521.0/Out@154
###  |  5.0) - 55 (BRSUA In@1691.0/Out@1715.0) - 51 (BRSSZ In@1788.0/Out@1808.0) - 11 (ARBUE In@1862.0/Out@1905.0) - 12 (ARBU
###  |  E In@1928.0/Out@1952.0) - 0 (DUMMY_END Ziel-Service 42)
###  |   |- and carried Demand   7, 200.0 containers from  82 to  12
###  |   |- and carried Demand  20,  57.0 containers from  85 to  11
###  |   |- and carried Demand  24,  16.0 containers from  85 to  11
###  |   |- and carried Demand  26,  47.0 containers from  87 to  51
###  |   |- and carried Demand  29,   8.0 containers from  87 to  11
###  |   |- and carried Demand  30, 224.0 containers from  87 to  11
###  |   |- and carried Demand  31,  58.0 containers from  87 to  12
###  |   |- and carried Demand  32,   5.0 containers from  87 to  12
###  |   |- and carried Demand  33, 159.0 containers from  87 to  11
###  |   |- and carried Demand  71,  12.0 containers from  51 to  11
###  |   |- and carried Demand 156, 239.0 containers from  80 to  11
###  |   |- and carried Demand 157,   8.0 containers from  80 to  11
###  |   |- and carried Demand 161,  19.0 containers from  80 to  11
###  |   |- and carried Demand 176,   8.0 containers from  88 to  11
###  |   |- and carried Demand 177, 224.0 containers from  88 to  11
###  |   |- and carried Demand 178,  58.0 containers from  88 to  12
###  |   |- and carried Demand 179,   5.0 containers from  88 to  12
###  |   |- and carried Demand 180, 159.0 containers from  88 to  11
###  |   |- and carried Demand 249,  57.0 containers from  86 to  11
###  |   |- and carried Demand 253,  16.0 containers from  86 to  11
###  |   |- and carried Demand 322, 200.0 containers from  83 to  12
###  |   |- and carried Demand 382, 239.0 containers from  81 to  11
###  |   |- and carried Demand 383,   8.0 containers from  81 to  11
###  |   |- and carried Demand 387,  19.0 containers from  81 to  11
###  |   |- and carried Demand 441, 488.0 containers from  79 to  12
###  |   |- and carried Demand 442,   5.0 containers from  79 to  12
###  |- Vessel 4 has the path [146, 6, 0]
###  |  146 (USMSY Out@742.0) - 6 (ARBUE In@1256.0/Out@1280.0) - 0 (DUMMY_END Ziel-Service 42)
###  |- Vessel 5 has the path [147, 8, 0]
###  |  147 (USMSY Out@910.0) - 8 (ARBUE In@1424.0/Out@1448.0) - 0 (DUMMY_END Ziel-Service 42)
###  |- Vessel 6 has the path [148, 9, 0]
###  |  148 (USMSY Out@1078.0) - 9 (ARBUE In@1592.0/Out@1616.0) - 0 (DUMMY_END Ziel-Service 42)
###  |- Vessel 7 has the path [149, 10, 0]
###  |  149 (USMSY Out@1246.0) - 10 (ARBUE In@1760.0/Out@1784.0) - 0 (DUMMY_END Ziel-Service 42)
###  |
### Vessels not used in the solution: []
###  |-----------------------------------------------------------------------------------------------------------------------
###
#############################################################################################################################

### Detialed variable overview

### All variables with value greater zero:
rho[42,18] = 1
eta[42,18,1] = 1
eta[42,18,2] = 1
eta[42,18,3] = 1
eta[42,18,4] = 1
eta[42,18,5] = 1
eta[42,18,6] = 1
eta[42,18,7] = 1
y[1,77,78] = 1
y[1,5,0] = 1
y[1,143,77] = 1
y[1,78,5] = 1
y[2,4,0] = 1
y[2,144,4] = 1
y[3,94,55] = 1
y[3,85,86] = 1
y[3,80,81] = 1
y[3,145,79] = 1
y[3,11,12] = 1
y[3,86,87] = 1
y[3,51,11] = 1
y[3,12,0] = 1
y[3,83,85] = 1
y[3,81,82] = 1
y[3,79,80] = 1
y[3,87,88] = 1
y[3,55,51] = 1
y[3,82,83] = 1
y[3,88,94] = 1
y[4,6,0] = 1
y[4,146,6] = 1
y[5,8,0] = 1
y[5,147,8] = 1
y[6,9,0] = 1
y[6,148,9] = 1
y[7,149,10] = 1
y[7,10,0] = 1
xD[7,94,55] = 200
xD[7,85,86] = 200
xD[7,11,12] = 200
xD[7,86,87] = 200
xD[7,51,11] = 200
xD[7,83,85] = 200
xD[7,87,88] = 200
xD[7,55,51] = 200
xD[7,82,83] = 200
xD[7,88,94] = 200
xD[20,94,55] = 57
xD[20,85,86] = 57
xD[20,86,87] = 57
xD[20,51,11] = 57
xD[20,87,88] = 57
xD[20,55,51] = 57
xD[20,88,94] = 57
xD[24,94,55] = 16
xD[24,85,86] = 16
xD[24,86,87] = 16
xD[24,51,11] = 16
xD[24,87,88] = 16
xD[24,55,51] = 16
xD[24,88,94] = 16
xD[26,94,55] = 47
xD[26,87,88] = 47
xD[26,55,51] = 47
xD[26,88,94] = 47
xD[29,94,55] = 8
xD[29,51,11] = 8
xD[29,87,88] = 8
xD[29,55,51] = 8
xD[29,88,94] = 8
xD[30,94,55] = 224
xD[30,51,11] = 224
xD[30,87,88] = 224
xD[30,55,51] = 224
xD[30,88,94] = 224
xD[31,94,55] = 58
xD[31,11,12] = 58
xD[31,51,11] = 58
xD[31,87,88] = 58
xD[31,55,51] = 58
xD[31,88,94] = 58
xD[32,94,55] = 5
xD[32,11,12] = 5
xD[32,51,11] = 5
xD[32,87,88] = 5
xD[32,55,51] = 5
xD[32,88,94] = 5
xD[33,94,55] = 159
xD[33,51,11] = 159
xD[33,87,88] = 159
xD[33,55,51] = 159
xD[33,88,94] = 159
xD[71,51,11] = 12
xD[98,78,5] = 392
xD[99,78,5] = 13
xD[156,94,55] = 239
xD[156,85,86] = 239
xD[156,80,81] = 239
xD[156,86,87] = 239
xD[156,51,11] = 239
xD[156,83,85] = 239
xD[156,81,82] = 239
xD[156,87,88] = 239
xD[156,55,51] = 239
xD[156,82,83] = 239
xD[156,88,94] = 239
xD[157,94,55] = 8
xD[157,85,86] = 8
xD[157,80,81] = 8
xD[157,86,87] = 8
xD[157,51,11] = 8
xD[157,83,85] = 8
xD[157,81,82] = 8
xD[157,87,88] = 8
xD[157,55,51] = 8
xD[157,82,83] = 8
xD[157,88,94] = 8
xD[161,94,55] = 19
xD[161,85,86] = 19
xD[161,80,81] = 19
xD[161,86,87] = 19
xD[161,51,11] = 19
xD[161,83,85] = 19
xD[161,81,82] = 19
xD[161,87,88] = 19
xD[161,55,51] = 19
xD[161,82,83] = 19
xD[161,88,94] = 19
xD[176,94,55] = 8
xD[176,51,11] = 8
xD[176,55,51] = 8
xD[176,88,94] = 8
xD[177,94,55] = 224
xD[177,51,11] = 224
xD[177,55,51] = 224
xD[177,88,94] = 224
xD[178,94,55] = 58
xD[178,11,12] = 58
xD[178,51,11] = 58
xD[178,55,51] = 58
xD[178,88,94] = 58
xD[179,94,55] = 5
xD[179,11,12] = 5
xD[179,51,11] = 5
xD[179,55,51] = 5
xD[179,88,94] = 5
xD[180,94,55] = 159
xD[180,51,11] = 159
xD[180,55,51] = 159
xD[180,88,94] = 159
xD[249,94,55] = 57
xD[249,86,87] = 57
xD[249,51,11] = 57
xD[249,87,88] = 57
xD[249,55,51] = 57
xD[249,88,94] = 57
xD[253,94,55] = 16
xD[253,86,87] = 16
xD[253,51,11] = 16
xD[253,87,88] = 16
xD[253,55,51] = 16
xD[253,88,94] = 16
xD[322,94,55] = 200
xD[322,85,86] = 200
xD[322,11,12] = 200
xD[322,86,87] = 200
xD[322,51,11] = 200
xD[322,83,85] = 200
xD[322,87,88] = 200
xD[322,55,51] = 200
xD[322,88,94] = 200
xD[382,94,55] = 239
xD[382,85,86] = 239
xD[382,86,87] = 239
xD[382,51,11] = 239
xD[382,83,85] = 239
xD[382,81,82] = 239
xD[382,87,88] = 239
xD[382,55,51] = 239
xD[382,82,83] = 239
xD[382,88,94] = 239
xD[383,94,55] = 8
xD[383,85,86] = 8
xD[383,86,87] = 8
xD[383,51,11] = 8
xD[383,83,85] = 8
xD[383,81,82] = 8
xD[383,87,88] = 8
xD[383,55,51] = 8
xD[383,82,83] = 8
xD[383,88,94] = 8
xD[387,94,55] = 19
xD[387,85,86] = 19
xD[387,86,87] = 19
xD[387,51,11] = 19
xD[387,83,85] = 19
xD[387,81,82] = 19
xD[387,87,88] = 19
xD[387,55,51] = 19
xD[387,82,83] = 19
xD[387,88,94] = 19
xD[441,94,55] = 488
xD[441,85,86] = 488
xD[441,80,81] = 488
xD[441,11,12] = 488
xD[441,86,87] = 488
xD[441,51,11] = 488
xD[441,83,85] = 488
xD[441,81,82] = 488
xD[441,79,80] = 488
xD[441,87,88] = 488
xD[441,55,51] = 488
xD[441,82,83] = 488
xD[441,88,94] = 488
xD[442,94,55] = 5
xD[442,85,86] = 5
xD[442,80,81] = 5
xD[442,11,12] = 5
xD[442,86,87] = 5
xD[442,51,11] = 5
xD[442,83,85] = 5
xD[442,81,82] = 5
xD[442,79,80] = 5
xD[442,87,88] = 5
xD[442,55,51] = 5
xD[442,82,83] = 5
xD[442,88,94] = 5
xD[490,77,78] = 392
xD[490,78,5] = 392
xD[491,77,78] = 13
xD[491,78,5] = 13
xD[494,77,78] = 59
xD[494,78,5] = 59
xD[495,77,78] = 6
xD[495,78,5] = 6
xD[496,77,78] = 126
xD[496,78,5] = 126
zE[4] = 920
zE[5] = 1088
zE[6] = 1256
zE[8] = 1424
zE[9] = 1592
zE[10] = 1760
zE[11] = 1862
zE[12] = 1928
zE[51] = 1788
zE[55] = 1691
zE[77] = 607
zE[78] = 613
zE[79] = 775
zE[80] = 829
zE[81] = 943
zE[82] = 1045
zE[83] = 1111
zE[85] = 1213
zE[86] = 1279
zE[87] = 1381
zE[88] = 1447
zE[94] = 1521
zX[4] = 944
zX[5] = 1112
zX[6] = 1280
zX[8] = 1448
zX[9] = 1616
zX[10] = 1784
zX[11] = 1905
zX[12] = 1952
zX[51] = 1808
zX[55] = 1715
zX[77] = 631
zX[78] = 658
zX[79] = 799
zX[80] = 853
zX[81] = 967
zX[82] = 1075
zX[83] = 1135
zX[85] = 1243
zX[86] = 1303
zX[87] = 1411
zX[88] = 1471
zX[94] = 1545
zX[143] = 238
zX[144] = 406
zX[145] = 574
zX[146] = 742
zX[147] = 910
zX[148] = 1078
zX[149] = 1246
phi[1] = 874
phi[2] = 538
phi[3] = 1378
phi[4] = 538
phi[5] = 538
phi[6] = 538
phi[7] = 538

### All variables with value smaller zero:

### End

real	411m11.042s
user	1562m19.387s
sys	77m18.920s
	Freetype 2.4.12 environment removed
	Python 3.6.0 environment removed
	Gurobi 8.1.0 environment removed
