	Freetype 2.4.12 environment established
		library to render fonts
	Python 3.6.0 environment established
	Gurobi 8.1.0 environment established
Instance LSFRP: LSFDRP_5_3_0_1_fr.p
Instance LSFDP: LSFDRP_5_3_0_1_fd_25.p

*****************************************************************************************************************************
*** Solve LSFDRP_5_3_0_1_fd_25 with Gurobi
***
*** Graph info
*** |S|: 7
*** |S^E|: 0
*** |S^C|: 0
*** |V|: 162
*** |A|: 2732
*** |A^i|: 2732
*** |A^f|: 0
*** |M|: 532
*** |E|: 0

Changed value of parameter TimeLimit to 86400.0
   Prev: 1e+100  Min: 0.0  Max: 1e+100  Default: 1e+100
Changed value of parameter Threads to 4
   Prev: 0  Min: 0  Max: 1024  Default: 0
Optimize a model with 93584 rows, 1478335 columns and 5126353 nonzeros
Variable types: 1459203 continuous, 19132 integer (19132 binary)
Coefficient statistics:
  Matrix range     [1e+00, 3e+03]
  Objective range  [2e+00, 2e+07]
  Bounds range     [1e+00, 1e+00]
  RHS range        [1e+00, 7e+00]
Presolve removed 85980 rows and 1446473 columns (presolve time = 5s) ...
Presolve removed 85980 rows and 1448308 columns (presolve time = 14s) ...
Presolve removed 85980 rows and 1448310 columns (presolve time = 15s) ...
Warning: Failed to open log file 'gurobi.log'
Presolve removed 86020 rows and 1448313 columns
Presolve time: 17.98s
Presolved: 7564 rows, 30022 columns, 158246 nonzeros
Variable types: 20242 continuous, 9780 integer (9773 binary)

Root simplex log...

Iteration    Objective       Primal Inf.    Dual Inf.      Time
       0    4.5132313e+09   1.089818e+06   0.000000e+00     19s
   17092    6.4651775e+07   3.637095e+05   0.000000e+00     20s
   31365    1.1646830e+07   7.506589e+05   0.000000e+00     25s
   41962    8.6253185e+06   8.702480e+05   0.000000e+00     30s
   51786    5.8815298e+06   1.738447e+06   0.000000e+00     35s
   59466    3.9475117e+06   2.374252e+05   0.000000e+00     40s
   67127    3.4208047e+06   1.875176e+05   0.000000e+00     45s
   73797    3.0238354e+06   4.387202e+04   0.000000e+00     50s
   79347    2.8926746e+06   2.417837e+04   0.000000e+00     55s
   84507    2.8498173e+06   1.612556e+02   0.000000e+00     60s
   85079    2.8496089e+06   0.000000e+00   0.000000e+00     61s

Root relaxation: objective 2.849609e+06, 85079 iterations, 41.80 seconds

    Nodes    |    Current Node    |     Objective Bounds      |     Work
 Expl Unexpl |  Obj  Depth IntInf | Incumbent    BestBd   Gap | It/Node Time

     0     0 2849608.93    0  205          - 2849608.93      -     -   61s
H    0     0                    -5444257.549 2849608.93   152%     -   61s
H    0     0                    -5350295.934 2849608.93   153%     -   61s
H    0     0                    -3431247.701 2849608.93   183%     -   63s
     0     0 2834629.27    0  228 -3431247.7 2834629.27   183%     -   69s
     0     0 2775513.63    0  223 -3431247.7 2775513.63   181%     -   76s
     0     0 2774279.68    0  212 -3431247.7 2774279.68   181%     -   77s
     0     0 2770825.86    0  220 -3431247.7 2770825.86   181%     -   78s
     0     0 2767529.14    0  217 -3431247.7 2767529.14   181%     -   80s
     0     0 2767525.68    0  216 -3431247.7 2767525.68   181%     -   80s
     0     0 2767525.68    0  216 -3431247.7 2767525.68   181%     -   80s
     0     0 2764978.51    0  218 -3431247.7 2764978.51   181%     -   83s
H    0     0                    -2852874.551 2764978.51   197%     -   86s
     0     0 2762496.58    0  218 -2852874.6 2762496.58   197%     -   87s
     0     0 2761392.59    0  221 -2852874.6 2761392.59   197%     -   88s
     0     0 2761117.20    0  221 -2852874.6 2761117.20   197%     -   88s
     0     0 2760403.43    0  222 -2852874.6 2760403.43   197%     -   88s
     0     0 2757558.62    0  213 -2852874.6 2757558.62   197%     -   89s
     0     0 2755271.40    0  219 -2852874.6 2755271.40   197%     -   90s
     0     0 2755246.38    0  220 -2852874.6 2755246.38   197%     -   90s
     0     0 2754337.02    0  220 -2852874.6 2754337.02   197%     -   91s
     0     0 2754311.48    0  221 -2852874.6 2754311.48   197%     -   91s
     0     0 2753112.59    0  219 -2852874.6 2753112.59   197%     -   92s
     0     0 2751931.38    0  221 -2852874.6 2751931.38   196%     -   95s
     0     0 2751444.50    0  215 -2852874.6 2751444.50   196%     -   95s
     0     0 2751435.78    0  215 -2852874.6 2751435.78   196%     -   96s
     0     0 2747678.92    0  217 -2852874.6 2747678.92   196%     -   97s
     0     0 2746927.81    0  230 -2852874.6 2746927.81   196%     -   99s
     0     0 2746784.31    0  226 -2852874.6 2746784.31   196%     -   99s
     0     0 2746765.97    0  219 -2852874.6 2746765.97   196%     -   99s
     0     0 2746765.97    0  219 -2852874.6 2746765.97   196%     -  100s
     0     0 2746734.74    0  221 -2852874.6 2746734.74   196%     -  101s
     0     0 2746734.74    0  221 -2852874.6 2746734.74   196%     -  101s
     0     0 2745754.77    0  215 -2852874.6 2745754.77   196%     -  102s
     0     0 2745754.77    0  215 -2852874.6 2745754.77   196%     -  103s
     0     0 2745743.74    0  216 -2852874.6 2745743.74   196%     -  103s
     0     0 2745729.65    0  216 -2852874.6 2745729.65   196%     -  104s
     0     0 2745729.65    0  214 -2852874.6 2745729.65   196%     -  117s
     0     2 2745729.65    0  214 -2852874.6 2745729.65   196%     -  145s
     1     4 2251962.73    1  220 -2852874.6 2742723.70   196% 19065  180s
     3     8 2203433.16    2  198 -2852874.6 2251836.57   179% 17765  199s
     7    12 2163998.66    3  217 -2852874.6 2202905.00   177% 13972  212s
    11    16 2087196.30    4  178 -2852874.6 2202905.00   177% 11230  231s
    15    19 1995584.24    5  188 -2852874.6 2202905.00   177% 11555  251s
    19    23 1847352.61    6  181 -2852874.6 2202905.00   177% 12044  265s
    23    21 1516571.90    7  190 -2852874.6 2202905.00   177% 12622  278s
H   27    32                    -2603019.065 2202905.00   185% 11940  295s
H   28    32                    -2516717.465 2202905.00   188% 12009  295s
H   29    32                    -2052389.135 2202905.00   207% 11888  295s
    31    27 1422933.57    8  196 -2052389.1 2202905.00   207% 12111  304s
    37    39 1355055.54    9  199 -2052389.1 2202905.00   207% 10780  329s
    43    42 1150929.60   10  158 -2052389.1 2202905.00   207% 10543  338s
    50    53 1139986.19   11  158 -2052389.1 2202905.00   207%  9537  349s
    59    60 1129904.60   12  170 -2052389.1 2202905.00   207%  8510  355s
    66    66 1089523.02   13  184 -2052389.1 2202905.00   207%  7770  365s
    76    79 -65438.914   14  152 -2052389.1 2202905.00   207%  7274  383s
    83    85 1034159.56   14  192 -2052389.1 2202905.00   207%  7065  395s
    90    88 853811.027   16  150 -2052389.1 2202905.00   207%  6958  403s
    97    98 130977.940   16   95 -2052389.1 2202905.00   207%  6799  414s
   109   108 630012.409   17  120 -2052389.1 2202905.00   207%  6379  422s
   118   115 570288.775   17  132 -2052389.1 2202905.00   207%  6178  433s
   137   133 19165.7718   18  114 -2052389.1 2202905.00   207%  5564  440s
   154   142 427598.473   19  111 -2052389.1 2202905.00   207%  5077  446s
   174   157 -681305.15   21  119 -2052389.1 2202905.00   207%  4768  479s
   185   161 16929.4702   22   86 -2052389.1 2202905.00   207%  4677  507s
H  213   181                    -2052389.135 2202905.00   207%  4363  522s
   237   202 -481603.38   41   85 -2052389.1 2202905.00   207%  4013  542s
   265   219     cutoff   51      -2052389.1 2202905.00   207%  3738  555s
   295   235 -1099780.3   64   69 -2052389.1 2202905.00   207%  3471  568s
   317   235 -1428153.4   78   71 -2052389.1 2087196.30   202%  3352  583s
   347   246 1314370.71    4  151 -2052389.1 2087196.30   202%  3182  596s
   364   259 845648.836    5  142 -2052389.1 2087196.30   202%  3182  611s
   376   262 427997.638    8  140 -2052389.1 2087196.30   202%  3213  632s
   395   268 -373630.83   10   97 -2052389.1 2087196.30   202%  3194  648s
H  399   270                    -2023765.904 2087196.30   203%  3212  648s
   408   274 -799158.39   12   61 -2023765.9 2087196.30   203%  3189  659s
   460   323     cutoff   28      -2023765.9 1741295.93   186%  2896  693s
   480   337 1562174.23    6  156 -2023765.9 1741195.45   186%  2911  704s
   492   345 1041439.35    8  142 -2023765.9 1741195.45   186%  2933  715s
   517   368 833252.299   13  116 -2023765.9 1741195.45   186%  2903  727s
   566   413 68638.0998   18   82 -2023765.9 1741195.45   186%  2760  742s
   628   451 -1338934.9   41   64 -2023765.9 1618461.43   180%  2586  756s
   649   461 719028.698    7  135 -2023765.9 1618461.43   180%  2603  776s
   659   474 658457.402    8  125 -2023765.9 1618461.43   180%  2655  791s
   684   489 128544.095   10  104 -2023765.9 1618461.43   180%  2673  812s
   708   498 -435707.49   13   96 -2023765.9 1618461.43   180%  2635  830s
   759   539 -1449891.1   28   54 -2023765.9 1515674.30   175%  2556  846s
   798   558 576466.335    5  153 -2023765.9 1515674.30   175%  2537  879s
   844   584 359900.454    6  109 -2023765.9 1515674.30   175%  2521  905s
   895   616 -1330415.9   13   87 -2023765.9 1393757.25   169%  2456  928s
   956   668 858148.128   10  115 -2023765.9 1393665.62   169%  2398  946s
   991   676 64446.5220   14  125 -2023765.9 1393665.62   169%  2405  969s
  1079   735 34166.8238   11  214 -2023765.9 1393665.62   169%  2292 1018s
  1081   736 -1388749.8   16  195 -2023765.9 1393665.62   169%  2288 1056s
  1082   737 840932.465   15  207 -2023765.9 1393665.62   169%  2286 1066s
  1084   738 89138.5989   18  194 -2023765.9 1393665.62   169%  2281 1070s
  1085   739 -1133417.8   57  198 -2023765.9 1393665.62   169%  2279 1084s
  1086   740 -1858229.2   39  197 -2023765.9 1393665.62   169%  2277 1085s
  1087   740 -978643.97   22  197 -2023765.9 1393665.62   169%  2275 1102s
  1088   744 1393665.62   12  220 -2023765.9 1393665.62   169%  2374 1149s
  1090   747 1393665.62   13  227 -2023765.9 1393665.62   169%  2382 1201s
  1094   750 1393665.62   14  196 -2023765.9 1393665.62   169%  2445 1238s
  1098   753 1393665.62   14  205 -2023765.9 1393665.62   169%  2476 1286s
  1102   755 1393665.62   15  178 -2023765.9 1393665.62   169%  2510 1299s
  1106   758 1393665.62   15  142 -2023765.9 1393665.62   169%  2507 1316s
  1110   762 1393665.62   16  184 -2023765.9 1393665.62   169%  2524 1339s
  1115   760 1393665.62   16  160 -2023765.9 1393665.62   169%  2545 1357s
  1119   762 1393665.62   17  158 -2023765.9 1393665.62   169%  2548 1372s
  1123   769 1393665.62   17  180 -2023765.9 1393665.62   169%  2572 1388s
  1129   770 1393665.62   18  163 -2023765.9 1393665.62   169%  2598 1402s
  1136   769 1393665.62   19  151 -2023765.9 1393665.62   169%  2619 1410s
  1141   779 1252970.91   19  149 -2023765.9 1393665.62   169%  2629 1425s
  1145   780 1131428.09   20  132 -2023765.9 1393665.62   169%  2653 1451s
  1152   785 1102082.40   21  140 -2023765.9 1393665.62   169%  2687 1470s
  1162   791 663875.887   22  114 -2023765.9 1393665.62   169%  2714 1484s
  1170   798 576213.618   23  114 -2023765.9 1393665.62   169%  2740 1498s
  1182   804 -234988.40   25  130 -2023765.9 1393665.62   169%  2756 1515s
  1192   811 -237684.58   26  129 -2023765.9 1393665.62   169%  2772 1533s
  1208   810 -404555.97   29  108 -2023765.9 1393665.62   169%  2794 1549s
  1220   824 -404555.97   31  109 -2023765.9 1393665.62   169%  2808 1560s
  1237   830 -1701181.2   35   83 -2023765.9 1393665.62   169%  2797 1570s
  1257   841 -834013.64   37   84 -2023765.9 1393665.62   169%  2788 1581s
  1276   845 -770693.53   40  112 -2023765.9 1393665.62   169%  2777 1593s
  1302   854 -1924063.1   47   87 -2023765.9 1393665.62   169%  2757 1606s
  1329   850 -1537328.2   51   89 -2023765.9 1393665.62   169%  2737 1616s
  1371   855 -1608584.3   60  139 -2023765.9 1393665.62   169%  2679 1638s
  1407   857 1393665.62   15  194 -2023765.9 1393665.62   169%  2637 1656s
  1440   860 1338474.42   18  157 -2023765.9 1393665.62   169%  2614 1679s
  1476   854 1072766.35   18  154 -2023765.9 1393665.62   169%  2582 1697s
  1493   853 1117160.55   17  144 -2023765.9 1393665.62   169%  2584 1715s
  1498   851 1393665.62   16  190 -2023765.9 1393665.62   169%  2613 1729s
  1514   854 1098011.07   17  162 -2023765.9 1393665.62   169%  2615 1749s
  1539   851 1208425.06   20  116 -2023765.9 1393665.62   169%  2602 1769s
  1553   865 1190782.35   19  154 -2023765.9 1393665.62   169%  2617 1784s
  1568   870 594196.090   21  102 -2023765.9 1393665.62   169%  2612 1803s
  1595   889 760491.954   25  158 -2023765.9 1393665.62   169%  2606 1819s
  1625   908 689684.699   27  147 -2023765.9 1393665.62   169%  2590 1842s
H 1663   863                    -1795041.313 1393665.62   178%  2578 1860s
  1678   880 -279326.85   30   85 -1795041.3 1393665.62   178%  2584 1878s
  1720   896 -439625.65   31  115 -1795041.3 1393665.62   178%  2562 1896s
  1758   899 -759567.18   36   94 -1795041.3 1393665.62   178%  2556 1913s
H 1774   869                    -1761398.090 1393665.62   179%  2542 1913s
  1817   868     cutoff   46      -1761398.1 1393665.62   179%  2517 1934s
  1880   892 -1723963.1   81  110 -1761398.1 1393665.62   179%  2474 1959s
  1930   905 723399.021   21  116 -1761398.1 1393665.62   179%  2470 1984s
  1954   916 405805.035   21  140 -1761398.1 1393665.62   179%  2478 2009s
  2005   931 -179216.65   25   81 -1761398.1 1393665.62   179%  2471 2060s
  2058   941 -407967.99   26   77 -1761398.1 1393665.62   179%  2464 2085s
  2120   953 -1338070.8   36   45 -1761398.1 1393665.62   179%  2439 2111s
  2192   980 467010.999   20  153 -1761398.1 1252970.91   171%  2419 2139s
  2222   989 606202.910   21  166 -1761398.1 1252970.91   171%  2430 2168s
  2279  1012 366083.026   24  145 -1761398.1 1252970.91   171%  2414 2198s
  2324  1022 165917.937   26  124 -1761398.1 1252970.91   171%  2420 2230s
  2404  1047 112937.172   28  122 -1761398.1 1252970.91   171%  2392 2263s
  2505  1073 60504.6605   31  120 -1761398.1 1252970.91   171%  2347 2292s
  2635  1122 -48500.165   34  128 -1761398.1 1252970.91   171%  2281 2321s
  2685  1132 -705338.98   39  120 -1761398.1 1252970.91   171%  2293 2350s
  2783  1140 -1000849.1   50   98 -1761398.1 1243574.39   171%  2270 2386s
  2904  1167 429833.170   22  133 -1761398.1 1007855.80   157%  2235 2428s
  2962  1176 853220.216   23  111 -1761398.1 1007855.80   157%  2246 2466s
  3025  1181 -1045538.9   26   96 -1761398.1 1002485.49   157%  2254 2513s
  3166  1259 -1381628.1   26   99 -1761398.1 958497.658   154%  2206 2553s
H 3191  1267                    -1761398.090 956388.102   154%  2201 2553s
  3292  1324 -136891.64   26  113 -1761398.1 925043.835   153%  2169 2603s
  3405  1386 -7441.3882   26  115 -1761398.1 925043.835   153%  2151 2648s
  3533  1481     cutoff   34      -1761398.1 925043.835   153%  2129 2700s
  3671  1549 -577069.40   44  118 -1761398.1 925043.835   153%  2109 2745s
  3851  1618 -1035302.9   54  114 -1761398.1 925043.835   153%  2068 2787s
  4068  1687     cutoff  111      -1761398.1 775161.048   144%  2008 2835s
  4258  1775 155217.547   22  124 -1761398.1 734200.753   142%  1963 2884s
  4436  1857 -1260667.0   23  103 -1761398.1 709758.832   140%  1927 2946s
  4631  1955 -527984.90   27   59 -1761398.1 695534.749   139%  1898 3015s
  4783  2010 -597802.19   36  128 -1761398.1 695534.749   139%  1883 3093s
  4989  2139     cutoff   53      -1761398.1 664188.761   138%  1851 3176s
  5244  2295     cutoff   29      -1761398.1 637366.442   136%  1814 3256s
  5490  2436 -1047805.7   25  115 -1761398.1 624065.907   135%  1781 3341s
  5809  2587 -1071638.5   23   99 -1761398.1 593463.159   134%  1739 3427s
  6069  2737 -706632.68   33  148 -1761398.1 561854.484   132%  1715 3541s
  6301  2831 72652.7996   36   90 -1761398.1 529820.164   130%  1694 3666s
  6636  2989 -1034012.1   26  109 -1761398.1 504070.737   129%  1662 3769s
  6932  3099 -540284.77   39  117 -1761398.1 468140.121   127%  1641 3876s
  7115  3162 -1561892.9   27   83 -1761398.1 447936.300   125%  1647 3993s
  7485  3375     cutoff   35      -1761398.1 420118.933   124%  1614 4116s
  7793  3527 -1085554.4   31  118 -1761398.1 405612.101   123%  1600 4234s
  8114  3660 206283.991   23  112 -1761398.1 393817.896   122%  1588 4359s
  8513  3845 -422211.33   36  124 -1761398.1 379986.188   122%  1568 4494s
  8789  3971 15188.8260   35  120 -1761398.1 375051.752   121%  1558 4636s
  9136  4163 -426490.70   27   73 -1761398.1 348246.658   120%  1542 4767s
  9601  4366 -680592.31   30  124 -1761398.1 310074.180   118%  1514 4927s
H 9845  4482                    -1761398.030 307477.417   117%  1504 4927s
 10086  4570 -878776.14   42   78 -1761398.0 291345.187   117%  1493 5079s
H10383  4753                    -1761397.864 281866.785   116%  1476 5079s
 10672  4874     cutoff   58      -1761397.9 258062.531   115%  1459 5229s
 11289  5158 -362640.97   57  128 -1761397.9 225292.863   113%  1431 5382s
 11880  5422 -411903.43   23  105 -1761397.9 212399.095   112%  1403 5545s
 12632  5767     cutoff   32      -1761397.9 173885.219   110%  1363 5692s
 13262  6055 -1521806.4   24   94 -1761397.9 149375.308   108%  1344 5849s
 13794  6218 -361515.80   56  101 -1761397.9 118080.462   107%  1333 5997s
 14415  6492 -1354496.8   26   77 -1761397.9 88588.6701   105%  1310 6127s
 14909  6690 -1036181.8   41   93 -1761397.9 58866.5967   103%  1300 6269s
 15504  6957 -318154.70   24   90 -1761397.9 49882.2322   103%  1286 6407s
 16090  7195 -1704128.3   33  118 -1761397.9 30501.7245   102%  1272 6528s
 16603  7317 -1676172.8   35   95 -1761397.9   72.31613   100%  1265 6652s
 17065  7445 -1699384.7   40   71 -1761397.9 -30557.328  98.3%  1255 6787s
 17639  7642 -1520664.6   37  120 -1761397.9 -48661.669  97.2%  1243 6908s
 18068  7767 -919982.39   41  100 -1761397.9 -70140.542  96.0%  1236 7034s
 18627  7952     cutoff   22      -1761397.9 -83922.132  95.2%  1226 7155s
 19067  8120 -1016775.8   33  116 -1761397.9 -93873.268  94.7%  1218 7284s
 19697  8319 -982798.80   34   42 -1761397.9 -111343.40  93.7%  1202 7398s
 20256  8534 -639246.31   33   71 -1761397.9 -130230.20  92.6%  1192 7511s
 20905  8757 -1252942.2   28   65 -1761397.9 -146579.70  91.7%  1179 9777s
 21550  8975 -1141999.7   33   59 -1761397.9 -161144.76  90.9%  1166 9872s
 21892  9056 -1271780.1   31  121 -1761397.9 -173456.34  90.2%  1167 9949s
 22365  9239 -607095.81   30  161 -1761397.9 -181932.27  89.7%  1162 10020s
 22779  9349 -661056.44   23  128 -1761397.9 -197090.98  88.8%  1161 10091s
 23118  9449     cutoff   28      -1761397.9 -207499.94  88.2%  1164 10180s
 23205  9434 -1138411.6   34  132 -1761397.9 -210894.98  88.0%  1166 10260s
 23618  9542 -1244116.5   37  124 -1761397.9 -218334.26  87.6%  1167 10333s
 24038  9651 -1024019.5   34  106 -1761397.9 -229897.48  86.9%  1166 10401s
 24549  9778     cutoff   29      -1761397.9 -243846.96  86.2%  1161 10473s
 24949  9846 -1688795.1   39   86 -1761397.9 -254230.81  85.6%  1162 10542s
 25363  9942 -1228568.4   55   78 -1761397.9 -265360.57  84.9%  1162 10618s
 25758 10080 -635722.54   26  108 -1761397.9 -272701.73  84.5%  1161 10690s
 26117 10137     cutoff   36      -1761397.9 -280128.10  84.1%  1164 10770s
 26433 10195     cutoff   34      -1761397.9 -285748.84  83.8%  1168 10850s
 26758 10250 -1039290.6   24   69 -1761397.9 -300103.00  83.0%  1172 10928s
 27142 10338 -1486361.9   28  107 -1761397.9 -310919.54  82.3%  1174 11008s
 27685 10478 -876202.51   34   57 -1761397.9 -320884.11  81.8%  1169 11091s
 28149 10623 -1033336.1   26  114 -1761397.9 -329450.45  81.3%  1168 11164s
 28624 10726     cutoff   32      -1761397.9 -345654.52  80.4%  1166 11237s
 29053 10837     cutoff   24      -1761397.9 -352510.46  80.0%  1164 11311s
 29393 10907 -1353941.0   51   75 -1761397.9 -361607.46  79.5%  1166 11384s
 29800 11027 -1171079.2   25  115 -1761397.9 -365553.84  79.2%  1166 11465s
 30221 11099 -1630058.9   48   91 -1761397.9 -372862.96  78.8%  1166 11540s
 30683 11208 -1379569.1   34   92 -1761397.9 -381345.11  78.3%  1165 11618s
 31080 11265 -894279.58   45  145 -1761397.9 -390418.64  77.8%  1166 11685s
 31488 11368 -1058322.0   23  103 -1761397.9 -398443.75  77.4%  1166 11764s
 31906 11464 infeasible   63      -1761397.9 -406724.78  76.9%  1165 11834s
 32297 11542 -1692244.1   72   77 -1761397.9 -413534.37  76.5%  1167 11911s
 32665 11621 -1297579.2   35  106 -1761397.9 -422756.34  76.0%  1169 11990s
 33095 11656 -779186.23   23  118 -1761397.9 -428578.94  75.7%  1169 12072s
 33573 11766 -889726.68   26  121 -1761397.9 -437615.38  75.2%  1168 12143s
 34023 11874 -891190.70   31   82 -1761397.9 -440188.56  75.0%  1166 12218s
 34372 11950 -1624058.8   31   97 -1761397.9 -453069.31  74.3%  1168 12311s
 34608 11959 -1115009.0   23  113 -1761397.9 -456829.07  74.1%  1168 12388s
 35073 12043     cutoff   74      -1761397.9 -466515.25  73.5%  1167 12461s
 35562 12131 -1553445.0   35   43 -1761397.9 -473016.59  73.1%  1166 12544s
 35970 12209 -1641229.9   25  112 -1761397.9 -481626.54  72.7%  1166 12615s
 36304 12297 -1299593.3   43  145 -1761397.9 -487134.15  72.3%  1168 12689s
 36772 12426 -752377.85   45  133 -1761397.9 -495616.60  71.9%  1166 12762s
 37306 12536 -1469989.7   24  113 -1761397.9 -505137.79  71.3%  1163 12835s
 37790 12607 -1414579.0   28  113 -1761397.9 -512951.71  70.9%  1161 12908s
 38126 12648 -1053690.0   31   78 -1761397.9 -520975.81  70.4%  1163 12990s
 38577 12724 -1392815.7   23   99 -1761397.9 -526894.92  70.1%  1162 13058s
 39042 12844     cutoff   33      -1761397.9 -535246.56  69.6%  1161 13125s
 39403 12919 -1204489.3   36  102 -1761397.9 -537538.56  69.5%  1161 13217s
 39872 12975     cutoff   29      -1761397.9 -545650.93  69.0%  1160 13285s
 40411 13131     cutoff   61      -1761397.9 -553051.82  68.6%  1156 13350s
 40833 13190 -1186895.4   30  111 -1761397.9 -559160.80  68.3%  1156 13422s
 41229 13225 -1204438.9   27   85 -1761397.9 -566237.74  67.9%  1157 13520s
 41627 13288     cutoff   30      -1761397.9 -573356.51  67.4%  1155 13585s
 42057 13337 -886408.21   45  129 -1761397.9 -580306.25  67.1%  1156 13661s
 42437 13405 -1140846.6   32  108 -1761397.9 -588670.97  66.6%  1157 13733s
 42842 13459     cutoff   27      -1761397.9 -593861.89  66.3%  1157 13804s
 43295 13532     cutoff   47      -1761397.9 -600581.04  65.9%  1157 13871s
 43693 13577 -1294046.9   40  136 -1761397.9 -608399.54  65.5%  1157 13939s
 44119 13648     cutoff   39      -1761397.9 -615904.02  65.0%  1158 14033s
 44531 13724     cutoff   36      -1761397.9 -622118.15  64.7%  1157 14099s
 45049 13781 -1167414.2   17  142 -1761397.9 -633301.49  64.0%  1155 14166s
 45406 13828 -1420343.7   24  161 -1761397.9 -639737.48  63.7%  1156 14234s
 45835 13895 -1441219.0   37   99 -1761397.9 -644482.49  63.4%  1155 14301s
 46294 13937     cutoff   34      -1761397.9 -654571.52  62.8%  1154 14368s
 46839 14056 -1069063.5   33   77 -1761397.9 -662310.86  62.4%  1150 14441s
 47420 14150 -1000261.4   41  144 -1761397.9 -670031.25  62.0%  1147 14507s
 47914 14266 -1554925.8   34  107 -1761397.9 -678278.65  61.5%  1145 14570s
 48361 14344 -1394600.3   25   83 -1761397.9 -682962.51  61.2%  1143 14633s
 48743 14390     cutoff   85      -1761397.9 -691584.96  60.7%  1144 14695s
 49235 14470     cutoff   24      -1761397.9 -696219.51  60.5%  1142 14756s
 49639 14510     cutoff   37      -1761397.9 -703545.97  60.1%  1142 14823s
 49957 14514 -1459769.7   44   76 -1761397.9 -707378.57  59.8%  1143 14887s
 50377 14565 -1187789.0   26  124 -1761397.9 -713380.20  59.5%  1143 14949s
 50764 14578 -956856.55   56  115 -1761397.9 -718654.34  59.2%  1143 15013s
 51276 14632 -1548196.0   29   86 -1761397.9 -728708.90  58.6%  1141 15075s
 51611 14636 -1636718.5   30  105 -1761397.9 -732234.37  58.4%  1141 15137s
 51990 14679     cutoff   21      -1761397.9 -738634.27  58.1%  1142 15218s
 52457 14735 -1159883.0   31  134 -1761397.9 -744445.34  57.7%  1140 15288s
 52942 14797 -858184.03   34  108 -1761397.9 -751496.50  57.3%  1138 15353s
 53345 14844 -833161.78   31  106 -1761397.9 -754859.21  57.1%  1137 15413s
 53838 14879 -1130450.2   71  116 -1761397.9 -763491.10  56.7%  1135 15473s
 54232 14899     cutoff   25      -1761397.9 -770226.26  56.3%  1134 15535s
 54661 14919     cutoff   34      -1761397.9 -775115.79  56.0%  1133 15594s
 55092 14944 -1263804.6   38   55 -1761397.9 -780887.84  55.7%  1132 15658s
 55559 15013     cutoff   41      -1761397.9 -789495.02  55.2%  1131 15717s
 55972 15109 -1107578.3   19   81 -1761397.9 -793972.34  54.9%  1130 15833s
 56283 15110     cutoff   46      -1761397.9 -797108.86  54.7%  1129 15894s
 56664 15134     cutoff   53      -1761397.9 -801696.01  54.5%  1128 15958s
 57089 15149 -1484706.9   31   60 -1761397.9 -810568.51  54.0%  1127 16016s
 57489 15167     cutoff   38      -1761397.9 -815170.92  53.7%  1127 16078s
 57989 15254 -1049728.0   35  140 -1761397.9 -821825.48  53.3%  1125 16145s
 58171 15197 -1667139.5   77  116 -1761397.9 -823514.48  53.2%  1126 16211s
 58613 15230 -1537466.7   28   75 -1761397.9 -829220.43  52.9%  1125 16269s
 59083 15258     cutoff   31      -1761397.9 -834677.54  52.6%  1123 16332s
 59520 15303 -1096082.3   31  134 -1761397.9 -838914.13  52.4%  1122 16391s
 59966 15397 -905737.74   28  159 -1761397.9 -845314.67  52.0%  1121 16465s
 60116 15344 -1660922.1   35  149 -1761397.9 -846199.09  52.0%  1121 16527s
 60579 15384 -1007220.9   37   45 -1761397.9 -851763.10  51.6%  1119 16587s
 60917 15381 -1355879.1   45   72 -1761397.9 -855154.03  51.5%  1120 16647s
 61441 15446 -1620320.1   27   93 -1761397.9 -859407.24  51.2%  1117 16704s
 61891 15512     cutoff   50      -1761397.9 -864176.06  50.9%  1116 16764s
 62359 15569 -1457484.5   92   81 -1761397.9 -871451.59  50.5%  1114 16822s
 62762 15628 -1108995.8   39   87 -1761397.9 -876750.80  50.2%  1113 16886s
 63283 15677 -1452718.8   35   80 -1761397.9 -881096.97  50.0%  1110 16942s
 63765 15765 -1680223.9   35   70 -1761397.9 -884993.53  49.8%  1108 17001s
 64162 15747     cutoff   35      -1761397.9 -889646.57  49.5%  1108 17057s
 64530 15746 -1180264.8   36   85 -1761397.9 -895529.84  49.2%  1107 17111s
 64922 15747 -1056703.1   28  116 -1761397.9 -901626.98  48.8%  1107 17166s
 65399 15783 -1547330.2   27   90 -1761397.9 -902781.94  48.7%  1105 17220s
 65894 15801 -1218602.0   34   82 -1761397.9 -912947.43  48.2%  1103 17274s
 66406 15843 -936247.92   50   57 -1761397.9 -918827.65  47.8%  1100 17329s
 66816 15885     cutoff   31      -1761397.9 -922223.48  47.6%  1098 17394s
 67319 15964 -1109454.1   48  106 -1761397.9 -927057.87  47.4%  1095 17448s
 67706 15984     cutoff   52      -1761397.9 -933267.30  47.0%  1094 17499s
 68224 16049     cutoff   32      -1761397.9 -937705.67  46.8%  1091 17551s
 68672 16066 -1420481.8   42  105 -1761397.9 -942139.10  46.5%  1090 17600s
 69140 16119 -1372587.0   46   89 -1761397.9 -946532.85  46.3%  1087 17651s
 69435 16095 -1743667.9   34  123 -1761397.9 -949870.59  46.1%  1088 17715s
 69842 16103 -1295106.2   35   74 -1761397.9 -953949.98  45.8%  1086 17791s
 70314 16123     cutoff   36      -1761397.9 -961755.50  45.4%  1084 17861s
 70690 16131 -1054794.8   57  117 -1761397.9 -965791.74  45.2%  1082 17937s
 71072 16150 -1498178.3   45   43 -1761397.9 -966825.38  45.1%  1081 17989s
 71484 16163 -1154336.5   46   78 -1761397.9 -974172.14  44.7%  1080 18039s
 71934 16215     cutoff   27      -1761397.9 -978508.86  44.4%  1078 18089s
 72407 16251 -1296471.1  112  113 -1761397.9 -982379.07  44.2%  1076 18142s
 72785 16272 -1277260.6   22  159 -1761397.9 -984922.54  44.1%  1076 18211s
 73215 16301 -1174874.6   29   91 -1761397.9 -987652.44  43.9%  1074 18269s
 73569 16302     cutoff   44      -1761397.9 -991990.71  43.7%  1073 18339s
 73957 16281 -1543556.9   27  166 -1761397.9 -999167.90  43.3%  1072 18405s
 74482 16311     cutoff   52      -1761397.9 -1003355.3  43.0%  1069 18453s
 74841 16301 -1748775.2   29   89 -1761397.9 -1007481.1  42.8%  1068 18506s
 75182 16283     cutoff   35      -1761397.9 -1010951.8  42.6%  1067 18554s
 75593 16291 -1488876.1   41   64 -1761397.9 -1015909.0  42.3%  1066 18600s
 76051 16308 -1036461.0   28   85 -1761397.9 -1020227.1  42.1%  1064 18648s
 76588 16359 -1409650.3   30  166 -1761397.9 -1023279.4  41.9%  1061 18694s
 76879 16329 -1234032.1   30   54 -1761397.9 -1027257.2  41.7%  1062 18734s
 77293 16321 -1048437.3   30   63 -1761397.9 -1030960.9  41.5%  1060 18775s
 77710 16325 -1297626.5   37   67 -1761397.9 -1034623.0  41.3%  1058 18820s
 78139 16315 -1052071.0   28  116 -1761397.9 -1037827.1  41.1%  1056 18864s
 78587 16366 -1171717.5   29   74 -1761397.9 -1041810.4  40.9%  1054 18968s
 78869 16310 -1644961.7   46   55 -1761397.9 -1043866.8  40.7%  1053 19010s
 79351 16346     cutoff   33      -1761397.9 -1049151.1  40.4%  1050 19054s
 79689 16310 -1709375.3   35  110 -1761397.9 -1053191.0  40.2%  1049 19104s
 80078 16303     cutoff   33      -1761397.9 -1056925.1  40.0%  1047 19160s
 80592 16337     cutoff   33      -1761397.9 -1060664.8  39.8%  1044 19204s
 81012 16315 -1513020.1   43   36 -1761397.9 -1064517.0  39.6%  1043 19239s
 81459 16312     cutoff   47      -1761397.9 -1068262.1  39.4%  1040 19280s
 81855 16303     cutoff   35      -1761397.9 -1071262.0  39.2%  1039 19331s
 82295 16317 -1550569.2   82  125 -1761397.9 -1074910.0  39.0%  1037 19398s
 82641 16303     cutoff   79      -1761397.9 -1078780.1  38.8%  1036 19437s
 82996 16264     cutoff   43      -1761397.9 -1081115.4  38.6%  1034 19495s
 83335 16241 -1577780.7   42   65 -1761397.9 -1085744.8  38.4%  1033 19533s
 83709 16229     cutoff   66      -1761397.9 -1089109.8  38.2%  1032 19573s
 84179 16243     cutoff   38      -1761397.9 -1092040.5  38.0%  1029 19613s
 84564 16222 -1350669.2   33  106 -1761397.9 -1095780.3  37.8%  1027 19668s
 84894 16192     cutoff   36      -1761397.9 -1099850.0  37.6%  1025 19706s
 85195 16159     cutoff   33      -1761397.9 -1103058.0  37.4%  1024 19772s
 85557 16134     cutoff   55      -1761397.9 -1105346.8  37.2%  1023 19825s
 85979 16129     cutoff   30      -1761397.9 -1108781.3  37.1%  1022 19878s
 86286 16095     cutoff   35      -1761397.9 -1112146.8  36.9%  1021 19931s
 86614 16051 -1294874.3   55   95 -1761397.9 -1114985.5  36.7%  1019 19967s
 86987 16035 -1244635.4   44   56 -1761397.9 -1119724.7  36.4%  1017 20022s
 87448 16026     cutoff   32      -1761397.9 -1122843.7  36.3%  1015 20133s
 87706 15999     cutoff   42      -1761397.9 -1125536.3  36.1%  1014 20162s
 88076 15982     cutoff   47      -1761397.9 -1129944.6  35.8%  1012 20203s
 88450 15959 -1527887.8   44   86 -1761397.9 -1134030.0  35.6%  1010 20239s
 88747 15914     cutoff   51      -1761397.9 -1136612.0  35.5%  1010 20276s
 89106 15929 -1179910.1   32   29 -1761397.9 -1139983.7  35.3%  1008 20318s
 89431 15878 -1557915.7   36  113 -1761397.9 -1143055.1  35.1%  1008 20373s
 89788 15841     cutoff   51      -1761397.9 -1145900.7  34.9%  1006 20410s
 90130 15798     cutoff   32      -1761397.9 -1149191.1  34.8%  1005 20465s
 90501 15766     cutoff   30      -1761397.9 -1152871.0  34.5%  1004 20500s
 90823 15724 -1308254.5   37  106 -1761397.9 -1156099.2  34.4%  1003 20538s
 91201 15700     cutoff   50      -1761397.9 -1158300.9  34.2%  1001 20577s
 91529 15659 -1242242.4   39   89 -1761397.9 -1161134.4  34.1%   999 20616s
 91908 15638 -1184560.6   34   76 -1761397.9 -1165275.1  33.8%   998 20652s
 92251 15609     cutoff   31      -1761397.9 -1168569.8  33.7%   996 20690s
 92645 15578 -1615707.1   69   77 -1761397.9 -1172069.1  33.5%   994 20724s
 92998 15567     cutoff   28      -1761397.9 -1174808.0  33.3%   993 20772s
 93245 15508 -1743055.1   22  147 -1761397.9 -1175143.2  33.3%   992 20813s
 93641 15483     cutoff   69      -1761397.9 -1180079.0  33.0%   990 20848s
 93951 15459     cutoff   39      -1761397.9 -1183661.0  32.8%   989 20881s
 94295 15417 -1520518.2   34   74 -1761397.9 -1186520.2  32.6%   987 20901s
 94623 15372 -1259205.8   66   95 -1761397.9 -1189288.4  32.5%   985 20945s
 94958 15345     cutoff   40      -1761397.9 -1191846.5  32.3%   984 20987s
 95367 15331 -1727807.6   58   69 -1761397.9 -1195171.7  32.1%   983 21025s
 95729 15309     cutoff  122      -1761397.9 -1198462.0  32.0%   981 21070s
 96080 15269     cutoff   34      -1761397.9 -1200911.0  31.8%   980 21095s
 96419 15254 -1704966.1   70   61 -1761397.9 -1203571.5  31.7%   978 21129s
 96725 15217     cutoff   26      -1761397.9 -1206845.9  31.5%   977 21156s
 97086 15186 -1745471.0   33   79 -1761397.9 -1209878.8  31.3%   975 21187s
 97399 15141 -1652505.5   35  101 -1761397.9 -1212671.9  31.2%   974 21220s
 97713 15104     cutoff   47      -1761397.9 -1216351.4  30.9%   973 21250s
 98072 15061 -1338201.1   29  143 -1761397.9 -1218852.0  30.8%   972 21291s
 98389 15049 infeasible   53      -1761397.9 -1221153.5  30.7%   971 21322s
 98689 14990 -1613391.0   70   83 -1761397.9 -1223696.7  30.5%   970 21351s
 99006 14950     cutoff   37      -1761397.9 -1226464.4  30.4%   968 21372s
 99379 14918 -1466153.9   45  110 -1761397.9 -1228978.1  30.2%   966 21395s
 99679 14867     cutoff   63      -1761397.9 -1231507.1  30.1%   965 21423s
 100009 14848     cutoff   29      -1761397.9 -1234053.9  29.9%   963 21453s
 100301 14795 -1288129.5   56  101 -1761397.9 -1236623.4  29.8%   962 21478s
 100635 14753 -1333075.0   30   91 -1761397.9 -1239780.4  29.6%   961 21499s
 100913 14692 -1448230.3   52  109 -1761397.9 -1242020.1  29.5%   960 21525s
 101218 14652 -1495873.6   61   71 -1761397.9 -1244518.1  29.3%   959 21556s
 101430 14596     cutoff   56      -1761397.9 -1245896.8  29.3%   958 21587s
 101710 14536     cutoff   36      -1761397.9 -1249224.0  29.1%   958 21616s
 102082 14533 infeasible   47      -1761397.9 -1251907.4  28.9%   957 21642s
 102363 14477     cutoff   39      -1761397.9 -1254829.1  28.8%   956 21665s
 102673 14435 -1456349.6   33   89 -1761397.9 -1257462.5  28.6%   954 21690s
 103000 14383     cutoff   44      -1761397.9 -1259605.8  28.5%   953 21711s
 103280 14341     cutoff   35      -1761397.9 -1262130.0  28.3%   952 21733s
 103611 14275     cutoff   36      -1761397.9 -1264989.1  28.2%   951 21761s
 103903 14212 -1644436.5   37   70 -1761397.9 -1267370.8  28.0%   950 21788s
 104235 14164 -1359699.7  104  112 -1761397.9 -1269877.8  27.9%   948 21806s
 104502 14102     cutoff   38      -1761397.9 -1272444.1  27.8%   947 21825s
 104789 14063     cutoff   51      -1761397.9 -1274564.0  27.6%   946 21844s
 104992 13991 -1282100.0   23  141 -1761397.9 -1277353.7  27.5%   945 21868s
 105296 13934     cutoff   65      -1761397.9 -1279595.6  27.4%   944 21890s
 105550 13885     cutoff   41      -1761397.9 -1282597.8  27.2%   943 21917s
 105851 13829     cutoff   64      -1761397.9 -1285121.1  27.0%   942 21944s
 106159 13805     cutoff   50      -1761397.9 -1287592.9  26.9%   942 21974s
 106382 13744     cutoff   32      -1761397.9 -1288465.9  26.8%   941 21994s
 106655 13692 -1330046.4  139   71 -1761397.9 -1291443.9  26.7%   940 22023s
 106908 13632     cutoff   40      -1761397.9 -1293669.5  26.6%   939 22045s
 107194 13560     cutoff   45      -1761397.9 -1296399.3  26.4%   938 22064s
 107426 13500     cutoff   56      -1761397.9 -1298905.3  26.3%   937 22086s
 107693 13462     cutoff   40      -1761397.9 -1301485.1  26.1%   936 22100s
 107892 13383 -1520419.6   94   57 -1761397.9 -1304178.3  26.0%   936 22124s
 108143 13310     cutoff   49      -1761397.9 -1306814.8  25.8%   935 22136s
 108381 13243 -1395687.6   24  122 -1761397.9 -1309274.2  25.7%   934 22153s
 108608 13178 -1419587.6   32   72 -1761397.9 -1311861.2  25.5%   933 22171s
 108881 13116     cutoff   24      -1761397.9 -1314122.1  25.4%   932 22196s
 109189 13085 -1614651.0   33   54 -1761397.9 -1316775.7  25.2%   930 22212s
 109417 13014     cutoff  181      -1761397.9 -1319163.9  25.1%   929 22226s
 109711 12963     cutoff   51      -1761397.9 -1321239.2  25.0%   928 22247s
 109970 12898     cutoff   29      -1761397.9 -1323534.0  24.9%   927 22262s
 110212 12836     cutoff   36      -1761397.9 -1326444.2  24.7%   926 22278s
 110487 12777     cutoff   61      -1761397.9 -1329113.5  24.5%   925 22293s
 110747 12723     cutoff   42      -1761397.9 -1331537.2  24.4%   924 22315s
 111041 12672     cutoff   44      -1761397.9 -1333949.0  24.3%   922 22353s
 111260 12605     cutoff   50      -1761397.9 -1335741.5  24.2%   921 22370s
 111535 12554 -1478621.7   26   86 -1761397.9 -1338690.8  24.0%   920 22385s
 111776 12488     cutoff   36      -1761397.9 -1341032.3  23.9%   919 22404s
 112040 12469     cutoff   48      -1761397.9 -1343531.8  23.7%   918 22547s
 112185 12388 -1587703.3   32   70 -1761397.9 -1344751.5  23.7%   917 22563s
 112409 12316     cutoff   30      -1761397.9 -1347932.2  23.5%   917 22580s
 112597 12238 -1607341.5   48   37 -1761397.9 -1350168.5  23.3%   916 22600s
 112883 12198 -1382996.8   33   74 -1761397.9 -1352278.9  23.2%   915 22624s
 113142 12128 -1689609.7  175   63 -1761397.9 -1355053.2  23.1%   914 22645s
 113409 12071     cutoff   45      -1761397.9 -1357480.7  22.9%   913 22657s
 113649 12013     cutoff   37      -1761397.9 -1359553.9  22.8%   912 22672s
 113842 11937     cutoff   37      -1761397.9 -1361551.8  22.7%   911 22687s
 114070 11863     cutoff   33      -1761397.9 -1363541.7  22.6%   910 22712s
 114270 11795 -1697483.3   46  111 -1761397.9 -1365879.9  22.5%   910 22723s
 114496 11744     cutoff   28      -1761397.9 -1368240.8  22.3%   908 22735s
 114712 11678     cutoff   29      -1761397.9 -1370243.3  22.2%   908 22756s
 114973 11622     cutoff   49      -1761397.9 -1372191.1  22.1%   907 22770s
 115166 11545     cutoff   43      -1761397.9 -1374057.8  22.0%   906 22783s
 115372 11477     cutoff   51      -1761397.9 -1376027.2  21.9%   905 22793s
 115548 11405     cutoff   40      -1761397.9 -1377840.6  21.8%   905 22807s
 115722 11325     cutoff   31      -1761397.9 -1380248.2  21.6%   904 22821s
 115948 11263     cutoff   68      -1761397.9 -1382572.9  21.5%   903 22834s
 116186 11198     cutoff   34      -1761397.9 -1384809.9  21.4%   902 22852s
 116375 11135 -1574199.6   31   66 -1761397.9 -1387164.8  21.2%   901 22866s
 116608 11058     cutoff   31      -1761397.9 -1389872.8  21.1%   900 22880s
 116804 10978 -1473330.4   24   75 -1761397.9 -1392071.2  21.0%   900 22893s
 116997 10897 -1697291.5   97   69 -1761397.9 -1394015.2  20.9%   899 22904s
 117223 10838     cutoff   27      -1761397.9 -1396006.6  20.7%   898 22915s
 117447 10768     cutoff   43      -1761397.9 -1398284.1  20.6%   897 22928s
 117644 10694     cutoff   41      -1761397.9 -1400708.2  20.5%   896 22940s
 117845 10622     cutoff   74      -1761397.9 -1402748.8  20.4%   895 22961s
 118031 10547     cutoff   43      -1761397.9 -1405247.8  20.2%   895 22971s
 118238 10480     cutoff   43      -1761397.9 -1407313.0  20.1%   894 22984s
 118434 10412 -1496004.3   40   34 -1761397.9 -1408986.4  20.0%   893 22997s
 118650 10339 -1550387.2   85   93 -1761397.9 -1410915.8  19.9%   892 23008s
 118833 10262 -1645131.9   50   84 -1761397.9 -1412943.4  19.8%   892 23022s
 119067 10188     cutoff   35      -1761397.9 -1415393.9  19.6%   891 23035s
 119301 10121     cutoff   40      -1761397.9 -1417580.8  19.5%   890 23044s
 119525 10061 -1502429.1   35   55 -1761397.9 -1419653.5  19.4%   888 23057s
 119701  9982     cutoff   63      -1761397.9 -1421620.0  19.3%   888 23071s
 119865  9905     cutoff   28      -1761397.9 -1423577.5  19.2%   888 23083s
 120051  9831 -1555447.3   25   97 -1761397.9 -1425931.2  19.0%   887 23092s
 120316  9768 -1601445.8   28   27 -1761397.9 -1427779.1  18.9%   885 23103s
 120485  9690 -1559793.1   36   41 -1761397.9 -1429719.6  18.8%   885 23119s
 120686  9624     cutoff   44      -1761397.9 -1431974.1  18.7%   884 23127s
 120839  9552     cutoff   66      -1761397.9 -1433873.0  18.6%   884 23138s
 121017  9496     cutoff   29      -1761397.9 -1435615.0  18.5%   883 23148s
 121188  9423     cutoff   45      -1761397.9 -1437479.5  18.4%   882 23170s
 121393  9347     cutoff   43      -1761397.9 -1439734.7  18.3%   881 23180s
 121575  9281     cutoff   40      -1761397.9 -1441840.8  18.1%   881 23188s
 121735  9203 -1749944.7   27   70 -1761397.9 -1444264.5  18.0%   880 23198s
 121944  9130     cutoff   42      -1761397.9 -1446259.9  17.9%   879 23207s
 122143  9060     cutoff   35      -1761397.9 -1448462.7  17.8%   878 23220s
 122318  8996     cutoff   43      -1761397.9 -1450481.5  17.7%   878 23239s
 122497  8922     cutoff   98      -1761397.9 -1452528.6  17.5%   877 23250s
 122638  8839     cutoff   44      -1761397.9 -1454222.6  17.4%   877 23258s
 122814  8766 -1490260.9   22   59 -1761397.9 -1455967.9  17.3%   876 23269s
 123013  8694     cutoff   42      -1761397.9 -1457884.2  17.2%   875 23281s
 123214  8624     cutoff   31      -1761397.9 -1460164.6  17.1%   874 23290s
 123411  8557     cutoff   29      -1761397.9 -1461799.6  17.0%   873 23299s
 123583  8473 -1655643.8   82  111 -1761397.9 -1463880.7  16.9%   873 23308s
 123819  8416     cutoff   32      -1761397.9 -1465922.3  16.8%   872 23320s
 124036  8356     cutoff   37      -1761397.9 -1467683.4  16.7%   871 23330s
 124227  8285     cutoff   41      -1761397.9 -1469319.8  16.6%   870 23335s
 124379  8208     cutoff   29      -1761397.9 -1471180.1  16.5%   869 23344s
 124530  8124 -1726801.1   41   54 -1761397.9 -1473146.0  16.4%   869 23352s
 124745  8063     cutoff   51      -1761397.9 -1475177.3  16.2%   868 23360s
 124901  7985 -1638537.6   54   81 -1761397.9 -1477219.0  16.1%   867 23373s
 125101  7918     cutoff   38      -1761397.9 -1478826.6  16.0%   866 23386s
 125277  7848     cutoff   36      -1761397.9 -1480943.9  15.9%   866 23394s
 125427  7765     cutoff   64      -1761397.9 -1483197.2  15.8%   865 23401s
 125605  7687     cutoff   55      -1761397.9 -1485314.0  15.7%   864 23411s
 125778  7618     cutoff   24      -1761397.9 -1487181.6  15.6%   863 23416s
 125922  7541     cutoff   42      -1761397.9 -1488929.2  15.5%   863 23421s
 126057  7461     cutoff  123      -1761397.9 -1490938.8  15.4%   862 23430s
 126190  7384     cutoff   45      -1761397.9 -1492955.7  15.2%   862 23440s
 126387  7314     cutoff   42      -1761397.9 -1495028.8  15.1%   861 23448s
 126541  7241     cutoff   46      -1761397.9 -1496604.3  15.0%   860 23454s
 126728  7172     cutoff   33      -1761397.9 -1498718.2  14.9%   860 23460s
 126880  7099     cutoff   54      -1761397.9 -1500476.6  14.8%   859 23467s
 127037  7020     cutoff   44      -1761397.9 -1502248.6  14.7%   858 23474s
 127183  6955     cutoff   59      -1761397.9 -1504277.6  14.6%   858 23481s
 127354  6875 -1522946.5   75   44 -1761397.9 -1506315.4  14.5%   857 23488s
 127491  6801     cutoff   37      -1761397.9 -1508076.4  14.4%   856 23492s
 127620  6718     cutoff   32      -1761397.9 -1510644.8  14.2%   856 23499s
 127787  6640     cutoff   41      -1761397.9 -1512804.0  14.1%   855 23509s
 127958  6560 -1514795.5   54   74 -1761397.9 -1514795.5  14.0%   854 23515s
 128123  6490     cutoff   55      -1761397.9 -1516554.2  13.9%   854 23520s
 128270  6407     cutoff   31      -1761397.9 -1518737.9  13.8%   853 23526s
 128419  6331     cutoff   32      -1761397.9 -1520668.7  13.7%   852 23532s
 128568  6252     cutoff   28      -1761397.9 -1522491.2  13.6%   852 23539s
 128726  6170     cutoff   32      -1761397.9 -1524753.1  13.4%   851 23545s
 128845  6087     cutoff  108      -1761397.9 -1526598.8  13.3%   850 23552s
 128985  6008     cutoff   55      -1761397.9 -1528608.5  13.2%   850 23557s
 129186  5928 -1638254.9   57   81 -1761397.9 -1530873.3  13.1%   849 23561s
 129323  5847     cutoff   81      -1761397.9 -1532797.0  13.0%   848 23577s
 129464  5765     cutoff   37      -1761397.9 -1534671.2  12.9%   848 23582s
 129615  5692     cutoff   37      -1761397.9 -1536533.4  12.8%   847 23588s
 129747  5610     cutoff   28      -1761397.9 -1538270.5  12.7%   846 23592s
 129883  5530     cutoff   39      -1761397.9 -1540485.4  12.5%   846 23597s
 130039  5448     cutoff   30      -1761397.9 -1542425.9  12.4%   845 23603s
 130200  5371     cutoff   27      -1761397.9 -1544183.9  12.3%   844 23607s
 130331  5289     cutoff   58      -1761397.9 -1546344.8  12.2%   844 23612s
 130469  5209     cutoff   57      -1761397.9 -1548225.7  12.1%   843 23615s
 130605  5133     cutoff   56      -1761397.9 -1550300.1  12.0%   842 23622s
 130742  5053     cutoff   38      -1761397.9 -1552215.8  11.9%   842 23629s
 130879  4974     cutoff   42      -1761397.9 -1554046.6  11.8%   841 23633s
 131008  4895     cutoff   23      -1761397.9 -1555802.6  11.7%   841 23639s
 131120  4814     cutoff   44      -1761397.9 -1558020.4  11.5%   840 23643s
 131270  4742 -1585075.5   35   50 -1761397.9 -1559918.1  11.4%   839 23648s
 131377  4660     cutoff   63      -1761397.9 -1561835.9  11.3%   839 23652s
 131514  4577     cutoff   56      -1761397.9 -1564367.4  11.2%   838 23656s
 131768  4413     cutoff   41      -1761397.9 -1568542.8  10.9%   837 23666s
 132025  4249     cutoff   72      -1761397.9 -1572936.2  10.7%   836 23674s
 132170  4172     cutoff   27      -1761397.9 -1575066.3  10.6%   835 23681s
 132309  4096     cutoff   31      -1761397.9 -1577061.7  10.5%   834 23685s
 132426  4018 -1591928.0   37   82 -1761397.9 -1579162.3  10.3%   834 23690s
 132723  3872     cutoff   34      -1761397.9 -1583993.5  10.1%   832 23696s
 132850  3797     cutoff   40      -1761397.9 -1586412.3  9.93%   832 23701s
 133109  3633     cutoff   34      -1761397.9 -1590388.0  9.71%   830 23707s
 133214  3549     cutoff   43      -1761397.9 -1592387.3  9.60%   830 23712s
 133492  3391     cutoff   76      -1761397.9 -1597031.9  9.33%   829 23719s
 133603  3307     cutoff   46      -1761397.9 -1599402.2  9.20%   828 23723s
 133742  3228     cutoff   51      -1761397.9 -1601651.5  9.07%   827 23727s
 134042  3077     cutoff   32      -1761397.9 -1605667.1  8.84%   826 23733s
 134280  2917     cutoff   38      -1761397.9 -1609702.5  8.61%   825 23737s
 134411  2835     cutoff   27      -1761397.9 -1611888.9  8.49%   824 23740s
 134679  2671     cutoff   31      -1761397.9 -1616545.7  8.22%   823 23745s
 134915  2510     cutoff   32      -1761397.9 -1621470.9  7.94%   821 23751s
 135149  2345     cutoff   38      -1761397.9 -1626594.6  7.65%   820 23755s
 135360  2179     cutoff  111      -1761397.9 -1631799.7  7.36%   819 23760s
 135598  2014     cutoff   44      -1761397.9 -1636744.1  7.08%   818 23767s
 135734  1932     cutoff   24      -1761397.9 -1639031.3  6.95%   817 23771s
 136103  1686     cutoff   33      -1761397.9 -1646674.9  6.51%   815 23777s
 136203  1602     cutoff   44      -1761397.9 -1649749.3  6.34%   815 23780s
 136673  1274     cutoff   40      -1761397.9 -1661320.0  5.68%   812 23786s
 136970  1022     cutoff   52      -1761397.9 -1672304.1  5.06%   811 23790s
 137503   604     cutoff   56      -1761397.9 -1691542.6  3.97%   808 23795s
 137985   184     cutoff   32      -1761397.9 -1720404.1  2.33%   805 23800s

Cutting planes:
  Gomory: 30
  Implied bound: 12
  Projected implied bound: 7
  MIR: 68
  Flow cover: 341

Explored 138281 nodes (111214036 simplex iterations) in 23804.80 seconds
Thread count was 4 (of 16 available processors)

Solution count 10: -1.7614e+06 -1.7614e+06 -1.7614e+06 ... -2.60302e+06

Optimal solution found (tolerance 1.00e-04)
Best objective -1.761398090000e+06, best bound -1.761397864181e+06, gap 0.0000%

***
***  |- Calculation finished, took 23,804.82 (23804.82) sec.
***  |-----------------------------------------------------------------------------------------------------------------------
***
*****************************************************************************************************************************
#############################################################################################################################
###
### Results
###
### The objective of the solution is -1,761,398.09 (-1761398.09) and is feasible with a Gap of 0.0
###
### Service 42 (SAMBA) is operated by 7 vessels from type 18 (PMax25)
###  |- Vessel 1 has the path [143, 77, 78, 5, 0]
###  |  143 (USMSY Out@238.0) - 77 (ESALG In@607.0/Out@631.0) - 78 (ESALG In@613.0/Out@658.0) - 5 (ARBUE In@1088.0/Out@1112.0
###  |  ) - 0 (DUMMY_END Ziel-Service 42)
###  |   |- and carried Demand  98, 392.0 containers from  78 to   5
###  |   |- and carried Demand  99,  13.0 containers from  78 to   5
###  |   |- and carried Demand 490, 392.0 containers from  77 to   5
###  |   |- and carried Demand 491,  13.0 containers from  77 to   5
###  |   |- and carried Demand 494,  59.0 containers from  77 to   5
###  |   |- and carried Demand 495,   6.0 containers from  77 to   5
###  |   |- and carried Demand 496, 126.0 containers from  77 to   5
###  |- Vessel 2 has the path [144, 79, 80, 81, 82, 83, 85, 86, 87, 88, 94, 55, 51, 11, 12, 0]
###  |  144 (USMSY Out@406.0) - 79 (ESALG In@775.0/Out@799.0) - 80 (ESALG In@829.0/Out@853.0) - 81 (ESALG In@943.0/Out@967.0)
###  |   - 82 (ESALG In@1045.0/Out@1075.0) - 83 (ESALG In@1111.0/Out@1135.0) - 85 (ESALG In@1213.0/Out@1243.0) - 86 (ESALG In
###  |  @1279.0/Out@1303.0) - 87 (ESALG In@1381.0/Out@1411.0) - 88 (ESALG In@1447.0/Out@1471.0) - 94 (ESLPA In@1521.0/Out@154
###  |  5.0) - 55 (BRSUA In@1691.0/Out@1715.0) - 51 (BRSSZ In@1788.0/Out@1808.0) - 11 (ARBUE In@1862.0/Out@1905.0) - 12 (ARBU
###  |  E In@1928.0/Out@1952.0) - 0 (DUMMY_END Ziel-Service 42)
###  |   |- and carried Demand   7, 200.0 containers from  82 to  12
###  |   |- and carried Demand  20,  57.0 containers from  85 to  11
###  |   |- and carried Demand  24,  16.0 containers from  85 to  11
###  |   |- and carried Demand  26,  47.0 containers from  87 to  51
###  |   |- and carried Demand  29,   8.0 containers from  87 to  11
###  |   |- and carried Demand  30, 224.0 containers from  87 to  11
###  |   |- and carried Demand  31,  58.0 containers from  87 to  12
###  |   |- and carried Demand  32,   5.0 containers from  87 to  12
###  |   |- and carried Demand  33, 159.0 containers from  87 to  11
###  |   |- and carried Demand  71,  12.0 containers from  51 to  11
###  |   |- and carried Demand 156, 239.0 containers from  80 to  11
###  |   |- and carried Demand 157,   8.0 containers from  80 to  11
###  |   |- and carried Demand 161,  19.0 containers from  80 to  11
###  |   |- and carried Demand 176,   8.0 containers from  88 to  11
###  |   |- and carried Demand 177, 224.0 containers from  88 to  11
###  |   |- and carried Demand 178,  58.0 containers from  88 to  12
###  |   |- and carried Demand 179,   5.0 containers from  88 to  12
###  |   |- and carried Demand 180, 159.0 containers from  88 to  11
###  |   |- and carried Demand 249,  57.0 containers from  86 to  11
###  |   |- and carried Demand 253,  16.0 containers from  86 to  11
###  |   |- and carried Demand 322, 200.0 containers from  83 to  12
###  |   |- and carried Demand 382, 239.0 containers from  81 to  11
###  |   |- and carried Demand 383,   8.0 containers from  81 to  11
###  |   |- and carried Demand 387,  19.0 containers from  81 to  11
###  |   |- and carried Demand 441, 488.0 containers from  79 to  12
###  |   |- and carried Demand 442,   5.0 containers from  79 to  12
###  |- Vessel 3 has the path [145, 4, 0]
###  |  145 (USMSY Out@574.0) - 4 (ARBUE In@920.0/Out@944.0) - 0 (DUMMY_END Ziel-Service 42)
###  |- Vessel 4 has the path [146, 6, 0]
###  |  146 (USMSY Out@742.0) - 6 (ARBUE In@1256.0/Out@1280.0) - 0 (DUMMY_END Ziel-Service 42)
###  |- Vessel 5 has the path [147, 8, 0]
###  |  147 (USMSY Out@910.0) - 8 (ARBUE In@1424.0/Out@1448.0) - 0 (DUMMY_END Ziel-Service 42)
###  |- Vessel 6 has the path [148, 9, 0]
###  |  148 (USMSY Out@1078.0) - 9 (ARBUE In@1592.0/Out@1616.0) - 0 (DUMMY_END Ziel-Service 42)
###  |- Vessel 7 has the path [149, 10, 0]
###  |  149 (USMSY Out@1246.0) - 10 (ARBUE In@1760.0/Out@1784.0) - 0 (DUMMY_END Ziel-Service 42)
###  |
### Vessels not used in the solution: []
###  |-----------------------------------------------------------------------------------------------------------------------
###
#############################################################################################################################

### Detialed variable overview

### All variables with value greater zero:
rho[42,18] = 1
eta[42,18,1] = 1
eta[42,18,2] = 1
eta[42,18,3] = 1
eta[42,18,4] = 1
eta[42,18,5] = 1
eta[42,18,6] = 1
eta[42,18,7] = 1
y[1,77,78] = 1
y[1,5,0] = 1
y[1,143,77] = 1
y[1,78,5] = 1
y[2,94,55] = 1
y[2,85,86] = 1
y[2,80,81] = 1
y[2,144,79] = 1
y[2,11,12] = 1
y[2,86,87] = 1
y[2,51,11] = 1
y[2,12,0] = 1
y[2,83,85] = 1
y[2,81,82] = 1
y[2,79,80] = 1
y[2,87,88] = 1
y[2,55,51] = 1
y[2,82,83] = 1
y[2,88,94] = 1
y[3,145,4] = 1
y[3,4,0] = 1
y[4,6,0] = 1
y[4,146,6] = 1
y[5,8,0] = 1
y[5,147,8] = 1
y[6,9,0] = 1
y[6,148,9] = 1
y[7,149,10] = 1
y[7,10,0] = 1
xD[7,94,55] = 200
xD[7,85,86] = 200
xD[7,11,12] = 200
xD[7,86,87] = 200
xD[7,51,11] = 200
xD[7,83,85] = 200
xD[7,87,88] = 200
xD[7,55,51] = 200
xD[7,82,83] = 200
xD[7,88,94] = 200
xD[20,94,55] = 57
xD[20,85,86] = 57
xD[20,86,87] = 57
xD[20,51,11] = 57
xD[20,87,88] = 57
xD[20,55,51] = 57
xD[20,88,94] = 57
xD[24,94,55] = 16
xD[24,85,86] = 16
xD[24,86,87] = 16
xD[24,51,11] = 16
xD[24,87,88] = 16
xD[24,55,51] = 16
xD[24,88,94] = 16
xD[26,94,55] = 47
xD[26,87,88] = 47
xD[26,55,51] = 47
xD[26,88,94] = 47
xD[29,94,55] = 8
xD[29,51,11] = 8
xD[29,87,88] = 8
xD[29,55,51] = 8
xD[29,88,94] = 8
xD[30,94,55] = 224
xD[30,51,11] = 224
xD[30,87,88] = 224
xD[30,55,51] = 224
xD[30,88,94] = 224
xD[31,94,55] = 58
xD[31,11,12] = 58
xD[31,51,11] = 58
xD[31,87,88] = 58
xD[31,55,51] = 58
xD[31,88,94] = 58
xD[32,94,55] = 5
xD[32,11,12] = 5
xD[32,51,11] = 5
xD[32,87,88] = 5
xD[32,55,51] = 5
xD[32,88,94] = 5
xD[33,94,55] = 159
xD[33,51,11] = 159
xD[33,87,88] = 159
xD[33,55,51] = 159
xD[33,88,94] = 159
xD[71,51,11] = 12
xD[98,78,5] = 392
xD[99,78,5] = 13
xD[156,94,55] = 239
xD[156,85,86] = 239
xD[156,80,81] = 239
xD[156,86,87] = 239
xD[156,51,11] = 239
xD[156,83,85] = 239
xD[156,81,82] = 239
xD[156,87,88] = 239
xD[156,55,51] = 239
xD[156,82,83] = 239
xD[156,88,94] = 239
xD[157,94,55] = 8
xD[157,85,86] = 8
xD[157,80,81] = 8
xD[157,86,87] = 8
xD[157,51,11] = 8
xD[157,83,85] = 8
xD[157,81,82] = 8
xD[157,87,88] = 8
xD[157,55,51] = 8
xD[157,82,83] = 8
xD[157,88,94] = 8
xD[161,94,55] = 19
xD[161,85,86] = 19
xD[161,80,81] = 19
xD[161,86,87] = 19
xD[161,51,11] = 19
xD[161,83,85] = 19
xD[161,81,82] = 19
xD[161,87,88] = 19
xD[161,55,51] = 19
xD[161,82,83] = 19
xD[161,88,94] = 19
xD[176,94,55] = 8
xD[176,51,11] = 8
xD[176,55,51] = 8
xD[176,88,94] = 8
xD[177,94,55] = 224
xD[177,51,11] = 224
xD[177,55,51] = 224
xD[177,88,94] = 224
xD[178,94,55] = 58
xD[178,11,12] = 58
xD[178,51,11] = 58
xD[178,55,51] = 58
xD[178,88,94] = 58
xD[179,94,55] = 5
xD[179,11,12] = 5
xD[179,51,11] = 5
xD[179,55,51] = 5
xD[179,88,94] = 5
xD[180,94,55] = 159
xD[180,51,11] = 159
xD[180,55,51] = 159
xD[180,88,94] = 159
xD[249,94,55] = 57
xD[249,86,87] = 57
xD[249,51,11] = 57
xD[249,87,88] = 57
xD[249,55,51] = 57
xD[249,88,94] = 57
xD[253,94,55] = 16
xD[253,86,87] = 16
xD[253,51,11] = 16
xD[253,87,88] = 16
xD[253,55,51] = 16
xD[253,88,94] = 16
xD[322,94,55] = 200
xD[322,85,86] = 200
xD[322,11,12] = 200
xD[322,86,87] = 200
xD[322,51,11] = 200
xD[322,83,85] = 200
xD[322,87,88] = 200
xD[322,55,51] = 200
xD[322,88,94] = 200
xD[382,94,55] = 239
xD[382,85,86] = 239
xD[382,86,87] = 239
xD[382,51,11] = 239
xD[382,83,85] = 239
xD[382,81,82] = 239
xD[382,87,88] = 239
xD[382,55,51] = 239
xD[382,82,83] = 239
xD[382,88,94] = 239
xD[383,94,55] = 8
xD[383,85,86] = 8
xD[383,86,87] = 8
xD[383,51,11] = 8
xD[383,83,85] = 8
xD[383,81,82] = 8
xD[383,87,88] = 8
xD[383,55,51] = 8
xD[383,82,83] = 8
xD[383,88,94] = 8
xD[387,94,55] = 19
xD[387,85,86] = 19
xD[387,86,87] = 19
xD[387,51,11] = 19
xD[387,83,85] = 19
xD[387,81,82] = 19
xD[387,87,88] = 19
xD[387,55,51] = 19
xD[387,82,83] = 19
xD[387,88,94] = 19
xD[441,94,55] = 488
xD[441,85,86] = 488
xD[441,80,81] = 488
xD[441,11,12] = 488
xD[441,86,87] = 488
xD[441,51,11] = 488
xD[441,83,85] = 488
xD[441,81,82] = 488
xD[441,79,80] = 488
xD[441,87,88] = 488
xD[441,55,51] = 488
xD[441,82,83] = 488
xD[441,88,94] = 488
xD[442,94,55] = 5
xD[442,85,86] = 5
xD[442,80,81] = 5
xD[442,11,12] = 5
xD[442,86,87] = 5
xD[442,51,11] = 5
xD[442,83,85] = 5
xD[442,81,82] = 5
xD[442,79,80] = 5
xD[442,87,88] = 5
xD[442,55,51] = 5
xD[442,82,83] = 5
xD[442,88,94] = 5
xD[490,77,78] = 392
xD[490,78,5] = 392
xD[491,77,78] = 13
xD[491,78,5] = 13
xD[494,77,78] = 59
xD[494,78,5] = 59
xD[495,77,78] = 6
xD[495,78,5] = 6
xD[496,77,78] = 126
xD[496,78,5] = 126
zE[4] = 920
zE[5] = 1088
zE[6] = 1256
zE[8] = 1424
zE[9] = 1592
zE[10] = 1760
zE[11] = 1862
zE[12] = 1928
zE[51] = 1788
zE[55] = 1691
zE[77] = 607
zE[78] = 613
zE[79] = 775
zE[80] = 829
zE[81] = 943
zE[82] = 1045
zE[83] = 1111
zE[85] = 1213
zE[86] = 1279
zE[87] = 1381
zE[88] = 1447
zE[94] = 1521
zX[4] = 944
zX[5] = 1112
zX[6] = 1280
zX[8] = 1448
zX[9] = 1616
zX[10] = 1784
zX[11] = 1905
zX[12] = 1952
zX[51] = 1808
zX[55] = 1715
zX[77] = 631
zX[78] = 658
zX[79] = 799
zX[80] = 853
zX[81] = 967
zX[82] = 1075
zX[83] = 1135
zX[85] = 1243
zX[86] = 1303
zX[87] = 1411
zX[88] = 1471
zX[94] = 1545
zX[143] = 238
zX[144] = 406
zX[145] = 574
zX[146] = 742
zX[147] = 910
zX[148] = 1078
zX[149] = 1246
phi[1] = 874
phi[2] = 1546
phi[3] = 370
phi[4] = 538
phi[5] = 538
phi[6] = 538
phi[7] = 538

### All variables with value smaller zero:

### End

real	397m49.578s
user	1508m43.411s
sys	76m26.729s
	Freetype 2.4.12 environment removed
	Python 3.6.0 environment removed
	Gurobi 8.1.0 environment removed
