	Freetype 2.4.12 environment established
		library to render fonts
	Python 3.6.0 environment established
	Gurobi 8.1.0 environment established
Instance LSFRP: LSFDRP_5_3_0_1_fr.p
Instance LSFDP: LSFDRP_5_3_0_1_fd_43.p

*****************************************************************************************************************************
*** Solve LSFDRP_5_3_0_1_fd_43 with Gurobi
***
*** Graph info
*** |S|: 7
*** |S^E|: 0
*** |S^C|: 0
*** |V|: 162
*** |A|: 2732
*** |A^i|: 2732
*** |A^f|: 0
*** |M|: 532
*** |E|: 0

Changed value of parameter TimeLimit to 86400.0
   Prev: 1e+100  Min: 0.0  Max: 1e+100  Default: 1e+100
Changed value of parameter Threads to 4
   Prev: 0  Min: 0  Max: 1024  Default: 0
Optimize a model with 93584 rows, 1478335 columns and 5126353 nonzeros
Variable types: 1459203 continuous, 19132 integer (19132 binary)
Coefficient statistics:
  Matrix range     [1e+00, 3e+03]
  Objective range  [2e+00, 4e+07]
  Bounds range     [1e+00, 1e+00]
  RHS range        [1e+00, 7e+00]
Presolve removed 85980 rows and 1446473 columns (presolve time = 5s) ...
Presolve removed 85980 rows and 1448308 columns (presolve time = 14s) ...
Presolve removed 86020 rows and 1448313 columns (presolve time = 15s) ...
Warning: Failed to open log file 'gurobi.log'
Presolve removed 86020 rows and 1448313 columns
Presolve time: 17.46s
Presolved: 7564 rows, 30022 columns, 158246 nonzeros
Variable types: 20242 continuous, 9780 integer (9773 binary)

Root simplex log...

Iteration    Objective       Primal Inf.    Dual Inf.      Time
       0    4.5132313e+09   1.089818e+06   0.000000e+00     18s
   20645    3.4180717e+07   2.185928e+05   0.000000e+00     20s
   34543    1.0458673e+07   1.112263e+06   0.000000e+00     25s
   46402    6.7418797e+06   3.674585e+05   0.000000e+00     30s
   57217    3.7931327e+06   1.174537e+06   0.000000e+00     35s
   66647    3.2673502e+06   4.705619e+05   0.000000e+00     40s
   73562    2.9532710e+06   3.039300e+05   0.000000e+00     45s
   79192    2.8554236e+06   6.221557e+03   0.000000e+00     50s
   81598    2.8496089e+06   0.000000e+00   0.000000e+00     53s

Root relaxation: objective 2.849609e+06, 81598 iterations, 34.43 seconds

    Nodes    |    Current Node    |     Objective Bounds      |     Work
 Expl Unexpl |  Obj  Depth IntInf | Incumbent    BestBd   Gap | It/Node Time

     0     0 2849608.93    0  208          - 2849608.93      -     -   53s
H    0     0                    -6706213.355 2849608.93   142%     -   53s
H    0     0                    -4827993.732 2849608.93   159%     -   53s
H    0     0                    -3936110.916 2849608.93   172%     -   55s
     0     0 2832350.48    0  231 -3936110.9 2832350.48   172%     -   61s
H    0     0                    -3431247.701 2832350.48   183%     -   64s
     0     0 2825227.20    0  224 -3431247.7 2825227.20   182%     -   66s
     0     0 2788229.55    0  230 -3431247.7 2788229.55   181%     -   68s
     0     0 2784796.29    0  223 -3431247.7 2784796.29   181%     -   68s
     0     0 2782256.44    0  226 -3431247.7 2782256.44   181%     -   69s
     0     0 2781938.17    0  228 -3431247.7 2781938.17   181%     -   69s
     0     0 2781938.17    0  228 -3431247.7 2781938.17   181%     -   70s
     0     0 2769911.88    0  207 -3431247.7 2769911.88   181%     -   73s
H    0     0                    -2935496.171 2769911.88   194%     -   75s
     0     0 2769355.18    0  209 -2935496.2 2769355.18   194%     -   75s
     0     0 2768438.52    0  211 -2935496.2 2768438.52   194%     -   75s
     0     0 2768250.35    0  214 -2935496.2 2768250.35   194%     -   75s
     0     0 2767963.66    0  214 -2935496.2 2767963.66   194%     -   75s
     0     0 2767022.71    0  212 -2935496.2 2767022.71   194%     -   76s
     0     0 2766690.93    0  210 -2935496.2 2766690.93   194%     -   76s
     0     0 2766187.49    0  220 -2935496.2 2766187.49   194%     -   77s
H    0     0                    -2922561.727 2766187.49   195%     -   79s
     0     0 2764527.04    0  217 -2922561.7 2764527.04   195%     -   80s
     0     0 2763975.06    0  229 -2922561.7 2763975.06   195%     -   80s
     0     0 2759525.51    0  234 -2922561.7 2759525.51   194%     -   82s
     0     0 2759306.42    0  236 -2922561.7 2759306.42   194%     -   82s
     0     0 2759306.42    0  236 -2922561.7 2759306.42   194%     -   82s
     0     0 2755182.22    0  229 -2922561.7 2755182.22   194%     -   84s
     0     0 2753486.21    0  225 -2922561.7 2753486.21   194%     -   85s
     0     0 2752363.38    0  236 -2922561.7 2752363.38   194%     -   86s
     0     0 2752170.83    0  238 -2922561.7 2752170.83   194%     -   87s
     0     0 2752079.69    0  238 -2922561.7 2752079.69   194%     -   87s
     0     0 2752069.89    0  236 -2922561.7 2752069.89   194%     -   87s
     0     0 2751987.77    0  249 -2922561.7 2751987.77   194%     -   88s
     0     0 2751987.77    0  249 -2922561.7 2751987.77   194%     -   88s
     0     0 2751851.48    0  236 -2922561.7 2751851.48   194%     -   89s
     0     0 2751744.26    0  243 -2922561.7 2751744.26   194%     -   89s
     0     0 2751606.67    0  238 -2922561.7 2751606.67   194%     -   90s
     0     0 2751601.63    0  236 -2922561.7 2751601.63   194%     -   90s
     0     0 2751543.44    0  245 -2922561.7 2751543.44   194%     -   91s
     0     0 2751510.42    0  246 -2922561.7 2751510.42   194%     -   94s
     0     0 2751504.99    0  249 -2922561.7 2751504.99   194%     -   94s
     0     0 2750755.96    0  241 -2922561.7 2750755.96   194%     -   95s
     0     0 2750740.81    0  241 -2922561.7 2750740.81   194%     -   96s
     0     0 2750680.31    0  241 -2922561.7 2750680.31   194%     -   96s
     0     0 2750675.98    0  241 -2922561.7 2750675.98   194%     -   96s
     0     0 2750675.30    0  241 -2922561.7 2750675.30   194%     -   97s
     0     0 2750675.30    0  235 -2922561.7 2750675.30   194%     -  111s
     0     2 2750675.30    0  235 -2922561.7 2750675.30   194%     -  140s
     1     4 2521212.73    1  233 -2922561.7 2712781.63   193%  7418  159s
     3     8 2492065.82    2  248 -2922561.7 2492065.82   185%  7797  173s
     7    12 2410278.82    3  199 -2922561.7 2492065.82   185%  8498  192s
    11    16 2470151.09    3  211 -2922561.7 2470151.09   185%  8321  206s
    15    19 2316028.83    4  192 -2922561.7 2469554.83   184%  8954  221s
    19    23 1823724.98    4  156 -2922561.7 2410151.84   182%  9086  241s
    23    19 2039898.69    5  211 -2922561.7 2410151.84   182%  9568  253s
    30    33 45384.0962    5  166 -2922561.7 2410151.84   182%  8734  282s
H   32    33                    -2736958.377 2410151.84   188%  9092  282s
    34    35 1817255.42    6  148 -2736958.4 2410151.84   188%  8932  292s
    41    42 1868012.97    6  147 -2736958.4 2410151.84   188%  7871  301s
    47    48 1853991.35    7  147 -2736958.4 2410151.84   188%  7243  308s
    54    55 1589813.06   10  163 -2736958.4 2410151.84   188%  7036  329s
    59    62 1549735.02   10  125 -2736958.4 2410151.84   188%  7235  352s
H   63    64                    -2667271.201 2410151.84   190%  7675  352s
    64    67 1555165.52   11  161 -2667271.2 2410151.84   190%  7595  367s
    71    67 846012.195   12  157 -2667271.2 2410151.84   190%  7567  374s
    78    81 450614.209   12  127 -2667271.2 2410151.84   190%  7317  394s
    87    86 836150.914   13  158 -2667271.2 2410151.84   190%  6973  406s
    98   100 -877559.05   16  136 -2667271.2 2410151.84   190%  6690  427s
   109   110 417041.470   17  152 -2667271.2 2410151.84   190%  6566  437s
H  118   119                    -2561933.017 2410151.84   194%  6457  454s
H  119   119                    -1954398.542 2410151.84   223%  6536  454s
   126   126 -1062612.8   20  136 -1954398.5 2410151.84   223%  6617  475s
   132   127 127467.011   20  133 -1954398.5 2410151.84   223%  6618  486s
   145   142 -30118.200   24  118 -1954398.5 2410151.84   223%  6358  496s
   175   170 -136113.99   32  124 -1954398.5 2410151.84   223%  5487  505s
   204   192 -172137.07   40  112 -1954398.5 2410151.84   223%  4974  514s
   234   218 -1611907.7   44   46 -1954398.5 2410151.84   223%  4488  522s
   258   236 -315032.81   45  112 -1954398.5 2410151.84   223%  4194  534s
H  260   240                    -1890108.933 2410151.84   228%  4165  534s
   276   248 -344608.95   47  113 -1890108.9 2410151.84   228%  4016  544s
   303   267 -370247.53   54  115 -1890108.9 2410151.84   228%  3804  554s
   332   290 -419210.60   62  121 -1890108.9 2410151.84   228%  3617  569s
H  360   313                    -1890108.761 2410151.84   228%  3498  591s
   385   341 -736919.20   74  107 -1890108.8 2410151.84   228%  3393  610s
H  397   333                    -1761398.090 2410151.84   237%  3293  610s
   415   350 -786361.54   87  106 -1761398.1 2410151.84   237%  3269  631s
   466   387 -943991.67  107  102 -1761398.1 2410151.84   237%  3079  659s
   519   408 -1298223.3  128   68 -1761398.1 2410151.84   237%  2898  678s
   555   432     cutoff  152      -1761398.1 2220487.57   226%  2821  697s
   568   433 1482754.12    7  169 -1761398.1 2220487.57   226%  2914  711s
   583   450 1359874.57    9  173 -1761398.1 2220487.57   226%  2919  727s
   611   471 414625.455   14  159 -1761398.1 2220487.57   226%  2921  757s
   650   500 217507.665   18  165 -1761398.1 2220487.57   226%  2866  770s
   679   523 -704001.45   28  152 -1761398.1 2220487.57   226%  2849  791s
   730   569 -1072024.4   62  117 -1761398.1 1817228.00   203%  2743  817s
   749   574 186716.116    8  127 -1761398.1 1817228.00   203%  2812  834s
   770   584 -54852.969    9  114 -1761398.1 1817228.00   203%  2823  850s
   820   614 -1210705.8   14  108 -1761398.1 1789314.82   202%  2763  872s
   901   660 1248757.08   11  124 -1761398.1 1789314.82   202%  2620  894s
   927   683 982458.698   13  125 -1761398.1 1789314.82   202%  2629  913s
   960   709 607457.502   21  122 -1761398.1 1789314.82   202%  2630  935s
H 1030   765                    -1761398.090 1789314.82   202%  2560  938s
  1031   766 -1522792.9   55  235 -1761398.1 1789314.82   202%  2558  990s
  1033   767 -265326.45   14  192 -1761398.1 1789314.82   202%  2553 1039s
  1034   768 -60969.321   18  227 -1761398.1 1789314.82   202%  2550 1047s
  1036   769 -436234.18   58  205 -1761398.1 1789314.82   202%  2545 1050s
  1037   770 -1130720.0   36  213 -1761398.1 1789314.82   202%  2543 1061s
  1039   771 345471.049   20  212 -1761398.1 1789314.82   202%  2538 1079s
  1040   775 1789314.82   10  210 -1761398.1 1789314.82   202%  2636 1129s
  1042   778 1789314.82   11  187 -1761398.1 1789314.82   202%  2659 1174s
  1046   781 1789314.82   12  191 -1761398.1 1789314.82   202%  2701 1202s
  1050   784 1683427.07   12  139 -1761398.1 1789314.82   202%  2715 1234s
  1054   786 1789314.82   13  172 -1761398.1 1789314.82   202%  2745 1261s
  1058   788 1789314.82   13  166 -1761398.1 1789314.82   202%  2761 1281s
  1062   792 1789314.82   14  181 -1761398.1 1789314.82   202%  2774 1289s
  1067   792 -8399.2277   14  127 -1761398.1 1789314.82   202%  2790 1311s
  1071   791 1789314.82   15  175 -1761398.1 1789314.82   202%  2808 1338s
  1079   793 1789314.82   16  161 -1761398.1 1789314.82   202%  2836 1363s
  1086   805 1526128.39   16  180 -1761398.1 1789314.82   202%  2870 1384s
  1092   807 1746263.55   17  166 -1761398.1 1789314.82   202%  2877 1394s
  1100   806 1620749.21   17  140 -1761398.1 1789314.82   202%  2882 1404s
  1108   812 1275738.23   18  146 -1761398.1 1789314.82   202%  2888 1424s
  1117   820 1170560.91   18  161 -1761398.1 1789314.82   202%  2885 1433s
  1127   822 1118036.26   19  138 -1761398.1 1789314.82   202%  2878 1451s
  1141   828 636583.510   20  132 -1761398.1 1789314.82   202%  2886 1468s
  1153   828 -501631.37   20  126 -1761398.1 1789314.82   202%  2893 1483s
  1168   834 624336.953   21  127 -1761398.1 1789314.82   202%  2874 1499s
  1190   842 261852.069   24  104 -1761398.1 1789314.82   202%  2851 1510s
  1204   841 381096.944   25   84 -1761398.1 1789314.82   202%  2833 1516s
  1226   843 -161889.10   26  101 -1761398.1 1789314.82   202%  2802 1524s
  1252   842 -252351.87   28   57 -1761398.1 1789314.82   202%  2756 1534s
  1276   842 -330248.12   30   63 -1761398.1 1789314.82   202%  2724 1541s
  1293   844 -1693773.2   32  124 -1761398.1 1789314.82   202%  2707 1551s
  1306   850 -381871.40   33  129 -1761398.1 1789314.82   202%  2701 1565s
  1322   850 -1306863.3   35  122 -1761398.1 1789314.82   202%  2705 1585s
  1357   848 1174659.43   15  199 -1761398.1 1789314.82   202%  2659 1598s
  1387   847 481108.861   15  142 -1761398.1 1789314.82   202%  2628 1612s
  1413   855 1102772.11   16  175 -1761398.1 1789314.82   202%  2604 1626s
  1425   855 541410.521   18  126 -1761398.1 1789314.82   202%  2609 1640s
  1432   862 374991.183   17  166 -1761398.1 1789314.82   202%  2628 1653s
  1440   865 450251.016   16  169 -1761398.1 1789314.82   202%  2650 1669s
  1462   864 529492.737   19  132 -1761398.1 1789314.82   202%  2633 1685s
  1488   878 272764.621   23  107 -1761398.1 1789314.82   202%  2625 1704s
  1499   884 238726.026   24  126 -1761398.1 1789314.82   202%  2645 1722s
  1515   893 -249235.03   26   84 -1761398.1 1789314.82   202%  2659 1738s
  1529   902 -179156.85   30  156 -1761398.1 1789314.82   202%  2671 1754s
  1544   905 -80908.538   32  138 -1761398.1 1789314.82   202%  2677 1768s
  1572   929 -632253.18   39  134 -1761398.1 1789314.82   202%  2673 1781s
  1589   923 -474207.34   41  104 -1761398.1 1789314.82   202%  2670 1796s
  1656   941 -1156645.0   62   93 -1761398.1 1789314.82   202%  2603 1815s
  1704   953 888399.737   16  152 -1761398.1 1789314.82   202%  2570 1835s
  1736   959 282572.909   16  144 -1761398.1 1789314.82   202%  2562 1870s
  1772   960     cutoff   19      -1761398.1 1789314.82   202%  2572 1887s
  1825   972 -364169.57   19  111 -1761398.1 1789314.82   202%  2540 1905s
  1857   982 -589274.91   22  105 -1761398.1 1484161.65   184%  2538 1933s
  1900   979 770377.858   17  188 -1761398.1 1484161.65   184%  2541 1957s
H 1905   939                    -1761398.089 1484161.65   184%  2547 1957s
  1910   947 174879.407   17  163 -1761398.1 1484161.65   184%  2558 1980s
  1936   952 -307240.24   20   78 -1761398.1 1484161.65   184%  2576 1999s
  1970   958 -380412.59   22   57 -1761398.1 1484161.65   184%  2565 2034s
  2051   968 -1353699.0   24   79 -1761398.1 1484161.65   184%  2515 2058s
  2126   974 -372847.76   27  132 -1761398.1 1484161.65   184%  2463 2084s
  2187  1000 -545040.47   31  116 -1761398.1 1331962.67   176%  2449 2110s
  2223   995 -729484.93   36  136 -1761398.1 1331962.67   176%  2462 2143s
  2293  1016 -1197882.0   46   99 -1761398.1 1331962.67   176%  2435 2176s
  2389  1035 544352.938   19  156 -1761398.1 937540.270   153%  2392 2205s
  2458  1045 195475.420   20  101 -1761398.1 937540.270   153%  2367 2233s
  2576  1058 147589.487   21  107 -1761398.1 937540.270   153%  2304 2263s
  2614  1065 -1338776.0   21  122 -1761398.1 937540.270   153%  2316 2296s
  2707  1089 -313168.45   22  111 -1761398.1 937540.270   153%  2285 2333s
  2795  1117 -638933.77   25   86 -1761398.1 937540.270   153%  2258 2366s
  2904  1158 -1281486.9   35   69 -1761398.1 937540.270   153%  2224 2399s
H 2990  1164                    -1761398.052 937540.270   153%  2190 2399s
H 3003  1127                    -1761397.562 937540.270   153%  2191 2453s
  3149  1191 565105.028   21  137 -1761397.6 768972.367   144%  2145 2492s
  3290  1280 129842.612   19  127 -1761397.6 768972.367   144%  2094 2532s
  3422  1364 -962868.43   24   85 -1761397.6 768972.367   144%  2071 2571s
  3496  1394 -1286659.6   25   88 -1761397.6 768972.367   144%  2069 2614s
  3597  1459     cutoff   32      -1761397.6 622834.065   135%  2055 2658s
  3714  1515 -773200.52   18  161 -1761397.6 572034.938   132%  2034 2711s
  3873  1648 -99708.218   18  138 -1761397.6 566743.228   132%  2003 2760s
  3966  1695 -309271.97   26   95 -1761397.6 565105.028   132%  2005 2805s
  4122  1777 -879282.09   30  151 -1761397.6 541258.461   131%  1976 2861s
  4338  1914 -1200718.5   42  101 -1761397.6 523611.396   130%  1928 2915s
  4541  2016 -670564.76   19  111 -1761397.6 495508.630   128%  1893 2985s
  4656  2067     cutoff   21      -1761397.6 495508.630   128%  1900 3047s
  4803  2140     cutoff   27      -1761397.6 466075.440   126%  1897 3107s
  5070  2272 -1718692.4   29   95 -1761397.6 443740.206   125%  1853 3169s
H 5350  2392                    -1761397.561 424492.032   124%  1811 3226s
  5606  2537 -1129160.2   38  123 -1761397.6 390281.699   122%  1778 3286s
  5893  2669 -252712.83   23  106 -1761397.6 374445.596   121%  1742 3353s
  6199  2842 -1021211.9   28   55 -1761397.6 341993.575   119%  1701 3435s
H 6494  2972                    -1761397.004 325716.425   118%  1673 3537s
  6755  3095 110320.276   42  128 -1761397.0 308155.483   117%  1651 3639s
  7146  3285 -254180.08   32  125 -1761397.0 297564.404   117%  1608 3755s
  7489  3448 -1118681.7   26   64 -1761397.0 282572.909   116%  1583 3864s
  7832  3589 -849586.32   26  152 -1761397.0 262192.623   115%  1563 3975s
  8224  3775 -647532.59   26  139 -1761397.0 235767.369   113%  1536 4088s
  8742  3991 -168028.87   25   91 -1761397.0 214212.665   112%  1493 4211s
  9212  4195 -1247870.0   33   88 -1761397.0 187909.779   111%  1467 4356s
  9653  4394 -1529725.3   24  122 -1761397.0 172264.205   110%  1446 4495s
 10091  4578 -1698869.1   24   79 -1761397.0 149941.565   109%  1422 4638s
 10681  4805 -34701.152   18  135 -1761397.0 129871.173   107%  1389 4798s
 11183  5003 -499917.41   23  109 -1761397.0 104058.657   106%  1368 4956s
 11758  5195 -125121.90   49  149 -1761397.0 80771.4880   105%  1350 5103s
 12325  5401 -1505270.0   48   65 -1761397.0 57831.3315   103%  1332 5250s
 12840  5570 -497409.77   56   77 -1761397.0 38425.8766   102%  1319 5397s
 13370  5756     cutoff   27      -1761397.0 27141.8578   102%  1308 5534s
 13959  5956 -1489350.4   18  126 -1761397.0 6841.65860   100%  1292 5670s
 14529  6094     cutoff   48      -1761397.0 -9292.5704  99.5%  1273 5805s
 15244  6382     cutoff   30      -1761397.0 -31071.005  98.2%  1250 5935s
 15688  6518 -1520109.4   27   79 -1761397.0 -37740.770  97.9%  1246 6052s
 16202  6649 -995398.76   28   84 -1761397.0 -47799.230  97.3%  1231 6182s
 16855  6879 -595753.63   35   49 -1761397.0 -76703.833  95.6%  1213 6312s
 17399  7071     cutoff   30      -1761397.0 -82487.132  95.3%  1203 6436s
 17896  7212 -1009703.2   32   66 -1761397.0 -100604.33  94.3%  1196 6553s
 18442  7361 -1036648.1   40  100 -1761397.0 -114044.51  93.5%  1186 6671s
 19071  7568 -279223.73   33  117 -1761397.0 -133174.18  92.4%  1172 6784s
 19563  7755 -1003748.4   25  101 -1761397.0 -148354.16  91.6%  1161 6879s
 19698  7766     cutoff   43      -1761397.0 -149875.34  91.5%  1159 7002s
 20161  7892 -974852.34   21  118 -1761397.0 -163872.66  90.7%  1154 7120s
 20735  8047 -1049435.8   43  130 -1761397.0 -173358.04  90.2%  1144 7233s
 21321  8202 -743726.79   32   98 -1761397.0 -184417.23  89.5%  1134 9463s
 21860  8333 -393437.42   23  105 -1761397.0 -195177.26  88.9%  1127 9557s
 22212  8415 -835116.92   28   78 -1761397.0 -202949.99  88.5%  1128 9630s
 22654  8545 -1115964.3   37  151 -1761397.0 -212417.63  87.9%  1124 9705s
 23071  8661 -884093.96   31  120 -1761397.0 -224751.03  87.2%  1123 9811s
 23514  8783 -1086164.4   36   65 -1761397.0 -240314.69  86.4%  1121 9913s
 23918  8851 -1541884.7   40   60 -1761397.0 -246442.16  86.0%  1117 9990s
 24412  8997     cutoff   37      -1761397.0 -252826.02  85.6%  1111 10060s
 24841  9089 -900540.45   35  118 -1761397.0 -266901.59  84.8%  1111 10134s
 25356  9248 -441661.67   27  111 -1761397.0 -277461.81  84.2%  1106 10204s
 25770  9342 -720662.18   19  146 -1761397.0 -285851.51  83.8%  1105 10278s
 26071  9397 -668252.34   45   95 -1761397.0 -294655.16  83.3%  1108 10356s
 26530  9552 -1335552.3   24   98 -1761397.0 -301839.72  82.9%  1106 10433s
 26846  9605 -1758591.7   25   86 -1761397.0 -306708.57  82.6%  1105 10503s
 27332  9729 -1424290.1   43   78 -1761397.0 -318246.86  81.9%  1102 10574s
 27728  9816 -882883.45   44  160 -1761397.0 -323014.08  81.7%  1102 10679s
 28102  9901 -923894.83   27   84 -1761397.0 -330955.36  81.2%  1102 10751s
 28587 10046 -1552224.6   20   57 -1761397.0 -346024.56  80.4%  1099 10824s
 29071 10211 -1538554.7   59   96 -1761397.0 -349762.70  80.1%  1096 10904s
 29513 10332     cutoff   32      -1761397.0 -362955.76  79.4%  1094 10973s
 29921 10375 -877357.77   16  148 -1761397.0 -369302.36  79.0%  1094 11045s
 30406 10506 -1445865.6   48   46 -1761397.0 -378685.97  78.5%  1092 11147s
H30599 10550                    -1761397.004 -378685.97  78.5%  1090 11147s
 30736 10608 -1044245.1   47   43 -1761397.0 -382540.24  78.3%  1091 11230s
 31137 10773 -1136847.2   26  132 -1761397.0 -386034.16  78.1%  1089 11309s
 31471 10837 -932170.96   24  141 -1761397.0 -395295.75  77.6%  1090 11386s
 31871 10941 -1723598.0   22   88 -1761397.0 -400065.05  77.3%  1090 11466s
 32236 11026     cutoff   17      -1761397.0 -405316.30  77.0%  1090 11532s
 32717 11102 -1131368.9   23  103 -1761397.0 -413348.15  76.5%  1087 11599s
 33110 11176 -918383.97   35  120 -1761397.0 -420957.06  76.1%  1086 11666s
 33457 11291     cutoff   31      -1761397.0 -424408.22  75.9%  1086 11735s
 33850 11382 -1111641.4   27   90 -1761397.0 -428028.38  75.7%  1085 11801s
 34289 11496 -1547088.6   37   63 -1761397.0 -434219.16  75.3%  1083 11936s
 34751 11598 -1726848.0   25   96 -1761397.0 -440330.16  75.0%  1079 12006s
 35236 11698     cutoff   36      -1761397.0 -447166.27  74.6%  1076 12075s
 35665 11752     cutoff   39      -1761397.0 -453763.96  74.2%  1077 12143s
 36100 11836 -1436866.3   28  121 -1761397.0 -462845.93  73.7%  1076 12223s
 36548 11957     cutoff   32      -1761397.0 -468628.19  73.4%  1075 12288s
 36911 12020 -1122103.5   35   30 -1761397.0 -476325.43  73.0%  1075 12353s
 37289 12101     cutoff   28      -1761397.0 -484872.59  72.5%  1076 12501s
 37688 12186 -1686775.8   44   68 -1761397.0 -490498.01  72.2%  1075 12572s
 38033 12228     cutoff   30      -1761397.0 -498046.75  71.7%  1077 12638s
 38549 12347 -1356795.2   40   93 -1761397.0 -504973.78  71.3%  1073 12706s
 39017 12444     cutoff   34      -1761397.0 -515480.85  70.7%  1072 12776s
 39490 12507 -872927.51   24  103 -1761397.0 -524320.57  70.2%  1071 12844s
 39936 12583 -1664401.2   31   58 -1761397.0 -531473.55  69.8%  1071 12913s
 40329 12637     cutoff   28      -1761397.0 -538741.45  69.4%  1072 12978s
 40707 12709 -970489.23   29  105 -1761397.0 -542695.58  69.2%  1072 13044s
 41152 12774     cutoff   32      -1761397.0 -548948.63  68.8%  1072 13113s
 41626 12859 -1357024.1   29  121 -1761397.0 -554614.62  68.5%  1071 13181s
 42109 12892 -1546360.9   27   63 -1761397.0 -561242.92  68.1%  1070 13252s
 42644 12989     cutoff   30      -1761397.0 -570352.18  67.6%  1066 13319s
 43136 13048 -1522114.1   35   93 -1761397.0 -577132.59  67.2%  1065 13382s
 43576 13143 -1682254.0   34   99 -1761397.0 -581881.24  67.0%  1064 13446s
 44022 13252 -1340244.6   32   90 -1761397.0 -583343.57  66.9%  1063 13514s
 44446 13284     cutoff   24      -1761397.0 -590499.77  66.5%  1063 13578s
 44846 13295 -1642955.1   38   48 -1761397.0 -597920.97  66.1%  1063 13641s
 45355 13371 -758707.62   36  144 -1761397.0 -603879.99  65.7%  1061 13708s
 45776 13409 -1051564.3   34  121 -1761397.0 -610702.22  65.3%  1060 13772s
 46283 13522     cutoff   35      -1761397.0 -616423.86  65.0%  1057 13843s
 46686 13578 -1661351.5   26   62 -1761397.0 -621294.78  64.7%  1057 13939s
 47221 13669 -809766.23   23  128 -1761397.0 -628304.88  64.3%  1055 14007s
 47610 13725 -841527.44   28   59 -1761397.0 -631819.81  64.1%  1055 14074s
 48070 13786 -1432074.1   62   94 -1761397.0 -637295.98  63.8%  1053 14134s
 48560 13840     cutoff   29      -1761397.0 -640970.67  63.6%  1051 14208s
 49007 13908     cutoff   34      -1761397.0 -647673.13  63.2%  1050 14277s
 49476 13958 -1040593.7   23   94 -1761397.0 -655718.48  62.8%  1049 14343s
 49890 14004 -1706919.9   29   57 -1761397.0 -659288.78  62.6%  1049 14404s
 50471 14084 -1211456.1   29   56 -1761397.0 -669515.00  62.0%  1045 14462s
 50896 14122     cutoff   62      -1761397.0 -673619.83  61.8%  1044 14524s
 51269 14134 -1174111.4   31  116 -1761397.0 -679181.51  61.4%  1045 14582s
 51696 14186     cutoff   31      -1761397.0 -685974.24  61.1%  1044 14652s
 52056 14227 -1673164.0   30   94 -1761397.0 -688089.07  60.9%  1045 14852s
 52459 14257     cutoff   37      -1761397.0 -693129.29  60.6%  1044 14924s
 52901 14314 -1401759.0   29  103 -1761397.0 -697806.97  60.4%  1043 14987s
 53401 14365 -703850.35   24  100 -1761397.0 -703850.35  60.0%  1041 15048s
 53916 14450 -748988.81   23   76 -1761397.0 -707984.81  59.8%  1039 15105s
 54366 14471 -1641929.8   27  100 -1761397.0 -711653.59  59.6%  1037 15171s
 54748 14514 -731199.62   26  127 -1761397.0 -718422.07  59.2%  1037 15259s
 55119 14534     cutoff   23      -1761397.0 -720942.89  59.1%  1038 15322s
 55605 14579     cutoff   34      -1761397.0 -727196.83  58.7%  1036 15384s
 56040 14648 -1446945.8   34   37 -1761397.0 -731524.49  58.5%  1035 15511s
 56257 14635 -1464441.2   35   47 -1761397.0 -731681.20  58.5%  1034 15574s
 56637 14650 -1387381.6   55  105 -1761397.0 -738101.64  58.1%  1035 15635s
 57152 14737 -1327718.3   51   79 -1761397.0 -743726.79  57.8%  1033 15693s
 57579 14735 -1333262.7   28  117 -1761397.0 -750445.59  57.4%  1032 15752s
 58090 14754 -1102550.7   28   70 -1761397.0 -757542.47  57.0%  1031 15809s
 58534 14778     cutoff   34      -1761397.0 -762457.20  56.7%  1029 15869s
 59045 14837 -1727576.2   29  101 -1761397.0 -768409.41  56.4%  1028 15924s
 59445 14841 -1658129.2   32   50 -1761397.0 -772045.59  56.2%  1027 15980s
 59925 14866     cutoff   33      -1761397.0 -778908.89  55.8%  1025 16039s
 60320 14918 -993103.18   24  104 -1761397.0 -781625.60  55.6%  1025 16096s
 60741 14938 -1247858.4   38   74 -1761397.0 -784876.32  55.4%  1024 16151s
 61295 15021 -1226850.3   26  130 -1761397.0 -788641.74  55.2%  1022 16204s
 61642 14994 -1244139.1   35  100 -1761397.0 -792241.65  55.0%  1022 16260s
 62114 15038 -1338420.0   31   62 -1761397.0 -797053.64  54.7%  1021 16319s
 62573 15118     cutoff   50      -1761397.0 -801157.96  54.5%  1020 16374s
 62959 15104     cutoff   34      -1761397.0 -805605.43  54.3%  1020 16434s
 63344 15101 -925000.31   32   58 -1761397.0 -810684.29  54.0%  1019 16485s
 63747 15095 -1128050.6   36  112 -1761397.0 -815914.80  53.7%  1018 16544s
 64257 15136 -1522073.9   37   82 -1761397.0 -820966.53  53.4%  1016 16601s
 64653 15140 -891084.83   22  170 -1761397.0 -825456.03  53.1%  1015 16661s
 65049 15153     cutoff   30      -1761397.0 -828448.92  53.0%  1015 16727s
 65563 15230 -946567.24   30   87 -1761397.0 -834604.02  52.6%  1013 16782s
 66018 15286 -1132728.0   28  120 -1761397.0 -838237.12  52.4%  1011 16835s
 66372 15275 -1380713.7   28  103 -1761397.0 -842147.29  52.2%  1011 16891s
 66796 15285 -1328178.9   29   71 -1761397.0 -846941.53  51.9%  1011 16957s
 67225 15293 -1095062.1   27  159 -1761397.0 -852186.57  51.6%  1010 17019s
 67683 15320 -921533.78   26   87 -1761397.0 -856246.43  51.4%  1008 17094s
 68141 15327 -1500185.2   31  104 -1761397.0 -861509.48  51.1%  1006 17144s
 68627 15382     cutoff   31      -1761397.0 -866183.17  50.8%  1004 17199s
 69033 15404 -1402224.0   31   74 -1761397.0 -870132.54  50.6%  1004 17257s
 69536 15440     cutoff   17      -1761397.0 -873767.26  50.4%  1002 17315s
 70028 15487 -1062676.9   42  112 -1761397.0 -878777.04  50.1%   999 17372s
 70392 15489     cutoff   34      -1761397.0 -881627.84  49.9%   999 17427s
 70808 15483 -1483253.1   38   50 -1761397.0 -885089.91  49.8%   998 17486s
 71202 15492 -1261932.1   34   82 -1761397.0 -888928.71  49.5%   997 17547s
 71643 15542 -1137309.8   27   82 -1761397.0 -893400.45  49.3%   995 17621s
 72011 15552 -1730361.1   27   77 -1761397.0 -898255.62  49.0%   995 17668s
 72397 15559 -1382217.8   28   70 -1761397.0 -902355.15  48.8%   994 17720s
 72794 15588     cutoff   28      -1761397.0 -905918.72  48.6%   994 17768s
 73124 15546 -1451431.6   29   58 -1761397.0 -908917.92  48.4%   994 17821s
 73508 15534     cutoff   32      -1761397.0 -914459.30  48.1%   992 17872s
 73905 15544 -1450007.4   33   76 -1761397.0 -918581.19  47.8%   992 17932s
 74324 15534 -1042381.9   36   62 -1761397.0 -923800.78  47.6%   991 17978s
 74861 15597 -1291530.1   25   65 -1761397.0 -927046.03  47.4%   989 18027s
 75269 15615 -1490723.8   45  101 -1761397.0 -932598.36  47.1%   989 18077s
 75550 15588     cutoff   36      -1761397.0 -934953.63  46.9%   989 18285s
 76016 15608     cutoff   42      -1761397.0 -939944.59  46.6%   986 18347s
 76484 15649 -1239393.4   22  104 -1761397.0 -943840.06  46.4%   985 18399s
 76838 15649 -1708326.6   32   26 -1761397.0 -947449.45  46.2%   985 18450s
 77297 15661     cutoff   28      -1761397.0 -952619.65  45.9%   983 18500s
 77729 15692 -1501149.5   16  113 -1761397.0 -956420.22  45.7%   982 18550s
 78157 15697 -1223524.9   36  106 -1761397.0 -959506.03  45.5%   981 18601s
 78630 15722 -1319727.9   46  137 -1761397.0 -962944.59  45.3%   980 18652s
 79009 15692 -1125720.8   29  116 -1761397.0 -966188.45  45.1%   979 18700s
 79448 15712 -1137638.1   28   65 -1761397.0 -971169.49  44.9%   977 18755s
 79793 15679     cutoff   27      -1761397.0 -974865.45  44.7%   977 18799s
 80181 15652     cutoff   64      -1761397.0 -979363.69  44.4%   975 18844s
 80529 15631     cutoff   36      -1761397.0 -983621.75  44.2%   974 18894s
 80922 15607     cutoff   25      -1761397.0 -986972.14  44.0%   974 18947s
 81398 15616 -1507772.8   39  115 -1761397.0 -986972.14  44.0%   972 18996s
 81778 15583     cutoff   32      -1761397.0 -994076.77  43.6%   971 19043s
 82087 15557     cutoff   56      -1761397.0 -998819.33  43.3%   970 19089s
 82449 15539 -1187569.6   31  106 -1761397.0 -1003228.3  43.0%   969 19134s
 82832 15519     cutoff   34      -1761397.0 -1007050.6  42.8%   969 19186s
 83232 15504 -1525170.3   32   73 -1761397.0 -1010893.5  42.6%   967 19234s
 83629 15493     cutoff   38      -1761397.0 -1013347.4  42.5%   966 19278s
 84055 15497     cutoff   26      -1761397.0 -1016415.1  42.3%   965 19322s
 84468 15489     cutoff   42      -1761397.0 -1020701.2  42.1%   964 19372s
 84802 15456     cutoff   26      -1761397.0 -1024007.3  41.9%   963 19418s
 85155 15437 -1568871.8   33   52 -1761397.0 -1027322.6  41.7%   962 19466s
 85519 15464 -1255518.3   32   63 -1761397.0 -1031304.5  41.4%   961 19672s
 85736 15399     cutoff   32      -1761397.0 -1031644.2  41.4%   961 19717s
 86160 15372     cutoff   30      -1761397.0 -1036840.0  41.1%   960 19761s
 86566 15358 -1629558.0   29   80 -1761397.0 -1039907.0  41.0%   959 19807s
 86862 15329     cutoff   27      -1761397.0 -1041408.0  40.9%   959 19849s
 87214 15296 -1238620.6   56  100 -1761397.0 -1046682.4  40.6%   958 19882s
 87561 15265 -1750332.8   55   31 -1761397.0 -1050840.2  40.3%   957 19929s
 87910 15232     cutoff   38      -1761397.0 -1053944.7  40.2%   956 19973s
 88250 15192     cutoff   30      -1761397.0 -1057121.5  40.0%   955 20017s
 88662 15167 -1392225.8   30   46 -1761397.0 -1060512.1  39.8%   954 20050s
 88994 15143     cutoff   47      -1761397.0 -1064613.5  39.6%   953 20091s
 89307 15096 -1131127.5   30  119 -1761397.0 -1067964.3  39.4%   952 20128s
 89636 15056     cutoff   30      -1761397.0 -1071622.5  39.2%   951 20164s
 89990 15031 -1686944.7   43   91 -1761397.0 -1074487.9  39.0%   951 20205s
 90369 15003 -1117727.3   37   81 -1761397.0 -1078550.3  38.8%   949 20233s
 90728 14969 -1197664.5   33  128 -1761397.0 -1081940.3  38.6%   948 20279s
 91085 14939 -1550703.5   34   91 -1761397.0 -1085580.3  38.4%   947 20315s
 91415 14911 -1576846.5   29   86 -1761397.0 -1089912.6  38.1%   946 20356s
 91716 14878     cutoff   28      -1761397.0 -1093057.4  37.9%   945 20415s
 92001 14839     cutoff   28      -1761397.0 -1094657.9  37.9%   944 20463s
 92343 14822 -1544797.9   41   84 -1761397.0 -1098909.7  37.6%   943 20505s
 92675 14785 -1229065.8   20  129 -1761397.0 -1102441.9  37.4%   942 20543s
 92966 14744 -1199782.3   27   74 -1761397.0 -1105944.5  37.2%   941 20576s
 93276 14700     cutoff   32      -1761397.0 -1109196.5  37.0%   940 20616s
 93665 14673     cutoff   45      -1761397.0 -1112273.9  36.9%   939 20666s
 94041 14634 -1351826.2   50   71 -1761397.0 -1115791.3  36.7%   938 20703s
 94415 14596     cutoff   42      -1761397.0 -1119637.0  36.4%   936 20742s
 94784 14560 -1618415.7   31   91 -1761397.0 -1122547.3  36.3%   935 20781s
 95144 14531 -1328725.0   30   79 -1761397.0 -1124742.4  36.1%   934 20815s
 95493 14488     cutoff   30      -1761397.0 -1128408.4  35.9%   933 20855s
 95829 14458     cutoff   37      -1761397.0 -1131392.3  35.8%   932 20888s
 96172 14405     cutoff   35      -1761397.0 -1133763.2  35.6%   931 20924s
 96451 14359     cutoff   29      -1761397.0 -1137213.9  35.4%   930 20959s
 96753 14300     cutoff   29      -1761397.0 -1140353.5  35.3%   930 20999s
 97095 14271     cutoff   41      -1761397.0 -1142958.2  35.1%   929 21035s
 97370 14230 -1379431.5   31   41 -1761397.0 -1146972.0  34.9%   928 21063s
 97634 14188     cutoff   40      -1761397.0 -1150442.2  34.7%   927 21090s
 97898 14123 -1564538.3   41  111 -1761397.0 -1154107.3  34.5%   927 21122s
 98239 14103     cutoff   31      -1761397.0 -1157376.2  34.3%   926 21158s
 98508 14045 -1375364.8   53  111 -1761397.0 -1160372.0  34.1%   925 21183s
 98762 13992 -1522693.7   15  125 -1761397.0 -1163584.5  33.9%   925 21218s
 99074 13939     cutoff   41      -1761397.0 -1166516.4  33.8%   924 21251s
 99433 13893 -1755033.9   26   84 -1761397.0 -1169396.6  33.6%   922 21284s
 99740 13867     cutoff   35      -1761397.0 -1172717.8  33.4%   921 21320s
 100104 13845 -1671991.2   35   45 -1761397.0 -1174487.9  33.3%   920 21345s
 100421 13798     cutoff   41      -1761397.0 -1178341.5  33.1%   919 21378s
 100648 13736 -1331813.8   35   38 -1761397.0 -1181407.8  32.9%   919 21414s
 100946 13696 -1420505.2   32   46 -1761397.0 -1184017.0  32.8%   918 21447s
 101267 13661 -1228935.9   39   37 -1761397.0 -1187428.1  32.6%   917 21471s
 101519 13610 -1732952.8   32   96 -1761397.0 -1190493.4  32.4%   916 21508s
 101893 13582     cutoff   30      -1761397.0 -1193237.2  32.3%   915 21529s
 102193 13536     cutoff   36      -1761397.0 -1196226.8  32.1%   913 21560s
 102493 13481     cutoff   30      -1761397.0 -1199606.6  31.9%   912 21582s
 102756 13412     cutoff   33      -1761397.0 -1202320.9  31.7%   911 21611s
 103001 13352 -1226784.4   37  104 -1761397.0 -1205461.4  31.6%   911 21633s
 103285 13300 -1510385.3   38   58 -1761397.0 -1209254.2  31.3%   910 21654s
 103558 13245 -1212454.6   34   68 -1761397.0 -1211909.5  31.2%   909 21674s
 103857 13203     cutoff   29      -1761397.0 -1214176.9  31.1%   908 21701s
 104169 13157     cutoff   46      -1761397.0 -1216684.3  30.9%   907 21736s
 104435 13099 -1648657.3   34   44 -1761397.0 -1219257.4  30.8%   906 21763s
 104686 13034 -1396163.7   36   93 -1761397.0 -1221896.1  30.6%   905 21788s
 104932 12966     cutoff   43      -1761397.0 -1225198.2  30.4%   905 21814s
 105222 12911     cutoff   56      -1761397.0 -1228240.5  30.3%   904 21836s
 105495 12853     cutoff   33      -1761397.0 -1231223.2  30.1%   903 21866s
 105819 12804     cutoff   46      -1761397.0 -1234083.8  29.9%   902 21906s
 106099 12744     cutoff   32      -1761397.0 -1236537.5  29.8%   901 22091s
 106347 12677 -1319369.4   41   56 -1761397.0 -1239348.2  29.6%   900 22114s
 106611 12614     cutoff   28      -1761397.0 -1242184.3  29.5%   899 22133s
 106915 12572     cutoff   52      -1761397.0 -1244863.3  29.3%   898 22153s
 107125 12510 -1355804.5   43  111 -1761397.0 -1247495.2  29.2%   897 22177s
 107417 12450     cutoff   36      -1761397.0 -1250058.6  29.0%   896 22210s
 107706 12393     cutoff   25      -1761397.0 -1252958.1  28.9%   895 22236s
 108010 12343     cutoff   41      -1761397.0 -1255232.4  28.7%   894 22260s
 108258 12286     cutoff   31      -1761397.0 -1257908.9  28.6%   893 22292s
 108549 12232 -1521131.8   34   54 -1761397.0 -1260024.8  28.5%   892 22313s
 108788 12170 -1519974.7   37   48 -1761397.0 -1262987.9  28.3%   892 22337s
 109007 12111     cutoff   34      -1761397.0 -1265310.5  28.2%   891 22361s
 109360 12081 -1468466.2   32   28 -1761397.0 -1267905.7  28.0%   889 22392s
 109575 12012     cutoff   33      -1761397.0 -1270337.3  27.9%   889 22415s
 109849 11953 -1603299.9   51   24 -1761397.0 -1272814.7  27.7%   888 22430s
 110124 11884 -1320689.0   38   41 -1761397.0 -1275331.9  27.6%   887 22449s
 110372 11820     cutoff   31      -1761397.0 -1277853.0  27.5%   886 22479s
 110686 11773 -1488724.7   32   61 -1761397.0 -1280490.6  27.3%   885 22499s
 110957 11718     cutoff   41      -1761397.0 -1282581.0  27.2%   884 22520s
 111231 11660 -1502186.9   37  110 -1761397.0 -1284689.3  27.1%   883 22546s
 111571 11612 -1370180.1   26  107 -1761397.0 -1287025.0  26.9%   881 22568s
 111792 11545 -1726958.9   31   95 -1761397.0 -1289419.1  26.8%   881 22586s
 112009 11478     cutoff   54      -1761397.0 -1291640.4  26.7%   880 22616s
 112266 11412 -1669654.5   39   75 -1761397.0 -1294052.4  26.5%   879 22631s
 112502 11354     cutoff   24      -1761397.0 -1296475.4  26.4%   878 22651s
 112770 11290     cutoff   26      -1761397.0 -1298871.9  26.3%   877 22680s
 112993 11237     cutoff   40      -1761397.0 -1301536.4  26.1%   877 22707s
 113272 11171 -1477248.5   32   75 -1761397.0 -1304171.1  26.0%   876 22730s
 113519 11097 -1534132.5   38   73 -1761397.0 -1306519.5  25.8%   875 22745s
 113727 11020     cutoff   31      -1761397.0 -1309310.0  25.7%   875 22775s
 113935 10944     cutoff   31      -1761397.0 -1312351.2  25.5%   874 22794s
 114207 10880 -1701664.8   30   46 -1761397.0 -1314361.0  25.4%   873 22814s
 114419 10803     cutoff   31      -1761397.0 -1317397.6  25.2%   872 22829s
 114645 10728 -1530426.0   21   89 -1761397.0 -1319234.7  25.1%   872 22850s
 114876 10667     cutoff   27      -1761397.0 -1321798.3  25.0%   871 22865s
 115103 10602     cutoff   33      -1761397.0 -1323908.4  24.8%   870 22880s
 115297 10529     cutoff   38      -1761397.0 -1325975.2  24.7%   869 22901s
 115627 10480 -1685438.7   35   40 -1761397.0 -1328079.6  24.6%   868 22911s
 115809 10411     cutoff   45      -1761397.0 -1330632.9  24.5%   867 22925s
 116009 10333 -1564949.6   54   52 -1761397.0 -1332937.7  24.3%   866 22949s
 116227 10268 -1422340.5   41  100 -1761397.0 -1335276.0  24.2%   866 22972s
 116480 10210     cutoff   43      -1761397.0 -1337332.1  24.1%   865 23003s
 116729 10135 -1728781.4   35   54 -1761397.0 -1339311.9  24.0%   864 23019s
 116923 10058 -1693259.4   27   13 -1761397.0 -1341792.0  23.8%   864 23034s
 117153  9997     cutoff   33      -1761397.0 -1344233.1  23.7%   863 23045s
 117321  9920 -1671775.4   57   54 -1761397.0 -1346793.0  23.5%   862 23062s
 117577  9853 -1419873.9   35   29 -1761397.0 -1349153.7  23.4%   861 23082s
 117803  9791     cutoff   34      -1761397.0 -1351349.6  23.3%   860 23097s
 118011  9727     cutoff   57      -1761397.0 -1353660.0  23.1%   859 23113s
 118253  9668     cutoff   28      -1761397.0 -1356060.1  23.0%   858 23139s
 118495  9595 -1522268.0   22  103 -1761397.0 -1358182.7  22.9%   858 23155s
 118694  9526     cutoff   58      -1761397.0 -1360508.6  22.8%   857 23169s
 118869  9445     cutoff   40      -1761397.0 -1362643.3  22.6%   856 23186s
 119052  9364     cutoff   28      -1761397.0 -1364881.5  22.5%   856 23197s
 119217  9288     cutoff   33      -1761397.0 -1367257.1  22.4%   855 23212s
 119424  9214     cutoff   27      -1761397.0 -1369356.7  22.3%   855 23225s
 119604  9140     cutoff   30      -1761397.0 -1371718.0  22.1%   854 23235s
 119858  9088 -1750859.4   30   44 -1761397.0 -1374430.8  22.0%   853 23244s
 120071  9019     cutoff   59      -1761397.0 -1376883.9  21.8%   852 23261s
 120280  8949 -1504063.0   30   72 -1761397.0 -1378935.4  21.7%   851 23284s
 120473  8876     cutoff   33      -1761397.0 -1381406.4  21.6%   850 23300s
 120674  8803     cutoff   27      -1761397.0 -1383844.2  21.4%   849 23312s
 120869  8728 -1698366.3   47   74 -1761397.0 -1385888.6  21.3%   849 23341s
 121075  8659     cutoff   28      -1761397.0 -1387984.9  21.2%   848 23362s
 121298  8589     cutoff   38      -1761397.0 -1390286.9  21.1%   847 23373s
 121468  8513     cutoff   28      -1761397.0 -1392027.5  21.0%   846 23382s
 121650  8435     cutoff   25      -1761397.0 -1394370.1  20.8%   845 23397s
 121826  8358     cutoff   37      -1761397.0 -1396555.7  20.7%   845 23406s
 122028  8286     cutoff   68      -1761397.0 -1398700.2  20.6%   844 23421s
 122223  8216 -1429192.8   28  113 -1761397.0 -1401394.2  20.4%   843 23432s
 122415  8140     cutoff   31      -1761397.0 -1403721.2  20.3%   842 23445s
 122647  8071     cutoff   34      -1761397.0 -1406215.0  20.2%   841 23458s
 122820  7993     cutoff   41      -1761397.0 -1408945.8  20.0%   840 23476s
 123051  7915     cutoff   37      -1761397.0 -1410978.2  19.9%   839 23491s
 123255  7846     cutoff   47      -1761397.0 -1413243.9  19.8%   838 23499s
 123429  7767     cutoff   27      -1761397.0 -1415511.9  19.6%   838 23510s
 123588  7691     cutoff   33      -1761397.0 -1418078.1  19.5%   837 23519s
 123742  7614     cutoff   38      -1761397.0 -1420629.6  19.3%   836 23530s
 123936  7543 -1678580.2   48   48 -1761397.0 -1422934.7  19.2%   836 23547s
 124114  7467     cutoff   35      -1761397.0 -1425391.1  19.1%   835 23558s
 124283  7387     cutoff   47      -1761397.0 -1427648.3  18.9%   834 23568s
 124531  7325     cutoff   43      -1761397.0 -1429854.9  18.8%   833 23574s
 124691  7249     cutoff   31      -1761397.0 -1431908.9  18.7%   833 23583s
 124888  7173     cutoff   32      -1761397.0 -1433818.6  18.6%   832 23591s
 125073  7105     cutoff   55      -1761397.0 -1436079.4  18.5%   831 23599s
 125252  7030     cutoff   38      -1761397.0 -1438127.5  18.4%   831 23608s
 125444  6957     cutoff   30      -1761397.0 -1440411.5  18.2%   830 23618s
 125611  6886 -1513611.6   36   29 -1761397.0 -1443026.2  18.1%   829 23626s
 125796  6817     cutoff   41      -1761397.0 -1445209.4  18.0%   828 23631s
 125936  6737     cutoff   31      -1761397.0 -1447689.8  17.8%   828 23641s
 126080  6660     cutoff   33      -1761397.0 -1449886.8  17.7%   827 23648s
 126248  6587 -1602969.1   35   41 -1761397.0 -1452200.9  17.6%   827 23664s
 126415  6509 -1495857.5   33   87 -1761397.0 -1454336.6  17.4%   826 23673s
 126611  6432     cutoff   33      -1761397.0 -1457061.4  17.3%   825 23679s
 126756  6355 -1462630.5   30   41 -1761397.0 -1459634.7  17.1%   825 23685s
 126940  6283     cutoff   40      -1761397.0 -1461851.0  17.0%   824 23693s
 127085  6204     cutoff   31      -1761397.0 -1464265.6  16.9%   823 23700s
 127381  6043     cutoff   42      -1761397.0 -1469213.0  16.6%   822 23712s
 127562  5961 -1720042.2   54   76 -1761397.0 -1471632.8  16.5%   821 23723s
 127776  5888     cutoff   35      -1761397.0 -1474171.3  16.3%   820 23728s
 127925  5811     cutoff   49      -1761397.0 -1476751.2  16.2%   820 23738s
 128096  5737     cutoff   41      -1761397.0 -1478645.6  16.1%   819 23746s
 128257  5667 -1743753.3   29   86 -1761397.0 -1480989.6  15.9%   818 23754s
 128419  5584     cutoff   35      -1761397.0 -1483387.4  15.8%   817 23767s
 128604  5514 -1499027.4   32  110 -1761397.0 -1486110.9  15.6%   817 23774s
 128776  5439     cutoff   33      -1761397.0 -1488570.8  15.5%   816 23784s
 128938  5361 -1665447.3   31   34 -1761397.0 -1491074.4  15.3%   815 23793s
 129093  5288 -1578243.4   34   83 -1761397.0 -1493475.0  15.2%   815 23798s
 129235  5208     cutoff   36      -1761397.0 -1495665.1  15.1%   814 23805s
 129393  5128     cutoff   30      -1761397.0 -1498715.2  14.9%   813 23823s
 129549  5050     cutoff   41      -1761397.0 -1501013.4  14.8%   813 23830s
 129694  4970     cutoff   27      -1761397.0 -1503856.1  14.6%   812 23842s
 129852  4892     cutoff   34      -1761397.0 -1506323.4  14.5%   812 23849s
 129991  4812     cutoff   50      -1761397.0 -1508478.6  14.4%   811 23858s
 130143  4733 -1650323.1   42   77 -1761397.0 -1510344.1  14.3%   810 23865s
 130338  4655     cutoff   32      -1761397.0 -1513216.3  14.1%   809 23871s
 130480  4571     cutoff   38      -1761397.0 -1515156.6  14.0%   809 23881s
 130632  4492     cutoff   33      -1761397.0 -1518117.5  13.8%   808 23887s
 130787  4412     cutoff   39      -1761397.0 -1520351.9  13.7%   808 23895s
 130908  4329     cutoff   43      -1761397.0 -1522805.8  13.5%   807 23902s
 131062  4252     cutoff   42      -1761397.0 -1525091.0  13.4%   806 23906s
 131216  4171     cutoff   44      -1761397.0 -1527327.1  13.3%   806 23913s
 131379  4093     cutoff   32      -1761397.0 -1530003.1  13.1%   805 23919s
 131513  4015     cutoff   70      -1761397.0 -1532612.5  13.0%   804 23924s
 131652  3933     cutoff   25      -1761397.0 -1535276.9  12.8%   804 23928s
 131806  3851     cutoff   37      -1761397.0 -1537827.9  12.7%   803 23932s
 131971  3771 -1613505.9   34   58 -1761397.0 -1540736.4  12.5%   802 23937s
 132128  3691     cutoff   44      -1761397.0 -1543807.1  12.4%   802 23940s
 132271  3608     cutoff   30      -1761397.0 -1546721.6  12.2%   801 23946s
 132416  3536     cutoff   34      -1761397.0 -1549687.4  12.0%   800 23950s
 132678  3368 -1564281.8   35   91 -1761397.0 -1555490.6  11.7%   799 23957s
 132780  3284     cutoff   34      -1761397.0 -1558720.3  11.5%   799 23961s
 132901  3200     cutoff   47      -1761397.0 -1561623.3  11.3%   798 23965s
 133041  3118     cutoff   25      -1761397.0 -1564200.5  11.2%   797 23972s
 133166  3036     cutoff   34      -1761397.0 -1567035.5  11.0%   797 23975s
 133445  2873     cutoff   36      -1761397.0 -1572424.1  10.7%   796 23983s
 133579  2792     cutoff   37      -1761397.0 -1575272.1  10.6%   795 23987s
 133695  2709     cutoff   26      -1761397.0 -1578457.6  10.4%   795 23991s
 133961  2544     cutoff   40      -1761397.0 -1584276.7  10.1%   793 23996s
 134074  2461     cutoff   31      -1761397.0 -1587543.2  9.87%   793 24003s
 134203  2379 -1590466.8   29   61 -1761397.0 -1590452.1  9.71%   792 24005s
 134476  2214     cutoff   31      -1761397.0 -1596793.8  9.35%   791 24010s
 134833  1971     cutoff   32      -1761397.0 -1607002.5  8.77%   789 24017s
 135052  1803     cutoff   26      -1761397.0 -1613385.9  8.40%   788 24021s
 135167  1720     cutoff   39      -1761397.0 -1617279.6  8.18%   787 24025s
 135531  1471     cutoff   29      -1761397.0 -1628877.2  7.52%   786 24030s
 135748  1305     cutoff   34      -1761397.0 -1638164.2  7.00%   784 24035s
 136133  1057     cutoff   51      -1761397.0 -1650195.7  6.31%   782 24040s
 136379   890     cutoff   32      -1761397.0 -1659319.3  5.80%   781 24046s
 136736   639 -1693408.0   37   55 -1761397.0 -1674505.2  4.93%   779 24050s
 137153   303 -1703762.6   30   76 -1761397.0 -1703762.6  3.27%   777 24055s

Cutting planes:
  Gomory: 28
  Implied bound: 16
  Projected implied bound: 14
  MIR: 81
  Flow cover: 395
  Mod-K: 1

Explored 137629 nodes (106711503 simplex iterations) in 24060.40 seconds
Thread count was 4 (of 16 available processors)

Solution count 10: -1.7614e+06 -1.7614e+06 -1.7614e+06 ... -1.89011e+06

Optimal solution found (tolerance 1.00e-04)
Best objective -1.761398090000e+06, best bound -1.761397003807e+06, gap 0.0001%

***
***  |- Calculation finished, took 24,060.42 (24060.42) sec.
***  |-----------------------------------------------------------------------------------------------------------------------
***
*****************************************************************************************************************************
#############################################################################################################################
###
### Results
###
### The objective of the solution is -1,761,398.09 (-1761398.09) and is feasible with a Gap of 0.0
###
### Service 42 (SAMBA) is operated by 7 vessels from type 18 (PMax25)
###  |- Vessel 1 has the path [143, 77, 78, 5, 0]
###  |  143 (USMSY Out@238.0) - 77 (ESALG In@607.0/Out@631.0) - 78 (ESALG In@613.0/Out@658.0) - 5 (ARBUE In@1088.0/Out@1112.0
###  |  ) - 0 (DUMMY_END Ziel-Service 42)
###  |   |- and carried Demand  98, 392.0 containers from  78 to   5
###  |   |- and carried Demand  99,  13.0 containers from  78 to   5
###  |   |- and carried Demand 490, 392.0 containers from  77 to   5
###  |   |- and carried Demand 491,  13.0 containers from  77 to   5
###  |   |- and carried Demand 494,  59.0 containers from  77 to   5
###  |   |- and carried Demand 495,   6.0 containers from  77 to   5
###  |   |- and carried Demand 496, 126.0 containers from  77 to   5
###  |- Vessel 2 has the path [144, 79, 80, 81, 82, 83, 85, 86, 87, 88, 94, 55, 51, 11, 12, 0]
###  |  144 (USMSY Out@406.0) - 79 (ESALG In@775.0/Out@799.0) - 80 (ESALG In@829.0/Out@853.0) - 81 (ESALG In@943.0/Out@967.0)
###  |   - 82 (ESALG In@1045.0/Out@1075.0) - 83 (ESALG In@1111.0/Out@1135.0) - 85 (ESALG In@1213.0/Out@1243.0) - 86 (ESALG In
###  |  @1279.0/Out@1303.0) - 87 (ESALG In@1381.0/Out@1411.0) - 88 (ESALG In@1447.0/Out@1471.0) - 94 (ESLPA In@1521.0/Out@154
###  |  5.0) - 55 (BRSUA In@1691.0/Out@1715.0) - 51 (BRSSZ In@1788.0/Out@1808.0) - 11 (ARBUE In@1862.0/Out@1905.0) - 12 (ARBU
###  |  E In@1928.0/Out@1952.0) - 0 (DUMMY_END Ziel-Service 42)
###  |   |- and carried Demand   7, 200.0 containers from  82 to  12
###  |   |- and carried Demand  20,  57.0 containers from  85 to  11
###  |   |- and carried Demand  24,  16.0 containers from  85 to  11
###  |   |- and carried Demand  26,  47.0 containers from  87 to  51
###  |   |- and carried Demand  29,   8.0 containers from  87 to  11
###  |   |- and carried Demand  30, 224.0 containers from  87 to  11
###  |   |- and carried Demand  31,  58.0 containers from  87 to  12
###  |   |- and carried Demand  32,   5.0 containers from  87 to  12
###  |   |- and carried Demand  33, 159.0 containers from  87 to  11
###  |   |- and carried Demand  71,  12.0 containers from  51 to  11
###  |   |- and carried Demand 156, 239.0 containers from  80 to  11
###  |   |- and carried Demand 157,   8.0 containers from  80 to  11
###  |   |- and carried Demand 161,  19.0 containers from  80 to  11
###  |   |- and carried Demand 176,   8.0 containers from  88 to  11
###  |   |- and carried Demand 177, 224.0 containers from  88 to  11
###  |   |- and carried Demand 178,  58.0 containers from  88 to  12
###  |   |- and carried Demand 179,   5.0 containers from  88 to  12
###  |   |- and carried Demand 180, 159.0 containers from  88 to  11
###  |   |- and carried Demand 249,  57.0 containers from  86 to  11
###  |   |- and carried Demand 253,  16.0 containers from  86 to  11
###  |   |- and carried Demand 322, 200.0 containers from  83 to  12
###  |   |- and carried Demand 382, 239.0 containers from  81 to  11
###  |   |- and carried Demand 383,   8.0 containers from  81 to  11
###  |   |- and carried Demand 387,  19.0 containers from  81 to  11
###  |   |- and carried Demand 441, 488.0 containers from  79 to  12
###  |   |- and carried Demand 442,   5.0 containers from  79 to  12
###  |- Vessel 3 has the path [145, 4, 0]
###  |  145 (USMSY Out@574.0) - 4 (ARBUE In@920.0/Out@944.0) - 0 (DUMMY_END Ziel-Service 42)
###  |- Vessel 4 has the path [146, 6, 0]
###  |  146 (USMSY Out@742.0) - 6 (ARBUE In@1256.0/Out@1280.0) - 0 (DUMMY_END Ziel-Service 42)
###  |- Vessel 5 has the path [147, 8, 0]
###  |  147 (USMSY Out@910.0) - 8 (ARBUE In@1424.0/Out@1448.0) - 0 (DUMMY_END Ziel-Service 42)
###  |- Vessel 6 has the path [148, 9, 0]
###  |  148 (USMSY Out@1078.0) - 9 (ARBUE In@1592.0/Out@1616.0) - 0 (DUMMY_END Ziel-Service 42)
###  |- Vessel 7 has the path [149, 10, 0]
###  |  149 (USMSY Out@1246.0) - 10 (ARBUE In@1760.0/Out@1784.0) - 0 (DUMMY_END Ziel-Service 42)
###  |
### Vessels not used in the solution: []
###  |-----------------------------------------------------------------------------------------------------------------------
###
#############################################################################################################################

### Detialed variable overview

### All variables with value greater zero:
rho[42,18] = 1
eta[42,18,1] = 1
eta[42,18,2] = 1
eta[42,18,3] = 1
eta[42,18,4] = 1
eta[42,18,5] = 1
eta[42,18,6] = 1
eta[42,18,7] = 1
y[1,77,78] = 1
y[1,5,0] = 1
y[1,143,77] = 1
y[1,78,5] = 1
y[2,94,55] = 1
y[2,85,86] = 1
y[2,80,81] = 1
y[2,144,79] = 1
y[2,11,12] = 1
y[2,86,87] = 1
y[2,51,11] = 1
y[2,12,0] = 1
y[2,83,85] = 1
y[2,81,82] = 1
y[2,79,80] = 1
y[2,87,88] = 1
y[2,55,51] = 1
y[2,82,83] = 1
y[2,88,94] = 1
y[3,145,4] = 1
y[3,4,0] = 1
y[4,6,0] = 1
y[4,146,6] = 1
y[5,8,0] = 1
y[5,147,8] = 1
y[6,9,0] = 1
y[6,148,9] = 1
y[7,149,10] = 1
y[7,10,0] = 1
xD[7,94,55] = 200
xD[7,85,86] = 200
xD[7,11,12] = 200
xD[7,86,87] = 200
xD[7,51,11] = 200
xD[7,83,85] = 200
xD[7,87,88] = 200
xD[7,55,51] = 200
xD[7,82,83] = 200
xD[7,88,94] = 200
xD[20,94,55] = 57
xD[20,85,86] = 57
xD[20,86,87] = 57
xD[20,51,11] = 57
xD[20,87,88] = 57
xD[20,55,51] = 57
xD[20,88,94] = 57
xD[24,94,55] = 16
xD[24,85,86] = 16
xD[24,86,87] = 16
xD[24,51,11] = 16
xD[24,87,88] = 16
xD[24,55,51] = 16
xD[24,88,94] = 16
xD[26,94,55] = 47
xD[26,87,88] = 47
xD[26,55,51] = 47
xD[26,88,94] = 47
xD[29,94,55] = 8
xD[29,51,11] = 8
xD[29,87,88] = 8
xD[29,55,51] = 8
xD[29,88,94] = 8
xD[30,94,55] = 224
xD[30,51,11] = 224
xD[30,87,88] = 224
xD[30,55,51] = 224
xD[30,88,94] = 224
xD[31,94,55] = 58
xD[31,11,12] = 58
xD[31,51,11] = 58
xD[31,87,88] = 58
xD[31,55,51] = 58
xD[31,88,94] = 58
xD[32,94,55] = 5
xD[32,11,12] = 5
xD[32,51,11] = 5
xD[32,87,88] = 5
xD[32,55,51] = 5
xD[32,88,94] = 5
xD[33,94,55] = 159
xD[33,51,11] = 159
xD[33,87,88] = 159
xD[33,55,51] = 159
xD[33,88,94] = 159
xD[71,51,11] = 12
xD[98,78,5] = 392
xD[99,78,5] = 13
xD[156,94,55] = 239
xD[156,85,86] = 239
xD[156,80,81] = 239
xD[156,86,87] = 239
xD[156,51,11] = 239
xD[156,83,85] = 239
xD[156,81,82] = 239
xD[156,87,88] = 239
xD[156,55,51] = 239
xD[156,82,83] = 239
xD[156,88,94] = 239
xD[157,94,55] = 8
xD[157,85,86] = 8
xD[157,80,81] = 8
xD[157,86,87] = 8
xD[157,51,11] = 8
xD[157,83,85] = 8
xD[157,81,82] = 8
xD[157,87,88] = 8
xD[157,55,51] = 8
xD[157,82,83] = 8
xD[157,88,94] = 8
xD[161,94,55] = 19
xD[161,85,86] = 19
xD[161,80,81] = 19
xD[161,86,87] = 19
xD[161,51,11] = 19
xD[161,83,85] = 19
xD[161,81,82] = 19
xD[161,87,88] = 19
xD[161,55,51] = 19
xD[161,82,83] = 19
xD[161,88,94] = 19
xD[176,94,55] = 8
xD[176,51,11] = 8
xD[176,55,51] = 8
xD[176,88,94] = 8
xD[177,94,55] = 224
xD[177,51,11] = 224
xD[177,55,51] = 224
xD[177,88,94] = 224
xD[178,94,55] = 58
xD[178,11,12] = 58
xD[178,51,11] = 58
xD[178,55,51] = 58
xD[178,88,94] = 58
xD[179,94,55] = 5
xD[179,11,12] = 5
xD[179,51,11] = 5
xD[179,55,51] = 5
xD[179,88,94] = 5
xD[180,94,55] = 159
xD[180,51,11] = 159
xD[180,55,51] = 159
xD[180,88,94] = 159
xD[249,94,55] = 57
xD[249,86,87] = 57
xD[249,51,11] = 57
xD[249,87,88] = 57
xD[249,55,51] = 57
xD[249,88,94] = 57
xD[253,94,55] = 16
xD[253,86,87] = 16
xD[253,51,11] = 16
xD[253,87,88] = 16
xD[253,55,51] = 16
xD[253,88,94] = 16
xD[322,94,55] = 200
xD[322,85,86] = 200
xD[322,11,12] = 200
xD[322,86,87] = 200
xD[322,51,11] = 200
xD[322,83,85] = 200
xD[322,87,88] = 200
xD[322,55,51] = 200
xD[322,88,94] = 200
xD[382,94,55] = 239
xD[382,85,86] = 239
xD[382,86,87] = 239
xD[382,51,11] = 239
xD[382,83,85] = 239
xD[382,81,82] = 239
xD[382,87,88] = 239
xD[382,55,51] = 239
xD[382,82,83] = 239
xD[382,88,94] = 239
xD[383,94,55] = 8
xD[383,85,86] = 8
xD[383,86,87] = 8
xD[383,51,11] = 8
xD[383,83,85] = 8
xD[383,81,82] = 8
xD[383,87,88] = 8
xD[383,55,51] = 8
xD[383,82,83] = 8
xD[383,88,94] = 8
xD[387,94,55] = 19
xD[387,85,86] = 19
xD[387,86,87] = 19
xD[387,51,11] = 19
xD[387,83,85] = 19
xD[387,81,82] = 19
xD[387,87,88] = 19
xD[387,55,51] = 19
xD[387,82,83] = 19
xD[387,88,94] = 19
xD[441,94,55] = 488
xD[441,85,86] = 488
xD[441,80,81] = 488
xD[441,11,12] = 488
xD[441,86,87] = 488
xD[441,51,11] = 488
xD[441,83,85] = 488
xD[441,81,82] = 488
xD[441,79,80] = 488
xD[441,87,88] = 488
xD[441,55,51] = 488
xD[441,82,83] = 488
xD[441,88,94] = 488
xD[442,94,55] = 5
xD[442,85,86] = 5
xD[442,80,81] = 5
xD[442,11,12] = 5
xD[442,86,87] = 5
xD[442,51,11] = 5
xD[442,83,85] = 5
xD[442,81,82] = 5
xD[442,79,80] = 5
xD[442,87,88] = 5
xD[442,55,51] = 5
xD[442,82,83] = 5
xD[442,88,94] = 5
xD[490,77,78] = 392
xD[490,78,5] = 392
xD[491,77,78] = 13
xD[491,78,5] = 13
xD[494,77,78] = 59
xD[494,78,5] = 59
xD[495,77,78] = 6
xD[495,78,5] = 6
xD[496,77,78] = 126
xD[496,78,5] = 126
zE[4] = 920
zE[5] = 1088
zE[6] = 1256
zE[8] = 1424
zE[9] = 1592
zE[10] = 1760
zE[11] = 1862
zE[12] = 1928
zE[51] = 1788
zE[55] = 1691
zE[77] = 607
zE[78] = 613
zE[79] = 775
zE[80] = 829
zE[81] = 943
zE[82] = 1045
zE[83] = 1111
zE[85] = 1213
zE[86] = 1279
zE[87] = 1381
zE[88] = 1447
zE[94] = 1521
zX[4] = 944
zX[5] = 1112
zX[6] = 1280
zX[8] = 1448
zX[9] = 1616
zX[10] = 1784
zX[11] = 1905
zX[12] = 1952
zX[51] = 1808
zX[55] = 1715
zX[77] = 631
zX[78] = 658
zX[79] = 799
zX[80] = 853
zX[81] = 967
zX[82] = 1075
zX[83] = 1135
zX[85] = 1243
zX[86] = 1303
zX[87] = 1411
zX[88] = 1471
zX[94] = 1545
zX[143] = 238
zX[144] = 406
zX[145] = 574
zX[146] = 742
zX[147] = 910
zX[148] = 1078
zX[149] = 1246
phi[1] = 874
phi[2] = 1546
phi[3] = 370
phi[4] = 538
phi[5] = 538
phi[6] = 538
phi[7] = 538

### All variables with value smaller zero:

### End

real	402m6.846s
user	1501m1.346s
sys	83m22.887s
	Freetype 2.4.12 environment removed
	Python 3.6.0 environment removed
	Gurobi 8.1.0 environment removed
