	Freetype 2.4.12 environment established
		library to render fonts
	Python 3.6.0 environment established
	Gurobi 8.1.0 environment established
Instance LSFRP: LSFDRP_2_4_0_1_fr.p
Instance LSFDP: LSFDRP_2_4_0_1_fd_19.p


*****************************************************************************************************************************
*** Solve LSFDRP_2_4_0_1_fd_19.p with matheuristics.
***  |
***  |- Create instance object for heuristic
***  |   |- Convert flexible visitations into inflexible visitations,	took 0.034195 sec.
***  |   |- Calculate demand structure for node flow model,		took 0.444643 sec.
***  |   |- Create additional vessel information,				took 0.004775 sec.
***  |
***  |   |- Create ranking for FDP solutions,				took 0.028446 sec.
***  |- Start solving instance with matheuristics, run 1
***  |   |- Create ranking for FDP solutions,				took 0.028593 sec.
***  |   |- Calculation finished, timelimit reached 			took   611.68 sec.
***  |
***  |- Start solving instance with matheuristics, run 2
***  |   |- Create ranking for FDP solutions,				took 0.033721 sec.
***  |   |- Calculation finished, timelimit reached 			took   604.62 sec.
***  |
***  |- Start solving instance with matheuristics, run 3
***  |   |- Create ranking for FDP solutions,				took 0.028423 sec.
***  |   |- Calculation finished, timelimit reached 			took   597.14 sec.
***  |
***  |- Start solving instance with matheuristics, run 4
***  |   |- Create ranking for FDP solutions,				took 0.029186 sec.
***  |   |- Calculation finished, timelimit reached 			took    610.8 sec.
***  |
***  |- Start solving instance with matheuristics, run 5
***  |   |- Create ranking for FDP solutions,				took 0.028403 sec.
***  |   |- Calculation finished, timelimit reached 			took   597.03 sec.
***  |
***  |- Start solving instance with matheuristics, run 6
***  |   |- Create ranking for FDP solutions,				took 0.027992 sec.
***  |   |- Calculation finished, timelimit reached 			took   608.08 sec.
***  |
***  |-----------------------------------------------------------------------------------------------------------------------
***
*****************************************************************************************************************************
###
###
#############################################################################################################################
### Solution run 1
#############################################################################################################################
###
### Results
###
### The objective of the solution is -12,660,704.3365 (-12660704.3365)
###
### Service 7 (ME3) is operated by 6 vessels from type 30 (PMax35)
###  |
###  |- Vessel  9 has the path [1, 274, 199, 290, 200, 112, 284, 45, 367, 330, -3]
###  |  1 (BEANR Out@66) - 274 (ESALG In@160/Out@179) - 199 (MAPTM In@207/Out@228) - 290 (MAPTM In@211/Out@230) - 200 (MAPTM 
###  |  In@238/Out@259) - 112 (ESALG In@284/Out@296) - 284 (GWOXB In@463/Out@542) - 45 (CMDLA In@765/Out@811) - 367 (TRMER In
###  |  @915/Out@959) - 330 (AEJEA In@1362/Out@1395) - -3 (DUMMY_END Ziel-Service 7)
###  |   |- and carried Demand   7,  161.0 containers from 199 to 45
###  |   |- and carried Demand   8,  580.0 containers from 199 to 112
###  |   |- and carried Demand  45,  161.0 containers from 200 to 45
###  |   |- and carried Demand  46,  580.0 containers from 200 to 112
###  |   |- and carried Demand 117,  580.0 containers from 199 to 112
###  |   |- and carried Demand 131,  580.0 containers from 200 to 112
###  |   |- and carried Demand 144,  161.0 containers from 290 to 45
###  |   |- and carried Demand 145,  580.0 containers from 290 to 112
###  |
###  |- Vessel 10 has the path [2, 275, 201, 291, 202, 114, 285, 25, 118, 368, 331, -3]
###  |  2 (BEANR Out@234) - 275 (ESALG In@328/Out@347) - 201 (MAPTM In@375/Out@396) - 291 (MAPTM In@379/Out@398) - 202 (MAPTM
###  |   In@406/Out@427) - 114 (ESALG In@452/Out@464) - 285 (GWOXB In@631/Out@710) - 25 (CIABJ In@751/Out@783) - 118 (ESALG I
###  |  n@932/Out@950) - 368 (TRMER In@1083/Out@1127) - 331 (AEJEA In@1530/Out@1563) - -3 (DUMMY_END Ziel-Service 7)
###  |   |- and carried Demand  17,  484.0 containers from 201 to 114
###  |   |- and carried Demand  18,   18.0 containers from 201 to 114
###  |   |- and carried Demand  52,  484.0 containers from 202 to 114
###  |   |- and carried Demand  53,   18.0 containers from 202 to 114
###  |   |- and carried Demand 119,  214.0 containers from 201 to 118
###  |   |- and carried Demand 120,   10.0 containers from 201 to 118
###  |   |- and carried Demand 121,  484.0 containers from 201 to 114
###  |   |- and carried Demand 122,   18.0 containers from 201 to 114
###  |   |- and carried Demand 132,  214.0 containers from 202 to 118
###  |   |- and carried Demand 133,   10.0 containers from 202 to 118
###  |   |- and carried Demand 134,  484.0 containers from 202 to 114
###  |   |- and carried Demand 135,   18.0 containers from 202 to 114
###  |   |- and carried Demand 138,  214.0 containers from 291 to 118
###  |   |- and carried Demand 139,   10.0 containers from 291 to 118
###  |   |- and carried Demand 140,  484.0 containers from 291 to 114
###  |   |- and carried Demand 141,   18.0 containers from 291 to 114
###  |
###  |- Vessel 11 has the path [5, 365, 327, -3]
###  |  5 (BEANR Out@402) - 365 (TRMER In@579/Out@623) - 327 (AEJEA In@858/Out@891) - -3 (DUMMY_END Ziel-Service 7)
###  |
###  |- Vessel 12 has the path [8, 366, 338, 339, 329, -3]
###  |  8 (BEANR Out@570) - 366 (TRMER In@747/Out@791) - 338 (EGPSD In@867/Out@886) - 339 (EGPSD In@957/Out@973) - 329 (AEJEA
###  |   In@1194/Out@1227) - -3 (DUMMY_END Ziel-Service 7)
###  |   |- and carried Demand 206,  467.0 containers from 338 to 329
###  |   |- and carried Demand 210,  467.0 containers from 339 to 329
###  |
###  |- Vessel 17 has the path [145, 364, 325, -3]
###  |  145 (GBFXT Out@302) - 364 (TRMER In@411/Out@455) - 325 (AEJEA In@690/Out@723) - -3 (DUMMY_END Ziel-Service 7)
###  |
###  |- Vessel 18 has the path [148, 337, 328, -3]
###  |  148 (GBFXT Out@470) - 337 (EGPSD In@789/Out@805) - 328 (AEJEA In@1026/Out@1059) - -3 (DUMMY_END Ziel-Service 7)
###  |   |- and carried Demand 213,   54.0 containers from 337 to 328
###  |
###  |
### Service 24 (WAF7) is operated by 2 vessels from type 18 (PMax25)
###  |
###  |- Vessel  1 has the path [100, 276, -1]
###  |  100 (DEHAM Out@288) - 276 (ESALG In@496/Out@515) - -1 (DUMMY_END Ziel-Service 24)
###  |
###  |- Vessel  2 has the path [101, 277, -1]
###  |  101 (DEHAM Out@456) - 277 (ESALG In@664/Out@683) - -1 (DUMMY_END Ziel-Service 24)
###  |
###  |
### Service 81 (MECL1) is operated by 6 vessels from type 19 (PMax28)
###  |
###  |- Vessel  5 has the path [218, 347, 344, 324, 229, 373, 426, 354, 376, 429, 409, -4]
###  |  218 (NLRTM Out@92) - 347 (INPAV In@467/Out@494) - 344 (INNSA In@522/Out@546) - 324 (AEJEA In@617/Out@642) - 229 (OMSL
###  |  L In@721/Out@736) - 373 (AEJEA In@899/Out@923) - 426 (PKBQM In@980/Out@1010) - 354 (OMSLL In@1300/Out@1313) - 376 (AE
###  |  JEA In@1403/Out@1427) - 429 (PKBQM In@1484/Out@1514) - 409 (INNSA In@1578/Out@1594) - -4 (DUMMY_END Ziel-Service 81)
###  |   |- and carried Demand 209,  280.0 containers from 344 to 324
###  |   |- and carried Demand 289,   34.0 containers from 429 to 409
###  |   |- and carried Demand 290,   84.0 containers from 376 to 429
###  |   |- and carried Demand 291,   50.0 containers from 376 to 429
###  |   |- and carried Demand 342,  254.0 containers from 426 to 409
###  |   |- and carried Demand 343,    1.0 containers from 426 to 409
###  |   |- and carried Demand 344,  135.0 containers from 426 to 409
###  |   |- and carried Demand 347,   75.0 containers from 373 to 409
###  |   |- and carried Demand 348,  200.0 containers from 373 to 426
###  |   |- and carried Demand 349,   24.0 containers from 373 to 426
###  |   |- and carried Demand 350,   26.0 containers from 373 to 409
###  |   |- and carried Demand 351,  144.0 containers from 373 to 409
###  |   |- and carried Demand 352,    1.0 containers from 373 to 409
###  |
###  |- Vessel  6 has the path [219, 272, 372, 425, 405, -4]
###  |  219 (NLRTM Out@260) - 272 (TRZMK In@617/Out@631) - 372 (AEJEA In@731/Out@755) - 425 (PKBQM In@812/Out@842) - 405 (INN
###  |  SA In@906/Out@922) - -4 (DUMMY_END Ziel-Service 81)
###  |   |- and carried Demand 361,   44.0 containers from 425 to 405
###  |   |- and carried Demand 366,  133.0 containers from 372 to 425
###  |   |- and carried Demand 367,   61.0 containers from 372 to 425
###  |
###  |- Vessel  7 has the path [221, 137, 203, 115, 273, 406, -4]
###  |  221 (NLRTM Out@428) - 137 (FRLEH In@447/Out@463) - 203 (MAPTM In@543/Out@564) - 115 (ESALG In@589/Out@601) - 273 (TRZ
###  |  MK In@785/Out@799) - 406 (INNSA In@1074/Out@1090) - -4 (DUMMY_END Ziel-Service 81)
###  |   |- and carried Demand  25,   68.0 containers from 221 to 115
###  |   |- and carried Demand  26,    6.0 containers from 221 to 137
###  |   |- and carried Demand  29,   60.0 containers from 203 to 115
###  |   |- and carried Demand  30,   11.0 containers from 203 to 115
###  |   |- and carried Demand 123,   68.0 containers from 221 to 115
###  |   |- and carried Demand 126,   60.0 containers from 203 to 115
###  |   |- and carried Demand 127,   11.0 containers from 203 to 115
###  |
###  |- Vessel  8 has the path [223, 267, 374, 427, 407, -4]
###  |  223 (NLRTM Out@596) - 267 (TRALI In@836/Out@854) - 374 (AEJEA In@1067/Out@1091) - 427 (PKBQM In@1148/Out@1178) - 407 
###  |  (INNSA In@1242/Out@1258) - -4 (DUMMY_END Ziel-Service 81)
###  |   |- and carried Demand 329,   86.0 containers from 374 to 427
###  |   |- and carried Demand 330,  118.0 containers from 374 to 427
###  |
###  |- Vessel 15 has the path [134, 371, 424, 230, 375, 428, 408, -4]
###  |  134 (FRLEH Out@158) - 371 (AEJEA In@563/Out@587) - 424 (PKBQM In@644/Out@674) - 230 (OMSLL In@889/Out@904) - 375 (AEJ
###  |  EA In@1235/Out@1259) - 428 (PKBQM In@1316/Out@1346) - 408 (INNSA In@1410/Out@1426) - -4 (DUMMY_END Ziel-Service 81)
###  |   |- and carried Demand 306,   31.0 containers from 428 to 408
###  |   |- and carried Demand 307,   37.0 containers from 375 to 408
###  |   |- and carried Demand 308,  211.0 containers from 375 to 408
###  |   |- and carried Demand 309,  176.0 containers from 375 to 428
###  |   |- and carried Demand 377,  704.0 containers from 371 to 408
###  |   |- and carried Demand 378,    8.0 containers from 371 to 408
###  |   |- and carried Demand 379,  156.0 containers from 371 to 424
###  |   |- and carried Demand 380,   45.0 containers from 371 to 424
###  |
###  |- Vessel 16 has the path [136, 268, 404, -4]
###  |  136 (FRLEH Out@326) - 268 (TRAMB In@576/Out@603) - 404 (INNSA In@738/Out@754) - -4 (DUMMY_END Ziel-Service 81)
###  |
###  |
### Service 121 (SAE) is operated by 2 vessels from type 18 (PMax25)
###  |
###  |- Vessel  4 has the path [103, 312, 302, -2]
###  |  103 (DEHAM Out@792) - 312 (USMIA In@1103/Out@1111) - 302 (HNPCR In@1166/Out@1179) - -2 (DUMMY_END Ziel-Service 121)
###  |
###  |- Vessel 13 has the path [104, 301, -2]
###  |  104 (DKAAR Out@220) - 301 (HNPCR In@998/Out@1011) - -2 (DUMMY_END Ziel-Service 121)
###  |
###  |
### Service 177 (WCSA) is operated by 2 vessels from type 18 (PMax25)
###  |
###  |- Vessel  3 has the path [102, 358, 269, 235, 0]
###  |  102 (DEHAM Out@624) - 358 (TRAMB In@683/Out@731) - 269 (TRAMB In@744/Out@771) - 235 (PABLB In@1472/Out@1484) - 0 (DUM
###  |  MY_END Ziel-Service 177)
###  |
###  |- Vessel 14 has the path [105, 266, 234, 0]
###  |  105 (DKAAR Out@388) - 266 (TRALI In@668/Out@686) - 234 (PABLB In@1304/Out@1316) - 0 (DUMMY_END Ziel-Service 177)
###  |
###  |
### Vessels not used in the solution: []
###  |-----------------------------------------------------------------------------------------------------------------------
###
#############################################################################################################################
###
###
#############################################################################################################################
### Solution run 2
#############################################################################################################################
###
### Results
###
### The objective of the solution is -12,660,704.3365 (-12660704.3365)
###
### Service 7 (ME3) is operated by 6 vessels from type 30 (PMax35)
###  |
###  |- Vessel  9 has the path [1, 274, 199, 290, 200, 112, 284, 45, 367, 330, -3]
###  |  1 (BEANR Out@66) - 274 (ESALG In@160/Out@179) - 199 (MAPTM In@207/Out@228) - 290 (MAPTM In@211/Out@230) - 200 (MAPTM 
###  |  In@238/Out@259) - 112 (ESALG In@284/Out@296) - 284 (GWOXB In@463/Out@542) - 45 (CMDLA In@765/Out@811) - 367 (TRMER In
###  |  @915/Out@959) - 330 (AEJEA In@1362/Out@1395) - -3 (DUMMY_END Ziel-Service 7)
###  |   |- and carried Demand   7,  161.0 containers from 199 to 45
###  |   |- and carried Demand   8,  580.0 containers from 199 to 112
###  |   |- and carried Demand  45,  161.0 containers from 200 to 45
###  |   |- and carried Demand  46,  580.0 containers from 200 to 112
###  |   |- and carried Demand 117,  580.0 containers from 199 to 112
###  |   |- and carried Demand 131,  580.0 containers from 200 to 112
###  |   |- and carried Demand 144,  161.0 containers from 290 to 45
###  |   |- and carried Demand 145,  580.0 containers from 290 to 112
###  |
###  |- Vessel 10 has the path [2, 275, 201, 291, 202, 114, 285, 25, 118, 368, 331, -3]
###  |  2 (BEANR Out@234) - 275 (ESALG In@328/Out@347) - 201 (MAPTM In@375/Out@396) - 291 (MAPTM In@379/Out@398) - 202 (MAPTM
###  |   In@406/Out@427) - 114 (ESALG In@452/Out@464) - 285 (GWOXB In@631/Out@710) - 25 (CIABJ In@751/Out@783) - 118 (ESALG I
###  |  n@932/Out@950) - 368 (TRMER In@1083/Out@1127) - 331 (AEJEA In@1530/Out@1563) - -3 (DUMMY_END Ziel-Service 7)
###  |   |- and carried Demand  17,  484.0 containers from 201 to 114
###  |   |- and carried Demand  18,   18.0 containers from 201 to 114
###  |   |- and carried Demand  52,  484.0 containers from 202 to 114
###  |   |- and carried Demand  53,   18.0 containers from 202 to 114
###  |   |- and carried Demand 119,  214.0 containers from 201 to 118
###  |   |- and carried Demand 120,   10.0 containers from 201 to 118
###  |   |- and carried Demand 121,  484.0 containers from 201 to 114
###  |   |- and carried Demand 122,   18.0 containers from 201 to 114
###  |   |- and carried Demand 132,  214.0 containers from 202 to 118
###  |   |- and carried Demand 133,   10.0 containers from 202 to 118
###  |   |- and carried Demand 134,  484.0 containers from 202 to 114
###  |   |- and carried Demand 135,   18.0 containers from 202 to 114
###  |   |- and carried Demand 138,  214.0 containers from 291 to 118
###  |   |- and carried Demand 139,   10.0 containers from 291 to 118
###  |   |- and carried Demand 140,  484.0 containers from 291 to 114
###  |   |- and carried Demand 141,   18.0 containers from 291 to 114
###  |
###  |- Vessel 11 has the path [5, 365, 327, -3]
###  |  5 (BEANR Out@402) - 365 (TRMER In@579/Out@623) - 327 (AEJEA In@858/Out@891) - -3 (DUMMY_END Ziel-Service 7)
###  |
###  |- Vessel 12 has the path [8, 366, 338, 339, 329, -3]
###  |  8 (BEANR Out@570) - 366 (TRMER In@747/Out@791) - 338 (EGPSD In@867/Out@886) - 339 (EGPSD In@957/Out@973) - 329 (AEJEA
###  |   In@1194/Out@1227) - -3 (DUMMY_END Ziel-Service 7)
###  |   |- and carried Demand 206,  467.0 containers from 338 to 329
###  |   |- and carried Demand 210,  467.0 containers from 339 to 329
###  |
###  |- Vessel 17 has the path [145, 364, 325, -3]
###  |  145 (GBFXT Out@302) - 364 (TRMER In@411/Out@455) - 325 (AEJEA In@690/Out@723) - -3 (DUMMY_END Ziel-Service 7)
###  |
###  |- Vessel 18 has the path [148, 337, 328, -3]
###  |  148 (GBFXT Out@470) - 337 (EGPSD In@789/Out@805) - 328 (AEJEA In@1026/Out@1059) - -3 (DUMMY_END Ziel-Service 7)
###  |   |- and carried Demand 213,   54.0 containers from 337 to 328
###  |
###  |
### Service 24 (WAF7) is operated by 2 vessels from type 18 (PMax25)
###  |
###  |- Vessel  1 has the path [100, 276, -1]
###  |  100 (DEHAM Out@288) - 276 (ESALG In@496/Out@515) - -1 (DUMMY_END Ziel-Service 24)
###  |
###  |- Vessel  2 has the path [101, 277, -1]
###  |  101 (DEHAM Out@456) - 277 (ESALG In@664/Out@683) - -1 (DUMMY_END Ziel-Service 24)
###  |
###  |
### Service 81 (MECL1) is operated by 6 vessels from type 19 (PMax28)
###  |
###  |- Vessel  5 has the path [218, 347, 344, 324, 229, 373, 426, 354, 376, 429, 409, -4]
###  |  218 (NLRTM Out@92) - 347 (INPAV In@467/Out@494) - 344 (INNSA In@522/Out@546) - 324 (AEJEA In@617/Out@642) - 229 (OMSL
###  |  L In@721/Out@736) - 373 (AEJEA In@899/Out@923) - 426 (PKBQM In@980/Out@1010) - 354 (OMSLL In@1300/Out@1313) - 376 (AE
###  |  JEA In@1403/Out@1427) - 429 (PKBQM In@1484/Out@1514) - 409 (INNSA In@1578/Out@1594) - -4 (DUMMY_END Ziel-Service 81)
###  |   |- and carried Demand 209,  280.0 containers from 344 to 324
###  |   |- and carried Demand 289,   34.0 containers from 429 to 409
###  |   |- and carried Demand 290,   84.0 containers from 376 to 429
###  |   |- and carried Demand 291,   50.0 containers from 376 to 429
###  |   |- and carried Demand 342,  254.0 containers from 426 to 409
###  |   |- and carried Demand 343,    1.0 containers from 426 to 409
###  |   |- and carried Demand 344,  135.0 containers from 426 to 409
###  |   |- and carried Demand 347,   75.0 containers from 373 to 409
###  |   |- and carried Demand 348,  200.0 containers from 373 to 426
###  |   |- and carried Demand 349,   24.0 containers from 373 to 426
###  |   |- and carried Demand 350,   26.0 containers from 373 to 409
###  |   |- and carried Demand 351,  144.0 containers from 373 to 409
###  |   |- and carried Demand 352,    1.0 containers from 373 to 409
###  |
###  |- Vessel  6 has the path [219, 272, 372, 425, 405, -4]
###  |  219 (NLRTM Out@260) - 272 (TRZMK In@617/Out@631) - 372 (AEJEA In@731/Out@755) - 425 (PKBQM In@812/Out@842) - 405 (INN
###  |  SA In@906/Out@922) - -4 (DUMMY_END Ziel-Service 81)
###  |   |- and carried Demand 361,   44.0 containers from 425 to 405
###  |   |- and carried Demand 366,  133.0 containers from 372 to 425
###  |   |- and carried Demand 367,   61.0 containers from 372 to 425
###  |
###  |- Vessel  7 has the path [221, 137, 203, 115, 273, 406, -4]
###  |  221 (NLRTM Out@428) - 137 (FRLEH In@447/Out@463) - 203 (MAPTM In@543/Out@564) - 115 (ESALG In@589/Out@601) - 273 (TRZ
###  |  MK In@785/Out@799) - 406 (INNSA In@1074/Out@1090) - -4 (DUMMY_END Ziel-Service 81)
###  |   |- and carried Demand  25,   68.0 containers from 221 to 115
###  |   |- and carried Demand  26,    6.0 containers from 221 to 137
###  |   |- and carried Demand  29,   60.0 containers from 203 to 115
###  |   |- and carried Demand  30,   11.0 containers from 203 to 115
###  |   |- and carried Demand 123,   68.0 containers from 221 to 115
###  |   |- and carried Demand 126,   60.0 containers from 203 to 115
###  |   |- and carried Demand 127,   11.0 containers from 203 to 115
###  |
###  |- Vessel  8 has the path [223, 267, 374, 427, 407, -4]
###  |  223 (NLRTM Out@596) - 267 (TRALI In@836/Out@854) - 374 (AEJEA In@1067/Out@1091) - 427 (PKBQM In@1148/Out@1178) - 407 
###  |  (INNSA In@1242/Out@1258) - -4 (DUMMY_END Ziel-Service 81)
###  |   |- and carried Demand 329,   86.0 containers from 374 to 427
###  |   |- and carried Demand 330,  118.0 containers from 374 to 427
###  |
###  |- Vessel 15 has the path [134, 371, 424, 230, 375, 428, 408, -4]
###  |  134 (FRLEH Out@158) - 371 (AEJEA In@563/Out@587) - 424 (PKBQM In@644/Out@674) - 230 (OMSLL In@889/Out@904) - 375 (AEJ
###  |  EA In@1235/Out@1259) - 428 (PKBQM In@1316/Out@1346) - 408 (INNSA In@1410/Out@1426) - -4 (DUMMY_END Ziel-Service 81)
###  |   |- and carried Demand 306,   31.0 containers from 428 to 408
###  |   |- and carried Demand 307,   37.0 containers from 375 to 408
###  |   |- and carried Demand 308,  211.0 containers from 375 to 408
###  |   |- and carried Demand 309,  176.0 containers from 375 to 428
###  |   |- and carried Demand 377,  704.0 containers from 371 to 408
###  |   |- and carried Demand 378,    8.0 containers from 371 to 408
###  |   |- and carried Demand 379,  156.0 containers from 371 to 424
###  |   |- and carried Demand 380,   45.0 containers from 371 to 424
###  |
###  |- Vessel 16 has the path [136, 268, 404, -4]
###  |  136 (FRLEH Out@326) - 268 (TRAMB In@576/Out@603) - 404 (INNSA In@738/Out@754) - -4 (DUMMY_END Ziel-Service 81)
###  |
###  |
### Service 121 (SAE) is operated by 2 vessels from type 18 (PMax25)
###  |
###  |- Vessel  4 has the path [103, 312, 302, -2]
###  |  103 (DEHAM Out@792) - 312 (USMIA In@1103/Out@1111) - 302 (HNPCR In@1166/Out@1179) - -2 (DUMMY_END Ziel-Service 121)
###  |
###  |- Vessel 13 has the path [104, 301, -2]
###  |  104 (DKAAR Out@220) - 301 (HNPCR In@998/Out@1011) - -2 (DUMMY_END Ziel-Service 121)
###  |
###  |
### Service 177 (WCSA) is operated by 2 vessels from type 18 (PMax25)
###  |
###  |- Vessel  3 has the path [102, 358, 269, 235, 0]
###  |  102 (DEHAM Out@624) - 358 (TRAMB In@683/Out@731) - 269 (TRAMB In@744/Out@771) - 235 (PABLB In@1472/Out@1484) - 0 (DUM
###  |  MY_END Ziel-Service 177)
###  |
###  |- Vessel 14 has the path [105, 266, 234, 0]
###  |  105 (DKAAR Out@388) - 266 (TRALI In@668/Out@686) - 234 (PABLB In@1304/Out@1316) - 0 (DUMMY_END Ziel-Service 177)
###  |
###  |
### Vessels not used in the solution: []
###  |-----------------------------------------------------------------------------------------------------------------------
###
#############################################################################################################################
###
###
#############################################################################################################################
### Solution run 3
#############################################################################################################################
###
### Results
###
### The objective of the solution is -12,660,704.3365 (-12660704.3365)
###
### Service 7 (ME3) is operated by 6 vessels from type 30 (PMax35)
###  |
###  |- Vessel  9 has the path [1, 274, 199, 290, 200, 112, 284, 45, 367, 330, -3]
###  |  1 (BEANR Out@66) - 274 (ESALG In@160/Out@179) - 199 (MAPTM In@207/Out@228) - 290 (MAPTM In@211/Out@230) - 200 (MAPTM 
###  |  In@238/Out@259) - 112 (ESALG In@284/Out@296) - 284 (GWOXB In@463/Out@542) - 45 (CMDLA In@765/Out@811) - 367 (TRMER In
###  |  @915/Out@959) - 330 (AEJEA In@1362/Out@1395) - -3 (DUMMY_END Ziel-Service 7)
###  |   |- and carried Demand   7,  161.0 containers from 199 to 45
###  |   |- and carried Demand   8,  580.0 containers from 199 to 112
###  |   |- and carried Demand  45,  161.0 containers from 200 to 45
###  |   |- and carried Demand  46,  580.0 containers from 200 to 112
###  |   |- and carried Demand 117,  580.0 containers from 199 to 112
###  |   |- and carried Demand 131,  580.0 containers from 200 to 112
###  |   |- and carried Demand 144,  161.0 containers from 290 to 45
###  |   |- and carried Demand 145,  580.0 containers from 290 to 112
###  |
###  |- Vessel 10 has the path [2, 275, 201, 291, 202, 114, 285, 25, 118, 368, 331, -3]
###  |  2 (BEANR Out@234) - 275 (ESALG In@328/Out@347) - 201 (MAPTM In@375/Out@396) - 291 (MAPTM In@379/Out@398) - 202 (MAPTM
###  |   In@406/Out@427) - 114 (ESALG In@452/Out@464) - 285 (GWOXB In@631/Out@710) - 25 (CIABJ In@751/Out@783) - 118 (ESALG I
###  |  n@932/Out@950) - 368 (TRMER In@1083/Out@1127) - 331 (AEJEA In@1530/Out@1563) - -3 (DUMMY_END Ziel-Service 7)
###  |   |- and carried Demand  17,  484.0 containers from 201 to 114
###  |   |- and carried Demand  18,   18.0 containers from 201 to 114
###  |   |- and carried Demand  52,  484.0 containers from 202 to 114
###  |   |- and carried Demand  53,   18.0 containers from 202 to 114
###  |   |- and carried Demand 119,  214.0 containers from 201 to 118
###  |   |- and carried Demand 120,   10.0 containers from 201 to 118
###  |   |- and carried Demand 121,  484.0 containers from 201 to 114
###  |   |- and carried Demand 122,   18.0 containers from 201 to 114
###  |   |- and carried Demand 132,  214.0 containers from 202 to 118
###  |   |- and carried Demand 133,   10.0 containers from 202 to 118
###  |   |- and carried Demand 134,  484.0 containers from 202 to 114
###  |   |- and carried Demand 135,   18.0 containers from 202 to 114
###  |   |- and carried Demand 138,  214.0 containers from 291 to 118
###  |   |- and carried Demand 139,   10.0 containers from 291 to 118
###  |   |- and carried Demand 140,  484.0 containers from 291 to 114
###  |   |- and carried Demand 141,   18.0 containers from 291 to 114
###  |
###  |- Vessel 11 has the path [5, 365, 327, -3]
###  |  5 (BEANR Out@402) - 365 (TRMER In@579/Out@623) - 327 (AEJEA In@858/Out@891) - -3 (DUMMY_END Ziel-Service 7)
###  |
###  |- Vessel 12 has the path [8, 366, 338, 339, 329, -3]
###  |  8 (BEANR Out@570) - 366 (TRMER In@747/Out@791) - 338 (EGPSD In@867/Out@886) - 339 (EGPSD In@957/Out@973) - 329 (AEJEA
###  |   In@1194/Out@1227) - -3 (DUMMY_END Ziel-Service 7)
###  |   |- and carried Demand 206,  467.0 containers from 338 to 329
###  |   |- and carried Demand 210,  467.0 containers from 339 to 329
###  |
###  |- Vessel 17 has the path [145, 364, 325, -3]
###  |  145 (GBFXT Out@302) - 364 (TRMER In@411/Out@455) - 325 (AEJEA In@690/Out@723) - -3 (DUMMY_END Ziel-Service 7)
###  |
###  |- Vessel 18 has the path [148, 337, 328, -3]
###  |  148 (GBFXT Out@470) - 337 (EGPSD In@789/Out@805) - 328 (AEJEA In@1026/Out@1059) - -3 (DUMMY_END Ziel-Service 7)
###  |   |- and carried Demand 213,   54.0 containers from 337 to 328
###  |
###  |
### Service 24 (WAF7) is operated by 2 vessels from type 18 (PMax25)
###  |
###  |- Vessel  1 has the path [100, 276, -1]
###  |  100 (DEHAM Out@288) - 276 (ESALG In@496/Out@515) - -1 (DUMMY_END Ziel-Service 24)
###  |
###  |- Vessel  2 has the path [101, 277, -1]
###  |  101 (DEHAM Out@456) - 277 (ESALG In@664/Out@683) - -1 (DUMMY_END Ziel-Service 24)
###  |
###  |
### Service 81 (MECL1) is operated by 6 vessels from type 19 (PMax28)
###  |
###  |- Vessel  5 has the path [218, 347, 344, 324, 229, 373, 426, 354, 376, 429, 409, -4]
###  |  218 (NLRTM Out@92) - 347 (INPAV In@467/Out@494) - 344 (INNSA In@522/Out@546) - 324 (AEJEA In@617/Out@642) - 229 (OMSL
###  |  L In@721/Out@736) - 373 (AEJEA In@899/Out@923) - 426 (PKBQM In@980/Out@1010) - 354 (OMSLL In@1300/Out@1313) - 376 (AE
###  |  JEA In@1403/Out@1427) - 429 (PKBQM In@1484/Out@1514) - 409 (INNSA In@1578/Out@1594) - -4 (DUMMY_END Ziel-Service 81)
###  |   |- and carried Demand 209,  280.0 containers from 344 to 324
###  |   |- and carried Demand 289,   34.0 containers from 429 to 409
###  |   |- and carried Demand 290,   84.0 containers from 376 to 429
###  |   |- and carried Demand 291,   50.0 containers from 376 to 429
###  |   |- and carried Demand 342,  254.0 containers from 426 to 409
###  |   |- and carried Demand 343,    1.0 containers from 426 to 409
###  |   |- and carried Demand 344,  135.0 containers from 426 to 409
###  |   |- and carried Demand 347,   75.0 containers from 373 to 409
###  |   |- and carried Demand 348,  200.0 containers from 373 to 426
###  |   |- and carried Demand 349,   24.0 containers from 373 to 426
###  |   |- and carried Demand 350,   26.0 containers from 373 to 409
###  |   |- and carried Demand 351,  144.0 containers from 373 to 409
###  |   |- and carried Demand 352,    1.0 containers from 373 to 409
###  |
###  |- Vessel  6 has the path [219, 272, 372, 425, 405, -4]
###  |  219 (NLRTM Out@260) - 272 (TRZMK In@617/Out@631) - 372 (AEJEA In@731/Out@755) - 425 (PKBQM In@812/Out@842) - 405 (INN
###  |  SA In@906/Out@922) - -4 (DUMMY_END Ziel-Service 81)
###  |   |- and carried Demand 361,   44.0 containers from 425 to 405
###  |   |- and carried Demand 366,  133.0 containers from 372 to 425
###  |   |- and carried Demand 367,   61.0 containers from 372 to 425
###  |
###  |- Vessel  7 has the path [221, 137, 203, 115, 273, 406, -4]
###  |  221 (NLRTM Out@428) - 137 (FRLEH In@447/Out@463) - 203 (MAPTM In@543/Out@564) - 115 (ESALG In@589/Out@601) - 273 (TRZ
###  |  MK In@785/Out@799) - 406 (INNSA In@1074/Out@1090) - -4 (DUMMY_END Ziel-Service 81)
###  |   |- and carried Demand  25,   68.0 containers from 221 to 115
###  |   |- and carried Demand  26,    6.0 containers from 221 to 137
###  |   |- and carried Demand  29,   60.0 containers from 203 to 115
###  |   |- and carried Demand  30,   11.0 containers from 203 to 115
###  |   |- and carried Demand 123,   68.0 containers from 221 to 115
###  |   |- and carried Demand 126,   60.0 containers from 203 to 115
###  |   |- and carried Demand 127,   11.0 containers from 203 to 115
###  |
###  |- Vessel  8 has the path [223, 267, 374, 427, 407, -4]
###  |  223 (NLRTM Out@596) - 267 (TRALI In@836/Out@854) - 374 (AEJEA In@1067/Out@1091) - 427 (PKBQM In@1148/Out@1178) - 407 
###  |  (INNSA In@1242/Out@1258) - -4 (DUMMY_END Ziel-Service 81)
###  |   |- and carried Demand 329,   86.0 containers from 374 to 427
###  |   |- and carried Demand 330,  118.0 containers from 374 to 427
###  |
###  |- Vessel 15 has the path [134, 371, 424, 230, 375, 428, 408, -4]
###  |  134 (FRLEH Out@158) - 371 (AEJEA In@563/Out@587) - 424 (PKBQM In@644/Out@674) - 230 (OMSLL In@889/Out@904) - 375 (AEJ
###  |  EA In@1235/Out@1259) - 428 (PKBQM In@1316/Out@1346) - 408 (INNSA In@1410/Out@1426) - -4 (DUMMY_END Ziel-Service 81)
###  |   |- and carried Demand 306,   31.0 containers from 428 to 408
###  |   |- and carried Demand 307,   37.0 containers from 375 to 408
###  |   |- and carried Demand 308,  211.0 containers from 375 to 408
###  |   |- and carried Demand 309,  176.0 containers from 375 to 428
###  |   |- and carried Demand 377,  704.0 containers from 371 to 408
###  |   |- and carried Demand 378,    8.0 containers from 371 to 408
###  |   |- and carried Demand 379,  156.0 containers from 371 to 424
###  |   |- and carried Demand 380,   45.0 containers from 371 to 424
###  |
###  |- Vessel 16 has the path [136, 268, 404, -4]
###  |  136 (FRLEH Out@326) - 268 (TRAMB In@576/Out@603) - 404 (INNSA In@738/Out@754) - -4 (DUMMY_END Ziel-Service 81)
###  |
###  |
### Service 121 (SAE) is operated by 2 vessels from type 18 (PMax25)
###  |
###  |- Vessel  4 has the path [103, 312, 302, -2]
###  |  103 (DEHAM Out@792) - 312 (USMIA In@1103/Out@1111) - 302 (HNPCR In@1166/Out@1179) - -2 (DUMMY_END Ziel-Service 121)
###  |
###  |- Vessel 13 has the path [104, 301, -2]
###  |  104 (DKAAR Out@220) - 301 (HNPCR In@998/Out@1011) - -2 (DUMMY_END Ziel-Service 121)
###  |
###  |
### Service 177 (WCSA) is operated by 2 vessels from type 18 (PMax25)
###  |
###  |- Vessel  3 has the path [102, 358, 269, 235, 0]
###  |  102 (DEHAM Out@624) - 358 (TRAMB In@683/Out@731) - 269 (TRAMB In@744/Out@771) - 235 (PABLB In@1472/Out@1484) - 0 (DUM
###  |  MY_END Ziel-Service 177)
###  |
###  |- Vessel 14 has the path [105, 266, 234, 0]
###  |  105 (DKAAR Out@388) - 266 (TRALI In@668/Out@686) - 234 (PABLB In@1304/Out@1316) - 0 (DUMMY_END Ziel-Service 177)
###  |
###  |
### Vessels not used in the solution: []
###  |-----------------------------------------------------------------------------------------------------------------------
###
#############################################################################################################################
###
###
#############################################################################################################################
### Solution run 4
#############################################################################################################################
###
### Results
###
### The objective of the solution is -12,660,704.3365 (-12660704.3365)
###
### Service 7 (ME3) is operated by 6 vessels from type 30 (PMax35)
###  |
###  |- Vessel  9 has the path [1, 274, 199, 290, 200, 112, 284, 45, 367, 330, -3]
###  |  1 (BEANR Out@66) - 274 (ESALG In@160/Out@179) - 199 (MAPTM In@207/Out@228) - 290 (MAPTM In@211/Out@230) - 200 (MAPTM 
###  |  In@238/Out@259) - 112 (ESALG In@284/Out@296) - 284 (GWOXB In@463/Out@542) - 45 (CMDLA In@765/Out@811) - 367 (TRMER In
###  |  @915/Out@959) - 330 (AEJEA In@1362/Out@1395) - -3 (DUMMY_END Ziel-Service 7)
###  |   |- and carried Demand   7,  161.0 containers from 199 to 45
###  |   |- and carried Demand   8,  580.0 containers from 199 to 112
###  |   |- and carried Demand  45,  161.0 containers from 200 to 45
###  |   |- and carried Demand  46,  580.0 containers from 200 to 112
###  |   |- and carried Demand 117,  580.0 containers from 199 to 112
###  |   |- and carried Demand 131,  580.0 containers from 200 to 112
###  |   |- and carried Demand 144,  161.0 containers from 290 to 45
###  |   |- and carried Demand 145,  580.0 containers from 290 to 112
###  |
###  |- Vessel 10 has the path [2, 275, 201, 291, 202, 114, 285, 25, 118, 368, 331, -3]
###  |  2 (BEANR Out@234) - 275 (ESALG In@328/Out@347) - 201 (MAPTM In@375/Out@396) - 291 (MAPTM In@379/Out@398) - 202 (MAPTM
###  |   In@406/Out@427) - 114 (ESALG In@452/Out@464) - 285 (GWOXB In@631/Out@710) - 25 (CIABJ In@751/Out@783) - 118 (ESALG I
###  |  n@932/Out@950) - 368 (TRMER In@1083/Out@1127) - 331 (AEJEA In@1530/Out@1563) - -3 (DUMMY_END Ziel-Service 7)
###  |   |- and carried Demand  17,  484.0 containers from 201 to 114
###  |   |- and carried Demand  18,   18.0 containers from 201 to 114
###  |   |- and carried Demand  52,  484.0 containers from 202 to 114
###  |   |- and carried Demand  53,   18.0 containers from 202 to 114
###  |   |- and carried Demand 119,  214.0 containers from 201 to 118
###  |   |- and carried Demand 120,   10.0 containers from 201 to 118
###  |   |- and carried Demand 121,  484.0 containers from 201 to 114
###  |   |- and carried Demand 122,   18.0 containers from 201 to 114
###  |   |- and carried Demand 132,  214.0 containers from 202 to 118
###  |   |- and carried Demand 133,   10.0 containers from 202 to 118
###  |   |- and carried Demand 134,  484.0 containers from 202 to 114
###  |   |- and carried Demand 135,   18.0 containers from 202 to 114
###  |   |- and carried Demand 138,  214.0 containers from 291 to 118
###  |   |- and carried Demand 139,   10.0 containers from 291 to 118
###  |   |- and carried Demand 140,  484.0 containers from 291 to 114
###  |   |- and carried Demand 141,   18.0 containers from 291 to 114
###  |
###  |- Vessel 11 has the path [5, 365, 327, -3]
###  |  5 (BEANR Out@402) - 365 (TRMER In@579/Out@623) - 327 (AEJEA In@858/Out@891) - -3 (DUMMY_END Ziel-Service 7)
###  |
###  |- Vessel 12 has the path [8, 366, 338, 339, 329, -3]
###  |  8 (BEANR Out@570) - 366 (TRMER In@747/Out@791) - 338 (EGPSD In@867/Out@886) - 339 (EGPSD In@957/Out@973) - 329 (AEJEA
###  |   In@1194/Out@1227) - -3 (DUMMY_END Ziel-Service 7)
###  |   |- and carried Demand 206,  467.0 containers from 338 to 329
###  |   |- and carried Demand 210,  467.0 containers from 339 to 329
###  |
###  |- Vessel 17 has the path [145, 364, 325, -3]
###  |  145 (GBFXT Out@302) - 364 (TRMER In@411/Out@455) - 325 (AEJEA In@690/Out@723) - -3 (DUMMY_END Ziel-Service 7)
###  |
###  |- Vessel 18 has the path [148, 337, 328, -3]
###  |  148 (GBFXT Out@470) - 337 (EGPSD In@789/Out@805) - 328 (AEJEA In@1026/Out@1059) - -3 (DUMMY_END Ziel-Service 7)
###  |   |- and carried Demand 213,   54.0 containers from 337 to 328
###  |
###  |
### Service 24 (WAF7) is operated by 2 vessels from type 18 (PMax25)
###  |
###  |- Vessel  1 has the path [100, 276, -1]
###  |  100 (DEHAM Out@288) - 276 (ESALG In@496/Out@515) - -1 (DUMMY_END Ziel-Service 24)
###  |
###  |- Vessel  2 has the path [101, 277, -1]
###  |  101 (DEHAM Out@456) - 277 (ESALG In@664/Out@683) - -1 (DUMMY_END Ziel-Service 24)
###  |
###  |
### Service 81 (MECL1) is operated by 6 vessels from type 19 (PMax28)
###  |
###  |- Vessel  5 has the path [218, 347, 344, 324, 229, 373, 426, 354, 376, 429, 409, -4]
###  |  218 (NLRTM Out@92) - 347 (INPAV In@467/Out@494) - 344 (INNSA In@522/Out@546) - 324 (AEJEA In@617/Out@642) - 229 (OMSL
###  |  L In@721/Out@736) - 373 (AEJEA In@899/Out@923) - 426 (PKBQM In@980/Out@1010) - 354 (OMSLL In@1300/Out@1313) - 376 (AE
###  |  JEA In@1403/Out@1427) - 429 (PKBQM In@1484/Out@1514) - 409 (INNSA In@1578/Out@1594) - -4 (DUMMY_END Ziel-Service 81)
###  |   |- and carried Demand 209,  280.0 containers from 344 to 324
###  |   |- and carried Demand 289,   34.0 containers from 429 to 409
###  |   |- and carried Demand 290,   84.0 containers from 376 to 429
###  |   |- and carried Demand 291,   50.0 containers from 376 to 429
###  |   |- and carried Demand 342,  254.0 containers from 426 to 409
###  |   |- and carried Demand 343,    1.0 containers from 426 to 409
###  |   |- and carried Demand 344,  135.0 containers from 426 to 409
###  |   |- and carried Demand 347,   75.0 containers from 373 to 409
###  |   |- and carried Demand 348,  200.0 containers from 373 to 426
###  |   |- and carried Demand 349,   24.0 containers from 373 to 426
###  |   |- and carried Demand 350,   26.0 containers from 373 to 409
###  |   |- and carried Demand 351,  144.0 containers from 373 to 409
###  |   |- and carried Demand 352,    1.0 containers from 373 to 409
###  |
###  |- Vessel  6 has the path [219, 272, 372, 425, 405, -4]
###  |  219 (NLRTM Out@260) - 272 (TRZMK In@617/Out@631) - 372 (AEJEA In@731/Out@755) - 425 (PKBQM In@812/Out@842) - 405 (INN
###  |  SA In@906/Out@922) - -4 (DUMMY_END Ziel-Service 81)
###  |   |- and carried Demand 361,   44.0 containers from 425 to 405
###  |   |- and carried Demand 366,  133.0 containers from 372 to 425
###  |   |- and carried Demand 367,   61.0 containers from 372 to 425
###  |
###  |- Vessel  7 has the path [221, 137, 203, 115, 273, 406, -4]
###  |  221 (NLRTM Out@428) - 137 (FRLEH In@447/Out@463) - 203 (MAPTM In@543/Out@564) - 115 (ESALG In@589/Out@601) - 273 (TRZ
###  |  MK In@785/Out@799) - 406 (INNSA In@1074/Out@1090) - -4 (DUMMY_END Ziel-Service 81)
###  |   |- and carried Demand  25,   68.0 containers from 221 to 115
###  |   |- and carried Demand  26,    6.0 containers from 221 to 137
###  |   |- and carried Demand  29,   60.0 containers from 203 to 115
###  |   |- and carried Demand  30,   11.0 containers from 203 to 115
###  |   |- and carried Demand 123,   68.0 containers from 221 to 115
###  |   |- and carried Demand 126,   60.0 containers from 203 to 115
###  |   |- and carried Demand 127,   11.0 containers from 203 to 115
###  |
###  |- Vessel  8 has the path [223, 267, 374, 427, 407, -4]
###  |  223 (NLRTM Out@596) - 267 (TRALI In@836/Out@854) - 374 (AEJEA In@1067/Out@1091) - 427 (PKBQM In@1148/Out@1178) - 407 
###  |  (INNSA In@1242/Out@1258) - -4 (DUMMY_END Ziel-Service 81)
###  |   |- and carried Demand 329,   86.0 containers from 374 to 427
###  |   |- and carried Demand 330,  118.0 containers from 374 to 427
###  |
###  |- Vessel 15 has the path [134, 371, 424, 230, 375, 428, 408, -4]
###  |  134 (FRLEH Out@158) - 371 (AEJEA In@563/Out@587) - 424 (PKBQM In@644/Out@674) - 230 (OMSLL In@889/Out@904) - 375 (AEJ
###  |  EA In@1235/Out@1259) - 428 (PKBQM In@1316/Out@1346) - 408 (INNSA In@1410/Out@1426) - -4 (DUMMY_END Ziel-Service 81)
###  |   |- and carried Demand 306,   31.0 containers from 428 to 408
###  |   |- and carried Demand 307,   37.0 containers from 375 to 408
###  |   |- and carried Demand 308,  211.0 containers from 375 to 408
###  |   |- and carried Demand 309,  176.0 containers from 375 to 428
###  |   |- and carried Demand 377,  704.0 containers from 371 to 408
###  |   |- and carried Demand 378,    8.0 containers from 371 to 408
###  |   |- and carried Demand 379,  156.0 containers from 371 to 424
###  |   |- and carried Demand 380,   45.0 containers from 371 to 424
###  |
###  |- Vessel 16 has the path [136, 268, 404, -4]
###  |  136 (FRLEH Out@326) - 268 (TRAMB In@576/Out@603) - 404 (INNSA In@738/Out@754) - -4 (DUMMY_END Ziel-Service 81)
###  |
###  |
### Service 121 (SAE) is operated by 2 vessels from type 18 (PMax25)
###  |
###  |- Vessel  4 has the path [103, 312, 302, -2]
###  |  103 (DEHAM Out@792) - 312 (USMIA In@1103/Out@1111) - 302 (HNPCR In@1166/Out@1179) - -2 (DUMMY_END Ziel-Service 121)
###  |
###  |- Vessel 13 has the path [104, 301, -2]
###  |  104 (DKAAR Out@220) - 301 (HNPCR In@998/Out@1011) - -2 (DUMMY_END Ziel-Service 121)
###  |
###  |
### Service 177 (WCSA) is operated by 2 vessels from type 18 (PMax25)
###  |
###  |- Vessel  3 has the path [102, 358, 269, 235, 0]
###  |  102 (DEHAM Out@624) - 358 (TRAMB In@683/Out@731) - 269 (TRAMB In@744/Out@771) - 235 (PABLB In@1472/Out@1484) - 0 (DUM
###  |  MY_END Ziel-Service 177)
###  |
###  |- Vessel 14 has the path [105, 266, 234, 0]
###  |  105 (DKAAR Out@388) - 266 (TRALI In@668/Out@686) - 234 (PABLB In@1304/Out@1316) - 0 (DUMMY_END Ziel-Service 177)
###  |
###  |
### Vessels not used in the solution: []
###  |-----------------------------------------------------------------------------------------------------------------------
###
#############################################################################################################################
###
###
#############################################################################################################################
### Solution run 5
#############################################################################################################################
###
### Results
###
### The objective of the solution is -12,660,704.3365 (-12660704.3365)
###
### Service 7 (ME3) is operated by 6 vessels from type 30 (PMax35)
###  |
###  |- Vessel  9 has the path [1, 274, 199, 290, 200, 112, 284, 45, 367, 330, -3]
###  |  1 (BEANR Out@66) - 274 (ESALG In@160/Out@179) - 199 (MAPTM In@207/Out@228) - 290 (MAPTM In@211/Out@230) - 200 (MAPTM 
###  |  In@238/Out@259) - 112 (ESALG In@284/Out@296) - 284 (GWOXB In@463/Out@542) - 45 (CMDLA In@765/Out@811) - 367 (TRMER In
###  |  @915/Out@959) - 330 (AEJEA In@1362/Out@1395) - -3 (DUMMY_END Ziel-Service 7)
###  |   |- and carried Demand   7,  161.0 containers from 199 to 45
###  |   |- and carried Demand   8,  580.0 containers from 199 to 112
###  |   |- and carried Demand  45,  161.0 containers from 200 to 45
###  |   |- and carried Demand  46,  580.0 containers from 200 to 112
###  |   |- and carried Demand 117,  580.0 containers from 199 to 112
###  |   |- and carried Demand 131,  580.0 containers from 200 to 112
###  |   |- and carried Demand 144,  161.0 containers from 290 to 45
###  |   |- and carried Demand 145,  580.0 containers from 290 to 112
###  |
###  |- Vessel 10 has the path [2, 275, 201, 291, 202, 114, 285, 25, 118, 368, 331, -3]
###  |  2 (BEANR Out@234) - 275 (ESALG In@328/Out@347) - 201 (MAPTM In@375/Out@396) - 291 (MAPTM In@379/Out@398) - 202 (MAPTM
###  |   In@406/Out@427) - 114 (ESALG In@452/Out@464) - 285 (GWOXB In@631/Out@710) - 25 (CIABJ In@751/Out@783) - 118 (ESALG I
###  |  n@932/Out@950) - 368 (TRMER In@1083/Out@1127) - 331 (AEJEA In@1530/Out@1563) - -3 (DUMMY_END Ziel-Service 7)
###  |   |- and carried Demand  17,  484.0 containers from 201 to 114
###  |   |- and carried Demand  18,   18.0 containers from 201 to 114
###  |   |- and carried Demand  52,  484.0 containers from 202 to 114
###  |   |- and carried Demand  53,   18.0 containers from 202 to 114
###  |   |- and carried Demand 119,  214.0 containers from 201 to 118
###  |   |- and carried Demand 120,   10.0 containers from 201 to 118
###  |   |- and carried Demand 121,  484.0 containers from 201 to 114
###  |   |- and carried Demand 122,   18.0 containers from 201 to 114
###  |   |- and carried Demand 132,  214.0 containers from 202 to 118
###  |   |- and carried Demand 133,   10.0 containers from 202 to 118
###  |   |- and carried Demand 134,  484.0 containers from 202 to 114
###  |   |- and carried Demand 135,   18.0 containers from 202 to 114
###  |   |- and carried Demand 138,  214.0 containers from 291 to 118
###  |   |- and carried Demand 139,   10.0 containers from 291 to 118
###  |   |- and carried Demand 140,  484.0 containers from 291 to 114
###  |   |- and carried Demand 141,   18.0 containers from 291 to 114
###  |
###  |- Vessel 11 has the path [5, 365, 327, -3]
###  |  5 (BEANR Out@402) - 365 (TRMER In@579/Out@623) - 327 (AEJEA In@858/Out@891) - -3 (DUMMY_END Ziel-Service 7)
###  |
###  |- Vessel 12 has the path [8, 366, 338, 339, 329, -3]
###  |  8 (BEANR Out@570) - 366 (TRMER In@747/Out@791) - 338 (EGPSD In@867/Out@886) - 339 (EGPSD In@957/Out@973) - 329 (AEJEA
###  |   In@1194/Out@1227) - -3 (DUMMY_END Ziel-Service 7)
###  |   |- and carried Demand 206,  467.0 containers from 338 to 329
###  |   |- and carried Demand 210,  467.0 containers from 339 to 329
###  |
###  |- Vessel 17 has the path [145, 364, 325, -3]
###  |  145 (GBFXT Out@302) - 364 (TRMER In@411/Out@455) - 325 (AEJEA In@690/Out@723) - -3 (DUMMY_END Ziel-Service 7)
###  |
###  |- Vessel 18 has the path [148, 337, 328, -3]
###  |  148 (GBFXT Out@470) - 337 (EGPSD In@789/Out@805) - 328 (AEJEA In@1026/Out@1059) - -3 (DUMMY_END Ziel-Service 7)
###  |   |- and carried Demand 213,   54.0 containers from 337 to 328
###  |
###  |
### Service 24 (WAF7) is operated by 2 vessels from type 18 (PMax25)
###  |
###  |- Vessel  1 has the path [100, 276, -1]
###  |  100 (DEHAM Out@288) - 276 (ESALG In@496/Out@515) - -1 (DUMMY_END Ziel-Service 24)
###  |
###  |- Vessel  2 has the path [101, 277, -1]
###  |  101 (DEHAM Out@456) - 277 (ESALG In@664/Out@683) - -1 (DUMMY_END Ziel-Service 24)
###  |
###  |
### Service 81 (MECL1) is operated by 6 vessels from type 19 (PMax28)
###  |
###  |- Vessel  5 has the path [218, 347, 344, 324, 229, 373, 426, 354, 376, 429, 409, -4]
###  |  218 (NLRTM Out@92) - 347 (INPAV In@467/Out@494) - 344 (INNSA In@522/Out@546) - 324 (AEJEA In@617/Out@642) - 229 (OMSL
###  |  L In@721/Out@736) - 373 (AEJEA In@899/Out@923) - 426 (PKBQM In@980/Out@1010) - 354 (OMSLL In@1300/Out@1313) - 376 (AE
###  |  JEA In@1403/Out@1427) - 429 (PKBQM In@1484/Out@1514) - 409 (INNSA In@1578/Out@1594) - -4 (DUMMY_END Ziel-Service 81)
###  |   |- and carried Demand 209,  280.0 containers from 344 to 324
###  |   |- and carried Demand 289,   34.0 containers from 429 to 409
###  |   |- and carried Demand 290,   84.0 containers from 376 to 429
###  |   |- and carried Demand 291,   50.0 containers from 376 to 429
###  |   |- and carried Demand 342,  254.0 containers from 426 to 409
###  |   |- and carried Demand 343,    1.0 containers from 426 to 409
###  |   |- and carried Demand 344,  135.0 containers from 426 to 409
###  |   |- and carried Demand 347,   75.0 containers from 373 to 409
###  |   |- and carried Demand 348,  200.0 containers from 373 to 426
###  |   |- and carried Demand 349,   24.0 containers from 373 to 426
###  |   |- and carried Demand 350,   26.0 containers from 373 to 409
###  |   |- and carried Demand 351,  144.0 containers from 373 to 409
###  |   |- and carried Demand 352,    1.0 containers from 373 to 409
###  |
###  |- Vessel  6 has the path [219, 272, 372, 425, 405, -4]
###  |  219 (NLRTM Out@260) - 272 (TRZMK In@617/Out@631) - 372 (AEJEA In@731/Out@755) - 425 (PKBQM In@812/Out@842) - 405 (INN
###  |  SA In@906/Out@922) - -4 (DUMMY_END Ziel-Service 81)
###  |   |- and carried Demand 361,   44.0 containers from 425 to 405
###  |   |- and carried Demand 366,  133.0 containers from 372 to 425
###  |   |- and carried Demand 367,   61.0 containers from 372 to 425
###  |
###  |- Vessel  7 has the path [221, 137, 203, 115, 273, 406, -4]
###  |  221 (NLRTM Out@428) - 137 (FRLEH In@447/Out@463) - 203 (MAPTM In@543/Out@564) - 115 (ESALG In@589/Out@601) - 273 (TRZ
###  |  MK In@785/Out@799) - 406 (INNSA In@1074/Out@1090) - -4 (DUMMY_END Ziel-Service 81)
###  |   |- and carried Demand  25,   68.0 containers from 221 to 115
###  |   |- and carried Demand  26,    6.0 containers from 221 to 137
###  |   |- and carried Demand  29,   60.0 containers from 203 to 115
###  |   |- and carried Demand  30,   11.0 containers from 203 to 115
###  |   |- and carried Demand 123,   68.0 containers from 221 to 115
###  |   |- and carried Demand 126,   60.0 containers from 203 to 115
###  |   |- and carried Demand 127,   11.0 containers from 203 to 115
###  |
###  |- Vessel  8 has the path [223, 267, 374, 427, 407, -4]
###  |  223 (NLRTM Out@596) - 267 (TRALI In@836/Out@854) - 374 (AEJEA In@1067/Out@1091) - 427 (PKBQM In@1148/Out@1178) - 407 
###  |  (INNSA In@1242/Out@1258) - -4 (DUMMY_END Ziel-Service 81)
###  |   |- and carried Demand 329,   86.0 containers from 374 to 427
###  |   |- and carried Demand 330,  118.0 containers from 374 to 427
###  |
###  |- Vessel 15 has the path [134, 371, 424, 230, 375, 428, 408, -4]
###  |  134 (FRLEH Out@158) - 371 (AEJEA In@563/Out@587) - 424 (PKBQM In@644/Out@674) - 230 (OMSLL In@889/Out@904) - 375 (AEJ
###  |  EA In@1235/Out@1259) - 428 (PKBQM In@1316/Out@1346) - 408 (INNSA In@1410/Out@1426) - -4 (DUMMY_END Ziel-Service 81)
###  |   |- and carried Demand 306,   31.0 containers from 428 to 408
###  |   |- and carried Demand 307,   37.0 containers from 375 to 408
###  |   |- and carried Demand 308,  211.0 containers from 375 to 408
###  |   |- and carried Demand 309,  176.0 containers from 375 to 428
###  |   |- and carried Demand 377,  704.0 containers from 371 to 408
###  |   |- and carried Demand 378,    8.0 containers from 371 to 408
###  |   |- and carried Demand 379,  156.0 containers from 371 to 424
###  |   |- and carried Demand 380,   45.0 containers from 371 to 424
###  |
###  |- Vessel 16 has the path [136, 268, 404, -4]
###  |  136 (FRLEH Out@326) - 268 (TRAMB In@576/Out@603) - 404 (INNSA In@738/Out@754) - -4 (DUMMY_END Ziel-Service 81)
###  |
###  |
### Service 121 (SAE) is operated by 2 vessels from type 18 (PMax25)
###  |
###  |- Vessel  4 has the path [103, 312, 302, -2]
###  |  103 (DEHAM Out@792) - 312 (USMIA In@1103/Out@1111) - 302 (HNPCR In@1166/Out@1179) - -2 (DUMMY_END Ziel-Service 121)
###  |
###  |- Vessel 13 has the path [104, 301, -2]
###  |  104 (DKAAR Out@220) - 301 (HNPCR In@998/Out@1011) - -2 (DUMMY_END Ziel-Service 121)
###  |
###  |
### Service 177 (WCSA) is operated by 2 vessels from type 18 (PMax25)
###  |
###  |- Vessel  3 has the path [102, 358, 269, 235, 0]
###  |  102 (DEHAM Out@624) - 358 (TRAMB In@683/Out@731) - 269 (TRAMB In@744/Out@771) - 235 (PABLB In@1472/Out@1484) - 0 (DUM
###  |  MY_END Ziel-Service 177)
###  |
###  |- Vessel 14 has the path [105, 266, 234, 0]
###  |  105 (DKAAR Out@388) - 266 (TRALI In@668/Out@686) - 234 (PABLB In@1304/Out@1316) - 0 (DUMMY_END Ziel-Service 177)
###  |
###  |
### Vessels not used in the solution: []
###  |-----------------------------------------------------------------------------------------------------------------------
###
#############################################################################################################################
###
###
#############################################################################################################################
### Solution run 6
#############################################################################################################################
###
### Results
###
### The objective of the solution is -12,660,704.3365 (-12660704.3365)
###
### Service 7 (ME3) is operated by 6 vessels from type 30 (PMax35)
###  |
###  |- Vessel  9 has the path [1, 274, 199, 290, 200, 112, 284, 45, 367, 330, -3]
###  |  1 (BEANR Out@66) - 274 (ESALG In@160/Out@179) - 199 (MAPTM In@207/Out@228) - 290 (MAPTM In@211/Out@230) - 200 (MAPTM 
###  |  In@238/Out@259) - 112 (ESALG In@284/Out@296) - 284 (GWOXB In@463/Out@542) - 45 (CMDLA In@765/Out@811) - 367 (TRMER In
###  |  @915/Out@959) - 330 (AEJEA In@1362/Out@1395) - -3 (DUMMY_END Ziel-Service 7)
###  |   |- and carried Demand   7,  161.0 containers from 199 to 45
###  |   |- and carried Demand   8,  580.0 containers from 199 to 112
###  |   |- and carried Demand  45,  161.0 containers from 200 to 45
###  |   |- and carried Demand  46,  580.0 containers from 200 to 112
###  |   |- and carried Demand 117,  580.0 containers from 199 to 112
###  |   |- and carried Demand 131,  580.0 containers from 200 to 112
###  |   |- and carried Demand 144,  161.0 containers from 290 to 45
###  |   |- and carried Demand 145,  580.0 containers from 290 to 112
###  |
###  |- Vessel 10 has the path [2, 275, 201, 291, 202, 114, 285, 25, 118, 368, 331, -3]
###  |  2 (BEANR Out@234) - 275 (ESALG In@328/Out@347) - 201 (MAPTM In@375/Out@396) - 291 (MAPTM In@379/Out@398) - 202 (MAPTM
###  |   In@406/Out@427) - 114 (ESALG In@452/Out@464) - 285 (GWOXB In@631/Out@710) - 25 (CIABJ In@751/Out@783) - 118 (ESALG I
###  |  n@932/Out@950) - 368 (TRMER In@1083/Out@1127) - 331 (AEJEA In@1530/Out@1563) - -3 (DUMMY_END Ziel-Service 7)
###  |   |- and carried Demand  17,  484.0 containers from 201 to 114
###  |   |- and carried Demand  18,   18.0 containers from 201 to 114
###  |   |- and carried Demand  52,  484.0 containers from 202 to 114
###  |   |- and carried Demand  53,   18.0 containers from 202 to 114
###  |   |- and carried Demand 119,  214.0 containers from 201 to 118
###  |   |- and carried Demand 120,   10.0 containers from 201 to 118
###  |   |- and carried Demand 121,  484.0 containers from 201 to 114
###  |   |- and carried Demand 122,   18.0 containers from 201 to 114
###  |   |- and carried Demand 132,  214.0 containers from 202 to 118
###  |   |- and carried Demand 133,   10.0 containers from 202 to 118
###  |   |- and carried Demand 134,  484.0 containers from 202 to 114
###  |   |- and carried Demand 135,   18.0 containers from 202 to 114
###  |   |- and carried Demand 138,  214.0 containers from 291 to 118
###  |   |- and carried Demand 139,   10.0 containers from 291 to 118
###  |   |- and carried Demand 140,  484.0 containers from 291 to 114
###  |   |- and carried Demand 141,   18.0 containers from 291 to 114
###  |
###  |- Vessel 11 has the path [5, 365, 327, -3]
###  |  5 (BEANR Out@402) - 365 (TRMER In@579/Out@623) - 327 (AEJEA In@858/Out@891) - -3 (DUMMY_END Ziel-Service 7)
###  |
###  |- Vessel 12 has the path [8, 366, 338, 339, 329, -3]
###  |  8 (BEANR Out@570) - 366 (TRMER In@747/Out@791) - 338 (EGPSD In@867/Out@886) - 339 (EGPSD In@957/Out@973) - 329 (AEJEA
###  |   In@1194/Out@1227) - -3 (DUMMY_END Ziel-Service 7)
###  |   |- and carried Demand 206,  467.0 containers from 338 to 329
###  |   |- and carried Demand 210,  467.0 containers from 339 to 329
###  |
###  |- Vessel 17 has the path [145, 364, 325, -3]
###  |  145 (GBFXT Out@302) - 364 (TRMER In@411/Out@455) - 325 (AEJEA In@690/Out@723) - -3 (DUMMY_END Ziel-Service 7)
###  |
###  |- Vessel 18 has the path [148, 337, 328, -3]
###  |  148 (GBFXT Out@470) - 337 (EGPSD In@789/Out@805) - 328 (AEJEA In@1026/Out@1059) - -3 (DUMMY_END Ziel-Service 7)
###  |   |- and carried Demand 213,   54.0 containers from 337 to 328
###  |
###  |
### Service 24 (WAF7) is operated by 2 vessels from type 18 (PMax25)
###  |
###  |- Vessel  1 has the path [100, 276, -1]
###  |  100 (DEHAM Out@288) - 276 (ESALG In@496/Out@515) - -1 (DUMMY_END Ziel-Service 24)
###  |
###  |- Vessel  2 has the path [101, 277, -1]
###  |  101 (DEHAM Out@456) - 277 (ESALG In@664/Out@683) - -1 (DUMMY_END Ziel-Service 24)
###  |
###  |
### Service 81 (MECL1) is operated by 6 vessels from type 19 (PMax28)
###  |
###  |- Vessel  5 has the path [218, 347, 344, 324, 229, 373, 426, 354, 376, 429, 409, -4]
###  |  218 (NLRTM Out@92) - 347 (INPAV In@467/Out@494) - 344 (INNSA In@522/Out@546) - 324 (AEJEA In@617/Out@642) - 229 (OMSL
###  |  L In@721/Out@736) - 373 (AEJEA In@899/Out@923) - 426 (PKBQM In@980/Out@1010) - 354 (OMSLL In@1300/Out@1313) - 376 (AE
###  |  JEA In@1403/Out@1427) - 429 (PKBQM In@1484/Out@1514) - 409 (INNSA In@1578/Out@1594) - -4 (DUMMY_END Ziel-Service 81)
###  |   |- and carried Demand 209,  280.0 containers from 344 to 324
###  |   |- and carried Demand 289,   34.0 containers from 429 to 409
###  |   |- and carried Demand 290,   84.0 containers from 376 to 429
###  |   |- and carried Demand 291,   50.0 containers from 376 to 429
###  |   |- and carried Demand 342,  254.0 containers from 426 to 409
###  |   |- and carried Demand 343,    1.0 containers from 426 to 409
###  |   |- and carried Demand 344,  135.0 containers from 426 to 409
###  |   |- and carried Demand 347,   75.0 containers from 373 to 409
###  |   |- and carried Demand 348,  200.0 containers from 373 to 426
###  |   |- and carried Demand 349,   24.0 containers from 373 to 426
###  |   |- and carried Demand 350,   26.0 containers from 373 to 409
###  |   |- and carried Demand 351,  144.0 containers from 373 to 409
###  |   |- and carried Demand 352,    1.0 containers from 373 to 409
###  |
###  |- Vessel  6 has the path [219, 272, 372, 425, 405, -4]
###  |  219 (NLRTM Out@260) - 272 (TRZMK In@617/Out@631) - 372 (AEJEA In@731/Out@755) - 425 (PKBQM In@812/Out@842) - 405 (INN
###  |  SA In@906/Out@922) - -4 (DUMMY_END Ziel-Service 81)
###  |   |- and carried Demand 361,   44.0 containers from 425 to 405
###  |   |- and carried Demand 366,  133.0 containers from 372 to 425
###  |   |- and carried Demand 367,   61.0 containers from 372 to 425
###  |
###  |- Vessel  7 has the path [221, 137, 203, 115, 273, 406, -4]
###  |  221 (NLRTM Out@428) - 137 (FRLEH In@447/Out@463) - 203 (MAPTM In@543/Out@564) - 115 (ESALG In@589/Out@601) - 273 (TRZ
###  |  MK In@785/Out@799) - 406 (INNSA In@1074/Out@1090) - -4 (DUMMY_END Ziel-Service 81)
###  |   |- and carried Demand  25,   68.0 containers from 221 to 115
###  |   |- and carried Demand  26,    6.0 containers from 221 to 137
###  |   |- and carried Demand  29,   60.0 containers from 203 to 115
###  |   |- and carried Demand  30,   11.0 containers from 203 to 115
###  |   |- and carried Demand 123,   68.0 containers from 221 to 115
###  |   |- and carried Demand 126,   60.0 containers from 203 to 115
###  |   |- and carried Demand 127,   11.0 containers from 203 to 115
###  |
###  |- Vessel  8 has the path [223, 267, 374, 427, 407, -4]
###  |  223 (NLRTM Out@596) - 267 (TRALI In@836/Out@854) - 374 (AEJEA In@1067/Out@1091) - 427 (PKBQM In@1148/Out@1178) - 407 
###  |  (INNSA In@1242/Out@1258) - -4 (DUMMY_END Ziel-Service 81)
###  |   |- and carried Demand 329,   86.0 containers from 374 to 427
###  |   |- and carried Demand 330,  118.0 containers from 374 to 427
###  |
###  |- Vessel 15 has the path [134, 371, 424, 230, 375, 428, 408, -4]
###  |  134 (FRLEH Out@158) - 371 (AEJEA In@563/Out@587) - 424 (PKBQM In@644/Out@674) - 230 (OMSLL In@889/Out@904) - 375 (AEJ
###  |  EA In@1235/Out@1259) - 428 (PKBQM In@1316/Out@1346) - 408 (INNSA In@1410/Out@1426) - -4 (DUMMY_END Ziel-Service 81)
###  |   |- and carried Demand 306,   31.0 containers from 428 to 408
###  |   |- and carried Demand 307,   37.0 containers from 375 to 408
###  |   |- and carried Demand 308,  211.0 containers from 375 to 408
###  |   |- and carried Demand 309,  176.0 containers from 375 to 428
###  |   |- and carried Demand 377,  704.0 containers from 371 to 408
###  |   |- and carried Demand 378,    8.0 containers from 371 to 408
###  |   |- and carried Demand 379,  156.0 containers from 371 to 424
###  |   |- and carried Demand 380,   45.0 containers from 371 to 424
###  |
###  |- Vessel 16 has the path [136, 268, 404, -4]
###  |  136 (FRLEH Out@326) - 268 (TRAMB In@576/Out@603) - 404 (INNSA In@738/Out@754) - -4 (DUMMY_END Ziel-Service 81)
###  |
###  |
### Service 121 (SAE) is operated by 2 vessels from type 18 (PMax25)
###  |
###  |- Vessel  4 has the path [103, 312, 302, -2]
###  |  103 (DEHAM Out@792) - 312 (USMIA In@1103/Out@1111) - 302 (HNPCR In@1166/Out@1179) - -2 (DUMMY_END Ziel-Service 121)
###  |
###  |- Vessel 13 has the path [104, 301, -2]
###  |  104 (DKAAR Out@220) - 301 (HNPCR In@998/Out@1011) - -2 (DUMMY_END Ziel-Service 121)
###  |
###  |
### Service 177 (WCSA) is operated by 2 vessels from type 18 (PMax25)
###  |
###  |- Vessel  3 has the path [102, 358, 269, 235, 0]
###  |  102 (DEHAM Out@624) - 358 (TRAMB In@683/Out@731) - 269 (TRAMB In@744/Out@771) - 235 (PABLB In@1472/Out@1484) - 0 (DUM
###  |  MY_END Ziel-Service 177)
###  |
###  |- Vessel 14 has the path [105, 266, 234, 0]
###  |  105 (DKAAR Out@388) - 266 (TRALI In@668/Out@686) - 234 (PABLB In@1304/Out@1316) - 0 (DUMMY_END Ziel-Service 177)
###  |
###  |
### Vessels not used in the solution: []
###  |-----------------------------------------------------------------------------------------------------------------------
###
#############################################################################################################################
+++++++++++++++++++++++++++++++++++++++++++++++++++++++++++++++++++++++++++++++++++++++++++++++++++++++++++++++++++++++++++++
+++
+++ The average objective is -12,660,704.3365 (-12660704.3365)
+++
+++++++++++++++++++++++++++++++++++++++++++++++++++++++++++++++++++++++++++++++++++++++++++++++++++++++++++++++++++++++++++++

real	60m48.837s
user	126m56.216s
sys	10m26.818s
	Freetype 2.4.12 environment removed
	Python 3.6.0 environment removed
	Gurobi 8.1.0 environment removed
