### Additional Information to the goal services
# Basic costs on route 24: 11906781.4330975
# Basic costs on route 177: -25563814.98498077
# Direct costs (not staggered):
# For goal service 24:
# n_min: 2
# n_max: 4
# lowest costs of the goal service 24 with configuration (24, 18, 3) at 0.0
# For goal service 177:
# n_min: 2
# n_max: 3
# lowest costs of the goal service 177 with configuration (177, 19, 3) at 0.0
# (24, 18, 1): 11833105.943760164
# (24, 18, 2): 6515339.19925772
# (24, 18, 3): 0.0
# (24, 18, 4): 490014.0
# (24, 19, 1): 18275325.4932487
# (24, 19, 2): 10641457.325009037
# (24, 19, 3): 5567237.269844063
# (24, 19, 4): 6106223.269844059
# (24, 30, 1): 17903937.771528423
# (24, 30, 2): 11385849.376513451
# (24, 30, 3): 5261919.751136586
# (24, 30, 4): 5849919.751136582
# (177, 18, 1): 9769159.392818123
# (177, 18, 2): 6971600.747039534
# (177, 18, 3): 170904.74703953415
# (177, 19, 1): 13522532.579072475
# (177, 19, 2): 9049670.27475001
# (177, 19, 3): 0.0
# (177, 30, 1): 13284985.272903368
# (177, 30, 2): 10468207.947913755
# (177, 30, 3): 1060448.1434637532
# -------------------------------------------
