### Additional Information to the goal services
# Basic costs on route 24: 13335595.205069203
# Basic costs on route 177: -28631472.783178456
# Direct costs (not staggered):
# For goal service 24:
# n_min: 2
# n_max: 4
# lowest costs of the goal service 24 with configuration (24, 18, 3) at 0.0
# For goal service 177:
# n_min: 2
# n_max: 3
# lowest costs of the goal service 177 with configuration (177, 19, 3) at 0.0
# (24, 18, 1): 13253078.657011382
# (24, 18, 2): 7297179.9031686485
# (24, 18, 3): 0.0
# (24, 18, 4): 548815.6800000034
# (24, 19, 1): 20468364.552438553
# (24, 19, 2): 11918432.204010122
# (24, 19, 3): 6235305.742225349
# (24, 19, 4): 6838970.062225349
# (24, 30, 1): 20052410.30411184
# (24, 30, 2): 12752151.301695064
# (24, 30, 3): 5893350.121272966
# (24, 30, 4): 6551910.121272966
# (177, 18, 1): 10941458.51995629
# (177, 18, 2): 7808192.836684272
# (177, 18, 3): 191413.31668427214
# (177, 19, 1): 15145236.48856116
# (177, 19, 2): 10135630.707720004
# (177, 19, 3): 0.0
# (177, 30, 1): 14879183.505651757
# (177, 30, 2): 11724392.9016634
# (177, 30, 3): 1187701.9206793979
# -------------------------------------------
