### Additional Information to the goal services
# Basic costs on route 24: 7620340.117182402
# Direct costs (not staggered):
# For goal service 24:
# n_min: 2
# n_max: 4
# lowest costs of the goal service 24 with configuration (24, 18, 3) at 0.0
# (24, 18, 1): 7573187.804006506
# (24, 18, 2): 4169817.087524941
# (24, 18, 3): 0.0
# (24, 18, 4): 313608.9600000009
# (24, 19, 1): 11696208.315679165
# (24, 19, 2): 6810532.688005779
# (24, 19, 3): 3563031.8527002
# (24, 19, 4): 3907982.8927001953
# (24, 30, 1): 11458520.173778193
# (24, 30, 2): 7286943.6009686105
# (24, 30, 3): 3367628.640727408
# (24, 30, 4): 3743948.640727408
# -------------------------------------------
