	Freetype 2.4.12 environment established
		library to render fonts
	Python 3.6.0 environment established
	Gurobi 8.1.0 environment established
Instance LSFRP: LSFDRP_2_3_0_0_fr.p
Instance LSFDP: LSFDRP_2_3_0_0_fd_25.p


*****************************************************************************************************************************
*** Solve LSFDRP_2_3_0_0_fd_25.p with matheuristics.
***  |
***  |- Create instance object for heuristic
***  |   |- Convert flexible visitations into inflexible visitations,	took 0.022134 sec.
***  |   |- Calculate demand structure for node flow model,		took 0.299021 sec.
***  |   |- Create additional vessel information,				took 0.003517 sec.
***  |
***  |   |- Create ranking for FDP solutions,				took 0.124368 sec.
***  |- Start solving instance with matheuristics, run 1
***  |   |- Create ranking for FDP solutions,				took  0.12426 sec.
***  |   |- Calculation finished, timelimit reached 			took    600.8 sec.
***  |
***  |- Start solving instance with matheuristics, run 2
***  |   |- Create ranking for FDP solutions,				took 0.162152 sec.
***  |   |- Calculation finished, timelimit reached 			took   598.38 sec.
***  |
***  |- Start solving instance with matheuristics, run 3
***  |   |- Create ranking for FDP solutions,				took 0.164103 sec.
***  |   |- Calculation finished, timelimit reached 			took   600.74 sec.
***  |
***  |- Start solving instance with matheuristics, run 4
***  |   |- Create ranking for FDP solutions,				took 0.164207 sec.
***  |   |- Calculation finished, timelimit reached 			took   601.03 sec.
***  |
***  |- Start solving instance with matheuristics, run 5
***  |   |- Create ranking for FDP solutions,				took 0.124233 sec.
***  |   |- Calculation finished, timelimit reached 			took   598.38 sec.
***  |
***  |- Start solving instance with matheuristics, run 6
***  |   |- Create ranking for FDP solutions,				took 0.097711 sec.
***  |   |- Calculation finished, timelimit reached 			took   601.14 sec.
***  |
***  |-----------------------------------------------------------------------------------------------------------------------
***
*****************************************************************************************************************************
###
###
#############################################################################################################################
### Solution run 1
#############################################################################################################################
###
### Results
###
### The objective of the solution is -233,823.7321 (-233823.7321)
###
### Service 7 (ME3) is operated by 6 vessels from type 19 (PMax28)
###  |
###  |- Vessel  5 has the path [218, 133, 199, 290, 200, 112, 284, 45, 368, 331, -3]
###  |  218 (NLRTM Out@92) - 133 (FRLEH In@111/Out@127) - 199 (MAPTM In@207/Out@228) - 290 (MAPTM In@211/Out@230) - 200 (MAPT
###  |  M In@238/Out@259) - 112 (ESALG In@284/Out@296) - 284 (GWOXB In@463/Out@542) - 45 (CMDLA In@765/Out@811) - 368 (TRMER 
###  |  In@1083/Out@1127) - 331 (AEJEA In@1530/Out@1563) - -3 (DUMMY_END Ziel-Service 7)
###  |   |- and carried Demand   6,   17.0 containers from 218 to 133
###  |   |- and carried Demand   7,  161.0 containers from 199 to 45
###  |   |- and carried Demand   8,  580.0 containers from 199 to 112
###  |   |- and carried Demand  45,  161.0 containers from 200 to 45
###  |   |- and carried Demand  46,  580.0 containers from 200 to 112
###  |   |- and carried Demand 117,  580.0 containers from 199 to 112
###  |   |- and carried Demand 131,  580.0 containers from 200 to 112
###  |   |- and carried Demand 144,  161.0 containers from 290 to 45
###  |   |- and carried Demand 145,   19.0 containers from 290 to 112
###  |
###  |- Vessel  6 has the path [219, 364, 334, 352, 229, 327, -3]
###  |  219 (NLRTM Out@260) - 364 (TRMER In@411/Out@455) - 334 (EGPSD In@531/Out@550) - 352 (OMSLL In@710/Out@722) - 229 (OMS
###  |  LL In@721/Out@736) - 327 (AEJEA In@858/Out@891) - -3 (DUMMY_END Ziel-Service 7)
###  |   |- and carried Demand 207,  288.0 containers from 352 to 327
###  |   |- and carried Demand 208,   14.0 containers from 352 to 327
###  |   |- and carried Demand 214,  164.0 containers from 334 to 327
###  |   |- and carried Demand 215,   58.0 containers from 334 to 327
###  |
###  |- Vessel  7 has the path [221, 137, 203, 115, 367, 330, -3]
###  |  221 (NLRTM Out@428) - 137 (FRLEH In@447/Out@463) - 203 (MAPTM In@543/Out@564) - 115 (ESALG In@589/Out@601) - 367 (TRM
###  |  ER In@915/Out@959) - 330 (AEJEA In@1362/Out@1395) - -3 (DUMMY_END Ziel-Service 7)
###  |   |- and carried Demand  25,   68.0 containers from 221 to 115
###  |   |- and carried Demand  26,    6.0 containers from 221 to 137
###  |   |- and carried Demand  29,   60.0 containers from 203 to 115
###  |   |- and carried Demand  30,   11.0 containers from 203 to 115
###  |   |- and carried Demand 123,   68.0 containers from 221 to 115
###  |   |- and carried Demand 126,   60.0 containers from 203 to 115
###  |   |- and carried Demand 127,   11.0 containers from 203 to 115
###  |
###  |- Vessel  8 has the path [223, 366, 338, 339, 329, -3]
###  |  223 (NLRTM Out@596) - 366 (TRMER In@747/Out@791) - 338 (EGPSD In@867/Out@886) - 339 (EGPSD In@957/Out@973) - 329 (AEJ
###  |  EA In@1194/Out@1227) - -3 (DUMMY_END Ziel-Service 7)
###  |   |- and carried Demand 206,  467.0 containers from 338 to 329
###  |   |- and carried Demand 210,  467.0 containers from 339 to 329
###  |
###  |- Vessel 15 has the path [134, 356, 325, -3]
###  |  134 (FRLEH Out@158) - 356 (TRAMB In@347/Out@395) - 325 (AEJEA In@690/Out@723) - -3 (DUMMY_END Ziel-Service 7)
###  |
###  |- Vessel 16 has the path [136, 272, 353, 230, 328, -3]
###  |  136 (FRLEH Out@326) - 272 (TRZMK In@617/Out@631) - 353 (OMSLL In@878/Out@890) - 230 (OMSLL In@889/Out@904) - 328 (AEJ
###  |  EA In@1026/Out@1059) - -3 (DUMMY_END Ziel-Service 7)
###  |   |- and carried Demand 201,  111.0 containers from 353 to 328
###  |   |- and carried Demand 202,   35.0 containers from 353 to 328
###  |
###  |
### Service 24 (WAF7) is operated by 3 vessels from type 18 (PMax25)
###  |
###  |- Vessel  1 has the path [100, 276, -1]
###  |  100 (DEHAM Out@288) - 276 (ESALG In@496/Out@515) - -1 (DUMMY_END Ziel-Service 24)
###  |
###  |- Vessel  2 has the path [101, 277, -1]
###  |  101 (DEHAM Out@456) - 277 (ESALG In@664/Out@683) - -1 (DUMMY_END Ziel-Service 24)
###  |
###  |- Vessel 13 has the path [104, 275, 201, 291, 202, 114, 278, -1]
###  |  104 (DKAAR Out@220) - 275 (ESALG In@328/Out@347) - 201 (MAPTM In@375/Out@396) - 291 (MAPTM In@379/Out@398) - 202 (MAP
###  |  TM In@406/Out@427) - 114 (ESALG In@452/Out@464) - 278 (ESALG In@832/Out@851) - -1 (DUMMY_END Ziel-Service 24)
###  |   |- and carried Demand  17,  484.0 containers from 201 to 114
###  |   |- and carried Demand  18,   18.0 containers from 201 to 114
###  |   |- and carried Demand  52,  312.0 containers from 202 to 114
###  |   |- and carried Demand  53,   18.0 containers from 202 to 114
###  |   |- and carried Demand 119,  214.0 containers from 201 to 278
###  |   |- and carried Demand 120,   10.0 containers from 201 to 278
###  |   |- and carried Demand 122,   18.0 containers from 201 to 114
###  |   |- and carried Demand 132,  214.0 containers from 202 to 278
###  |   |- and carried Demand 133,   10.0 containers from 202 to 278
###  |   |- and carried Demand 134,  484.0 containers from 202 to 114
###  |   |- and carried Demand 135,   18.0 containers from 202 to 114
###  |   |- and carried Demand 138,  214.0 containers from 291 to 278
###  |   |- and carried Demand 139,   10.0 containers from 291 to 278
###  |   |- and carried Demand 140,  484.0 containers from 291 to 114
###  |   |- and carried Demand 141,   18.0 containers from 291 to 114
###  |
###  |
### Service 121 (SAE) is operated by 2 vessels from type 30 (PMax35)
###  |
###  |- Vessel 12 has the path [8, 302, -2]
###  |  8 (BEANR Out@570) - 302 (HNPCR In@1166/Out@1179) - -2 (DUMMY_END Ziel-Service 121)
###  |
###  |- Vessel 18 has the path [148, 315, 311, 301, -2]
###  |  148 (GBFXT Out@470) - 315 (USORF In@873/Out@881) - 311 (USMIA In@935/Out@943) - 301 (HNPCR In@998/Out@1011) - -2 (DUM
###  |  MY_END Ziel-Service 121)
###  |   |- and carried Demand 170,   10.0 containers from 311 to 301
###  |   |- and carried Demand 171,   75.0 containers from 315 to 301
###  |   |- and carried Demand 172,  114.0 containers from 315 to 301
###  |
###  |
### Service 177 (WCSA) is operated by 3 vessels from type 18 (PMax25)
###  |
###  |- Vessel  3 has the path [102, 358, 267, 236, 0]
###  |  102 (DEHAM Out@624) - 358 (TRAMB In@683/Out@731) - 267 (TRALI In@836/Out@854) - 236 (PABLB In@1640/Out@1652) - 0 (DUM
###  |  MY_END Ziel-Service 177)
###  |
###  |- Vessel  4 has the path [103, 235, 0]
###  |  103 (DEHAM Out@792) - 235 (PABLB In@1472/Out@1484) - 0 (DUMMY_END Ziel-Service 177)
###  |
###  |- Vessel 14 has the path [105, 365, 266, 234, 0]
###  |  105 (DKAAR Out@388) - 365 (TRMER In@579/Out@623) - 266 (TRALI In@668/Out@686) - 234 (PABLB In@1304/Out@1316) - 0 (DUM
###  |  MY_END Ziel-Service 177)
###  |
###  |
### Vessels not used in the solution: [9, 10, 11, 17]
###  |-----------------------------------------------------------------------------------------------------------------------
###
#############################################################################################################################
###
###
#############################################################################################################################
### Solution run 2
#############################################################################################################################
###
### Results
###
### The objective of the solution is -233,823.7321 (-233823.7321)
###
### Service 7 (ME3) is operated by 6 vessels from type 19 (PMax28)
###  |
###  |- Vessel  5 has the path [218, 133, 199, 290, 200, 112, 284, 45, 368, 331, -3]
###  |  218 (NLRTM Out@92) - 133 (FRLEH In@111/Out@127) - 199 (MAPTM In@207/Out@228) - 290 (MAPTM In@211/Out@230) - 200 (MAPT
###  |  M In@238/Out@259) - 112 (ESALG In@284/Out@296) - 284 (GWOXB In@463/Out@542) - 45 (CMDLA In@765/Out@811) - 368 (TRMER 
###  |  In@1083/Out@1127) - 331 (AEJEA In@1530/Out@1563) - -3 (DUMMY_END Ziel-Service 7)
###  |   |- and carried Demand   6,   17.0 containers from 218 to 133
###  |   |- and carried Demand   7,  161.0 containers from 199 to 45
###  |   |- and carried Demand   8,  580.0 containers from 199 to 112
###  |   |- and carried Demand  45,  161.0 containers from 200 to 45
###  |   |- and carried Demand  46,  580.0 containers from 200 to 112
###  |   |- and carried Demand 117,  580.0 containers from 199 to 112
###  |   |- and carried Demand 131,  580.0 containers from 200 to 112
###  |   |- and carried Demand 144,  161.0 containers from 290 to 45
###  |   |- and carried Demand 145,   19.0 containers from 290 to 112
###  |
###  |- Vessel  6 has the path [219, 364, 334, 352, 229, 327, -3]
###  |  219 (NLRTM Out@260) - 364 (TRMER In@411/Out@455) - 334 (EGPSD In@531/Out@550) - 352 (OMSLL In@710/Out@722) - 229 (OMS
###  |  LL In@721/Out@736) - 327 (AEJEA In@858/Out@891) - -3 (DUMMY_END Ziel-Service 7)
###  |   |- and carried Demand 207,  288.0 containers from 352 to 327
###  |   |- and carried Demand 208,   14.0 containers from 352 to 327
###  |   |- and carried Demand 214,  164.0 containers from 334 to 327
###  |   |- and carried Demand 215,   58.0 containers from 334 to 327
###  |
###  |- Vessel  7 has the path [221, 137, 203, 115, 367, 330, -3]
###  |  221 (NLRTM Out@428) - 137 (FRLEH In@447/Out@463) - 203 (MAPTM In@543/Out@564) - 115 (ESALG In@589/Out@601) - 367 (TRM
###  |  ER In@915/Out@959) - 330 (AEJEA In@1362/Out@1395) - -3 (DUMMY_END Ziel-Service 7)
###  |   |- and carried Demand  25,   68.0 containers from 221 to 115
###  |   |- and carried Demand  26,    6.0 containers from 221 to 137
###  |   |- and carried Demand  29,   60.0 containers from 203 to 115
###  |   |- and carried Demand  30,   11.0 containers from 203 to 115
###  |   |- and carried Demand 123,   68.0 containers from 221 to 115
###  |   |- and carried Demand 126,   60.0 containers from 203 to 115
###  |   |- and carried Demand 127,   11.0 containers from 203 to 115
###  |
###  |- Vessel  8 has the path [223, 366, 338, 339, 329, -3]
###  |  223 (NLRTM Out@596) - 366 (TRMER In@747/Out@791) - 338 (EGPSD In@867/Out@886) - 339 (EGPSD In@957/Out@973) - 329 (AEJ
###  |  EA In@1194/Out@1227) - -3 (DUMMY_END Ziel-Service 7)
###  |   |- and carried Demand 206,  467.0 containers from 338 to 329
###  |   |- and carried Demand 210,  467.0 containers from 339 to 329
###  |
###  |- Vessel 15 has the path [134, 356, 325, -3]
###  |  134 (FRLEH Out@158) - 356 (TRAMB In@347/Out@395) - 325 (AEJEA In@690/Out@723) - -3 (DUMMY_END Ziel-Service 7)
###  |
###  |- Vessel 16 has the path [136, 272, 353, 230, 328, -3]
###  |  136 (FRLEH Out@326) - 272 (TRZMK In@617/Out@631) - 353 (OMSLL In@878/Out@890) - 230 (OMSLL In@889/Out@904) - 328 (AEJ
###  |  EA In@1026/Out@1059) - -3 (DUMMY_END Ziel-Service 7)
###  |   |- and carried Demand 201,  111.0 containers from 353 to 328
###  |   |- and carried Demand 202,   35.0 containers from 353 to 328
###  |
###  |
### Service 24 (WAF7) is operated by 3 vessels from type 18 (PMax25)
###  |
###  |- Vessel  1 has the path [100, 276, -1]
###  |  100 (DEHAM Out@288) - 276 (ESALG In@496/Out@515) - -1 (DUMMY_END Ziel-Service 24)
###  |
###  |- Vessel  2 has the path [101, 277, -1]
###  |  101 (DEHAM Out@456) - 277 (ESALG In@664/Out@683) - -1 (DUMMY_END Ziel-Service 24)
###  |
###  |- Vessel 13 has the path [104, 275, 201, 291, 202, 114, 278, -1]
###  |  104 (DKAAR Out@220) - 275 (ESALG In@328/Out@347) - 201 (MAPTM In@375/Out@396) - 291 (MAPTM In@379/Out@398) - 202 (MAP
###  |  TM In@406/Out@427) - 114 (ESALG In@452/Out@464) - 278 (ESALG In@832/Out@851) - -1 (DUMMY_END Ziel-Service 24)
###  |   |- and carried Demand  17,  484.0 containers from 201 to 114
###  |   |- and carried Demand  18,   18.0 containers from 201 to 114
###  |   |- and carried Demand  52,  312.0 containers from 202 to 114
###  |   |- and carried Demand  53,   18.0 containers from 202 to 114
###  |   |- and carried Demand 119,  214.0 containers from 201 to 278
###  |   |- and carried Demand 120,   10.0 containers from 201 to 278
###  |   |- and carried Demand 122,   18.0 containers from 201 to 114
###  |   |- and carried Demand 132,  214.0 containers from 202 to 278
###  |   |- and carried Demand 133,   10.0 containers from 202 to 278
###  |   |- and carried Demand 134,  484.0 containers from 202 to 114
###  |   |- and carried Demand 135,   18.0 containers from 202 to 114
###  |   |- and carried Demand 138,  214.0 containers from 291 to 278
###  |   |- and carried Demand 139,   10.0 containers from 291 to 278
###  |   |- and carried Demand 140,  484.0 containers from 291 to 114
###  |   |- and carried Demand 141,   18.0 containers from 291 to 114
###  |
###  |
### Service 121 (SAE) is operated by 2 vessels from type 30 (PMax35)
###  |
###  |- Vessel 12 has the path [8, 302, -2]
###  |  8 (BEANR Out@570) - 302 (HNPCR In@1166/Out@1179) - -2 (DUMMY_END Ziel-Service 121)
###  |
###  |- Vessel 18 has the path [148, 315, 311, 301, -2]
###  |  148 (GBFXT Out@470) - 315 (USORF In@873/Out@881) - 311 (USMIA In@935/Out@943) - 301 (HNPCR In@998/Out@1011) - -2 (DUM
###  |  MY_END Ziel-Service 121)
###  |   |- and carried Demand 170,   10.0 containers from 311 to 301
###  |   |- and carried Demand 171,   75.0 containers from 315 to 301
###  |   |- and carried Demand 172,  114.0 containers from 315 to 301
###  |
###  |
### Service 177 (WCSA) is operated by 3 vessels from type 18 (PMax25)
###  |
###  |- Vessel  3 has the path [102, 358, 267, 236, 0]
###  |  102 (DEHAM Out@624) - 358 (TRAMB In@683/Out@731) - 267 (TRALI In@836/Out@854) - 236 (PABLB In@1640/Out@1652) - 0 (DUM
###  |  MY_END Ziel-Service 177)
###  |
###  |- Vessel  4 has the path [103, 235, 0]
###  |  103 (DEHAM Out@792) - 235 (PABLB In@1472/Out@1484) - 0 (DUMMY_END Ziel-Service 177)
###  |
###  |- Vessel 14 has the path [105, 365, 266, 234, 0]
###  |  105 (DKAAR Out@388) - 365 (TRMER In@579/Out@623) - 266 (TRALI In@668/Out@686) - 234 (PABLB In@1304/Out@1316) - 0 (DUM
###  |  MY_END Ziel-Service 177)
###  |
###  |
### Vessels not used in the solution: [9, 10, 11, 17]
###  |-----------------------------------------------------------------------------------------------------------------------
###
#############################################################################################################################
###
###
#############################################################################################################################
### Solution run 3
#############################################################################################################################
###
### Results
###
### The objective of the solution is -233,823.7321 (-233823.7321)
###
### Service 7 (ME3) is operated by 6 vessels from type 19 (PMax28)
###  |
###  |- Vessel  5 has the path [218, 133, 199, 290, 200, 112, 284, 45, 368, 331, -3]
###  |  218 (NLRTM Out@92) - 133 (FRLEH In@111/Out@127) - 199 (MAPTM In@207/Out@228) - 290 (MAPTM In@211/Out@230) - 200 (MAPT
###  |  M In@238/Out@259) - 112 (ESALG In@284/Out@296) - 284 (GWOXB In@463/Out@542) - 45 (CMDLA In@765/Out@811) - 368 (TRMER 
###  |  In@1083/Out@1127) - 331 (AEJEA In@1530/Out@1563) - -3 (DUMMY_END Ziel-Service 7)
###  |   |- and carried Demand   6,   17.0 containers from 218 to 133
###  |   |- and carried Demand   7,  161.0 containers from 199 to 45
###  |   |- and carried Demand   8,  580.0 containers from 199 to 112
###  |   |- and carried Demand  45,  161.0 containers from 200 to 45
###  |   |- and carried Demand  46,  580.0 containers from 200 to 112
###  |   |- and carried Demand 117,  580.0 containers from 199 to 112
###  |   |- and carried Demand 131,  580.0 containers from 200 to 112
###  |   |- and carried Demand 144,  161.0 containers from 290 to 45
###  |   |- and carried Demand 145,   19.0 containers from 290 to 112
###  |
###  |- Vessel  6 has the path [219, 364, 334, 352, 229, 327, -3]
###  |  219 (NLRTM Out@260) - 364 (TRMER In@411/Out@455) - 334 (EGPSD In@531/Out@550) - 352 (OMSLL In@710/Out@722) - 229 (OMS
###  |  LL In@721/Out@736) - 327 (AEJEA In@858/Out@891) - -3 (DUMMY_END Ziel-Service 7)
###  |   |- and carried Demand 207,  288.0 containers from 352 to 327
###  |   |- and carried Demand 208,   14.0 containers from 352 to 327
###  |   |- and carried Demand 214,  164.0 containers from 334 to 327
###  |   |- and carried Demand 215,   58.0 containers from 334 to 327
###  |
###  |- Vessel  7 has the path [221, 137, 203, 115, 367, 330, -3]
###  |  221 (NLRTM Out@428) - 137 (FRLEH In@447/Out@463) - 203 (MAPTM In@543/Out@564) - 115 (ESALG In@589/Out@601) - 367 (TRM
###  |  ER In@915/Out@959) - 330 (AEJEA In@1362/Out@1395) - -3 (DUMMY_END Ziel-Service 7)
###  |   |- and carried Demand  25,   68.0 containers from 221 to 115
###  |   |- and carried Demand  26,    6.0 containers from 221 to 137
###  |   |- and carried Demand  29,   60.0 containers from 203 to 115
###  |   |- and carried Demand  30,   11.0 containers from 203 to 115
###  |   |- and carried Demand 123,   68.0 containers from 221 to 115
###  |   |- and carried Demand 126,   60.0 containers from 203 to 115
###  |   |- and carried Demand 127,   11.0 containers from 203 to 115
###  |
###  |- Vessel  8 has the path [223, 366, 338, 339, 329, -3]
###  |  223 (NLRTM Out@596) - 366 (TRMER In@747/Out@791) - 338 (EGPSD In@867/Out@886) - 339 (EGPSD In@957/Out@973) - 329 (AEJ
###  |  EA In@1194/Out@1227) - -3 (DUMMY_END Ziel-Service 7)
###  |   |- and carried Demand 206,  467.0 containers from 338 to 329
###  |   |- and carried Demand 210,  467.0 containers from 339 to 329
###  |
###  |- Vessel 15 has the path [134, 356, 325, -3]
###  |  134 (FRLEH Out@158) - 356 (TRAMB In@347/Out@395) - 325 (AEJEA In@690/Out@723) - -3 (DUMMY_END Ziel-Service 7)
###  |
###  |- Vessel 16 has the path [136, 272, 353, 230, 328, -3]
###  |  136 (FRLEH Out@326) - 272 (TRZMK In@617/Out@631) - 353 (OMSLL In@878/Out@890) - 230 (OMSLL In@889/Out@904) - 328 (AEJ
###  |  EA In@1026/Out@1059) - -3 (DUMMY_END Ziel-Service 7)
###  |   |- and carried Demand 201,  111.0 containers from 353 to 328
###  |   |- and carried Demand 202,   35.0 containers from 353 to 328
###  |
###  |
### Service 24 (WAF7) is operated by 3 vessels from type 18 (PMax25)
###  |
###  |- Vessel  1 has the path [100, 276, -1]
###  |  100 (DEHAM Out@288) - 276 (ESALG In@496/Out@515) - -1 (DUMMY_END Ziel-Service 24)
###  |
###  |- Vessel  2 has the path [101, 277, -1]
###  |  101 (DEHAM Out@456) - 277 (ESALG In@664/Out@683) - -1 (DUMMY_END Ziel-Service 24)
###  |
###  |- Vessel 13 has the path [104, 275, 201, 291, 202, 114, 278, -1]
###  |  104 (DKAAR Out@220) - 275 (ESALG In@328/Out@347) - 201 (MAPTM In@375/Out@396) - 291 (MAPTM In@379/Out@398) - 202 (MAP
###  |  TM In@406/Out@427) - 114 (ESALG In@452/Out@464) - 278 (ESALG In@832/Out@851) - -1 (DUMMY_END Ziel-Service 24)
###  |   |- and carried Demand  17,  484.0 containers from 201 to 114
###  |   |- and carried Demand  18,   18.0 containers from 201 to 114
###  |   |- and carried Demand  52,  312.0 containers from 202 to 114
###  |   |- and carried Demand  53,   18.0 containers from 202 to 114
###  |   |- and carried Demand 119,  214.0 containers from 201 to 278
###  |   |- and carried Demand 120,   10.0 containers from 201 to 278
###  |   |- and carried Demand 122,   18.0 containers from 201 to 114
###  |   |- and carried Demand 132,  214.0 containers from 202 to 278
###  |   |- and carried Demand 133,   10.0 containers from 202 to 278
###  |   |- and carried Demand 134,  484.0 containers from 202 to 114
###  |   |- and carried Demand 135,   18.0 containers from 202 to 114
###  |   |- and carried Demand 138,  214.0 containers from 291 to 278
###  |   |- and carried Demand 139,   10.0 containers from 291 to 278
###  |   |- and carried Demand 140,  484.0 containers from 291 to 114
###  |   |- and carried Demand 141,   18.0 containers from 291 to 114
###  |
###  |
### Service 121 (SAE) is operated by 2 vessels from type 30 (PMax35)
###  |
###  |- Vessel 12 has the path [8, 302, -2]
###  |  8 (BEANR Out@570) - 302 (HNPCR In@1166/Out@1179) - -2 (DUMMY_END Ziel-Service 121)
###  |
###  |- Vessel 18 has the path [148, 315, 311, 301, -2]
###  |  148 (GBFXT Out@470) - 315 (USORF In@873/Out@881) - 311 (USMIA In@935/Out@943) - 301 (HNPCR In@998/Out@1011) - -2 (DUM
###  |  MY_END Ziel-Service 121)
###  |   |- and carried Demand 170,   10.0 containers from 311 to 301
###  |   |- and carried Demand 171,   75.0 containers from 315 to 301
###  |   |- and carried Demand 172,  114.0 containers from 315 to 301
###  |
###  |
### Service 177 (WCSA) is operated by 3 vessels from type 18 (PMax25)
###  |
###  |- Vessel  3 has the path [102, 358, 267, 236, 0]
###  |  102 (DEHAM Out@624) - 358 (TRAMB In@683/Out@731) - 267 (TRALI In@836/Out@854) - 236 (PABLB In@1640/Out@1652) - 0 (DUM
###  |  MY_END Ziel-Service 177)
###  |
###  |- Vessel  4 has the path [103, 235, 0]
###  |  103 (DEHAM Out@792) - 235 (PABLB In@1472/Out@1484) - 0 (DUMMY_END Ziel-Service 177)
###  |
###  |- Vessel 14 has the path [105, 365, 266, 234, 0]
###  |  105 (DKAAR Out@388) - 365 (TRMER In@579/Out@623) - 266 (TRALI In@668/Out@686) - 234 (PABLB In@1304/Out@1316) - 0 (DUM
###  |  MY_END Ziel-Service 177)
###  |
###  |
### Vessels not used in the solution: [9, 10, 11, 17]
###  |-----------------------------------------------------------------------------------------------------------------------
###
#############################################################################################################################
###
###
#############################################################################################################################
### Solution run 4
#############################################################################################################################
###
### Results
###
### The objective of the solution is -233,823.7321 (-233823.7321)
###
### Service 7 (ME3) is operated by 6 vessels from type 19 (PMax28)
###  |
###  |- Vessel  5 has the path [218, 133, 199, 290, 200, 112, 284, 45, 368, 331, -3]
###  |  218 (NLRTM Out@92) - 133 (FRLEH In@111/Out@127) - 199 (MAPTM In@207/Out@228) - 290 (MAPTM In@211/Out@230) - 200 (MAPT
###  |  M In@238/Out@259) - 112 (ESALG In@284/Out@296) - 284 (GWOXB In@463/Out@542) - 45 (CMDLA In@765/Out@811) - 368 (TRMER 
###  |  In@1083/Out@1127) - 331 (AEJEA In@1530/Out@1563) - -3 (DUMMY_END Ziel-Service 7)
###  |   |- and carried Demand   6,   17.0 containers from 218 to 133
###  |   |- and carried Demand   7,  161.0 containers from 199 to 45
###  |   |- and carried Demand   8,  580.0 containers from 199 to 112
###  |   |- and carried Demand  45,  161.0 containers from 200 to 45
###  |   |- and carried Demand  46,  580.0 containers from 200 to 112
###  |   |- and carried Demand 117,  580.0 containers from 199 to 112
###  |   |- and carried Demand 131,  580.0 containers from 200 to 112
###  |   |- and carried Demand 144,  161.0 containers from 290 to 45
###  |   |- and carried Demand 145,   19.0 containers from 290 to 112
###  |
###  |- Vessel  6 has the path [219, 364, 334, 352, 229, 327, -3]
###  |  219 (NLRTM Out@260) - 364 (TRMER In@411/Out@455) - 334 (EGPSD In@531/Out@550) - 352 (OMSLL In@710/Out@722) - 229 (OMS
###  |  LL In@721/Out@736) - 327 (AEJEA In@858/Out@891) - -3 (DUMMY_END Ziel-Service 7)
###  |   |- and carried Demand 207,  288.0 containers from 352 to 327
###  |   |- and carried Demand 208,   14.0 containers from 352 to 327
###  |   |- and carried Demand 214,  164.0 containers from 334 to 327
###  |   |- and carried Demand 215,   58.0 containers from 334 to 327
###  |
###  |- Vessel  7 has the path [221, 137, 203, 115, 367, 330, -3]
###  |  221 (NLRTM Out@428) - 137 (FRLEH In@447/Out@463) - 203 (MAPTM In@543/Out@564) - 115 (ESALG In@589/Out@601) - 367 (TRM
###  |  ER In@915/Out@959) - 330 (AEJEA In@1362/Out@1395) - -3 (DUMMY_END Ziel-Service 7)
###  |   |- and carried Demand  25,   68.0 containers from 221 to 115
###  |   |- and carried Demand  26,    6.0 containers from 221 to 137
###  |   |- and carried Demand  29,   60.0 containers from 203 to 115
###  |   |- and carried Demand  30,   11.0 containers from 203 to 115
###  |   |- and carried Demand 123,   68.0 containers from 221 to 115
###  |   |- and carried Demand 126,   60.0 containers from 203 to 115
###  |   |- and carried Demand 127,   11.0 containers from 203 to 115
###  |
###  |- Vessel  8 has the path [223, 366, 338, 339, 329, -3]
###  |  223 (NLRTM Out@596) - 366 (TRMER In@747/Out@791) - 338 (EGPSD In@867/Out@886) - 339 (EGPSD In@957/Out@973) - 329 (AEJ
###  |  EA In@1194/Out@1227) - -3 (DUMMY_END Ziel-Service 7)
###  |   |- and carried Demand 206,  467.0 containers from 338 to 329
###  |   |- and carried Demand 210,  467.0 containers from 339 to 329
###  |
###  |- Vessel 15 has the path [134, 356, 325, -3]
###  |  134 (FRLEH Out@158) - 356 (TRAMB In@347/Out@395) - 325 (AEJEA In@690/Out@723) - -3 (DUMMY_END Ziel-Service 7)
###  |
###  |- Vessel 16 has the path [136, 272, 353, 230, 328, -3]
###  |  136 (FRLEH Out@326) - 272 (TRZMK In@617/Out@631) - 353 (OMSLL In@878/Out@890) - 230 (OMSLL In@889/Out@904) - 328 (AEJ
###  |  EA In@1026/Out@1059) - -3 (DUMMY_END Ziel-Service 7)
###  |   |- and carried Demand 201,  111.0 containers from 353 to 328
###  |   |- and carried Demand 202,   35.0 containers from 353 to 328
###  |
###  |
### Service 24 (WAF7) is operated by 3 vessels from type 18 (PMax25)
###  |
###  |- Vessel  1 has the path [100, 276, -1]
###  |  100 (DEHAM Out@288) - 276 (ESALG In@496/Out@515) - -1 (DUMMY_END Ziel-Service 24)
###  |
###  |- Vessel  2 has the path [101, 277, -1]
###  |  101 (DEHAM Out@456) - 277 (ESALG In@664/Out@683) - -1 (DUMMY_END Ziel-Service 24)
###  |
###  |- Vessel 13 has the path [104, 275, 201, 291, 202, 114, 278, -1]
###  |  104 (DKAAR Out@220) - 275 (ESALG In@328/Out@347) - 201 (MAPTM In@375/Out@396) - 291 (MAPTM In@379/Out@398) - 202 (MAP
###  |  TM In@406/Out@427) - 114 (ESALG In@452/Out@464) - 278 (ESALG In@832/Out@851) - -1 (DUMMY_END Ziel-Service 24)
###  |   |- and carried Demand  17,  484.0 containers from 201 to 114
###  |   |- and carried Demand  18,   18.0 containers from 201 to 114
###  |   |- and carried Demand  52,  312.0 containers from 202 to 114
###  |   |- and carried Demand  53,   18.0 containers from 202 to 114
###  |   |- and carried Demand 119,  214.0 containers from 201 to 278
###  |   |- and carried Demand 120,   10.0 containers from 201 to 278
###  |   |- and carried Demand 122,   18.0 containers from 201 to 114
###  |   |- and carried Demand 132,  214.0 containers from 202 to 278
###  |   |- and carried Demand 133,   10.0 containers from 202 to 278
###  |   |- and carried Demand 134,  484.0 containers from 202 to 114
###  |   |- and carried Demand 135,   18.0 containers from 202 to 114
###  |   |- and carried Demand 138,  214.0 containers from 291 to 278
###  |   |- and carried Demand 139,   10.0 containers from 291 to 278
###  |   |- and carried Demand 140,  484.0 containers from 291 to 114
###  |   |- and carried Demand 141,   18.0 containers from 291 to 114
###  |
###  |
### Service 121 (SAE) is operated by 2 vessels from type 30 (PMax35)
###  |
###  |- Vessel 12 has the path [8, 302, -2]
###  |  8 (BEANR Out@570) - 302 (HNPCR In@1166/Out@1179) - -2 (DUMMY_END Ziel-Service 121)
###  |
###  |- Vessel 18 has the path [148, 315, 311, 301, -2]
###  |  148 (GBFXT Out@470) - 315 (USORF In@873/Out@881) - 311 (USMIA In@935/Out@943) - 301 (HNPCR In@998/Out@1011) - -2 (DUM
###  |  MY_END Ziel-Service 121)
###  |   |- and carried Demand 170,   10.0 containers from 311 to 301
###  |   |- and carried Demand 171,   75.0 containers from 315 to 301
###  |   |- and carried Demand 172,  114.0 containers from 315 to 301
###  |
###  |
### Service 177 (WCSA) is operated by 3 vessels from type 18 (PMax25)
###  |
###  |- Vessel  3 has the path [102, 358, 267, 236, 0]
###  |  102 (DEHAM Out@624) - 358 (TRAMB In@683/Out@731) - 267 (TRALI In@836/Out@854) - 236 (PABLB In@1640/Out@1652) - 0 (DUM
###  |  MY_END Ziel-Service 177)
###  |
###  |- Vessel  4 has the path [103, 235, 0]
###  |  103 (DEHAM Out@792) - 235 (PABLB In@1472/Out@1484) - 0 (DUMMY_END Ziel-Service 177)
###  |
###  |- Vessel 14 has the path [105, 365, 266, 234, 0]
###  |  105 (DKAAR Out@388) - 365 (TRMER In@579/Out@623) - 266 (TRALI In@668/Out@686) - 234 (PABLB In@1304/Out@1316) - 0 (DUM
###  |  MY_END Ziel-Service 177)
###  |
###  |
### Vessels not used in the solution: [9, 10, 11, 17]
###  |-----------------------------------------------------------------------------------------------------------------------
###
#############################################################################################################################
###
###
#############################################################################################################################
### Solution run 5
#############################################################################################################################
###
### Results
###
### The objective of the solution is -233,823.7321 (-233823.7321)
###
### Service 7 (ME3) is operated by 6 vessels from type 19 (PMax28)
###  |
###  |- Vessel  5 has the path [218, 133, 199, 290, 200, 112, 284, 45, 368, 331, -3]
###  |  218 (NLRTM Out@92) - 133 (FRLEH In@111/Out@127) - 199 (MAPTM In@207/Out@228) - 290 (MAPTM In@211/Out@230) - 200 (MAPT
###  |  M In@238/Out@259) - 112 (ESALG In@284/Out@296) - 284 (GWOXB In@463/Out@542) - 45 (CMDLA In@765/Out@811) - 368 (TRMER 
###  |  In@1083/Out@1127) - 331 (AEJEA In@1530/Out@1563) - -3 (DUMMY_END Ziel-Service 7)
###  |   |- and carried Demand   6,   17.0 containers from 218 to 133
###  |   |- and carried Demand   7,  161.0 containers from 199 to 45
###  |   |- and carried Demand   8,  580.0 containers from 199 to 112
###  |   |- and carried Demand  45,  161.0 containers from 200 to 45
###  |   |- and carried Demand  46,  580.0 containers from 200 to 112
###  |   |- and carried Demand 117,  580.0 containers from 199 to 112
###  |   |- and carried Demand 131,  580.0 containers from 200 to 112
###  |   |- and carried Demand 144,  161.0 containers from 290 to 45
###  |   |- and carried Demand 145,   19.0 containers from 290 to 112
###  |
###  |- Vessel  6 has the path [219, 364, 334, 352, 229, 327, -3]
###  |  219 (NLRTM Out@260) - 364 (TRMER In@411/Out@455) - 334 (EGPSD In@531/Out@550) - 352 (OMSLL In@710/Out@722) - 229 (OMS
###  |  LL In@721/Out@736) - 327 (AEJEA In@858/Out@891) - -3 (DUMMY_END Ziel-Service 7)
###  |   |- and carried Demand 207,  288.0 containers from 352 to 327
###  |   |- and carried Demand 208,   14.0 containers from 352 to 327
###  |   |- and carried Demand 214,  164.0 containers from 334 to 327
###  |   |- and carried Demand 215,   58.0 containers from 334 to 327
###  |
###  |- Vessel  7 has the path [221, 137, 203, 115, 367, 330, -3]
###  |  221 (NLRTM Out@428) - 137 (FRLEH In@447/Out@463) - 203 (MAPTM In@543/Out@564) - 115 (ESALG In@589/Out@601) - 367 (TRM
###  |  ER In@915/Out@959) - 330 (AEJEA In@1362/Out@1395) - -3 (DUMMY_END Ziel-Service 7)
###  |   |- and carried Demand  25,   68.0 containers from 221 to 115
###  |   |- and carried Demand  26,    6.0 containers from 221 to 137
###  |   |- and carried Demand  29,   60.0 containers from 203 to 115
###  |   |- and carried Demand  30,   11.0 containers from 203 to 115
###  |   |- and carried Demand 123,   68.0 containers from 221 to 115
###  |   |- and carried Demand 126,   60.0 containers from 203 to 115
###  |   |- and carried Demand 127,   11.0 containers from 203 to 115
###  |
###  |- Vessel  8 has the path [223, 366, 338, 339, 329, -3]
###  |  223 (NLRTM Out@596) - 366 (TRMER In@747/Out@791) - 338 (EGPSD In@867/Out@886) - 339 (EGPSD In@957/Out@973) - 329 (AEJ
###  |  EA In@1194/Out@1227) - -3 (DUMMY_END Ziel-Service 7)
###  |   |- and carried Demand 206,  467.0 containers from 338 to 329
###  |   |- and carried Demand 210,  467.0 containers from 339 to 329
###  |
###  |- Vessel 15 has the path [134, 356, 325, -3]
###  |  134 (FRLEH Out@158) - 356 (TRAMB In@347/Out@395) - 325 (AEJEA In@690/Out@723) - -3 (DUMMY_END Ziel-Service 7)
###  |
###  |- Vessel 16 has the path [136, 272, 353, 230, 328, -3]
###  |  136 (FRLEH Out@326) - 272 (TRZMK In@617/Out@631) - 353 (OMSLL In@878/Out@890) - 230 (OMSLL In@889/Out@904) - 328 (AEJ
###  |  EA In@1026/Out@1059) - -3 (DUMMY_END Ziel-Service 7)
###  |   |- and carried Demand 201,  111.0 containers from 353 to 328
###  |   |- and carried Demand 202,   35.0 containers from 353 to 328
###  |
###  |
### Service 24 (WAF7) is operated by 3 vessels from type 18 (PMax25)
###  |
###  |- Vessel  1 has the path [100, 276, -1]
###  |  100 (DEHAM Out@288) - 276 (ESALG In@496/Out@515) - -1 (DUMMY_END Ziel-Service 24)
###  |
###  |- Vessel  2 has the path [101, 277, -1]
###  |  101 (DEHAM Out@456) - 277 (ESALG In@664/Out@683) - -1 (DUMMY_END Ziel-Service 24)
###  |
###  |- Vessel 13 has the path [104, 275, 201, 291, 202, 114, 278, -1]
###  |  104 (DKAAR Out@220) - 275 (ESALG In@328/Out@347) - 201 (MAPTM In@375/Out@396) - 291 (MAPTM In@379/Out@398) - 202 (MAP
###  |  TM In@406/Out@427) - 114 (ESALG In@452/Out@464) - 278 (ESALG In@832/Out@851) - -1 (DUMMY_END Ziel-Service 24)
###  |   |- and carried Demand  17,  484.0 containers from 201 to 114
###  |   |- and carried Demand  18,   18.0 containers from 201 to 114
###  |   |- and carried Demand  52,  312.0 containers from 202 to 114
###  |   |- and carried Demand  53,   18.0 containers from 202 to 114
###  |   |- and carried Demand 119,  214.0 containers from 201 to 278
###  |   |- and carried Demand 120,   10.0 containers from 201 to 278
###  |   |- and carried Demand 122,   18.0 containers from 201 to 114
###  |   |- and carried Demand 132,  214.0 containers from 202 to 278
###  |   |- and carried Demand 133,   10.0 containers from 202 to 278
###  |   |- and carried Demand 134,  484.0 containers from 202 to 114
###  |   |- and carried Demand 135,   18.0 containers from 202 to 114
###  |   |- and carried Demand 138,  214.0 containers from 291 to 278
###  |   |- and carried Demand 139,   10.0 containers from 291 to 278
###  |   |- and carried Demand 140,  484.0 containers from 291 to 114
###  |   |- and carried Demand 141,   18.0 containers from 291 to 114
###  |
###  |
### Service 121 (SAE) is operated by 2 vessels from type 30 (PMax35)
###  |
###  |- Vessel 12 has the path [8, 302, -2]
###  |  8 (BEANR Out@570) - 302 (HNPCR In@1166/Out@1179) - -2 (DUMMY_END Ziel-Service 121)
###  |
###  |- Vessel 18 has the path [148, 315, 311, 301, -2]
###  |  148 (GBFXT Out@470) - 315 (USORF In@873/Out@881) - 311 (USMIA In@935/Out@943) - 301 (HNPCR In@998/Out@1011) - -2 (DUM
###  |  MY_END Ziel-Service 121)
###  |   |- and carried Demand 170,   10.0 containers from 311 to 301
###  |   |- and carried Demand 171,   75.0 containers from 315 to 301
###  |   |- and carried Demand 172,  114.0 containers from 315 to 301
###  |
###  |
### Service 177 (WCSA) is operated by 3 vessels from type 18 (PMax25)
###  |
###  |- Vessel  3 has the path [102, 358, 267, 236, 0]
###  |  102 (DEHAM Out@624) - 358 (TRAMB In@683/Out@731) - 267 (TRALI In@836/Out@854) - 236 (PABLB In@1640/Out@1652) - 0 (DUM
###  |  MY_END Ziel-Service 177)
###  |
###  |- Vessel  4 has the path [103, 235, 0]
###  |  103 (DEHAM Out@792) - 235 (PABLB In@1472/Out@1484) - 0 (DUMMY_END Ziel-Service 177)
###  |
###  |- Vessel 14 has the path [105, 365, 266, 234, 0]
###  |  105 (DKAAR Out@388) - 365 (TRMER In@579/Out@623) - 266 (TRALI In@668/Out@686) - 234 (PABLB In@1304/Out@1316) - 0 (DUM
###  |  MY_END Ziel-Service 177)
###  |
###  |
### Vessels not used in the solution: [9, 10, 11, 17]
###  |-----------------------------------------------------------------------------------------------------------------------
###
#############################################################################################################################
###
###
#############################################################################################################################
### Solution run 6
#############################################################################################################################
###
### Results
###
### The objective of the solution is -233,823.7321 (-233823.7321)
###
### Service 7 (ME3) is operated by 6 vessels from type 19 (PMax28)
###  |
###  |- Vessel  5 has the path [218, 133, 199, 290, 200, 112, 284, 45, 368, 331, -3]
###  |  218 (NLRTM Out@92) - 133 (FRLEH In@111/Out@127) - 199 (MAPTM In@207/Out@228) - 290 (MAPTM In@211/Out@230) - 200 (MAPT
###  |  M In@238/Out@259) - 112 (ESALG In@284/Out@296) - 284 (GWOXB In@463/Out@542) - 45 (CMDLA In@765/Out@811) - 368 (TRMER 
###  |  In@1083/Out@1127) - 331 (AEJEA In@1530/Out@1563) - -3 (DUMMY_END Ziel-Service 7)
###  |   |- and carried Demand   6,   17.0 containers from 218 to 133
###  |   |- and carried Demand   7,  161.0 containers from 199 to 45
###  |   |- and carried Demand   8,  580.0 containers from 199 to 112
###  |   |- and carried Demand  45,  161.0 containers from 200 to 45
###  |   |- and carried Demand  46,  580.0 containers from 200 to 112
###  |   |- and carried Demand 117,  580.0 containers from 199 to 112
###  |   |- and carried Demand 131,  580.0 containers from 200 to 112
###  |   |- and carried Demand 144,  161.0 containers from 290 to 45
###  |   |- and carried Demand 145,   19.0 containers from 290 to 112
###  |
###  |- Vessel  6 has the path [219, 364, 334, 352, 229, 327, -3]
###  |  219 (NLRTM Out@260) - 364 (TRMER In@411/Out@455) - 334 (EGPSD In@531/Out@550) - 352 (OMSLL In@710/Out@722) - 229 (OMS
###  |  LL In@721/Out@736) - 327 (AEJEA In@858/Out@891) - -3 (DUMMY_END Ziel-Service 7)
###  |   |- and carried Demand 207,  288.0 containers from 352 to 327
###  |   |- and carried Demand 208,   14.0 containers from 352 to 327
###  |   |- and carried Demand 214,  164.0 containers from 334 to 327
###  |   |- and carried Demand 215,   58.0 containers from 334 to 327
###  |
###  |- Vessel  7 has the path [221, 137, 203, 115, 367, 330, -3]
###  |  221 (NLRTM Out@428) - 137 (FRLEH In@447/Out@463) - 203 (MAPTM In@543/Out@564) - 115 (ESALG In@589/Out@601) - 367 (TRM
###  |  ER In@915/Out@959) - 330 (AEJEA In@1362/Out@1395) - -3 (DUMMY_END Ziel-Service 7)
###  |   |- and carried Demand  25,   68.0 containers from 221 to 115
###  |   |- and carried Demand  26,    6.0 containers from 221 to 137
###  |   |- and carried Demand  29,   60.0 containers from 203 to 115
###  |   |- and carried Demand  30,   11.0 containers from 203 to 115
###  |   |- and carried Demand 123,   68.0 containers from 221 to 115
###  |   |- and carried Demand 126,   60.0 containers from 203 to 115
###  |   |- and carried Demand 127,   11.0 containers from 203 to 115
###  |
###  |- Vessel  8 has the path [223, 366, 338, 339, 329, -3]
###  |  223 (NLRTM Out@596) - 366 (TRMER In@747/Out@791) - 338 (EGPSD In@867/Out@886) - 339 (EGPSD In@957/Out@973) - 329 (AEJ
###  |  EA In@1194/Out@1227) - -3 (DUMMY_END Ziel-Service 7)
###  |   |- and carried Demand 206,  467.0 containers from 338 to 329
###  |   |- and carried Demand 210,  467.0 containers from 339 to 329
###  |
###  |- Vessel 15 has the path [134, 356, 325, -3]
###  |  134 (FRLEH Out@158) - 356 (TRAMB In@347/Out@395) - 325 (AEJEA In@690/Out@723) - -3 (DUMMY_END Ziel-Service 7)
###  |
###  |- Vessel 16 has the path [136, 272, 353, 230, 328, -3]
###  |  136 (FRLEH Out@326) - 272 (TRZMK In@617/Out@631) - 353 (OMSLL In@878/Out@890) - 230 (OMSLL In@889/Out@904) - 328 (AEJ
###  |  EA In@1026/Out@1059) - -3 (DUMMY_END Ziel-Service 7)
###  |   |- and carried Demand 201,  111.0 containers from 353 to 328
###  |   |- and carried Demand 202,   35.0 containers from 353 to 328
###  |
###  |
### Service 24 (WAF7) is operated by 3 vessels from type 18 (PMax25)
###  |
###  |- Vessel  1 has the path [100, 276, -1]
###  |  100 (DEHAM Out@288) - 276 (ESALG In@496/Out@515) - -1 (DUMMY_END Ziel-Service 24)
###  |
###  |- Vessel  2 has the path [101, 277, -1]
###  |  101 (DEHAM Out@456) - 277 (ESALG In@664/Out@683) - -1 (DUMMY_END Ziel-Service 24)
###  |
###  |- Vessel 13 has the path [104, 275, 201, 291, 202, 114, 278, -1]
###  |  104 (DKAAR Out@220) - 275 (ESALG In@328/Out@347) - 201 (MAPTM In@375/Out@396) - 291 (MAPTM In@379/Out@398) - 202 (MAP
###  |  TM In@406/Out@427) - 114 (ESALG In@452/Out@464) - 278 (ESALG In@832/Out@851) - -1 (DUMMY_END Ziel-Service 24)
###  |   |- and carried Demand  17,  484.0 containers from 201 to 114
###  |   |- and carried Demand  18,   18.0 containers from 201 to 114
###  |   |- and carried Demand  52,  312.0 containers from 202 to 114
###  |   |- and carried Demand  53,   18.0 containers from 202 to 114
###  |   |- and carried Demand 119,  214.0 containers from 201 to 278
###  |   |- and carried Demand 120,   10.0 containers from 201 to 278
###  |   |- and carried Demand 122,   18.0 containers from 201 to 114
###  |   |- and carried Demand 132,  214.0 containers from 202 to 278
###  |   |- and carried Demand 133,   10.0 containers from 202 to 278
###  |   |- and carried Demand 134,  484.0 containers from 202 to 114
###  |   |- and carried Demand 135,   18.0 containers from 202 to 114
###  |   |- and carried Demand 138,  214.0 containers from 291 to 278
###  |   |- and carried Demand 139,   10.0 containers from 291 to 278
###  |   |- and carried Demand 140,  484.0 containers from 291 to 114
###  |   |- and carried Demand 141,   18.0 containers from 291 to 114
###  |
###  |
### Service 121 (SAE) is operated by 2 vessels from type 30 (PMax35)
###  |
###  |- Vessel 12 has the path [8, 302, -2]
###  |  8 (BEANR Out@570) - 302 (HNPCR In@1166/Out@1179) - -2 (DUMMY_END Ziel-Service 121)
###  |
###  |- Vessel 18 has the path [148, 315, 311, 301, -2]
###  |  148 (GBFXT Out@470) - 315 (USORF In@873/Out@881) - 311 (USMIA In@935/Out@943) - 301 (HNPCR In@998/Out@1011) - -2 (DUM
###  |  MY_END Ziel-Service 121)
###  |   |- and carried Demand 170,   10.0 containers from 311 to 301
###  |   |- and carried Demand 171,   75.0 containers from 315 to 301
###  |   |- and carried Demand 172,  114.0 containers from 315 to 301
###  |
###  |
### Service 177 (WCSA) is operated by 3 vessels from type 18 (PMax25)
###  |
###  |- Vessel  3 has the path [102, 358, 267, 236, 0]
###  |  102 (DEHAM Out@624) - 358 (TRAMB In@683/Out@731) - 267 (TRALI In@836/Out@854) - 236 (PABLB In@1640/Out@1652) - 0 (DUM
###  |  MY_END Ziel-Service 177)
###  |
###  |- Vessel  4 has the path [103, 235, 0]
###  |  103 (DEHAM Out@792) - 235 (PABLB In@1472/Out@1484) - 0 (DUMMY_END Ziel-Service 177)
###  |
###  |- Vessel 14 has the path [105, 365, 266, 234, 0]
###  |  105 (DKAAR Out@388) - 365 (TRMER In@579/Out@623) - 266 (TRALI In@668/Out@686) - 234 (PABLB In@1304/Out@1316) - 0 (DUM
###  |  MY_END Ziel-Service 177)
###  |
###  |
### Vessels not used in the solution: [9, 10, 11, 17]
###  |-----------------------------------------------------------------------------------------------------------------------
###
#############################################################################################################################
+++++++++++++++++++++++++++++++++++++++++++++++++++++++++++++++++++++++++++++++++++++++++++++++++++++++++++++++++++++++++++++
+++
+++ The average objective is -233,823.7321 (-233823.7321)
+++
+++++++++++++++++++++++++++++++++++++++++++++++++++++++++++++++++++++++++++++++++++++++++++++++++++++++++++++++++++++++++++++

real	60m12.162s
user	96m48.479s
sys	5m11.980s
	Freetype 2.4.12 environment removed
	Python 3.6.0 environment removed
	Gurobi 8.1.0 environment removed
