### Additional Information to the goal services
# Basic costs on route 24: 31268319.083478212
# Basic costs on route 177: 34437948.54211389
# Basic costs on route 121: 15108432.145894917
# Direct costs (not staggered):
# For goal service 24:
# n_min: 2
# n_max: 4
# lowest costs of the goal service 24 with configuration (24, 18, 3) at 0.0
# For goal service 177:
# n_min: 2
# n_max: 3
# lowest costs of the goal service 177 with configuration (177, 18, 3) at 0.0
# For goal service 121:
# n_min: 1
# n_max: 2
# lowest costs of the goal service 121 with configuration (121, 30, 2) at 0.0
# (24, 18, 1): 18932969.510016263
# (24, 18, 2): 10424542.718812354
# (24, 18, 3): 0.0
# (24, 18, 4): 784022.4000000134
# (24, 19, 1): 29240520.78919793
# (24, 19, 2): 17026331.720014468
# (24, 19, 3): 8907579.631750487
# (24, 19, 4): 9769957.231750503
# (24, 30, 1): 28646300.434445485
# (24, 30, 2): 18217359.002421528
# (24, 30, 3): 8419071.601818532
# (24, 30, 4): 9359871.601818532
# (121, 18, 1): 12268824.57789603
# (121, 18, 2): 1387710.9778960329
# (121, 19, 1): 14113970.391569478
# (121, 19, 2): 1118820.342755152
# (121, 30, 1): 14518496.953270001
# (121, 30, 2): 0.0
# (177, 18, 1): 15357207.433245733
# (177, 18, 2): 10881113.599999987
# (177, 18, 3): 0.0
# (177, 19, 1): 22858724.144318745
# (177, 19, 2): 15702144.457402803
# (177, 19, 3): 1222672.0178028047
# (177, 30, 1): 22478648.454448186
# (177, 30, 2): 17971804.7344648
# (177, 30, 3): 2919389.047344804
# -------------------------------------------
