### Additional Information to the goal services
# Basic costs on route 24: 40648814.808521695
# Basic costs on route 177: 44769333.10474806
# Basic costs on route 121: 19640961.789663397
# Direct costs (not staggered):
# For goal service 24:
# n_min: 2
# n_max: 4
# lowest costs of the goal service 24 with configuration (24, 18, 3) at 0.0
# For goal service 177:
# n_min: 2
# n_max: 3
# lowest costs of the goal service 177 with configuration (177, 18, 3) at 0.0
# For goal service 121:
# n_min: 1
# n_max: 2
# lowest costs of the goal service 121 with configuration (121, 30, 2) at 0.0
# (24, 18, 1): 24612860.363021128
# (24, 18, 2): 13551905.53445606
# (24, 18, 3): 0.0
# (24, 18, 4): 1019229.1199999899
# (24, 19, 1): 38012677.02595728
# (24, 19, 2): 22134231.236018777
# (24, 19, 3): 11579853.521275632
# (24, 19, 4): 12700944.401275627
# (24, 30, 1): 37240190.564779125
# (24, 30, 2): 23682566.703147963
# (24, 30, 3): 10944793.082364082
# (24, 30, 4): 12167833.082364067
# (121, 18, 1): 15949471.951264836
# (121, 18, 2): 1804024.2712648362
# (121, 19, 1): 18348161.50904032
# (121, 19, 2): 1454466.4455816932
# (121, 30, 1): 18874046.039251007
# (121, 30, 2): 0.0
# (177, 18, 1): 19964369.663219452
# (177, 18, 2): 14145447.680000007
# (177, 18, 3): 0.0
# (177, 19, 1): 29716341.387614377
# (177, 19, 2): 20412787.794623643
# (177, 19, 3): 1589473.6231436506
# (177, 30, 1): 29222242.990782626
# (177, 30, 2): 23363346.154804252
# (177, 30, 3): 3795205.7615482435
# -------------------------------------------
