	Freetype 2.4.12 environment established
		library to render fonts
	Python 3.6.0 environment established
	Gurobi 8.1.0 environment established
Instance LSFRP: LSFDRP_3_3_1_1_fr.p
Instance LSFDP: LSFDRP_3_3_1_1_fd_16.p


*****************************************************************************************************************************
*** Solve LSFDRP_3_3_1_1_fd_16.p with matheuristics.
***  |
***  |- Create instance object for heuristic
***  |   |- Convert flexible visitations into inflexible visitations,	took 0.486795 sec.
***  |   |- Calculate demand structure for node flow model,		took 1.236163 sec.
***  |   |- Create additional vessel information,				took 0.006704 sec.
***  |
***  |   |- Create ranking for FDP solutions,				took 0.307229 sec.
***  |- Start solving instance with matheuristics, run 1
***  |   |- Create ranking for FDP solutions,				took 0.320395 sec.
***  |   |- Calculation finished, timelimit reached 			took    599.4 sec.
***  |
***  |- Start solving instance with matheuristics, run 2
***  |   |- Create ranking for FDP solutions,				took 0.328726 sec.
***  |   |- Calculation finished, timelimit reached 			took   596.76 sec.
***  |
***  |- Start solving instance with matheuristics, run 3
***  |   |- Create ranking for FDP solutions,				took 0.341864 sec.
***  |   |- Calculation finished, timelimit reached 			took   599.26 sec.
***  |
***  |- Start solving instance with matheuristics, run 4
***  |   |- Create ranking for FDP solutions,				took 0.347402 sec.
***  |   |- Calculation finished, timelimit reached 			took   600.46 sec.
***  |
***  |- Start solving instance with matheuristics, run 5
***  |   |- Create ranking for FDP solutions,				took 0.342045 sec.
***  |   |- Calculation finished, timelimit reached 			took   599.36 sec.
***  |
***  |- Start solving instance with matheuristics, run 6
***  |   |- Create ranking for FDP solutions,				took 0.329176 sec.
***  |   |- Calculation finished, timelimit reached 			took   602.63 sec.
***  |
***  |-----------------------------------------------------------------------------------------------------------------------
***
*****************************************************************************************************************************
###
###
#############################################################################################################################
### Solution run 1
#############################################################################################################################
###
### Results
###
### The objective of the solution is 2,431,501.3813 (2431501.3813)
###
### Service 7 (ME3) is operated by 6 vessels from type 19 (PMax28)
###  |
###  |- Vessel  5 has the path [282, 178, 260, 400, 261, 147, 394, 67, 472, 373, 440, -3]
###  |  282 (NLRTM Out@92) - 178 (FRLEH In@111/Out@127) - 260 (MAPTM In@207/Out@228) - 400 (MAPTM In@211/Out@230) - 261 (MAPT
###  |  M In@238/Out@259) - 147 (ESALG In@284/Out@296) - 394 (GWOXB In@463/Out@542) - 67 (CMDLA In@765/Out@811) - 472 (TRAMB 
###  |  In@1019/Out@1067) - 373 (TRZMK In@1074/Out@1089) - 440 (AEJEA In@1362/Out@1395) - -3 (DUMMY_END Ziel-Service 7)
###  |   |- and carried Demand   9,   17.0 containers from 282 to 178
###  |   |- and carried Demand  10,  161.0 containers from 260 to 67
###  |   |- and carried Demand  11,  580.0 containers from 260 to 147
###  |   |- and carried Demand  59,  161.0 containers from 261 to 67
###  |   |- and carried Demand  60,   19.0 containers from 261 to 147
###  |   |- and carried Demand 257,  580.0 containers from 260 to 147
###  |   |- and carried Demand 271,  580.0 containers from 261 to 147
###  |   |- and carried Demand 294,  161.0 containers from 400 to 67
###  |   |- and carried Demand 295,  580.0 containers from 400 to 147
###  |
###  |- Vessel  6 has the path [283, 476, 435, -3]
###  |  283 (NLRTM Out@260) - 476 (TRMER In@411/Out@455) - 435 (AEJEA In@690/Out@723) - -3 (DUMMY_END Ziel-Service 7)
###  |
###  |- Vessel  7 has the path [285, 182, 264, 150, 361, 438, -3]
###  |  285 (NLRTM Out@428) - 182 (FRLEH In@447/Out@463) - 264 (MAPTM In@543/Out@564) - 150 (ESALG In@589/Out@601) - 361 (TRA
###  |  LI In@836/Out@854) - 438 (AEJEA In@1026/Out@1059) - -3 (DUMMY_END Ziel-Service 7)
###  |   |- and carried Demand  31,   68.0 containers from 285 to 150
###  |   |- and carried Demand  32,    6.0 containers from 285 to 182
###  |   |- and carried Demand  35,   60.0 containers from 264 to 150
###  |   |- and carried Demand  36,   11.0 containers from 264 to 150
###  |   |- and carried Demand 263,   68.0 containers from 285 to 150
###  |   |- and carried Demand 266,   60.0 containers from 264 to 150
###  |   |- and carried Demand 267,   11.0 containers from 264 to 150
###  |
###  |- Vessel  8 has the path [287, 478, 448, 449, 369, 439, -3]
###  |  287 (NLRTM Out@596) - 478 (TRMER In@747/Out@791) - 448 (EGPSD In@867/Out@886) - 449 (EGPSD In@957/Out@973) - 369 (TRU
###  |  SK In@1018/Out@1028) - 439 (AEJEA In@1194/Out@1227) - -3 (DUMMY_END Ziel-Service 7)
###  |   |- and carried Demand 364,  467.0 containers from 448 to 439
###  |   |- and carried Demand 368,  467.0 containers from 449 to 439
###  |
###  |- Vessel 15 has the path [179, 368, 441, -3]
###  |  179 (FRLEH Out@158) - 368 (TRUSK In@844/Out@854) - 441 (AEJEA In@1530/Out@1563) - -3 (DUMMY_END Ziel-Service 7)
###  |
###  |- Vessel 16 has the path [181, 370, 437, -3]
###  |  181 (FRLEH Out@326) - 370 (TRZMK In@617/Out@631) - 437 (AEJEA In@858/Out@891) - -3 (DUMMY_END Ziel-Service 7)
###  |
###  |
### Service 24 (WAF7) is operated by 3 vessels from type 18 (PMax25)
###  |
###  |- Vessel  1 has the path [131, 386, -1]
###  |  131 (DEHAM Out@288) - 386 (ESALG In@496/Out@515) - -1 (DUMMY_END Ziel-Service 24)
###  |
###  |- Vessel  2 has the path [132, 387, -1]
###  |  132 (DEHAM Out@456) - 387 (ESALG In@664/Out@683) - -1 (DUMMY_END Ziel-Service 24)
###  |
###  |- Vessel 20 has the path [164, 384, 262, 401, 263, 149, 388, -1]
###  |  164 (ESBCN Out@94) - 384 (ESALG In@160/Out@179) - 262 (MAPTM In@375/Out@396) - 401 (MAPTM In@379/Out@398) - 263 (MAPT
###  |  M In@406/Out@427) - 149 (ESALG In@452/Out@464) - 388 (ESALG In@832/Out@851) - -1 (DUMMY_END Ziel-Service 24)
###  |   |- and carried Demand  20,  484.0 containers from 262 to 149
###  |   |- and carried Demand  21,   18.0 containers from 262 to 149
###  |   |- and carried Demand  66,  484.0 containers from 263 to 149
###  |   |- and carried Demand  67,   18.0 containers from 263 to 149
###  |   |- and carried Demand 259,  214.0 containers from 262 to 388
###  |   |- and carried Demand 260,   10.0 containers from 262 to 388
###  |   |- and carried Demand 262,   18.0 containers from 262 to 149
###  |   |- and carried Demand 272,  214.0 containers from 263 to 388
###  |   |- and carried Demand 273,   10.0 containers from 263 to 388
###  |   |- and carried Demand 274,  484.0 containers from 263 to 149
###  |   |- and carried Demand 275,   18.0 containers from 263 to 149
###  |   |- and carried Demand 285,  214.0 containers from 401 to 388
###  |   |- and carried Demand 286,   10.0 containers from 401 to 388
###  |   |- and carried Demand 287,  312.0 containers from 401 to 149
###  |   |- and carried Demand 288,   18.0 containers from 401 to 149
###  |
###  |
### Service 121 (SAE) is operated by 2 vessels from type 30 (PMax35)
###  |
###  |- Vessel 18 has the path [193, 425, 421, 411, -2]
###  |  193 (GBFXT Out@470) - 425 (USORF In@873/Out@881) - 421 (USMIA In@935/Out@943) - 411 (HNPCR In@998/Out@1011) - -2 (DUM
###  |  MY_END Ziel-Service 121)
###  |   |- and carried Demand 325,   10.0 containers from 421 to 411
###  |   |- and carried Demand 326,   75.0 containers from 425 to 411
###  |   |- and carried Demand 327,  114.0 containers from 425 to 411
###  |
###  |- Vessel 24 has the path [231, 106, 78, 210, 107, 75, 86, 270, 300, 412, -2]
###  |  231 (JPYOK Out@171) - 106 (CNXMN In@238/Out@260) - 78 (CNNSA In@287/Out@297) - 210 (HKHKG In@334/Out@350) - 107 (CNYT
###  |  N In@358/Out@376) - 75 (CNNGB In@430/Out@439) - 86 (CNSHA In@465/Out@483) - 270 (MXLZC In@873/Out@896) - 300 (PABLB I
###  |  n@982/Out@1030) - 412 (HNPCR In@1166/Out@1179) - -2 (DUMMY_END Ziel-Service 121)
###  |   |- and carried Demand  87,  541.0 containers from 231 to 300
###  |   |- and carried Demand 178,  785.0 containers from 106 to 210
###  |   |- and carried Demand 179,    1.0 containers from 106 to 210
###  |   |- and carried Demand 181,  121.0 containers from 210 to 75
###  |   |- and carried Demand 182,   75.0 containers from 210 to 86
###  |   |- and carried Demand 183,    1.0 containers from 210 to 107
###  |   |- and carried Demand 184,   17.0 containers from 210 to 270
###  |   |- and carried Demand 185,  339.0 containers from 107 to 270
###  |   |- and carried Demand 186,    6.0 containers from 107 to 300
###  |   |- and carried Demand 187,  166.0 containers from 75 to 270
###  |   |- and carried Demand 188,  773.0 containers from 75 to 300
###  |   |- and carried Demand 189,    1.0 containers from 75 to 300
###  |   |- and carried Demand 192,  298.0 containers from 270 to 300
###  |   |- and carried Demand 193,  199.0 containers from 270 to 300
###  |   |- and carried Demand 297,    6.0 containers from 107 to 300
###  |   |- and carried Demand 298,  773.0 containers from 75 to 300
###  |   |- and carried Demand 299,    1.0 containers from 75 to 300
###  |   |- and carried Demand 300,  298.0 containers from 270 to 300
###  |   |- and carried Demand 301,  199.0 containers from 270 to 300
###  |
###  |
### Service 177 (WCSA) is operated by 3 vessels from type 18 (PMax25)
###  |
###  |- Vessel 13 has the path [135, 385, 151, 371, 303, 0]
###  |  135 (DKAAR Out@220) - 385 (ESALG In@328/Out@347) - 151 (ESALG In@625/Out@670) - 371 (TRZMK In@778/Out@793) - 303 (PAB
###  |  LB In@1472/Out@1484) - 0 (DUMMY_END Ziel-Service 177)
###  |   |- and carried Demand 140,  552.0 containers from 151 to 303
###  |   |- and carried Demand 141,   13.0 containers from 151 to 303
###  |
###  |- Vessel 14 has the path [136, 477, 360, 302, 0]
###  |  136 (DKAAR Out@388) - 477 (TRMER In@579/Out@623) - 360 (TRALI In@668/Out@686) - 302 (PABLB In@1304/Out@1316) - 0 (DUM
###  |  MY_END Ziel-Service 177)
###  |
###  |- Vessel 19 has the path [216, 354, 249, 226, 71, 102, 99, 76, 88, 305, 0]
###  |  216 (INPAV Out@118) - 354 (SGSIN In@618/Out@651) - 249 (KRPUS In@788/Out@810) - 226 (JPHKT In@824/Out@833) - 71 (CNDL
###  |  C In@871/Out@886) - 102 (CNXGG In@904/Out@923) - 99 (CNTAO In@960/Out@978) - 76 (CNNGB In@1031/Out@1040) - 88 (CNSHA 
###  |  In@1069/Out@1079) - 305 (PABLB In@1640/Out@1652) - 0 (DUMMY_END Ziel-Service 177)
###  |   |- and carried Demand  45,  975.0 containers from 76 to 305
###  |   |- and carried Demand  46,    1.0 containers from 76 to 305
###  |   |- and carried Demand  48,  907.0 containers from 88 to 305
###  |   |- and carried Demand  49,    3.0 containers from 88 to 305
###  |
###  |
### Vessels not used in the solution: [3, 4, 9, 10, 11, 12, 17, 21, 22, 23]
###  |-----------------------------------------------------------------------------------------------------------------------
###
#############################################################################################################################
###
###
#############################################################################################################################
### Solution run 2
#############################################################################################################################
###
### Results
###
### The objective of the solution is 2,431,501.3813 (2431501.3813)
###
### Service 7 (ME3) is operated by 6 vessels from type 19 (PMax28)
###  |
###  |- Vessel  5 has the path [282, 178, 260, 400, 261, 147, 394, 67, 472, 373, 440, -3]
###  |  282 (NLRTM Out@92) - 178 (FRLEH In@111/Out@127) - 260 (MAPTM In@207/Out@228) - 400 (MAPTM In@211/Out@230) - 261 (MAPT
###  |  M In@238/Out@259) - 147 (ESALG In@284/Out@296) - 394 (GWOXB In@463/Out@542) - 67 (CMDLA In@765/Out@811) - 472 (TRAMB 
###  |  In@1019/Out@1067) - 373 (TRZMK In@1074/Out@1089) - 440 (AEJEA In@1362/Out@1395) - -3 (DUMMY_END Ziel-Service 7)
###  |   |- and carried Demand   9,   17.0 containers from 282 to 178
###  |   |- and carried Demand  10,  161.0 containers from 260 to 67
###  |   |- and carried Demand  11,  580.0 containers from 260 to 147
###  |   |- and carried Demand  59,  161.0 containers from 261 to 67
###  |   |- and carried Demand  60,   19.0 containers from 261 to 147
###  |   |- and carried Demand 257,  580.0 containers from 260 to 147
###  |   |- and carried Demand 271,  580.0 containers from 261 to 147
###  |   |- and carried Demand 294,  161.0 containers from 400 to 67
###  |   |- and carried Demand 295,  580.0 containers from 400 to 147
###  |
###  |- Vessel  6 has the path [283, 476, 435, -3]
###  |  283 (NLRTM Out@260) - 476 (TRMER In@411/Out@455) - 435 (AEJEA In@690/Out@723) - -3 (DUMMY_END Ziel-Service 7)
###  |
###  |- Vessel  7 has the path [285, 182, 264, 150, 361, 438, -3]
###  |  285 (NLRTM Out@428) - 182 (FRLEH In@447/Out@463) - 264 (MAPTM In@543/Out@564) - 150 (ESALG In@589/Out@601) - 361 (TRA
###  |  LI In@836/Out@854) - 438 (AEJEA In@1026/Out@1059) - -3 (DUMMY_END Ziel-Service 7)
###  |   |- and carried Demand  31,   68.0 containers from 285 to 150
###  |   |- and carried Demand  32,    6.0 containers from 285 to 182
###  |   |- and carried Demand  35,   60.0 containers from 264 to 150
###  |   |- and carried Demand  36,   11.0 containers from 264 to 150
###  |   |- and carried Demand 263,   68.0 containers from 285 to 150
###  |   |- and carried Demand 266,   60.0 containers from 264 to 150
###  |   |- and carried Demand 267,   11.0 containers from 264 to 150
###  |
###  |- Vessel  8 has the path [287, 478, 448, 449, 369, 439, -3]
###  |  287 (NLRTM Out@596) - 478 (TRMER In@747/Out@791) - 448 (EGPSD In@867/Out@886) - 449 (EGPSD In@957/Out@973) - 369 (TRU
###  |  SK In@1018/Out@1028) - 439 (AEJEA In@1194/Out@1227) - -3 (DUMMY_END Ziel-Service 7)
###  |   |- and carried Demand 364,  467.0 containers from 448 to 439
###  |   |- and carried Demand 368,  467.0 containers from 449 to 439
###  |
###  |- Vessel 15 has the path [179, 368, 441, -3]
###  |  179 (FRLEH Out@158) - 368 (TRUSK In@844/Out@854) - 441 (AEJEA In@1530/Out@1563) - -3 (DUMMY_END Ziel-Service 7)
###  |
###  |- Vessel 16 has the path [181, 370, 437, -3]
###  |  181 (FRLEH Out@326) - 370 (TRZMK In@617/Out@631) - 437 (AEJEA In@858/Out@891) - -3 (DUMMY_END Ziel-Service 7)
###  |
###  |
### Service 24 (WAF7) is operated by 3 vessels from type 18 (PMax25)
###  |
###  |- Vessel  1 has the path [131, 386, -1]
###  |  131 (DEHAM Out@288) - 386 (ESALG In@496/Out@515) - -1 (DUMMY_END Ziel-Service 24)
###  |
###  |- Vessel  2 has the path [132, 387, -1]
###  |  132 (DEHAM Out@456) - 387 (ESALG In@664/Out@683) - -1 (DUMMY_END Ziel-Service 24)
###  |
###  |- Vessel 20 has the path [164, 384, 262, 401, 263, 149, 388, -1]
###  |  164 (ESBCN Out@94) - 384 (ESALG In@160/Out@179) - 262 (MAPTM In@375/Out@396) - 401 (MAPTM In@379/Out@398) - 263 (MAPT
###  |  M In@406/Out@427) - 149 (ESALG In@452/Out@464) - 388 (ESALG In@832/Out@851) - -1 (DUMMY_END Ziel-Service 24)
###  |   |- and carried Demand  20,  484.0 containers from 262 to 149
###  |   |- and carried Demand  21,   18.0 containers from 262 to 149
###  |   |- and carried Demand  66,  484.0 containers from 263 to 149
###  |   |- and carried Demand  67,   18.0 containers from 263 to 149
###  |   |- and carried Demand 259,  214.0 containers from 262 to 388
###  |   |- and carried Demand 260,   10.0 containers from 262 to 388
###  |   |- and carried Demand 262,   18.0 containers from 262 to 149
###  |   |- and carried Demand 272,  214.0 containers from 263 to 388
###  |   |- and carried Demand 273,   10.0 containers from 263 to 388
###  |   |- and carried Demand 274,  484.0 containers from 263 to 149
###  |   |- and carried Demand 275,   18.0 containers from 263 to 149
###  |   |- and carried Demand 285,  214.0 containers from 401 to 388
###  |   |- and carried Demand 286,   10.0 containers from 401 to 388
###  |   |- and carried Demand 287,  312.0 containers from 401 to 149
###  |   |- and carried Demand 288,   18.0 containers from 401 to 149
###  |
###  |
### Service 121 (SAE) is operated by 2 vessels from type 30 (PMax35)
###  |
###  |- Vessel 18 has the path [193, 425, 421, 411, -2]
###  |  193 (GBFXT Out@470) - 425 (USORF In@873/Out@881) - 421 (USMIA In@935/Out@943) - 411 (HNPCR In@998/Out@1011) - -2 (DUM
###  |  MY_END Ziel-Service 121)
###  |   |- and carried Demand 325,   10.0 containers from 421 to 411
###  |   |- and carried Demand 326,   75.0 containers from 425 to 411
###  |   |- and carried Demand 327,  114.0 containers from 425 to 411
###  |
###  |- Vessel 24 has the path [231, 106, 78, 210, 107, 75, 86, 270, 300, 412, -2]
###  |  231 (JPYOK Out@171) - 106 (CNXMN In@238/Out@260) - 78 (CNNSA In@287/Out@297) - 210 (HKHKG In@334/Out@350) - 107 (CNYT
###  |  N In@358/Out@376) - 75 (CNNGB In@430/Out@439) - 86 (CNSHA In@465/Out@483) - 270 (MXLZC In@873/Out@896) - 300 (PABLB I
###  |  n@982/Out@1030) - 412 (HNPCR In@1166/Out@1179) - -2 (DUMMY_END Ziel-Service 121)
###  |   |- and carried Demand  87,  541.0 containers from 231 to 300
###  |   |- and carried Demand 178,  785.0 containers from 106 to 210
###  |   |- and carried Demand 179,    1.0 containers from 106 to 210
###  |   |- and carried Demand 181,  121.0 containers from 210 to 75
###  |   |- and carried Demand 182,   75.0 containers from 210 to 86
###  |   |- and carried Demand 183,    1.0 containers from 210 to 107
###  |   |- and carried Demand 184,   17.0 containers from 210 to 270
###  |   |- and carried Demand 185,  339.0 containers from 107 to 270
###  |   |- and carried Demand 186,    6.0 containers from 107 to 300
###  |   |- and carried Demand 187,  166.0 containers from 75 to 270
###  |   |- and carried Demand 188,  773.0 containers from 75 to 300
###  |   |- and carried Demand 189,    1.0 containers from 75 to 300
###  |   |- and carried Demand 192,  298.0 containers from 270 to 300
###  |   |- and carried Demand 193,  199.0 containers from 270 to 300
###  |   |- and carried Demand 297,    6.0 containers from 107 to 300
###  |   |- and carried Demand 298,  773.0 containers from 75 to 300
###  |   |- and carried Demand 299,    1.0 containers from 75 to 300
###  |   |- and carried Demand 300,  298.0 containers from 270 to 300
###  |   |- and carried Demand 301,  199.0 containers from 270 to 300
###  |
###  |
### Service 177 (WCSA) is operated by 3 vessels from type 18 (PMax25)
###  |
###  |- Vessel 13 has the path [135, 385, 151, 371, 303, 0]
###  |  135 (DKAAR Out@220) - 385 (ESALG In@328/Out@347) - 151 (ESALG In@625/Out@670) - 371 (TRZMK In@778/Out@793) - 303 (PAB
###  |  LB In@1472/Out@1484) - 0 (DUMMY_END Ziel-Service 177)
###  |   |- and carried Demand 140,  552.0 containers from 151 to 303
###  |   |- and carried Demand 141,   13.0 containers from 151 to 303
###  |
###  |- Vessel 14 has the path [136, 477, 360, 302, 0]
###  |  136 (DKAAR Out@388) - 477 (TRMER In@579/Out@623) - 360 (TRALI In@668/Out@686) - 302 (PABLB In@1304/Out@1316) - 0 (DUM
###  |  MY_END Ziel-Service 177)
###  |
###  |- Vessel 19 has the path [216, 354, 249, 226, 71, 102, 99, 76, 88, 305, 0]
###  |  216 (INPAV Out@118) - 354 (SGSIN In@618/Out@651) - 249 (KRPUS In@788/Out@810) - 226 (JPHKT In@824/Out@833) - 71 (CNDL
###  |  C In@871/Out@886) - 102 (CNXGG In@904/Out@923) - 99 (CNTAO In@960/Out@978) - 76 (CNNGB In@1031/Out@1040) - 88 (CNSHA 
###  |  In@1069/Out@1079) - 305 (PABLB In@1640/Out@1652) - 0 (DUMMY_END Ziel-Service 177)
###  |   |- and carried Demand  45,  975.0 containers from 76 to 305
###  |   |- and carried Demand  46,    1.0 containers from 76 to 305
###  |   |- and carried Demand  48,  907.0 containers from 88 to 305
###  |   |- and carried Demand  49,    3.0 containers from 88 to 305
###  |
###  |
### Vessels not used in the solution: [3, 4, 9, 10, 11, 12, 17, 21, 22, 23]
###  |-----------------------------------------------------------------------------------------------------------------------
###
#############################################################################################################################
###
###
#############################################################################################################################
### Solution run 3
#############################################################################################################################
###
### Results
###
### The objective of the solution is 2,407,981.3813 (2407981.3813)
###
### Service 7 (ME3) is operated by 6 vessels from type 19 (PMax28)
###  |
###  |- Vessel  5 has the path [282, 178, 260, 400, 261, 147, 394, 67, 472, 373, 440, -3]
###  |  282 (NLRTM Out@92) - 178 (FRLEH In@111/Out@127) - 260 (MAPTM In@207/Out@228) - 400 (MAPTM In@211/Out@230) - 261 (MAPT
###  |  M In@238/Out@259) - 147 (ESALG In@284/Out@296) - 394 (GWOXB In@463/Out@542) - 67 (CMDLA In@765/Out@811) - 472 (TRAMB 
###  |  In@1019/Out@1067) - 373 (TRZMK In@1074/Out@1089) - 440 (AEJEA In@1362/Out@1395) - -3 (DUMMY_END Ziel-Service 7)
###  |   |- and carried Demand   9,   17.0 containers from 282 to 178
###  |   |- and carried Demand  10,  161.0 containers from 260 to 67
###  |   |- and carried Demand  11,  580.0 containers from 260 to 147
###  |   |- and carried Demand  59,  161.0 containers from 261 to 67
###  |   |- and carried Demand  60,   19.0 containers from 261 to 147
###  |   |- and carried Demand 257,  580.0 containers from 260 to 147
###  |   |- and carried Demand 271,  580.0 containers from 261 to 147
###  |   |- and carried Demand 294,  161.0 containers from 400 to 67
###  |   |- and carried Demand 295,  580.0 containers from 400 to 147
###  |
###  |- Vessel  6 has the path [283, 476, 435, -3]
###  |  283 (NLRTM Out@260) - 476 (TRMER In@411/Out@455) - 435 (AEJEA In@690/Out@723) - -3 (DUMMY_END Ziel-Service 7)
###  |
###  |- Vessel  7 has the path [285, 182, 264, 150, 361, 438, -3]
###  |  285 (NLRTM Out@428) - 182 (FRLEH In@447/Out@463) - 264 (MAPTM In@543/Out@564) - 150 (ESALG In@589/Out@601) - 361 (TRA
###  |  LI In@836/Out@854) - 438 (AEJEA In@1026/Out@1059) - -3 (DUMMY_END Ziel-Service 7)
###  |   |- and carried Demand  31,   68.0 containers from 285 to 150
###  |   |- and carried Demand  32,    6.0 containers from 285 to 182
###  |   |- and carried Demand  35,   60.0 containers from 264 to 150
###  |   |- and carried Demand  36,   11.0 containers from 264 to 150
###  |   |- and carried Demand 263,   68.0 containers from 285 to 150
###  |   |- and carried Demand 266,   60.0 containers from 264 to 150
###  |   |- and carried Demand 267,   11.0 containers from 264 to 150
###  |
###  |- Vessel  8 has the path [287, 478, 448, 449, 369, 439, -3]
###  |  287 (NLRTM Out@596) - 478 (TRMER In@747/Out@791) - 448 (EGPSD In@867/Out@886) - 449 (EGPSD In@957/Out@973) - 369 (TRU
###  |  SK In@1018/Out@1028) - 439 (AEJEA In@1194/Out@1227) - -3 (DUMMY_END Ziel-Service 7)
###  |   |- and carried Demand 364,  467.0 containers from 448 to 439
###  |   |- and carried Demand 368,  467.0 containers from 449 to 439
###  |
###  |- Vessel 15 has the path [179, 368, 441, -3]
###  |  179 (FRLEH Out@158) - 368 (TRUSK In@844/Out@854) - 441 (AEJEA In@1530/Out@1563) - -3 (DUMMY_END Ziel-Service 7)
###  |
###  |- Vessel 16 has the path [181, 370, 437, -3]
###  |  181 (FRLEH Out@326) - 370 (TRZMK In@617/Out@631) - 437 (AEJEA In@858/Out@891) - -3 (DUMMY_END Ziel-Service 7)
###  |
###  |
### Service 24 (WAF7) is operated by 3 vessels from type 18 (PMax25)
###  |
###  |- Vessel  1 has the path [131, 386, -1]
###  |  131 (DEHAM Out@288) - 386 (ESALG In@496/Out@515) - -1 (DUMMY_END Ziel-Service 24)
###  |
###  |- Vessel  2 has the path [132, 387, -1]
###  |  132 (DEHAM Out@456) - 387 (ESALG In@664/Out@683) - -1 (DUMMY_END Ziel-Service 24)
###  |
###  |- Vessel 20 has the path [164, 384, 262, 401, 263, 149, 388, -1]
###  |  164 (ESBCN Out@94) - 384 (ESALG In@160/Out@179) - 262 (MAPTM In@375/Out@396) - 401 (MAPTM In@379/Out@398) - 263 (MAPT
###  |  M In@406/Out@427) - 149 (ESALG In@452/Out@464) - 388 (ESALG In@832/Out@851) - -1 (DUMMY_END Ziel-Service 24)
###  |   |- and carried Demand  20,  484.0 containers from 262 to 149
###  |   |- and carried Demand  21,   18.0 containers from 262 to 149
###  |   |- and carried Demand  66,  484.0 containers from 263 to 149
###  |   |- and carried Demand  67,   18.0 containers from 263 to 149
###  |   |- and carried Demand 259,  214.0 containers from 262 to 388
###  |   |- and carried Demand 260,   10.0 containers from 262 to 388
###  |   |- and carried Demand 262,   18.0 containers from 262 to 149
###  |   |- and carried Demand 272,  214.0 containers from 263 to 388
###  |   |- and carried Demand 273,   10.0 containers from 263 to 388
###  |   |- and carried Demand 274,  484.0 containers from 263 to 149
###  |   |- and carried Demand 275,   18.0 containers from 263 to 149
###  |   |- and carried Demand 285,  214.0 containers from 401 to 388
###  |   |- and carried Demand 286,   10.0 containers from 401 to 388
###  |   |- and carried Demand 287,  312.0 containers from 401 to 149
###  |   |- and carried Demand 288,   18.0 containers from 401 to 149
###  |
###  |
### Service 121 (SAE) is operated by 2 vessels from type 30 (PMax35)
###  |
###  |- Vessel 17 has the path [190, 425, 421, 411, -2]
###  |  190 (GBFXT Out@302) - 425 (USORF In@873/Out@881) - 421 (USMIA In@935/Out@943) - 411 (HNPCR In@998/Out@1011) - -2 (DUM
###  |  MY_END Ziel-Service 121)
###  |   |- and carried Demand 325,   10.0 containers from 421 to 411
###  |   |- and carried Demand 326,   75.0 containers from 425 to 411
###  |   |- and carried Demand 327,  114.0 containers from 425 to 411
###  |
###  |- Vessel 24 has the path [231, 106, 78, 210, 107, 75, 86, 270, 300, 412, -2]
###  |  231 (JPYOK Out@171) - 106 (CNXMN In@238/Out@260) - 78 (CNNSA In@287/Out@297) - 210 (HKHKG In@334/Out@350) - 107 (CNYT
###  |  N In@358/Out@376) - 75 (CNNGB In@430/Out@439) - 86 (CNSHA In@465/Out@483) - 270 (MXLZC In@873/Out@896) - 300 (PABLB I
###  |  n@982/Out@1030) - 412 (HNPCR In@1166/Out@1179) - -2 (DUMMY_END Ziel-Service 121)
###  |   |- and carried Demand  87,  541.0 containers from 231 to 300
###  |   |- and carried Demand 178,  785.0 containers from 106 to 210
###  |   |- and carried Demand 179,    1.0 containers from 106 to 210
###  |   |- and carried Demand 181,  121.0 containers from 210 to 75
###  |   |- and carried Demand 182,   75.0 containers from 210 to 86
###  |   |- and carried Demand 183,    1.0 containers from 210 to 107
###  |   |- and carried Demand 184,   17.0 containers from 210 to 270
###  |   |- and carried Demand 185,  339.0 containers from 107 to 270
###  |   |- and carried Demand 186,    6.0 containers from 107 to 300
###  |   |- and carried Demand 187,  166.0 containers from 75 to 270
###  |   |- and carried Demand 188,  773.0 containers from 75 to 300
###  |   |- and carried Demand 189,    1.0 containers from 75 to 300
###  |   |- and carried Demand 192,  298.0 containers from 270 to 300
###  |   |- and carried Demand 193,  199.0 containers from 270 to 300
###  |   |- and carried Demand 297,    6.0 containers from 107 to 300
###  |   |- and carried Demand 298,  773.0 containers from 75 to 300
###  |   |- and carried Demand 299,    1.0 containers from 75 to 300
###  |   |- and carried Demand 300,  298.0 containers from 270 to 300
###  |   |- and carried Demand 301,  199.0 containers from 270 to 300
###  |
###  |
### Service 177 (WCSA) is operated by 3 vessels from type 18 (PMax25)
###  |
###  |- Vessel 13 has the path [135, 385, 151, 371, 303, 0]
###  |  135 (DKAAR Out@220) - 385 (ESALG In@328/Out@347) - 151 (ESALG In@625/Out@670) - 371 (TRZMK In@778/Out@793) - 303 (PAB
###  |  LB In@1472/Out@1484) - 0 (DUMMY_END Ziel-Service 177)
###  |   |- and carried Demand 140,  552.0 containers from 151 to 303
###  |   |- and carried Demand 141,   13.0 containers from 151 to 303
###  |
###  |- Vessel 14 has the path [136, 477, 360, 302, 0]
###  |  136 (DKAAR Out@388) - 477 (TRMER In@579/Out@623) - 360 (TRALI In@668/Out@686) - 302 (PABLB In@1304/Out@1316) - 0 (DUM
###  |  MY_END Ziel-Service 177)
###  |
###  |- Vessel 19 has the path [216, 354, 249, 226, 71, 102, 99, 76, 88, 305, 0]
###  |  216 (INPAV Out@118) - 354 (SGSIN In@618/Out@651) - 249 (KRPUS In@788/Out@810) - 226 (JPHKT In@824/Out@833) - 71 (CNDL
###  |  C In@871/Out@886) - 102 (CNXGG In@904/Out@923) - 99 (CNTAO In@960/Out@978) - 76 (CNNGB In@1031/Out@1040) - 88 (CNSHA 
###  |  In@1069/Out@1079) - 305 (PABLB In@1640/Out@1652) - 0 (DUMMY_END Ziel-Service 177)
###  |   |- and carried Demand  45,  975.0 containers from 76 to 305
###  |   |- and carried Demand  46,    1.0 containers from 76 to 305
###  |   |- and carried Demand  48,  907.0 containers from 88 to 305
###  |   |- and carried Demand  49,    3.0 containers from 88 to 305
###  |
###  |
### Vessels not used in the solution: [3, 4, 9, 10, 11, 12, 18, 21, 22, 23]
###  |-----------------------------------------------------------------------------------------------------------------------
###
#############################################################################################################################
###
###
#############################################################################################################################
### Solution run 4
#############################################################################################################################
###
### Results
###
### The objective of the solution is 2,357,412.2149 (2357412.2149)
###
### Service 7 (ME3) is operated by 6 vessels from type 19 (PMax28)
###  |
###  |- Vessel  5 has the path [282, 178, 260, 400, 261, 147, 394, 67, 472, 373, 440, -3]
###  |  282 (NLRTM Out@92) - 178 (FRLEH In@111/Out@127) - 260 (MAPTM In@207/Out@228) - 400 (MAPTM In@211/Out@230) - 261 (MAPT
###  |  M In@238/Out@259) - 147 (ESALG In@284/Out@296) - 394 (GWOXB In@463/Out@542) - 67 (CMDLA In@765/Out@811) - 472 (TRAMB 
###  |  In@1019/Out@1067) - 373 (TRZMK In@1074/Out@1089) - 440 (AEJEA In@1362/Out@1395) - -3 (DUMMY_END Ziel-Service 7)
###  |   |- and carried Demand   9,   17.0 containers from 282 to 178
###  |   |- and carried Demand  10,  161.0 containers from 260 to 67
###  |   |- and carried Demand  11,  580.0 containers from 260 to 147
###  |   |- and carried Demand  59,  161.0 containers from 261 to 67
###  |   |- and carried Demand  60,   19.0 containers from 261 to 147
###  |   |- and carried Demand 257,  580.0 containers from 260 to 147
###  |   |- and carried Demand 271,  580.0 containers from 261 to 147
###  |   |- and carried Demand 294,  161.0 containers from 400 to 67
###  |   |- and carried Demand 295,  580.0 containers from 400 to 147
###  |
###  |- Vessel  6 has the path [283, 476, 435, -3]
###  |  283 (NLRTM Out@260) - 476 (TRMER In@411/Out@455) - 435 (AEJEA In@690/Out@723) - -3 (DUMMY_END Ziel-Service 7)
###  |
###  |- Vessel  7 has the path [285, 182, 264, 150, 361, 438, -3]
###  |  285 (NLRTM Out@428) - 182 (FRLEH In@447/Out@463) - 264 (MAPTM In@543/Out@564) - 150 (ESALG In@589/Out@601) - 361 (TRA
###  |  LI In@836/Out@854) - 438 (AEJEA In@1026/Out@1059) - -3 (DUMMY_END Ziel-Service 7)
###  |   |- and carried Demand  31,   68.0 containers from 285 to 150
###  |   |- and carried Demand  32,    6.0 containers from 285 to 182
###  |   |- and carried Demand  35,   60.0 containers from 264 to 150
###  |   |- and carried Demand  36,   11.0 containers from 264 to 150
###  |   |- and carried Demand 263,   68.0 containers from 285 to 150
###  |   |- and carried Demand 266,   60.0 containers from 264 to 150
###  |   |- and carried Demand 267,   11.0 containers from 264 to 150
###  |
###  |- Vessel  8 has the path [287, 478, 448, 449, 369, 439, -3]
###  |  287 (NLRTM Out@596) - 478 (TRMER In@747/Out@791) - 448 (EGPSD In@867/Out@886) - 449 (EGPSD In@957/Out@973) - 369 (TRU
###  |  SK In@1018/Out@1028) - 439 (AEJEA In@1194/Out@1227) - -3 (DUMMY_END Ziel-Service 7)
###  |   |- and carried Demand 364,  467.0 containers from 448 to 439
###  |   |- and carried Demand 368,  467.0 containers from 449 to 439
###  |
###  |- Vessel 15 has the path [179, 368, 441, -3]
###  |  179 (FRLEH Out@158) - 368 (TRUSK In@844/Out@854) - 441 (AEJEA In@1530/Out@1563) - -3 (DUMMY_END Ziel-Service 7)
###  |
###  |- Vessel 16 has the path [181, 370, 437, -3]
###  |  181 (FRLEH Out@326) - 370 (TRZMK In@617/Out@631) - 437 (AEJEA In@858/Out@891) - -3 (DUMMY_END Ziel-Service 7)
###  |
###  |
### Service 24 (WAF7) is operated by 3 vessels from type 18 (PMax25)
###  |
###  |- Vessel  1 has the path [131, 386, -1]
###  |  131 (DEHAM Out@288) - 386 (ESALG In@496/Out@515) - -1 (DUMMY_END Ziel-Service 24)
###  |
###  |- Vessel 14 has the path [136, 387, -1]
###  |  136 (DKAAR Out@388) - 387 (ESALG In@664/Out@683) - -1 (DUMMY_END Ziel-Service 24)
###  |
###  |- Vessel 20 has the path [164, 384, 262, 401, 263, 149, 388, -1]
###  |  164 (ESBCN Out@94) - 384 (ESALG In@160/Out@179) - 262 (MAPTM In@375/Out@396) - 401 (MAPTM In@379/Out@398) - 263 (MAPT
###  |  M In@406/Out@427) - 149 (ESALG In@452/Out@464) - 388 (ESALG In@832/Out@851) - -1 (DUMMY_END Ziel-Service 24)
###  |   |- and carried Demand  20,  484.0 containers from 262 to 149
###  |   |- and carried Demand  21,   18.0 containers from 262 to 149
###  |   |- and carried Demand  66,  484.0 containers from 263 to 149
###  |   |- and carried Demand  67,   18.0 containers from 263 to 149
###  |   |- and carried Demand 259,  214.0 containers from 262 to 388
###  |   |- and carried Demand 260,   10.0 containers from 262 to 388
###  |   |- and carried Demand 262,   18.0 containers from 262 to 149
###  |   |- and carried Demand 272,  214.0 containers from 263 to 388
###  |   |- and carried Demand 273,   10.0 containers from 263 to 388
###  |   |- and carried Demand 274,  484.0 containers from 263 to 149
###  |   |- and carried Demand 275,   18.0 containers from 263 to 149
###  |   |- and carried Demand 285,  214.0 containers from 401 to 388
###  |   |- and carried Demand 286,   10.0 containers from 401 to 388
###  |   |- and carried Demand 287,  312.0 containers from 401 to 149
###  |   |- and carried Demand 288,   18.0 containers from 401 to 149
###  |
###  |
### Service 121 (SAE) is operated by 2 vessels from type 30 (PMax35)
###  |
###  |- Vessel 11 has the path [13, 425, 421, 411, -2]
###  |  13 (BEANR Out@402) - 425 (USORF In@873/Out@881) - 421 (USMIA In@935/Out@943) - 411 (HNPCR In@998/Out@1011) - -2 (DUMM
###  |  Y_END Ziel-Service 121)
###  |   |- and carried Demand 325,   10.0 containers from 421 to 411
###  |   |- and carried Demand 326,   75.0 containers from 425 to 411
###  |   |- and carried Demand 327,  114.0 containers from 425 to 411
###  |
###  |- Vessel 24 has the path [231, 106, 78, 210, 107, 75, 86, 270, 300, 412, -2]
###  |  231 (JPYOK Out@171) - 106 (CNXMN In@238/Out@260) - 78 (CNNSA In@287/Out@297) - 210 (HKHKG In@334/Out@350) - 107 (CNYT
###  |  N In@358/Out@376) - 75 (CNNGB In@430/Out@439) - 86 (CNSHA In@465/Out@483) - 270 (MXLZC In@873/Out@896) - 300 (PABLB I
###  |  n@982/Out@1030) - 412 (HNPCR In@1166/Out@1179) - -2 (DUMMY_END Ziel-Service 121)
###  |   |- and carried Demand  87,  541.0 containers from 231 to 300
###  |   |- and carried Demand 178,  785.0 containers from 106 to 210
###  |   |- and carried Demand 179,    1.0 containers from 106 to 210
###  |   |- and carried Demand 181,  121.0 containers from 210 to 75
###  |   |- and carried Demand 182,   75.0 containers from 210 to 86
###  |   |- and carried Demand 183,    1.0 containers from 210 to 107
###  |   |- and carried Demand 184,   17.0 containers from 210 to 270
###  |   |- and carried Demand 185,  339.0 containers from 107 to 270
###  |   |- and carried Demand 186,    6.0 containers from 107 to 300
###  |   |- and carried Demand 187,  166.0 containers from 75 to 270
###  |   |- and carried Demand 188,  773.0 containers from 75 to 300
###  |   |- and carried Demand 189,    1.0 containers from 75 to 300
###  |   |- and carried Demand 192,  298.0 containers from 270 to 300
###  |   |- and carried Demand 193,  199.0 containers from 270 to 300
###  |   |- and carried Demand 297,    6.0 containers from 107 to 300
###  |   |- and carried Demand 298,  773.0 containers from 75 to 300
###  |   |- and carried Demand 299,    1.0 containers from 75 to 300
###  |   |- and carried Demand 300,  298.0 containers from 270 to 300
###  |   |- and carried Demand 301,  199.0 containers from 270 to 300
###  |
###  |
### Service 177 (WCSA) is operated by 3 vessels from type 18 (PMax25)
###  |
###  |- Vessel  2 has the path [132, 477, 360, 302, 0]
###  |  132 (DEHAM Out@456) - 477 (TRMER In@579/Out@623) - 360 (TRALI In@668/Out@686) - 302 (PABLB In@1304/Out@1316) - 0 (DUM
###  |  MY_END Ziel-Service 177)
###  |
###  |- Vessel 13 has the path [135, 385, 151, 371, 303, 0]
###  |  135 (DKAAR Out@220) - 385 (ESALG In@328/Out@347) - 151 (ESALG In@625/Out@670) - 371 (TRZMK In@778/Out@793) - 303 (PAB
###  |  LB In@1472/Out@1484) - 0 (DUMMY_END Ziel-Service 177)
###  |   |- and carried Demand 140,  552.0 containers from 151 to 303
###  |   |- and carried Demand 141,   13.0 containers from 151 to 303
###  |
###  |- Vessel 19 has the path [216, 354, 249, 226, 71, 102, 99, 76, 88, 305, 0]
###  |  216 (INPAV Out@118) - 354 (SGSIN In@618/Out@651) - 249 (KRPUS In@788/Out@810) - 226 (JPHKT In@824/Out@833) - 71 (CNDL
###  |  C In@871/Out@886) - 102 (CNXGG In@904/Out@923) - 99 (CNTAO In@960/Out@978) - 76 (CNNGB In@1031/Out@1040) - 88 (CNSHA 
###  |  In@1069/Out@1079) - 305 (PABLB In@1640/Out@1652) - 0 (DUMMY_END Ziel-Service 177)
###  |   |- and carried Demand  45,  975.0 containers from 76 to 305
###  |   |- and carried Demand  46,    1.0 containers from 76 to 305
###  |   |- and carried Demand  48,  907.0 containers from 88 to 305
###  |   |- and carried Demand  49,    3.0 containers from 88 to 305
###  |
###  |
### Vessels not used in the solution: [3, 4, 9, 10, 12, 17, 18, 21, 22, 23]
###  |-----------------------------------------------------------------------------------------------------------------------
###
#############################################################################################################################
###
###
#############################################################################################################################
### Solution run 5
#############################################################################################################################
###
### Results
###
### The objective of the solution is 1,573,474.6007 (1573474.6007)
###
### Service 7 (ME3) is operated by 6 vessels from type 19 (PMax28)
###  |
###  |- Vessel  6 has the path [283, 476, 435, -3]
###  |  283 (NLRTM Out@260) - 476 (TRMER In@411/Out@455) - 435 (AEJEA In@690/Out@723) - -3 (DUMMY_END Ziel-Service 7)
###  |
###  |- Vessel  7 has the path [285, 182, 264, 150, 479, 440, -3]
###  |  285 (NLRTM Out@428) - 182 (FRLEH In@447/Out@463) - 264 (MAPTM In@543/Out@564) - 150 (ESALG In@589/Out@601) - 479 (TRM
###  |  ER In@915/Out@959) - 440 (AEJEA In@1362/Out@1395) - -3 (DUMMY_END Ziel-Service 7)
###  |   |- and carried Demand  31,   68.0 containers from 285 to 150
###  |   |- and carried Demand  32,    6.0 containers from 285 to 182
###  |   |- and carried Demand  35,   60.0 containers from 264 to 150
###  |   |- and carried Demand  36,   11.0 containers from 264 to 150
###  |   |- and carried Demand 263,   68.0 containers from 285 to 150
###  |   |- and carried Demand 266,   60.0 containers from 264 to 150
###  |   |- and carried Demand 267,   11.0 containers from 264 to 150
###  |
###  |- Vessel  8 has the path [287, 478, 448, 449, 369, 439, -3]
###  |  287 (NLRTM Out@596) - 478 (TRMER In@747/Out@791) - 448 (EGPSD In@867/Out@886) - 449 (EGPSD In@957/Out@973) - 369 (TRU
###  |  SK In@1018/Out@1028) - 439 (AEJEA In@1194/Out@1227) - -3 (DUMMY_END Ziel-Service 7)
###  |   |- and carried Demand 364,  467.0 containers from 448 to 439
###  |   |- and carried Demand 368,  467.0 containers from 449 to 439
###  |
###  |- Vessel 15 has the path [179, 400, 261, 147, 394, 68, 480, 441, -3]
###  |  179 (FRLEH Out@158) - 400 (MAPTM In@211/Out@230) - 261 (MAPTM In@238/Out@259) - 147 (ESALG In@284/Out@296) - 394 (GWO
###  |  XB In@463/Out@542) - 68 (CMDLA In@796/Out@842) - 480 (TRMER In@1083/Out@1127) - 441 (AEJEA In@1530/Out@1563) - -3 (DU
###  |  MMY_END Ziel-Service 7)
###  |   |- and carried Demand  59,  161.0 containers from 261 to 68
###  |   |- and carried Demand  60,  580.0 containers from 261 to 147
###  |   |- and carried Demand 271,  580.0 containers from 261 to 147
###  |   |- and carried Demand 294,  161.0 containers from 400 to 68
###  |   |- and carried Demand 295,  580.0 containers from 400 to 147
###  |
###  |- Vessel 16 has the path [181, 370, 465, 296, 438, -3]
###  |  181 (FRLEH Out@326) - 370 (TRZMK In@617/Out@631) - 465 (OMSLL In@878/Out@890) - 296 (OMSLL In@889/Out@904) - 438 (AEJ
###  |  EA In@1026/Out@1059) - -3 (DUMMY_END Ziel-Service 7)
###  |   |- and carried Demand 359,  111.0 containers from 465 to 438
###  |   |- and carried Demand 360,   35.0 containers from 465 to 438
###  |
###  |- Vessel 21 has the path [382, 464, 295, 437, -3]
###  |  382 (ZAPLZ Out@205) - 464 (OMSLL In@710/Out@722) - 295 (OMSLL In@721/Out@736) - 437 (AEJEA In@858/Out@891) - -3 (DUMM
###  |  Y_END Ziel-Service 7)
###  |   |- and carried Demand 365,  288.0 containers from 464 to 437
###  |   |- and carried Demand 366,   14.0 containers from 464 to 437
###  |
###  |
### Service 24 (WAF7) is operated by 3 vessels from type 18 (PMax25)
###  |
###  |- Vessel  2 has the path [132, 387, -1]
###  |  132 (DEHAM Out@456) - 387 (ESALG In@664/Out@683) - -1 (DUMMY_END Ziel-Service 24)
###  |
###  |- Vessel 13 has the path [135, 386, -1]
###  |  135 (DKAAR Out@220) - 386 (ESALG In@496/Out@515) - -1 (DUMMY_END Ziel-Service 24)
###  |
###  |- Vessel 20 has the path [164, 384, 260, 146, 385, 262, 401, 263, 149, 388, -1]
###  |  164 (ESBCN Out@94) - 384 (ESALG In@160/Out@179) - 260 (MAPTM In@207/Out@228) - 146 (ESALG In@253/Out@265) - 385 (ESAL
###  |  G In@328/Out@347) - 262 (MAPTM In@375/Out@396) - 401 (MAPTM In@379/Out@398) - 263 (MAPTM In@406/Out@427) - 149 (ESALG
###  |   In@452/Out@464) - 388 (ESALG In@832/Out@851) - -1 (DUMMY_END Ziel-Service 24)
###  |   |- and carried Demand  11,  580.0 containers from 260 to 146
###  |   |- and carried Demand  20,  312.0 containers from 262 to 149
###  |   |- and carried Demand  21,   18.0 containers from 262 to 149
###  |   |- and carried Demand  66,  484.0 containers from 263 to 149
###  |   |- and carried Demand  67,   18.0 containers from 263 to 149
###  |   |- and carried Demand 257,  580.0 containers from 260 to 146
###  |   |- and carried Demand 259,  214.0 containers from 262 to 388
###  |   |- and carried Demand 260,   10.0 containers from 262 to 388
###  |   |- and carried Demand 262,   18.0 containers from 262 to 149
###  |   |- and carried Demand 272,  214.0 containers from 263 to 388
###  |   |- and carried Demand 273,   10.0 containers from 263 to 388
###  |   |- and carried Demand 274,  484.0 containers from 263 to 149
###  |   |- and carried Demand 275,   18.0 containers from 263 to 149
###  |   |- and carried Demand 285,  214.0 containers from 401 to 388
###  |   |- and carried Demand 286,   10.0 containers from 401 to 388
###  |   |- and carried Demand 287,  484.0 containers from 401 to 149
###  |   |- and carried Demand 288,   18.0 containers from 401 to 149
###  |
###  |
### Service 121 (SAE) is operated by 2 vessels from type 30 (PMax35)
###  |
###  |- Vessel 11 has the path [13, 425, 421, 411, -2]
###  |  13 (BEANR Out@402) - 425 (USORF In@873/Out@881) - 421 (USMIA In@935/Out@943) - 411 (HNPCR In@998/Out@1011) - -2 (DUMM
###  |  Y_END Ziel-Service 121)
###  |   |- and carried Demand 325,   10.0 containers from 421 to 411
###  |   |- and carried Demand 326,   75.0 containers from 425 to 411
###  |   |- and carried Demand 327,  114.0 containers from 425 to 411
###  |
###  |- Vessel 24 has the path [231, 106, 78, 210, 107, 75, 86, 270, 300, 412, -2]
###  |  231 (JPYOK Out@171) - 106 (CNXMN In@238/Out@260) - 78 (CNNSA In@287/Out@297) - 210 (HKHKG In@334/Out@350) - 107 (CNYT
###  |  N In@358/Out@376) - 75 (CNNGB In@430/Out@439) - 86 (CNSHA In@465/Out@483) - 270 (MXLZC In@873/Out@896) - 300 (PABLB I
###  |  n@982/Out@1030) - 412 (HNPCR In@1166/Out@1179) - -2 (DUMMY_END Ziel-Service 121)
###  |   |- and carried Demand  87,  541.0 containers from 231 to 300
###  |   |- and carried Demand 178,  785.0 containers from 106 to 210
###  |   |- and carried Demand 179,    1.0 containers from 106 to 210
###  |   |- and carried Demand 181,  121.0 containers from 210 to 75
###  |   |- and carried Demand 182,   75.0 containers from 210 to 86
###  |   |- and carried Demand 183,    1.0 containers from 210 to 107
###  |   |- and carried Demand 184,   17.0 containers from 210 to 270
###  |   |- and carried Demand 185,  339.0 containers from 107 to 270
###  |   |- and carried Demand 186,    6.0 containers from 107 to 300
###  |   |- and carried Demand 187,  166.0 containers from 75 to 270
###  |   |- and carried Demand 188,  773.0 containers from 75 to 300
###  |   |- and carried Demand 189,    1.0 containers from 75 to 300
###  |   |- and carried Demand 192,  298.0 containers from 270 to 300
###  |   |- and carried Demand 193,  199.0 containers from 270 to 300
###  |   |- and carried Demand 297,    6.0 containers from 107 to 300
###  |   |- and carried Demand 298,  773.0 containers from 75 to 300
###  |   |- and carried Demand 299,    1.0 containers from 75 to 300
###  |   |- and carried Demand 300,  298.0 containers from 270 to 300
###  |   |- and carried Demand 301,  199.0 containers from 270 to 300
###  |
###  |
### Service 177 (WCSA) is operated by 3 vessels from type 18 (PMax25)
###  |
###  |- Vessel  1 has the path [131, 361, 303, 0]
###  |  131 (DEHAM Out@288) - 361 (TRALI In@836/Out@854) - 303 (PABLB In@1472/Out@1484) - 0 (DUMMY_END Ziel-Service 177)
###  |
###  |- Vessel 14 has the path [136, 477, 360, 302, 0]
###  |  136 (DKAAR Out@388) - 477 (TRMER In@579/Out@623) - 360 (TRALI In@668/Out@686) - 302 (PABLB In@1304/Out@1316) - 0 (DUM
###  |  MY_END Ziel-Service 177)
###  |
###  |- Vessel 19 has the path [216, 354, 249, 226, 71, 102, 99, 76, 88, 305, 0]
###  |  216 (INPAV Out@118) - 354 (SGSIN In@618/Out@651) - 249 (KRPUS In@788/Out@810) - 226 (JPHKT In@824/Out@833) - 71 (CNDL
###  |  C In@871/Out@886) - 102 (CNXGG In@904/Out@923) - 99 (CNTAO In@960/Out@978) - 76 (CNNGB In@1031/Out@1040) - 88 (CNSHA 
###  |  In@1069/Out@1079) - 305 (PABLB In@1640/Out@1652) - 0 (DUMMY_END Ziel-Service 177)
###  |   |- and carried Demand  45,  975.0 containers from 76 to 305
###  |   |- and carried Demand  46,    1.0 containers from 76 to 305
###  |   |- and carried Demand  48,  907.0 containers from 88 to 305
###  |   |- and carried Demand  49,    3.0 containers from 88 to 305
###  |
###  |
### Vessels not used in the solution: [3, 4, 5, 9, 10, 12, 17, 18, 22, 23]
###  |-----------------------------------------------------------------------------------------------------------------------
###
#############################################################################################################################
###
###
#############################################################################################################################
### Solution run 6
#############################################################################################################################
###
### Results
###
### The objective of the solution is 2,304,775.7447 (2304775.7447)
###
### Service 7 (ME3) is operated by 6 vessels from type 19 (PMax28)
###  |
###  |- Vessel  5 has the path [282, 178, 260, 400, 261, 147, 394, 67, 472, 373, 440, -3]
###  |  282 (NLRTM Out@92) - 178 (FRLEH In@111/Out@127) - 260 (MAPTM In@207/Out@228) - 400 (MAPTM In@211/Out@230) - 261 (MAPT
###  |  M In@238/Out@259) - 147 (ESALG In@284/Out@296) - 394 (GWOXB In@463/Out@542) - 67 (CMDLA In@765/Out@811) - 472 (TRAMB 
###  |  In@1019/Out@1067) - 373 (TRZMK In@1074/Out@1089) - 440 (AEJEA In@1362/Out@1395) - -3 (DUMMY_END Ziel-Service 7)
###  |   |- and carried Demand   9,   17.0 containers from 282 to 178
###  |   |- and carried Demand  10,  161.0 containers from 260 to 67
###  |   |- and carried Demand  11,  580.0 containers from 260 to 147
###  |   |- and carried Demand  59,  161.0 containers from 261 to 67
###  |   |- and carried Demand  60,   19.0 containers from 261 to 147
###  |   |- and carried Demand 257,  580.0 containers from 260 to 147
###  |   |- and carried Demand 271,  580.0 containers from 261 to 147
###  |   |- and carried Demand 294,  161.0 containers from 400 to 67
###  |   |- and carried Demand 295,  580.0 containers from 400 to 147
###  |
###  |- Vessel  6 has the path [283, 476, 435, -3]
###  |  283 (NLRTM Out@260) - 476 (TRMER In@411/Out@455) - 435 (AEJEA In@690/Out@723) - -3 (DUMMY_END Ziel-Service 7)
###  |
###  |- Vessel  7 has the path [285, 182, 264, 150, 361, 438, -3]
###  |  285 (NLRTM Out@428) - 182 (FRLEH In@447/Out@463) - 264 (MAPTM In@543/Out@564) - 150 (ESALG In@589/Out@601) - 361 (TRA
###  |  LI In@836/Out@854) - 438 (AEJEA In@1026/Out@1059) - -3 (DUMMY_END Ziel-Service 7)
###  |   |- and carried Demand  31,   68.0 containers from 285 to 150
###  |   |- and carried Demand  32,    6.0 containers from 285 to 182
###  |   |- and carried Demand  35,   60.0 containers from 264 to 150
###  |   |- and carried Demand  36,   11.0 containers from 264 to 150
###  |   |- and carried Demand 263,   68.0 containers from 285 to 150
###  |   |- and carried Demand 266,   60.0 containers from 264 to 150
###  |   |- and carried Demand 267,   11.0 containers from 264 to 150
###  |
###  |- Vessel  8 has the path [287, 478, 448, 449, 369, 439, -3]
###  |  287 (NLRTM Out@596) - 478 (TRMER In@747/Out@791) - 448 (EGPSD In@867/Out@886) - 449 (EGPSD In@957/Out@973) - 369 (TRU
###  |  SK In@1018/Out@1028) - 439 (AEJEA In@1194/Out@1227) - -3 (DUMMY_END Ziel-Service 7)
###  |   |- and carried Demand 364,  467.0 containers from 448 to 439
###  |   |- and carried Demand 368,  467.0 containers from 449 to 439
###  |
###  |- Vessel 15 has the path [179, 368, 441, -3]
###  |  179 (FRLEH Out@158) - 368 (TRUSK In@844/Out@854) - 441 (AEJEA In@1530/Out@1563) - -3 (DUMMY_END Ziel-Service 7)
###  |
###  |- Vessel 16 has the path [181, 477, 437, -3]
###  |  181 (FRLEH Out@326) - 477 (TRMER In@579/Out@623) - 437 (AEJEA In@858/Out@891) - -3 (DUMMY_END Ziel-Service 7)
###  |
###  |
### Service 24 (WAF7) is operated by 3 vessels from type 18 (PMax25)
###  |
###  |- Vessel  2 has the path [132, 387, -1]
###  |  132 (DEHAM Out@456) - 387 (ESALG In@664/Out@683) - -1 (DUMMY_END Ziel-Service 24)
###  |
###  |- Vessel 14 has the path [136, 386, -1]
###  |  136 (DKAAR Out@388) - 386 (ESALG In@496/Out@515) - -1 (DUMMY_END Ziel-Service 24)
###  |
###  |- Vessel 20 has the path [164, 384, 262, 401, 263, 149, 388, -1]
###  |  164 (ESBCN Out@94) - 384 (ESALG In@160/Out@179) - 262 (MAPTM In@375/Out@396) - 401 (MAPTM In@379/Out@398) - 263 (MAPT
###  |  M In@406/Out@427) - 149 (ESALG In@452/Out@464) - 388 (ESALG In@832/Out@851) - -1 (DUMMY_END Ziel-Service 24)
###  |   |- and carried Demand  20,  484.0 containers from 262 to 149
###  |   |- and carried Demand  21,   18.0 containers from 262 to 149
###  |   |- and carried Demand  66,  484.0 containers from 263 to 149
###  |   |- and carried Demand  67,   18.0 containers from 263 to 149
###  |   |- and carried Demand 259,  214.0 containers from 262 to 388
###  |   |- and carried Demand 260,   10.0 containers from 262 to 388
###  |   |- and carried Demand 262,   18.0 containers from 262 to 149
###  |   |- and carried Demand 272,  214.0 containers from 263 to 388
###  |   |- and carried Demand 273,   10.0 containers from 263 to 388
###  |   |- and carried Demand 274,  484.0 containers from 263 to 149
###  |   |- and carried Demand 275,   18.0 containers from 263 to 149
###  |   |- and carried Demand 285,  214.0 containers from 401 to 388
###  |   |- and carried Demand 286,   10.0 containers from 401 to 388
###  |   |- and carried Demand 287,  312.0 containers from 401 to 149
###  |   |- and carried Demand 288,   18.0 containers from 401 to 149
###  |
###  |
### Service 121 (SAE) is operated by 2 vessels from type 30 (PMax35)
###  |
###  |- Vessel 18 has the path [193, 425, 421, 411, -2]
###  |  193 (GBFXT Out@470) - 425 (USORF In@873/Out@881) - 421 (USMIA In@935/Out@943) - 411 (HNPCR In@998/Out@1011) - -2 (DUM
###  |  MY_END Ziel-Service 121)
###  |   |- and carried Demand 325,   10.0 containers from 421 to 411
###  |   |- and carried Demand 326,   75.0 containers from 425 to 411
###  |   |- and carried Demand 327,  114.0 containers from 425 to 411
###  |
###  |- Vessel 24 has the path [231, 106, 78, 210, 107, 75, 86, 270, 300, 412, -2]
###  |  231 (JPYOK Out@171) - 106 (CNXMN In@238/Out@260) - 78 (CNNSA In@287/Out@297) - 210 (HKHKG In@334/Out@350) - 107 (CNYT
###  |  N In@358/Out@376) - 75 (CNNGB In@430/Out@439) - 86 (CNSHA In@465/Out@483) - 270 (MXLZC In@873/Out@896) - 300 (PABLB I
###  |  n@982/Out@1030) - 412 (HNPCR In@1166/Out@1179) - -2 (DUMMY_END Ziel-Service 121)
###  |   |- and carried Demand  87,  541.0 containers from 231 to 300
###  |   |- and carried Demand 178,  785.0 containers from 106 to 210
###  |   |- and carried Demand 179,    1.0 containers from 106 to 210
###  |   |- and carried Demand 181,  121.0 containers from 210 to 75
###  |   |- and carried Demand 182,   75.0 containers from 210 to 86
###  |   |- and carried Demand 183,    1.0 containers from 210 to 107
###  |   |- and carried Demand 184,   17.0 containers from 210 to 270
###  |   |- and carried Demand 185,  339.0 containers from 107 to 270
###  |   |- and carried Demand 186,    6.0 containers from 107 to 300
###  |   |- and carried Demand 187,  166.0 containers from 75 to 270
###  |   |- and carried Demand 188,  773.0 containers from 75 to 300
###  |   |- and carried Demand 189,    1.0 containers from 75 to 300
###  |   |- and carried Demand 192,  298.0 containers from 270 to 300
###  |   |- and carried Demand 193,  199.0 containers from 270 to 300
###  |   |- and carried Demand 297,    6.0 containers from 107 to 300
###  |   |- and carried Demand 298,  773.0 containers from 75 to 300
###  |   |- and carried Demand 299,    1.0 containers from 75 to 300
###  |   |- and carried Demand 300,  298.0 containers from 270 to 300
###  |   |- and carried Demand 301,  199.0 containers from 270 to 300
###  |
###  |
### Service 177 (WCSA) is operated by 3 vessels from type 18 (PMax25)
###  |
###  |- Vessel  1 has the path [131, 360, 302, 0]
###  |  131 (DEHAM Out@288) - 360 (TRALI In@668/Out@686) - 302 (PABLB In@1304/Out@1316) - 0 (DUMMY_END Ziel-Service 177)
###  |
###  |- Vessel 13 has the path [135, 385, 151, 371, 303, 0]
###  |  135 (DKAAR Out@220) - 385 (ESALG In@328/Out@347) - 151 (ESALG In@625/Out@670) - 371 (TRZMK In@778/Out@793) - 303 (PAB
###  |  LB In@1472/Out@1484) - 0 (DUMMY_END Ziel-Service 177)
###  |   |- and carried Demand 140,  552.0 containers from 151 to 303
###  |   |- and carried Demand 141,   13.0 containers from 151 to 303
###  |
###  |- Vessel 19 has the path [216, 354, 249, 226, 71, 102, 99, 76, 88, 305, 0]
###  |  216 (INPAV Out@118) - 354 (SGSIN In@618/Out@651) - 249 (KRPUS In@788/Out@810) - 226 (JPHKT In@824/Out@833) - 71 (CNDL
###  |  C In@871/Out@886) - 102 (CNXGG In@904/Out@923) - 99 (CNTAO In@960/Out@978) - 76 (CNNGB In@1031/Out@1040) - 88 (CNSHA 
###  |  In@1069/Out@1079) - 305 (PABLB In@1640/Out@1652) - 0 (DUMMY_END Ziel-Service 177)
###  |   |- and carried Demand  45,  975.0 containers from 76 to 305
###  |   |- and carried Demand  46,    1.0 containers from 76 to 305
###  |   |- and carried Demand  48,  907.0 containers from 88 to 305
###  |   |- and carried Demand  49,    3.0 containers from 88 to 305
###  |
###  |
### Vessels not used in the solution: [3, 4, 9, 10, 11, 12, 17, 21, 22, 23]
###  |-----------------------------------------------------------------------------------------------------------------------
###
#############################################################################################################################
+++++++++++++++++++++++++++++++++++++++++++++++++++++++++++++++++++++++++++++++++++++++++++++++++++++++++++++++++++++++++++++
+++
+++ The average objective is 2,251,107.784 (2251107.784)
+++
+++++++++++++++++++++++++++++++++++++++++++++++++++++++++++++++++++++++++++++++++++++++++++++++++++++++++++++++++++++++++++++

real	60m21.886s
user	106m0.546s
sys	5m35.582s
	Freetype 2.4.12 environment removed
	Python 3.6.0 environment removed
	Gurobi 8.1.0 environment removed
