### Additional Information to the goal services
# Basic costs on route 24: 20479664.064927712
# Basic costs on route 177: -43969761.77416691
# Basic costs on route 121: 16241564.55683704
# Basic costs on route 7: 74842272.93311279
# Direct costs (not staggered):
# For goal service 24:
# n_min: 2
# n_max: 4
# lowest costs of the goal service 24 with configuration (24, 18, 3) at 0.0
# For goal service 177:
# n_min: 2
# n_max: 3
# lowest costs of the goal service 177 with configuration (177, 19, 3) at 0.0
# For goal service 121:
# n_min: 1
# n_max: 2
# lowest costs of the goal service 121 with configuration (121, 30, 2) at 0.0
# For goal service 7:
# n_min: 3
# n_max: 6
# lowest costs of the goal service 7 with configuration (7, 19, 6) at 0.0
# (7, 18, 1): 44597227.935756445
# (7, 18, 2): 45440052.01575644
# (7, 18, 3): 40975873.47623135
# (7, 18, 4): 29278676.356231347
# (7, 18, 5): 17581479.236231342
# (7, 18, 6): 5884282.116231367
# (7, 19, 1): 46138383.60939658
# (7, 19, 2): 47065439.52939658
# (7, 19, 3): 39044132.716784865
# (7, 19, 4): 23478699.84421487
# (7, 19, 5): 7913266.9716448635
# (7, 19, 6): 0.0
# (7, 30, 1): 49246160.37571533
# (7, 30, 2): 50257520.37571533
# (7, 30, 3): 47147432.261124626
# (7, 30, 4): 30966085.39747064
# (7, 30, 5): 14784738.53381662
# (7, 30, 6): 3411597.5193675905
# (24, 18, 1): 20352942.223267473
# (24, 18, 2): 11206383.422723271
# (24, 18, 3): 0.0
# (24, 18, 4): 842824.0799999982
# (24, 19, 1): 31433559.848387755
# (24, 19, 2): 18303306.59901554
# (24, 19, 3): 9575648.104131773
# (24, 19, 4): 10502704.02413176
# (24, 30, 1): 30794772.967028886
# (24, 30, 2): 19583660.927603126
# (24, 30, 3): 9050501.97195492
# (24, 30, 4): 10061861.971954912
# (121, 18, 1): 13188986.421238232
# (121, 18, 2): 1491789.3012382314
# (121, 19, 1): 15172518.170937192
# (121, 19, 2): 1202731.8684617877
# (121, 30, 1): 15607384.224765249
# (121, 30, 2): 0.0
# (177, 18, 1): 16802954.15564716
# (177, 18, 2): 11991153.28490799
# (177, 18, 3): 293956.1649080068
# (177, 19, 1): 23258756.036004625
# (177, 19, 2): 15565432.872569993
# (177, 19, 3): 0.0
# (177, 30, 1): 22850174.66939377
# (177, 30, 2): 18005317.67041164
# (177, 30, 3): 1823970.806757629
# -------------------------------------------
