### Additional Information to the goal services
# Basic costs on route 24: 24766105.38084282
# Basic costs on route 177: -53172735.16875999
# Basic costs on route 121: 19640961.789663397
# Basic costs on route 7: 90506934.70981084
# Direct costs (not staggered):
# For goal service 24:
# n_min: 2
# n_max: 4
# lowest costs of the goal service 24 with configuration (24, 18, 3) at 0.0
# For goal service 177:
# n_min: 2
# n_max: 3
# lowest costs of the goal service 177 with configuration (177, 19, 3) at 0.0
# For goal service 121:
# n_min: 1
# n_max: 2
# lowest costs of the goal service 121 with configuration (121, 30, 2) at 0.0
# For goal service 7:
# n_min: 3
# n_max: 6
# lowest costs of the goal service 7 with configuration (7, 19, 6) at 0.0
# (7, 18, 1): 53931531.45719381
# (7, 18, 2): 54950760.57719381
# (7, 18, 3): 49552219.087535575
# (7, 18, 4): 35406771.40753557
# (7, 18, 5): 21261323.72753556
# (7, 18, 6): 7115876.047535583
# (7, 19, 1): 55795254.5974098
# (7, 19, 2): 56916345.477409795
# (7, 19, 3): 47216160.49471654
# (7, 19, 4): 28392846.323236555
# (7, 19, 5): 9569532.15175657
# (7, 19, 6): 0.0
# (7, 30, 1): 59553496.268306896
# (7, 30, 2): 60776536.268306896
# (7, 30, 3): 57015499.478569314
# (7, 30, 4): 37447359.085313305
# (7, 30, 5): 17879218.692057297
# (7, 30, 6): 4125652.814118892
# (24, 18, 1): 24612860.363021128
# (24, 18, 2): 13551905.53445606
# (24, 18, 3): 0.0
# (24, 18, 4): 1019229.1199999899
# (24, 19, 1): 38012677.02595728
# (24, 19, 2): 22134231.236018777
# (24, 19, 3): 11579853.521275632
# (24, 19, 4): 12700944.401275627
# (24, 30, 1): 37240190.564779125
# (24, 30, 2): 23682566.703147963
# (24, 30, 3): 10944793.082364082
# (24, 30, 4): 12167833.082364067
# (121, 18, 1): 15949471.951264836
# (121, 18, 2): 1804024.2712648362
# (121, 19, 1): 18348161.50904032
# (121, 19, 2): 1454466.4455816932
# (121, 30, 1): 18874046.039251007
# (121, 30, 2): 0.0
# (177, 18, 1): 20319851.537061684
# (177, 18, 2): 14500929.55384224
# (177, 18, 3): 355481.87384223193
# (177, 19, 1): 28126867.764470726
# (177, 19, 2): 18823314.171479993
# (177, 19, 3): 0.0
# (177, 30, 1): 27632769.367638975
# (177, 30, 2): 21773872.5316606
# (177, 30, 3): 2205732.138404593
# -------------------------------------------
