### Additional Information to the goal services
# Basic costs on route 24: 17622036.520984303
# Basic costs on route 177: -37834446.17777152
# Basic costs on route 121: 13975299.734952796
# Basic costs on route 7: 64399165.0819808
# Direct costs (not staggered):
# For goal service 24:
# n_min: 2
# n_max: 4
# lowest costs of the goal service 24 with configuration (24, 18, 3) at 0.0
# For goal service 177:
# n_min: 2
# n_max: 3
# lowest costs of the goal service 177 with configuration (177, 19, 3) at 0.0
# For goal service 121:
# n_min: 1
# n_max: 2
# lowest costs of the goal service 121 with configuration (121, 30, 2) at 0.0
# For goal service 7:
# n_min: 3
# n_max: 6
# lowest costs of the goal service 7 with configuration (7, 19, 6) at 0.0
# (7, 18, 1): 38374358.92146482
# (7, 18, 2): 39099579.64146482
# (7, 18, 3): 35258309.73536184
# (7, 18, 4): 25193279.65536184
# (7, 18, 5): 15128249.575361826
# (7, 18, 6): 5063219.495361857
# (7, 19, 1): 39700469.617387734
# (7, 19, 2): 40498168.897387736
# (7, 19, 3): 33596114.19816371
# (7, 19, 4): 20202602.191533692
# (7, 19, 5): 6809090.184903704
# (7, 19, 6): 0.0
# (7, 30, 1): 42374603.11398759
# (7, 30, 2): 43244843.11398759
# (7, 30, 3): 40568720.78282816
# (7, 30, 4): 26645236.27224215
# (7, 30, 5): 12721751.761656158
# (7, 30, 6): 2935560.6561999843
# (24, 18, 1): 17512996.796765048
# (24, 18, 2): 9642702.01490143
# (24, 18, 3): 0.0
# (24, 18, 4): 725220.7200000025
# (24, 19, 1): 27047481.730008084
# (24, 19, 2): 15749356.84101338
# (24, 19, 3): 8239511.159369193
# (24, 19, 4): 9037210.439369202
# (24, 30, 1): 26497827.901862074
# (24, 30, 2): 16851057.077239905
# (24, 30, 3): 7787641.231682144
# (24, 30, 4): 8657881.231682144
# (121, 18, 1): 11348662.734553833
# (121, 18, 2): 1283632.6545538343
# (121, 19, 1): 13055422.612201776
# (121, 19, 2): 1034908.8170485198
# (121, 30, 1): 13429609.681774754
# (121, 30, 2): 0.0
# (177, 18, 1): 14458355.901370808
# (177, 18, 2): 10317969.1056185
# (177, 18, 3): 252939.025618501
# (177, 19, 1): 20013348.21702724
# (177, 19, 2): 13393512.006629996
# (177, 19, 3): 0.0
# (177, 30, 1): 19661778.20389697
# (177, 30, 2): 15492947.762912348
# (177, 30, 3): 1569463.252326347
# -------------------------------------------
