### Additional Information to the goal services
# Basic costs on route 24: 0
# Basic costs on route 177: 0
# Basic costs on route 121: 0
# Basic costs on route 7: 0
# Direct costs (not staggered): 0
# For goal service 24:
# n_min: 3
# n_max: 3
# K on service: {18}
# For goal service 177:
# n_min: 3
# n_max: 3
# K on service: {18}
# For goal service 121:
# n_min: 2
# n_max: 2
# K on service: {30}
# For goal service 7:
# n_min: 6
# n_max: 6
# K on service: {19}
# -------------------------------------------
