### Additional Information to the goal services
# Basic costs on route 24: 7620340.117182402
# Basic costs on route 177: -16360841.590387683
# Basic costs on route 121: 6043372.858357969
# Basic costs on route 7: 27848287.603018716
# Direct costs (not staggered):
# For goal service 24:
# n_min: 2
# n_max: 4
# lowest costs of the goal service 24 with configuration (24, 18, 3) at 0.0
# For goal service 177:
# n_min: 2
# n_max: 3
# lowest costs of the goal service 177 with configuration (177, 19, 3) at 0.0
# For goal service 121:
# n_min: 1
# n_max: 2
# lowest costs of the goal service 121 with configuration (121, 30, 2) at 0.0
# For goal service 7:
# n_min: 3
# n_max: 6
# lowest costs of the goal service 7 with configuration (7, 19, 6) at 0.0
# (7, 18, 1): 16594317.371444255
# (7, 18, 2): 16907926.331444256
# (7, 18, 3): 15246836.642318644
# (7, 18, 4): 10894391.202318639
# (7, 18, 5): 6541945.762318641
# (7, 18, 6): 2189500.3223186433
# (7, 19, 1): 17167770.64535687
# (7, 19, 2): 17512721.68535687
# (7, 19, 3): 14528049.382989712
# (7, 19, 4): 8736260.407149717
# (7, 19, 5): 2944471.431309711
# (7, 19, 6): 0.0
# (7, 30, 1): 18324152.697940588
# (7, 30, 2): 18700472.697940588
# (7, 30, 3): 17543230.60879056
# (7, 30, 4): 11522264.333942562
# (7, 30, 5): 5501298.059094556
# (7, 30, 6): 1269431.6351135187
# (24, 18, 1): 7573187.804006506
# (24, 18, 2): 4169817.087524941
# (24, 18, 3): 0.0
# (24, 18, 4): 313608.9600000009
# (24, 19, 1): 11696208.315679165
# (24, 19, 2): 6810532.688005779
# (24, 19, 3): 3563031.8527002
# (24, 19, 4): 3907982.8927001953
# (24, 30, 1): 11458520.173778193
# (24, 30, 2): 7286943.6009686105
# (24, 30, 3): 3367628.640727408
# (24, 30, 4): 3743948.640727408
# (121, 18, 1): 4907529.831158412
# (121, 18, 2): 555084.3911584122
# (121, 19, 1): 5645588.15662779
# (121, 19, 2): 447528.13710206
# (121, 30, 1): 5807398.781308
# (121, 30, 2): 0.0
# (177, 18, 1): 6252262.011403587
# (177, 18, 2): 4461824.478105295
# (177, 18, 3): 109379.03810529783
# (177, 19, 1): 8654420.85060637
# (177, 19, 2): 5791788.975839991
# (177, 19, 3): 0.0
# (177, 30, 1): 8502390.574658144
# (177, 30, 2): 6699653.086664796
# (177, 30, 3): 678686.8118167967
# -------------------------------------------
