### Additional Information to the goal services
# Basic costs on route 24: 13335595.205069203
# Basic costs on route 177: -28631472.783178456
# Basic costs on route 121: 10575902.502126448
# Basic costs on route 7: 48734503.305282764
# Direct costs (not staggered):
# For goal service 24:
# n_min: 2
# n_max: 4
# lowest costs of the goal service 24 with configuration (24, 18, 3) at 0.0
# For goal service 177:
# n_min: 2
# n_max: 3
# lowest costs of the goal service 177 with configuration (177, 19, 3) at 0.0
# For goal service 121:
# n_min: 1
# n_max: 2
# lowest costs of the goal service 121 with configuration (121, 30, 2) at 0.0
# For goal service 7:
# n_min: 3
# n_max: 6
# lowest costs of the goal service 7 with configuration (7, 19, 6) at 0.0
# (7, 18, 1): 29040055.40002743
# (7, 18, 2): 29588871.080027424
# (7, 18, 3): 26681964.124057613
# (7, 18, 4): 19065184.604057617
# (7, 18, 5): 11448405.084057607
# (7, 18, 6): 3831625.564057611
# (7, 19, 1): 30043598.629374497
# (7, 19, 2): 30647262.949374504
# (7, 19, 3): 25424086.42023199
# (7, 19, 4): 15288455.712511986
# (7, 19, 5): 5152825.004791997
# (7, 19, 6): 0.0
# (7, 30, 1): 32067267.221396036
# (7, 30, 2): 32725827.221396036
# (7, 30, 3): 30700653.56538347
# (7, 30, 4): 20163962.58439947
# (7, 30, 5): 9627271.603415467
# (7, 30, 6): 2221505.361448653
# (24, 18, 1): 13253078.657011382
# (24, 18, 2): 7297179.9031686485
# (24, 18, 3): 0.0
# (24, 18, 4): 548815.6800000034
# (24, 19, 1): 20468364.552438553
# (24, 19, 2): 11918432.204010122
# (24, 19, 3): 6235305.742225349
# (24, 19, 4): 6838970.062225349
# (24, 30, 1): 20052410.30411184
# (24, 30, 2): 12752151.301695064
# (24, 30, 3): 5893350.121272966
# (24, 30, 4): 6551910.121272966
# (121, 18, 1): 8588177.204527214
# (121, 18, 2): 971397.6845272146
# (121, 19, 1): 9879779.274098635
# (121, 19, 2): 783174.2399286032
# (121, 30, 1): 10162947.867289
# (121, 30, 2): 0.0
# (177, 18, 1): 10941458.51995629
# (177, 18, 2): 7808192.836684272
# (177, 18, 3): 191413.31668427214
# (177, 19, 1): 15145236.48856116
# (177, 19, 2): 10135630.707720004
# (177, 19, 3): 0.0
# (177, 30, 1): 14879183.505651757
# (177, 30, 2): 11724392.9016634
# (177, 30, 3): 1187701.9206793979
# -------------------------------------------
