	Freetype 2.4.12 environment established
		library to render fonts
	Python 3.6.0 environment established
	Gurobi 8.1.0 environment established
Instance LSFRP: LSFDRP_1_4_0_1_fr.p
Instance LSFDP: LSFDRP_1_4_0_1_fd_40.p

Changed value of parameter Threads to 4
   Prev: 0  Min: 0  Max: 1024  Default: 0
Optimize a model with 42 rows, 39 columns and 144 nonzeros
Variable types: 0 continuous, 39 integer (39 binary)
Coefficient statistics:
  Matrix range     [1e+00, 6e+00]
  Objective range  [8e+05, 3e+08]
  Bounds range     [1e+00, 1e+00]
  RHS range        [1e+00, 6e+00]
Found heuristic solution: objective -2.72223e+08
Presolve removed 28 rows and 27 columns
Presolve time: 0.00s
Presolved: 14 rows, 12 columns, 50 nonzeros
Variable types: 0 continuous, 12 integer (12 binary)

Root relaxation: objective -0.000000e+00, 11 iterations, 0.00 seconds
Warning: Failed to open log file 'gurobi.log'

    Nodes    |    Current Node    |     Objective Bounds      |     Work
 Expl Unexpl |  Obj  Depth IntInf | Incumbent    BestBd   Gap | It/Node Time

*    0     0               0      -0.0000000   -0.00000  0.00%     -    0s

Explored 0 nodes (11 simplex iterations) in 0.01 seconds
Thread count was 4 (of 16 available processors)

Solution count 2: -0 -2.72223e+08 

Optimal solution found (tolerance 1.00e-04)
Best objective -0.000000000000e+00, best bound -0.000000000000e+00, gap 0.0000%

### Objective value in 1k: -0.00
### Objective value: -0.0000
### Gap: 0.0
###
### Service: vessel typ and number of vessels
### 7(ME3): 30, (PMax35), 6
### ---
### Charter vessels chartered in:
### ---
### Own vessels chartered out:
### ---
### End of overview

### All variables with value greater zero:
rho[7,30] = 1
eta[7,30,1] = 1
eta[7,30,2] = 1
eta[7,30,3] = 1
eta[7,30,4] = 1
eta[7,30,5] = 1
eta[7,30,6] = 1
y[9,7] = 1
y[10,7] = 1
y[11,7] = 1
y[12,7] = 1
y[17,7] = 1
y[18,7] = 1

### All variables with value zero:
rho[7,18] = 0
rho[7,19] = -0
eta[7,18,1] = -0
eta[7,18,2] = -0
eta[7,18,3] = -0
eta[7,18,4] = 0
eta[7,18,5] = 0
eta[7,18,6] = 0
eta[7,19,1] = 0
eta[7,19,2] = 0
eta[7,19,3] = 0
eta[7,19,4] = 0
eta[7,19,5] = 0
eta[7,19,6] = 0
y[1,7] = 0
y[2,7] = 0
y[3,7] = 0
y[4,7] = 0
y[5,7] = 0
y[6,7] = 0
y[7,7] = 0
y[8,7] = 0
y[13,7] = 0
y[14,7] = 0
y[15,7] = 0
y[16,7] = 0

### End

real	0m1.360s
user	0m0.201s
sys	0m0.093s
	Freetype 2.4.12 environment removed
	Python 3.6.0 environment removed
	Gurobi 8.1.0 environment removed
