### Additional Information to the goal services
# Basic costs on route 43: 58922372.28372898
# Direct costs (not staggered):
# For goal service 43:
# n_min: 5
# n_max: 8
# lowest costs of the goal service 43 with configuration (43, 18, 8) at 0.0
# (43, 18, 1): 32703345.17648498
# (43, 18, 2): 33369764.21648497
# (43, 18, 3): 34036183.25648501
# (43, 18, 4): 34702602.29648497
# (43, 18, 5): 27746839.68
# (43, 18, 6): 18497893.120000027
# (43, 18, 7): 9248946.560000025
# (43, 18, 8): 0.0
# -------------------------------------------
