### Additional Information to the goal services
# Basic costs on route 43: 79718503.67798628
# Direct costs (not staggered):
# For goal service 43:
# n_min: 5
# n_max: 8
# lowest costs of the goal service 43 with configuration (43, 18, 8) at 0.0
# (43, 18, 1): 44245702.29759732
# (43, 18, 2): 45147328.05759731
# (43, 18, 3): 46048953.817597345
# (43, 18, 4): 46950579.57759732
# (43, 18, 5): 37539841.92000002
# (43, 18, 6): 25026561.28000003
# (43, 18, 7): 12513280.639999986
# (43, 18, 8): 0.0
# -------------------------------------------
