### Additional Information to the goal services
# Basic costs on route 43: 22529142.34377873
# Direct costs (not staggered):
# For goal service 43:
# n_min: 5
# n_max: 8
# lowest costs of the goal service 43 with configuration (43, 18, 8) at 0.0
# (43, 18, 1): 12504220.214538373
# (43, 18, 2): 12759027.494538374
# (43, 18, 3): 13013834.774538375
# (43, 18, 4): 13268642.05453837
# (43, 18, 5): 10609085.760000002
# (43, 18, 6): 7072723.839999996
# (43, 18, 7): 3536361.9200000092
# (43, 18, 8): 0.0
# -------------------------------------------
