	OpenBLAS 0.2.6 environment established
		compiled with gcc for max. 16 cores
	Freetype 2.4.12 environment established
		library to render fonts
	Python 3.6.0 environment established
	Gurobi 8.1.0 environment established
Instance LSFRP: LSFDRP_4_3_5_1_fr.p
Instance LSFDP: LSFDRP_4_3_5_1_fd_22.p

*****************************************************************************************************************************
*** Solve LSFDRP_4_3_5_1_fd_22 with Gurobi
***
*** Graph info
*** |S|: 19
*** |S^E|: 0
*** |S^C|: 1
*** |V|: 347
*** |A|: 8382
*** |A^i|: 8382
*** |A^f|: 0
*** |M|: 343
*** |E|: 0

Changed value of parameter NumericFocus to 1
   Prev: 0  Min: 0  Max: 3  Default: 0
Changed value of parameter TimeLimit to 86400.0
   Prev: 1e+100  Min: 0.0  Max: 1e+100  Default: 1e+100
Changed value of parameter Threads to 4
   Prev: 0  Min: 0  Max: 1024  Default: 0
Optimize a model with 143928 rows, 3051766 columns and 10894529 nonzeros
Variable types: 2892487 continuous, 159279 integer (159279 binary)
Coefficient statistics:
  Matrix range     [1e+00, 4e+03]
  Objective range  [4e+01, 1e+08]
  Bounds range     [1e+00, 1e+00]
  RHS range        [1e+00, 6e+00]
Presolve removed 123760 rows and 2874114 columns (presolve time = 5s) ...
Presolve removed 135999 rows and 2911010 columns (presolve time = 12s) ...
Presolve removed 135999 rows and 2917430 columns (presolve time = 56s) ...
Presolve removed 136122 rows and 2917659 columns (presolve time = 62s) ...
Presolve removed 136122 rows and 2917659 columns
Presolve time: 62.14s
Presolved: 7806 rows, 134107 columns, 459167 nonzeros
Variable types: 4838 continuous, 129269 integer (129230 binary)

Root simplex log...

Iteration    Objective       Primal Inf.    Dual Inf.      Time
       0    9.3489767e+09   1.384416e+06   0.000000e+00     64s
   11527    4.4823972e+07   2.827705e+04   0.000000e+00     65s
   23572    1.0198840e+07   1.600720e+05   0.000000e+00     70s
   29896    8.6051050e+06   9.765673e+04   0.000000e+00     75s
   34689    7.5050291e+06   6.908557e+04   0.000000e+00     80s
   39659    5.6178655e+06   2.000045e+04   0.000000e+00     85s
   41593    5.4073849e+06   0.000000e+00   0.000000e+00     88s

Root relaxation: objective 5.407385e+06, 41593 iterations, 23.80 seconds

    Nodes    |    Current Node    |     Objective Bounds      |     Work
 Expl Unexpl |  Obj  Depth IntInf | Incumbent    BestBd   Gap | It/Node Time

     0     0 5407384.87    0  177          - 5407384.87      -     -   90s
H    0     0                    -655768.2625 5407384.87   925%     -   91s
H    0     0                    992124.33930 5407384.87   445%     -  153s
     0     0 3492564.36    0  154 992124.339 3492564.36   252%     -  165s
     0     0 3492564.36    0  131 992124.339 3492564.36   252%     -  178s
     0     0 3490336.63    0  165 992124.339 3490336.63   252%     -  181s
     0     0 3303670.52    0  132 992124.339 3303670.52   233%     -  181s
     0     0 3298690.18    0  126 992124.339 3298690.18   232%     -  181s
     0     0 3298690.18    0  126 992124.339 3298690.18   232%     -  181s
     0     0 3095025.14    0  135 992124.339 3095025.14   212%     -  182s
     0     0 3086955.86    0  144 992124.339 3086955.86   211%     -  183s
     0     0 3086545.75    0  148 992124.339 3086545.75   211%     -  183s
     0     0 3086222.23    0  149 992124.339 3086222.23   211%     -  183s
     0     0 3084304.48    0  138 992124.339 3084304.48   211%     -  183s
     0     0 3084304.48    0  135 992124.339 3084304.48   211%     -  186s
     0     0 3084304.48    0  165 992124.339 3084304.48   211%     -  189s
     0     0 3084304.48    0  173 992124.339 3084304.48   211%     -  190s
     0     0 3084304.48    0  165 992124.339 3084304.48   211%     -  190s
     0     0 3062483.64    0  146 992124.339 3062483.64   209%     -  191s
     0     0 3056828.76    0  145 992124.339 3056828.76   208%     -  191s
     0     0 3054248.47    0  136 992124.339 3054248.47   208%     -  191s
     0     0 3054247.60    0  136 992124.339 3054247.60   208%     -  191s
     0     0 3044400.55    0  154 992124.339 3044400.55   207%     -  192s
     0     0 3044352.16    0  153 992124.339 3044352.16   207%     -  192s
     0     0 3038891.26    0  142 992124.339 3038891.26   206%     -  192s
     0     0 3038062.03    0  154 992124.339 3038062.03   206%     -  193s
     0     0 3038048.49    0  142 992124.339 3038048.49   206%     -  193s
     0     0 3036863.66    0  142 992124.339 3036863.66   206%     -  193s
     0     0 3036784.51    0  142 992124.339 3036784.51   206%     -  193s
     0     0 3035905.43    0  142 992124.339 3035905.43   206%     -  193s
     0     0 3035905.43    0  142 992124.339 3035905.43   206%     -  193s
     0     0 3035862.54    0  142 992124.339 3035862.54   206%     -  193s
     0     0 3035584.44    0  142 992124.339 3035584.44   206%     -  193s
     0     0 3035580.09    0  142 992124.339 3035580.09   206%     -  193s
     0     0 3034578.79    0  146 992124.339 3034578.79   206%     -  193s
     0     0 3034527.37    0  142 992124.339 3034527.37   206%     -  194s
     0     0 3034118.47    0  141 992124.339 3034118.47   206%     -  194s
     0     0 3033676.01    0  141 992124.339 3033676.01   206%     -  194s
     0     0 3033676.01    0  141 992124.339 3033676.01   206%     -  194s
     0     0 3033336.67    0  141 992124.339 3033336.67   206%     -  194s
     0     0 3032948.28    0  142 992124.339 3032948.28   206%     -  194s
     0     0 3032943.52    0  142 992124.339 3032943.52   206%     -  194s
     0     0 3032416.80    0  142 992124.339 3032416.80   206%     -  194s
     0     0 3032416.80    0  137 992124.339 3032416.80   206%     -  197s
     0     2 3032416.80    0  137 992124.339 3032416.80   206%     -  198s
     1     5 2907922.50    1  136 992124.339 3011221.19   204%   850  200s
    19    21 2682743.99    6  150 992124.339 2912546.57   194%   667  205s
H   57    44                    1054404.8105 2912546.57   176%   683  213s
    82    62 2210018.13   15   84 1054404.81 2912546.57   176%   596  215s
   106    81 2071742.28   20  112 1054404.81 2912546.57   176%   541  223s
   115    82 2062695.67   21  100 1054404.81 2912546.57   176%   545  225s
   266   148 1932048.05    5  101 1054404.81 2720591.27   158%   381  231s
   375   206     cutoff   10      1054404.81 2636480.72   150%   378  235s
   613   335 2415436.39   22  101 1054404.81 2625261.64   149%   324  240s
   756   410 2211923.29   14  162 1054404.81 2607012.50   147%   320  245s
   965   558 1450551.33   11  102 1054404.81 2581286.16   145%   321  250s
  1051   592 2355239.26   10  154 1054404.81 2560664.64   143%   320  275s
  1055   595 2010609.07   16  168 1054404.81 2560664.64   143%   319  281s
  1073   607 2036669.16   33  153 1054404.81 2560664.64   143%   313  285s
  1092   619 2355239.26   10  164 1054404.81 2560664.64   143%   308  290s
  1109   634 2560664.64   11  155 1054404.81 2560664.64   143%   326  303s
  1111   637 2560664.64   12  154 1054404.81 2560664.64   143%   327  311s
  1123   645 2560664.64   14  152 1054404.81 2560664.64   143%   339  315s
H 1138   614                    1079769.2129 2560664.64   137%   343  319s
  1142   620 2519811.99   16   91 1079769.21 2560664.64   137%   345  320s
  1187   635 2480039.29   22   87 1079769.21 2560664.64   137%   361  325s
  1237   644 1896064.73   25   95 1079769.21 2560664.64   137%   364  330s
  1357   652 2368390.10   35   98 1079769.21 2560664.64   137%   367  335s
  1456   654 1436944.65   18  121 1079769.21 2502941.02   132%   375  340s
  1574   643 1310498.67   31   65 1079769.21 2458714.36   128%   377  345s
  1664   661 1350878.44   25  141 1079769.21 2423863.06   124%   373  350s
  1823   679 1866582.56   20   75 1079769.21 2384981.11   121%   374  355s
  1931   696 1817163.95   20  124 1079769.21 2336272.31   116%   373  360s
  2198   715 1960914.15   33  126 1079769.21 2259098.24   109%   364  366s
  2401   753     cutoff   25      1079769.21 2243011.91   108%   363  371s
  2586   745 2096361.10   18  143 1079769.21 2229872.93   107%   361  375s
  2763   742 1203651.97   24   37 1079769.21 2164279.78   100%   367  381s
  2954   768 1908411.89   46   59 1079769.21 2148128.38  98.9%   367  386s
H 2958   768                    1079769.2134 2148128.38  98.9%   366  386s
  3114   821 1534163.78   89   82 1079769.21 2137765.14  98.0%   365  392s
  3205   852 1488261.71   33   77 1079769.21 2127518.76  97.0%   363  395s
  3427   924 1746395.07   21  105 1079769.21 2097617.05  94.3%   364  400s
  3616   990 1517493.61   22  116 1079769.21 2073363.67  92.0%   363  406s
  3928  1105 1782644.29   18  121 1079769.21 2050914.74  89.9%   361  413s
H 3941  1105                    1079769.2139 2050914.74  89.9%   362  413s
  3985  1108 1511480.24   30   96 1079769.21 2040059.95  88.9%   364  416s
  4051  1111     cutoff   36      1079769.21 2036492.71  88.6%   366  420s
  4363  1195 1596429.07   32   81 1079769.21 1997756.32  85.0%   361  428s
  4549  1268 infeasible   32      1079769.21 1994353.89  84.7%   356  432s
  4703  1298 infeasible   37      1079769.21 1988247.08  84.1%   353  436s
  4866  1341     cutoff   25      1079769.21 1984028.18  83.7%   355  441s
H 5026  1374                    1079769.2144 1982049.16  83.6%   352  441s
  5074  1397 1657430.70   15  122 1079769.21 1972974.11  82.7%   351  445s
  5296  1454 1811093.12   22  100 1079769.21 1963096.35  81.8%   347  450s
  5390  1458     cutoff   21      1079769.21 1953446.35  80.9%   350  455s
  5654  1550 1358287.30   40   39 1079769.21 1937087.09  79.4%   348  460s
  5942  1626 1162842.72   25  135 1079769.21 1933157.35  79.0%   341  465s
  6253  1691     cutoff   27      1079769.21 1924016.87  78.2%   338  470s
  6548  1748 1617107.69   29  127 1079769.21 1907572.88  76.7%   337  475s
  6715  1773     cutoff   45      1079769.21 1895539.28  75.6%   337  480s
  7010  1818 1391962.65   44  159 1079769.21 1882929.71  74.4%   336  485s
  7308  1868 1159753.66   19  100 1079769.21 1864870.70  72.7%   336  491s
  7649  1941     cutoff   23      1079769.21 1850474.20  71.4%   335  497s
  7966  1978 1244720.59   34   29 1079769.21 1843358.13  70.7%   334  504s
  8372  2105 1738752.33   24  121 1079769.21 1837298.25  70.2%   331  511s
  8550  2083 1384699.85   39  114 1079769.21 1835921.41  70.0%   329  518s
  8980  2140     cutoff   29      1079769.21 1797523.36  66.5%   328  527s
  9390  2183 1417349.29   52   49 1079769.21 1784647.70  65.3%   325  535s
  9772  2241     cutoff   27      1079769.21 1767449.24  63.7%   327  544s
 10063  2273 1482873.68   30   42 1079769.21 1756722.03  62.7%   325  553s
 10507  2361 1334081.50   44  129 1079769.21 1750037.42  62.1%   321  567s
 10984  2440     cutoff   23      1079769.21 1748000.01  61.9%   320  576s
 11469  2524 1190207.70   20  143 1079769.21 1735748.20  60.8%   319  585s
 12013  2633 1600133.30   32   31 1079769.21 1699671.22  57.4%   318  592s
 12497  2641     cutoff   24      1079769.21 1680654.29  55.6%   318  600s
 13011  2710 1617575.15   27   85 1079769.21 1671798.63  54.8%   317  606s
 13493  2746 1646514.80   30   69 1079769.21 1655634.82  53.3%   316  613s
 13930  2713 1549153.08   31   74 1079769.21 1642492.40  52.1%   314  620s
 14436  2745 1136294.23   37   32 1079769.21 1628606.51  50.8%   311  626s
 14869  2736     cutoff   26      1079769.21 1614937.31  49.6%   310  632s
 15332  2733 1522724.01   30   37 1079769.21 1610929.23  49.2%   308  639s
 15699  2757     cutoff   34      1079769.21 1596429.07  47.8%   308  655s
 15961  2704 1092004.11   30   66 1079769.21 1590430.91  47.3%   308  662s
 16452  2685 1128305.52   38   44 1079769.21 1577361.16  46.1%   306  668s
 16901  2670     cutoff   38      1079769.21 1565728.57  45.0%   305  675s
 17338  2669     cutoff   25      1079769.21 1560092.08  44.5%   304  680s
 18126  2702 1183132.84   37   69 1079769.21 1534638.22  42.1%   301  693s
 18176  2615     cutoff   40      1079769.21 1533003.89  42.0%   301  698s
 18546  2592 1492887.86   23   78 1079769.21 1522684.03  41.0%   301  704s
 18994  2592 1428886.55   40   43 1079769.21 1514013.34  40.2%   300  708s
 19398  2561 1499800.19   22  149 1079769.21 1503410.10  39.2%   298  713s
 19773  2508 1404616.36   24   83 1079769.21 1493424.40  38.3%   298  717s
 20076  2448     cutoff   36      1079769.21 1481738.58  37.2%   297  722s
 20466  2433     cutoff   40      1079769.21 1473388.84  36.5%   296  726s
 20814  2390 1281913.39   47   32 1079769.21 1464112.37  35.6%   295  730s
 21225  2358     cutoff   27      1079769.21 1458884.55  35.1%   294  735s
 21568  2329     cutoff   35      1079769.21 1446737.84  34.0%   294  741s
 21931  2292 1359257.81   30  124 1079769.21 1441996.11  33.5%   294  745s
 22334  2267     cutoff   33      1079769.21 1428567.97  32.3%   293  751s
 22672  2216 1231395.98   37  130 1079769.21 1420630.50  31.6%   293  755s
 23239  2096 1257749.43   29   68 1079769.21 1404418.19  30.1%   292  762s
 23542  2059     cutoff   29      1079769.21 1396449.49  29.3%   291  766s
 24169  1963 1377164.76   26   78 1079769.21 1381445.18  27.9%   289  772s
 24456  1922 1375211.76   32   24 1079769.21 1375211.76  27.4%   289  776s
 25006  1801 1340405.67   22   66 1079769.21 1357301.21  25.7%   287  782s
 25282  1735 1322775.08   38   49 1079769.21 1350980.14  25.1%   286  786s
 25880  1613 1315749.59   29   59 1079769.21 1336391.93  23.8%   285  792s
 26368  1478 1247240.29   25  100 1079769.21 1323516.06  22.6%   284  796s
 26917  1371 1296462.55   32   45 1079769.21 1307497.42  21.1%   282  801s
 27359  1223     cutoff   30      1079769.21 1292727.04  19.7%   281  806s
 27851  1085     cutoff   38      1079769.21 1278772.16  18.4%   279  810s
 28515   891 infeasible   33      1079769.21 1256183.97  16.3%   277  817s
 28923   735     cutoff   28      1079769.21 1238270.90  14.7%   276  820s
 29528   503     cutoff   41      1079769.21 1210624.96  12.1%   274  825s
 30337    98     cutoff   32      1079769.21 1147858.02  6.31%   271  830s

Cutting planes:
  Gomory: 16
  Implied bound: 63
  Projected implied bound: 5
  MIR: 56
  Flow cover: 283

Explored 30579 nodes (8348128 simplex iterations) in 831.92 seconds
Thread count was 4 (of 16 available processors)

Solution count 7: 1.07977e+06 1.07977e+06 1.07977e+06 ... -655768
No other solutions better than 1.07977e+06

Optimal solution found (tolerance 1.00e-04)
Best objective 1.079769214359e+06, best bound 1.079769214359e+06, gap 0.0000%

***
***  |- Calculation finished, took 831.96 (831.96) sec.
***  |-----------------------------------------------------------------------------------------------------------------------
***
*****************************************************************************************************************************
#############################################################################################################################
###
### Results
###
### The objective of the solution is 1,079,769.2144 (1079769.2144) and is feasible with a Gap of 0.0
###
### Service 81 (MECL1) is operated by 6 vessels from type 30 (PMax35)
###  |- Vessel  9 has the path [9, 332, 326, 342, 333, 324, 4, 294, 284, 7, 298, 196, 0]
###  |  9 (BEANR Out@344.0) - 332 (USEWR In@608.0/Out@618.0) - 326 (USCHS In@656.0/Out@666.0) - 342 (USORF In@691.0/Out@704.0
###  |  ) - 333 (USEWR In@728.0/Out@744.0) - 324 (TRZMK In@1063.0/Out@1077.0) - 4 (AEJEA In@1177.0/Out@1201.0) - 294 (PKBQM I
###  |  n@1258.0/Out@1288.0) - 284 (OMSLL In@1410.0/Out@1423.0) - 7 (AEJEA In@1681.0/Out@1705.0) - 298 (PKBQM In@1762.0/Out@1
###  |  792.0) - 196 (INNSA In@1856.0/Out@1872.0) - 0 (DUMMY_END Ziel-Service 81)
###  |   |- and carried Demand 237,   34.0 containers from 298 to 196
###  |   |- and carried Demand 238,   84.0 containers from   7 to 298
###  |   |- and carried Demand 239,   50.0 containers from   7 to 298
###  |   |- and carried Demand 297,  254.0 containers from 294 to 196
###  |   |- and carried Demand 298,    1.0 containers from 294 to 196
###  |   |- and carried Demand 299,  135.0 containers from 294 to 196
###  |   |- and carried Demand 302,   75.0 containers from   4 to 196
###  |   |- and carried Demand 303,  200.0 containers from   4 to 294
###  |   |- and carried Demand 304,   24.0 containers from   4 to 294
###  |   |- and carried Demand 305,   26.0 containers from   4 to 196
###  |   |- and carried Demand 306,  144.0 containers from   4 to 196
###  |   |- and carried Demand 307,    1.0 containers from   4 to 196
###  |   |- and carried Demand 309,  339.0 containers from 342 to   4
###  |   |- and carried Demand 310,  115.0 containers from 342 to   4
###  |   |- and carried Demand 311,    3.0 containers from 342 to 284
###  |   |- and carried Demand 312,    2.0 containers from 342 to 294
###  |   |- and carried Demand 313,  194.0 containers from 326 to   4
###  |   |- and carried Demand 314,   49.0 containers from 326 to   4
###  |   |- and carried Demand 315,   40.0 containers from 326 to 294
###  |   |- and carried Demand 318,  842.0 containers from 332 to   4
###  |   |- and carried Demand 319,   99.0 containers from 332 to   4
###  |   |- and carried Demand 320,  123.0 containers from 332 to 294
###  |   |- and carried Demand 321,    1.0 containers from 332 to 294
###  |- Vessel 10 has the path [10, 316, 190, 0]
###  |  10 (BEANR Out@512.0) - 316 (TRAMB In@854.0/Out@881.0) - 190 (INNSA In@1016.0/Out@1032.0) - 0 (DUMMY_END Ziel-Service 
###  |  81)
###  |- Vessel 11 has the path [13, 313, 191, 0]
###  |  13 (BEANR Out@680.0) - 313 (TRALI In@946.0/Out@964.0) - 191 (INNSA In@1184.0/Out@1200.0) - 0 (DUMMY_END Ziel-Service 
###  |  81)
###  |- Vessel 12 has the path [16, 314, 192, 0]
###  |  16 (BEANR Out@848.0) - 314 (TRALI In@1114.0/Out@1132.0) - 192 (INNSA In@1352.0/Out@1368.0) - 0 (DUMMY_END Ziel-Servic
###  |  e 81)
###  |- Vessel 17 has the path [158, 2, 291, 292, 293, 283, 5, 295, 194, 195, 0]
###  |  158 (GBFXT Out@580.0) - 2 (AEJEA In@841.0/Out@865.0) - 291 (PKBQM In@922.0/Out@952.0) - 292 (PKBQM In@992.0/Out@1020.
###  |  0) - 293 (PKBQM In@1090.0/Out@1120.0) - 283 (OMSLL In@1167.0/Out@1182.0) - 5 (AEJEA In@1345.0/Out@1369.0) - 295 (PKBQ
###  |  M In@1426.0/Out@1456.0) - 194 (INNSA In@1590.0/Out@1622.0) - 195 (INNSA In@1688.0/Out@1704.0) - 0 (DUMMY_END Ziel-Ser
###  |  vice 81)
###  |   |- and carried Demand 120,  237.0 containers from 292 to 194
###  |   |- and carried Demand 121,    2.0 containers from 292 to 194
###  |   |- and carried Demand 123,   97.0 containers from 292 to 194
###  |   |- and carried Demand 283,  153.0 containers from   5 to 195
###  |   |- and carried Demand 284,   86.0 containers from   5 to 295
###  |   |- and carried Demand 285,  118.0 containers from   5 to 295
###  |   |- and carried Demand 323,  244.0 containers from 293 to 195
###  |   |- and carried Demand 324,   67.0 containers from 293 to 195
###  |   |- and carried Demand 333,  237.0 containers from 291 to 194
###  |   |- and carried Demand 334,    2.0 containers from 291 to 194
###  |   |- and carried Demand 336,   97.0 containers from 291 to 194
###  |   |- and carried Demand 338,  704.0 containers from   2 to 195
###  |   |- and carried Demand 339,    8.0 containers from   2 to 195
###  |   |- and carried Demand 340,  156.0 containers from   2 to 291
###  |   |- and carried Demand 341,   45.0 containers from   2 to 291
###  |   |- and carried Demand 342,   16.0 containers from   2 to 194
###  |   |- and carried Demand 343,  264.0 containers from   2 to 194
###  |- Vessel 18 has the path [161, 321, 193, 0]
###  |  161 (GBFXT Out@748.0) - 321 (TRGEM In@1087.0/Out@1095.0) - 193 (INNSA In@1520.0/Out@1536.0) - 0 (DUMMY_END Ziel-Servi
###  |  ce 81)
###  |
### Vessels not used in the solution: [1, 2, 3, 4, 5, 6, 7, 8, 13, 14, 15, 16, 22]
###  |-----------------------------------------------------------------------------------------------------------------------
###
#############################################################################################################################

### Detialed variable overview

### All variables with value greater zero:
rho[81,30] = 1
eta[81,30,1] = 1
eta[81,30,2] = 1
eta[81,30,3] = 1
eta[81,30,4] = 1
eta[81,30,5] = 1
eta[81,30,6] = 1
y[9,4,294] = 1
y[9,332,326] = 1
y[9,294,284] = 1
y[9,284,7] = 1
y[9,342,333] = 1
y[9,9,332] = 1
y[9,324,4] = 1
y[9,7,298] = 1
y[9,196,0] = 1
y[9,333,324] = 1
y[9,298,196] = 1
y[9,326,342] = 1
y[10,190,0] = 1
y[10,316,190] = 1
y[10,10,316] = 1
y[11,313,191] = 1
y[11,191,0] = 1
y[11,13,313] = 1
y[12,192,0] = 1
y[12,314,192] = 1
y[12,16,314] = 1
y[17,283,5] = 1
y[17,293,283] = 1
y[17,195,0] = 1
y[17,5,295] = 1
y[17,292,293] = 1
y[17,194,195] = 1
y[17,291,292] = 1
y[17,295,194] = 1
y[17,2,291] = 1
y[17,158,2] = 1
y[18,161,321] = 1
y[18,193,0] = 1
y[18,321,193] = 1
xD[120,283,5] = 237
xD[120,293,283] = 237
xD[120,5,295] = 237
xD[120,292,293] = 237
xD[120,295,194] = 237
xD[121,283,5] = 2
xD[121,293,283] = 2
xD[121,5,295] = 2
xD[121,292,293] = 2
xD[121,295,194] = 2
xD[123,283,5] = 97
xD[123,293,283] = 97
xD[123,5,295] = 97
xD[123,292,293] = 97
xD[123,295,194] = 97
xD[237,298,196] = 34
xD[238,7,298] = 84
xD[239,7,298] = 50
xD[283,5,295] = 153
xD[283,194,195] = 153
xD[283,295,194] = 153
xD[284,5,295] = 86
xD[285,5,295] = 118
xD[297,294,284] = 254
xD[297,284,7] = 254
xD[297,7,298] = 254
xD[297,298,196] = 254
xD[298,294,284] = 1
xD[298,284,7] = 1
xD[298,7,298] = 1
xD[298,298,196] = 1
xD[299,294,284] = 135
xD[299,284,7] = 135
xD[299,7,298] = 135
xD[299,298,196] = 135
xD[302,4,294] = 75
xD[302,294,284] = 75
xD[302,284,7] = 75
xD[302,7,298] = 75
xD[302,298,196] = 75
xD[303,4,294] = 200
xD[304,4,294] = 24
xD[305,4,294] = 26
xD[305,294,284] = 26
xD[305,284,7] = 26
xD[305,7,298] = 26
xD[305,298,196] = 26
xD[306,4,294] = 144
xD[306,294,284] = 144
xD[306,284,7] = 144
xD[306,7,298] = 144
xD[306,298,196] = 144
xD[307,4,294] = 1
xD[307,294,284] = 1
xD[307,284,7] = 1
xD[307,7,298] = 1
xD[307,298,196] = 1
xD[309,342,333] = 339
xD[309,324,4] = 339
xD[309,333,324] = 339
xD[310,342,333] = 115
xD[310,324,4] = 115
xD[310,333,324] = 115
xD[311,4,294] = 3
xD[311,294,284] = 3
xD[311,342,333] = 3
xD[311,324,4] = 3
xD[311,333,324] = 3
xD[312,4,294] = 2
xD[312,342,333] = 2
xD[312,324,4] = 2
xD[312,333,324] = 2
xD[313,342,333] = 194
xD[313,324,4] = 194
xD[313,333,324] = 194
xD[313,326,342] = 194
xD[314,342,333] = 49
xD[314,324,4] = 49
xD[314,333,324] = 49
xD[314,326,342] = 49
xD[315,4,294] = 40
xD[315,342,333] = 40
xD[315,324,4] = 40
xD[315,333,324] = 40
xD[315,326,342] = 40
xD[318,332,326] = 842
xD[318,342,333] = 842
xD[318,324,4] = 842
xD[318,333,324] = 842
xD[318,326,342] = 842
xD[319,332,326] = 99
xD[319,342,333] = 99
xD[319,324,4] = 99
xD[319,333,324] = 99
xD[319,326,342] = 99
xD[320,4,294] = 123
xD[320,332,326] = 123
xD[320,342,333] = 123
xD[320,324,4] = 123
xD[320,333,324] = 123
xD[320,326,342] = 123
xD[321,4,294] = 1
xD[321,332,326] = 1
xD[321,342,333] = 1
xD[321,324,4] = 1
xD[321,333,324] = 1
xD[321,326,342] = 1
xD[323,283,5] = 244
xD[323,293,283] = 244
xD[323,5,295] = 244
xD[323,194,195] = 244
xD[323,295,194] = 244
xD[324,283,5] = 67
xD[324,293,283] = 67
xD[324,5,295] = 67
xD[324,194,195] = 67
xD[324,295,194] = 67
xD[333,283,5] = 237
xD[333,293,283] = 237
xD[333,5,295] = 237
xD[333,292,293] = 237
xD[333,291,292] = 237
xD[333,295,194] = 237
xD[334,283,5] = 2
xD[334,293,283] = 2
xD[334,5,295] = 2
xD[334,292,293] = 2
xD[334,291,292] = 2
xD[334,295,194] = 2
xD[336,283,5] = 97
xD[336,293,283] = 97
xD[336,5,295] = 97
xD[336,292,293] = 97
xD[336,291,292] = 97
xD[336,295,194] = 97
xD[338,283,5] = 704
xD[338,293,283] = 704
xD[338,5,295] = 704
xD[338,292,293] = 704
xD[338,194,195] = 704
xD[338,291,292] = 704
xD[338,295,194] = 704
xD[338,2,291] = 704
xD[339,283,5] = 8
xD[339,293,283] = 8
xD[339,5,295] = 8
xD[339,292,293] = 8
xD[339,194,195] = 8
xD[339,291,292] = 8
xD[339,295,194] = 8
xD[339,2,291] = 8
xD[340,2,291] = 156
xD[341,2,291] = 45
xD[342,283,5] = 16
xD[342,293,283] = 16
xD[342,5,295] = 16
xD[342,292,293] = 16
xD[342,291,292] = 16
xD[342,295,194] = 16
xD[342,2,291] = 16
xD[343,283,5] = 264
xD[343,293,283] = 264
xD[343,5,295] = 264
xD[343,292,293] = 264
xD[343,291,292] = 264
xD[343,295,194] = 264
xD[343,2,291] = 264
zE[2] = 841
zE[4] = 1177
zE[5] = 1345
zE[7] = 1681
zE[190] = 1016
zE[191] = 1184
zE[192] = 1352
zE[193] = 1520
zE[194] = 1590
zE[195] = 1688
zE[196] = 1856
zE[283] = 1167
zE[284] = 1410
zE[291] = 922
zE[292] = 992
zE[293] = 1090
zE[294] = 1258
zE[295] = 1426
zE[298] = 1762
zE[313] = 946
zE[314] = 1114
zE[316] = 854
zE[321] = 1087
zE[324] = 1063
zE[326] = 656
zE[332] = 608
zE[333] = 728
zE[342] = 691
zX[2] = 865
zX[4] = 1201
zX[5] = 1369
zX[7] = 1705
zX[9] = 344
zX[10] = 512
zX[13] = 680
zX[16] = 848
zX[158] = 580
zX[161] = 748
zX[190] = 1032
zX[191] = 1200
zX[192] = 1368
zX[193] = 1536
zX[194] = 1622
zX[195] = 1704
zX[196] = 1872
zX[283] = 1182
zX[284] = 1423
zX[291] = 952
zX[292] = 1020
zX[293] = 1120
zX[294] = 1288
zX[295] = 1456
zX[298] = 1792
zX[313] = 964
zX[314] = 1132
zX[316] = 881
zX[321] = 1095
zX[324] = 1077
zX[326] = 666
zX[332] = 618
zX[333] = 744
zX[342] = 704
phi[9] = 1528
phi[10] = 520
phi[11] = 520
phi[12] = 520
phi[17] = 1124
phi[18] = 788

### All variables with value smaller zero:

### End

real	17m37.344s
user	52m35.632s
sys	2m19.124s
	OpenBLAS 0.2.6 environment removed
	Freetype 2.4.12 environment removed
	Python 3.6.0 environment removed
	Gurobi 8.1.0 environment removed
