	OpenBLAS 0.2.6 environment established
		compiled with gcc for max. 16 cores
	Freetype 2.4.12 environment established
		library to render fonts
	Python 3.6.0 environment established
	Gurobi 8.1.0 environment established
Instance LSFRP: LSFDRP_4_3_5_1_fr.p
Instance LSFDP: LSFDRP_4_3_5_1_fd_25.p

*****************************************************************************************************************************
*** Solve LSFDRP_4_3_5_1_fd_25 with Gurobi
***
*** Graph info
*** |S|: 19
*** |S^E|: 0
*** |S^C|: 1
*** |V|: 347
*** |A|: 8382
*** |A^i|: 8382
*** |A^f|: 0
*** |M|: 343
*** |E|: 0

Changed value of parameter NumericFocus to 1
   Prev: 0  Min: 0  Max: 3  Default: 0
Changed value of parameter TimeLimit to 86400.0
   Prev: 1e+100  Min: 0.0  Max: 1e+100  Default: 1e+100
Changed value of parameter Threads to 4
   Prev: 0  Min: 0  Max: 1024  Default: 0
Optimize a model with 143928 rows, 3051766 columns and 10894529 nonzeros
Variable types: 2892487 continuous, 159279 integer (159279 binary)
Coefficient statistics:
  Matrix range     [1e+00, 4e+03]
  Objective range  [4e+01, 2e+08]
  Bounds range     [1e+00, 1e+00]
  RHS range        [1e+00, 6e+00]
Presolve removed 51328 rows and 2007570 columns (presolve time = 5s) ...
Presolve removed 135897 rows and 2910659 columns (presolve time = 10s) ...
Presolve removed 135999 rows and 2911010 columns (presolve time = 15s) ...
Presolve removed 135999 rows and 2917430 columns (presolve time = 57s) ...
Presolve removed 136122 rows and 2917659 columns (presolve time = 61s) ...
Presolve removed 136122 rows and 2917659 columns
Presolve time: 63.39s
Presolved: 7806 rows, 134107 columns, 459167 nonzeros
Variable types: 4838 continuous, 129269 integer (129230 binary)

Root simplex log...

Iteration    Objective       Primal Inf.    Dual Inf.      Time
       0    9.3489767e+09   1.384416e+06   0.000000e+00     66s
   20443    1.1330575e+07   8.858723e+05   0.000000e+00     70s
   26089    9.2950774e+06   2.145154e+05   0.000000e+00     75s
   31179    7.9838531e+06   5.741593e+04   0.000000e+00     80s
   35329    6.9576168e+06   5.470694e+04   0.000000e+00     85s
   38959    5.5062048e+06   4.433464e+04   0.000000e+00     90s
   40472    5.4073849e+06   0.000000e+00   0.000000e+00     93s

Root relaxation: objective 5.407385e+06, 40472 iterations, 27.10 seconds

    Nodes    |    Current Node    |     Objective Bounds      |     Work
 Expl Unexpl |  Obj  Depth IntInf | Incumbent    BestBd   Gap | It/Node Time

     0     0 5407384.87    0  171          - 5407384.87      -     -   94s
H    0     0                    -596794.2625 5407384.87  1006%     -   95s
H    0     0                    590916.13250 5407384.87   815%     -  116s
     0     0 5128432.74    0  163 590916.133 5128432.74   768%     -  123s
     0     0 5128432.74    0  146 590916.133 5128432.74   768%     -  133s
     0     0 5128432.74    0  158 590916.133 5128432.74   768%     -  139s
     0     0 5124768.56    0  177 590916.133 5124768.56   767%     -  141s
     0     0 5097902.53    0  169 590916.133 5097902.53   763%     -  141s
     0     0 5095185.52    0  182 590916.133 5095185.52   762%     -  141s
     0     0 5095052.27    0  185 590916.133 5095052.27   762%     -  142s
     0     0 5095046.48    0  185 590916.133 5095046.48   762%     -  142s
     0     0 5022429.47    0  165 590916.133 5022429.47   750%     -  142s
     0     0 5019367.50    0  176 590916.133 5019367.50   749%     -  143s
     0     0 5019367.50    0  176 590916.133 5019367.50   749%     -  143s
     0     0 5001784.52    0  178 590916.133 5001784.52   746%     -  143s
     0     0 5001784.52    0  180 590916.133 5001784.52   746%     -  143s
     0     0 4990983.13    0  181 590916.133 4990983.13   745%     -  143s
     0     0 4990286.93    0  182 590916.133 4990286.93   745%     -  144s
     0     0 4990278.86    0  184 590916.133 4990278.86   744%     -  144s
     0     0 4987998.70    0  191 590916.133 4987998.70   744%     -  144s
     0     0 4987851.02    0  192 590916.133 4987851.02   744%     -  144s
     0     0 4987851.02    0  193 590916.133 4987851.02   744%     -  144s
     0     0 4987439.77    0  201 590916.133 4987439.77   744%     -  145s
     0     0 4987325.67    0  202 590916.133 4987325.67   744%     -  145s
     0     0 4986116.22    0  202 590916.133 4986116.22   744%     -  145s
     0     0 4986052.82    0  203 590916.133 4986052.82   744%     -  145s
     0     0 4986034.34    0  203 590916.133 4986034.34   744%     -  145s
     0     0 4985845.60    0  204 590916.133 4985845.60   744%     -  145s
     0     0 4985745.23    0  200 590916.133 4985745.23   744%     -  145s
     0     0 4985726.30    0  201 590916.133 4985726.30   744%     -  146s
     0     0 4985008.69    0  201 590916.133 4985008.69   744%     -  146s
     0     0 4984963.63    0  202 590916.133 4984963.63   744%     -  146s
     0     0 4984962.91    0  202 590916.133 4984962.91   744%     -  146s
     0     0 4984809.18    0  204 590916.133 4984809.18   744%     -  146s
     0     0 4984406.94    0  205 590916.133 4984406.94   744%     -  146s
     0     0 4984337.17    0  206 590916.133 4984337.17   743%     -  147s
     0     0 4984208.27    0  206 590916.133 4984208.27   743%     -  147s
     0     0 4984113.37    0  206 590916.133 4984113.37   743%     -  147s
     0     0 4984104.69    0  206 590916.133 4984104.69   743%     -  147s
     0     0 4983913.84    0  210 590916.133 4983913.84   743%     -  147s
     0     0 4983803.81    0  206 590916.133 4983803.81   743%     -  147s
     0     0 4983781.78    0  207 590916.133 4983781.78   743%     -  147s
     0     0 4983471.76    0  206 590916.133 4983471.76   743%     -  147s
     0     0 4983461.75    0  205 590916.133 4983461.75   743%     -  148s
     0     0 4983423.91    0  206 590916.133 4983423.91   743%     -  148s
     0     0 4983397.85    0  206 590916.133 4983397.85   743%     -  148s
     0     0 4983307.03    0  207 590916.133 4983307.03   743%     -  148s
     0     0 4983307.03    0  207 590916.133 4983307.03   743%     -  155s
     0     2 4983307.03    0  204 590916.133 4983307.03   743%     -  161s
     3     6 4804984.55    2  159 590916.133 4966202.70   740%  1116  169s
     7    10 4794126.09    3  158 590916.133 4945832.35   737%   716  173s
    15    18 4780891.46    5  131 590916.133 4827888.84   717%   863  176s
H   27    24                    1079769.2129 4827888.84   347%   758  196s
    37    36 4376801.05    8  110 1079769.21 4827888.84   347%   724  201s
    52    53 4344829.30   11  128 1079769.21 4827888.84   347%   752  206s
    69    65 4309908.70   14   85 1079769.21 4827888.84   347%   809  211s
   104   103 4167073.55   19   76 1079769.21 4827888.84   347%   675  216s
   122   121 4141661.33   24   93 1079769.21 4827888.84   347%   695  221s
   181   163 3558168.30   38   99 1079769.21 4827888.84   347%   620  225s
   199   174 3470157.28   40   77 1079769.21 4794126.09   344%   607  242s
   231   204 3300267.65   54   75 1079769.21 4724916.98   338%   591  246s
   281   227     cutoff   68      1079769.21 4713894.30   337%   577  251s
   332   256 3657081.80    9  137 1079769.21 4690207.66   334%   556  255s
   456   349 1977443.13   39   78 1079769.21 4690207.66   334%   504  261s
   579   448 1598233.81   76   41 1079769.21 4690207.66   334%   459  265s
   679   489 4572655.54    8  171 1079769.21 4634919.56   329%   436  270s
   762   562 3636000.93   12   99 1079769.21 4634919.56   329%   441  276s
   885   650 2715149.17   31   97 1079769.21 4620972.29   328%   420  281s
   979   701 1265758.24   22   45 1079769.21 4576978.32   324%   422  290s
  1061   750 2012456.19   14  163 1079769.21 4572655.54   323%   412  342s
  1063   751 1855183.04   64  148 1079769.21 4572655.54   323%   412  349s
  1064   752 2785871.77   33  166 1079769.21 3488723.10   223%   411  352s
  1073   758 2379113.54   54  185 1079769.21 3152519.19   192%   408  356s
  1077   762 3152519.19   19  160 1079769.21 3152519.19   192%   434  361s
  1080   764 3152519.19   18  159 1079769.21 3152519.19   192%   433  365s
  1092   773 1824001.09   53  135 1079769.21 3137823.15   191%   453  373s
  1094   775 3051123.14   31  151 1079769.21 3051123.14   183%   452  375s
  1106   783 2112641.20   44  156 1079769.21 3024697.62   180%   447  380s
  1120   792 3014179.87   19  180 1079769.21 3014179.87   179%   441  385s
  1122   796 3008920.20   40  181 1079769.21 3008920.20   179%   467  395s
  1124   799 2936887.69   41  137 1079769.21 3004799.87   178%   469  402s
  1132   798 2687640.62   42   94 1079769.21 2849892.28   164%   477  406s
  1144   807 2653179.58   44   73 1079769.21 2849892.28   164%   478  410s
  1155   808 2624086.42   45  157 1079769.21 2849892.28   164%   482  416s
  1175   809 2603270.55   47   96 1079769.21 2849892.28   164%   487  420s
  1240   834 2464996.28   53   95 1079769.21 2849892.28   164%   500  425s
  1331   850 2326203.76   60  101 1079769.21 2849892.28   164%   501  430s
  1424   883 2298231.33   66  110 1079769.21 2849892.28   164%   496  435s
  1538   932 2087607.27   73   85 1079769.21 2849892.28   164%   490  440s
  1617   958 1401155.91   79  144 1079769.21 2849892.28   164%   491  445s
* 1684   913              63    1079769.2130 2838336.74   163%   497  448s
  1705   934 2051085.23   47   85 1079769.21 2611666.67   142%   502  450s
  1808   948 2067572.90   51   87 1079769.21 2599210.30   141%   503  457s
  1920   985     cutoff   46      1079769.21 2599210.30   141%   494  460s
  2191  1022     cutoff   56      1079769.21 2545284.18   136%   470  466s
  2367  1031 2294197.19   51  133 1079769.21 2541278.70   135%   461  471s
  2544  1089 1414470.42   82   95 1079769.21 2541278.70   135%   453  475s
  2724  1094 2247661.45   50  121 1079769.21 2508035.54   132%   448  480s
  2923  1121 1380632.64   60   58 1079769.21 2505943.43   132%   443  486s
H 2958  1071                    1079769.2155 2505943.43   132%   441  486s
  3060  1094 1352423.55   61   89 1079769.22 2488455.72   130%   444  493s
  3187  1118 2234759.93   59   55 1079769.22 2470857.79   129%   441  495s
  3425  1236 1258593.68   75  109 1079769.22 2470857.79   129%   432  501s
  3619  1324 1654022.43   64  159 1079769.22 2430659.20   125%   430  507s
  3770  1378 1762820.18   61   54 1079769.22 2400287.83   122%   429  511s
  4095  1492 1688936.32   53   92 1079769.22 2372107.64   120%   427  518s
  4229  1567 1745865.07   61   88 1079769.22 2370213.01   120%   427  521s
  4297  1578 2280611.59   54  103 1079769.22 2354021.80   118%   428  525s
  4659  1737 1742161.79   50   44 1079769.22 2337009.95   116%   422  532s
  4857  1801 1883070.79   50   42 1079769.22 2318220.71   115%   421  536s
  5088  1913 1998574.78   57   78 1079769.22 2309428.17   114%   417  541s
  5278  2000 1283527.30   56   20 1079769.22 2302924.98   113%   415  545s
  5411  2051 1651894.26   65   58 1079769.22 2294368.01   112%   414  550s
  5658  2130 1342543.65   55   28 1079769.22 2286588.16   112%   412  555s
  5941  2224 1207408.10   63   67 1079769.22 2275472.91   111%   409  560s
  6160  2290 2136707.79   53  122 1079769.22 2254722.47   109%   407  565s
  6456  2428 1870347.10   54   45 1079769.22 2242583.90   108%   403  570s
  6681  2494 1360618.67   69   61 1079769.22 2233909.32   107%   401  576s
  6913  2539 1592751.97   53   27 1079769.22 2220777.08   106%   399  581s
  7154  2615 2070790.50   50  103 1079769.22 2208491.35   105%   400  587s
  7433  2682 1127086.11   65   87 1079769.22 2200324.22   104%   399  593s
  7718  2776 1883479.80   80  122 1079769.22 2185947.69   102%   400  599s
  7994  2875 1454935.91   50   64 1079769.22 2170247.92   101%   399  605s
  8352  2989 1124289.48   71   63 1079769.22 2161371.60   100%   398  611s
  8725  3116     cutoff   93      1079769.22 2150003.24  99.1%   398  619s
  9037  3198 1658596.32   65  106 1079769.22 2147192.57  98.9%   396  627s
  9451  3319     cutoff   65      1079769.22 2132881.65  97.5%   394  636s
  9806  3387 1532151.42   70   73 1079769.22 2122117.82  96.5%   394  644s
 10297  3528 1208916.41   73   44 1079769.22 2114337.59  95.8%   391  661s
 10636  3616 1360339.05   58   86 1079769.22 2100794.17  94.6%   390  669s
 11084  3717 1806214.27   60   79 1079769.22 2089154.84  93.5%   390  677s
 11668  3842 1343064.56   57   59 1079769.22 2062177.50  91.0%   389  686s
 12134  3901 1330756.31   65  122 1079769.22 2054480.57  90.3%   387  696s
 12691  4006     cutoff   56      1079769.22 2040904.64  89.0%   386  706s
H12921  4043                    1079769.2162 2039342.25  88.9%   386  706s
 13125  4069 1229737.74   55   91 1079769.22 2027479.75  87.8%   387  715s
 13734  4206     cutoff   61      1079769.22 2008117.99  86.0%   384  724s
 14206  4302 1239727.53   72   59 1079769.22 1993685.82  84.6%   384  733s
 14598  4362     cutoff   74      1079769.22 1982330.95  83.6%   385  743s
 15173  4473     cutoff   61      1079769.22 1966823.80  82.2%   383  752s
 15693  4566 1417314.62   52   40 1079769.22 1959665.41  81.5%   383  761s
 16030  4616 1104493.96   62   68 1079769.22 1949955.82  80.6%   384  770s
 16511  4639 1130123.24   55  119 1079769.22 1937596.05  79.4%   384  778s
 17155  4757 1720933.23   56   86 1079769.22 1923751.08  78.2%   381  787s
 17610  4825 1759014.03   65   84 1079769.22 1911987.32  77.1%   380  795s
 18048  4878 1177482.27   69   91 1079769.22 1905702.17  76.5%   379  804s
 18618  4979 1429528.33   48   57 1079769.22 1889301.32  75.0%   377  813s
 19142  5086 1687508.04   58   58 1079769.22 1879350.57  74.1%   376  821s
 19673  5175     cutoff   54      1079769.22 1872583.04  73.4%   375  829s
 20062  5213 1181734.31   62   92 1079769.22 1872583.04  73.4%   375  837s
 20629  5310 1796312.00   56   78 1079769.22 1850956.75  71.4%   374 1156s
 20929  5356 1501375.31   59   61 1079769.22 1845409.57  70.9%   374 1162s
 21214  5398 1719429.01   56  159 1079769.22 1841126.75  70.5%   375 1169s
 21399  5415 1276209.61   56  112 1079769.22 1833592.09  69.8%   378 1175s
 21614  5439 1112818.20   83  130 1079769.22 1827624.24  69.3%   381 1182s
 21782  5458 1165352.62   67   58 1079769.22 1825363.24  69.1%   382 1189s
 21903  5454     cutoff   52      1079769.22 1820751.73  68.6%   384 1196s
 22102  5486 1673468.12   52  111 1079769.22 1819050.78  68.5%   387 1203s
 22281  5478 1134642.10   61  130 1079769.22 1815038.71  68.1%   390 1211s
 22525  5531 1347983.70   59   87 1079769.22 1808708.86  67.5%   393 1217s
 22701  5543 1182424.80   53   55 1079769.22 1806854.04  67.3%   396 1224s
 22805  5545 1084092.79   58   64 1079769.22 1803361.87  67.0%   398 1232s
 23039  5575     cutoff   60      1079769.22 1798907.30  66.6%   401 1239s
 23284  5617     cutoff   68      1079769.22 1796500.43  66.4%   403 1246s
 23468  5645 infeasible   61      1079769.22 1792815.63  66.0%   406 1253s
 23695  5638 1186778.99   56   58 1079769.22 1789029.63  65.7%   408 1260s
 23957  5670 1345723.95   55   58 1079769.22 1784580.55  65.3%   410 1267s
 24210  5698 1342513.17   59  150 1079769.22 1779724.25  64.8%   413 1277s
 24424  5684 1274105.89   58   91 1079769.22 1774566.06  64.3%   416 1284s
 24653  5675     cutoff   74      1079769.22 1771182.37  64.0%   419 1292s
 24872  5672     cutoff   61      1079769.22 1767355.27  63.7%   422 1300s
 25100  5680 1500760.83   57   72 1079769.22 1763421.42  63.3%   425 1308s
 25327  5684 1099303.96   58  126 1079769.22 1756280.05  62.7%   428 1316s
 25530  5717 1275127.76   54  119 1079769.22 1749322.41  62.0%   431 1328s
H25556  5724                    1079769.3796 1749322.41  62.0%   431 1328s
 25566  5711     cutoff   57      1079769.38 1749322.41  62.0%   431 1337s
 25631  5689     cutoff   58      1079769.38 1749118.21  62.0%   432 1346s
 25804  5698     cutoff   65      1079769.38 1743820.09  61.5%   434 1355s
 25993  5693     cutoff   62      1079769.38 1738988.50  61.1%   438 1363s
 26209  5694     cutoff   68      1079769.38 1735051.87  60.7%   441 1372s
 26347  5674     cutoff   54      1079769.38 1729623.67  60.2%   443 1381s
 26684  5705     cutoff   63      1079769.38 1724531.00  59.7%   445 1389s
 26947  5710     cutoff   60      1079769.38 1716210.70  58.9%   448 1397s
 27217  5718     cutoff   61      1079769.38 1710658.20  58.4%   450 1407s
 27433  5705 1497216.13   55   51 1079769.38 1704479.66  57.9%   454 1415s
 27729  5710 1196665.04   59   35 1079769.38 1698353.56  57.3%   456 1424s
 28066  5742 1213918.45   65   79 1079769.38 1691061.54  56.6%   458 1435s
 28235  5735 1202355.94   58   75 1079769.38 1689774.81  56.5%   459 1443s
 28472  5734 1102135.80   63  136 1079769.38 1682683.44  55.8%   463 1461s
 28712  5698 1517263.96   60   70 1079769.38 1679065.23  55.5%   464 1470s
 29088  5720 1387864.73   59   51 1079769.38 1671382.40  54.8%   466 1480s
 29404  5710 1197435.33   61   61 1079769.38 1667444.12  54.4%   468 1489s
 29728  5703 1367592.24   54  133 1079769.38 1660246.76  53.8%   471 1498s
 30123  5715 1326763.89   76  148 1079769.38 1651373.45  52.9%   472 1508s
 30475  5714     cutoff   55      1079769.38 1647380.00  52.6%   474 1519s
 30881  5751 1448512.92   63   66 1079769.38 1638832.06  51.8%   476 1538s
 31168  5746     cutoff   57      1079769.38 1635762.77  51.5%   477 1548s
 31499  5732     cutoff   63      1079769.38 1631468.92  51.1%   479 1558s
 31927  5737     cutoff   58      1079769.38 1621453.51  50.2%   480 1567s
 32351  5751     cutoff   63      1079769.38 1614512.71  49.5%   480 1577s
 32724  5766 1283610.17   60   27 1079769.38 1608412.81  49.0%   482 1587s
 33042  5753 1571251.20   57  105 1079769.38 1605258.03  48.7%   484 1596s
 33442  5762     cutoff   58      1079769.38 1600663.19  48.2%   485 1605s
 33826  5760 1184866.50   55  125 1079769.38 1595074.11  47.7%   486 1615s
 34171  5782     cutoff   64      1079769.38 1592747.06  47.5%   487 1624s
 34322  5733 1473115.62   59   71 1079769.38 1587921.75  47.1%   489 1634s
 34722  5729 1438040.00   61  137 1079769.38 1584948.53  46.8%   489 1644s
 35090  5691     cutoff   58      1079769.38 1577775.94  46.1%   491 1655s
 35514  5672 1163771.32   66   66 1079769.38 1571786.63  45.6%   492 1665s
 35965  5689 1117440.38   54  131 1079769.38 1566416.08  45.1%   493 1674s
 36376  5672 1238214.41   53   86 1079769.38 1561149.13  44.6%   494 1684s
 36719  5646     cutoff   60      1079769.38 1557140.63  44.2%   494 1694s
 37038  5630     cutoff   64      1079769.38 1551210.29  43.7%   496 1703s
 37350  5588     cutoff   60      1079769.38 1546861.77  43.3%   498 1712s
 37755  5575     cutoff   59      1079769.38 1542309.22  42.8%   498 1722s
 38130  5547     cutoff   51      1079769.38 1534177.88  42.1%   499 1731s
 38449  5517     cutoff   59      1079769.38 1528890.11  41.6%   501 1741s
 38763  5480 1154961.54   72  121 1079769.38 1522779.05  41.0%   501 1750s
 39141  5434     cutoff   54      1079769.38 1517646.67  40.6%   502 1760s
 39489  5428     cutoff   75      1079769.38 1511294.24  40.0%   503 1771s
 39823  5367 1175182.62   76  130 1079769.38 1506921.96  39.6%   504 1780s
 40202  5329     cutoff   61      1079769.38 1500247.46  38.9%   504 1788s
 40557  5296     cutoff   61      1079769.38 1495792.51  38.5%   505 1798s
 40893  5247     cutoff   61      1079769.38 1490911.54  38.1%   507 1807s
 41254  5219     cutoff   63      1079769.38 1485453.18  37.6%   508 1816s
 41602  5186 1227094.39   74   92 1079769.38 1480878.23  37.1%   509 1826s
 41997  5175 1372666.82   61   34 1079769.38 1477342.11  36.8%   509 1834s
 42374  5123     cutoff   60      1079769.38 1473028.26  36.4%   510 1842s
 42704  5077     cutoff   53      1079769.38 1468123.75  36.0%   510 1849s
 43052  5031     cutoff   61      1079769.38 1461928.88  35.4%   511 1859s
 43408  4987     cutoff   56      1079769.38 1457765.82  35.0%   511 1870s
 43792  4964     cutoff   71      1079769.38 1452433.91  34.5%   512 1877s
 44120  4915     cutoff   58      1079769.38 1446962.28  34.0%   512 1885s
 44469  4859 1416468.39   54   73 1079769.38 1441968.56  33.5%   513 1892s
 44774  4805 1428119.95   62   35 1079769.38 1437933.22  33.2%   513 1900s
 45069  4759 1341383.71   53   36 1079769.38 1433362.43  32.7%   513 1907s
 45315  4703     cutoff   67      1079769.38 1427942.07  32.2%   514 1916s
 45726  4675     cutoff   61      1079769.38 1422756.79  31.8%   513 1923s
 46011  4616 1256181.11   60   58 1079769.38 1418303.82  31.4%   514 1930s
 46249  4563 1324566.77   56   89 1079769.38 1414473.06  31.0%   514 1937s
 46479  4501     cutoff   61      1079769.38 1408750.23  30.5%   515 1944s
 46732  4452     cutoff   64      1079769.38 1404596.52  30.1%   516 1954s
 47007  4394     cutoff   76      1079769.38 1399254.54  29.6%   516 1961s
 47278  4349 1353151.96   63   61 1079769.38 1395124.08  29.2%   517 1970s
 47682  4318     cutoff   64      1079769.38 1391163.27  28.8%   517 1977s
 47954  4256     cutoff   62      1079769.38 1387101.09  28.5%   516 1984s
 48240  4209     cutoff   60      1079769.38 1382677.55  28.1%   517 1990s
 48517  4152 1378830.77   56   53 1079769.38 1378830.77  27.7%   517 1995s
 48729  4085     cutoff   68      1079769.38 1374527.99  27.3%   517 2000s
 48956  4016 1121260.69   51  109 1079769.38 1370513.13  26.9%   518 2008s
 49209  3946 1296072.75   62   68 1079769.38 1366801.23  26.6%   518 2012s
 49429  3878     cutoff   56      1079769.38 1362362.25  26.2%   518 2017s
 49685  3817     cutoff   57      1079769.38 1358727.11  25.8%   518 2024s
 49977  3757     cutoff   67      1079769.38 1354914.02  25.5%   518 2030s
 50261  3703 1081280.74   77  139 1079769.38 1350797.39  25.1%   518 2035s
 50561  3644     cutoff   58      1079769.38 1347024.47  24.8%   517 2040s
 50774  3574     cutoff   79      1079769.38 1343463.69  24.4%   518 2045s
 51010  3517 1186659.66   67   67 1079769.38 1339195.56  24.0%   518 2050s
 51222  3447     cutoff   58      1079769.38 1335212.63  23.7%   518 2055s
 51675  3324 1198218.39   77   53 1079769.38 1327372.26  22.9%   518 2065s
 51965  3273 1272720.73   58   58 1079769.38 1323788.43  22.6%   518 2071s
 52202  3217 1261863.17   63   44 1079769.38 1320395.22  22.3%   517 2076s
 52443  3153 1261776.21   57   73 1079769.38 1317341.57  22.0%   517 2080s
 52864  3017 1114285.44   69   75 1079769.38 1309899.40  21.3%   517 2089s
 53067  2943     cutoff   72      1079769.38 1305962.82  20.9%   517 2094s
 53265  2863 1201750.55   59   71 1079769.38 1302422.94  20.6%   518 2099s
 53483  2786     cutoff   58      1079769.38 1298723.71  20.3%   518 2103s
 53718  2722 1228485.60   58   85 1079769.38 1294888.74  19.9%   517 2107s
 53952  2650 1220748.69   59   69 1079769.38 1290768.55  19.5%   517 2111s
 54211  2581 1287975.59   63   25 1079769.38 1287975.59  19.3%   516 2115s
 54632  2435 infeasible   57      1079769.38 1279945.43  18.5%   516 2123s
 54848  2366     cutoff   71      1079769.38 1276291.99  18.2%   515 2126s
 55213  2217 1246029.72   63   36 1079769.38 1269553.73  17.6%   515 2132s
 55452  2145     cutoff   59      1079769.38 1265886.24  17.2%   515 2135s
 55860  2007     cutoff   72      1079769.38 1259090.61  16.6%   514 2142s
 56043  1935 1253595.52   57   75 1079769.38 1254979.03  16.2%   513 2146s
 56262  1862 1248915.55   58   55 1079769.38 1250500.19  15.8%   513 2150s
 56719  1723 1196691.11   75  110 1079769.38 1243421.05  15.2%   512 2159s
 56940  1650     cutoff   75      1079769.38 1239365.72  14.8%   512 2162s
 57270  1494     cutoff   59      1079769.38 1231079.44  14.0%   512 2166s
 57637  1334     cutoff   68      1079769.38 1221923.25  13.2%   511 2172s
 57791  1257     cutoff   62      1079769.38 1217015.70  12.7%   511 2175s
 58109  1094     cutoff   82      1079769.38 1207275.64  11.8%   510 2180s
 58581   849 1184331.27   58   63 1079769.38 1192367.67  10.4%   509 2187s
 58829   683 1154182.03   60   93 1079769.38 1182817.47  9.54%   509 2191s
 59222   442 1092273.54   65   43 1079769.38 1164176.79  7.82%   508 2197s
 59476   278     cutoff   61      1079769.38 1150513.75  6.55%   507 2200s
 59820    28     cutoff   65      1079769.38 1110747.65  2.87%   506 2205s

Cutting planes:
  Gomory: 113
  Implied bound: 8
  Projected implied bound: 4
  MIR: 32
  Flow cover: 227
  Zero half: 1

Explored 59939 nodes (30419879 simplex iterations) in 2210.91 seconds
Thread count was 4 (of 16 available processors)

Solution count 7: 1.07977e+06 1.07977e+06 1.07977e+06 ... -596794

Optimal solution found (tolerance 1.00e-04)
Best objective 1.079769212879e+06, best bound 1.079769379643e+06, gap 0.0000%

***
***  |- Calculation finished, took 2,210.96 (2210.96) sec.
***  |-----------------------------------------------------------------------------------------------------------------------
***
*****************************************************************************************************************************
#############################################################################################################################
###
### Results
###
### The objective of the solution is 1,079,769.2129 (1079769.2129) and is feasible with a Gap of 0.0
###
### Service 81 (MECL1) is operated by 6 vessels from type 30 (PMax35)
###  |- Vessel  9 has the path [9, 332, 326, 342, 333, 324, 4, 294, 284, 7, 298, 196, 0]
###  |  9 (BEANR Out@344.0) - 332 (USEWR In@608.0/Out@618.0) - 326 (USCHS In@656.0/Out@666.0) - 342 (USORF In@691.0/Out@704.0
###  |  ) - 333 (USEWR In@728.0/Out@744.0) - 324 (TRZMK In@1063.0/Out@1077.0) - 4 (AEJEA In@1177.0/Out@1201.0) - 294 (PKBQM I
###  |  n@1258.0/Out@1288.0) - 284 (OMSLL In@1410.0/Out@1423.0) - 7 (AEJEA In@1681.0/Out@1705.0) - 298 (PKBQM In@1762.0/Out@1
###  |  792.0) - 196 (INNSA In@1856.0/Out@1872.0) - 0 (DUMMY_END Ziel-Service 81)
###  |   |- and carried Demand 237,   34.0 containers from 298 to 196
###  |   |- and carried Demand 238,   84.0 containers from   7 to 298
###  |   |- and carried Demand 239,   50.0 containers from   7 to 298
###  |   |- and carried Demand 297,  254.0 containers from 294 to 196
###  |   |- and carried Demand 298,    1.0 containers from 294 to 196
###  |   |- and carried Demand 299,  135.0 containers from 294 to 196
###  |   |- and carried Demand 302,   75.0 containers from   4 to 196
###  |   |- and carried Demand 303,  200.0 containers from   4 to 294
###  |   |- and carried Demand 304,   24.0 containers from   4 to 294
###  |   |- and carried Demand 305,   26.0 containers from   4 to 196
###  |   |- and carried Demand 306,  144.0 containers from   4 to 196
###  |   |- and carried Demand 307,    1.0 containers from   4 to 196
###  |   |- and carried Demand 309,  339.0 containers from 342 to   4
###  |   |- and carried Demand 310,  115.0 containers from 342 to   4
###  |   |- and carried Demand 311,    3.0 containers from 342 to 284
###  |   |- and carried Demand 312,    2.0 containers from 342 to 294
###  |   |- and carried Demand 313,  194.0 containers from 326 to   4
###  |   |- and carried Demand 314,   49.0 containers from 326 to   4
###  |   |- and carried Demand 315,   40.0 containers from 326 to 294
###  |   |- and carried Demand 318,  842.0 containers from 332 to   4
###  |   |- and carried Demand 319,   99.0 containers from 332 to   4
###  |   |- and carried Demand 320,  123.0 containers from 332 to 294
###  |   |- and carried Demand 321,    1.0 containers from 332 to 294
###  |- Vessel 10 has the path [10, 316, 190, 0]
###  |  10 (BEANR Out@512.0) - 316 (TRAMB In@854.0/Out@881.0) - 190 (INNSA In@1016.0/Out@1032.0) - 0 (DUMMY_END Ziel-Service 
###  |  81)
###  |- Vessel 11 has the path [13, 313, 191, 0]
###  |  13 (BEANR Out@680.0) - 313 (TRALI In@946.0/Out@964.0) - 191 (INNSA In@1184.0/Out@1200.0) - 0 (DUMMY_END Ziel-Service 
###  |  81)
###  |- Vessel 12 has the path [16, 314, 192, 0]
###  |  16 (BEANR Out@848.0) - 314 (TRALI In@1114.0/Out@1132.0) - 192 (INNSA In@1352.0/Out@1368.0) - 0 (DUMMY_END Ziel-Servic
###  |  e 81)
###  |- Vessel 17 has the path [158, 2, 291, 292, 293, 283, 5, 295, 194, 195, 0]
###  |  158 (GBFXT Out@580.0) - 2 (AEJEA In@841.0/Out@865.0) - 291 (PKBQM In@922.0/Out@952.0) - 292 (PKBQM In@992.0/Out@1020.
###  |  0) - 293 (PKBQM In@1090.0/Out@1120.0) - 283 (OMSLL In@1167.0/Out@1182.0) - 5 (AEJEA In@1345.0/Out@1369.0) - 295 (PKBQ
###  |  M In@1426.0/Out@1456.0) - 194 (INNSA In@1590.0/Out@1622.0) - 195 (INNSA In@1688.0/Out@1704.0) - 0 (DUMMY_END Ziel-Ser
###  |  vice 81)
###  |   |- and carried Demand 120,  237.0 containers from 292 to 194
###  |   |- and carried Demand 121,    2.0 containers from 292 to 194
###  |   |- and carried Demand 123,   97.0 containers from 292 to 194
###  |   |- and carried Demand 283,  153.0 containers from   5 to 195
###  |   |- and carried Demand 284,   86.0 containers from   5 to 295
###  |   |- and carried Demand 285,  118.0 containers from   5 to 295
###  |   |- and carried Demand 323,  244.0 containers from 293 to 195
###  |   |- and carried Demand 324,   67.0 containers from 293 to 195
###  |   |- and carried Demand 333,  237.0 containers from 291 to 194
###  |   |- and carried Demand 334,    2.0 containers from 291 to 194
###  |   |- and carried Demand 336,   97.0 containers from 291 to 194
###  |   |- and carried Demand 338,  704.0 containers from   2 to 195
###  |   |- and carried Demand 339,    8.0 containers from   2 to 195
###  |   |- and carried Demand 340,  156.0 containers from   2 to 291
###  |   |- and carried Demand 341,   45.0 containers from   2 to 291
###  |   |- and carried Demand 342,   16.0 containers from   2 to 194
###  |   |- and carried Demand 343,  264.0 containers from   2 to 194
###  |- Vessel 18 has the path [161, 321, 193, 0]
###  |  161 (GBFXT Out@748.0) - 321 (TRGEM In@1087.0/Out@1095.0) - 193 (INNSA In@1520.0/Out@1536.0) - 0 (DUMMY_END Ziel-Servi
###  |  ce 81)
###  |
### Vessels not used in the solution: [1, 2, 3, 4, 5, 6, 7, 8, 13, 14, 15, 16, 22]
###  |-----------------------------------------------------------------------------------------------------------------------
###
#############################################################################################################################

### Detialed variable overview

### All variables with value greater zero:
rho[81,30] = 1
eta[81,30,1] = 1
eta[81,30,2] = 1
eta[81,30,3] = 1
eta[81,30,4] = 1
eta[81,30,5] = 1
eta[81,30,6] = 1
y[9,4,294] = 1
y[9,332,326] = 1
y[9,294,284] = 1
y[9,284,7] = 1
y[9,342,333] = 1
y[9,9,332] = 1
y[9,324,4] = 1
y[9,7,298] = 1
y[9,196,0] = 1
y[9,333,324] = 1
y[9,298,196] = 1
y[9,326,342] = 1
y[10,190,0] = 1
y[10,316,190] = 1
y[10,10,316] = 1
y[11,313,191] = 1
y[11,191,0] = 1
y[11,13,313] = 1
y[12,192,0] = 1
y[12,314,192] = 1
y[12,16,314] = 1
y[17,283,5] = 1
y[17,293,283] = 1
y[17,195,0] = 1
y[17,5,295] = 1
y[17,292,293] = 1
y[17,194,195] = 1
y[17,291,292] = 1
y[17,295,194] = 1
y[17,2,291] = 1
y[17,158,2] = 1
y[18,161,321] = 1
y[18,193,0] = 1
y[18,321,193] = 1
xD[120,283,5] = 237
xD[120,293,283] = 237
xD[120,5,295] = 237
xD[120,292,293] = 237
xD[120,295,194] = 237
xD[121,283,5] = 2
xD[121,293,283] = 2
xD[121,5,295] = 2
xD[121,292,293] = 2
xD[121,295,194] = 2
xD[123,283,5] = 97
xD[123,293,283] = 97
xD[123,5,295] = 97
xD[123,292,293] = 97
xD[123,295,194] = 97
xD[237,298,196] = 34
xD[238,7,298] = 84
xD[239,7,298] = 50
xD[283,5,295] = 153
xD[283,194,195] = 153
xD[283,295,194] = 153
xD[284,5,295] = 86
xD[285,5,295] = 118
xD[297,294,284] = 254
xD[297,284,7] = 254
xD[297,7,298] = 254
xD[297,298,196] = 254
xD[298,294,284] = 1
xD[298,284,7] = 1
xD[298,7,298] = 1
xD[298,298,196] = 1
xD[299,294,284] = 135
xD[299,284,7] = 135
xD[299,7,298] = 135
xD[299,298,196] = 135
xD[302,4,294] = 75
xD[302,294,284] = 75
xD[302,284,7] = 75
xD[302,7,298] = 75
xD[302,298,196] = 75
xD[303,4,294] = 200
xD[304,4,294] = 24
xD[305,4,294] = 26
xD[305,294,284] = 26
xD[305,284,7] = 26
xD[305,7,298] = 26
xD[305,298,196] = 26
xD[306,4,294] = 144
xD[306,294,284] = 144
xD[306,284,7] = 144
xD[306,7,298] = 144
xD[306,298,196] = 144
xD[307,4,294] = 1
xD[307,294,284] = 1
xD[307,284,7] = 1
xD[307,7,298] = 1
xD[307,298,196] = 1
xD[309,342,333] = 339
xD[309,324,4] = 339
xD[309,333,324] = 339
xD[310,342,333] = 115
xD[310,324,4] = 115
xD[310,333,324] = 115
xD[311,4,294] = 3
xD[311,294,284] = 3
xD[311,342,333] = 3
xD[311,324,4] = 3
xD[311,333,324] = 3
xD[312,4,294] = 2
xD[312,342,333] = 2
xD[312,324,4] = 2
xD[312,333,324] = 2
xD[313,342,333] = 194
xD[313,324,4] = 194
xD[313,333,324] = 194
xD[313,326,342] = 194
xD[314,342,333] = 49
xD[314,324,4] = 49
xD[314,333,324] = 49
xD[314,326,342] = 49
xD[315,4,294] = 40
xD[315,342,333] = 40
xD[315,324,4] = 40
xD[315,333,324] = 40
xD[315,326,342] = 40
xD[318,332,326] = 842
xD[318,342,333] = 842
xD[318,324,4] = 842
xD[318,333,324] = 842
xD[318,326,342] = 842
xD[319,332,326] = 99
xD[319,342,333] = 99
xD[319,324,4] = 99
xD[319,333,324] = 99
xD[319,326,342] = 99
xD[320,4,294] = 123
xD[320,332,326] = 123
xD[320,342,333] = 123
xD[320,324,4] = 123
xD[320,333,324] = 123
xD[320,326,342] = 123
xD[321,4,294] = 1
xD[321,332,326] = 1
xD[321,342,333] = 1
xD[321,324,4] = 1
xD[321,333,324] = 1
xD[321,326,342] = 1
xD[323,283,5] = 244
xD[323,293,283] = 244
xD[323,5,295] = 244
xD[323,194,195] = 244
xD[323,295,194] = 244
xD[324,283,5] = 67
xD[324,293,283] = 67
xD[324,5,295] = 67
xD[324,194,195] = 67
xD[324,295,194] = 67
xD[333,283,5] = 237
xD[333,293,283] = 237
xD[333,5,295] = 237
xD[333,292,293] = 237
xD[333,291,292] = 237
xD[333,295,194] = 237
xD[334,283,5] = 2
xD[334,293,283] = 2
xD[334,5,295] = 2
xD[334,292,293] = 2
xD[334,291,292] = 2
xD[334,295,194] = 2
xD[336,283,5] = 97
xD[336,293,283] = 97
xD[336,5,295] = 97
xD[336,292,293] = 97
xD[336,291,292] = 97
xD[336,295,194] = 97
xD[338,283,5] = 704
xD[338,293,283] = 704
xD[338,5,295] = 704
xD[338,292,293] = 704
xD[338,194,195] = 704
xD[338,291,292] = 704
xD[338,295,194] = 704
xD[338,2,291] = 704
xD[339,283,5] = 8
xD[339,293,283] = 8
xD[339,5,295] = 8
xD[339,292,293] = 8
xD[339,194,195] = 8
xD[339,291,292] = 8
xD[339,295,194] = 8
xD[339,2,291] = 8
xD[340,2,291] = 156
xD[341,2,291] = 45
xD[342,283,5] = 16
xD[342,293,283] = 16
xD[342,5,295] = 16
xD[342,292,293] = 16
xD[342,291,292] = 16
xD[342,295,194] = 16
xD[342,2,291] = 16
xD[343,283,5] = 264
xD[343,293,283] = 264
xD[343,5,295] = 264
xD[343,292,293] = 264
xD[343,291,292] = 264
xD[343,295,194] = 264
xD[343,2,291] = 264
zE[2] = 841
zE[4] = 1177
zE[5] = 1345
zE[7] = 1681
zE[190] = 1016
zE[191] = 1184
zE[192] = 1352
zE[193] = 1520
zE[194] = 1590
zE[195] = 1688
zE[196] = 1856
zE[283] = 1167
zE[284] = 1410
zE[291] = 922
zE[292] = 992
zE[293] = 1090
zE[294] = 1258
zE[295] = 1426
zE[298] = 1762
zE[313] = 946
zE[314] = 1114
zE[316] = 854
zE[321] = 1087
zE[324] = 1063
zE[326] = 656
zE[332] = 608
zE[333] = 728
zE[342] = 691
zX[2] = 865
zX[4] = 1201
zX[5] = 1369
zX[7] = 1705
zX[9] = 344
zX[10] = 512
zX[13] = 680
zX[16] = 848
zX[158] = 580
zX[161] = 748
zX[190] = 1032
zX[191] = 1200
zX[192] = 1368
zX[193] = 1536
zX[194] = 1622
zX[195] = 1704
zX[196] = 1872
zX[283] = 1182
zX[284] = 1423
zX[291] = 952
zX[292] = 1020
zX[293] = 1120
zX[294] = 1288
zX[295] = 1456
zX[298] = 1792
zX[313] = 964
zX[314] = 1132
zX[316] = 881
zX[321] = 1095
zX[324] = 1077
zX[326] = 666
zX[332] = 618
zX[333] = 744
zX[342] = 704
phi[9] = 1528
phi[10] = 520
phi[11] = 520
phi[12] = 520
phi[17] = 1124
phi[18] = 788

### All variables with value smaller zero:

### End

real	40m34.518s
user	140m1.577s
sys	8m6.209s
	OpenBLAS 0.2.6 environment removed
	Freetype 2.4.12 environment removed
	Python 3.6.0 environment removed
	Gurobi 8.1.0 environment removed
