	OpenBLAS 0.2.6 environment established
		compiled with gcc for max. 16 cores
	Freetype 2.4.12 environment established
		library to render fonts
	Python 3.6.0 environment established
	Gurobi 8.1.0 environment established
Instance LSFRP: LSFDRP_4_3_5_1_fr.p
Instance LSFDP: LSFDRP_4_3_5_1_fd_37.p

*****************************************************************************************************************************
*** Solve LSFDRP_4_3_5_1_fd_37 with Gurobi
***
*** Graph info
*** |S|: 19
*** |S^E|: 0
*** |S^C|: 1
*** |V|: 347
*** |A|: 8382
*** |A^i|: 8382
*** |A^f|: 0
*** |M|: 343
*** |E|: 0

Changed value of parameter NumericFocus to 1
   Prev: 0  Min: 0  Max: 3  Default: 0
Changed value of parameter TimeLimit to 86400.0
   Prev: 1e+100  Min: 0.0  Max: 1e+100  Default: 1e+100
Changed value of parameter Threads to 4
   Prev: 0  Min: 0  Max: 1024  Default: 0
Optimize a model with 143928 rows, 3051766 columns and 10894529 nonzeros
Variable types: 2892487 continuous, 159279 integer (159279 binary)
Coefficient statistics:
  Matrix range     [1e+00, 4e+03]
  Objective range  [4e+01, 2e+08]
  Bounds range     [1e+00, 1e+00]
  RHS range        [1e+00, 6e+00]
Presolve removed 116430 rows and 2828384 columns (presolve time = 5s) ...
Presolve removed 135998 rows and 2911010 columns (presolve time = 10s) ...
Presolve removed 135999 rows and 2917430 columns (presolve time = 53s) ...
Presolve removed 136122 rows and 2917659 columns (presolve time = 57s) ...
Presolve removed 136122 rows and 2917659 columns
Presolve time: 59.12s
Presolved: 7806 rows, 134107 columns, 459167 nonzeros
Variable types: 4838 continuous, 129269 integer (129230 binary)

Root simplex log...

Iteration    Objective       Primal Inf.    Dual Inf.      Time
       0    9.3489767e+09   1.384416e+06   0.000000e+00     61s
   20947    1.0765221e+07   6.344969e+06   0.000000e+00     65s
   27700    8.5015308e+06   9.329154e+05   0.000000e+00     70s
   33743    7.1992190e+06   7.572288e+05   0.000000e+00     75s
   38963    5.6871545e+06   9.540784e+04   0.000000e+00     80s
   41557    5.4073849e+06   0.000000e+00   0.000000e+00     83s

Root relaxation: objective 5.407385e+06, 41557 iterations, 22.36 seconds

    Nodes    |    Current Node    |     Objective Bounds      |     Work
 Expl Unexpl |  Obj  Depth IntInf | Incumbent    BestBd   Gap | It/Node Time

     0     0 5407384.87    0  171          - 5407384.87      -     -   85s
H    0     0                    -596794.2625 5407384.87  1006%     -   86s
H    0     0                    130435.70660 5407384.87  4046%     -  111s
     0     0 5171576.11    0  155 130435.707 5171576.11  3865%     -  115s
     0     0 5171576.11    0  155 130435.707 5171576.11  3865%     -  126s
H    0     0                    590916.13250 5171576.11   775%     -  132s
     0     0 3492316.98    0  151 590916.133 3492316.98   491%     -  134s
     0     0 3492316.98    0  129 590916.133 3492316.98   491%     -  141s
     0     0 3487801.62    0  171 590916.133 3487801.62   490%     -  144s
     0     0 3470336.42    0  161 590916.133 3470336.42   487%     -  145s
     0     0 3463115.93    0  167 590916.133 3463115.93   486%     -  145s
     0     0 3463093.44    0  167 590916.133 3463093.44   486%     -  145s
     0     0 3448193.82    0  168 590916.133 3448193.82   484%     -  146s
     0     0 3447407.26    0  176 590916.133 3447407.26   483%     -  146s
     0     0 3446450.85    0  176 590916.133 3446450.85   483%     -  146s
     0     0 3446353.21    0  177 590916.133 3446353.21   483%     -  147s
     0     0 3445119.20    0  175 590916.133 3445119.20   483%     -  147s
     0     0 3445067.26    0  175 590916.133 3445067.26   483%     -  147s
     0     0 3445067.26    0  175 590916.133 3445067.26   483%     -  147s
     0     0 3442234.43    0  170 590916.133 3442234.43   483%     -  147s
     0     0 3442024.40    0  175 590916.133 3442024.40   482%     -  147s
     0     0 3441443.55    0  174 590916.133 3441443.55   482%     -  147s
     0     0 3441392.53    0  174 590916.133 3441392.53   482%     -  147s
     0     0 3441328.72    0  175 590916.133 3441328.72   482%     -  148s
     0     0 3440882.45    0  173 590916.133 3440882.45   482%     -  148s
     0     0 3440859.28    0  175 590916.133 3440859.28   482%     -  148s
     0     0 3440103.30    0  172 590916.133 3440103.30   482%     -  148s
     0     0 3439759.51    0  173 590916.133 3439759.51   482%     -  148s
     0     0 3439374.55    0  173 590916.133 3439374.55   482%     -  148s
     0     0 3439367.50    0  174 590916.133 3439367.50   482%     -  148s
     0     0 3438947.09    0  176 590916.133 3438947.09   482%     -  148s
     0     0 3438946.05    0  176 590916.133 3438946.05   482%     -  148s
     0     0 3438511.54    0  178 590916.133 3438511.54   482%     -  149s
     0     0 3438210.94    0  176 590916.133 3438210.94   482%     -  149s
     0     0 3437629.25    0  177 590916.133 3437629.25   482%     -  149s
     0     0 3437629.25    0  177 590916.133 3437629.25   482%     -  149s
     0     0 3437100.36    0  176 590916.133 3437100.36   482%     -  149s
     0     0 3435994.07    0  177 590916.133 3435994.07   481%     -  150s
     0     0 3435994.07    0  177 590916.133 3435994.07   481%     -  150s
     0     0 3435930.12    0  181 590916.133 3435930.12   481%     -  150s
     0     0 3435864.35    0  184 590916.133 3435864.35   481%     -  150s
     0     0 3435777.22    0  183 590916.133 3435777.22   481%     -  150s
     0     0 3435775.11    0  183 590916.133 3435775.11   481%     -  150s
     0     0 3435654.99    0  183 590916.133 3435654.99   481%     -  150s
     0     0 3435652.37    0  185 590916.133 3435652.37   481%     -  151s
     0     0 3435410.99    0  186 590916.133 3435410.99   481%     -  151s
     0     0 3435410.99    0  186 590916.133 3435410.99   481%     -  151s
     0     0 3435397.78    0  190 590916.133 3435397.78   481%     -  151s
     0     0 3435288.32    0  184 590916.133 3435288.32   481%     -  151s
     0     0 3435154.08    0  185 590916.133 3435154.08   481%     -  151s
     0     0 3435143.45    0  186 590916.133 3435143.45   481%     -  151s
     0     0 3433562.52    0  181 590916.133 3433562.52   481%     -  152s
     0     0 3433562.52    0  183 590916.133 3433562.52   481%     -  152s
     0     0 3433562.08    0  183 590916.133 3433562.08   481%     -  152s
     0     0 3433561.23    0  184 590916.133 3433561.23   481%     -  152s
     0     0 3433556.35    0  184 590916.133 3433556.35   481%     -  152s
     0     0 3433556.35    0  181 590916.133 3433556.35   481%     -  156s
     0     2 3433556.35    0  180 590916.133 3433556.35   481%     -  158s
     1     5 3288473.82    1  151 590916.133 3432080.25   481%  1034  160s
    15    20 3201354.93    4  164 590916.133 3344536.11   466%   715  166s
H   29    31                    826603.16342 3344536.11   305%   698  186s
    40    42 3088852.43   10  143 826603.163 3344536.11   305%   683  191s
    87    89 2906205.84   20  153 826603.163 3344536.11   305%   492  195s
   189   171 1381805.27   48  139 826603.163 3332899.31   303%   366  200s
   261   210 2650128.70   10  132 826603.163 3209175.18   288%   411  206s
   322   258 2613892.63   15  120 826603.163 3209175.18   288%   407  210s
   391   286 2503802.88   21   80 826603.163 3209175.18   288%   403  224s
   411   308 2325909.56   28   85 826603.163 3209175.18   288%   399  225s
   573   405 1631385.81   58   44 826603.163 3121207.46   278%   378  230s
   709   487 2760707.31   11  113 826603.163 3093076.29   274%   372  235s
   877   589 2388460.88   11  131 826603.163 3085762.11   273%   359  241s
   964   627 1088663.51   28   93 826603.163 3079828.08   273%   370  245s
  1033   663 2023161.73   13  155 826603.163 3070436.44   271%   370  266s
  1035   664 969814.274   84  130 826603.163 3070436.44   271%   369  271s
  1049   674 2427121.26    9  182 826603.163 3070436.44   271%   364  275s
  1057   679 2335427.79   19  204 826603.163 2980356.66   261%   361  280s
  1065   686 1079867.15   29  155 826603.163 2935163.82   255%   384  285s
H 1066   652                    864882.26522 2935163.82   239%   384  289s
  1068   653 1500098.44   29  166 864882.265 2935163.82   239%   383  290s
  1077   659 1172432.55   45  166 864882.265 2768672.18   220%   380  295s
  1083   665 2741690.51   23  172 864882.265 2741690.51   217%   403  308s
  1085   666 2733694.13   24  164 864882.265 2733694.13   216%   408  313s
  1088   668 2723477.37   25  168 864882.265 2723477.37   215%   410  315s
  1100   671 2620598.34   27  161 864882.265 2699330.27   212%   418  321s
H 1110   640                    1079769.2129 2699330.27   150%   419  325s
  1143   642 2461115.34   31  122 1079769.21 2688089.05   149%   428  331s
  1174   652 2453282.54   35   98 1079769.21 2688089.05   149%   440  335s
  1199   655 2404042.01   38   86 1079769.21 2687686.44   149%   447  340s
  1300   665 1960323.21   30  121 1079769.21 2646037.11   145%   452  345s
  1430   696 1406889.94   54   44 1079769.21 2594477.41   140%   444  350s
  1638   714 2311636.53   29  160 1079769.21 2488524.16   130%   429  355s
  1859   740 1465462.23   49   44 1079769.21 2425516.59   125%   421  360s
  1968   738     cutoff   38      1079769.21 2368148.11   119%   417  365s
H 1975   704                    1079769.2149 2368148.11   119%   417  365s
  2143   718     cutoff   32      1079769.21 2326735.72   115%   413  370s
  2386   760 2219722.68   43   40 1079769.21 2319494.96   115%   407  376s
  2568   773 1878396.92   48   92 1079769.21 2288735.90   112%   405  381s
  2755   786 1584843.80   38   73 1079769.21 2280260.47   111%   402  385s
  2888   797 2127050.82   36  154 1079769.21 2266883.44   110%   400  390s
  3189   983     cutoff   51      1079769.21 2241160.87   108%   389  397s
  3474  1132 1264752.27   49   44 1079769.21 2232894.37   107%   381  402s
  3670  1216 1939912.86   47   56 1079769.21 2224510.87   106%   379  407s
  3777  1283 1385594.28   82   55 1079769.21 2214888.32   105%   376  410s
  4059  1388 2159288.29   43   42 1079769.21 2203804.47   104%   374  416s
  4292  1494 1976752.28   36  148 1079769.21 2195858.96   103%   373  423s
  4429  1552 1670782.36   43   73 1079769.21 2188276.89   103%   372  427s
  4596  1616 2025923.74   37  101 1079769.21 2183805.96   102%   369  431s
  4711  1664 1115266.78   45   37 1079769.21 2180539.93   102%   370  435s
  5045  1816 1835779.15   58  106 1079769.21 2169817.93   101%   366  443s
  5211  1875     cutoff   82      1079769.21 2169817.93   101%   366  447s
  5375  1944 1497975.07   40   54 1079769.21 2150125.19  99.1%   365  452s
  5600  2031 1224341.76   61  129 1079769.21 2141343.66  98.3%   364  456s
  5875  2125 1932405.93   46   81 1079769.21 2127782.87  97.1%   362  462s
  6095  2206 1680534.00   42   99 1079769.21 2123923.15  96.7%   357  466s
  6344  2310 1620383.91   57   64 1079769.21 2117747.87  96.1%   355  471s
  6621  2436 1689680.52   56  104 1079769.21 2106881.17  95.1%   354  476s
  6843  2541     cutoff   41      1079769.21 2103634.54  94.8%   352  482s
  7125  2663 2033615.45   58   72 1079769.21 2094291.36  94.0%   352  487s
  7364  2752 1951697.02   50   44 1079769.21 2086811.69  93.3%   352  493s
  7639  2852 1712962.23   48   89 1079769.21 2080999.44  92.7%   352  499s
  7970  2966     cutoff   65      1079769.21 2080239.17  92.7%   349  505s
  8336  3121 1715560.87   58   98 1079769.21 2065323.00  91.3%   348  512s
  8654  3222 1570240.62   40  136 1079769.21 2055189.82  90.3%   348  519s
  8981  3337 1607670.56   57  147 1079769.21 2047227.31  89.6%   346  526s
  9375  3463     cutoff   35      1079769.21 2032287.18  88.2%   345  533s
  9727  3578     cutoff   46      1079769.21 2025117.87  87.6%   344  543s
 10194  3752 1567319.62   50   91 1079769.21 2014970.00  86.6%   343  551s
 10727  3930 1932757.10   50   80 1079769.21 1998310.50  85.1%   340  566s
 11187  4021 1437543.30   54  109 1079769.21 1996801.31  84.9%   340  575s
 11800  4262 1584556.56   50  100 1079769.21 1975873.86  83.0%   337  584s
 12169  4398 1095245.79   56   23 1079769.21 1970719.36  82.5%   337  592s
 12786  4573     cutoff   54      1079769.21 1959852.47  81.5%   334  600s
 13401  4763 1247788.22   48   79 1079769.21 1943205.49  80.0%   331  610s
 13774  4841 1248449.10   56   36 1079769.21 1935639.13  79.3%   330  619s
 14301  5001 1790666.26   50   49 1079769.21 1926188.03  78.4%   328  627s
 14902  5186 1274299.50   49   89 1079769.21 1920712.06  77.9%   327  635s
 15479  5397 1705941.74   56   57 1079769.21 1916477.98  77.5%   325  644s
 15580  5364 1691225.22   55   58 1079769.21 1911465.65  77.0%   324  652s
 16187  5545 1390943.70   39   47 1079769.21 1903760.95  76.3%   322  660s
 16713  5698 1555592.79   49  103 1079769.21 1892372.62  75.3%   321  668s
H16863  5741                    1079769.2156 1892372.62  75.3%   321  668s
 16880  5712 1855024.42   47   43 1079769.22 1892372.62  75.3%   321  675s
 17353  5835 1638089.48   54   68 1079769.22 1888642.86  74.9%   320  683s
 17811  5956 1811790.34   35  102 1079769.22 1880893.83  74.2%   319  691s
 18325  6075 1330305.32   48   46 1079769.22 1870637.11  73.2%   319  698s
 18913  6216 1451666.81   46   53 1079769.22 1864555.58  72.7%   318  706s
 19471  6342 1167006.05   41  107 1079769.22 1854487.80  71.7%   318  713s
 19983  6445 1614108.42   64   55 1079769.22 1851286.39  71.5%   318  720s
 20603  6581     cutoff   54      1079769.22 1843662.95  70.7%   316  727s
 21190  6742 1802004.28   33  155 1079769.22 1840807.36  70.5%   315  921s
 21194  6745 1721888.46   45  157 1079769.22 1840807.36  70.5%   315  925s
 21215  6759 1423144.26   48  149 1079769.22 1840807.36  70.5%   315  930s
 21230  6769 1741368.70   46  204 1079769.22 1840807.36  70.5%   315  935s
 21244  6778 1386907.67   41  205 1079769.22 1840807.36  70.5%   315  940s
 21263  6791 1822945.45   44  214 1079769.22 1840807.36  70.5%   314  945s
 21278  6801 1593195.24   45  215 1079769.22 1840807.36  70.5%   314  950s
 21291  6809 1571801.86   73  229 1079769.22 1840807.36  70.5%   314  955s
 21306  6819 1475564.09   47  224 1079769.22 1840807.36  70.5%   314  960s
 21316  6826 1391199.37   49  231 1079769.22 1840807.36  70.5%   314  965s
 21327  6833 1671187.09   51  234 1079769.22 1840807.36  70.5%   313  970s
 21342  6843 1826005.41   49  263 1079769.22 1840807.36  70.5%   313  975s
 21353  6851 1755940.30   44  251 1079769.22 1840807.36  70.5%   313  980s
 21368  6861 1636948.03   69  254 1079769.22 1840807.36  70.5%   313  985s
 21384  6871 1579807.79   52  238 1079769.22 1840807.36  70.5%   313  990s
 21397  6880 1428846.15   43  258 1079769.22 1840807.36  70.5%   312  995s
 21410  6889 1664033.66   61  255 1079769.22 1840807.36  70.5%   312 1000s
 21420  6895 1445121.36   64  265 1079769.22 1840807.36  70.5%   312 1005s
 21431  6903 1672273.99   64  268 1079769.22 1840807.36  70.5%   312 1010s
 21442  6910 1826005.41   49  299 1079769.22 1840807.36  70.5%   312 1015s
 21452  6917 1450564.46   54  304 1079769.22 1840807.36  70.5%   312 1021s
 21460  6922 1577293.91   50  278 1079769.22 1840807.36  70.5%   311 1025s
 21475  6932 1512510.76   49  264 1079769.22 1840807.36  70.5%   311 1030s
H21477  6581                    1079769.2261 1840807.36  70.5%   311 1032s
H21480  6249                    1079769.2264 1840807.36  70.5%   311 1036s
 21495  6259 1603008.74   50  263 1079769.23 1840807.36  70.5%   311 1040s
 21505  6266 1396597.14   65  278 1079769.23 1840807.36  70.5%   311 1045s
H21505  5947                    1079769.2267 1840807.36  70.5%   311 1046s
 21512  5952 1105515.23   93  289 1079769.23 1840807.36  70.5%   311 1050s
 21520  5957 1445121.36   64  287 1079769.23 1840807.36  70.5%   311 1055s
H21521  5655                    1079769.9504 1840807.36  70.5%   311 1056s
 21528  5659 1091250.38   65  276 1079769.95 1840807.36  70.5%   310 1060s
 21531  5661 1672273.99   64  275 1079769.95 1840807.36  70.5%   310 1066s
 21532  5662 1735971.23   61  275 1079769.95 1840807.36  70.5%   310 1074s
 21535  5665 1160119.19   60  124 1079769.95 1840807.36  70.5%   315 1075s
 21541  5669 1270128.68   42  217 1079769.95 1840807.36  70.5%   315 1080s
 21556  5679 1608101.65   68  274 1079769.95 1840807.36  70.5%   314 1085s
 21576  5693 1428988.44   48  260 1079769.95 1840807.36  70.5%   314 1090s
 21585  5699 1249616.68   53  256 1079769.95 1840807.36  70.5%   314 1095s
 21596  5706 1524481.26   49  248 1079769.95 1840807.36  70.5%   314 1101s
 21605  5712 1396597.14   65  243 1079769.95 1840807.36  70.5%   314 1105s
 21616  5719 1391199.37   49  229 1079769.95 1840807.36  70.5%   314 1110s
 21627  5727 1671187.09   51  229 1079769.95 1840807.36  70.5%   313 1115s
 21638  5734 1717270.25   62  251 1079769.95 1840807.36  70.5%   313 1120s
 21647  5740 1312090.36   70  250 1079769.95 1840807.36  70.5%   313 1125s
 21655  5745 1417791.53   54  226 1079769.95 1840807.36  70.5%   313 1130s
 21666  5753 1741366.18   44  208 1079769.95 1840807.36  70.5%   313 1135s
 21674  5758 1822753.57   44  214 1079769.95 1840807.36  70.5%   313 1140s
 21685  5765 1249616.68   53  232 1079769.95 1840807.36  70.5%   313 1145s
 21691  5769 1571801.86   73  226 1079769.95 1840807.36  70.5%   312 1150s
 21694  5774 1840807.36   47  221 1079769.95 1840807.36  70.5%   315 1163s
 21696  5778 1840807.36   48  200 1079769.95 1840807.36  70.5%   315 1170s
 21700  5780 1840807.36   49  231 1079769.95 1840807.36  70.5%   315 1177s
 21704  5783 1840807.36   49  156 1079769.95 1840807.36  70.5%   316 1182s
 21708  5785 1840807.36   50  208 1079769.95 1840807.36  70.5%   316 1186s
 21716  5788 1840807.36   51  197 1079769.95 1840807.36  70.5%   316 1190s
 21727  5788 1840807.36   52  208 1079769.95 1840807.36  70.5%   317 1195s
 21741  5797 1840807.36   53   98 1079769.95 1840807.36  70.5%   317 1201s
 21759  5800 1840807.36   55  101 1079769.95 1840807.36  70.5%   318 1206s
 21794  5801 1840807.36   58   95 1079769.95 1840807.36  70.5%   319 1211s
 21844  5797 1840807.36   51  171 1079769.95 1840807.36  70.5%   320 1217s
H21847  5504                    1079770.1077 1840807.36  70.5%   320 1217s
 21869  5505 1840807.36   53  160 1079770.11 1840807.36  70.5%   320 1221s
 21881  5509 1840807.36   58  147 1079770.11 1840807.36  70.5%   320 1226s
 21901  5511 1824196.48   52  220 1079770.11 1840807.36  70.5%   321 1230s
 21966  5528 1600238.21   58  222 1079770.11 1840807.36  70.5%   322 1236s
 22029  5529 1563342.93   66  211 1079770.11 1840807.36  70.5%   323 1240s
 22161  5540 1175986.33   89  137 1079770.11 1840807.36  70.5%   324 1246s
 22312  5555 1840807.36   56   53 1079770.11 1840807.36  70.5%   325 1251s
 22402  5548 1574387.94   58   97 1079770.11 1840807.36  70.5%   327 1255s
 22515  5560 1304636.04   59   35 1079770.11 1840807.36  70.5%   328 1263s
 22574  5554 1840807.36   60  107 1079770.11 1840807.36  70.5%   329 1265s
 22726  5556 1836263.26   61  114 1079770.11 1840807.36  70.5%   331 1270s
 22899  5558 1168322.90   59   86 1079770.11 1840807.36  70.5%   333 1275s
 23091  5556 1656591.33   61   96 1079770.11 1840807.36  70.5%   334 1280s
 23337  5577 1340179.11   57   88 1079770.11 1840807.36  70.5%   335 1286s
 23557  5567 1690144.19   59  148 1079770.11 1840807.36  70.5%   337 1292s
 23641  5575 1272833.09   59  112 1079770.11 1840807.36  70.5%   339 1295s
 23873  5565 1621205.90   60   67 1079770.11 1840807.36  70.5%   341 1301s
 24017  5559 1134626.74   55   69 1079770.11 1840807.36  70.5%   343 1305s
 24298  5550 1386648.52   67  189 1079770.11 1840765.20  70.5%   345 1312s
 24484  5542 1262471.85   66   56 1079770.11 1835455.43  70.0%   345 1318s
 24646  5520 1491940.16   58   54 1079770.11 1827996.08  69.3%   347 1322s
 24823  5500 1679113.84   53   80 1079770.11 1819713.11  68.5%   348 1326s
 25003  5501 1728355.34   59  126 1079770.11 1814709.35  68.1%   350 1331s
 25188  5472 1559464.62   56  170 1079770.11 1811641.48  67.8%   351 1335s
 25443  5437     cutoff   65      1079770.11 1802994.43  67.0%   352 1340s
 25602  5420 1406320.25   60   89 1079770.11 1796428.75  66.4%   353 1345s
 25805  5391     cutoff   55      1079770.11 1795457.93  66.3%   355 1351s
 26069  5359 1382739.33   56   59 1079770.11 1783951.85  65.2%   356 1356s
 26338  5320     cutoff   65      1079770.11 1773028.81  64.2%   357 1362s
 26614  5255 1387124.97   62   93 1079770.11 1770553.68  64.0%   358 1368s
 26928  5214 1141360.73   64  101 1079770.11 1757697.87  62.8%   360 1373s
 27254  5146 1656647.28   64  126 1079770.11 1743981.53  61.5%   360 1380s
 27562  5095 1272477.31   70   91 1079770.11 1736504.53  60.8%   361 1387s
 28000  5064     cutoff   63      1079770.11 1722419.76  59.5%   362 1394s
 28309  5022     cutoff   59      1079770.11 1714378.12  58.8%   363 1400s
 28684  4943 1183427.90   75  106 1079770.11 1700177.40  57.5%   365 1408s
 28964  4874 1306385.34   62   84 1079770.11 1686398.96  56.2%   366 1415s
 29345  4782     cutoff   71      1079770.11 1677305.50  55.3%   368 1423s
 29904  4678     cutoff   67      1079770.11 1660692.25  53.8%   367 1431s
 30416  4563     cutoff   60      1079770.11 1643371.94  52.2%   368 1441s
 30750  4461 1528286.73   62  116 1079770.11 1632022.29  51.1%   369 1449s
 31195  4353 1421789.76   61  156 1079770.11 1626518.04  50.6%   371 1457s
 31641  4221 1589088.08   69   61 1079770.11 1605808.36  48.7%   373 1466s
 32097  4095 1340684.82   60   98 1079770.11 1601346.29  48.3%   374 1478s
 32632  3997     cutoff   75      1079770.11 1580243.60  46.4%   375 1487s
 33095  3885 1291182.74   93  144 1079770.11 1567890.68  45.2%   376 1497s
 33608  3786 infeasible   83      1079770.11 1555749.86  44.1%   377 1505s
 34096  3674 1346015.83   66  153 1079770.11 1541381.13  42.8%   378 1514s
 34553  3536 1328410.41   65   59 1079770.11 1534597.30  42.1%   379 1522s
 34996  3457 1400044.23   63  153 1079770.11 1523341.79  41.1%   380 1533s
 35085  3358 1401991.89   70   17 1079770.11 1518026.12  40.6%   380 1541s
 35492  3229 1418181.43   69  118 1079770.11 1507491.86  39.6%   381 1548s
 35855  3075     cutoff   64      1079770.11 1494993.27  38.5%   382 1556s
 36205  2924     cutoff   61      1079770.11 1486064.84  37.6%   382 1564s
 36586  2754 1296143.13   67   90 1079770.11 1479818.31  37.0%   383 1570s
 36929  2622 1439172.07   62   95 1079770.11 1470962.46  36.2%   383 1575s
 37244  2492 1451204.58   58   81 1079770.11 1455712.44  34.8%   383 1582s
 37556  2337 1249429.46   69  116 1079770.11 1446104.73  33.9%   385 1589s
 37962  2182 1347164.67   61   80 1079770.11 1435386.05  32.9%   385 1595s
 38288  2115 1401460.60   51   60 1079770.11 1425963.59  32.1%   385 1604s
 38577  2069 1369952.87   62  102 1079770.11 1423333.62  31.8%   386 1609s
 38914  2039     cutoff   65      1079770.11 1411280.25  30.7%   386 1614s
 39238  2016     cutoff   75      1079770.11 1402534.13  29.9%   386 1619s
 39567  1976     cutoff   58      1079770.11 1395830.78  29.3%   386 1624s
 39830  1913     cutoff   75      1079770.11 1387805.48  28.5%   387 1629s
 40114  1891 1092294.43   67   49 1079770.11 1380763.64  27.9%   387 1634s
 40463  1866     cutoff   72      1079770.11 1371329.72  27.0%   386 1639s
 40841  1856 1288918.55   64   89 1079770.11 1368174.46  26.7%   386 1643s
 41150  1815     cutoff   81      1079770.11 1353257.20  25.3%   385 1649s
 41461  1767 1317785.05   60   50 1079770.11 1343037.22  24.4%   386 1655s
 41740  1744 1337040.17   66   37 1079770.11 1337040.17  23.8%   386 1661s
 42065  1703 1304585.94   67   31 1079770.11 1330257.05  23.2%   386 1666s
 42603  1586     cutoff   86      1079770.11 1315459.38  21.8%   385 1672s
 42834  1522     cutoff   71      1079770.11 1308734.81  21.2%   385 1676s
 43066  1453 1202445.54   59   12 1079770.11 1300738.36  20.5%   385 1680s
 43548  1322     cutoff   66      1079770.11 1287721.35  19.3%   385 1687s
 43823  1276     cutoff   63      1079770.11 1279957.94  18.5%   385 1690s
 44259  1144     cutoff   63      1079770.11 1265393.62  17.2%   384 1697s
 44643  1000 1163629.05   71   43 1079770.11 1254350.11  16.2%   384 1700s
 45005   851     cutoff   81      1079770.11 1237462.56  14.6%   384 1705s
 45303   692     cutoff   61      1079770.11 1222686.02  13.2%   384 1710s
 45823   457     cutoff   62      1079770.11 1199548.42  11.1%   383 1715s
 46344   131     cutoff   68      1079770.11 1158330.57  7.28%   382 1720s

Cutting planes:
  Gomory: 121
  Implied bound: 16
  Projected implied bound: 1
  MIR: 13
  Flow cover: 129
  Zero half: 3
  Mod-K: 1

Explored 46613 nodes (17865461 simplex iterations) in 1725.41 seconds
Thread count was 4 (of 16 available processors)

Solution count 10: 1.07977e+06 1.07977e+06 1.07977e+06 ... 826603

Optimal solution found (tolerance 1.00e-04)
Best objective 1.079769212879e+06, best bound 1.079770107718e+06, gap 0.0001%

***
***  |- Calculation finished, took 1,725.45 (1725.45) sec.
***  |-----------------------------------------------------------------------------------------------------------------------
***
*****************************************************************************************************************************
#############################################################################################################################
###
### Results
###
### The objective of the solution is 1,079,769.2129 (1079769.2129) and is feasible with a Gap of 0.0
###
### Service 81 (MECL1) is operated by 6 vessels from type 30 (PMax35)
###  |- Vessel  9 has the path [9, 332, 326, 342, 333, 324, 4, 294, 284, 7, 298, 196, 0]
###  |  9 (BEANR Out@344.0) - 332 (USEWR In@608.0/Out@618.0) - 326 (USCHS In@656.0/Out@666.0) - 342 (USORF In@691.0/Out@704.0
###  |  ) - 333 (USEWR In@728.0/Out@744.0) - 324 (TRZMK In@1063.0/Out@1077.0) - 4 (AEJEA In@1177.0/Out@1201.0) - 294 (PKBQM I
###  |  n@1258.0/Out@1288.0) - 284 (OMSLL In@1410.0/Out@1423.0) - 7 (AEJEA In@1681.0/Out@1705.0) - 298 (PKBQM In@1762.0/Out@1
###  |  792.0) - 196 (INNSA In@1856.0/Out@1872.0) - 0 (DUMMY_END Ziel-Service 81)
###  |   |- and carried Demand 237,   34.0 containers from 298 to 196
###  |   |- and carried Demand 238,   84.0 containers from   7 to 298
###  |   |- and carried Demand 239,   50.0 containers from   7 to 298
###  |   |- and carried Demand 297,  254.0 containers from 294 to 196
###  |   |- and carried Demand 298,    1.0 containers from 294 to 196
###  |   |- and carried Demand 299,  135.0 containers from 294 to 196
###  |   |- and carried Demand 302,   75.0 containers from   4 to 196
###  |   |- and carried Demand 303,  200.0 containers from   4 to 294
###  |   |- and carried Demand 304,   24.0 containers from   4 to 294
###  |   |- and carried Demand 305,   26.0 containers from   4 to 196
###  |   |- and carried Demand 306,  144.0 containers from   4 to 196
###  |   |- and carried Demand 307,    1.0 containers from   4 to 196
###  |   |- and carried Demand 309,  339.0 containers from 342 to   4
###  |   |- and carried Demand 310,  115.0 containers from 342 to   4
###  |   |- and carried Demand 311,    3.0 containers from 342 to 284
###  |   |- and carried Demand 312,    2.0 containers from 342 to 294
###  |   |- and carried Demand 313,  194.0 containers from 326 to   4
###  |   |- and carried Demand 314,   49.0 containers from 326 to   4
###  |   |- and carried Demand 315,   40.0 containers from 326 to 294
###  |   |- and carried Demand 318,  842.0 containers from 332 to   4
###  |   |- and carried Demand 319,   99.0 containers from 332 to   4
###  |   |- and carried Demand 320,  123.0 containers from 332 to 294
###  |   |- and carried Demand 321,    1.0 containers from 332 to 294
###  |- Vessel 10 has the path [10, 316, 190, 0]
###  |  10 (BEANR Out@512.0) - 316 (TRAMB In@854.0/Out@881.0) - 190 (INNSA In@1016.0/Out@1032.0) - 0 (DUMMY_END Ziel-Service 
###  |  81)
###  |- Vessel 11 has the path [13, 313, 191, 0]
###  |  13 (BEANR Out@680.0) - 313 (TRALI In@946.0/Out@964.0) - 191 (INNSA In@1184.0/Out@1200.0) - 0 (DUMMY_END Ziel-Service 
###  |  81)
###  |- Vessel 12 has the path [16, 314, 192, 0]
###  |  16 (BEANR Out@848.0) - 314 (TRALI In@1114.0/Out@1132.0) - 192 (INNSA In@1352.0/Out@1368.0) - 0 (DUMMY_END Ziel-Servic
###  |  e 81)
###  |- Vessel 17 has the path [158, 2, 291, 292, 293, 283, 5, 295, 194, 195, 0]
###  |  158 (GBFXT Out@580.0) - 2 (AEJEA In@841.0/Out@865.0) - 291 (PKBQM In@922.0/Out@952.0) - 292 (PKBQM In@992.0/Out@1020.
###  |  0) - 293 (PKBQM In@1090.0/Out@1120.0) - 283 (OMSLL In@1167.0/Out@1182.0) - 5 (AEJEA In@1345.0/Out@1369.0) - 295 (PKBQ
###  |  M In@1426.0/Out@1456.0) - 194 (INNSA In@1590.0/Out@1622.0) - 195 (INNSA In@1688.0/Out@1704.0) - 0 (DUMMY_END Ziel-Ser
###  |  vice 81)
###  |   |- and carried Demand 120,  237.0 containers from 292 to 194
###  |   |- and carried Demand 121,    2.0 containers from 292 to 194
###  |   |- and carried Demand 123,   97.0 containers from 292 to 194
###  |   |- and carried Demand 283,  153.0 containers from   5 to 195
###  |   |- and carried Demand 284,   86.0 containers from   5 to 295
###  |   |- and carried Demand 285,  118.0 containers from   5 to 295
###  |   |- and carried Demand 323,  244.0 containers from 293 to 195
###  |   |- and carried Demand 324,   67.0 containers from 293 to 195
###  |   |- and carried Demand 333,  237.0 containers from 291 to 194
###  |   |- and carried Demand 334,    2.0 containers from 291 to 194
###  |   |- and carried Demand 336,   97.0 containers from 291 to 194
###  |   |- and carried Demand 338,  704.0 containers from   2 to 195
###  |   |- and carried Demand 339,    8.0 containers from   2 to 195
###  |   |- and carried Demand 340,  156.0 containers from   2 to 291
###  |   |- and carried Demand 341,   45.0 containers from   2 to 291
###  |   |- and carried Demand 342,   16.0 containers from   2 to 194
###  |   |- and carried Demand 343,  264.0 containers from   2 to 194
###  |- Vessel 18 has the path [161, 321, 193, 0]
###  |  161 (GBFXT Out@748.0) - 321 (TRGEM In@1087.0/Out@1095.0) - 193 (INNSA In@1520.0/Out@1536.0) - 0 (DUMMY_END Ziel-Servi
###  |  ce 81)
###  |
### Vessels not used in the solution: [1, 2, 3, 4, 5, 6, 7, 8, 13, 14, 15, 16, 22]
###  |-----------------------------------------------------------------------------------------------------------------------
###
#############################################################################################################################

### Detialed variable overview

### All variables with value greater zero:
rho[81,30] = 1
eta[81,30,1] = 1
eta[81,30,2] = 1
eta[81,30,3] = 1
eta[81,30,4] = 1
eta[81,30,5] = 1
eta[81,30,6] = 1
y[9,4,294] = 1
y[9,332,326] = 1
y[9,294,284] = 1
y[9,284,7] = 1
y[9,342,333] = 1
y[9,9,332] = 1
y[9,324,4] = 1
y[9,7,298] = 1
y[9,196,0] = 1
y[9,333,324] = 1
y[9,298,196] = 1
y[9,326,342] = 1
y[10,190,0] = 1
y[10,316,190] = 1
y[10,10,316] = 1
y[11,313,191] = 1
y[11,191,0] = 1
y[11,13,313] = 1
y[12,192,0] = 1
y[12,314,192] = 1
y[12,16,314] = 1
y[17,283,5] = 1
y[17,293,283] = 1
y[17,195,0] = 1
y[17,5,295] = 1
y[17,292,293] = 1
y[17,194,195] = 1
y[17,291,292] = 1
y[17,295,194] = 1
y[17,2,291] = 1
y[17,158,2] = 1
y[18,161,321] = 1
y[18,193,0] = 1
y[18,321,193] = 1
xD[120,283,5] = 237
xD[120,293,283] = 237
xD[120,5,295] = 237
xD[120,292,293] = 237
xD[120,295,194] = 237
xD[121,283,5] = 2
xD[121,293,283] = 2
xD[121,5,295] = 2
xD[121,292,293] = 2
xD[121,295,194] = 2
xD[123,283,5] = 97
xD[123,293,283] = 97
xD[123,5,295] = 97
xD[123,292,293] = 97
xD[123,295,194] = 97
xD[237,298,196] = 34
xD[238,7,298] = 84
xD[239,7,298] = 50
xD[283,5,295] = 153
xD[283,194,195] = 153
xD[283,295,194] = 153
xD[284,5,295] = 86
xD[285,5,295] = 118
xD[297,294,284] = 254
xD[297,284,7] = 254
xD[297,7,298] = 254
xD[297,298,196] = 254
xD[298,294,284] = 1
xD[298,284,7] = 1
xD[298,7,298] = 1
xD[298,298,196] = 1
xD[299,294,284] = 135
xD[299,284,7] = 135
xD[299,7,298] = 135
xD[299,298,196] = 135
xD[302,4,294] = 75
xD[302,294,284] = 75
xD[302,284,7] = 75
xD[302,7,298] = 75
xD[302,298,196] = 75
xD[303,4,294] = 200
xD[304,4,294] = 24
xD[305,4,294] = 26
xD[305,294,284] = 26
xD[305,284,7] = 26
xD[305,7,298] = 26
xD[305,298,196] = 26
xD[306,4,294] = 144
xD[306,294,284] = 144
xD[306,284,7] = 144
xD[306,7,298] = 144
xD[306,298,196] = 144
xD[307,4,294] = 1
xD[307,294,284] = 1
xD[307,284,7] = 1
xD[307,7,298] = 1
xD[307,298,196] = 1
xD[309,342,333] = 339
xD[309,324,4] = 339
xD[309,333,324] = 339
xD[310,342,333] = 115
xD[310,324,4] = 115
xD[310,333,324] = 115
xD[311,4,294] = 3
xD[311,294,284] = 3
xD[311,342,333] = 3
xD[311,324,4] = 3
xD[311,333,324] = 3
xD[312,4,294] = 2
xD[312,342,333] = 2
xD[312,324,4] = 2
xD[312,333,324] = 2
xD[313,342,333] = 194
xD[313,324,4] = 194
xD[313,333,324] = 194
xD[313,326,342] = 194
xD[314,342,333] = 49
xD[314,324,4] = 49
xD[314,333,324] = 49
xD[314,326,342] = 49
xD[315,4,294] = 40
xD[315,342,333] = 40
xD[315,324,4] = 40
xD[315,333,324] = 40
xD[315,326,342] = 40
xD[318,332,326] = 842
xD[318,342,333] = 842
xD[318,324,4] = 842
xD[318,333,324] = 842
xD[318,326,342] = 842
xD[319,332,326] = 99
xD[319,342,333] = 99
xD[319,324,4] = 99
xD[319,333,324] = 99
xD[319,326,342] = 99
xD[320,4,294] = 123
xD[320,332,326] = 123
xD[320,342,333] = 123
xD[320,324,4] = 123
xD[320,333,324] = 123
xD[320,326,342] = 123
xD[321,4,294] = 1
xD[321,332,326] = 1
xD[321,342,333] = 1
xD[321,324,4] = 1
xD[321,333,324] = 1
xD[321,326,342] = 1
xD[323,283,5] = 244
xD[323,293,283] = 244
xD[323,5,295] = 244
xD[323,194,195] = 244
xD[323,295,194] = 244
xD[324,283,5] = 67
xD[324,293,283] = 67
xD[324,5,295] = 67
xD[324,194,195] = 67
xD[324,295,194] = 67
xD[333,283,5] = 237
xD[333,293,283] = 237
xD[333,5,295] = 237
xD[333,292,293] = 237
xD[333,291,292] = 237
xD[333,295,194] = 237
xD[334,283,5] = 2
xD[334,293,283] = 2
xD[334,5,295] = 2
xD[334,292,293] = 2
xD[334,291,292] = 2
xD[334,295,194] = 2
xD[336,283,5] = 97
xD[336,293,283] = 97
xD[336,5,295] = 97
xD[336,292,293] = 97
xD[336,291,292] = 97
xD[336,295,194] = 97
xD[338,283,5] = 704
xD[338,293,283] = 704
xD[338,5,295] = 704
xD[338,292,293] = 704
xD[338,194,195] = 704
xD[338,291,292] = 704
xD[338,295,194] = 704
xD[338,2,291] = 704
xD[339,283,5] = 8
xD[339,293,283] = 8
xD[339,5,295] = 8
xD[339,292,293] = 8
xD[339,194,195] = 8
xD[339,291,292] = 8
xD[339,295,194] = 8
xD[339,2,291] = 8
xD[340,2,291] = 156
xD[341,2,291] = 45
xD[342,283,5] = 16
xD[342,293,283] = 16
xD[342,5,295] = 16
xD[342,292,293] = 16
xD[342,291,292] = 16
xD[342,295,194] = 16
xD[342,2,291] = 16
xD[343,283,5] = 264
xD[343,293,283] = 264
xD[343,5,295] = 264
xD[343,292,293] = 264
xD[343,291,292] = 264
xD[343,295,194] = 264
xD[343,2,291] = 264
zE[2] = 841
zE[4] = 1177
zE[5] = 1345
zE[7] = 1681
zE[190] = 1016
zE[191] = 1184
zE[192] = 1352
zE[193] = 1520
zE[194] = 1590
zE[195] = 1688
zE[196] = 1856
zE[283] = 1167
zE[284] = 1410
zE[291] = 922
zE[292] = 992
zE[293] = 1090
zE[294] = 1258
zE[295] = 1426
zE[298] = 1762
zE[313] = 946
zE[314] = 1114
zE[316] = 854
zE[321] = 1087
zE[324] = 1063
zE[326] = 656
zE[332] = 608
zE[333] = 728
zE[342] = 691
zX[2] = 865
zX[4] = 1201
zX[5] = 1369
zX[7] = 1705
zX[9] = 344
zX[10] = 512
zX[13] = 680
zX[16] = 848
zX[158] = 580
zX[161] = 748
zX[190] = 1032
zX[191] = 1200
zX[192] = 1368
zX[193] = 1536
zX[194] = 1622
zX[195] = 1704
zX[196] = 1872
zX[283] = 1182
zX[284] = 1423
zX[291] = 952
zX[292] = 1020
zX[293] = 1120
zX[294] = 1288
zX[295] = 1456
zX[298] = 1792
zX[313] = 964
zX[314] = 1132
zX[316] = 881
zX[321] = 1095
zX[324] = 1077
zX[326] = 666
zX[332] = 618
zX[333] = 744
zX[342] = 704
phi[9] = 1528
phi[10] = 520
phi[11] = 520
phi[12] = 520
phi[17] = 1124
phi[18] = 788

### All variables with value smaller zero:

### End

real	32m20.800s
user	109m30.812s
sys	6m24.566s
	OpenBLAS 0.2.6 environment removed
	Freetype 2.4.12 environment removed
	Python 3.6.0 environment removed
	Gurobi 8.1.0 environment removed
