	OpenBLAS 0.2.6 environment established
		compiled with gcc for max. 16 cores
	Freetype 2.4.12 environment established
		library to render fonts
	Python 3.6.0 environment established
	Gurobi 8.1.0 environment established
Instance LSFRP: LSFDRP_4_3_5_1_fr.p
Instance LSFDP: LSFDRP_4_3_5_1_fd_13.p

*****************************************************************************************************************************
*** Solve LSFDRP_4_3_5_1_fd_13 with Gurobi
***
*** Graph info
*** |S|: 19
*** |S^E|: 0
*** |S^C|: 1
*** |V|: 347
*** |A|: 8382
*** |A^i|: 8382
*** |A^f|: 0
*** |M|: 343
*** |E|: 0

Changed value of parameter NumericFocus to 1
   Prev: 0  Min: 0  Max: 3  Default: 0
Changed value of parameter TimeLimit to 86400.0
   Prev: 1e+100  Min: 0.0  Max: 1e+100  Default: 1e+100
Changed value of parameter Threads to 4
   Prev: 0  Min: 0  Max: 1024  Default: 0
Optimize a model with 143928 rows, 3051766 columns and 10894529 nonzeros
Variable types: 2892487 continuous, 159279 integer (159279 binary)
Coefficient statistics:
  Matrix range     [1e+00, 4e+03]
  Objective range  [4e+01, 8e+07]
  Bounds range     [1e+00, 1e+00]
  RHS range        [1e+00, 6e+00]
Presolve removed 131863 rows and 2900112 columns (presolve time = 5s) ...
Presolve removed 135978 rows and 2910871 columns (presolve time = 10s) ...
Presolve removed 135999 rows and 2917430 columns (presolve time = 52s) ...
Presolve removed 136122 rows and 2917659 columns (presolve time = 56s) ...
Presolve removed 136122 rows and 2917659 columns
Presolve time: 58.33s
Presolved: 7806 rows, 134107 columns, 459167 nonzeros
Variable types: 4838 continuous, 129269 integer (129230 binary)

Root simplex log...

Iteration    Objective       Primal Inf.    Dual Inf.      Time
       0    9.3489767e+09   1.384416e+06   0.000000e+00     61s
   20999    1.0834172e+07   1.694495e+05   0.000000e+00     65s
   27187    8.9455105e+06   7.170342e+05   0.000000e+00     70s
   33233    7.3500452e+06   2.658531e+05   0.000000e+00     75s
   38193    5.4434431e+06   1.178874e+04   0.000000e+00     80s
   39033    5.4073849e+06   0.000000e+00   0.000000e+00     82s

Root relaxation: objective 5.407385e+06, 39033 iterations, 21.19 seconds

    Nodes    |    Current Node    |     Objective Bounds      |     Work
 Expl Unexpl |  Obj  Depth IntInf | Incumbent    BestBd   Gap | It/Node Time

     0     0 5407384.87    0  178          - 5407384.87      -     -   83s
H    0     0                    -620660.2625 5407384.87   971%     -   84s
H    0     0                    826603.16345 5407384.87   554%     -  111s
     0     0 5213789.59    0  188 826603.163 5213789.59   531%     -  113s
     0     0 5213789.59    0  153 826603.163 5213789.59   531%     -  124s
     0     0 3499898.41    0  154 826603.163 3499898.41   323%     -  133s
     0     0 3491620.87    0  155 826603.163 3491620.87   322%     -  134s
     0     0 3481097.55    0  159 826603.163 3481097.55   321%     -  135s
     0     0 3481097.55    0  149 826603.163 3481097.55   321%     -  140s
     0     0 3430917.32    0  170 826603.163 3430917.32   315%     -  143s
     0     0 3429664.81    0  177 826603.163 3429664.81   315%     -  144s
     0     0 3422613.10    0  176 826603.163 3422613.10   314%     -  144s
     0     0 3383156.96    0  170 826603.163 3383156.96   309%     -  144s
     0     0 3383156.96    0  170 826603.163 3383156.96   309%     -  144s
     0     0 3381663.82    0  182 826603.163 3381663.82   309%     -  145s
     0     0 3381288.52    0  184 826603.163 3381288.52   309%     -  145s
     0     0 3380730.21    0  184 826603.163 3380730.21   309%     -  145s
     0     0 3380519.45    0  185 826603.163 3380519.45   309%     -  146s
     0     0 3380165.22    0  181 826603.163 3380165.22   309%     -  146s
     0     0 3379676.19    0  185 826603.163 3379676.19   309%     -  146s
     0     0 3378980.38    0  187 826603.163 3378980.38   309%     -  146s
     0     0 3378790.52    0  188 826603.163 3378790.52   309%     -  146s
     0     0 3378774.70    0  189 826603.163 3378774.70   309%     -  146s
     0     0 3378549.48    0  190 826603.163 3378549.48   309%     -  146s
     0     0 3378011.60    0  190 826603.163 3378011.60   309%     -  147s
     0     0 3377555.47    0  194 826603.163 3377555.47   309%     -  147s
     0     0 3377543.56    0  196 826603.163 3377543.56   309%     -  147s
     0     0 3377036.41    0  196 826603.163 3377036.41   309%     -  147s
     0     0 3376954.94    0  197 826603.163 3376954.94   309%     -  147s
     0     0 3376819.21    0  199 826603.163 3376819.21   309%     -  147s
     0     0 3376537.38    0  199 826603.163 3376537.38   308%     -  147s
     0     0 3375711.44    0  199 826603.163 3375711.44   308%     -  147s
     0     0 3375555.34    0  198 826603.163 3375555.34   308%     -  148s
     0     0 3375553.99    0  198 826603.163 3375553.99   308%     -  148s
     0     0 3375055.75    0  201 826603.163 3375055.75   308%     -  148s
     0     0 3375018.87    0  201 826603.163 3375018.87   308%     -  148s
     0     0 3375014.93    0  202 826603.163 3375014.93   308%     -  148s
     0     0 3374999.08    0  202 826603.163 3374999.08   308%     -  148s
     0     0 3374942.69    0  202 826603.163 3374942.69   308%     -  148s
     0     0 3374933.56    0  202 826603.163 3374933.56   308%     -  148s
     0     0 3374672.76    0  197 826603.163 3374672.76   308%     -  149s
     0     0 3374110.96    0  200 826603.163 3374110.96   308%     -  149s
     0     0 3373945.88    0  197 826603.163 3373945.88   308%     -  149s
     0     0 3373915.22    0  198 826603.163 3373915.22   308%     -  149s
     0     0 3373892.50    0  198 826603.163 3373892.50   308%     -  149s
     0     0 3373833.57    0  195 826603.163 3373833.57   308%     -  149s
     0     0 3373815.72    0  196 826603.163 3373815.72   308%     -  149s
     0     0 3373651.88    0  194 826603.163 3373651.88   308%     -  149s
     0     0 3373542.92    0  197 826603.163 3373542.92   308%     -  150s
     0     0 3373542.92    0  197 826603.163 3373542.92   308%     -  150s
     0     0 3373496.60    0  200 826603.163 3373496.60   308%     -  150s
     0     0 3373496.60    0  197 826603.163 3373496.60   308%     -  153s
     0     2 3373496.60    0  195 826603.163 3373496.60   308%     -  155s
     7    11 3336006.31    3  215 826603.163 3336006.31   304%   808  161s
H   30    22                    994364.68058 3247192.10   227%   914  174s
    34    24 3233927.26    8  208 994364.681 3247192.10   227%   835  175s
    93    62 3097239.14   16  184 994364.681 3247192.10   227%   434  180s
   186   141 2402638.41   25  141 994364.681 3241453.82   226%   355  185s
   326   188 1601152.99   46  110 994364.681 3241453.82   226%   282  190s
   394   232 2776151.83   15  133 994364.681 3161549.95   218%   316  204s
   406   240 2675492.37   16  121 994364.681 3161549.95   218%   317  205s
   535   304 2413725.32   11  161 994364.681 3153074.59   217%   349  212s
   635   359 2659840.95   18  164 994364.681 3097239.14   211%   351  216s
   737   427 1376534.14   45   95 994364.681 3071160.33   209%   346  220s
   981   567 2212934.49   14  145 994364.681 3019188.70   204%   327  227s
  1060   612 1634031.65   52  188 994364.681 3019188.70   204%   323  254s
  1062   613 1418357.17   71  142 994364.681 3019188.70   204%   322  259s
  1064   615 1920112.54   42  169 994364.681 3019188.70   204%   322  260s
  1072   621 2174244.66   27  142 994364.681 2912899.38   193%   338  268s
  1078   625 1525650.35   53  177 994364.681 2912215.61   193%   336  270s
  1088   632 2659679.71   32  154 994364.681 2834495.69   185%   333  275s
  1091   637 2807931.34   24  198 994364.681 2809021.40   182%   355  285s
  1093   637 2772791.39   25  197 994364.681 2772791.39   179%   355  292s
  1101   642 2708541.34   27  120 994364.681 2752412.52   177%   361  296s
  1124   645 2266547.43   29  101 994364.681 2692707.63   171%   366  300s
  1174   660 2535655.41   34  186 994364.681 2692707.63   171%   378  305s
  1372   701 2067338.93   47   44 994364.681 2692707.63   171%   356  310s
  1495   738 1656759.85   63   66 994364.681 2534883.37   155%   345  315s
  1725   774 1576364.03   64   98 994364.681 2412572.64   143%   328  320s
  1884   793 1661058.10   40   75 994364.681 2301211.04   131%   324  325s
  1966   790 1304230.23   42   32 994364.681 2290534.63   130%   324  330s
  2219   801 1953703.81   49   38 994364.681 2257765.94   127%   312  335s
  2567   893 1709500.62   37  105 994364.681 2199866.07   121%   300  340s
  2888   949     cutoff   41      994364.681 2176208.79   119%   290  345s
  3141   991 1696035.75   43  115 994364.681 2160860.90   117%   289  351s
  3406  1089 1710256.01   58   46 994364.681 2147825.26   116%   283  355s
  3741  1211 1349147.40   61   60 994364.681 2119431.28   113%   282  361s
  4060  1355 1863826.70   49   59 994364.681 2092616.22   110%   275  368s
H 4174  1382                    1054404.8105 2089463.22  98.2%   273  368s
  4175  1379 1641441.58   57   73 1054404.81 2082723.00  97.5%   273  370s
  4659  1616 infeasible   64      1054404.81 2064995.03  95.8%   260  375s
H 5050  1773                    1079769.2129 2045529.35  89.4%   258  380s
  5395  1856 1551370.94   71   61 1079769.21 1997463.08  85.0%   255  386s
  5681  1914 1812986.97   50   55 1079769.21 1983730.84  83.7%   255  391s
  6198  2101 1622333.71   65   50 1079769.21 1947099.36  80.3%   251  397s
  6458  2210 1799965.54   52   31 1079769.21 1935964.29  79.3%   251  400s
  6804  2263 1836304.23   41   76 1079769.21 1921401.43  77.9%   251  408s
  7145  2337     cutoff   44      1079769.21 1913225.11  77.2%   248  412s
  7455  2442 1361830.94   33   94 1079769.21 1913225.11  77.2%   247  416s
  7850  2559     cutoff   50      1079769.21 1889774.77  75.0%   243  420s
  8523  2713 1280012.13   58   48 1079769.21 1871166.81  73.3%   241  428s
  9013  2839     cutoff   56      1079769.21 1863338.31  72.6%   237  432s
  9305  2902 1442583.86   51   60 1079769.21 1854679.90  71.8%   237  437s
  9740  3008 1779312.82   63   32 1079769.21 1851168.74  71.4%   235  446s
 10215  3116     cutoff   48      1079769.21 1837161.99  70.1%   234  457s
 10663  3175 1214478.00   60   36 1079769.21 1826394.43  69.1%   233  462s
 11283  3282     cutoff   57      1079769.21 1809312.23  67.6%   231  467s
 11875  3386     cutoff   36      1079769.21 1799697.41  66.7%   230  472s
 12455  3538 1533062.35   61   30 1079769.21 1785425.50  65.4%   228  478s
 12765  3542 1194459.51   38   95 1079769.21 1779186.22  64.8%   228  483s
 13265  3609 1571154.78   65   45 1079769.21 1768664.27  63.8%   229  488s
 13755  3638     cutoff   49      1079769.21 1754768.58  62.5%   228  492s
 14102  3641 1527944.21   66   53 1079769.21 1747147.55  61.8%   228  497s
 14585  3682     cutoff   60      1079769.21 1734105.69  60.6%   227  502s
 15105  3708     cutoff   51      1079769.21 1725776.14  59.8%   227  507s
 15570  3725 1708612.93   44   46 1079769.21 1715539.15  58.9%   227  511s
 16027  3737     cutoff   77      1079769.21 1707204.75  58.1%   227  516s
 16560  3769 infeasible   98      1079769.21 1699283.93  57.4%   227  521s
 17035  3795 1223453.15   46   90 1079769.21 1693337.41  56.8%   227  526s
 17523  3858 1539058.12   40   61 1079769.21 1680009.76  55.6%   226  530s
 18019  3940     cutoff   55      1079769.21 1672349.00  54.9%   226  535s
 18085  3868 1262766.46   45   38 1079769.21 1668871.22  54.6%   226  540s
 18504  3872 1393880.42   49   63 1079769.21 1660519.62  53.8%   226  545s
 19493  3984     cutoff   59      1079769.21 1651267.72  52.9%   225  553s
 19966  4022 1504191.15   41   29 1079769.21 1636924.56  51.6%   224  557s
 20476  4082 1481624.80   40   42 1079769.21 1630691.05  51.0%   223  785s
 21088  4044 1178665.89   60   39 1079769.21 1620117.24  50.0%   224  792s
 21296  4035 1314302.05   33  163 1079769.21 1614047.29  49.5%   226  795s
 21690  4007 1419993.81   44   66 1079769.21 1604992.32  48.6%   229  802s
 21922  4022     cutoff   66      1079769.21 1601292.53  48.3%   230  806s
 22071  4005     cutoff   38      1079769.21 1597979.99  48.0%   232  811s
 22316  4004 1176553.30   58  115 1079769.21 1595367.09  47.8%   233  815s
 22772  3957 1434624.56   56   71 1079769.21 1587927.58  47.1%   235  822s
 22993  3958 1410296.65   56  100 1079769.21 1585024.71  46.8%   236  826s
 23224  3950 infeasible   51      1079769.21 1580077.87  46.3%   238  831s
 23460  3944     cutoff   55      1079769.21 1574046.31  45.8%   239  835s
 23934  3894     cutoff   62      1079769.21 1566363.28  45.1%   242  844s
 24197  3880 1154989.68   47   62 1079769.21 1561738.13  44.6%   243  848s
 24430  3868 1177164.95   58  102 1079769.21 1556214.88  44.1%   245  852s
 24603  3829     cutoff   51      1079769.21 1550439.98  43.6%   247  856s
 24789  3806 1520127.56   41   47 1079769.21 1546351.05  43.2%   249  860s
 25330  3808 1257555.47   51  135 1079769.21 1538820.94  42.5%   251  869s
 25584  3776 1390377.88   53   73 1079769.21 1533706.16  42.0%   252  874s
 25888  3762 1278158.26   61   54 1079769.21 1528719.96  41.6%   253  878s
 26063  3712     cutoff   67      1079769.21 1523569.01  41.1%   255  882s
 26419  3708 1190455.42   52   71 1079769.21 1518052.76  40.6%   255  886s
 26739  3706     cutoff   51      1079769.21 1513404.93  40.2%   256  890s
 26960  3682 1497886.60   55   36 1079769.21 1510357.73  39.9%   256  895s
 27206  3681     cutoff   66      1079769.21 1504274.50  39.3%   258  900s
 27437  3639 1348209.21   43   67 1079769.21 1499819.08  38.9%   259  905s
 27775  3604 1458128.37   48   60 1079769.21 1492855.69  38.3%   260  910s
 28105  3559 1388661.17   57   30 1079769.21 1484536.56  37.5%   260  915s
 28417  3531 1189549.89   58   80 1079769.21 1477746.90  36.9%   261  920s
 28702  3488 1094851.89   64  126 1079769.21 1473536.48  36.5%   262  925s
 28983  3439     cutoff   57      1079769.21 1468850.47  36.0%   263  930s
 29250  3395     cutoff   52      1079769.21 1460284.19  35.2%   264  935s
 29831  3340     cutoff   55      1079769.21 1450149.63  34.3%   265  944s
 30093  3303 1137870.31   46   59 1079769.21 1443985.58  33.7%   266  949s
 30413  3275     cutoff   48      1079769.21 1437008.31  33.1%   267  977s
 30725  3210 1363765.05   45   41 1079769.21 1432158.78  32.6%   267  981s
 31010  3163     cutoff   43      1079769.21 1423892.52  31.9%   267  986s
 31301  3140 1305883.32   53   79 1079769.21 1419041.97  31.4%   268  993s
 31539  3125 1177694.86   49   76 1079769.21 1415127.43  31.1%   268  998s
 31852  3081 1211134.89   55   99 1079769.21 1407250.43  30.3%   269 1003s
 32209  3028 1360066.46   34   53 1079769.21 1400949.54  29.7%   269 1007s
 32506  2979     cutoff   54      1079769.21 1393759.28  29.1%   270 1011s
 32748  2923     cutoff   56      1079769.21 1388410.91  28.6%   270 1016s
 33015  2868 1291261.24   48   60 1079769.21 1383328.82  28.1%   271 1022s
 33330  2819     cutoff   48      1079769.21 1377340.65  27.6%   271 1027s
 33608  2754     cutoff   72      1079769.21 1370539.95  26.9%   271 1032s
 33882  2704     cutoff   47      1079769.21 1364523.38  26.4%   272 1037s
 34142  2653 1309500.59   44   54 1079769.21 1358970.38  25.9%   272 1043s
 34464  2598 1329923.96   54   21 1079769.21 1353232.01  25.3%   272 1047s
 34705  2525     cutoff   54      1079769.21 1348184.64  24.9%   272 1052s
 34958  2454     cutoff   56      1079769.21 1341840.23  24.3%   272 1056s
 35217  2386 1292146.44   58   46 1079769.21 1337253.06  23.8%   272 1060s
 35735  2287 1323934.46   49   39 1079769.21 1325593.61  22.8%   273 1066s
 36225  2148     cutoff   67      1079769.21 1315061.32  21.8%   273 1072s
 36416  2067     cutoff   51      1079769.21 1310423.13  21.4%   273 1075s
 36815  1922     cutoff   53      1079769.21 1298909.99  20.3%   273 1080s
 37200  1774     cutoff   50      1079769.21 1288946.86  19.4%   273 1085s
 37577  1626 infeasible   59      1079769.21 1279281.77  18.5%   273 1090s
 37940  1465 1183262.27   68   42 1079769.21 1268917.46  17.5%   274 1095s
 38265  1306 1148765.39   55   37 1079769.21 1258950.51  16.6%   274 1100s
 38641  1153     cutoff   54      1079769.21 1247718.20  15.6%   274 1105s
 38966   994     cutoff   58      1079769.21 1236474.10  14.5%   274 1111s
H39074   997                    1079769.4474 1230685.57  14.0%   274 1111s
 39121   923     cutoff   51      1079769.45 1230622.48  14.0%   274 1116s
H39123   923                    1079769.4616 1230622.48  14.0%   274 1116s
 39280   848 1187623.26   44   69 1079769.46 1226583.59  13.6%   274 1121s
 39565   685 1212188.28   63   40 1079769.46 1212947.03  12.3%   273 1125s
 40076   449     cutoff   49      1079769.46 1188689.03  10.1%   272 1130s
 40483   201     cutoff   42      1079769.46 1157077.13  7.16%   272 1135s
 40778     0     cutoff   63      1079769.46 1097766.37  1.67%   273 1140s

Cutting planes:
  Gomory: 77
  Implied bound: 16
  Projected implied bound: 3
  MIR: 14
  Flow cover: 169
  Zero half: 1

Explored 40814 nodes (11218089 simplex iterations) in 1144.49 seconds
Thread count was 4 (of 16 available processors)

Solution count 7: 1.07977e+06 1.07977e+06 1.07977e+06 ... -620660

Optimal solution found (tolerance 1.00e-04)
Best objective 1.079769212879e+06, best bound 1.079769461621e+06, gap 0.0000%

***
***  |- Calculation finished, took 1,144.53 (1144.53) sec.
***  |-----------------------------------------------------------------------------------------------------------------------
***
*****************************************************************************************************************************
#############################################################################################################################
###
### Results
###
### The objective of the solution is 1,079,769.2129 (1079769.2129) and is feasible with a Gap of 0.0
###
### Service 81 (MECL1) is operated by 6 vessels from type 30 (PMax35)
###  |- Vessel  9 has the path [9, 332, 326, 342, 333, 324, 4, 294, 284, 7, 298, 196, 0]
###  |  9 (BEANR Out@344.0) - 332 (USEWR In@608.0/Out@618.0) - 326 (USCHS In@656.0/Out@666.0) - 342 (USORF In@691.0/Out@704.0
###  |  ) - 333 (USEWR In@728.0/Out@744.0) - 324 (TRZMK In@1063.0/Out@1077.0) - 4 (AEJEA In@1177.0/Out@1201.0) - 294 (PKBQM I
###  |  n@1258.0/Out@1288.0) - 284 (OMSLL In@1410.0/Out@1423.0) - 7 (AEJEA In@1681.0/Out@1705.0) - 298 (PKBQM In@1762.0/Out@1
###  |  792.0) - 196 (INNSA In@1856.0/Out@1872.0) - 0 (DUMMY_END Ziel-Service 81)
###  |   |- and carried Demand 237,   34.0 containers from 298 to 196
###  |   |- and carried Demand 238,   84.0 containers from   7 to 298
###  |   |- and carried Demand 239,   50.0 containers from   7 to 298
###  |   |- and carried Demand 297,  254.0 containers from 294 to 196
###  |   |- and carried Demand 298,    1.0 containers from 294 to 196
###  |   |- and carried Demand 299,  135.0 containers from 294 to 196
###  |   |- and carried Demand 302,   75.0 containers from   4 to 196
###  |   |- and carried Demand 303,  200.0 containers from   4 to 294
###  |   |- and carried Demand 304,   24.0 containers from   4 to 294
###  |   |- and carried Demand 305,   26.0 containers from   4 to 196
###  |   |- and carried Demand 306,  144.0 containers from   4 to 196
###  |   |- and carried Demand 307,    1.0 containers from   4 to 196
###  |   |- and carried Demand 309,  339.0 containers from 342 to   4
###  |   |- and carried Demand 310,  115.0 containers from 342 to   4
###  |   |- and carried Demand 311,    3.0 containers from 342 to 284
###  |   |- and carried Demand 312,    2.0 containers from 342 to 294
###  |   |- and carried Demand 313,  194.0 containers from 326 to   4
###  |   |- and carried Demand 314,   49.0 containers from 326 to   4
###  |   |- and carried Demand 315,   40.0 containers from 326 to 294
###  |   |- and carried Demand 318,  842.0 containers from 332 to   4
###  |   |- and carried Demand 319,   99.0 containers from 332 to   4
###  |   |- and carried Demand 320,  123.0 containers from 332 to 294
###  |   |- and carried Demand 321,    1.0 containers from 332 to 294
###  |- Vessel 10 has the path [10, 316, 190, 0]
###  |  10 (BEANR Out@512.0) - 316 (TRAMB In@854.0/Out@881.0) - 190 (INNSA In@1016.0/Out@1032.0) - 0 (DUMMY_END Ziel-Service 
###  |  81)
###  |- Vessel 11 has the path [13, 313, 191, 0]
###  |  13 (BEANR Out@680.0) - 313 (TRALI In@946.0/Out@964.0) - 191 (INNSA In@1184.0/Out@1200.0) - 0 (DUMMY_END Ziel-Service 
###  |  81)
###  |- Vessel 12 has the path [16, 314, 192, 0]
###  |  16 (BEANR Out@848.0) - 314 (TRALI In@1114.0/Out@1132.0) - 192 (INNSA In@1352.0/Out@1368.0) - 0 (DUMMY_END Ziel-Servic
###  |  e 81)
###  |- Vessel 17 has the path [158, 2, 291, 292, 293, 283, 5, 295, 194, 195, 0]
###  |  158 (GBFXT Out@580.0) - 2 (AEJEA In@841.0/Out@865.0) - 291 (PKBQM In@922.0/Out@952.0) - 292 (PKBQM In@992.0/Out@1020.
###  |  0) - 293 (PKBQM In@1090.0/Out@1120.0) - 283 (OMSLL In@1167.0/Out@1182.0) - 5 (AEJEA In@1345.0/Out@1369.0) - 295 (PKBQ
###  |  M In@1426.0/Out@1456.0) - 194 (INNSA In@1590.0/Out@1622.0) - 195 (INNSA In@1688.0/Out@1704.0) - 0 (DUMMY_END Ziel-Ser
###  |  vice 81)
###  |   |- and carried Demand 120,  237.0 containers from 292 to 194
###  |   |- and carried Demand 121,    2.0 containers from 292 to 194
###  |   |- and carried Demand 123,   97.0 containers from 292 to 194
###  |   |- and carried Demand 283,  153.0 containers from   5 to 195
###  |   |- and carried Demand 284,   86.0 containers from   5 to 295
###  |   |- and carried Demand 285,  118.0 containers from   5 to 295
###  |   |- and carried Demand 323,  244.0 containers from 293 to 195
###  |   |- and carried Demand 324,   67.0 containers from 293 to 195
###  |   |- and carried Demand 333,  237.0 containers from 291 to 194
###  |   |- and carried Demand 334,    2.0 containers from 291 to 194
###  |   |- and carried Demand 336,   97.0 containers from 291 to 194
###  |   |- and carried Demand 338,  704.0 containers from   2 to 195
###  |   |- and carried Demand 339,    8.0 containers from   2 to 195
###  |   |- and carried Demand 340,  156.0 containers from   2 to 291
###  |   |- and carried Demand 341,   45.0 containers from   2 to 291
###  |   |- and carried Demand 342,   16.0 containers from   2 to 194
###  |   |- and carried Demand 343,  264.0 containers from   2 to 194
###  |- Vessel 18 has the path [161, 321, 193, 0]
###  |  161 (GBFXT Out@748.0) - 321 (TRGEM In@1087.0/Out@1095.0) - 193 (INNSA In@1520.0/Out@1536.0) - 0 (DUMMY_END Ziel-Servi
###  |  ce 81)
###  |
### Vessels not used in the solution: [1, 2, 3, 4, 5, 6, 7, 8, 13, 14, 15, 16, 22]
###  |-----------------------------------------------------------------------------------------------------------------------
###
#############################################################################################################################

### Detialed variable overview

### All variables with value greater zero:
rho[81,30] = 1
eta[81,30,1] = 1
eta[81,30,2] = 1
eta[81,30,3] = 1
eta[81,30,4] = 1
eta[81,30,5] = 1
eta[81,30,6] = 1
y[9,4,294] = 1
y[9,332,326] = 1
y[9,294,284] = 1
y[9,284,7] = 1
y[9,342,333] = 1
y[9,9,332] = 1
y[9,324,4] = 1
y[9,7,298] = 1
y[9,196,0] = 1
y[9,333,324] = 1
y[9,298,196] = 1
y[9,326,342] = 1
y[10,190,0] = 1
y[10,316,190] = 1
y[10,10,316] = 1
y[11,313,191] = 1
y[11,191,0] = 1
y[11,13,313] = 1
y[12,192,0] = 1
y[12,314,192] = 1
y[12,16,314] = 1
y[17,283,5] = 1
y[17,293,283] = 1
y[17,195,0] = 1
y[17,5,295] = 1
y[17,292,293] = 1
y[17,194,195] = 1
y[17,291,292] = 1
y[17,295,194] = 1
y[17,2,291] = 1
y[17,158,2] = 1
y[18,161,321] = 1
y[18,193,0] = 1
y[18,321,193] = 1
xD[120,283,5] = 237
xD[120,293,283] = 237
xD[120,5,295] = 237
xD[120,292,293] = 237
xD[120,295,194] = 237
xD[121,283,5] = 2
xD[121,293,283] = 2
xD[121,5,295] = 2
xD[121,292,293] = 2
xD[121,295,194] = 2
xD[123,283,5] = 97
xD[123,293,283] = 97
xD[123,5,295] = 97
xD[123,292,293] = 97
xD[123,295,194] = 97
xD[237,298,196] = 34
xD[238,7,298] = 84
xD[239,7,298] = 50
xD[283,5,295] = 153
xD[283,194,195] = 153
xD[283,295,194] = 153
xD[284,5,295] = 86
xD[285,5,295] = 118
xD[297,294,284] = 254
xD[297,284,7] = 254
xD[297,7,298] = 254
xD[297,298,196] = 254
xD[298,294,284] = 1
xD[298,284,7] = 1
xD[298,7,298] = 1
xD[298,298,196] = 1
xD[299,294,284] = 135
xD[299,284,7] = 135
xD[299,7,298] = 135
xD[299,298,196] = 135
xD[302,4,294] = 75
xD[302,294,284] = 75
xD[302,284,7] = 75
xD[302,7,298] = 75
xD[302,298,196] = 75
xD[303,4,294] = 200
xD[304,4,294] = 24
xD[305,4,294] = 26
xD[305,294,284] = 26
xD[305,284,7] = 26
xD[305,7,298] = 26
xD[305,298,196] = 26
xD[306,4,294] = 144
xD[306,294,284] = 144
xD[306,284,7] = 144
xD[306,7,298] = 144
xD[306,298,196] = 144
xD[307,4,294] = 1
xD[307,294,284] = 1
xD[307,284,7] = 1
xD[307,7,298] = 1
xD[307,298,196] = 1
xD[309,342,333] = 339
xD[309,324,4] = 339
xD[309,333,324] = 339
xD[310,342,333] = 115
xD[310,324,4] = 115
xD[310,333,324] = 115
xD[311,4,294] = 3
xD[311,294,284] = 3
xD[311,342,333] = 3
xD[311,324,4] = 3
xD[311,333,324] = 3
xD[312,4,294] = 2
xD[312,342,333] = 2
xD[312,324,4] = 2
xD[312,333,324] = 2
xD[313,342,333] = 194
xD[313,324,4] = 194
xD[313,333,324] = 194
xD[313,326,342] = 194
xD[314,342,333] = 49
xD[314,324,4] = 49
xD[314,333,324] = 49
xD[314,326,342] = 49
xD[315,4,294] = 40
xD[315,342,333] = 40
xD[315,324,4] = 40
xD[315,333,324] = 40
xD[315,326,342] = 40
xD[318,332,326] = 842
xD[318,342,333] = 842
xD[318,324,4] = 842
xD[318,333,324] = 842
xD[318,326,342] = 842
xD[319,332,326] = 99
xD[319,342,333] = 99
xD[319,324,4] = 99
xD[319,333,324] = 99
xD[319,326,342] = 99
xD[320,4,294] = 123
xD[320,332,326] = 123
xD[320,342,333] = 123
xD[320,324,4] = 123
xD[320,333,324] = 123
xD[320,326,342] = 123
xD[321,4,294] = 1
xD[321,332,326] = 1
xD[321,342,333] = 1
xD[321,324,4] = 1
xD[321,333,324] = 1
xD[321,326,342] = 1
xD[323,283,5] = 244
xD[323,293,283] = 244
xD[323,5,295] = 244
xD[323,194,195] = 244
xD[323,295,194] = 244
xD[324,283,5] = 67
xD[324,293,283] = 67
xD[324,5,295] = 67
xD[324,194,195] = 67
xD[324,295,194] = 67
xD[333,283,5] = 237
xD[333,293,283] = 237
xD[333,5,295] = 237
xD[333,292,293] = 237
xD[333,291,292] = 237
xD[333,295,194] = 237
xD[334,283,5] = 2
xD[334,293,283] = 2
xD[334,5,295] = 2
xD[334,292,293] = 2
xD[334,291,292] = 2
xD[334,295,194] = 2
xD[336,283,5] = 97
xD[336,293,283] = 97
xD[336,5,295] = 97
xD[336,292,293] = 97
xD[336,291,292] = 97
xD[336,295,194] = 97
xD[338,283,5] = 704
xD[338,293,283] = 704
xD[338,5,295] = 704
xD[338,292,293] = 704
xD[338,194,195] = 704
xD[338,291,292] = 704
xD[338,295,194] = 704
xD[338,2,291] = 704
xD[339,283,5] = 8
xD[339,293,283] = 8
xD[339,5,295] = 8
xD[339,292,293] = 8
xD[339,194,195] = 8
xD[339,291,292] = 8
xD[339,295,194] = 8
xD[339,2,291] = 8
xD[340,2,291] = 156
xD[341,2,291] = 45
xD[342,283,5] = 16
xD[342,293,283] = 16
xD[342,5,295] = 16
xD[342,292,293] = 16
xD[342,291,292] = 16
xD[342,295,194] = 16
xD[342,2,291] = 16
xD[343,283,5] = 264
xD[343,293,283] = 264
xD[343,5,295] = 264
xD[343,292,293] = 264
xD[343,291,292] = 264
xD[343,295,194] = 264
xD[343,2,291] = 264
zE[2] = 841
zE[4] = 1177
zE[5] = 1345
zE[7] = 1681
zE[190] = 1016
zE[191] = 1184
zE[192] = 1352
zE[193] = 1520
zE[194] = 1590
zE[195] = 1688
zE[196] = 1856
zE[283] = 1167
zE[284] = 1410
zE[291] = 922
zE[292] = 992
zE[293] = 1090
zE[294] = 1258
zE[295] = 1426
zE[298] = 1762
zE[313] = 946
zE[314] = 1114
zE[316] = 854
zE[321] = 1087
zE[324] = 1063
zE[326] = 656
zE[332] = 608
zE[333] = 728
zE[342] = 691
zX[2] = 865
zX[4] = 1201
zX[5] = 1369
zX[7] = 1705
zX[9] = 344
zX[10] = 512
zX[13] = 680
zX[16] = 848
zX[158] = 580
zX[161] = 748
zX[190] = 1032
zX[191] = 1200
zX[192] = 1368
zX[193] = 1536
zX[194] = 1622
zX[195] = 1704
zX[196] = 1872
zX[283] = 1182
zX[284] = 1423
zX[291] = 952
zX[292] = 1020
zX[293] = 1120
zX[294] = 1288
zX[295] = 1456
zX[298] = 1792
zX[313] = 964
zX[314] = 1132
zX[316] = 881
zX[321] = 1095
zX[324] = 1077
zX[326] = 666
zX[332] = 618
zX[333] = 744
zX[342] = 704
phi[9] = 1528
phi[10] = 520
phi[11] = 520
phi[12] = 520
phi[17] = 1124
phi[18] = 788

### All variables with value smaller zero:

### End

real	22m49.060s
user	71m57.920s
sys	5m18.864s
	OpenBLAS 0.2.6 environment removed
	Freetype 2.4.12 environment removed
	Python 3.6.0 environment removed
	Gurobi 8.1.0 environment removed
