### Additional Information to the goal services
# Basic costs on route 24: 31268319.083478212
# Direct costs (not staggered):
# For goal service 24:
# n_min: 2
# n_max: 4
# lowest costs of the goal service 24 with configuration (24, 18, 3) at 0.0
# (24, 18, 1): 18932969.510016263
# (24, 18, 2): 10424542.718812354
# (24, 18, 3): 0.0
# (24, 18, 4): 784022.4000000134
# (24, 19, 1): 29240520.78919793
# (24, 19, 2): 17026331.720014468
# (24, 19, 3): 8907579.631750487
# (24, 19, 4): 9769957.231750503
# (24, 30, 1): 28646300.434445485
# (24, 30, 2): 18217359.002421528
# (24, 30, 3): 8419071.601818532
# (24, 30, 4): 9359871.601818532
# -------------------------------------------
