### Additional Information to the goal services
# Basic costs on route 24: 33613443.01473909
# Basic costs on route 177: 37020794.68277244
# Direct costs (not staggered):
# For goal service 24:
# n_min: 2
# n_max: 4
# lowest costs of the goal service 24 with configuration (24, 18, 3) at 0.0
# For goal service 177:
# n_min: 2
# n_max: 3
# lowest costs of the goal service 177 with configuration (177, 18, 3) at 0.0
# (24, 18, 1): 20352942.223267473
# (24, 18, 2): 11206383.422723271
# (24, 18, 3): 0.0
# (24, 18, 4): 842824.0799999982
# (24, 19, 1): 31433559.848387755
# (24, 19, 2): 18303306.59901554
# (24, 19, 3): 9575648.104131773
# (24, 19, 4): 10502704.02413176
# (24, 30, 1): 30794772.967028886
# (24, 30, 2): 19583660.927603126
# (24, 30, 3): 9050501.97195492
# (24, 30, 4): 10061861.971954912
# (177, 18, 1): 16508997.990739152
# (177, 18, 2): 11697197.119999982
# (177, 18, 3): 0.0
# (177, 19, 1): 24573128.45514264
# (177, 19, 2): 16879805.291708007
# (177, 19, 3): 1314372.4191380143
# (177, 30, 1): 24164547.088531785
# (177, 30, 2): 19319690.089549653
# (177, 30, 3): 3138343.2258956432
# -------------------------------------------
