### Additional Information to the goal services
# Basic costs on route 24: 38303690.87726081
# Basic costs on route 177: 42186486.96408953
# Direct costs (not staggered):
# For goal service 24:
# n_min: 2
# n_max: 4
# lowest costs of the goal service 24 with configuration (24, 18, 3) at 0.0
# For goal service 177:
# n_min: 2
# n_max: 3
# lowest costs of the goal service 177 with configuration (177, 18, 3) at 0.0
# (24, 18, 1): 23192887.649769925
# (24, 18, 2): 12770064.830545142
# (24, 18, 3): 0.0
# (24, 18, 4): 960427.4400000051
# (24, 19, 1): 35819637.96676747
# (24, 19, 2): 20857256.35701771
# (24, 19, 3): 10911785.04889436
# (24, 19, 4): 11968197.608894356
# (24, 30, 1): 35091718.032195725
# (24, 30, 2): 22316264.777966373
# (24, 30, 3): 10313362.71222771
# (24, 30, 4): 11465842.71222771
# (177, 18, 1): 18812579.10572601
# (177, 18, 2): 13329364.159999982
# (177, 18, 3): 0.0
# (177, 19, 1): 28001937.076790467
# (177, 19, 2): 19235126.960318424
# (177, 19, 3): 1497773.221808426
# (177, 30, 1): 27536344.356699005
# (177, 30, 2): 22015460.79971938
# (177, 30, 3): 3576251.5829973742
# -------------------------------------------
