	Freetype 2.4.12 environment established
		library to render fonts
	Python 3.6.0 environment established
	Gurobi 8.1.0 environment established
Instance LSFRP: LSFDRP_2_1_0_1_fr.p
Instance LSFDP: LSFDRP_2_1_0_1_fd_25.p

*****************************************************************************************************************************
*** Solve LSFDRP_2_1_0_1_fd_25 with Gurobi
***
*** Graph info
*** |S|: 18
*** |S^E|: 0
*** |S^C|: 0
*** |V|: 296
*** |A|: 8235
*** |A^i|: 8184
*** |A^f|: 51
*** |M|: 146
*** |E|: 22

Changed value of parameter TimeLimit to 86400.0
   Prev: 1e+100  Min: 0.0  Max: 1e+100  Default: 1e+100
Changed value of parameter Threads to 4
   Prev: 0  Min: 0  Max: 1024  Default: 0
Optimize a model with 69438 rows, 1368547 columns and 5144583 nonzeros
Variable types: 1220290 continuous, 148257 integer (148257 binary)
Coefficient statistics:
  Matrix range     [1e+00, 4e+03]
  Objective range  [2e+00, 2e+07]
  Bounds range     [1e+00, 1e+00]
  RHS range        [1e+00, 4e+03]
Presolve removed 37440 rows and 1028387 columns (presolve time = 5s) ...
Presolve removed 41814 rows and 1071317 columns (presolve time = 11s) ...
Presolve removed 41814 rows and 1071488 columns (presolve time = 57s) ...
Warning: Failed to open log file 'gurobi.log'
Presolve removed 42349 rows and 1072425 columns (presolve time = 125s) ...
Presolve removed 42349 rows and 1072425 columns
Presolve time: 124.58s
Presolved: 27089 rows, 296122 columns, 1304258 nonzeros
Variable types: 147955 continuous, 148167 integer (148119 binary)

Deterministic concurrent LP optimizer: primal and dual simplex
Showing first log only...


Root simplex log...

Iteration    Objective       Primal Inf.    Dual Inf.      Time
       0   -0.0000000e+00   4.000000e+00   3.684193e+07    129s
   12302   -1.5787028e+07   0.000000e+00   1.393732e+10    130s
Concurrent spin time: 0.00s

Solved with dual simplex

Root relaxation: objective 7.448348e+06, 14649 iterations, 6.84 seconds

    Nodes    |    Current Node    |     Objective Bounds      |     Work
 Expl Unexpl |  Obj  Depth IntInf | Incumbent    BestBd   Gap | It/Node Time

     0     0 7446779.51    0  157          - 7446779.51      -     -  139s
     0     0 6959109.32    0  137          - 6959109.32      -     -  157s
H    0     0                    -1.64762e+07 6959109.32   142%     -  157s
H    0     0                    -1.52272e+07 6959109.32   146%     -  161s
     0     0 6647291.21    0  149 -1.523e+07 6647291.21   144%     -  173s
     0     0 6646557.53    0  149 -1.523e+07 6646557.53   144%     -  173s
     0     0 6571537.89    0  151 -1.523e+07 6571537.89   143%     -  182s
H    0     0                    -8657659.162 6571537.89   176%     -  182s
     0     0 6571360.03    0  153 -8657659.2 6571360.03   176%     -  188s
     0     0 6571312.04    0  153 -8657659.2 6571312.04   176%     -  188s
     0     0 6473874.79    0  233 -8657659.2 6473874.79   175%     -  196s
H    0     0                    -690790.4001 6473874.79  1037%     -  197s
     0     0 6473176.04    0  234 -690790.40 6473176.04  1037%     -  203s
     0     0 6457354.47    0  259 -690790.40 6457354.47  1035%     -  208s
H    0     0                    78478.949918 6457354.47  8128%     -  208s
     0     0 6454792.69    0  249 78478.9499 6454792.69  8125%     -  212s
     0     0 6453974.83    0  258 78478.9499 6453974.83  8124%     -  213s
     0     0 6453273.62    0  254 78478.9499 6453273.62  8123%     -  213s
     0     0 6453273.62    0  254 78478.9499 6453273.62  8123%     -  214s
     0     0 6450763.90    0  258 78478.9499 6450763.90  8120%     -  216s
     0     0 6450336.77    0  260 78478.9499 6450336.77  8119%     -  221s
     0     0 6450336.77    0  261 78478.9499 6450336.77  8119%     -  221s
     0     0 6445779.79    0  257 78478.9499 6445779.79  8113%     -  224s
     0     0 6445779.79    0  259 78478.9499 6445779.79  8113%     -  228s
     0     0 6445779.79    0  260 78478.9499 6445779.79  8113%     -  231s
     0     0 6445771.63    0  260 78478.9499 6445771.63  8113%     -  234s
     0     0 6445771.63    0  260 78478.9499 6445771.63  8113%     -  238s
     0     0 6445753.14    0  261 78478.9499 6445753.14  8113%     -  241s
     0     0 6445753.14    0  261 78478.9499 6445753.14  8113%     -  282s
     0     2 6445753.14    0  260 78478.9499 6445753.14  8113%     -  292s
     1     4 6435773.84    1  263 78478.9499 6435773.84  8101%   646  309s
     3     8 6432498.79    2  222 78478.9499 6432498.79  8096%   841  337s
     7    12 6420370.67    3  173 78478.9499 6420370.67  8081%  1014  344s
    11    16 6329977.17    4  177 78478.9499 6329977.17  7966%   979  356s
    15    16 6316954.40    5  176 78478.9499 6316954.40  7949%   839  360s
    23    24 5828118.00    7  157 78478.9499 6199907.37  7800%   644 2172s
    27    28 5795473.82    8  214 78478.9499 6199907.37  7800% 11495 2638s
    32    32 5686882.58    9  200 78478.9499 6199907.37  7800% 17132 4325s
    37    38 5323880.71    9  124 78478.9499 6199907.37  7800% 15581 4453s
    43    34 5621257.10   10  181 78478.9499 6199907.37  7800% 14013 4551s
    52    43 5610597.00   11  184 78478.9499 6199907.37  7800% 11760 4577s
    60    49 5599436.09   12  189 78478.9499 6199907.37  7800% 10582 4709s
    67    49 5485066.31   13  125 78478.9499 6199907.37  7800%  9760 4789s
    78    53 5206859.88   14  148 78478.9499 6199907.37  7800%  8528 4834s
    89    57 infeasible   14      78478.9499 6199907.37  7800%  7575 4894s
H   98    58                    1675643.9553 6199907.37   270%  7009 4894s
   104    64 infeasible   16      1675643.96 6199907.37   270%  6635 4966s
   114    73 3836712.68   17  124 1675643.96 6199907.37   270%  6257 5004s
   129    87 3407756.02   18  141 1675643.96 6199907.37   270%  5734 5036s
   146    99 3384470.55   20  158 1675643.96 6199907.37   270%  5200 5069s
   171   122 2844429.05   26  118 1675643.96 6199907.37   270%  4653 5091s
   197   134 1979591.86   30   89 1675643.96 5842976.06   249%  4176 5116s
   220   148 4330332.51    4  172 1675643.96 5842976.06   249%  3852 5299s
   236   160 3845842.39    5  188 1675643.96 5828118.00   248%  3605 5322s
   264   173 3478443.68    7   78 1675643.96 5695484.10   240%  3307 5612s
H  275   182                    1839534.1460 5695484.10   210%  3188 5612s
   278   182 3576141.65    6   70 1839534.15 5695484.10   210%  3189 5641s
   323   214 2980167.91   14   83 1839534.15 5695484.10   210%  2818 5666s
   368   231 4268032.64   16   89 1839534.15 5654570.92   207%  2563 5690s
   426   272 3768328.67   28   73 1839534.15 5654570.92   207%  2263 5722s
   471   287 2988392.28   37   41 1839534.15 5654570.92   207%  2107 5779s
   526   333 2834832.41   41   43 1839534.15 5654570.92   207%  1957 5801s
   614   397 2390367.11   67   47 1839534.15 5650982.84   207%  1723 5828s
   683   424 5448856.67    9  214 1839534.15 5650551.84   207%  1592 5873s
   759   466 5316714.40   11  171 1839534.15 5650551.84   207%  1482 6633s
   827   497 5103552.02   14  149 1839534.15 5640612.98   207%  1531 6668s
   865   510 4422321.74   19  112 1839534.15 5607227.41   205%  1495 6704s
   907   534 4131564.16    9  114 1839534.15 5500200.06   199%  1472 6744s
H 1030   626                    1839534.4771 5467073.91   197%  1338 6745s
  1031   627 3228905.97    8  261 1839534.48 5467073.91   197%  1337 6952s
  1033   628 3011240.19   36  109 1839534.48 5467073.91   197%  1334 6974s
  1034   629 4845896.96   18  123 1839534.48 5467073.91   197%  1333 6981s
  1035   630 4521471.49   22  134 1839534.48 5467073.91   197%  1332 6985s
  1036   630 5385003.89   12  133 1839534.48 5467073.91   197%  1330 6992s
  1037   631 4272581.75   16  131 1839534.48 5467073.91   197%  1329 6995s
  1038   632 3884840.96   14  136 1839534.48 5467073.91   197%  1328 7011s
  1039   632 3263445.99   33  136 1839534.48 5467073.91   197%  1326 7017s
  1040   633 2889286.38   71  136 1839534.48 5467073.91   197%  1325 7025s
  1041   637 5467073.91   14  130 1839534.48 5467073.91   197%  1351 7061s
  1043   640 5467073.91   15  133 1839534.48 5467073.91   197%  1354 7123s
  1047   643 5467073.91   16  126 1839534.48 5467073.91   197%  1379 7162s
  1051   645 5467073.91   16  126 1839534.48 5467073.91   197%  1384 7177s
  1055   648 5467073.91   17  125 1839534.48 5467073.91   197%  1386 7188s
  1059   651 4660636.65   17  102 1839534.48 5467073.91   197%  1387 7202s
  1063   651 5467073.91   18  120 1839534.48 5467073.91   197%  1389 7231s
  1067   655 4988993.23   18  151 1839534.48 5467073.91   197%  1419 7276s
  1071   652 5467073.91   19  127 1839534.48 5467073.91   197%  1429 7304s
  1078   658 4871457.89   19  137 1839534.48 5467073.91   197%  1461 7341s
  1084   662 5467073.91   20  125 1839534.48 5467073.91   197%  1466 7375s
  1093   669 5467073.91   21  123 1839534.48 5467073.91   197%  1482 7392s
  1102   672 5175518.13   22  117 1839534.48 5467073.91   197%  1497 7417s
  1110   679 5467073.91   22  118 1839534.48 5467073.91   197%  1490 7440s
  1120   684 5467073.91   24  124 1839534.48 5467073.91   197%  1495 7461s
  1133   693 5467073.91   25  126 1839534.48 5467073.91   197%  1499 7484s
  1148   706 4910586.61   26  119 1839534.48 5467073.91   197%  1505 7502s
  1162   711 5384818.06   27  149 1839534.48 5467073.91   197%  1506 7513s
  1179   721 5359183.16   28  152 1839534.48 5467073.91   197%  1505 7533s
  1190   726     cutoff   28      1839534.48 5467073.91   197%  1516 7549s
  1205   733 5351982.26   29  164 1839534.48 5467073.91   197%  1517 7589s
  1231   753 5351953.09   30  159 1839534.48 5467073.91   197%  1507 7600s
  1262   763 5312449.20   32  152 1839534.48 5467073.91   197%  1489 7610s
  1297   782 4974978.85   33  153 1839534.48 5467073.91   197%  1479 7633s
  1337   796 5280766.80   34  154 1839534.48 5467073.91   197%  1455 7653s
  1384   804 5272528.58   35  142 1839534.48 5467073.91   197%  1428 7669s
  1427   819 4478929.90   35  105 1839534.48 5467073.91   197%  1404 7681s
  1454   828 5158292.91   36  153 1839534.48 5450164.74   196%  1392 7718s
  1484   823 5054000.99   37  146 1839534.48 5450164.74   196%  1391 7746s
  1513   829 5136857.99   39  163 1839534.48 5433650.02   195%  1398 7785s
  1526   835 5231994.01   39  145 1839534.48 5422305.79   195%  1416 7799s
  1537   835 5143152.39   40  133 1839534.48 5422092.19   195%  1430 7820s
  1566   849 5037299.73   42  141 1839534.48 5422092.19   195%  1438 7839s
  1606   858 4940290.08   43  147 1839534.48 5422092.19   195%  1432 7866s
  1653   874 4350212.85   45  131 1839534.48 5422092.19   195%  1421 7883s
  1673   883 4159911.42   49   81 1839534.48 5422092.19   195%  1426 7970s
H 1689   853                    1950619.0664 5422092.19   178%  1426 7970s
  1694   858 3916381.22   53   51 1950619.07 5422092.19   178%  1431 7988s
  1732   866 2886336.87   60   52 1950619.07 5320303.70   173%  1426 8014s
  1778   888 4836243.73   21  104 1950619.07 5287681.32   171%  1419 8035s
  1822   917 4216655.91   25   97 1950619.07 5287681.32   171%  1413 8060s
  1852   926 3533152.47   33   60 1950619.07 5287681.32   171%  1430 8090s
  1909   935 3621139.03   35   72 1950619.07 5287681.32   171%  1420 8128s
H 1928   921                    1950619.0667 5287681.32   171%  1418 8128s
  1955   936 3100688.28   42   39 1950619.07 5287681.32   171%  1418 8166s
  1995   929 3430237.50   46   40 1950619.07 5287681.32   171%  1419 8200s
  2092   970 5250314.79   20  146 1950619.07 5250314.79   169%  1382 8233s
  2138   976 3811121.70   28   91 1950619.07 5244379.32   169%  1388 8389s
H 2162   962                    1950619.0671 5244379.32   169%  1382 8389s
  2178   965 2718364.22   50   93 1950619.07 5158054.48   164%  1390 8464s
H 2340  1002                    1950619.0673 5158054.48   164%  1344 8494s
  2404  1028 2248036.76   33   83 1950619.07 5151887.69   164%  1337 8548s
  2491  1048 2548814.65   35  100 1950619.07 5151887.69   164%  1327 8594s
  2623  1111 2660254.10   36   93 1950619.07 5083079.95   161%  1291 8628s
H 2682  1151                    1950619.1895 5083079.95   161%  1293 8663s
  2844  1267 4026273.07   42   81 1950619.19 5068215.39   160%  1254 8704s
H 2909  1308                    1950619.1900 5052367.70   159%  1245 8704s
  2987  1355 4121312.93   31  113 1950619.19 4999514.90   156%  1223 8760s
  3161  1481 3590707.35   41  102 1950619.19 4909823.21   152%  1193 8845s
  3234  1544 3379743.84   42  110 1950619.19 4895660.73   151%  1181 8885s
  3380  1653 4011038.04   37   81 1950619.19 4889526.00   151%  1167 8962s
  3556  1768 3729151.00   21   85 1950619.19 4839384.50   148%  1159 9021s
  3768  1906 4824970.95   17  111 1950619.19 4824970.95   147%  1138 9187s
  3879  1975 3317056.73   37  102 1950619.19 4812711.33   147%  1139 9234s
H 4023  1975                    2095903.3337 4812711.33   130%  1130 9234s
  4113  2059 4197576.72   31  105 2095903.33 4771514.43   128%  1117 9282s
  4263  2158 3821942.87   46  129 2095903.33 4762777.96   127%  1117 9337s
  4500  2300 4269370.60   25  127 2095903.33 4756522.23   127%  1097 9386s
H 4652  2403                    2095903.3340 4756522.23   127%  1095 9445s
H 4681  2418                    2095903.3345 4742867.95   126%  1099 9445s
  4859  2525 4109752.42   23   95 2095903.33 4742867.95   126%  1092 9502s
  5034  2623 3183898.60   36   62 2095903.33 4742867.95   126%  1093 9563s
H 5254  2742                    2095903.3359 4742867.95   126%  1083 9633s
  5581  2964 3871326.70   26  123 2095903.34 4684466.48   124%  1057 9706s
  5686  3041 4133232.46   23  106 2095903.34 4680043.42   123%  1061 9771s
  6119  3317 3426305.37   35   82 2095903.34 4675696.10   123%  1027 9840s
H 6149  3317                    2095903.3402 4675696.10   123%  1023 9840s
  6514  3597 4402084.85   21   86 2095903.34 4669537.75   123%   998 9919s
  6757  3758 3578166.80   39   84 2095903.34 4662937.05   122%   999 9990s
  7124  4017 3833478.84   40   84 2095903.34 4641199.61   121%   983 10065s
H 7310  4100                    2095903.3405 4636500.10   121%   977 10065s
  7402  4139 2161242.27   35   41 2095903.34 4631564.26   121%   974 10204s
  7741  4373 3738479.87   33   86 2095903.34 4623857.06   121%   958 10284s
  8202  4687 4290887.03   37   69 2095903.34 4607383.36   120%   936 10369s
  8501  4912 2537024.91   45   91 2095903.34 4600812.52   120%   926 10454s
  8907  5155 3226722.80   41   92 2095903.34 4593314.95   119%   919 10547s
  9638  5676 2278552.13   39   61 2095903.34 4587115.71   119%   886 10637s
 10035  5903 4426632.73   39  125 2095903.34 4575817.28   118%   882 10730s
 10304  6076 4445738.33   46  261 2095903.34 4572834.74   118%   889 10791s
 10306  6077 3339266.03   60  107 2095903.34 4572834.74   118%   888 10809s
 10307  6078 2364635.62   73  120 2095903.34 4572834.74   118%   888 10819s
 10308  6079 3551375.10   54  150 2095903.34 4572834.74   118%   888 10821s
 10309  6079 3907705.21   64  154 2095903.34 4572834.74   118%   888 10826s
 10310  6080 3227037.16   37  139 2095903.34 4572834.74   118%   888 10837s
 10311  6081 4220085.57   25  131 2095903.34 4572834.74   118%   888 10841s
 10312  6081 2513116.84   27  148 2095903.34 4572834.74   118%   888 10852s
 10313  6082 4231342.37   56  152 2095903.34 4572834.74   118%   888 10857s
 10314  6083 3100776.14   51  192 2095903.34 4572834.74   118%   888 10878s
 10315  6083 3117770.92   73  196 2095903.34 4572834.74   118%   888 10886s
 10316  6084 3240622.07   67  232 2095903.34 4572834.74   118%   888 10903s
 10317  6085 2340778.36   62  232 2095903.34 4572834.74   118%   887 10905s
 10319  6086 4005669.59   84  242 2095903.34 4572834.74   118%   887 10914s
 10320  6087 3632165.99   65  200 2095903.34 4572834.74   118%   887 10927s
 10321  6087 4052030.60   28  194 2095903.34 4572834.74   118%   887 10931s
 10322  6088 2634363.78   75  208 2095903.34 4572834.74   118%   887 10944s
 10323  6089 2247412.32   61  251 2095903.34 4572834.74   118%   887 10957s
 10324  6089 4001916.72   42  246 2095903.34 4572834.74   118%   887 10966s
 10325  6090 2387890.03  108  244 2095903.34 4572834.74   118%   887 10979s
 10326  6091 2871004.07   39  248 2095903.34 4572834.74   118%   887 10985s
 10327  6091 2863757.76   80  253 2095903.34 4572834.74   118%   887 10998s
 10328  6092 3422682.12   89  220 2095903.34 4572834.74   118%   887 11006s
 10329  6093 2803029.85   32  231 2095903.34 4572834.74   118%   886 11019s
 10330  6093 4269619.94   48  234 2095903.34 4572834.74   118%   886 11026s
 10331  6094 2920645.06   53  247 2095903.34 4572834.74   118%   886 11056s
 10332  6095 3494177.83   57  247 2095903.34 4572834.74   118%   886 11062s
 10333  6095 4464273.77   30  247 2095903.34 4572834.74   118%   886 11100s
 10334  6099 4572834.74   26  243 2095903.34 4572834.74   118%   892 11154s
 10336  6100 4572834.74   27  259 2095903.34 4572834.74   118%   893 11226s
 10340  6103 4572834.74   28  259 2095903.34 4572834.74   118%   899 11289s
 10344  6106 4572834.74   29  246 2095903.34 4572834.74   118%   902 11329s
 10348  6108 2783946.26   29   87 2095903.34 4572834.74   118%   908 11386s
 10352  6111 4572834.74   30  244 2095903.34 4572834.74   118%   910 11424s
 10356  6114 4572834.74   30  237 2095903.34 4572834.74   118%   913 11471s
 10360  6116 4572834.74   31  256 2095903.34 4572834.74   118%   916 11501s
 10364  6114 3663296.34   31  224 2095903.34 4572834.74   118%   920 11551s
 10369  6117 4572834.74   32  232 2095903.34 4572834.74   118%   930 11664s
 10374  6122 4572834.74   32  231 2095903.34 4572834.74   118%   938 11693s
 10378  6124 4572834.74   33  148 2095903.34 4572834.74   118%   942 11721s
 10384  6128 4572834.74   33  159 2095903.34 4572834.74   118%   945 11758s
 10390  6133 4572834.74   34  157 2095903.34 4572834.74   118%   948 11786s
 10397  6139 4572834.74   35  157 2095903.34 4572834.74   118%   952 11829s
 10406  6142 4572834.74   36  159 2095903.34 4572834.74   118%   957 11854s
 10416  6150 4572834.74   37  154 2095903.34 4572834.74   118%   960 11899s
 10426  6154 4572834.74   38  142 2095903.34 4572834.74   118%   964 11989s
 10432  6160 4572834.74   38  124 2095903.34 4572834.74   118%   966 12019s
 10445  6169 4572834.74   40  154 2095903.34 4572834.74   118%   969 12070s
 10457  6177 4572834.74   41  134 2095903.34 4572834.74   118%   978 12104s
 10469  6184 4572834.74   42  214 2095903.34 4572834.74   118%   983 12153s
 10480  6184 4572834.74   42  125 2095903.34 4572834.74   118%   988 12185s
 10498  6199 4572834.74   44  130 2095903.34 4572834.74   118%   991 12219s
 10521  6210 4572834.74   45  125 2095903.34 4572834.74   118%   995 12247s
 10551  6225 4566921.23   48  113 2095903.34 4572834.74   118%   996 12302s
 10576  6233 3028820.62   48   99 2095903.34 4572834.74   118%   997 12333s
 10607  6244 4535342.01   51  106 2095903.34 4572834.74   118%  1000 12363s
 10644  6252 4524744.87   53   85 2095903.34 4572834.74   118%  1001 12406s
 10678  6270 4495938.16   54  100 2095903.34 4572834.74   118%  1003 12438s
 10718  6284 4486492.85   56   93 2095903.34 4572834.74   118%  1004 12474s
 10765  6290 4478813.81   58   98 2095903.34 4572834.74   118%  1006 12503s
 10814  6296 4465746.21   60   93 2095903.34 4572834.74   118%  1005 12546s
 10853  6314 4409082.30   62   72 2095903.34 4572834.74   118%  1006 12590s
 10873  6330 4380416.30   64   94 2095903.34 4572834.74   118%  1011 12632s
 10890  6330 4375393.97   66   81 2095903.34 4572834.74   118%  1017 12666s
 10944  6356 4344673.44   68   72 2095903.34 4572834.74   118%  1018 12757s
 10982  6386 2268751.73   69   70 2095903.34 4572834.74   118%  1022 12807s
 11008  6396 4247787.58   71   89 2095903.34 4572834.74   118%  1027 12861s
 11060  6424 4225110.53   74   92 2095903.34 4572834.74   118%  1030 12903s
 11119  6441 4159540.20   77   77 2095903.34 4572834.74   118%  1031 12953s
 11149  6461 4155796.84   81   64 2095903.34 4572834.74   118%  1037 13001s
H11165  6164                    2095903.3409 4572834.74   118%  1040 13001s
 11176  6166 4124076.33   86   63 2095903.34 4572834.74   118%  1040 13044s
 11238  6189 4090913.46   91   68 2095903.34 4572834.74   118%  1042 13097s
 11277  6212 4032511.75   96   69 2095903.34 4572834.74   118%  1048 13147s
 11309  6211 3768022.01  101   77 2095903.34 4572834.74   118%  1054 13193s
 11402  6252 2789928.07  107   61 2095903.34 4572834.74   118%  1056 13242s
H11521  5986                    2095903.8515 4572834.74   118%  1054 13331s
 11591  6012 3569268.24   33  120 2095903.85 4572834.74   118%  1055 13400s
 11659  6031 4572834.74   35  135 2095903.85 4572834.74   118%  1060 13477s
 11728  6049 4572834.74   37  117 2095903.85 4572834.74   118%  1064 13672s
 11761  6053 3727584.97   39   74 2095903.85 4572834.74   118%  1068 13755s
 11839  6095 4360248.51   37   92 2095903.85 4572834.74   118%  1077 13831s
 11884  6110 3975158.06   48  163 2095903.85 4572834.74   118%  1086 13909s
 11980  6144 2937090.09   93   70 2095903.85 4572834.74   118%  1092 13975s
 12048  6173 4161610.88   38  118 2095903.85 4572834.74   118%  1099 14047s
 12161  6218 4049960.22   41   82 2095903.85 4572834.74   118%  1102 14125s
H12305  5973                    2095903.8525 4572834.74   118%  1104 14195s
H12421  5770                    2095903.8531 4572834.74   118%  1108 14274s
 12545  5788 4068505.79   58   81 2095903.85 4572834.74   118%  1108 14379s
 12829  5923 4098271.36   36  184 2095903.85 4572834.74   118%  1100 14461s
 12992  6003 3309499.43   72   82 2095903.85 4572834.74   118%  1102 14539s
 13226  6116 3568670.36   43  116 2095903.85 4572834.74   118%  1098 15314s
 13502  6244 4360324.12   38  114 2095903.85 4572834.74   118%  1107 15495s
 13681  6294 3689369.38   49  146 2095903.85 4572834.74   118%  1113 15610s
 13701  6291 3655264.52   50  142 2095903.85 4526313.17   116%  1115 15779s
 13870  6372 3789973.68   42   94 2095903.85 4511777.05   115%  1120 15936s
 14192  6519 3880723.69   72   74 2095903.85 4497533.39   115%  1114 16100s
 14413  6594 2982103.21   51   84 2095903.85 4483746.74   114%  1115 16284s
 14911  6793 3806011.99   40  192 2095903.85 4470498.66   113%  1098 16475s
 15151  6868 2314356.85   75   55 2095903.85 4463751.31   113%  1100 16657s
 15491  6972 3667043.65   48   67 2095903.85 4452361.64   112%  1097 16843s
 15796  7088 4020516.85   47   94 2095903.85 4440723.90   112%  1096 17043s
 16203  7244 3901054.83   54   81 2095903.85 4429243.68   111%  1088 17255s
 16651  7424 2301741.51   53   50 2095903.85 4417221.61   111%  1078 17466s
 17017  7548 2269309.66  106   59 2095903.85 4409076.24   110%  1075 17679s
 17454  7695 2947875.77   60   56 2095903.85 4391411.78   110%  1070 17893s
 17948  7907 3035664.23   71   49 2095903.85 4382475.37   109%  1061 18125s
 18275  7999 3146282.05   57   97 2095903.85 4375695.10   109%  1065 18369s
 18770  8163 3089893.50   43   82 2095903.85 4367650.43   108%  1059 18642s
 19171  8349 4115829.52   39   97 2095903.85 4361653.65   108%  1061 18914s
 19663  8497 3538250.02   42   89 2095903.85 4349229.60   108%  1059 19186s
 20246  8739 3005430.48   81   64 2095903.85 4344601.99   107%  1052 19500s
 20914  9047 3527353.58   57  261 2095903.85 4338713.08   107%  1040 22576s
 20916  9048 3759923.21   60  103 2095903.85 4338713.08   107%  1040 22591s
 20917  9049 3481157.15   34  105 2095903.85 4338713.08   107%  1040 22600s
 20918  9050 4079441.25   47  126 2095903.85 4338713.08   107%  1040 22615s
 20919  9050 2929638.30  105  172 2095903.85 4338713.08   107%  1040 22621s
 20920  9051 4334483.73   36  136 2095903.85 4338713.08   107%  1040 22633s
 20921  9052 3337037.97   83  152 2095903.85 4338713.08   107%  1040 22640s
 20923  9053 2938294.69   72  174 2095903.85 4338713.08   107%  1040 22648s
 20924  9054 2227236.67   50  178 2095903.85 4338713.08   107%  1040 22655s
 20925  9054 3737900.57   61  259 2095903.85 4338713.08   107%  1040 22694s
 20926  9055 3697015.97   61  185 2095903.85 4338713.08   107%  1040 22698s
 20927  9056 4085755.56   44  187 2095903.85 4338713.08   107%  1040 22718s
 20928  9056 3140998.90   80  166 2095903.85 4338713.08   107%  1040 22762s
 20929  9057 3133029.69   87  255 2095903.85 4338713.08   107%  1040 22768s
 20930  9058 3841415.47   79  262 2095903.85 4338713.08   107%  1040 22786s
 20931  9058 2856710.58   89  185 2095903.85 4338713.08   107%  1040 22826s
 20932  9059 2427580.93  121  266 2095903.85 4338713.08   107%  1040 22831s
 20933  9060 2923187.20  143  175 2095903.85 4338713.08   107%  1040 22850s
 20934  9060 3595632.35   80  185 2095903.85 4338713.08   107%  1039 22887s
 20935  9061 2514811.56   41  240 2095903.85 4338713.08   107%  1039 22905s
 20936  9062 3222425.33   64  204 2095903.85 4338713.08   107%  1039 22940s
 20937  9062 2354226.44   72  247 2095903.85 4338713.08   107%  1039 22961s
 20938  9063 2662168.59   79  263 2095903.85 4338713.08   107%  1039 23005s
 20939  9064 3044765.47   75  272 2095903.85 4338713.08   107%  1039 23025s
 20940  9064 4281807.43   58  268 2095903.85 4338713.08   107%  1039 23058s
 20941  9065 2346470.24   73  271 2095903.85 4338713.08   107%  1039 23076s
 20942  9066 2569948.27   52  283 2095903.85 4338713.08   107%  1039 23116s
 20944  9067 4322536.64   45  287 2095903.85 4338713.08   107%  1039 23136s
 20945  9068 2397808.96  122  293 2095903.85 4338713.08   107%  1039 23172s
 20946  9068 2230040.15   53  302 2095903.85 4338713.08   107%  1039 23194s
 20947  9069 3082561.27   86  299 2095903.85 4338713.08   107%  1039 23228s
 20948  9070 3135553.60   76  303 2095903.85 4338713.08   107%  1039 23244s
 20949  9070 2314309.03   59  285 2095903.85 4338713.08   107%  1039 23280s
 20950  9071 3313135.07   80  281 2095903.85 4338713.08   107%  1039 23295s
 20951  9072 3386932.11   95  310 2095903.85 4338713.08   107%  1039 23329s
 20952  9072 3568702.53   43  275 2095903.85 4338713.08   107%  1039 23347s
 20953  9073 3060506.15   64  278 2095903.85 4338713.08   107%  1039 23389s
 20954  9074 3446695.31   59  270 2095903.85 4338713.08   107%  1038 23407s
 20955  9074 3765887.15   78  263 2095903.85 4338713.08   107%  1038 23489s
 20956  9075 4178196.92   57  273 2095903.85 4338713.08   107%  1038 23506s
 20957  9076 3657213.90   77  258 2095903.85 4338713.08   107%  1038 23568s
 20958  9076 3291673.61   47  274 2095903.85 4338713.08   107%  1038 23589s
 20959  9077 2311530.99   62  276 2095903.85 4338713.08   107%  1038 23633s
 20960  9078 2948565.63   84  262 2095903.85 4338713.08   107%  1038 23650s
H20960  8623                    2095903.9159 4338713.08   107%  1038 23686s
 20962  8624 3258252.10   40  250 2095903.92 4338713.08   107%  1038 23705s
 20963  8625 3480620.02   67  297 2095903.92 4338713.08   107%  1038 23739s
 20964  8625 3115913.26   83  261 2095903.92 4338713.08   107%  1038 23742s
 20965  8626 3770822.89   55  282 2095903.92 4338713.08   107%  1038 23761s
 20966  8627 4293474.73   37  308 2095903.92 4338713.08   107%  1038 23831s
 20967  8627 3775661.38   36  325 2095903.92 4338713.08   107%  1038 23849s
 20968  8628 2267450.19   62  289 2095903.92 4338713.08   107%  1038 23899s
 20969  8629 2714694.81   70  291 2095903.92 4338713.08   107%  1038 23921s
 20970  8629 4263209.44   47  296 2095903.92 4338713.08   107%  1038 23961s
 20971  8630 3884584.12   46  319 2095903.92 4338713.08   107%  1038 23980s
 20972  8631 2502965.01   68  312 2095903.92 4338713.08   107%  1038 24014s
 20973  8631 4183558.32   43  300 2095903.92 4338713.08   107%  1038 24035s
 20974  8632 2283534.18   68  278 2095903.92 4338713.08   107%  1037 24078s
 20975  8633 2648239.94   65  296 2095903.92 4338713.08   107%  1037 24094s
 20976  8633 2454336.24   73  289 2095903.92 4338713.08   107%  1037 24140s
 20977  8634 3839076.18   41  287 2095903.92 4338713.08   107%  1037 24155s
 20978  8635 4126473.13   49  284 2095903.92 4338713.08   107%  1037 24178s
 20979  8635 3423926.18   67  292 2095903.92 4338713.08   107%  1037 24195s
 20980  8636 3077513.89   54  291 2095903.92 4338713.08   107%  1037 24258s
 20981  8637 4251907.74   54  295 2095903.92 4338713.08   107%  1037 24277s
 20982  8637 2786751.28   95  291 2095903.92 4338713.08   107%  1037 24319s
 20983  8638 3221158.36   92  291 2095903.92 4338713.08   107%  1037 24336s
 20984  8639 4329473.31   40  292 2095903.92 4338713.08   107%  1037 24360s
 20985  8639 3568544.60   62  300 2095903.92 4338713.08   107%  1037 24376s
 20986  8640 2256476.88  113  278 2095903.92 4338713.08   107%  1037 24399s
 20987  8641 3716778.46   63  286 2095903.92 4338713.08   107%  1037 24419s
 20988  8641 4231486.27   47  293 2095903.92 4338713.08   107%  1037 24448s
 20989  8642 3376349.57   51  281 2095903.92 4338713.08   107%  1037 24474s
 20990  8643 2413874.09   68  269 2095903.92 4338713.08   107%  1037 24508s
 20991  8643 2705588.12   88  291 2095903.92 4338713.08   107%  1037 24535s
 20992  8644 3464243.65   49  292 2095903.92 4338713.08   107%  1037 24574s
 20993  8645 3159948.90   77  296 2095903.92 4338713.08   107%  1037 24602s
 20994  8645 3001407.42   99  297 2095903.92 4338713.08   107%  1036 24636s
 20995  8646 3540469.55   68  312 2095903.92 4338713.08   107%  1036 24659s
 20996  8647 3277573.40   69  280 2095903.92 4338713.08   107%  1036 24686s
 20997  8647 3516963.64   61  278 2095903.92 4338713.08   107%  1036 24704s
 20998  8648 3145933.56   58  284 2095903.92 4338713.08   107%  1036 24727s
 20999  8649 3628411.31   70  289 2095903.92 4338713.08   107%  1036 24746s
 21000  8649 2245852.50   66  287 2095903.92 4338713.08   107%  1036 24769s
 21001  8650 3374251.93   80  305 2095903.92 4338713.08   107%  1036 24784s
 21002  8651 2818703.29   84  294 2095903.92 4338713.08   107%  1036 24807s
 21003  8651 3771209.45   53  302 2095903.92 4338713.08   107%  1036 24822s
 21004  8652 3151764.35   67  296 2095903.92 4338713.08   107%  1036 24842s
 21005  8653 3473581.38   90  307 2095903.92 4338713.08   107%  1036 24856s
 21006  8653 2638017.70  138  292 2095903.92 4338713.08   107%  1036 24878s
 21007  8654 3679979.05   66  310 2095903.92 4338713.08   107%  1036 24894s
 21008  8655 3526396.29   71  315 2095903.92 4338713.08   107%  1036 24912s
 21009  8655 3753720.80   64  310 2095903.92 4338713.08   107%  1036 24927s
 21010  8656 3039505.81   70  305 2095903.92 4338713.08   107%  1036 24968s
 21011  8657 2423094.98   78  312 2095903.92 4338713.08   107%  1036 24985s
 21012  8657 3306983.70   83  306 2095903.92 4338713.08   107%  1036 25003s
 21013  8658 3607679.69   60  312 2095903.92 4338713.08   107%  1036 25019s
 21014  8659 3527353.58   57  317 2095903.92 4338713.08   107%  1036 25049s
 21015  8659 3928143.72   60  314 2095903.92 4338713.08   107%  1035 25065s
 21016  8660 3759923.21   60  323 2095903.92 4338713.08   107%  1035 25102s
 21017  8661 3481157.15   34  337 2095903.92 4338713.08   107%  1035 25118s
 21018  8661 4079441.25   47  320 2095903.92 4338713.08   107%  1035 25138s
 21019  8662 2929638.30  105  314 2095903.92 4338713.08   107%  1035 25154s
 21020  8663 4334483.73   36  323 2095903.92 4338713.08   107%  1035 25180s
 21021  8663 3337037.97   83  325 2095903.92 4338713.08   107%  1035 25198s
 21022  8664 3909009.63   81  312 2095903.92 4338713.08   107%  1035 25223s
 21023  8665 2938294.69   72  317 2095903.92 4338713.08   107%  1035 25238s
 21024  8665 2227236.67   50  320 2095903.92 4338713.08   107%  1035 25280s
 21025  8666 3737900.57   61  311 2095903.92 4338713.08   107%  1035 25295s
 21026  8667 3697015.97   61  332 2095903.92 4338713.08   107%  1035 25323s
 21027  8667 4085755.56   44  333 2095903.92 4338713.08   107%  1035 25337s
 21028  8668 3140998.90   80  328 2095903.92 4338713.08   107%  1035 25363s
 21029  8669 3133029.69   87  327 2095903.92 4338713.08   107%  1035 25378s
 21030  8669 3841415.47   79  325 2095903.92 4338713.08   107%  1035 25406s
 21031  8670 2856710.58   89  325 2095903.92 4338713.08   107%  1035 25422s
 21032  8671 2427580.93  121  324 2095903.92 4338713.08   107%  1035 25465s
 21033  8671 2923187.20  143  315 2095903.92 4338713.08   107%  1035 25485s
 21034  8672 3595632.35   80  310 2095903.92 4338713.08   107%  1035 25501s
 21035  8673 2514811.56   41  299 2095903.92 4338713.08   107%  1034 25528s
 21036  8673 3222425.33   64  301 2095903.92 4338713.08   107%  1034 25543s
 21037  8674 2354226.44   72  302 2095903.92 4338713.08   107%  1034 25561s
 21038  8675 2662168.59   79  296 2095903.92 4338713.08   107%  1034 25576s
H21038  8239                    2095903.9161 4338713.08   107%  1034 25598s
 21039  8239 3044765.47   75  299 2095903.92 4338713.08   107%  1034 25614s
 21040  8240 4281807.43   58  292 2095903.92 4338713.08   107%  1034 25642s
 21041  8241 2346470.24   73  304 2095903.92 4338713.08   107%  1034 25657s
 21042  8241 2569948.27   52  304 2095903.92 4338713.08   107%  1034 25674s
 21043  8242 2626459.80  141  312 2095903.92 4338713.08   107%  1034 25687s
 21044  8243 4322536.64   45  317 2095903.92 4338713.08   107%  1034 25714s
 21045  8243 2397808.96  122  318 2095903.92 4338713.08   107%  1034 25729s
 21046  8244 2230040.15   53  320 2095903.92 4338713.08   107%  1034 25748s
 21047  8245 3082561.27   86  318 2095903.92 4338713.08   107%  1034 25763s
 21048  8245 3135553.60   76  314 2095903.92 4338713.08   107%  1034 25788s
 21049  8246 2314309.03   59  317 2095903.92 4338713.08   107%  1034 25804s
 21050  8247 3313135.07   80  320 2095903.92 4338713.08   107%  1034 25836s
 21051  8247 3386932.11   95  319 2095903.92 4338713.08   107%  1034 25853s
 21052  8248 3568702.53   43  319 2095903.92 4338713.08   107%  1034 25871s
 21053  8249 3060506.15   64  320 2095903.92 4338713.08   107%  1034 25885s
 21054  8249 3446695.31   59  319 2095903.92 4338713.08   107%  1034 25905s
 21055  8250 3765887.15   78  320 2095903.92 4338713.08   107%  1033 25918s
 21056  8251 4178196.92   57  320 2095903.92 4338713.08   107%  1033 25941s
 21057  8251 3657213.90   77  320 2095903.92 4338713.08   107%  1033 25981s
 21058  8252 3291673.61   47  320 2095903.92 4338713.08   107%  1033 25995s
 21059  8253 2311530.99   62  320 2095903.92 4338713.08   107%  1033 26103s
 21060  8256 4323190.52   35  325 2095903.92 4338713.08   107%  1043 26206s
 21062  8260 4311448.26   36  303 2095903.92 4338713.08   107%  1043 26312s
 21066  8262 4300796.89   37  330 2095903.92 4300796.89   105%  1046 26384s
 21070  8265 3430813.29   37  204 2095903.92 4300795.73   105%  1049 26469s
 21074  8268 4298275.80   38  329 2095903.92 4298275.80   105%  1050 26514s
 21078  8268     cutoff   38      2095903.92 4298275.15   105%  1052 26573s
 21082  8269 4296486.55   39  322 2095903.92 4298275.15   105%  1054 26588s
 21086  8273 4138278.04   39  236 2095903.92 4296471.98   105%  1055 26640s
 21090  8272 4262191.58   40  313 2095903.92 4296364.53   105%  1055 26691s
 21096  8275 4044293.96   40  175 2095903.92 4262171.87   103%  1057 26729s
 21100  8284 4254098.53   41  293 2095903.92 4254098.53   103%  1058 26781s
 21105  8283 4251304.73   42  301 2095903.92 4251304.73   103%  1060 26836s
 21112  8288 4184041.43   43  294 2095903.92 4251304.73   103%  1063 26880s
 21119  8291 4043546.96   43  310 2095903.92 4194445.35   100%  1065 26919s
 21126  8292 3960720.29   44  292 2095903.92 4191740.00   100%  1067 26956s
 21134  8304 4164722.26   44  205 2095903.92 4186056.63   100%  1068 26995s
 21143  8308 4155938.73   46  207 2095903.92 4184433.50   100%  1070 27056s
 21152  8315 4154652.34   47  199 2095903.92 4183775.16   100%  1074 27095s
 21160  8316 4153788.63   48  196 2095903.92 4173621.80  99.1%  1076 27190s
 21169  8322 4145754.67   49  197 2095903.92 4171885.51  99.0%  1081 27253s
 21182  8333 4140926.66   50  198 2095903.92 4140926.66  97.6%  1084 27311s
 21195  8338 4069583.98   51  168 2095903.92 4138278.04  97.4%  1089 27352s
 21207  8342 4068206.08   52  161 2095903.92 4138278.04  97.4%  1093 27387s
 21218  8349 4060776.00   53  149 2095903.92 4138278.04  97.4%  1096 27422s
 21233  8355 4060276.86   54  148 2095903.92 4138278.04  97.4%  1099 27478s
 21252  8362 4050508.90   56  165 2095903.92 4138278.04  97.4%  1102 27522s
 21266  8363 4049731.67   57  159 2095903.92 4138278.04  97.4%  1105 27572s
 21282  8375 4043471.64   59  164 2095903.92 4138278.04  97.4%  1108 27651s
 21305  8384 4042395.99   61  174 2095903.92 4138278.04  97.4%  1112 27701s
 21331  8397 3333407.44   62  135 2095903.92 4138278.04  97.4%  1115 27751s
 21354  8408 4021443.29   64  228 2095903.92 4138278.04  97.4%  1118 27811s
 21383  8415 4016234.04   66  194 2095903.92 4138278.04  97.4%  1121 27871s
 21403  8424 4008443.98   67  210 2095903.92 4138278.04  97.4%  1126 27951s
 21439  8442 4007563.77   68  208 2095903.92 4138278.04  97.4%  1129 28005s
 21472  8450 4006019.91   70  242 2095903.92 4138278.04  97.4%  1133 28065s
 21504  8450 4002310.27   72  247 2095903.92 4138278.04  97.4%  1136 28133s
 21523  8456 4001999.18   73  244 2095903.92 4138278.04  97.4%  1141 28192s
 21549  8467 3802841.72   75  208 2095903.92 4138278.04  97.4%  1146 28281s
 21585  8469 3731732.19   78  194 2095903.92 4138278.04  97.4%  1151 28361s
 21619  8492 3657756.81   81  239 2095903.92 4138278.04  97.4%  1156 28437s
 21678  8516 3330473.47   84  236 2095903.92 4138278.04  97.4%  1161 28509s
 21725  8525 3313524.12   85  119 2095903.92 4138278.04  97.4%  1163 28584s
 21787  8560 2991738.34   92  102 2095903.92 4138278.04  97.4%  1167 28658s
 21825  8563 3152626.24   99  115 2095903.92 4138278.04  97.4%  1172 28739s
 21902  8582 3131085.50  106  113 2095903.92 4027372.43  92.2%  1177 28832s
 22030  8619 3709601.43   41  163 2095903.92 4027372.43  92.2%  1177 28943s
 22087  8619 2177095.56   51  113 2095903.92 4025948.57  92.1%  1182 29092s
 22161  8645 3943955.01   57  151 2095903.92 4025948.57  92.1%  1181 29179s
 22238  8667 3565064.70   88  125 2095903.92 4018529.03  91.7%  1185 29271s
 22355  8713 3496481.44   45  114 2095903.92 4017184.83  91.7%  1188 29359s
 22410  8741 3461549.38   46  186 2095903.92 4011292.41  91.4%  1193 29452s
 22470  8756 3691173.09   47  132 2095903.92 4004711.89  91.1%  1198 29546s
 22522  8789 3886995.22   43  180 2095903.92 4004711.89  91.1%  1204 29635s
 22600  8820 2264341.56   60   56 2095903.92 4004554.65  91.1%  1210 29755s
 22671  8834 3947713.73   54  251 2095903.92 4002975.20  91.0%  1217 29866s
 22839  8863 3925970.18   56  253 2095903.92 4002975.20  91.0%  1218 30000s
 22965  8900 3917646.50   57  256 2095903.92 3983904.89  90.1%  1221 30110s
 23142  8969 3056549.73   69  140 2095903.92 3976692.33  89.7%  1223 30319s
 23262  8985 3159510.33   60  137 2095903.92 3976692.33  89.7%  1223 30440s
 23412  9021 2736699.76   89   99 2095903.92 3963147.35  89.1%  1228 30566s
 23593  9069 3301108.92   47  111 2095903.92 3960659.90  89.0%  1232 30698s
 23817  9138 3367418.03   51  132 2095903.92 3958156.82  88.9%  1233 30954s
 23935  9166 3709845.51   68  203 2095903.92 3952262.21  88.6%  1240 31099s
 24129  9236 3374275.34   44  103 2095903.92 3942990.89  88.1%  1243 31235s
 24324  9309 2558877.26   53  179 2095903.92 3940390.89  88.0%  1244 31376s
 24549  9409 3577201.84   63  153 2095903.92 3940390.89  88.0%  1243 31538s
 24747  9494 2175327.63  114   76 2095903.92 3934913.85  87.7%  1247 31759s
 24982  9575 3619606.85   54   74 2095903.92 3931935.20  87.6%  1249 31917s
 25248  9577 3491401.37   48  150 2095903.92 3922086.73  87.1%  1251 32094s
 25549  9683 3258986.80   53  106 2095903.92 3918569.52  87.0%  1251 32265s
 25790  9762 3306943.94   99   90 2095903.92 3910311.66  86.6%  1253 32471s
 26035  9855 3315355.83   49   99 2095903.92 3905244.78  86.3%  1257 32746s
 26253  9918 2609531.82   54  137 2095903.92 3898396.08  86.0%  1259 32969s
 26561 10031 2886573.02   45  112 2095903.92 3886642.89  85.4%  1260 33171s
 26992 10156 2968132.56   58  122 2095903.92 3876420.18  85.0%  1258 33364s
 27383 10284 3476614.36   72   96 2095903.92 3867142.94  84.5%  1259 33638s
 27815 10413 3476050.17   50  144 2095903.92 3860265.10  84.2%  1257 33919s
 28101 10496 2963555.84   57   85 2095903.92 3856198.07  84.0%  1263 34141s
 28521 10597 3010724.00  117  127 2095903.92 3850312.81  83.7%  1264 34452s
 28852 10696 3025153.48   69  154 2095903.92 3845732.35  83.5%  1269 34688s
 29388 10833 2500533.32   62   69 2095903.92 3838885.98  83.2%  1268 35020s
 29814 10931 2618520.95   48   85 2095903.92 3833420.71  82.9%  1271 35295s
 30276 11060 2707888.25   58  134 2095903.92 3823061.02  82.4%  1273 35614s
 30587 11099 2493809.32   66   58 2095903.92 3818169.51  82.2%  1274 35896s
 31139 11212 2971063.01   52   95 2095903.92 3804674.16  81.5%  1274 36305s
 31578 11345 2473575.35   55   69 2095903.92 3796280.47  81.1%  1279 36717s
 32089 11498 2829312.06   52  168 2095903.92 3782506.01  80.5%  1281 37060s
 32659 11670 3410359.04   62  181 2095903.92 3769688.81  79.9%  1281 37331s
 33322 11897 3350949.15   48  254 2095903.92 3758137.34  79.3%  1276 37725s
 33832 12054 2843516.84   68  132 2095903.92 3755707.07  79.2%  1278 38069s
 34383 12243 3152331.64   51  161 2095903.92 3748251.56  78.8%  1277 38487s
 34408 12216 infeasible   54      2095903.92 3742812.25  78.6%  1277 38868s
 34898 12346 3706942.97   56  103 2095903.92 3737216.33  78.3%  1278 39229s
 35266 12424 3560369.23   47  232 2095903.92 3728989.98  77.9%  1284 39500s
 35735 12557 2761680.43   53  181 2095903.92 3724558.34  77.7%  1284 39757s
 36136 12635 3047195.19   51  204 2095903.92 3717886.50  77.4%  1288 40119s
 36486 12677 2227834.13  119   86 2095903.92 3709598.15  77.0%  1294 40500s
 37022 12791 3397966.40   74  152 2095903.92 3699098.08  76.5%  1293 40810s
 37542 12911 3260174.21   59  112 2095903.92 3693426.04  76.2%  1294 41145s
 37985 13002 3347265.91   64  175 2095903.92 3683371.96  75.7%  1297 41419s
 38227 13064 3323835.00   51   96 2095903.92 3682579.90  75.7%  1298 41420s
 38442 13072 2246866.90   66   95 2095903.92 3675947.03  75.4%  1299 41730s
 38993 13196 3427211.40   44  142 2095903.92 3670293.85  75.1%  1299 42045s
 39512 13273 3111706.69   62  103 2095903.92 3663209.95  74.8%  1299 42398s
 40058 13342 2677719.73   52   81 2095903.92 3656302.38  74.4%  1299 42708s
 40529 13431 2863151.47   60  104 2095903.92 3648401.46  74.1%  1300 42979s
 41162 13589     cutoff   65      2095903.92 3642405.24  73.8%  1295 43349s
 41644 13702 2715912.43   56  165 2095903.92 3631735.38  73.3%  1295 43623s
 42223 13824 3118861.79   75  105 2095903.92 3627743.22  73.1%  1293 43940s
 42597 13905 3171602.07   70  128 2095903.92 3622969.17  72.9%  1296 44201s
 43029 14014 3117234.44   55  173 2095903.92 3619264.97  72.7%  1298 44564s
 43443 14007 2197976.49   76  116 2095903.92 3614063.47  72.4%  1300 44897s
 43855 14103 2629492.52   72  107 2095903.92 3610736.55  72.3%  1302 45264s
 44151 14139 2554138.67   47   87 2095903.92 3603348.36  71.9%  1306 45522s
 44686 14261 3105472.66   56  114 2095903.92 3596356.39  71.6%  1304 45863s
 45020 14290 2951984.38   60  166 2095903.92 3591897.29  71.4%  1308 46121s
 45466 14402 3512039.41   48  106 2095903.92 3588753.87  71.2%  1308 46399s
 46031 14631 2815177.55   57   63 2095903.92 3581405.75  70.9%  1305 46700s
 46485 14871 2336664.06   63   20 2095903.92 3576872.83  70.7%  1306 46957s
 46868 15070     cutoff   51      2095903.92 3572925.66  70.5%  1308 47248s
 47310 15291 2570909.05   61   97 2095903.92 3568515.09  70.3%  1305 47509s
 47805 15551 2959259.21   49  101 2095903.92 3565026.88  70.1%  1304 47824s
 48151 15723 2147563.05   55   95 2095903.92 3561907.83  69.9%  1307 48146s
 48481 15881 2626781.78   46  114 2095903.92 3558048.59  69.8%  1309 48369s
 49063 16249 3052651.87   49   96 2095903.92 3552572.25  69.5%  1306 48658s
 49437 16417 2136293.68   55   62 2095903.92 3550013.14  69.4%  1308 48928s
 49927 16670     cutoff   72      2095903.92 3547632.75  69.3%  1307 49226s
 50422 16917 2556817.00   51  302 2095903.92 3543392.24  69.1%  1306 49529s
 50908 17153 2726890.76   50  163 2095903.92 3540920.31  68.9%  1305 49832s
 51235 17298 2543947.29   49  135 2095903.92 3539462.61  68.9%  1307 50094s
 51811 17597 2433182.80   72   85 2095903.92 3533626.75  68.6%  1303 50335s
 52329 17850     cutoff   53      2095903.92 3529131.07  68.4%  1302 50555s
 52832 18110 2683779.77   55   95 2095903.92 3525972.17  68.2%  1300 50757s
 53318 18352 2780393.22   51  180 2095903.92 3519094.85  67.9%  1299 51037s
 53855 18611 3347251.85   54   77 2095903.92 3515691.36  67.7%  1296 51241s
 54375 18923 2982806.40   50  103 2095903.92 3513432.03  67.6%  1293 51471s
 54805 19149 2599623.74   81  105 2095903.92 3510585.30  67.5%  1292 51756s
 55299 19444 2770654.74   45   98 2095903.92 3505436.73  67.3%  1290 52038s
 55875 19761     cutoff   70      2095903.92 3503922.72  67.2%  1286 52290s
 56251 19924 2594291.54   80   90 2095903.92 3501238.48  67.1%  1287 52553s
 56717 20160     cutoff   70      2095903.92 3496371.06  66.8%  1286 52757s
 57272 20425 2735270.55   64  103 2095903.92 3490757.13  66.6%  1283 52960s
 57775 20653 2789274.56   52   92 2095903.92 3487209.81  66.4%  1281 53184s
 58211 20855 3286877.69   54  118 2095903.92 3483914.98  66.2%  1280 53427s
 58740 21136 3358167.29   66  227 2095903.92 3478096.54  65.9%  1278 53712s
 59214 21372 2497025.83   72   81 2095903.92 3476040.04  65.8%  1276 53891s
 59562 21520 2932688.03   58   99 2095903.92 3472760.00  65.7%  1274 54096s
 59967 21689 2881462.17   52   64 2095903.92 3470471.35  65.6%  1274 54391s
 60285 21814 2872719.36   92  105 2095903.92 3468026.83  65.5%  1275 54685s
 60770 22028     cutoff   53      2095903.92 3464241.57  65.3%  1275 55005s
 61170 22208 2749320.69   47  102 2095903.92 3461387.79  65.2%  1275 55248s
 61726 22576 2807413.51   54  107 2095903.92 3458675.53  65.0%  1271 55501s
 62070 22729     cutoff   51      2095903.92 3456429.81  64.9%  1272 56245s
 62530 22896 3309562.52   66  148 2095903.92 3453739.31  64.8%  1273 56548s
 63058 23175     cutoff   75      2095903.92 3450730.39  64.6%  1271 56833s
 63457 23365 3182579.23   58  216 2095903.92 3447496.40  64.5%  1272 57123s
 63818 23557 2457627.43   84  108 2095903.92 3443622.72  64.3%  1272 57347s
 64217 23704 2440443.70   58  113 2095903.92 3440361.48  64.1%  1272 57619s
 64735 23937 3082996.64   68  133 2095903.92 3437085.39  64.0%  1270 57998s
 65082 24100 2206996.34   77   98 2095903.92 3434245.72  63.9%  1272 58199s
 65450 24269 3365070.52   52  150 2095903.92 3432535.87  63.8%  1272 58483s
 65708 24410 2860788.30   58  121 2095903.92 3428226.12  63.6%  1273 58750s
 65945 24499 2185948.44   52   76 2095903.92 3427369.50  63.5%  1275 59029s
 66326 24639 2568454.16   75  128 2095903.92 3425555.62  63.4%  1277 59259s
 66870 24876 2421568.51   81   70 2095903.92 3422115.18  63.3%  1274 59542s
 67371 25079 3255759.89   71   65 2095903.92 3419059.34  63.1%  1273 59749s
 67833 25256 2897554.13   67   80 2095903.92 3416690.32  63.0%  1272 60018s
 68146 25410 2766620.02   61  116 2095903.92 3415361.98  63.0%  1273 60251s
 68666 25647 2897009.27   61  142 2095903.92 3413312.28  62.9%  1271 60545s
 69218 25912 2998663.24   56   95 2095903.92 3412129.10  62.8%  1268 60813s
 69671 26143 2473254.91  103  100 2095903.92 3407955.68  62.6%  1267 61093s
 70154 26344 2628146.64   69   50 2095903.92 3404877.64  62.5%  1266 61389s
 70574 26538 3140328.16   53  258 2095903.92 3402568.77  62.3%  1266 61646s
 70842 26690 2897365.80   52  132 2095903.92 3401574.95  62.3%  1266 61948s
 71255 26891 2203305.61   85  105 2095903.92 3399780.00  62.2%  1266 62239s
 71778 27158 2858486.15   53  187 2095903.92 3395579.01  62.0%  1264 62539s
 72181 27307 2807021.67   51   86 2095903.92 3392182.30  61.8%  1264 62767s
 72715 27567 2219465.46   54  114 2095903.92 3388262.93  61.7%  1262 63001s
 73020 27701 3063864.27   52  103 2095903.92 3386325.52  61.6%  1261 63302s
 73419 27892 2325176.71   58  139 2095903.92 3384345.86  61.5%  1260 63561s
 73960 28191 3105639.02   50  270 2095903.92 3380999.32  61.3%  1258 63834s
 74306 28363     cutoff   75      2095903.92 3379908.74  61.3%  1259 64089s
 74775 28512     cutoff   59      2095903.92 3378721.90  61.2%  1258 64374s
 75103 28654 2281601.06   83  200 2095903.92 3377374.94  61.1%  1259 64657s
 75634 28912 2361535.52   96  156 2095903.92 3374293.60  61.0%  1257 64874s
 75950 28997 2853113.04   50  119 2095903.92 3372383.02  60.9%  1256 65148s
 76521 29227 3089330.71   51  203 2095903.92 3368347.14  60.7%  1253 65495s
 76999 29454 2674746.95   50   88 2095903.92 3365257.78  60.6%  1252 65708s
 77379 29599 2354761.19   93   50 2095903.92 3362343.10  60.4%  1252 65934s
 77872 29791 2568314.86   61   82 2095903.92 3359877.46  60.3%  1251 66213s
 78450 30083 2692535.47   65  107 2095903.92 3354646.76  60.1%  1248 66392s
 78870 30274     cutoff   65      2095903.92 3352890.09  60.0%  1246 66631s
 79561 30548 2451953.64  107  109 2095903.92 3350178.37  59.8%  1241 66859s
 79842 30685 2262628.64   57   24 2095903.92 3349111.83  59.8%  1241 67074s
 80367 30887 2500640.95   86   94 2095903.92 3346512.84  59.7%  1239 67349s
 81073 31216 2776304.25   53  103 2095903.92 3344130.26  59.6%  1235 67541s
 81490 31423 2808033.84   78   60 2095903.92 3340804.55  59.4%  1234 67717s
 81874 31549 2845482.92   73  104 2095903.92 3339945.86  59.4%  1234 67917s
 82188 31627 2526715.62   60  115 2095903.92 3338324.97  59.3%  1234 68143s
 82695 31890 2913346.01   74   87 2095903.92 3336153.56  59.2%  1232 68379s
 83240 32097 2917943.52   49  114 2095903.92 3332323.87  59.0%  1229 68594s
 83738 32352 3163700.07   50   92 2095903.92 3330275.28  58.9%  1227 68845s
 84217 32573     cutoff   53      2095903.92 3327737.63  58.8%  1225 69085s
 84638 32729     cutoff   62      2095903.92 3325986.56  58.7%  1224 69264s
 85169 32938 2411795.59   65   97 2095903.92 3323281.86  58.6%  1222 69461s
 85572 33144 2672649.76   71  132 2095903.92 3320369.44  58.4%  1221 69703s
 85815 33203 2207071.72   61   93 2095903.92 3319242.14  58.4%  1222 69866s
 86264 33417 2800983.76   86  188 2095903.92 3316902.66  58.3%  1221 70103s
 86770 33613 2380531.88   40  107 2095903.92 3314826.18  58.2%  1219 70336s
 87234 33822 2630205.07   55  106 2095903.92 3312059.62  58.0%  1218 70547s
 87724 34052 2812514.11   59   25 2095903.92 3309591.77  57.9%  1216 70715s
 88311 34295     cutoff   58      2095903.92 3307202.09  57.8%  1213 70920s
 88745 34512 2576623.04   50   93 2095903.92 3305313.87  57.7%  1211 71089s
 89256 34779 2600287.23   57   95 2095903.92 3302923.52  57.6%  1209 71285s
 89626 34916 3286565.15   49  116 2095903.92 3301231.13  57.5%  1209 71450s
 89891 35074 2408761.82  105   71 2095903.92 3301146.48  57.5%  1207 71672s
 90468 35369 3180597.64   51  133 2095903.92 3299618.04  57.4%  1204 71856s
 90856 35547 2967488.54   46   98 2095903.92 3297432.34  57.3%  1204 72043s
 91211 35670 2121012.41   51   64 2095903.92 3294839.90  57.2%  1204 72263s
 91779 35895 2569877.08   44   89 2095903.92 3292437.30  57.1%  1201 72495s
 92223 36083 2239697.10   54   68 2095903.92 3290054.42  57.0%  1200 72706s
 92705 36293 2232944.57   65  103 2095903.92 3287256.81  56.8%  1199 72840s
 93160 36501 3060164.22   65   64 2095903.92 3284310.90  56.7%  1197 73001s
 93513 36664     cutoff   50      2095903.92 3282498.36  56.6%  1197 73182s
 93932 36822 2942081.38   57  100 2095903.92 3281736.74  56.6%  1196 73344s
 94239 36941 2691895.54   59   69 2095903.92 3279655.56  56.5%  1197 73524s
 94669 37092 2802214.55   56  120 2095903.92 3277488.77  56.4%  1196 73718s
 95150 37290 2823511.19   54  134 2095903.92 3275760.93  56.3%  1195 73915s
 95712 37580 2224888.89   55   79 2095903.92 3271699.95  56.1%  1192 74120s
 96214 37786 2724163.83   80   81 2095903.92 3269907.84  56.0%  1190 74331s
 96546 37835 2154351.71   49  172 2095903.92 3267380.75  55.9%  1191 74518s
 96989 37981 2441556.93   59   95 2095903.92 3263973.16  55.7%  1190 74710s
 97264 38076 2208123.60   60   90 2095903.92 3262714.59  55.7%  1190 74945s
 97583 38174 2391749.15   51   72 2095903.92 3261577.22  55.6%  1191 75150s
 97892 38241 2754674.77   65   54 2095903.92 3258890.81  55.5%  1191 75354s
 98342 38463 2408357.20   51   70 2095903.92 3257037.31  55.4%  1190 75487s
 98653 38593 2768405.80   88  105 2095903.92 3255770.57  55.3%  1189 75676s
 98999 38712 2435480.41   52   78 2095903.92 3253207.74  55.2%  1189 75863s
 99530 38926     cutoff   55      2095903.92 3250225.30  55.1%  1187 76081s
 99854 39009 2848873.59   51   75 2095903.92 3248308.72  55.0%  1188 76324s
 100150 39088 3238218.28   59  103 2095903.92 3246521.98  54.9%  1189 76653s
 100233 39128     cutoff   55      2095903.92 3246521.98  54.9%  1193 76982s
 100245 39123     cutoff   55      2095903.92 3246521.98  54.9%  1197 77250s
 100275 39127 3166663.42   52  102 2095903.92 3246051.71  54.9%  1199 77432s
 100474 39202     cutoff   81      2095903.92 3245212.80  54.8%  1198 77658s
 100933 39407 2395117.99   77  130 2095903.92 3243799.04  54.8%  1197 77899s
 101314 39544 2274391.80   54   95 2095903.92 3242556.62  54.7%  1197 78080s
 101836 39759 2464162.28   47   63 2095903.92 3240283.91  54.6%  1196 78313s
 102212 39935 2567895.77   61  105 2095903.92 3237617.67  54.5%  1196 78484s
 102453 39991     cutoff   75      2095903.92 3236810.80  54.4%  1195 78722s
 102650 40042 2382167.04   50   89 2095903.92 3236446.12  54.4%  1195 78934s
 102934 40099     cutoff   72      2095903.92 3235282.52  54.4%  1196 79169s
 103332 40193 2583067.59   82  114 2095903.92 3230061.73  54.1%  1196 79375s
 103719 40307 2716917.79   55   89 2095903.92 3229382.66  54.1%  1196 79558s
 104208 40488 2365280.23   55   79 2095903.92 3225629.20  53.9%  1195 79780s
 104690 40665 2824642.87   58  129 2095903.92 3222782.72  53.8%  1194 80037s
 105188 40903     cutoff   91      2095903.92 3221091.14  53.7%  1193 80235s
 105284 40880 3018592.77   48  151 2095903.92 3220838.55  53.7%  1194 80489s
 105719 41052 2545533.61   54   71 2095903.92 3218547.34  53.6%  1193 80732s
 106104 41189 2839321.86   55  131 2095903.92 3216544.00  53.5%  1193 80980s
 106417 41278 2807605.37   84  107 2095903.92 3215610.37  53.4%  1193 81204s
 106873 41405 3089391.62   47  170 2095903.92 3213420.20  53.3%  1192 81434s
 107314 41565     cutoff   61      2095903.92 3211815.47  53.2%  1192 81607s
 107850 41757 2962818.05   67   43 2095903.92 3209630.36  53.1%  1190 81802s
 108439 41990 3017378.17   56  199 2095903.92 3208671.06  53.1%  1188 81997s
 108797 42106 2489852.12   51  162 2095903.92 3207810.98  53.1%  1188 82229s
 109317 42275 2882851.59   55  113 2095903.92 3204832.51  52.9%  1187 82455s
 109675 42407     cutoff   70      2095903.92 3203631.05  52.9%  1187 82628s
 110151 42562     cutoff   61      2095903.92 3200909.36  52.7%  1186 82837s
 110572 42698 2580281.98   58  177 2095903.92 3198242.75  52.6%  1186 83076s
 110853 42758 3028455.76   52  103 2095903.92 3197764.24  52.6%  1187 83243s
 111291 42916 2986722.43   54  127 2095903.92 3195359.74  52.5%  1186 83510s
 111723 43026 2465020.59   69   78 2095903.92 3192999.90  52.3%  1186 83762s
 112162 43156     cutoff   75      2095903.92 3190363.60  52.2%  1186 84000s
 112682 43379 2478120.32   94  112 2095903.92 3188606.53  52.1%  1184 84221s
 113223 43544 2568358.22   88   34 2095903.92 3185751.79  52.0%  1183 84414s
 113648 43686 3062796.81   49  113 2095903.92 3183825.05  51.9%  1183 84578s
 114057 43844     cutoff   63      2095903.92 3181562.63  51.8%  1182 84818s
 114550 44018 2443357.14   72  148 2095903.92 3179568.32  51.7%  1181 85003s
 115136 44260 3168656.37   56   86 2095903.92 3177269.95  51.6%  1179 85141s
 115465 44337 2989116.29   62  124 2095903.92 3175690.65  51.5%  1180 85341s
 115825 44446 2316885.95   60  138 2095903.92 3172950.15  51.4%  1180 85526s
 116353 44660 2716017.31   55  112 2095903.92 3171294.63  51.3%  1178 85727s
 116884 44859 2304306.57   56   95 2095903.92 3169707.91  51.2%  1176 85894s
 117345 45005 2473745.76   68  101 2095903.92 3167560.27  51.1%  1175 86100s
 117908 45207 2543040.97   77   34 2095903.92 3165895.03  51.1%  1173 86331s
 118410 45404 2391719.70   50  128 2095903.92 3163826.79  51.0%  1171 86400s

Cutting planes:
  Gomory: 117
  Cover: 3
  Implied bound: 9
  Projected implied bound: 1
  Clique: 14
  MIR: 133
  Flow cover: 557
  GUB cover: 2
  Zero half: 4

Explored 118573 nodes (138904961 simplex iterations) in 86400.67 seconds
Thread count was 4 (of 16 available processors)

Solution count 10: 2.0959e+06 2.0959e+06 2.0959e+06 ... 2.0959e+06

Time limit reached
Warning: max constraint violation (6.2399e-06) exceeds tolerance
Best objective 2.095903916141e+06, best bound 3.162290457848e+06, gap 50.8796%

***
***  |- Calculation finished, timelimit reached 86,400.69 (86400.69) sec.))
***  |-----------------------------------------------------------------------------------------------------------------------
***
*****************************************************************************************************************************
#############################################################################################################################
###
### Results
###
### The objective of the solution is 2,095,903.9161 (2095903.9161) and is feasible with a Gap of 0.5088
###
### Service 24 (WAF7) is operated by 3 vessels from type 18 (PMax25)
###  |- Vessel  1 has the path [100, 276, -1]
###  |  100 (DEHAM Out@288.0) - 276 (ESALG In@496.0/Out@515.0) - -1 (DUMMY_END Ziel-Service 24)
###  |- Vessel  2 has the path [101, 277, -1]
###  |  101 (DEHAM Out@456.0) - 277 (ESALG In@664.0/Out@683.0) - -1 (DUMMY_END Ziel-Service 24)
###  |- Vessel 13 has the path [104, 275, 201, 291, 202, 114, 278, -1]
###  |  104 (DKAAR Out@220.0) - 275 (ESALG In@328.0/Out@347.0) - 201 (MAPTM In@375.0/Out@396.0) - 291 (MAPTM In@379.0/Out@398
###  |  .0) - 202 (MAPTM In@406.0/Out@427.0) - 114 (ESALG In@452.0/Out@464.0) - 278 (ESALG In@832.0/Out@851.0) - -1 (DUMMY_EN
###  |  D Ziel-Service 24)
###  |   |- and carried Demand  18,   18.0 containers from 201 to 114
###  |   |- and carried Demand  52,  312.0 containers from 202 to 114
###  |   |- and carried Demand  53,   18.0 containers from 202 to 114
###  |   |- and carried Demand 119,  214.0 containers from 201 to 278
###  |   |- and carried Demand 120,   10.0 containers from 201 to 278
###  |   |- and carried Demand 121,  484.0 containers from 201 to 114
###  |   |- and carried Demand 122,   18.0 containers from 201 to 114
###  |   |- and carried Demand 132,  214.0 containers from 202 to 278
###  |   |- and carried Demand 133,   10.0 containers from 202 to 278
###  |   |- and carried Demand 134,  484.0 containers from 202 to 114
###  |   |- and carried Demand 135,   18.0 containers from 202 to 114
###  |   |- and carried Demand 138,  214.0 containers from 291 to 278
###  |   |- and carried Demand 139,   10.0 containers from 291 to 278
###  |   |- and carried Demand 140,  484.0 containers from 291 to 114
###  |   |- and carried Demand 141,   18.0 containers from 291 to 114
###  |
### Service 177 (WCSA) is operated by 3 vessels from type 19 (PMax28)
###  |- Vessel  5 has the path [218, 133, 199, 290, 200, 112, 284, 45, 36, 240, 236, 0]
###  |  218 (NLRTM Out@92.0) - 133 (FRLEH In@111.0/Out@127.0) - 199 (MAPTM In@207.0/Out@228.0) - 290 (MAPTM In@211.0/Out@230.
###  |  0) - 200 (MAPTM In@238.0/Out@259.0) - 112 (ESALG In@284.0/Out@296.0) - 284 (GWOXB In@463.0/Out@542.0) - 45 (CMDLA In@
###  |  765.0/Out@811.0) - 36 (CLLQN In@1240.0/Out@1258.0) - 240 (PECLL In@1512.12/Out@1514.12) - 236 (PABLB In@1640.0/Out@16
###  |  52.0) - 0 (DUMMY_END Ziel-Service 177)
###  |   |- and carried Demand   6,   17.0 containers from 218 to 133
###  |   |- and carried Demand   7,  161.0 containers from 199 to  45
###  |   |- and carried Demand   8,  580.0 containers from 199 to 112
###  |   |- and carried Demand  45,  161.0 containers from 200 to  45
###  |   |- and carried Demand  46,  580.0 containers from 200 to 112
###  |   |- and carried Demand  80,  194.0 containers from  36 to 236
###  |   |- and carried Demand  81,   20.0 containers from  36 to 236
###  |   |- and carried Demand  83,    5.0 containers from  36 to 236
###  |   |- and carried Demand 117,  580.0 containers from 199 to 112
###  |   |- and carried Demand 131,   19.0 containers from 200 to 112
###  |   |- and carried Demand 144,  161.0 containers from 290 to  45
###  |   |- and carried Demand 145,  580.0 containers from 290 to 112
###  |- Vessel  7 has the path [221, 137, 203, 234, 0]
###  |  221 (NLRTM Out@428.0) - 137 (FRLEH In@447.0/Out@463.0) - 203 (MAPTM In@543.0/Out@564.0) - 234 (PABLB In@1304.0/Out@13
###  |  16.0) - 0 (DUMMY_END Ziel-Service 177)
###  |   |- and carried Demand  26,    6.0 containers from 221 to 137
###  |- Vessel  8 has the path [223, 138, 204, 235, 0]
###  |  223 (NLRTM Out@596.0) - 138 (FRLEH In@615.0/Out@631.0) - 204 (MAPTM In@711.0/Out@732.0) - 235 (PABLB In@1472.0/Out@14
###  |  84.0) - 0 (DUMMY_END Ziel-Service 177)
###  |
### Vessels not used in the solution: [3, 4, 6, 9, 10, 11, 12, 14, 15, 16, 17, 18]
###  |-----------------------------------------------------------------------------------------------------------------------
###
#############################################################################################################################

### Detialed variable overview

### All variables with value greater zero:
rho[24,18] = 1
rho[177,19] = 1
eta[24,18,1] = 1
eta[24,18,2] = 1
eta[24,18,3] = 1
eta[177,19,1] = 1
eta[177,19,2] = 1
eta[177,19,3] = 1
y[1,276,-1] = 1
y[1,100,276] = 1
y[2,101,277] = 1
y[2,277,-1] = 1
y[5,200,112] = 1
y[5,290,200] = 1
y[5,240,236] = 1
y[5,133,199] = 1
y[5,199,290] = 1
y[5,45,36] = 0.999999
y[5,218,133] = 1
y[5,36,240] = 0.999999
y[5,284,45] = 0.999999
y[5,236,0] = 1
y[5,112,284] = 1
y[7,234,0] = 1
y[7,137,203] = 1
y[7,203,234] = 1
y[7,221,137] = 1
y[8,235,0] = 1
y[8,204,235] = 1
y[8,223,138] = 1
y[8,138,204] = 1
y[13,104,275] = 1
y[13,275,201] = 1
y[13,291,202] = 1
y[13,114,278] = 1
y[13,202,114] = 1
y[13,278,-1] = 1
y[13,201,291] = 1
xD[6,218,133] = 17
xD[7,200,112] = 161
xD[7,290,200] = 161
xD[7,199,290] = 161
xD[7,284,45] = 161
xD[7,112,284] = 161
xD[8,200,112] = 580
xD[8,290,200] = 580
xD[8,199,290] = 580
xD[18,291,202] = 18
xD[18,202,114] = 18
xD[18,201,291] = 18
xD[26,221,137] = 6
xD[45,200,112] = 161
xD[45,284,45] = 161
xD[45,112,284] = 161
xD[46,200,112] = 580
xD[52,202,114] = 312
xD[53,202,114] = 18
xD[80,240,236] = 194
xD[80,36,240] = 194
xD[81,240,236] = 20
xD[81,36,240] = 20
xD[83,240,236] = 5
xD[83,36,240] = 5
xD[117,200,112] = 580
xD[117,290,200] = 580
xD[117,199,290] = 580
xD[119,291,202] = 214
xD[119,114,278] = 214
xD[119,202,114] = 214
xD[119,201,291] = 214
xD[120,291,202] = 10
xD[120,114,278] = 10
xD[120,202,114] = 10
xD[120,201,291] = 10
xD[121,291,202] = 484
xD[121,202,114] = 484
xD[121,201,291] = 484
xD[122,291,202] = 18
xD[122,202,114] = 18
xD[122,201,291] = 18
xD[131,200,112] = 19
xD[132,114,278] = 214
xD[132,202,114] = 214
xD[133,114,278] = 10
xD[133,202,114] = 10
xD[134,202,114] = 484
xD[135,202,114] = 18
xD[138,291,202] = 214
xD[138,114,278] = 214
xD[138,202,114] = 214
xD[139,291,202] = 10
xD[139,114,278] = 10
xD[139,202,114] = 10
xD[140,291,202] = 484
xD[140,202,114] = 484
xD[141,291,202] = 18
xD[141,202,114] = 18
xD[144,200,112] = 161
xD[144,290,200] = 161
xD[144,284,45] = 161
xD[144,112,284] = 161
xD[145,200,112] = 580
xD[145,290,200] = 580
zE[36] = 1240
zE[45] = 764.999
zE[112] = 284
zE[114] = 452
zE[133] = 111
zE[137] = 447
zE[138] = 615
zE[199] = 207
zE[200] = 238
zE[201] = 375
zE[202] = 406
zE[203] = 543
zE[204] = 711
zE[234] = 1304
zE[235] = 1472
zE[236] = 1640
zE[240] = 1512.12
zE[275] = 328
zE[276] = 496
zE[277] = 664
zE[278] = 832
zE[284] = 463
zE[290] = 211
zE[291] = 379
zX[36] = 1258
zX[45] = 810.999
zX[100] = 288
zX[101] = 456
zX[104] = 220
zX[112] = 296
zX[114] = 464
zX[133] = 127
zX[137] = 463
zX[138] = 631
zX[199] = 228
zX[200] = 259
zX[201] = 396
zX[202] = 427
zX[203] = 564
zX[204] = 732
zX[218] = 92
zX[221] = 428
zX[223] = 596
zX[234] = 1316
zX[235] = 1484
zX[236] = 1652
zX[240] = 1514.12
zX[275] = 347
zX[276] = 515
zX[277] = 683
zX[278] = 851
zX[284] = 542
zX[290] = 230
zX[291] = 398
w[5,(240,236)] = 125.884
w[5,(36,240)] = 140.711
phi[1] = 227
phi[2] = 227
phi[5] = 1560
phi[7] = 888
phi[8] = 888
phi[13] = 631

### All variables with value smaller zero:

### End

real	1441m40.201s
user	5459m27.555s
sys	300m25.263s
	Freetype 2.4.12 environment removed
	Python 3.6.0 environment removed
	Gurobi 8.1.0 environment removed
