	Freetype 2.4.12 environment established
		library to render fonts
	Python 3.6.0 environment established
	Gurobi 8.1.0 environment established
Instance LSFRP: LSFDRP_2_1_0_1_fr.p
Instance LSFDP: LSFDRP_2_1_0_1_fd_46.p

*****************************************************************************************************************************
*** Solve LSFDRP_2_1_0_1_fd_46 with Gurobi
***
*** Graph info
*** |S|: 18
*** |S^E|: 0
*** |S^C|: 0
*** |V|: 296
*** |A|: 8235
*** |A^i|: 8184
*** |A^f|: 51
*** |M|: 146
*** |E|: 22

Changed value of parameter TimeLimit to 86400.0
   Prev: 1e+100  Min: 0.0  Max: 1e+100  Default: 1e+100
Changed value of parameter Threads to 4
   Prev: 0  Min: 0  Max: 1024  Default: 0
Optimize a model with 69438 rows, 1368547 columns and 5144583 nonzeros
Variable types: 1220290 continuous, 148257 integer (148257 binary)
Coefficient statistics:
  Matrix range     [1e+00, 4e+03]
  Objective range  [2e+00, 3e+07]
  Bounds range     [1e+00, 1e+00]
  RHS range        [1e+00, 4e+03]
Presolve removed 37440 rows and 1028387 columns (presolve time = 5s) ...
Presolve removed 41810 rows and 1071313 columns (presolve time = 10s) ...
Presolve removed 41814 rows and 1071488 columns (presolve time = 61s) ...
Warning: Failed to open log file 'gurobi.log'
Presolve removed 42349 rows and 1072425 columns (presolve time = 135s) ...
Presolve removed 42349 rows and 1072425 columns
Presolve time: 134.62s
Presolved: 27089 rows, 296122 columns, 1304258 nonzeros
Variable types: 147955 continuous, 148167 integer (148119 binary)

Deterministic concurrent LP optimizer: primal and dual simplex
Showing first log only...


Root simplex log...

Iteration    Objective       Primal Inf.    Dual Inf.      Time
       0   -0.0000000e+00   4.000000e+00   3.383864e+07    139s
    9710   -6.4095114e+02   3.068965e-01   5.295251e+11    140s
   10663   -1.5924195e+07   0.000000e+00   1.706784e+10    140s
   22451   -1.1515170e+07   0.000000e+00   6.260887e+09    145s
Concurrent spin time: 0.00s

Solved with dual simplex

Root relaxation: objective 7.448348e+06, 14485 iterations, 8.74 seconds

    Nodes    |    Current Node    |     Objective Bounds      |     Work
 Expl Unexpl |  Obj  Depth IntInf | Incumbent    BestBd   Gap | It/Node Time

     0     0 7441713.32    0  160          - 7441713.32      -     -  153s
     0     0 6872394.06    0  112          - 6872394.06      -     -  183s
H    0     0                    -1.66786e+07 6872394.06   141%     -  184s
     0     0 6566705.06    0  133 -1.668e+07 6566705.06   139%     -  200s
     0     0 6566213.04    0  133 -1.668e+07 6566213.04   139%     -  201s
     0     0 6557519.28    0  141 -1.668e+07 6557519.28   139%     -  206s
H    0     0                    -1.62594e+07 6557519.28   140%     -  206s
     0     0 6554689.63    0  142 -1.626e+07 6554689.63   140%     -  208s
     0     0 6471461.82    0  131 -1.626e+07 6471461.82   140%     -  213s
     0     0 6471392.76    0  129 -1.626e+07 6471392.76   140%     -  215s
     0     0 6428795.60    0  157 -1.626e+07 6428795.60   140%     -  224s
     0     0 6424376.62    0  149 -1.626e+07 6424376.62   140%     -  227s
     0     0 6424376.62    0  151 -1.626e+07 6424376.62   140%     -  227s
     0     0 6424376.62    0  153 -1.626e+07 6424376.62   140%     -  230s
     0     0 6424376.62    0  153 -1.626e+07 6424376.62   140%     -  261s
     0     2 6424376.62    0  153 -1.626e+07 6424376.62   140%     -  338s
     1     4 1740509.63    1  151 -1.626e+07 6424168.25   140% 140050 1179s
     3     7 868298.142    2  123 -1.626e+07 6376214.52   139% 58345 1993s
H    5     7                    -1.47449e+07 6282868.58   143% 35197 1993s
     7    11 -2723983.1    3  115 -1.474e+07 6282868.58   143% 41514 3441s
H    9    11                    -4905461.181 6244806.83   227% 32300 3441s
    11    15 -3061532.3    4  238 -4905461.2 6244806.83   227% 62073 5616s
    15    16 -3064291.1    5  222 -4905461.2 6159769.31   226% 54691 5852s
    19    20 -3093802.1    6  128 -4905461.2 6119151.49   225% 46335 6252s
H   21    21                    -3382558.784 5808623.32   272% 41948 6252s
    23    15 -3161477.4    7  128 -3382558.8 5808623.32   272% 46231 7677s
    30    23 -3183291.6    8  121 -3382558.8 5808324.40   272% 38941 7695s
H   32    21                    -729991.5003 5808324.40   896% 36517 7695s
    38    24     cutoff   10      -729991.50 5783238.01   892% 30833 8287s
    46    32 5704493.13    8  149 -729991.50 5783238.01   892% 27702 8758s
    58    37 infeasible    9      -729991.50 5783238.01   892% 22240 9597s
    68    48 5516668.30   13  142 -729991.50 5783238.01   892% 20832 9821s
H   69    37                    1688292.2007 5783238.01   243% 20530 9822s
    78    35 5440247.84   14  117 1688292.20 5783238.01   243% 18370 9889s
    93    48 5290417.62   17  106 1688292.20 5783238.01   243% 15566 9903s
H  113    66                    1792642.1598 5783238.01   223% 12848 9964s
H  126    73                    1903726.9204 5783238.01   204% 11617 9964s
   127    73 4776171.26   19   77 1903726.92 5783238.01   204% 11543 9999s
   154    98 4916192.62   23  109 1903726.92 5783238.01   204%  9674 10031s
   186   129 5020707.67   28   93 1903726.92 5783238.01   204%  8096 10042s
   226   169 4687495.45   36   49 1903726.92 5783238.01   204%  6708 10056s
   274   190     cutoff   40      1903726.92 5783238.01   204%  5588 10067s
H  330   209                    1903726.9209 5720352.65   200%  4670 10290s
H  356   214                    1903726.9332 5720352.65   200%  4347 10290s
   373   231 5454421.68   17   74 1903726.93 5720352.65   200%  4154 10369s
   433   258 2311609.18   27   40 1903726.93 5720352.65   200%  3667 10388s
   500   276 2011223.21   33   47 1903726.93 5720352.65   200%  3202 10584s
H  518   271                    2009933.7139 5577435.56   177%  3095 10584s
   550   279 5012427.78   23   75 2009933.71 5577435.56   177%  2943 23077s
H  565   277                    2095903.3364 5577435.56   166%  2868 23077s
   599   294 4642557.29   34   83 2095903.34 5568196.95   166%  4045 24319s
H  614   294                    2095903.9175 5568196.95   166%  3948 24319s
   633   318 5466731.73   13  119 2095903.92 5566061.70   166%  3996 25910s
   690   362 5184786.65   16  106 2095903.92 5566061.70   166%  4116 28522s
   777   432 3680237.89   45   33 2095903.92 5487978.78   162%  4442 29900s
   824   452 4059918.77   19   86 2095903.92 5466038.05   161%  4229 31623s
   916   501 infeasible   27      2095903.92 5450356.55   160%  4178 34236s
  1000   546 3984921.19   35   84 2095903.92 5445995.79   160%  4358 35134s
  1072   605 4830834.34   22  153 2095903.92 5445995.79   160%  4230 35457s
  1074   606 3378371.38   29  112 2095903.92 5445995.79   160%  4222 35476s
  1075   607 2694176.63   48  120 2095903.92 5445995.79   160%  4218 35486s
  1076   608 4612362.30   18  139 2095903.92 5445995.79   160%  4214 35491s
  1077   608 4220079.98   27  123 2095903.92 5112409.53   144%  4210 35499s
  1078   609 2722015.85   50  129 2095903.92 5109160.63   144%  4206 35504s
  1079   610 5090980.33   23  133 2095903.92 5090980.33   143%  4202 35513s
  1080   610 5082345.00   20  155 2095903.92 5082345.00   142%  4198 35516s
  1082   612 5060126.55   19  139 2095903.92 5060126.55   141%  4190 35520s
  1083   612 4300548.23   38  157 2095903.92 5058002.94   141%  4187 35525s
  1084   613 5055303.96   24  168 2095903.92 5055303.96   141%  4183 35548s
  1085   614 3484609.69   46  168 2095903.92 5055303.96   141%  4179 35552s
  1086   614 4128848.31   49  168 2095903.92 5055303.96   141%  4175 35566s
  1087   618 5053433.05   12  155 2095903.92 5053433.05   141%  4192 35622s
  1089   621 5019421.57   13  126 2095903.92 5019421.57   139%  4190 35658s
  1093   624 4956910.40   14  124 2095903.92 4956910.40   137%  4187 35681s
  1097   627 4257655.67   14  142 2095903.92 4956409.85   136%  4206 35754s
  1101   629 4930198.32   15  119 2095903.92 4947123.79   136%  4199 35764s
  1105   632 4846659.57   15  121 2095903.92 4930198.32   135%  4195 35799s
  1109   638 4929923.39   16  122 2095903.92 4929923.39   135%  4195 35828s
  1116   631 4849150.58   17  123 2095903.92 4929879.98   135%  4190 35844s
  1122   640 4864059.02   17  116 2095903.92 4864059.02   132%  4177 35871s
  1126   642 4791245.18   18  104 2095903.92 4861815.22   132%  4195 35914s
  1131   646 3854921.90   18  100 2095903.92 4848852.59   131%  4198 35945s
  1137   651 4791245.18   19   97 2095903.92 4848852.59   131%  4193 35968s
  1145   653 4769265.69   20   95 2095903.92 4848852.59   131%  4183 36009s
  1153   659 4744294.47   21   95 2095903.92 4848852.59   131%  4194 36033s
  1163   667 4284286.80   21   86 2095903.92 4848852.59   131%  4176 36082s
  1170   674 4742735.74   22   97 2095903.92 4848852.59   131%  4178 36110s
  1180   674 4680078.83   23  109 2095903.92 4848852.59   131%  4171 36140s
  1191   690 4433910.80   23   95 2095903.92 4848852.59   131%  4161 36161s
  1204   694 4653034.61   24   99 2095903.92 4848852.59   131%  4133 36198s
  1216   701 4646851.97   25  100 2095903.92 4848852.59   131%  4124 36220s
  1230   713 4407924.40   26  125 2095903.92 4848852.59   131%  4112 36256s
  1243   712 4557681.81   26   75 2095903.92 4848852.59   131%  4099 36294s
  1257   723 4419263.06   27   76 2095903.92 4848852.59   131%  4089 36325s
  1275   721 4325737.97   28  108 2095903.92 4848852.59   131%  4057 36365s
  1296   730 3628311.36   29  100 2095903.92 4848852.59   131%  4037 36458s
  1311   730 4172005.68   30   88 2095903.92 4848852.59   131%  4021 36491s
  1338   741 2706517.70   33   58 2095903.92 4848852.59   131%  3977 36586s
  1359   738 2907073.66   34   57 2095903.92 4848852.59   131%  3933 36622s
  1398   744 2330656.39   37   40 2095903.92 4848852.59   131%  3877 36653s
  1437   769     cutoff   41      2095903.92 4848852.59   131%  3816 36690s
  1474   766 2800125.96   46   60 2095903.92 4848852.59   131%  3781 36716s
  1519   788 2763699.56   51   68 2095903.92 4848852.59   131%  3719 36738s
  1588   801 2300370.88   63   72 2095903.92 4846482.63   131%  3585 36799s
  1658   810 4373175.02   20  120 2095903.92 4846482.63   131%  3483 36831s
  1702   808 3929077.34   23  130 2095903.92 4846482.63   131%  3423 36859s
  1744   798 2993841.23   30   95 2095903.92 4846482.63   131%  3374 36899s
  1809   814 2267799.11   50   97 2095903.92 4761113.97   127%  3289 36999s
  1854   833 3777427.59   17  120 2095903.92 4761113.97   127%  3265 37033s
  1877   828 2194064.11   18  100 2095903.92 4761113.97   127%  3267 37063s
  1954   856 3195576.04   20   76 2095903.92 4761113.97   127%  3180 37093s
  2000   870     cutoff   23      2095903.92 4703778.55   124%  3152 37137s
  2087   907 3951253.53   22  101 2095903.92 4641766.87   121%  3066 37358s
  2098   907 3390668.35   25   70 2095903.92 4628006.63   121%  3064 37417s
  2192   929 4503806.19   19  110 2095903.92 4578039.48   118%  2978 37460s
  2246   957 4486879.09   23   92 2095903.92 4578039.48   118%  2945 37503s
  2318   994 4389797.73   27  105 2095903.92 4578039.48   118%  2891 37549s
  2405  1037 4304134.43   32   92 2095903.92 4578039.48   118%  2820 37602s
  2536  1108 4191338.33   37   73 2095903.92 4578039.48   118%  2712 37645s
  2708  1197 3588673.22   44   58 2095903.92 4578039.48   118%  2581 37691s
  2866  1232 2471700.46   50   38 2095903.92 4578039.48   118%  2478 37870s
  2945  1272 3480159.40   62   40 2095903.92 4556029.75   117%  2443 38016s
  3068  1330 4482833.45   18  113 2095903.92 4556029.75   117%  2380 38064s
  3294  1480 3875412.11   39   83 2095903.92 4555333.34   117%  2257 38123s
  3410  1560 3241001.91   24   55 2095903.92 4552712.38   117%  2220 38171s
  3645  1728 4255856.46   25  113 2095903.92 4538972.70   117%  2119 38227s
  3912  1938 4213867.97   24  103 2095903.92 4529473.93   116%  2010 38278s
  4220  2188 4324607.00   27   96 2095903.92 4525106.02   116%  1893 38333s
  4483  2419 2820332.64   22   84 2095903.92 4520575.50   116%  1816 38390s
  4619  2485 4130393.05   19  108 2095903.92 4505396.60   115%  1793 38456s
  4759  2570 2783572.09   27   56 2095903.92 4504105.81   115%  1768 38519s
  4920  2687 4374050.58   28  116 2095903.92 4503806.19   115%  1743 38607s
  5144  2859 4404195.48   17  126 2095903.92 4496070.95   115%  1701 38685s
  5394  3042 3821239.72   40  125 2095903.92 4485341.38   114%  1656 38763s
  5618  3187 3584637.48   28   50 2095903.92 4477489.20   114%  1624 38843s
  5784  3298 2433064.69   24   61 2095903.92 4472282.76   113%  1610 38930s
  5973  3432 2421411.70   88   56 2095903.92 4466801.06   113%  1594 39099s
  6281  3648 3142806.27   21   70 2095903.92 4464114.44   113%  1533 39397s
  6556  3830 4414495.87   30   98 2095903.92 4459893.79   113%  1501 39478s
  6892  4025 4215999.57   34  104 2095903.92 4456598.48   113%  1466 39565s
  7398  4391 2855514.10   88   78 2095903.92 4449526.92   112%  1400 39663s
  7803  4662 3839681.24   24  103 2095903.92 4443837.50   112%  1363 39767s
  8270  4974 4005212.71   36   99 2095903.92 4439373.96   112%  1321 39869s
  8630  5259 3944601.30   25   96 2095903.92 4438636.60   112%  1298 39986s
  9098  5612 3548881.12   42  102 2095903.92 4434661.13   112%  1264 40091s
  9432  5847 2864306.36   26   71 2095903.92 4431192.76   111%  1252 40198s
 10026  6269 3014677.96   52   51 2095903.92 4427879.74   111%  1215 40315s
 10704  6756 2798157.59   27  153 2095903.92 4419809.68   111%  1171 40382s
 10706  6757 2372559.52   36   99 2095903.92 4419809.68   111%  1171 40399s
 10707  6758 3419027.84   30  117 2095903.92 4419809.68   111%  1171 40409s
 10708  6759 2356420.43   76  124 2095903.92 4419809.68   111%  1171 40410s
 10710  6760 3095275.61   51  122 2095903.92 4419809.68   111%  1170 40416s
 10711  6761 3601428.82   50  122 2095903.92 4419809.68   111%  1170 40424s
 10712  6761 2809767.35   61  135 2095903.92 4419809.68   111%  1170 40429s
 10713  6762 3226112.68   50  140 2095903.92 4419809.68   111%  1170 40440s
 10715  6763 2853103.46   79  158 2095903.92 4419809.68   111%  1170 40447s
 10716  6764 3699347.81   53  160 2095903.92 4419809.68   111%  1170 40451s
 10717  6765 2574207.91   56  125 2095903.92 4419809.68   111%  1170 40460s
 10719  6766 3367868.90   39  154 2095903.92 4419809.68   111%  1169 40467s
 10720  6767 2542642.71   54  149 2095903.92 4419809.68   111%  1169 40470s
 10721  6767 3262163.17   37  152 2095903.92 4419809.68   111%  1169 40475s
 10722  6768 2621501.92   53  156 2095903.92 4419809.68   111%  1169 40490s
 10723  6769 2795197.95   79  158 2095903.92 4419809.68   111%  1169 40495s
 10724  6769 2867710.69   31  165 2095903.92 4419809.68   111%  1169 40508s
 10725  6770 2514520.68   64  176 2095903.92 4419809.68   111%  1169 40515s
 10726  6771 2280223.37   53  178 2095903.92 4419809.68   111%  1169 40525s
 10727  6771 2125084.66   77  182 2095903.92 4419809.68   111%  1169 40530s
 10728  6772 2852791.53   41  189 2095903.92 4419809.68   111%  1168 40552s
 10729  6773 4386268.94   25  189 2095903.92 4419809.68   111%  1168 40557s
 10730  6773 4052984.56   32  189 2095903.92 4419809.68   111%  1168 40576s
 10731  6777 4419809.68   27  192 2095903.92 4419809.68   111%  1172 40633s
 10733  6780 4419809.68   28  186 2095903.92 4419809.68   111%  1173 40688s
 10737  6783 4419809.68   29  185 2095903.92 4419809.68   111%  1175 40748s
 10741  6786 4419809.68   29  137 2095903.92 4419809.68   111%  1178 40788s
 10745  6788 4419809.68   30  171 2095903.92 4419809.68   111%  1179 40818s
 10749  6790 4419809.68   30  149 2095903.92 4419809.68   111%  1180 40846s
 10753  6794 4419809.68   31  163 2095903.92 4419809.68   111%  1181 40868s
 10758  6794 4419809.68   31  145 2095903.92 4419809.68   111%  1182 40897s
 10763  6789 4419809.68   32  120 2095903.92 4419809.68   111%  1183 40915s
 10769  6799 4419809.68   33  118 2095903.92 4419809.68   111%  1183 40943s
 10775  6802 4419809.68   34  123 2095903.92 4419809.68   111%  1184 40965s
 10784  6804 4419809.68   35  131 2095903.92 4419809.68   111%  1186 40987s
 10791  6808 4419809.68   36  131 2095903.92 4419809.68   111%  1187 41005s
 10802  6815 4419809.68   37  127 2095903.92 4419809.68   111%  1187 41019s
 10811  6817 4419809.68   38  130 2095903.92 4419809.68   111%  1189 41046s
 10824  6819 4419809.68   39  123 2095903.92 4419809.68   111%  1190 41091s
 10833  6824 4419809.68   40  124 2095903.92 4419809.68   111%  1190 41110s
 10846  6831 4419809.68   41  122 2095903.92 4419809.68   111%  1191 41126s
 10855  6838 4419809.68   42  118 2095903.92 4419809.68   111%  1192 41142s
 10871  6844 4419809.68   43  114 2095903.92 4419809.68   111%  1192 41161s
 10884  6853 4419809.68   44   93 2095903.92 4419809.68   111%  1193 41180s
 10899  6860 4419809.68   46   92 2095903.92 4419809.68   111%  1195 41199s
 10906  6864 4056756.35   46   72 2095903.92 4419809.68   111%  1196 41216s
 10924  6866 2780809.56   47   77 2095903.92 4419809.68   111%  1197 41237s
 10954  6876 4419809.68   50   84 2095903.92 4419809.68   111%  1196 41258s
 10978  6879 4419809.68   52   84 2095903.92 4419809.68   111%  1196 41324s
 10991  6883 4419809.68   53   84 2095903.92 4419809.68   111%  1197 41345s
 11015  6890 4419809.68   55   89 2095903.92 4419809.68   111%  1198 41365s
 11047  6903 4419809.68   56  101 2095903.92 4419809.68   111%  1197 41383s
 11067  6912 4416572.61   58   85 2095903.92 4419809.68   111%  1198 41399s
 11102  6938 4275946.99   60   66 2095903.92 4419809.68   111%  1198 41426s
 11122  6941 4409452.38   62   89 2095903.92 4419809.68   111%  1200 41446s
 11160  6966 4403278.54   65   90 2095903.92 4419809.68   111%  1200 41470s
 11177  6972 4381496.60   66   90 2095903.92 4419809.68   111%  1199 41488s
 11237  6992 3640104.35   68   69 2095903.92 4419809.68   111%  1196 41510s
 11292  7014 3594888.43   70   69 2095903.92 4419809.68   111%  1195 41527s
 11322  7029 4365885.58   72   91 2095903.92 4419809.68   111%  1194 41550s
 11353  7046 4359525.33   75   87 2095903.92 4419809.68   111%  1195 41570s
 11381  7060 4354197.75   78   86 2095903.92 4419809.68   111%  1195 41592s
 11421  7081 4317203.83   81   89 2095903.92 4419809.68   111%  1195 41613s
 11481  7107 3205564.95   83   63 2095903.92 4419809.68   111%  1193 41634s
 11508  7124 4254324.71   86  101 2095903.92 4419809.68   111%  1194 41657s
 11594  7167 4248099.79   89   97 2095903.92 4419809.68   111%  1189 41682s
 11661  7177 4178266.99   94   80 2095903.92 4419809.68   111%  1187 41706s
 11691  7190 3452459.74   96   50 2095903.92 4419809.68   111%  1187 41742s
 11814  7254 infeasible  114      2095903.92 4419809.68   111%  1180 41765s
 11915  7297 3309704.41  138   60 2095903.92 4419809.68   111%  1175 41800s
 12030  7327     cutoff  162      2095903.92 4419809.68   111%  1168 41824s
 12231  7350 3062555.19   36   89 2095903.92 4419809.68   111%  1152 41852s
 12288  7359 3837124.72   40   82 2095903.92 4419809.68   111%  1152 41879s
 12409  7423 4419809.68   32  112 2095903.92 4419809.68   111%  1146 41969s
 12512  7467 4327379.30   44  101 2095903.92 4419809.68   111%  1140 42000s
 12681  7562 2622558.15   90   51 2095903.92 4419809.68   111%  1130 42028s
 12829  7616 4419809.68   32  110 2095903.92 4419809.68   111%  1124 42058s
 12979  7664 4235086.98   39   61 2095903.92 4419809.68   111%  1116 42096s
 13210  7775 4167878.49   41  114 2095903.92 4419809.68   111%  1103 42151s
 13218  7776 4091750.96   41  108 2095903.92 4419809.68   111%  1104 42182s
 13416  7873 3014071.29   61   62 2095903.92 4419809.68   111%  1094 42215s
 13559  7905 4134789.18   45  106 2095903.92 4419809.68   111%  1088 42253s
 13709  7914 4109841.86   47  114 2095903.92 4419809.68   111%  1084 42298s
 13816  7964 3987889.16   48  103 2095903.92 4419809.68   111%  1083 42338s
 14067  8053 2240964.50   54   50 2095903.92 4419809.68   111%  1072 42386s
 14242  8135 3718932.55   43   89 2095903.92 4419809.68   111%  1066 42433s
 14421  8182 4250756.98   43   89 2095903.92 4419809.68   111%  1060 42472s
 14677  8289 3899957.05   48   69 2095903.92 4419809.68   111%  1050 42539s
 14788  8330 4328286.47   44   84 2095903.92 4419809.68   111%  1051 42590s
 15057  8420 3890123.05   63   61 2095903.92 4419809.68   111%  1040 42642s
 15316  8533 4276548.99   48   88 2095903.92 4419809.68   111%  1029 42698s
 15562  8651     cutoff   65      2095903.92 4419809.68   111%  1020 42754s
 15789  8715 2426853.01   64   46 2095903.92 4419809.68   111%  1014 42816s
 16100  8784 4321175.26   37  100 2095903.92 4419809.68   111%  1004 42874s
 16367  8896 2823769.48   52   87 2095903.92 4419809.68   111%   997 42941s
 16555  8969 4224254.08   36  106 2095903.92 4419809.68   111%   996 43008s
 16899  9112 3126145.67   38   42 2095903.92 4419809.68   111%   986 43077s
 17138  9209 3254103.98   55   52 2095903.92 4419809.68   111%   981 43148s
 17655  9421 3295061.59   53   79 2095903.92 4419809.68   111%   963 43223s
 17888  9520 3254239.16   36   91 2095903.92 4419809.68   111%   960 43301s
 18309  9717 3919509.32   65   72 2095903.92 4419809.68   111%   948 43375s
 18704  9879 3849297.98   40   79 2095903.92 4419809.68   111%   937 43444s
 19089 10027 4054641.36   59   91 2095903.92 4419809.68   111%   930 43520s
 19677 10261 3901772.57   65   76 2095903.92 4419809.68   111%   912 43600s
 20041 10426 2326019.79   99   62 2095903.92 4419809.68   111%   907 43680s
 20428 10562 3097335.80   67   68 2095903.92 4419809.68   111%   901 43773s
 20838 10695 2888712.28   51   63 2095903.92 4403099.59   110%   894 43875s
 21420 10870 3312718.77   52  153 2095903.92 4395078.85   110%   882 46226s
 21422 10871 2714416.96  102  100 2095903.92 4395078.85   110%   882 46243s
 21423 10872 3019434.89   79  171 2095903.92 4395078.85   110%   882 46278s
 21424 10873 2987105.69  100  181 2095903.92 4395078.85   110%   882 46286s
 21425 10873 4026338.10   70  176 2095903.92 4395078.85   110%   882 46327s
 21426 10874 2679215.89   79  188 2095903.92 4299443.81   105%   882 46341s
 21427 10875 4164096.22   43  196 2095903.92 4266706.57   104%   882 46357s
 21428 10875 3464885.34   69  208 2095903.92 4228306.45   102%   882 46370s
 21429 10876 3117669.82   84  198 2095903.92 4223844.24   102%   882 46375s
 21430 10877 2701462.01   67  221 2095903.92 4214081.30   101%   882 46421s
 21431 10877 3243440.70   62  231 2095903.92 4203860.68   101%   882 46425s
 21432 10878 3021715.12   46  215 2095903.92 4118411.35  96.5%   882 46449s
 21433 10879 3635560.93   88  234 2095903.92 4111065.01  96.1%   882 46454s
 21434 10879 2848729.73   96  228 2095903.92 4105957.25  95.9%   882 46458s
 21435 10880 3630678.23   60  233 2095903.92 4102453.43  95.7%   882 46479s
 21436 10881 3887603.07   40  218 2095903.92 4090747.79  95.2%   882 46524s
 21437 10881 3964019.83   71  217 2095903.92 4087705.27  95.0%   882 46542s
 21438 10882 3802551.63   54  215 2095903.92 4071967.85  94.3%   882 46585s
 21439 10883 3691044.09   47  242 2095903.92 4067663.88  94.1%   882 46606s
 21440 10883 2765803.85   56  248 2095903.92 4064767.08  93.9%   881 46647s
 21442 10886 3551316.08   78  153 2095903.92 4064767.08  93.9%   886 46654s
 21444 10887 3479678.75   56  103 2095903.92 4064767.08  93.9%   886 46665s
 21445 10888 2916308.65   47  183 2095903.92 4064767.08  93.9%   886 46681s
 21447 10889 3500615.76   56  161 2095903.92 4064767.08  93.9%   886 46686s
 21448 10890 3857180.07   47  178 2095903.92 4064767.08  93.9%   886 46691s
 21449 10891 2120960.76  111  211 2095903.92 4064767.08  93.9%   886 46695s
 21451 10892 2925010.27  126  212 2095903.92 4064767.08  93.9%   886 46702s
 21452 10893 2143021.49   89  207 2095903.92 4064767.08  93.9%   886 46743s
 21453 10893 2676033.31   83  229 2095903.92 4064767.08  93.9%   886 46745s
 21455 10895 3007796.87   45  235 2095903.92 4064262.33  93.9%   886 46769s
 21456 10895 3547156.04   64  221 2095903.92 4056703.52  93.6%   886 46802s
 21457 10896 2395752.07   50  231 2095903.92 4053597.98  93.4%   886 46818s
 21458 10897 2232827.01  112  230 2095903.92 4042093.72  92.9%   886 46851s
 21460 10898 3536287.99   48  254 2095903.92 4034199.13  92.5%   886 46869s
 21461 10899 3224555.06   64  245 2095903.92 4019060.74  91.8%   886 46902s
 21462 10899 3883978.37   39  242 2095903.92 4017754.68  91.7%   886 46917s
 21463 10900 3423165.70   45  242 2095903.92 4010577.77  91.4%   886 46947s
 21464 10901 2989180.59   98  233 2095903.92 4008896.10  91.3%   885 46961s
 21465 10901 4001566.88   63  238 2095903.92 4001566.88  90.9%   885 46992s
 21466 10902 3981597.06   64  234 2095903.92 3998442.23  90.8%   885 47007s
 21467 10903 2689515.40   70  251 2095903.92 3993759.91  90.6%   885 47039s
 21468 10903 3148593.02   62  264 2095903.92 3991289.65  90.4%   885 47053s
 21469 10904 3982515.39   39  270 2095903.92 3982515.39  90.0%   885 47088s
 21470 10905 2316030.44   71  264 2095903.92 3978069.88  89.8%   885 47107s
 21471 10905 3971497.94   43  251 2095903.92 3971497.94  89.5%   885 47140s
 21472 10906 2716704.36   62  275 2095903.92 3967161.31  89.3%   885 47156s
 21473 10907 3944135.75   70  253 2095903.92 3944135.75  88.2%   885 47192s
 21474 10907 3942940.78   44  260 2095903.92 3942940.78  88.1%   885 47208s
 21475 10908 3941332.21   55  258 2095903.92 3941332.21  88.0%   885 47261s
 21476 10909 3145764.72   66  265 2095903.92 3940145.77  88.0%   885 47276s
 21477 10909 2527016.40   56  258 2095903.92 3934212.78  87.7%   885 47313s
 21478 10910 2505342.72   85  271 2095903.92 3932163.76  87.6%   885 47331s
 21479 10911 3304147.16   87  274 2095903.92 3931360.21  87.6%   885 47391s
 21480 10911 3825906.52   45  268 2095903.92 3926857.85  87.4%   885 47406s
 21481 10912 3351139.80   43  264 2095903.92 3911564.47  86.6%   885 47442s
 21482 10913 2233751.04   52  266 2095903.92 3908916.35  86.5%   885 47457s
 21483 10913 2625053.98   67  286 2095903.92 3906369.56  86.4%   885 47491s
 21484 10914 2549527.61  104  286 2095903.92 3905997.71  86.4%   885 47504s
 21485 10915 2291547.75   66  281 2095903.92 3893859.30  85.8%   885 47540s
 21486 10915 2602014.32   89  285 2095903.92 3884799.88  85.4%   885 47545s
 21487 10916 2909326.90   63  281 2095903.92 3883914.23  85.3%   885 47560s
 21488 10917 3519803.20   63  277 2095903.92 3841146.00  83.3%   884 47636s
 21489 10917 3724772.25   54  269 2095903.92 3835927.74  83.0%   884 47640s
 21491 10919 3825061.01   48  301 2095903.92 3825061.01  82.5%   884 47658s
 21492 10919 2763142.78  109  293 2095903.92 3815336.67  82.0%   884 47672s
 21494 10922 2536836.38   97  153 2095903.92 3815336.67  82.0%   889 47677s
 21496 10923 3048182.54   38  106 2095903.92 3815336.67  82.0%   889 47685s
 21497 10924 3612128.46   67  123 2095903.92 3815336.67  82.0%   889 47690s
 21498 10925 2507841.75  125  149 2095903.92 3815336.67  82.0%   889 47696s
 21499 10925 3815336.67   54  202 2095903.92 3815336.67  82.0%   889 47706s
 21501 10927 3390880.97   72  221 2095903.92 3815336.67  82.0%   889 47720s
 21502 10927 3815336.67   59  259 2095903.92 3815336.67  82.0%   889 47731s
 21503 10928 3178771.66   64  256 2095903.92 3815336.67  82.0%   889 47735s
 21505 10929 3815336.67   66  263 2095903.92 3815336.67  82.0%   889 47748s
 21506 10930 2549143.08   64  269 2095903.92 3815336.67  82.0%   889 47753s
 21507 10931 3270150.44   45  275 2095903.92 3815336.67  82.0%   889 47783s
 21508 10931 3044553.90   95  278 2095903.92 3815336.67  82.0%   889 47790s
 21509 10932 2407212.59  105  289 2095903.92 3815336.67  82.0%   889 47804s
 21510 10933 3815336.67   76  302 2095903.92 3815336.67  82.0%   889 47830s
 21511 10933 3815336.67   59  290 2095903.92 3815336.67  82.0%   889 47843s
 21512 10934 2729532.86   77  304 2095903.92 3815336.67  82.0%   889 47869s
 21513 10935 2449412.57   81  305 2095903.92 3815336.67  82.0%   889 47882s
 21514 10935 2428648.31   64  295 2095903.92 3815336.67  82.0%   889 47906s
 21515 10936 3815336.67   43  298 2095903.92 3815336.67  82.0%   889 47920s
 21516 10937 2713486.17   80  278 2095903.92 3815336.67  82.0%   889 47947s
 21517 10937 2170986.21  107  301 2095903.92 3815336.67  82.0%   888 47950s
 21518 10938 2437950.08   52  301 2095903.92 3815073.22  82.0%   888 47962s
 21519 10939 2702484.82   47  296 2095903.92 3810125.70  81.8%   888 47990s
 21520 10939 3312718.77   52  304 2095903.92 3809014.24  81.7%   888 48003s
 21521 10940 3490193.87   86  289 2095903.92 3808101.34  81.7%   888 48027s
 21522 10941 2714416.96  102  301 2095903.92 3807886.59  81.7%   888 48039s
 21523 10941 3019434.89   79  301 2095903.92 3807857.90  81.7%   888 48064s
 21524 10942 2987105.69  100  284 2095903.92 3805668.75  81.6%   888 48077s
 21525 10943 3804619.94   70  288 2095903.92 3804619.94  81.5%   888 48107s
 21526 10943 2679215.89   79  305 2095903.92 3803564.62  81.5%   888 48119s
 21527 10944 3801948.62   43  294 2095903.92 3801948.62  81.4%   888 48147s
 21528 10945 3464885.34   69  278 2095903.92 3797626.99  81.2%   888 48160s
 21529 10945 3117669.82   84  283 2095903.92 3797030.60  81.2%   888 48190s
 21530 10946 2701462.01   67  296 2095903.92 3796634.77  81.1%   888 48201s
 21531 10947 3243440.70   62  284 2095903.92 3795866.64  81.1%   888 48231s
 21532 10947 3021715.12   46  286 2095903.92 3795567.74  81.1%   888 48241s
 21533 10948 3635560.93   88  266 2095903.92 3795015.59  81.1%   888 48265s
 21534 10949 2848729.73   96  272 2095903.92 3794911.25  81.1%   888 48276s
 21535 10949 3630678.23   60  273 2095903.92 3794692.87  81.1%   888 48300s
 21536 10950 3794301.16   40  280 2095903.92 3794301.16  81.0%   888 48311s
 21537 10951 3793895.34   71  278 2095903.92 3793895.34  81.0%   888 48369s
 21538 10951 3793819.63   54  276 2095903.92 3793819.63  81.0%   888 48380s
 21539 10952 3691044.09   47  281 2095903.92 3790850.52  80.9%   888 48411s
 21540 10953 2765803.85   56  285 2095903.92 3790823.91  80.9%   888 48421s
 21541 10953 3782925.96   35  304 2095903.92 3782925.96  80.5%   887 48449s
 21542 10954 3551316.08   78  308 2095903.92 3780607.12  80.4%   887 48460s
 21543 10955 3779966.40   54  289 2095903.92 3779966.40  80.4%   887 48506s
 21544 10955 3479678.75   56  286 2095903.92 3778714.85  80.3%   887 48517s
 21545 10956 2916308.65   47  288 2095903.92 3777855.37  80.2%   887 48540s
 21546 10957 2669948.33   64  290 2095903.92 3775846.26  80.2%   887 48550s
 21547 10957 3500615.76   56  288 2095903.92 3761574.49  79.5%   887 48572s
 21548 10958 3761086.62   47  285 2095903.92 3761086.62  79.4%   887 48583s
 21549 10959 2120960.76  111  285 2095903.92 3754170.00  79.1%   887 48604s
 21550 10959 3696990.51   50  295 2095903.92 3753883.64  79.1%   887 48615s
 21551 10960 2925010.27  126  303 2095903.92 3752766.59  79.1%   887 48637s
 21552 10961 2143021.49   89  309 2095903.92 3751162.87  79.0%   887 48647s
 21553 10961 2676033.31   83  319 2095903.92 3749253.83  78.9%   887 48670s
 21555 10963 3007796.87   45  317 2095903.92 3743127.36  78.6%   887 48683s
 21556 10963 3547156.04   64  294 2095903.92 3736183.77  78.3%   887 48705s
 21557 10964 2395752.07   50  288 2095903.92 3732357.50  78.1%   887 48716s
 21558 10965 2232827.01  112  324 2095903.92 3730232.22  78.0%   887 48755s
 21559 10965 2520008.27   60  330 2095903.92 3728786.29  77.9%   887 48765s
 21560 10966 3536287.99   48  318 2095903.92 3727561.88  77.8%   887 48777s
 21561 10967 3224555.06   64  322 2095903.92 3726341.51  77.8%   887 48787s
 21562 10967 3723868.56   39  326 2095903.92 3723868.56  77.7%   887 48808s
 21563 10968 3423165.70   45  332 2095903.92 3723057.99  77.6%   887 48820s
 21564 10969 2989180.59   98  329 2095903.92 3722549.11  77.6%   887 48839s
 21565 10969 3721975.69   63  333 2095903.92 3721975.69  77.6%   887 48850s
 21566 10970 3720873.21   64  335 2095903.92 3720873.21  77.5%   886 48862s
 21567 10971 2689515.40   70  326 2095903.92 3720419.03  77.5%   886 48872s
 21568 10971 3148593.02   62  314 2095903.92 3711812.80  77.1%   886 48900s
 21569 10972 3709862.99   39  314 2095903.92 3709862.99  77.0%   886 48912s
 21570 10973 2316030.44   71  311 2095903.92 3706963.19  76.9%   886 48933s
 21571 10973 3706208.12   43  319 2095903.92 3706208.12  76.8%   886 48943s
 21572 10974 2716704.36   62  315 2095903.92 3705372.70  76.8%   886 48966s
 21573 10975 3704555.75   70  322 2095903.92 3704555.75  76.8%   886 48977s
 21574 10975 3704480.11   44  317 2095903.92 3704480.11  76.7%   886 48997s
 21575 10976 3704415.96   55  324 2095903.92 3704415.96  76.7%   886 49007s
 21576 10977 3145764.72   66  302 2095903.92 3694741.98  76.3%   886 49032s
 21577 10977 2527016.40   56  296 2095903.92 3694517.31  76.3%   886 49042s
 21578 10978 2505342.72   85  282 2095903.92 3691206.88  76.1%   886 49065s
 21579 10979 3304147.16   87  300 2095903.92 3689770.72  76.0%   886 49077s
 21580 10979 3685865.21   45  293 2095903.92 3685865.21  75.9%   886 49089s
 21581 10980 3351139.80   43  299 2095903.92 3684969.95  75.8%   886 49101s
 21582 10981 2233751.04   52  288 2095903.92 3683839.06  75.8%   886 49125s
 21583 10981 2625053.98   67  293 2095903.92 3683426.16  75.7%   886 49135s
 21584 10982 2549527.61  104  295 2095903.92 3683193.35  75.7%   886 49149s
 21585 10983 2291547.75   66  293 2095903.92 3682573.10  75.7%   886 49160s
 21586 10983 2602014.32   89  284 2095903.92 3681557.93  75.7%   886 49175s
 21587 10984 2909326.90   63  297 2095903.92 3681129.24  75.6%   886 49184s
 21588 10985 3519803.20   63  302 2095903.92 3680607.97  75.6%   886 49211s
 21589 10985 3680287.04   54  306 2095903.92 3680287.04  75.6%   886 49221s
 21590 10986 3672921.69   65  304 2095903.92 3680129.79  75.6%   885 49232s
 21591 10987 3679824.39   48  303 2095903.92 3679824.39  75.6%   885 49242s
 21592 10987 2763142.78  109  306 2095903.92 3679695.05  75.6%   885 49257s
 21593 10988 3679690.71   48  314 2095903.92 3679690.71  75.6%   885 49265s
 21594 10989 2536836.38   97  315 2095903.92 3679652.38  75.6%   885 49275s
 21595 10989 2595142.38   59  310 2095903.92 3679286.56  75.5%   885 49285s
 21596 10990 3048182.54   38  313 2095903.92 3679269.79  75.5%   885 49305s
 21597 10991 3612128.46   67  314 2095903.92 3679269.79  75.5%   885 49319s
 21598 10991 2507841.75  125  314 2095903.92 3679269.79  75.5%   885 49328s
 21599 10992 3678972.65   54  316 2095903.92 3678972.65  75.5%   885 49338s
 21600 10993 3678960.44   67  317 2095903.92 3678960.44  75.5%   885 49347s
 21601 10993 3390880.97   72  318 2095903.92 3678939.75  75.5%   885 49367s
 21602 10994 3678927.63   59  323 2095903.92 3678927.63  75.5%   885 49377s
 21603 10995 3178771.66   64  310 2095903.92 3678802.41  75.5%   885 49387s
 21604 10995 3187098.99   86  310 2095903.92 3678802.41  75.5%   885 49396s
 21605 10996 3677314.23   66  313 2095903.92 3677314.23  75.5%   885 49407s
 21606 10997 2549143.08   64  317 2095903.92 3677021.50  75.4%   885 49416s
 21607 10997 3270150.44   45  303 2095903.92 3676882.11  75.4%   885 49426s
 21608 10998 3044553.90   95  312 2095903.92 3676810.18  75.4%   885 49435s
 21609 10999 2407212.59  105  314 2095903.92 3676800.55  75.4%   885 49445s
 21610 10999 3676593.62   76  318 2095903.92 3676593.62  75.4%   885 49454s
 21611 11000 3676570.76   59  314 2095903.92 3676570.76  75.4%   885 49473s
 21612 11001 2729532.86   77  316 2095903.92 3676570.12  75.4%   885 49482s
 21613 11001 2449412.57   81  317 2095903.92 3676568.32  75.4%   885 49491s
 21614 11002 2428648.31   64  316 2095903.92 3676514.74  75.4%   884 49500s
 21615 11003 3675088.67   43  318 2095903.92 3675088.67  75.3%   884 49510s
 21616 11003 2713486.17   80  313 2095903.92 3675036.12  75.3%   884 49520s
 21617 11004 2170986.21  107  317 2095903.92 3675017.28  75.3%   884 49529s
 21618 11005 2437950.08   52  313 2095903.92 3674990.76  75.3%   884 49539s
 21619 11005 2702484.82   47  302 2095903.92 3674175.23  75.3%   884 49558s
 21620 11006 3312718.77   52  318 2095903.92 3673797.32  75.3%   884 49568s
 21621 11007 3490193.87   86  320 2095903.92 3673744.88  75.3%   884 49578s
 21622 11007 2714416.96  102  321 2095903.92 3673743.83  75.3%   884 49588s
 21623 11008 3019434.89   79  317 2095903.92 3673740.91  75.3%   884 49598s
 21624 11009 2987105.69  100  312 2095903.92 3673730.33  75.3%   884 49606s
 21625 11009 3673185.31   70  311 2095903.92 3673185.31  75.3%   884 49617s
 21626 11010 2679215.89   79  311 2095903.92 3673122.22  75.3%   884 49627s
 21627 11011 3673083.72   43  310 2095903.92 3673083.72  75.3%   884 49647s
 21628 11011 3464885.34   69  302 2095903.92 3673066.10  75.2%   884 49657s
 21629 11012 3117669.82   84  320 2095903.92 3672460.26  75.2%   884 49668s
 21630 11013 2701462.01   67  311 2095903.92 3671755.05  75.2%   884 49678s
 21631 11013 3243440.70   62  311 2095903.92 3671417.46  75.2%   884 49689s
 21632 11014 3021715.12   46  310 2095903.92 3671134.29  75.2%   884 49699s
 21633 11015 3635560.93   88  314 2095903.92 3671117.02  75.2%   884 49709s
 21634 11015 2848729.73   96  314 2095903.92 3671099.71  75.2%   884 49731s
 21635 11016 3630678.23   60  314 2095903.92 3671099.71  75.2%   884 49741s
 21636 11017 3671099.71   40  314 2095903.92 3671099.71  75.2%   884 49790s
 21639 11020 3671099.71   47  111 2095903.92 3671099.71  75.2%   890 49800s
 21640 11021 2765803.85   56  190 2095903.92 3671099.71  75.2%   890 49810s
 21641 11022 3671099.71   35  193 2095903.92 3671099.71  75.2%   890 49817s
 21642 11022 3551316.08   78  209 2095903.92 3671099.71  75.2%   890 49822s
 21643 11023 3671099.71   54  201 2095903.92 3671099.71  75.2%   890 49831s
 21644 11024 3479678.75   56  233 2095903.92 3671099.71  75.2%   890 49838s
 21645 11024 2916308.65   47  224 2095903.92 3671099.71  75.2%   890 49842s
 21647 11026 3500615.76   56  257 2095903.92 3671099.71  75.2%   890 49847s
 21648 11026 3671099.71   47  266 2095903.92 3671099.71  75.2%   890 49857s
 21649 11027 2120960.76  111  245 2095903.92 3671099.71  75.2%   890 49861s
 21650 11028 3671099.71   50  267 2095903.92 3671099.71  75.2%   890 49885s
 21651 11028 2925010.27  126  271 2095903.92 3671099.71  75.2%   890 49894s
 21652 11029 2143021.49   89  300 2095903.92 3671099.71  75.2%   890 49901s
 21653 11030 2676033.31   83  285 2095903.92 3671099.71  75.2%   890 49914s
 21654 11030 3587751.40   46  295 2095903.92 3671099.71  75.2%   890 49946s
 21655 11031 3007796.87   45  310 2095903.92 3671099.71  75.2%   890 49953s
 21656 11032 3547156.04   64  300 2095903.92 3671099.71  75.2%   890 49965s
 21657 11032 2395752.07   50  304 2095903.92 3671099.71  75.2%   890 49992s
 21658 11033 2232827.01  112  292 2095903.92 3671099.71  75.2%   890 49998s
 21659 11034 2520008.27   60  302 2095903.92 3671099.71  75.2%   890 50010s
 21660 11034 3536287.99   48  306 2095903.92 3671099.71  75.2%   890 50032s
 21661 11035 3224555.06   64  315 2095903.92 3671099.71  75.2%   889 50046s
 21662 11036 3671099.71   39  307 2095903.92 3671099.71  75.2%   889 50059s
 21663 11036 3423165.70   45  311 2095903.92 3671099.71  75.2%   889 50070s
 21664 11037 2989180.59   98  314 2095903.92 3671099.71  75.2%   889 50086s
 21665 11038 3671099.71   63  298 2095903.92 3671099.71  75.2%   889 50098s
 21666 11038 3671099.71   64  312 2095903.92 3671099.71  75.2%   889 50110s
 21667 11039 2689515.40   70  308 2095903.92 3671099.71  75.2%   889 50121s
 21668 11040 3148593.02   62  325 2095903.92 3671099.71  75.2%   889 50148s
 21669 11040 3667823.46   39  336 2095903.92 3667823.46  75.0%   889 50161s
 21670 11041 2316030.44   71  305 2095903.92 3664077.44  74.8%   889 50186s
 21671 11042 3661968.53   43  313 2095903.92 3661968.53  74.7%   889 50199s
 21672 11042 2716704.36   62  311 2095903.92 3659923.05  74.6%   889 50229s
 21673 11043 3658917.63   70  325 2095903.92 3658917.63  74.6%   889 50240s
 21674 11044 3658249.45   44  335 2095903.92 3658249.45  74.5%   889 50260s
 21675 11044 3657675.92   55  325 2095903.92 3657675.92  74.5%   889 50272s
 21676 11045 3145764.72   66  322 2095903.92 3655956.93  74.4%   889 50320s
 21677 11046 2527016.40   56  324 2095903.92 3655515.30  74.4%   889 50331s
 21678 11046 2505342.72   85  315 2095903.92 3654479.59  74.4%   889 50349s
 21679 11047 3304147.16   87  322 2095903.92 3653431.34  74.3%   889 50361s
 21680 11048 3652654.04   45  322 2095903.92 3652654.04  74.3%   889 50397s
 21681 11048 3351139.80   43  321 2095903.92 3649581.35  74.1%   889 50407s
 21682 11049 2233751.04   52  316 2095903.92 3649430.71  74.1%   889 50431s
 21683 11050 2625053.98   67  323 2095903.92 3647367.88  74.0%   889 50443s
 21684 11050 2549527.61  104  325 2095903.92 3646824.14  74.0%   889 50464s
 21685 11051 2291547.75   66  326 2095903.92 3646642.48  74.0%   888 50473s
 21686 11052 2602014.32   89  332 2095903.92 3645614.72  73.9%   888 50497s
 21687 11052 2909326.90   63  316 2095903.92 3645224.57  73.9%   888 50506s
 21688 11053 3519803.20   63  319 2095903.92 3644886.89  73.9%   888 50522s
 21689 11054 3644771.41   54  328 2095903.92 3644771.41  73.9%   888 50532s
 21690 11054 3644765.58   65  326 2095903.92 3644765.58  73.9%   888 50559s
 21691 11055 3644759.84   48  326 2095903.92 3644759.84  73.9%   888 50568s
 21692 11056 2763142.78  109  327 2095903.92 3644759.84  73.9%   888 50587s
 21693 11056 3644609.78   48  337 2095903.92 3644609.78  73.9%   888 50597s
 21694 11057 2536836.38   97  335 2095903.92 3644454.76  73.9%   888 50607s
 21695 11058 2595142.38   59  338 2095903.92 3644359.04  73.9%   888 50616s
 21696 11058 3048182.54   38  329 2095903.92 3644050.77  73.9%   888 50630s
 21697 11059 3612128.46   67  328 2095903.92 3644046.89  73.9%   888 50640s
 21698 11060 2507841.75  125  322 2095903.92 3642263.99  73.8%   888 50672s
 21699 11060 3642127.72   54  317 2095903.92 3642127.72  73.8%   888 50682s
 21700 11061 3640711.16   67  319 2095903.92 3640711.16  73.7%   888 50701s
 21701 11062 3390880.97   72  324 2095903.92 3640507.42  73.7%   888 50711s
 21702 11062 3640009.65   59  331 2095903.92 3640009.65  73.7%   888 50731s
 21703 11063 3178771.66   64  333 2095903.92 3639835.97  73.7%   888 50741s
 21704 11064 3187098.99   86  334 2095903.92 3638528.88  73.6%   888 50779s
 21705 11064 3638443.75   66  327 2095903.92 3638443.75  73.6%   888 50788s
 21706 11065 2549143.08   64  337 2095903.92 3638333.54  73.6%   888 50797s
 21707 11066 3270150.44   45  330 2095903.92 3638284.03  73.6%   888 50806s
 21708 11066 3044553.90   95  341 2095903.92 3638177.06  73.6%   888 50824s
 21709 11067 2407212.59  105  335 2095903.92 3637108.80  73.5%   888 50834s
 21710 11068 3635812.22   76  331 2095903.92 3635812.22  73.5%   887 50853s
 21711 11068 3635528.11   59  320 2095903.92 3635528.11  73.5%   887 50861s
 21712 11069 2729532.86   77  320 2095903.92 3635344.59  73.4%   887 50878s
 21713 11070 2449412.57   81  306 2095903.92 3634819.20  73.4%   887 50888s
 21714 11070 2428648.31   64  307 2095903.92 3634717.78  73.4%   887 50898s
 21715 11071 3634534.34   43  311 2095903.92 3634534.34  73.4%   887 50906s
 21716 11072 2713486.17   80  316 2095903.92 3634472.30  73.4%   887 50917s
 21717 11072 2170986.21  107  316 2095903.92 3634441.07  73.4%   887 50926s
 21718 11073 2437950.08   52  300 2095903.92 3628210.61  73.1%   887 50978s
 21719 11074 2702484.82   47  303 2095903.92 3627917.67  73.1%   887 50987s
 21720 11074 3312718.77   52  295 2095903.92 3626963.64  73.1%   887 50998s
 21721 11075 3490193.87   86  310 2095903.92 3626611.32  73.0%   887 51009s
 21722 11076 2714416.96  102  305 2095903.92 3626561.07  73.0%   887 51018s
 21723 11076 3019434.89   79  313 2095903.92 3626532.15  73.0%   887 51027s
 21724 11077 2987105.69  100  304 2095903.92 3626529.10  73.0%   887 51037s
 21725 11078 3626527.52   70  314 2095903.92 3626527.52  73.0%   887 51057s
 21726 11078 2679215.89   79  312 2095903.92 3626527.52  73.0%   887 51065s
 21727 11079 3626527.52   43  312 2095903.92 3626527.52  73.0%   887 51107s
 21728 11083 3626058.05   76  304 2095903.92 3626058.05  73.0%   894 51164s
 21730 11086 3625666.00   77  303 2095903.92 3625666.00  73.0%   894 51206s
 21734 11088 3624742.30   78  322 2095903.92 3624742.30  72.9%   895 51260s
H21737 10531                    2095903.9183 3624459.46  72.9%   895 51260s
 21738 10532 3581502.68   78  198 2095903.92 3624459.46  72.9%   895 51280s
 21742 10535 3623293.30   79  304 2095903.92 3623293.30  72.9%   895 51312s
 21746 10534 3301100.01   79  220 2095903.92 3623292.82  72.9%   896 51348s
 21750 10535 3589037.79   80  207 2095903.92 3622948.78  72.9%   897 51371s
 21756 10533 3596399.12   80  317 2095903.92 3596399.12  71.6%   897 51478s
 21760 10537 3590408.89   81  294 2095903.92 3596367.35  71.6%   898 51487s
 21766 10538 3443259.22   81  240 2095903.92 3590343.58  71.3%   898 51504s
 21772 10542 3473645.63   82  282 2095903.92 3590238.73  71.3%   898 51519s
 21780 10548 3282035.64   82  192 2095903.92 3589018.76  71.2%   899 51537s
 21787 10540 3425706.62   83  286 2095903.92 3589018.76  71.2%   899 51555s
 21796 10548 3389120.64   83  250 2095903.92 3589018.76  71.2%   900 51581s
 21806 10546 3420716.44   84  304 2095903.92 3589018.76  71.2%   901 51591s
 21816 10543     cutoff   84      2095903.92 3589018.76  71.2%   902 51609s
 21825 10544 3416565.90   85  312 2095903.92 3588524.57  71.2%   902 51635s
 21835 10548 3412456.50   86  320 2095903.92 3588524.57  71.2%   903 51663s
 21843 10553 3400676.67   87  302 2095903.92 3588524.57  71.2%   904 51681s
 21851 10550 3340767.70   88  152 2095903.92 3588524.57  71.2%   906 51695s
 21860 10558 3368364.38   88  276 2095903.92 3588524.57  71.2%   906 51708s
 21873 10560 3267493.04   89  140 2095903.92 3588524.57  71.2%   907 51720s
 21891 10570 2983456.46   90  136 2095903.92 3588524.57  71.2%   908 51732s
 21911 10584 2208497.53   91  121 2095903.92 3588524.57  71.2%   908 51743s
 21933 10578 3274341.47   92  170 2095903.92 3588524.57  71.2%   909 51764s
 21959 10598 3260859.04   93  160 2095903.92 3588524.57  71.2%   910 51804s
 21966 10601 3256523.56   94  168 2095903.92 3588524.57  71.2%   910 52459s
 21993 10599 3222932.87   96  179 2095903.92 3588524.57  71.2%   918 52488s
 22029 10620 3190683.95   99  143 2095903.92 3588524.57  71.2%   918 52514s
 22082 10629 3181540.09  103  143 2095903.92 3588524.57  71.2%   917 52537s
 22137 10642 3170224.36  108  150 2095903.92 3588524.57  71.2%   917 52549s
 22191 10656 3118990.63  111  145 2095903.92 3588524.57  71.2%   916 52576s
 22242 10663 3111442.88  116  129 2095903.92 3588524.57  71.2%   915 52596s
 22294 10664 3077776.83  121  124 2095903.92 3588524.57  71.2%   915 52619s
 22358 10679 3062180.09  127  129 2095903.92 3588524.57  71.2%   915 52645s
 22385 10703 2924569.96  127  114 2095903.92 3588524.57  71.2%   914 52660s
 22479 10735 3042373.39  134  114 2095903.92 3588524.57  71.2%   913 52675s
 22564 10760     cutoff  142      2095903.92 3449929.76  64.6%   911 52691s
 22652 10771 2371395.55   82  131 2095903.92 3449929.76  64.6%   910 52712s
 22712 10784 2970536.23   84  122 2095903.92 3417432.32  63.1%   910 52746s
 22814 10808 3269800.53   89  157 2095903.92 3417234.90  63.0%   909 52770s
 22878 10830 3208506.03   92  160 2095903.92 3417234.90  63.0%   909 52789s
 22893 10826 3181475.92   95  162 2095903.92 3417234.90  63.0%   911 52817s
 22972 10869 3131292.73  102  155 2095903.92 3417234.90  63.0%   911 52855s
 23019 10875 2623004.68  109  136 2095903.92 3389092.48  61.7%   913 52885s
 23072 10883 2386577.15  129  102 2095903.92 3375179.87  61.0%   914 52911s
 23105 10890 3178146.79   87  238 2095903.92 3375179.87  61.0%   916 52935s
 23130 10892 2842458.51   89  176 2095903.92 3375179.87  61.0%   917 52958s
 23156 10910 2684749.79  100   90 2095903.92 3375179.87  61.0%   919 52989s
 23208 10937 2245270.08  132   22 2095903.92 3375015.59  61.0%   921 53033s
 23259 10968 2739054.21   87  117 2095903.92 3375015.59  61.0%   923 53072s
 23319 10995 2621967.58   97   98 2095903.92 3369306.10  60.8%   923 53116s
 23399 11028 3218772.40   87  103 2095903.92 3369306.10  60.8%   922 53162s
 23489 11070 3010088.95   97  107 2095903.92 3361886.70  60.4%   921 53210s
 23635 11143 3284460.99   86  239 2095903.92 3360407.50  60.3%   919 53242s
 23682 11155 3253592.55   89  225 2095903.92 3360407.50  60.3%   921 53276s
 23718 11160 3240983.62   91  213 2095903.92 3360407.50  60.3%   925 53317s
 23769 11172 3149059.09   95  133 2095903.92 3360407.50  60.3%   928 53378s
 23920 11189     cutoff  101      2095903.92 3342300.33  59.5%   929 53425s
 24073 11226 3195727.61   90  117 2095903.92 3342300.33  59.5%   929 53459s
 24125 11257 2815374.97  108  108 2095903.92 3336054.36  59.2%   933 53526s
 24230 11291 2707419.44   92  166 2095903.92 3330649.11  58.9%   935 53588s
 24365 11306 3192269.42   89  203 2095903.92 3329334.09  58.8%   937 53634s
 24503 11353 2994343.54  119   55 2095903.92 3322904.39  58.5%   938 53689s
 24622 11402     cutoff  113      2095903.92 3318338.39  58.3%   941 53758s
 24714 11385 3113294.25   98  147 2095903.92 3315177.21  58.2%   945 53810s
 24850 11442 2819510.59   93  207 2095903.92 3301178.66  57.5%   947 53856s
 24956 11461 3008959.44   87  154 2095903.92 3301094.44  57.5%   951 53912s
 25074 11471 2854568.33  103   67 2095903.92 3296093.97  57.3%   953 53989s
 25244 11543     cutoff   89      2095903.92 3290702.76  57.0%   955 54053s
 25344 11570 3166883.64   99  137 2095903.92 3284399.21  56.7%   959 54119s
 25485 11618 3160127.61   91  151 2095903.92 3284399.21  56.7%   961 54191s
 25601 11634 2839392.30  103  146 2095903.92 3283380.69  56.7%   967 54273s
 25773 11709 3170382.20   92  117 2095903.92 3281041.61  56.5%   971 54389s
 25966 11770 2873164.33   90  167 2095903.92 3274007.16  56.2%   974 54464s
 26079 11789 3122829.38   89  102 2095903.92 3270784.63  56.1%   979 54544s
 26262 11868 2881163.13  101  102 2095903.92 3267339.31  55.9%   983 54697s
 26341 11890 2931327.22   95  162 2095903.92 3263189.55  55.7%   992 54799s
 26427 11873 2937610.28   95  123 2095903.92 3262825.42  55.7%   999 54908s
 26676 11934 2478290.47   92  138 2095903.92 3257915.22  55.4%  1002 55027s
 26806 11973 2984879.77  112  120 2095903.92 3254827.00  55.3%  1008 55134s
H26955 11502                    2095903.9186 3254208.79  55.3%  1008 55134s
 27015 11510 3157907.45   94  150 2095903.92 3252830.87  55.2%  1011 55274s
 27264 11608 3053220.02   94  173 2095903.92 3250822.13  55.1%  1015 55370s
 27356 11642 2938579.03   99  128 2095903.92 3250154.01  55.1%  1015 55462s
 27486 11641 2936544.21  103  128 2095903.92 3244899.91  54.8%  1025 55587s
 27660 11660 3149962.25   97  202 2095903.92 3242890.61  54.7%  1031 55747s
 27921 11730 2673840.72   93  116 2095903.92 3240545.93  54.6%  1035 55920s
 28145 11780 2339934.36   98  102 2095903.92 3233621.49  54.3%  1042 56032s
 28411 11855 2233124.67   93  115 2095903.92 3228136.24  54.0%  1046 56190s
 28707 11909 2523057.48  118   80 2095903.92 3223702.71  53.8%  1051 56345s
 29035 11991 2632198.97   97  144 2095903.92 3221879.57  53.7%  1056 56507s
 29358 12033 3055876.86   97  131 2095903.92 3214937.62  53.4%  1062 56672s
 29698 12133 3021578.28   92  106 2095903.92 3210911.86  53.2%  1068 56834s
 29976 12183 2905014.96   93   58 2095903.92 3206197.35  53.0%  1077 57025s
 30326 12230 2728940.67   91   81 2095903.92 3200599.16  52.7%  1084 57184s
 30602 12263 2882064.52   95  133 2095903.92 3198074.91  52.6%  1095 57377s
 31057 12380 2743745.90   99   75 2095903.92 3192705.29  52.3%  1098 57638s
 31518 12479 2908611.24   91   74 2095903.92 3189753.45  52.2%  1102 57864s
 31938 12589 2890060.23   92  125 2095903.92 3182851.95  51.9%  1107 58149s
 32222 12605 2871787.06   94   80 2095903.92 3179627.20  51.7%  1115 58327s
 32646 12731 2875988.25   93   73 2095903.92 3174296.14  51.5%  1119 58577s
 32962 12731 3109786.62   98  181 2095903.92 3171849.83  51.3%  1131 58771s
 33276 12789 2991705.47  118  143 2095903.92 3168196.41  51.2%  1140 58972s
 33761 12883 2933576.45  110  113 2095903.92 3162430.87  50.9%  1145 59238s
 34230 13005 2754221.49   92  139 2095903.92 3159804.30  50.8%  1149 59427s
 34609 13023 2646307.59  104  128 2095903.92 3155798.91  50.6%  1154 59663s
 35197 13121 2324631.02   98  148 2095903.92 3153334.74  50.5%  1156 59866s
 35708 13211     cutoff  120      2095903.92 3147412.07  50.2%  1159 60057s
 36145 13203 2884785.89   97   76 2095903.92 3144197.34  50.0%  1158 60311s
 36570 13279 2492594.54  103  190 2095903.92 3141233.49  49.9%  1163 60542s
 37067 13385 2625655.27   94  121 2095903.92 3135705.41  49.6%  1167 60781s
 37587 13472     cutoff  107      2095903.92 3131811.46  49.4%  1169 61019s
 37998 13496 2435195.98   97   81 2095903.92 3125537.25  49.1%  1175 61264s
 38579 13607 3051918.96  100  158 2095903.92 3120509.89  48.9%  1175 61518s
 39089 13682     cutoff   94      2095903.92 3117369.25  48.7%  1177 61743s
 39484 13750 2204313.35  108   61 2095903.92 3115762.28  48.7%  1181 61944s
 39928 13819 2257093.35   95  145 2095903.92 3109781.48  48.4%  1184 62137s
 40066 13818 2288292.40  118   84 2095903.92 3108620.96  48.3%  1184 62389s
 40560 13886 2908236.82  112  175 2095903.92 3103420.34  48.1%  1186 62619s
 41159 14049 2779063.14  118  103 2095903.92 3099628.04  47.9%  1183 62852s
 41616 14069 2270022.36  121  126 2095903.92 3095942.90  47.7%  1187 63059s
 42127 14137 2728029.18  121  103 2095903.92 3089959.06  47.4%  1188 63257s
 42589 14151 2656627.87   89  101 2095903.92 3085388.30  47.2%  1191 63578s
 43157 14260 2816119.06   95  104 2095903.92 3082561.37  47.1%  1190 63813s
 43686 14326     cutoff  105      2095903.92 3076900.09  46.8%  1189 63961s
 43993 14344 2932090.24  116  191 2095903.92 3074271.14  46.7%  1195 64174s
 44488 14392 2865058.97   98  167 2095903.92 3071683.44  46.6%  1197 64385s
 44932 14419 2797471.58   94  103 2095903.92 3068820.15  46.4%  1199 64614s
 45489 14500 2881496.40  100   74 2095903.92 3065142.37  46.2%  1198 64825s
 46010 14520 3042503.64   98  177 2095903.92 3062155.79  46.1%  1199 64973s
 46516 14638 2226265.15  132   98 2095903.92 3060478.90  46.0%  1198 65171s
 47021 14680 2694403.21  111  100 2095903.92 3059873.15  46.0%  1199 65342s
 47726 14796 2555993.10   91   92 2095903.92 3053747.05  45.7%  1193 65538s
 48299 14822 2401890.24  106  101 2095903.92 3049962.69  45.5%  1191 65728s
 48939 14987     cutoff  103      2095903.92 3046904.08  45.4%  1186 65903s
 49311 15003 2598595.63  110  111 2095903.92 3045192.09  45.3%  1188 66059s
 49845 15058 2793441.29   94  122 2095903.92 3042406.55  45.2%  1186 66224s
 50399 15206     cutoff   95      2095903.92 3039454.79  45.0%  1183 66415s
 51052 15271 2248064.12   95  117 2095903.92 3037150.32  44.9%  1180 66595s
 51548 15366 2800332.17  104   31 2095903.92 3033455.72  44.7%  1178 66749s
 51888 15462 2760642.39  115  116 2095903.92 3032283.74  44.7%  1180 66931s
 52458 15801 2375159.07   97  128 2095903.92 3030536.62  44.6%  1178 67098s
 52942 16001 2655278.03   96   80 2095903.92 3027022.06  44.4%  1177 67363s
 53451 16239 2441114.15  102  105 2095903.92 3022616.78  44.2%  1175 67553s
 53930 16412 2909254.09  107  156 2095903.92 3019820.85  44.1%  1175 67716s
 54289 16570 2694683.59  100  124 2095903.92 3019024.20  44.0%  1176 67891s
 54826 16791 2947371.06  101  137 2095903.92 3017926.42  44.0%  1174 68047s
 55269 17012 2610888.70   98   86 2095903.92 3015111.35  43.9%  1174 68199s
 55901 17315     cutoff   99      2095903.92 3013261.27  43.8%  1169 68346s
 56364 17482 2521788.40  105   72 2095903.92 3008552.19  43.5%  1169 68484s
 56700 17593 2330604.02  108   76 2095903.92 3006971.54  43.5%  1167 68652s
 57249 17849 2787660.86  105  119 2095903.92 3002968.12  43.3%  1165 68814s
 57699 18034 2561137.95   93  121 2095903.92 3001222.30  43.2%  1165 68983s
 58109 18197 2708655.99  123  112 2095903.92 3000300.21  43.2%  1165 69166s
 58593 18463 2413194.50  101  102 2095903.92 2997830.45  43.0%  1164 69298s
 59050 18613 2950171.51   96  154 2095903.92 2995989.00  42.9%  1163 69448s
 59391 18754     cutoff  106      2095903.92 2993099.27  42.8%  1165 69617s
 59879 18941 2648176.23   97  151 2095903.92 2990382.71  42.7%  1164 69786s
 60256 19060 2891434.19  110  105 2095903.92 2987568.05  42.5%  1164 69951s
 60689 19208 2478523.41  120  147 2095903.92 2985345.84  42.4%  1164 70090s
 61252 19450 2253172.50  107   96 2095903.92 2982702.25  42.3%  1161 70240s
 61687 19631     cutoff  103      2095903.92 2980924.60  42.2%  1161 70397s
 62059 19732 2760013.67  101  116 2095903.92 2978838.24  42.1%  1162 70544s
 62448 19886 2195501.99  107  104 2095903.92 2976597.17  42.0%  1162 70700s
 62903 20042 2894001.73  114  162 2095903.92 2975022.62  41.9%  1161 70808s
 63398 20307     cutoff  132      2095903.92 2974040.93  41.9%  1158 71063s
 63969 20576 2534618.10   93   80 2095903.92 2971229.37  41.8%  1156 71298s
 64420 20797 2549701.89   95  100 2095903.92 2969282.57  41.7%  1157 71445s
 64849 20958 2791287.81   97  119 2095903.92 2967240.26  41.6%  1156 71576s
 65210 21106 2346974.25  102  125 2095903.92 2966580.09  41.5%  1155 71765s
 65690 21275 2689302.47  109   70 2095903.92 2963296.19  41.4%  1154 71928s
 66091 21448 2345528.97  127   96 2095903.92 2961101.71  41.3%  1154 72090s
 66372 21543 2777900.15  102  154 2095903.92 2960864.47  41.3%  1157 72243s
 66799 21704 2706397.39  113  134 2095903.92 2960864.47  41.3%  1156 72487s
 67019 21776     cutoff  140      2095903.92 2958237.45  41.1%  1155 72649s
 67333 21837 2711323.88   85  119 2095903.92 2956202.79  41.0%  1158 72794s
 67837 22026 2572159.68   94  165 2095903.92 2954261.90  41.0%  1157 72943s
 68247 22153 2514254.59  107  121 2095903.92 2951361.07  40.8%  1156 73180s
 68562 22271 2699810.20   95   94 2095903.92 2950354.59  40.8%  1158 73332s
 69102 22575     cutoff  107      2095903.92 2948110.10  40.7%  1156 73483s
 69571 22765 2484499.28  104   39 2095903.92 2946145.13  40.6%  1155 73635s
 70027 22937     cutoff  107      2095903.92 2943686.82  40.4%  1154 73779s
 70477 23067 2850102.86  112   92 2095903.92 2941824.50  40.4%  1152 73927s
 70883 23182 2354116.05  114  113 2095903.92 2939711.96  40.3%  1152 74086s
 71297 23311 2787895.39   96   90 2095903.92 2938322.82  40.2%  1152 74234s
 71705 23476     cutoff  114      2095903.92 2936081.58  40.1%  1152 74508s
 71961 23543 2621566.41  113   76 2095903.92 2933813.94  40.0%  1152 74676s
 72528 23807     cutoff   95      2095903.92 2932048.16  39.9%  1150 74813s
 72967 23962 2702768.11   91  134 2095903.92 2930820.45  39.8%  1150 74948s
 73463 24154 2448532.00  100  139 2095903.92 2927838.82  39.7%  1148 75089s
 73879 24350     cutoff  108      2095903.92 2925538.60  39.6%  1147 75335s
 74231 24462 2570277.21   89   99 2095903.92 2923800.99  39.5%  1148 75496s
 74701 24686     cutoff  122      2095903.92 2922151.61  39.4%  1147 75721s
 74916 24722 2888756.37  111   76 2095903.92 2921189.83  39.4%  1146 75879s
 75453 24916 2779187.34  108  132 2095903.92 2917597.86  39.2%  1144 76023s
 76049 25169 2190476.46  107   70 2095903.92 2915067.36  39.1%  1141 76145s
 76496 25323 2566110.49  102   96 2095903.92 2911628.72  38.9%  1141 76299s
 76916 25541 2600423.39  112   68 2095903.92 2910095.69  38.8%  1140 76447s
 77468 25790 2429061.55   95   73 2095903.92 2908544.85  38.8%  1138 76601s
 77968 25927 2626714.95   95   85 2095903.92 2906255.13  38.7%  1136 76743s
 78514 26114 2439987.24  111   60 2095903.92 2904498.38  38.6%  1135 76886s
 79067 26362 2437873.40   98  114 2095903.92 2902984.87  38.5%  1132 77027s
 79496 26527 2689228.17   98  143 2095903.92 2901079.89  38.4%  1132 77149s
 79598 26529 2231255.24  104  121 2095903.92 2900976.28  38.4%  1133 77291s
 79830 26618 2391507.56  105  174 2095903.92 2900648.09  38.4%  1134 77437s
 80332 26777 2598808.97   98   47 2095903.92 2898603.77  38.3%  1133 77589s
 80806 26903     cutoff  110      2095903.92 2895747.34  38.2%  1132 77734s
 81274 27033 2697848.07  105   89 2095903.92 2893084.40  38.0%  1131 77875s
 81835 27339 2170309.43  101  174 2095903.92 2892446.19  38.0%  1129 78004s
 82269 27427 2535645.04  107  126 2095903.92 2890242.66  37.9%  1128 78136s
 82692 27555     cutoff   97      2095903.92 2887818.24  37.8%  1128 78269s
 83067 27670 2685375.29  124  144 2095903.92 2885815.92  37.7%  1128 78399s
 83556 27802 2355732.84  112  171 2095903.92 2884539.70  37.6%  1127 78492s
 84013 27962 2518197.13   95  124 2095903.92 2882752.62  37.5%  1126 78604s
 84348 28028 2571160.26  111   74 2095903.92 2881729.62  37.5%  1127 78820s
 84754 28135 infeasible   96      2095903.92 2879721.77  37.4%  1127 78963s
 85198 28290 2399243.54   96  115 2095903.92 2877998.97  37.3%  1126 79097s
 85688 28405 2584974.08  114  135 2095903.92 2875478.22  37.2%  1125 79235s
 86225 28631     cutoff  113      2095903.92 2874020.34  37.1%  1123 79371s
 86605 28751 2765519.02  121   99 2095903.92 2873051.60  37.1%  1123 79499s
 86750 28846 2515973.80  134  138 2095903.92 2872877.53  37.1%  1122 79500s
 87157 28982 2442044.23  118   86 2095903.92 2870929.93  37.0%  1120 79635s
 87582 29109 2658512.18  110   55 2095903.92 2869460.26  36.9%  1119 79763s
 88176 29354 2430070.84  105  104 2095903.92 2867579.48  36.8%  1117 79866s
 88603 29481     cutoff  125      2095903.92 2865472.98  36.7%  1116 79995s
 89004 29579 2717554.25  111   56 2095903.92 2864271.60  36.7%  1116 80112s
 89514 29685 2464204.44  104   73 2095903.92 2861972.75  36.6%  1114 80247s
 90124 29920 2524275.37  117   33 2095903.92 2861210.35  36.5%  1112 80378s
 90515 30084 2703560.63  120  151 2095903.92 2858442.14  36.4%  1111 80508s
 90990 30250 2100459.59  106   83 2095903.92 2857444.47  36.3%  1110 80612s
 91449 30425 2382769.91  113   98 2095903.92 2855354.92  36.2%  1108 80717s
 91893 30561 2117119.81  114   70 2095903.92 2853480.14  36.1%  1108 80848s
 92283 30727 infeasible  117      2095903.92 2852392.49  36.1%  1107 81126s
 92600 30764 2329521.79   94  102 2095903.92 2850361.65  36.0%  1107 81247s
 92950 30873 2795559.79   91  146 2095903.92 2849400.24  36.0%  1107 81378s
 93401 31002 2792819.80  114   84 2095903.92 2847513.56  35.9%  1106 81517s
 93783 31112 2116479.05  112  156 2095903.92 2845658.52  35.8%  1106 81645s
 94159 31192 2456832.30  116   76 2095903.92 2844706.19  35.7%  1106 81777s
 94539 31259 2569202.91   94   73 2095903.92 2843678.96  35.7%  1106 81886s
 95012 31437 2452623.25   98   98 2095903.92 2840539.47  35.5%  1105 82102s
 95442 31533 2637199.21   96   97 2095903.92 2838558.32  35.4%  1104 82246s
 95939 31690 2555785.94  122   98 2095903.92 2837309.90  35.4%  1103 82391s
 96348 31759 2315263.57  123  102 2095903.92 2835168.48  35.3%  1103 82525s
 96859 31916 2184493.13  116   91 2095903.92 2833109.16  35.2%  1102 82634s
 97350 32036 2207667.79  100  108 2095903.92 2831287.92  35.1%  1100 82758s
 97710 32124 2172954.17  124  113 2095903.92 2830227.80  35.0%  1100 82893s
 98110 32223     cutoff  100      2095903.92 2828973.80  35.0%  1100 83013s
 98488 32280     cutoff   98      2095903.92 2827096.54  34.9%  1100 83138s
 98954 32371 2529787.03   93  133 2095903.92 2825393.16  34.8%  1100 83248s
 99378 32415 2616593.68  117   49 2095903.92 2824626.65  34.8%  1099 83364s
 99857 32553     cutoff  106      2095903.92 2822199.72  34.7%  1098 83496s
 100279 32691 2553701.92  112  110 2095903.92 2820565.57  34.6%  1097 83590s
 100634 32738 2426627.36   97  115 2095903.92 2819094.06  34.5%  1097 83703s
 101151 32861     cutoff  104      2095903.92 2817092.56  34.4%  1095 84156s
 101584 32936 2202421.69   95  121 2095903.92 2816264.99  34.4%  1095 84277s
 101965 33000 2147044.06   88   82 2095903.92 2814330.31  34.3%  1095 84412s
 102337 33099 2519724.51   93  127 2095903.92 2813429.50  34.2%  1095 84543s
 102737 33122 2460271.25  103  126 2095903.92 2810856.25  34.1%  1095 84686s
 103260 33242 2130791.48  103  118 2095903.92 2808781.26  34.0%  1093 84815s
 103769 33351 2365664.82  113   99 2095903.92 2806339.52  33.9%  1092 84942s
 104200 33453 2698784.50  128  109 2095903.92 2804797.36  33.8%  1091 85045s
 104587 33547 2487515.64  106  161 2095903.92 2804359.22  33.8%  1091 85146s
 104879 33574 2697358.42   92  138 2095903.92 2802429.95  33.7%  1090 85266s
 105309 33732     cutoff  104      2095903.92 2800880.03  33.6%  1090 85466s
 105720 33790 2482277.88   93   85 2095903.92 2799499.88  33.6%  1089 85586s
 106190 33875     cutoff  133      2095903.92 2797792.54  33.5%  1088 85695s
 106711 34009 2558358.45  145   70 2095903.92 2796046.60  33.4%  1087 85825s
 107128 34093 2563821.28  102   90 2095903.92 2794647.17  33.3%  1087 85969s
 107592 34248 2455602.42  114  109 2095903.92 2793826.94  33.3%  1086 86097s
 107996 34338 2324360.03  108   97 2095903.92 2792123.99  33.2%  1085 86209s
 108426 34412     cutoff  105      2095903.92 2790927.09  33.2%  1085 86328s
 108892 34468 2420629.90  106   65 2095903.92 2789634.68  33.1%  1084 86400s

Cutting planes:
  Learned: 1
  Gomory: 223
  Cover: 5
  Implied bound: 11
  Projected implied bound: 4
  Clique: 20
  MIR: 65
  Flow cover: 346
  GUB cover: 3
  Inf proof: 1
  Zero half: 15

Explored 109216 nodes (118284533 simplex iterations) in 86400.79 seconds
Thread count was 4 (of 16 available processors)

Solution count 10: 2.0959e+06 2.0959e+06 2.0959e+06 ... 1.68829e+06

Time limit reached
Best objective 2.095903918613e+06, best bound 2.788035612803e+06, gap 33.0231%

***
***  |- Calculation finished, timelimit reached 86,400.82 (86400.82) sec.))
***  |-----------------------------------------------------------------------------------------------------------------------
***
*****************************************************************************************************************************
#############################################################################################################################
###
### Results
###
### The objective of the solution is 2,095,903.9186 (2095903.9186) and is feasible with a Gap of 0.3302
###
### Service 24 (WAF7) is operated by 3 vessels from type 18 (PMax25)
###  |- Vessel  1 has the path [100, 276, -1]
###  |  100 (DEHAM Out@288.0) - 276 (ESALG In@496.0/Out@515.0) - -1 (DUMMY_END Ziel-Service 24)
###  |- Vessel  2 has the path [101, 277, -1]
###  |  101 (DEHAM Out@456.0) - 277 (ESALG In@664.0/Out@683.0) - -1 (DUMMY_END Ziel-Service 24)
###  |- Vessel 13 has the path [104, 275, 201, 291, 202, 114, 278, -1]
###  |  104 (DKAAR Out@220.0) - 275 (ESALG In@328.0/Out@347.0) - 201 (MAPTM In@375.0/Out@396.0) - 291 (MAPTM In@379.0/Out@398
###  |  .0) - 202 (MAPTM In@406.0/Out@427.0) - 114 (ESALG In@452.0/Out@464.0) - 278 (ESALG In@832.0/Out@851.0) - -1 (DUMMY_EN
###  |  D Ziel-Service 24)
###  |   |- and carried Demand  18,   18.0 containers from 201 to 114
###  |   |- and carried Demand  52,  484.0 containers from 202 to 114
###  |   |- and carried Demand  53,   18.0 containers from 202 to 114
###  |   |- and carried Demand 119,  214.0 containers from 201 to 278
###  |   |- and carried Demand 120,   10.0 containers from 201 to 278
###  |   |- and carried Demand 121,  312.0 containers from 201 to 114
###  |   |- and carried Demand 122,   18.0 containers from 201 to 114
###  |   |- and carried Demand 132,  214.0 containers from 202 to 278
###  |   |- and carried Demand 133,   10.0 containers from 202 to 278
###  |   |- and carried Demand 134,  484.0 containers from 202 to 114
###  |   |- and carried Demand 135,   18.0 containers from 202 to 114
###  |   |- and carried Demand 138,  214.0 containers from 291 to 278
###  |   |- and carried Demand 139,   10.0 containers from 291 to 278
###  |   |- and carried Demand 140,  484.0 containers from 291 to 114
###  |   |- and carried Demand 141,   18.0 containers from 291 to 114
###  |
### Service 177 (WCSA) is operated by 3 vessels from type 19 (PMax28)
###  |- Vessel  5 has the path [218, 133, 199, 290, 200, 112, 284, 45, 36, 240, 236, 0]
###  |  218 (NLRTM Out@92.0) - 133 (FRLEH In@111.0/Out@127.0) - 199 (MAPTM In@207.0/Out@228.0) - 290 (MAPTM In@211.0/Out@230.
###  |  0) - 200 (MAPTM In@238.0/Out@259.0) - 112 (ESALG In@284.0/Out@296.0) - 284 (GWOXB In@463.0/Out@542.0) - 45 (CMDLA In@
###  |  765.0/Out@811.0) - 36 (CLLQN In@1240.0/Out@1258.0) - 240 (PECLL In@1398.71/Out@1400.71) - 236 (PABLB In@1640.0/Out@16
###  |  52.0) - 0 (DUMMY_END Ziel-Service 177)
###  |   |- and carried Demand   6,   17.0 containers from 218 to 133
###  |   |- and carried Demand   7,  161.0 containers from 199 to  45
###  |   |- and carried Demand   8,  580.0 containers from 199 to 112
###  |   |- and carried Demand  45,  161.0 containers from 200 to  45
###  |   |- and carried Demand  46,  580.0 containers from 200 to 112
###  |   |- and carried Demand  80,  194.0 containers from  36 to 236
###  |   |- and carried Demand  81,   20.0 containers from  36 to 236
###  |   |- and carried Demand  83,    5.0 containers from  36 to 236
###  |   |- and carried Demand 117,   19.0 containers from 199 to 112
###  |   |- and carried Demand 131,  580.0 containers from 200 to 112
###  |   |- and carried Demand 144,  161.0 containers from 290 to  45
###  |   |- and carried Demand 145,  580.0 containers from 290 to 112
###  |- Vessel  7 has the path [221, 137, 203, 234, 0]
###  |  221 (NLRTM Out@428.0) - 137 (FRLEH In@447.0/Out@463.0) - 203 (MAPTM In@543.0/Out@564.0) - 234 (PABLB In@1304.0/Out@13
###  |  16.0) - 0 (DUMMY_END Ziel-Service 177)
###  |   |- and carried Demand  26,    6.0 containers from 221 to 137
###  |- Vessel  8 has the path [223, 138, 204, 235, 0]
###  |  223 (NLRTM Out@596.0) - 138 (FRLEH In@615.0/Out@631.0) - 204 (MAPTM In@711.0/Out@732.0) - 235 (PABLB In@1472.0/Out@14
###  |  84.0) - 0 (DUMMY_END Ziel-Service 177)
###  |
### Vessels not used in the solution: [3, 4, 6, 9, 10, 11, 12, 14, 15, 16, 17, 18]
###  |-----------------------------------------------------------------------------------------------------------------------
###
#############################################################################################################################

### Detialed variable overview

### All variables with value greater zero:
rho[24,18] = 1
rho[177,19] = 1
eta[24,18,1] = 1
eta[24,18,2] = 1
eta[24,18,3] = 1
eta[177,19,1] = 1
eta[177,19,2] = 1
eta[177,19,3] = 1
y[1,276,-1] = 1
y[1,100,276] = 1
y[2,101,277] = 1
y[2,277,-1] = 1
y[5,200,112] = 1
y[5,290,200] = 1
y[5,240,236] = 1
y[5,133,199] = 1
y[5,199,290] = 1
y[5,45,36] = 0.999999
y[5,218,133] = 1
y[5,36,240] = 1
y[5,284,45] = 0.999999
y[5,236,0] = 1
y[5,112,284] = 1
y[7,234,0] = 1
y[7,137,203] = 1
y[7,203,234] = 1
y[7,221,137] = 1
y[8,235,0] = 1
y[8,204,235] = 1
y[8,223,138] = 1
y[8,138,204] = 1
y[13,104,275] = 1
y[13,275,201] = 1
y[13,291,202] = 1
y[13,114,278] = 1
y[13,202,114] = 1
y[13,278,-1] = 1
y[13,201,291] = 1
xD[6,218,133] = 17
xD[7,200,112] = 161
xD[7,290,200] = 161
xD[7,199,290] = 161
xD[7,284,45] = 161
xD[7,112,284] = 161
xD[8,200,112] = 580
xD[8,290,200] = 580
xD[8,199,290] = 580
xD[18,291,202] = 18
xD[18,202,114] = 18
xD[18,201,291] = 18
xD[26,221,137] = 6
xD[45,200,112] = 161
xD[45,284,45] = 161
xD[45,112,284] = 161
xD[46,200,112] = 580
xD[52,202,114] = 484
xD[53,202,114] = 18
xD[80,240,236] = 194
xD[80,36,240] = 194
xD[81,240,236] = 20
xD[81,36,240] = 20
xD[83,240,236] = 5
xD[83,36,240] = 5
xD[117,200,112] = 19
xD[117,290,200] = 19
xD[117,199,290] = 19
xD[119,291,202] = 214
xD[119,114,278] = 214
xD[119,202,114] = 214
xD[119,201,291] = 214
xD[120,291,202] = 10
xD[120,114,278] = 10
xD[120,202,114] = 10
xD[120,201,291] = 10
xD[121,291,202] = 312
xD[121,202,114] = 312
xD[121,201,291] = 312
xD[122,291,202] = 18
xD[122,202,114] = 18
xD[122,201,291] = 18
xD[131,200,112] = 580
xD[132,114,278] = 214
xD[132,202,114] = 214
xD[133,114,278] = 10
xD[133,202,114] = 10
xD[134,202,114] = 484
xD[135,202,114] = 18
xD[138,291,202] = 214
xD[138,114,278] = 214
xD[138,202,114] = 214
xD[139,291,202] = 10
xD[139,114,278] = 10
xD[139,202,114] = 10
xD[140,291,202] = 484
xD[140,202,114] = 484
xD[141,291,202] = 18
xD[141,202,114] = 18
xD[144,200,112] = 161
xD[144,290,200] = 161
xD[144,284,45] = 161
xD[144,112,284] = 161
xD[145,200,112] = 580
xD[145,290,200] = 580
zE[36] = 1240
zE[45] = 764.999
zE[112] = 284
zE[114] = 452
zE[133] = 111
zE[137] = 447
zE[138] = 615
zE[199] = 207
zE[200] = 238
zE[201] = 375
zE[202] = 406
zE[203] = 543
zE[204] = 711
zE[234] = 1304
zE[235] = 1472
zE[236] = 1640
zE[240] = 1398.71
zE[275] = 328
zE[276] = 496
zE[277] = 664
zE[278] = 832
zE[284] = 463
zE[290] = 211
zE[291] = 379
zX[36] = 1258
zX[45] = 810.999
zX[100] = 288
zX[101] = 456
zX[104] = 220
zX[112] = 296
zX[114] = 464
zX[133] = 127
zX[137] = 463
zX[138] = 631
zX[199] = 228
zX[200] = 259
zX[201] = 396
zX[202] = 427
zX[203] = 564
zX[204] = 732
zX[218] = 92
zX[221] = 428
zX[223] = 596
zX[234] = 1316
zX[235] = 1484
zX[236] = 1652
zX[240] = 1400.71
zX[275] = 347
zX[276] = 515
zX[277] = 683
zX[278] = 851
zX[284] = 542
zX[290] = 230
zX[291] = 398
w[5,(240,236)] = 125.884
w[5,(36,240)] = 140.711
phi[1] = 227
phi[2] = 227
phi[5] = 1560
phi[7] = 888
phi[8] = 888
phi[13] = 631

### All variables with value smaller zero:

### End

real	1441m43.915s
user	5247m26.782s
sys	513m2.872s
	Freetype 2.4.12 environment removed
	Python 3.6.0 environment removed
	Gurobi 8.1.0 environment removed
