	Freetype 2.4.12 environment established
		library to render fonts
	Python 3.6.0 environment established
	Gurobi 8.1.0 environment established
Instance LSFRP: LSFDRP_2_1_0_1_fr.p
Instance LSFDP: LSFDRP_2_1_0_1_fd_37.p

*****************************************************************************************************************************
*** Solve LSFDRP_2_1_0_1_fd_37 with Gurobi
***
*** Graph info
*** |S|: 18
*** |S^E|: 0
*** |S^C|: 0
*** |V|: 296
*** |A|: 8235
*** |A^i|: 8184
*** |A^f|: 51
*** |M|: 146
*** |E|: 22

Changed value of parameter TimeLimit to 86400.0
   Prev: 1e+100  Min: 0.0  Max: 1e+100  Default: 1e+100
Changed value of parameter Threads to 4
   Prev: 0  Min: 0  Max: 1024  Default: 0
Optimize a model with 69438 rows, 1368547 columns and 5144583 nonzeros
Variable types: 1220290 continuous, 148257 integer (148257 binary)
Coefficient statistics:
  Matrix range     [1e+00, 4e+03]
  Objective range  [2e+00, 3e+07]
  Bounds range     [1e+00, 1e+00]
  RHS range        [1e+00, 4e+03]
Presolve removed 37440 rows and 1028387 columns (presolve time = 5s) ...
Presolve removed 41814 rows and 1071317 columns (presolve time = 11s) ...
Presolve removed 41814 rows and 1071488 columns (presolve time = 59s) ...
Presolve removed 42035 rows and 1071493 columns (presolve time = 60s) ...
Warning: Failed to open log file 'gurobi.log'
Presolve removed 42349 rows and 1072425 columns (presolve time = 132s) ...
Presolve removed 42349 rows and 1072425 columns
Presolve time: 131.86s
Presolved: 27089 rows, 296122 columns, 1304258 nonzeros
Variable types: 147955 continuous, 148167 integer (148119 binary)

Deterministic concurrent LP optimizer: primal and dual simplex
Showing first log only...


Root simplex log...

Iteration    Objective       Primal Inf.    Dual Inf.      Time
       0   -0.0000000e+00   4.000000e+00   3.471695e+07    136s
    8963   -1.5605397e+07   0.000000e+00   6.320022e+09    137s
   20341   -2.2361644e+06   0.000000e+00   2.253540e+10    140s
Concurrent spin time: 0.00s

Solved with dual simplex

Root relaxation: objective 7.448348e+06, 14579 iterations, 7.80 seconds

    Nodes    |    Current Node    |     Objective Bounds      |     Work
 Expl Unexpl |  Obj  Depth IntInf | Incumbent    BestBd   Gap | It/Node Time

     0     0 7446779.51    0  159          - 7446779.51      -     -  149s
     0     0 6955662.62    0  105          - 6955662.62      -     -  167s
     0     0 6641014.20    0  128          - 6641014.20      -     -  180s
     0     0 6630627.72    0  134          - 6630627.72      -     -  182s
     0     0 6623621.51    0  136          - 6623621.51      -     -  187s
H    0     0                    -1272365.472 6623621.51   621%     -  188s
     0     0 6623552.16    0  136 -1272365.5 6623552.16   621%     -  190s
     0     0 6609596.94    0  143 -1272365.5 6609596.94   619%     -  194s
     0     0 6606050.04    0  144 -1272365.5 6606050.04   619%     -  196s
     0     0 6605887.72    0  143 -1272365.5 6605887.72   619%     -  197s
     0     0 6585742.10    0  193 -1272365.5 6585742.10   618%     -  205s
     0     0 6577719.36    0  185 -1272365.5 6577719.36   617%     -  210s
     0     0 6577248.24    0  188 -1272365.5 6577248.24   617%     -  211s
     0     0 6576881.90    0  188 -1272365.5 6576881.90   617%     -  211s
     0     0 6576827.44    0  198 -1272365.5 6576827.44   617%     -  214s
     0     0 6569174.47    0  196 -1272365.5 6569174.47   616%     -  220s
     0     0 6569174.47    0  196 -1272365.5 6569174.47   616%     -  222s
     0     0 6560910.46    0  191 -1272365.5 6560910.46   616%     -  226s
     0     0 6559882.75    0  192 -1272365.5 6559882.75   616%     -  229s
     0     0 6559882.75    0  192 -1272365.5 6559882.75   616%     -  231s
     0     0 6559882.75    0  192 -1272365.5 6559882.75   616%     -  235s
     0     0 6559882.75    0  192 -1272365.5 6559882.75   616%     -  238s
     0     0 6559882.75    0  189 -1272365.5 6559882.75   616%     -  269s
H    0     0                    -583412.8129 6559882.75  1224%     -  272s
H    0     0                    1320365.4799 6559882.75   397%     -  285s
     0     2 6559882.75    0  189 1320365.48 6559882.75   397%     -  292s
     1     3 5180814.44    1  165 1320365.48 6559856.67   397% 103127 1001s
     3     6 5180814.44    2  165 1320365.48 6463385.59   390% 34611 1009s
     6    10 5018576.28    3  193 1320365.48 6429759.60   387% 41749 2288s
    10    14 5006167.94    4  196 1320365.48 6346536.95   381% 28020 2428s
    14    16 5005832.79    5  191 1320365.48 6327080.43   379% 20098 2436s
    18    18 4951622.80    6  209 1320365.48 5869964.00   345% 16517 2525s
    22    23 4943730.23    7  205 1320365.48 5869227.96   345% 13785 2565s
    29    27 4938744.19    8  202 1320365.48 5869227.96   345% 10552 2713s
    36    36 3997490.82    9  178 1320365.48 5869227.96   345%  9446 2745s
    42    40 4705797.78   10  198 1320365.48 5869227.96   345%  8196 2763s
    50    48 4704089.53   11  205 1320365.48 5869227.96   345%  6970 2789s
    58    57 4623723.66   13  192 1320365.48 5869227.96   345%  6269 2828s
    65    62 4537410.61   13  151 1320365.48 5869227.96   345%  5770 2859s
    74    73 4617018.22   14  159 1320365.48 5869227.96   345%  5155 2881s
    85    81 4616045.67   15  161 1320365.48 5869227.96   345%  4589 2903s
    95    94 3246552.16   17  136 1320365.48 5869227.96   345%  4267 2938s
   100    92 3242333.78   18  127 1320365.48 5869227.96   345%  4155 2996s
   116   105 4175537.87   13  106 1320365.48 5851107.03   343%  3780 3028s
   134   123 3194098.22   17   61 1320365.48 5851107.03   343%  3430 3089s
H  137   122                    1913067.5998 5851107.03   206%  3364 3089s
   149   133 3111744.34   21   55 1913067.60 5851107.03   206%  3185 3113s
   173   150 2025512.85   29   72 1913067.60 5851107.03   206%  2853 3140s
   198   174 infeasible    7      1913067.60 5851107.03   206%  2546 3276s
   213   181 5389201.34   14  104 1913067.60 5675261.08   197%  2432 3313s
   237   206 4852125.26   22   58 1913067.60 5675261.08   197%  2244 3340s
   271   229 4731601.50   29   41 1913067.60 5675261.08   197%  2021 3438s
H  289   247                    1913067.6841 5675261.08   197%  1920 3438s
   291   240 4569620.34   41   38 1913067.68 5675261.08   197%  1909 3463s
   341   277 2591209.67   52   28 1913067.68 5675261.08   197%  1676 3619s
   353   287 2590878.83   53   37 1913067.68 5671067.53   196%  1631 3644s
   409   317 3421100.35   17   67 1913067.68 5671067.53   196%  1466 3679s
   463   365 2179567.36   19   34 1913067.68 5669210.71   196%  1359 3719s
   525   404 4491357.79   15   89 1913067.68 5669210.71   196%  1255 3753s
   564   429 4456407.81   16   89 1913067.68 5669210.71   196%  1196 3778s
   623   474 3938664.96   31   49 1913067.68 5669210.71   196%  1127 3804s
   664   515 3695443.47   33   51 1913067.68 5665559.39   196%  1092 3832s
   753   585 5565146.21   14  120 1913067.68 5664968.21   196%   998 3867s
   824   639 4936600.40   18  110 1913067.68 5664968.21   196%   952 3972s
   851   643 4220124.58   25   71 1913067.68 5664968.21   196%   970 4025s
   910   699 3998153.00   53   83 1913067.68 5625920.81   194%   947 4109s
   955   735 5177924.82   16   92 1913067.68 5625920.81   194%   961 4145s
  1023   782 5037967.48   23  189 1913067.68 5625920.81   194%   923 4430s
  1025   783 2244756.11   68  118 1913067.68 5625920.81   194%   922 4444s
  1026   784 3594833.90   18  126 1913067.68 5625920.81   194%   921 4452s
  1027   785 2790532.56   28  137 1913067.68 5615036.81   194%   920 4456s
  1028   785 3989468.85   25  128 1913067.68 5592087.86   192%   919 4462s
  1030   787 4355374.07   42  151 1913067.68 5565792.02   191%   917 4469s
  1031   787 3577666.31   53  133 1913067.68 5565136.77   191%   916 4471s
  1032   788 4361572.37   34  141 1913067.68 5559444.55   191%   915 4476s
  1033   789 5339693.11    7  154 1913067.68 5557824.72   191%   914 4484s
  1034   789 4499920.97   35  176 1913067.68 5553285.84   190%   914 4485s
  1036   791 4628892.71   31  180 1913067.68 5549768.62   190%   912 4498s
  1038   792 4436199.76   19  176 1913067.68 5543292.90   190%   910 4504s
  1039   793 4148273.61  104  197 1913067.68 5541412.98   190%   909 4522s
  1040   793 4569472.40   47  197 1913067.68 5541412.98   190%   908 4525s
  1041   794 2568418.34   37  197 1913067.68 5541412.98   190%   907 4531s
  1042   796 2241137.61   64  189 1913067.68 5541412.98   190%   931 4538s
  1044   797 2721150.81   42  115 1913067.68 5142855.09   169%   929 4553s
  1045   798 4261249.22   82  109 1913067.68 5131962.38   168%   928 4559s
  1046   799 2889025.46   67  121 1913067.68 5074961.02   165%   927 4562s
  1048   800 4863379.45   24  120 1913067.68 5010342.14   162%   925 4566s
  1051   802 4360801.69   43  145 1913067.68 4930603.60   158%   923 4572s
  1052   803 4120798.60   73  222 1913067.68 4914355.29   157%   922 4586s
  1054   804 4537375.11   14  214 1913067.68 4902575.33   156%   920 4592s
  1055   805 4078802.87   66  209 1913067.68 4883495.65   155%   919 4603s
  1056   805 4586420.68   26  208 1913067.68 4873267.83   155%   918 4605s
  1058   807 4109638.35   31  173 1913067.68 4865813.70   154%   917 4610s
  1059   807 4337708.70   38  179 1913067.68 4858607.65   154%   916 4619s
  1060   808 2938464.76   24  179 1913067.68 4857095.33   154%   915 4623s
  1061   809 3150934.92   21  171 1913067.68 4851194.62   154%   914 4638s
  1062   809 4628892.71   31  171 1913067.68 4851194.62   154%   913 4642s
  1063   810 4295352.63   54  171 1913067.68 4851194.62   154%   912 4655s
  1064   814 4771790.73   23  193 1913067.68 4851131.57   154%   954 4695s
  1066   817 4758700.60   24  198 1913067.68 4780816.81   150%   954 4735s
  1070   820 4755527.46   25  166 1913067.68 4755527.46   149%   968 4761s
  1074   822 3032560.72   25   89 1913067.68 4754343.73   149%   975 4776s
  1078   825 4752577.06   26  155 1913067.68 4752577.06   148%   979 4785s
  1082   828 4039875.48   26  172 1913067.68 4752577.06   148%   987 4799s
  1086   832 4752577.06   27  155 1913067.68 4752577.06   148%   996 4807s
  1092   829 4366861.62   28  169 1913067.68 4752347.98   148%   998 4816s
  1098   833 4618867.94   28  152 1913067.68 4750974.80   148%  1000 4835s
  1105   840 4544690.06   29  128 1913067.68 4750974.80   148%  1015 4847s
  1109   843 4569347.39   30  122 1913067.68 4750974.80   148%  1019 4861s
  1114   845 4562354.02   31  153 1913067.68 4750974.80   148%  1033 4872s
  1120   850 4109001.90   31   86 1913067.68 4750974.80   148%  1047 4878s
  1125   848 4557308.99   32  152 1913067.68 4750974.80   148%  1052 4885s
  1139   863 4485902.06   33  142 1913067.68 4750974.80   148%  1047 4891s
  1147   869 4430434.60   35  127 1913067.68 4750974.80   148%  1049 4899s
  1161   874 4429014.21   36  139 1913067.68 4750974.80   148%  1052 4912s
H 1172   842                    1913067.6845 4750974.80   148%  1054 4912s
  1173   838 4426726.19   37  132 1913067.68 4750974.80   148%  1055 4924s
  1186   849 4257894.92   39  108 1913067.68 4750974.80   148%  1061 4938s
  1200   860 4104584.02   41  114 1913067.68 4750974.80   148%  1072 4960s
  1204   863 4115025.74   42   95 1913067.68 4750974.80   148%  1071 4974s
  1221   871 4039295.63   44  107 1913067.68 4750974.80   148%  1079 4982s
  1236   874 4024997.29   45   90 1913067.68 4750974.80   148%  1078 4991s
  1256   889 2984482.67   47  104 1913067.68 4750974.80   148%  1078 5001s
  1267   889 4018171.51   48   70 1913067.68 4750488.11   148%  1083 5018s
  1275   891 4007788.83   49   73 1913067.68 4750488.11   148%  1103 5059s
  1283   900 3932908.96   50   82 1913067.68 4750488.11   148%  1110 5076s
  1295   904 3847496.40   52   78 1913067.68 4750488.11   148%  1126 5085s
  1311   921 3016314.50   54   58 1913067.68 4750488.11   148%  1133 5097s
  1325   920 3798236.12   56   85 1913067.68 4750488.11   148%  1142 5107s
  1345   939 2608634.03   57   86 1913067.68 4750488.11   148%  1162 5127s
  1362   948 3788198.55   58   90 1913067.68 4750488.11   148%  1165 5143s
  1380   955 3754760.94   60   83 1913067.68 4750488.11   148%  1187 5155s
  1413   980 3725868.28   62   86 1913067.68 4750488.11   148%  1192 5177s
  1451   988 3689969.47   66   86 1913067.68 4750488.11   148%  1195 5192s
  1505  1006 3673558.22   70   82 1913067.68 4750488.11   148%  1180 5202s
  1571  1016 3649287.53   74   79 1913067.68 4750488.11   148%  1155 5241s
  1594  1026 3643867.95   77   93 1913067.68 4750488.11   148%  1154 5250s
  1674  1035 2138186.35   80   51 1913067.68 4750488.11   148%  1119 5438s
  1735  1028     cutoff   83      1913067.68 4750488.11   148%  1097 5466s
  1778  1026 3141947.94  101   58 1913067.68 4750488.11   148%  1099 5483s
  1824  1024     cutoff  125      1913067.68 4658457.91   144%  1089 5501s
  1859  1032 4444002.71   33  132 1913067.68 4658457.91   144%  1090 5523s
  1890  1044 4245219.12   40  130 1913067.68 4658457.91   144%  1097 5541s
  1984  1094 4117840.94   52   68 1913067.68 4658457.91   144%  1069 5556s
  2072  1132 4071318.45   56   77 1913067.68 4658457.91   144%  1044 5570s
  2146  1171 3007627.82   68   50 1913067.68 4658457.91   144%  1026 5591s
  2269  1217 2364021.28  123   36 1913067.68 4599579.29   140%   987 5613s
  2295  1231 4195300.23   30  134 1913067.68 4599579.29   140%   998 5634s
  2369  1276 4076257.60   31  147 1913067.68 4599579.29   140%   989 5670s
  2413  1273 3955337.74   32  122 1913067.68 4599579.29   140%  1000 5694s
  2478  1286 3947092.39   34  124 1913067.68 4599579.29   140%   999 5719s
  2509  1298 2618367.92   39   37 1913067.68 4544567.74   138%  1016 5745s
  2544  1306 2978178.71   33  101 1913067.68 4535223.94   137%  1026 5767s
  2757  1402 3363084.60   31  101 1913067.68 4534707.79   137%   964 5798s
  2800  1424 3499434.84   35   64 1913067.68 4534707.79   137%   973 5840s
  2838  1438 3431678.87   43   54 1913067.68 4534707.79   137%   990 5863s
  2902  1468 3421045.90   47   53 1913067.68 4534707.79   137%   992 5887s
  2957  1492 3325098.83   53   43 1913067.68 4534707.79   137%   997 5914s
  3116  1554 2760485.33   63   23 1913067.68 4534707.79   137%   972 5954s
  3250  1585 4350106.38   31  123 1913067.68 4503132.63   135%   955 6075s
  3312  1605 3744635.03   33   82 1913067.68 4503132.63   135%   963 6115s
  3398  1645 3938108.89   37   42 1913067.68 4503132.63   135%   971 6158s
  3430  1658     cutoff   40      1913067.68 4503132.63   135%   992 6191s
  3539  1736     cutoff   44      1913067.68 4499523.89   135%   990 6226s
  3637  1790 3412527.25   34   57 1913067.68 4469165.39   134%   992 6274s
  3784  1889 3237059.86   32  124 1913067.68 4456802.09   133%   984 6309s
  3895  1987 3993122.76   40  128 1913067.68 4456802.09   133%   979 6352s
  4020  2077 3854833.96   54   92 1913067.68 4456802.09   133%   974 6389s
  4153  2193 3748200.75   73   68 1913067.68 4454485.35   133%   968 6435s
  4342  2325 4016322.10   34   80 1913067.68 4454485.35   133%   955 6483s
  4464  2422 infeasible   58      1913067.68 4447892.91   133%   961 6542s
  4560  2478 2654151.79   33   84 1913067.68 4440140.59   132%   967 6663s
  4655  2548 3549468.60   33   85 1913067.68 4438059.25   132%   984 6710s
  4805  2658 2743146.02   35   41 1913067.68 4434487.17   132%   980 6760s
H 4989  2757                    1913067.9247 4434217.80   132%   976 6844s
  5099  2844 4259234.78   37   84 1913067.92 4432842.17   132%   985 6899s
  5302  2986 4141431.07   42  101 1913067.92 4432842.17   132%   982 6953s
  5512  3126 4064285.09   46   78 1913067.92 4432842.17   132%   964 7033s
  5822  3363 3948018.09   60   93 1913067.92 4432842.17   132%   949 7100s
H 5968  3294                    2095903.3337 4432842.17   112%   947 7100s
  6038  3408 2936663.49   81   75 2095903.33 4417079.71   111%   944 7165s
  6457  3724 3851740.74   46   87 2095903.33 4402744.02   110%   912 7227s
H 6713  3888                    2095903.3341 4402613.91   110%   905 7227s
  6736  3929 3851951.78   34  101 2095903.33 4402613.91   110%   907 7474s
H 6838  3998                    2095903.3347 4402613.91   110%   908 7474s
H 6933  4068                    2095903.3377 4402613.91   110%   901 7474s
  6934  4066 3934688.31   39  101 2095903.34 4402613.91   110%   902 7550s
  7086  4180 3823911.43   43   95 2095903.34 4390999.23   110%   905 7626s
  7380  4393 3748009.52   52   40 2095903.34 4386311.31   109%   901 7696s
  7827  4752 2941491.20  103   78 2095903.34 4380803.49   109%   875 7776s
  8167  4979 2195415.16   69   59 2095903.34 4377982.09   109%   869 7855s
  8470  5191 3719104.10   35  122 2095903.34 4364680.20   108%   868 7945s
  8912  5525 3831212.46   42   97 2095903.34 4355844.04   108%   855 8042s
  9287  5752 4105532.87   37  113 2095903.34 4351749.90   108%   850 8132s
  9751  6123 4123601.87   37  106 2095903.34 4347914.73   107%   840 8219s
 10111  6367 3872478.04   47  109 2095903.34 4346424.77   107%   841 8316s
 10714  6850 2944292.33   65   84 2095903.34 4330133.50   107%   823 8440s
 11147  7182 4017768.85   59   69 2095903.34 4324606.32   106%   819 8542s
 11584  7516 3901967.24   50   83 2095903.34 4317265.33   106%   819 8655s
 11995  7846 2578666.13   74   19 2095903.34 4315887.64   106%   811 8753s
 12463  8178 2232342.47   59   77 2095903.34 4308182.75   106%   805 8858s
 12903  8525 3766169.13   37   65 2095903.34 4299930.61   105%   804 8982s
 13230  8753 3735303.06   45   61 2095903.34 4299930.61   105%   811 9090s
 13731  9147 3701605.75   52   66 2095903.34 4299930.61   105%   806 9195s
 13983  9315 3568874.20   62   63 2095903.34 4288498.63   105%   809 9297s
 14697  9849 3132014.93   38   47 2095903.34 4282873.30   104%   796 9394s
 15068 10115 infeasible   32      2095903.34 4278313.47   104%   800 9493s
 15438 10339 2745745.89   38   68 2095903.34 4273478.48   104%   797 9596s
 15950 10732 3042449.14   31  115 2095903.34 4269709.30   104%   794 9697s
 16552 11210 2763523.34   59   63 2095903.34 4265641.01   104%   783 9808s
 17108 11590 3982243.33   57   94 2095903.34 4261090.32   103%   777 9911s
 17583 11977 2827945.08   88   54 2095903.34 4255215.11   103%   772 10014s
 17915 12206 infeasible   93      2095903.34 4253262.63   103%   773 10115s
 18531 12652 4165993.71   32  130 2095903.34 4251646.83   103%   765 10210s
 18937 12916 3326905.68   53  102 2095903.34 4247501.00   103%   767 10304s
 19258 13149 4211075.58   31  162 2095903.34 4246113.86   103%   771 10445s
 19607 13422 3524907.68   86   54 2095903.34 4243857.71   102%   768 10539s
 20092 13757 4136634.62   52   89 2095903.34 4239352.96   102%   764 10641s
 20137 13780 4005236.96   60   54 2095903.34 4238289.62   102%   764 10742s
 20813 14278 4169175.69   45  136 2095903.34 4234631.30   102%   755 10846s

Cutting planes:
  Gomory: 11
  Cover: 1
  Implied bound: 13
  Projected implied bound: 11
  Clique: 46
  MIR: 46
  Flow cover: 243
  Zero half: 3

Explored 21335 nodes (16090659 simplex iterations) in 12432.45 seconds
Thread count was 4 (of 16 available processors)

Solution count 10: 2.0959e+06 2.0959e+06 2.0959e+06 ... -583413
No other solutions better than 2.0959e+06

Optimal solution found (tolerance 1.00e-04)
Best objective 2.095903337653e+06, best bound 2.095903337653e+06, gap 0.0000%

***
***  |- Calculation finished, took 12,432.48 (12432.48) sec.
***  |-----------------------------------------------------------------------------------------------------------------------
***
*****************************************************************************************************************************
#############################################################################################################################
###
### Results
###
### The objective of the solution is 2,095,903.3377 (2095903.3377) and is feasible with a Gap of 0.0
###
### Service 24 (WAF7) is operated by 3 vessels from type 18 (PMax25)
###  |- Vessel  1 has the path [100, 276, -1]
###  |  100 (DEHAM Out@288.0) - 276 (ESALG In@496.0/Out@515.0) - -1 (DUMMY_END Ziel-Service 24)
###  |- Vessel  2 has the path [101, 277, -1]
###  |  101 (DEHAM Out@456.0) - 277 (ESALG In@664.0/Out@683.0) - -1 (DUMMY_END Ziel-Service 24)
###  |- Vessel 13 has the path [104, 275, 201, 291, 202, 114, 278, -1]
###  |  104 (DKAAR Out@220.0) - 275 (ESALG In@328.0/Out@347.0) - 201 (MAPTM In@375.0/Out@396.0) - 291 (MAPTM In@379.0/Out@398
###  |  .0) - 202 (MAPTM In@406.0/Out@427.0) - 114 (ESALG In@452.0/Out@464.0) - 278 (ESALG In@832.0/Out@851.0) - -1 (DUMMY_EN
###  |  D Ziel-Service 24)
###  |   |- and carried Demand  17,  484.0 containers from 201 to 114
###  |   |- and carried Demand  18,   18.0 containers from 201 to 114
###  |   |- and carried Demand  52,  484.0 containers from 202 to 114
###  |   |- and carried Demand  53,   18.0 containers from 202 to 114
###  |   |- and carried Demand 119,  214.0 containers from 201 to 278
###  |   |- and carried Demand 120,   10.0 containers from 201 to 278
###  |   |- and carried Demand 121,  484.0 containers from 201 to 114
###  |   |- and carried Demand 122,   18.0 containers from 201 to 114
###  |   |- and carried Demand 132,  214.0 containers from 202 to 278
###  |   |- and carried Demand 133,   10.0 containers from 202 to 278
###  |   |- and carried Demand 134,  312.0 containers from 202 to 114
###  |   |- and carried Demand 135,   18.0 containers from 202 to 114
###  |   |- and carried Demand 138,  214.0 containers from 291 to 278
###  |   |- and carried Demand 139,   10.0 containers from 291 to 278
###  |   |- and carried Demand 141,   18.0 containers from 291 to 114
###  |
### Service 177 (WCSA) is operated by 3 vessels from type 19 (PMax28)
###  |- Vessel  5 has the path [218, 133, 199, 290, 200, 112, 284, 45, 36, 240, 236, 0]
###  |  218 (NLRTM Out@92.0) - 133 (FRLEH In@111.0/Out@127.0) - 199 (MAPTM In@207.0/Out@228.0) - 290 (MAPTM In@211.0/Out@230.
###  |  0) - 200 (MAPTM In@238.0/Out@259.0) - 112 (ESALG In@284.0/Out@296.0) - 284 (GWOXB In@463.0/Out@542.0) - 45 (CMDLA In@
###  |  765.0/Out@811.0) - 36 (CLLQN In@1240.0/Out@1258.0) - 240 (PECLL In@1398.71/Out@1400.71) - 236 (PABLB In@1640.0/Out@16
###  |  52.0) - 0 (DUMMY_END Ziel-Service 177)
###  |   |- and carried Demand   6,   17.0 containers from 218 to 133
###  |   |- and carried Demand   7,  161.0 containers from 199 to  45
###  |   |- and carried Demand   8,  382.7 containers from 199 to 112
###  |   |- and carried Demand  45,  161.0 containers from 200 to  45
###  |   |- and carried Demand  46,  487.9 containers from 200 to 112
###  |   |- and carried Demand  80,  194.0 containers from  36 to 236
###  |   |- and carried Demand  81,   20.0 containers from  36 to 236
###  |   |- and carried Demand  83,    5.0 containers from  36 to 236
###  |   |- and carried Demand 117,  308.3 containers from 199 to 112
###  |   |- and carried Demand 131,  580.0 containers from 200 to 112
###  |   |- and carried Demand 144,  161.0 containers from 290 to  45
###  |   |- and carried Demand 145,  580.0 containers from 290 to 112
###  |- Vessel  7 has the path [221, 137, 203, 234, 0]
###  |  221 (NLRTM Out@428.0) - 137 (FRLEH In@447.0/Out@463.0) - 203 (MAPTM In@543.0/Out@564.0) - 234 (PABLB In@1304.0/Out@13
###  |  16.0) - 0 (DUMMY_END Ziel-Service 177)
###  |   |- and carried Demand  26,    6.0 containers from 221 to 137
###  |- Vessel  8 has the path [223, 138, 204, 235, 0]
###  |  223 (NLRTM Out@596.0) - 138 (FRLEH In@615.0/Out@631.0) - 204 (MAPTM In@711.0/Out@732.0) - 235 (PABLB In@1472.0/Out@14
###  |  84.0) - 0 (DUMMY_END Ziel-Service 177)
###  |
### Vessels not used in the solution: [3, 4, 6, 9, 10, 11, 12, 14, 15, 16, 17, 18]
###  |-----------------------------------------------------------------------------------------------------------------------
###
#############################################################################################################################

### Detialed variable overview

### All variables with value greater zero:
rho[24,18] = 1
rho[177,19] = 1
eta[24,18,1] = 1
eta[24,18,2] = 1
eta[24,18,3] = 1
eta[177,19,1] = 1
eta[177,19,2] = 1
eta[177,19,3] = 1
y[1,276,-1] = 1
y[1,100,276] = 1
y[2,101,277] = 1
y[2,277,-1] = 1
y[5,200,112] = 1
y[5,290,200] = 1
y[5,240,236] = 1
y[5,133,199] = 1
y[5,199,290] = 1
y[5,45,36] = 1
y[5,218,133] = 1
y[5,36,240] = 1
y[5,284,45] = 1
y[5,236,0] = 1
y[5,112,284] = 1
y[7,234,0] = 1
y[7,137,203] = 1
y[7,203,234] = 1
y[7,221,137] = 1
y[8,235,0] = 1
y[8,204,235] = 1
y[8,223,138] = 1
y[8,138,204] = 1
y[13,104,275] = 1
y[13,275,201] = 1
y[13,291,202] = 1
y[13,114,278] = 1
y[13,202,114] = 1
y[13,278,-1] = 1
y[13,201,291] = 1
xD[6,218,133] = 17
xD[7,200,112] = 161
xD[7,290,200] = 161
xD[7,199,290] = 161
xD[7,284,45] = 161
xD[7,112,284] = 161
xD[8,200,112] = 382.737
xD[8,290,200] = 382.737
xD[8,199,290] = 382.737
xD[17,291,202] = 484
xD[17,202,114] = 484
xD[17,201,291] = 484
xD[18,291,202] = 18
xD[18,202,114] = 18
xD[18,201,291] = 18
xD[26,221,137] = 6
xD[45,200,112] = 161
xD[45,284,45] = 161
xD[45,112,284] = 161
xD[46,200,112] = 487.923
xD[52,202,114] = 484
xD[53,202,114] = 18
xD[80,240,236] = 194
xD[80,36,240] = 194
xD[81,240,236] = 20
xD[81,36,240] = 20
xD[83,240,236] = 5
xD[83,36,240] = 5
xD[117,200,112] = 308.339
xD[117,290,200] = 308.339
xD[117,199,290] = 308.339
xD[119,291,202] = 214
xD[119,114,278] = 214
xD[119,202,114] = 214
xD[119,201,291] = 214
xD[120,291,202] = 10
xD[120,114,278] = 10
xD[120,202,114] = 10
xD[120,201,291] = 10
xD[121,291,202] = 484
xD[121,202,114] = 484
xD[121,201,291] = 484
xD[122,291,202] = 18
xD[122,202,114] = 18
xD[122,201,291] = 18
xD[131,200,112] = 580
xD[132,114,278] = 214
xD[132,202,114] = 214
xD[133,114,278] = 10
xD[133,202,114] = 10
xD[134,202,114] = 312
xD[135,202,114] = 18
xD[138,291,202] = 214
xD[138,114,278] = 214
xD[138,202,114] = 214
xD[139,291,202] = 10
xD[139,114,278] = 10
xD[139,202,114] = 10
xD[141,291,202] = 18
xD[141,202,114] = 18
xD[144,200,112] = 161
xD[144,290,200] = 161
xD[144,284,45] = 161
xD[144,112,284] = 161
xD[145,200,112] = 580
xD[145,290,200] = 580
zE[36] = 1240
zE[45] = 765
zE[112] = 284
zE[114] = 452
zE[133] = 111
zE[137] = 447
zE[138] = 615
zE[199] = 207
zE[200] = 238
zE[201] = 375
zE[202] = 406
zE[203] = 543
zE[204] = 711
zE[234] = 1304
zE[235] = 1472
zE[236] = 1640
zE[240] = 1398.71
zE[275] = 328
zE[276] = 496
zE[277] = 664
zE[278] = 832
zE[284] = 463
zE[290] = 211
zE[291] = 379
zX[36] = 1258
zX[45] = 811
zX[100] = 288
zX[101] = 456
zX[104] = 220
zX[112] = 296
zX[114] = 464
zX[133] = 127
zX[137] = 463
zX[138] = 631
zX[199] = 228
zX[200] = 259
zX[201] = 396
zX[202] = 427
zX[203] = 564
zX[204] = 732
zX[218] = 92
zX[221] = 428
zX[223] = 596
zX[234] = 1316
zX[235] = 1484
zX[236] = 1652
zX[240] = 1400.71
zX[275] = 347
zX[276] = 515
zX[277] = 683
zX[278] = 851
zX[284] = 542
zX[290] = 230
zX[291] = 398
w[5,(240,236)] = 125.884
w[5,(36,240)] = 140.711
phi[1] = 227
phi[2] = 227
phi[5] = 1560
phi[7] = 888
phi[8] = 888
phi[13] = 631

### All variables with value smaller zero:

### End

real	208m47.585s
user	755m23.209s
sys	70m30.198s
	Freetype 2.4.12 environment removed
	Python 3.6.0 environment removed
	Gurobi 8.1.0 environment removed
