	Freetype 2.4.12 environment established
		library to render fonts
	Python 3.6.0 environment established
	Gurobi 8.1.0 environment established
Instance LSFRP: LSFDRP_1_1_0_0_fr.p
Instance LSFDP: LSFDRP_1_1_0_0_fd_25.p

*****************************************************************************************************************************
*** Solve LSFDRP_1_1_0_0_fd_25 with Gurobi
***
*** Graph info
*** |S|: 18
*** |S^E|: 0
*** |S^C|: 0
*** |V|: 274
*** |A|: 7458
*** |A^i|: 7407
*** |A^f|: 51
*** |M|: 115
*** |E|: 22

Changed value of parameter TimeLimit to 86400.0
   Prev: 1e+100  Min: 0.0  Max: 1e+100  Default: 1e+100
Optimize a model with 55573 rows, 1008318 columns and 3860340 nonzeros
Variable types: 874062 continuous, 134256 integer (134256 binary)
Coefficient statistics:
  Matrix range     [1e+00, 4e+03]
  Objective range  [2e+00, 1e+07]
  Bounds range     [1e+00, 1e+00]
  RHS range        [1e+00, 4e+03]
Presolve removed 35935 rows and 852638 columns (presolve time = 5s) ...
Presolve removed 35980 rows and 956061 columns (presolve time = 82s) ...
Warning: Failed to open log file 'gurobi.log'
Presolve removed 46359 rows and 959201 columns (presolve time = 88s) ...
Presolve removed 46359 rows and 959201 columns
Presolve time: 88.41s
Presolved: 9214 rows, 49117 columns, 375500 nonzeros
Variable types: 8201 continuous, 40916 integer (40871 binary)

Root simplex log...

Iteration    Objective       Primal Inf.    Dual Inf.      Time
       0    2.9825099e+08   7.321791e+04   0.000000e+00     89s
    3203   -1.5160756e+06   0.000000e+00   0.000000e+00     90s

Root relaxation: objective -1.516076e+06, 3203 iterations, 0.55 seconds

    Nodes    |    Current Node    |     Objective Bounds      |     Work
 Expl Unexpl |  Obj  Depth IntInf | Incumbent    BestBd   Gap | It/Node Time

     0     0 -1516075.6    0   87          - -1516075.6      -     -   90s
H    0     0                    -3425020.878 -1516075.6  55.7%     -   90s
H    0     0                    -2646284.089 -1516075.6  42.7%     -   90s
     0     0 -1713980.7    0   99 -2646284.1 -1713980.7  35.2%     -   92s
     0     0 -1713980.7    0   79 -2646284.1 -1713980.7  35.2%     -   95s
H    0     0                    -2638077.529 -1713980.7  35.0%     -   95s
     0     0 -1765994.6    0  117 -2638077.5 -1765994.6  33.1%     -   97s
     0     0 -1765994.6    0  119 -2638077.5 -1765994.6  33.1%     -   97s
H    0     0                    -2619570.059 -1765994.6  32.6%     -   98s
     0     0 -1805143.8    0  136 -2619570.1 -1805143.8  31.1%     -   98s
     0     0 -1807244.3    0  137 -2619570.1 -1807244.3  31.0%     -   98s
     0     0 -1845526.6    0  130 -2619570.1 -1845526.6  29.5%     -   99s
     0     0 -1846102.3    0  112 -2619570.1 -1846102.3  29.5%     -   99s
     0     0 -1846314.6    0  130 -2619570.1 -1846314.6  29.5%     -   99s
     0     0 -1882852.7    0  120 -2619570.1 -1882852.7  28.1%     -  100s
     0     0 -1885389.2    0  131 -2619570.1 -1885389.2  28.0%     -  100s
     0     0 -1891224.6    0  121 -2619570.1 -1891224.6  27.8%     -  100s
     0     0 -1891565.4    0  121 -2619570.1 -1891565.4  27.8%     -  100s
     0     0 -1901209.9    0  122 -2619570.1 -1901209.9  27.4%     -  102s
     0     0 -1901209.9    0   90 -2619570.1 -1901209.9  27.4%     -  104s
H    0     0                    -2572592.908 -1901209.9  26.1%     -  105s
     0     0 -1958203.4    0   79 -2572592.9 -1958203.4  23.9%     -  105s
     0     0 -1994199.7    0   89 -2572592.9 -1994199.7  22.5%     -  106s
     0     0 -2002005.4    0   93 -2572592.9 -2002005.4  22.2%     -  106s
     0     0 -2002681.1    0   98 -2572592.9 -2002681.1  22.2%     -  106s
     0     0 -2002681.1    0   99 -2572592.9 -2002681.1  22.2%     -  106s
     0     0 -2021877.5    0  123 -2572592.9 -2021877.5  21.4%     -  107s
     0     0 -2021877.5    0   93 -2572592.9 -2021877.5  21.4%     -  108s
     0     0 -2021877.5    0  112 -2572592.9 -2021877.5  21.4%     -  110s
H    0     0                    -2561201.028 -2021877.5  21.1%     -  110s
     0     0 -2077916.2    0   95 -2561201.0 -2077916.2  18.9%     -  110s
     0     0 -2149967.6    0   90 -2561201.0 -2149967.6  16.1%     -  111s
     0     0 -2152991.1    0   93 -2561201.0 -2152991.1  15.9%     -  111s
     0     0 -2158557.7    0  101 -2561201.0 -2158557.7  15.7%     -  112s
     0     0 -2158557.7    0   76 -2561201.0 -2158557.7  15.7%     -  115s
H    0     0                    -2541221.028 -2158557.7  15.1%     -  115s
H    0     0                    -2524913.317 -2382153.0  5.65%     -  115s
     0     0 -2382153.0    0   93 -2524913.3 -2382153.0  5.65%     -  116s
H    0     0                    -2514506.998 -2382153.0  5.26%     -  116s
H    0     0                    -2514506.997 -2389020.6  4.99%     -  116s
     0     0 -2389020.6    0   78 -2514507.0 -2389020.6  4.99%     -  116s
     0     0 -2389020.6    0   84 -2514507.0 -2389020.6  4.99%     -  116s
     0     0 -2389020.6    0   81 -2514507.0 -2389020.6  4.99%     -  116s
     0     0 -2393858.1    0   94 -2514507.0 -2393858.1  4.80%     -  116s
     0     0 -2393932.1    0   94 -2514507.0 -2393932.1  4.80%     -  116s
     0     0 -2402458.2    0  109 -2514507.0 -2402458.2  4.46%     -  116s
     0     0 -2402458.2    0   30 -2514507.0 -2402458.2  4.46%     -  118s
     0     0 -2423822.3    0   68 -2514507.0 -2423822.3  3.61%     -  118s
     0     0 -2489143.3    0   50 -2514507.0 -2489143.3  1.01%     -  118s
     0     0 -2505928.8    0   54 -2514507.0 -2505928.8  0.34%     -  118s
     0     0 -2505928.8    0   50 -2514507.0 -2505928.8  0.34%     -  118s
     0     0 -2505928.8    0   20 -2514507.0 -2505928.8  0.34%     -  118s
     0     0     cutoff    0      -2514507.0 -2514507.0  0.00%     -  118s

Cutting planes:
  Gomory: 3
  Implied bound: 2
  Clique: 5
  Flow cover: 1
  GUB cover: 1
  Zero half: 2

Explored 1 nodes (22287 simplex iterations) in 118.56 seconds
Thread count was 16 (of 16 available processors)

Solution count 10: -2.51451e+06 -2.51451e+06 -2.52491e+06 ... -3.42502e+06
No other solutions better than -2.51451e+06

Optimal solution found (tolerance 1.00e-04)
Warning: max constraint violation (3.2759e-06) exceeds tolerance
Warning: max bound violation (1.0919e-06) exceeds tolerance
Best objective -2.514506997304e+06, best bound -2.514506997304e+06, gap 0.0000%

***
***  |- Calculation finished, took 118.58 (118.58) sec.
***  |-----------------------------------------------------------------------------------------------------------------------
***
*****************************************************************************************************************************
#############################################################################################################################
###
### Results
###
### The objective of the solution is -2,514,506.9973 (-2514506.9973) and is feasible with a Gap of 0.0
###
### Service 177 (WCSA) is operated by 3 vessels from type 19 (PMax28)
###  |- Vessel  8 has the path [223, 138, 204, 235, 0]
###  |  223 (NLRTM Out@596.0) - 138 (FRLEH In@615.0/Out@631.0) - 204 (MAPTM In@711.0/Out@732.0) - 235 (PABLB In@1472.0/Out@14
###  |  84.0) - 0 (DUMMY_END Ziel-Service 177)
###  |- Vessel 15 has the path [134, 200, 112, 36, 240, 236, 0]
###  |  134 (FRLEH Out@158.0) - 200 (MAPTM In@238.0/Out@259.0) - 112 (ESALG In@284.0/Out@296.0) - 36 (CLLQN In@1240.0/Out@125
###  |  8.0) - 240 (PECLL In@1398.71/Out@1400.71) - 236 (PABLB In@1640.0/Out@1652.0) - 0 (DUMMY_END Ziel-Service 177)
###  |   |- and carried Demand  46,  580.0 containers from 200 to 112
###  |   |- and carried Demand  80,  194.0 containers from  36 to 236
###  |   |- and carried Demand  81,   20.0 containers from  36 to 236
###  |   |- and carried Demand  83,    5.0 containers from  36 to 236
###  |- Vessel 16 has the path [136, 202, 234, 0]
###  |  136 (FRLEH Out@326.0) - 202 (MAPTM In@406.0/Out@427.0) - 234 (PABLB In@1304.0/Out@1316.0) - 0 (DUMMY_END Ziel-Service
###  |   177)
###  |
### Vessels not used in the solution: [1, 2, 3, 4, 5, 6, 7, 9, 10, 11, 12, 13, 14, 17, 18]
###  |-----------------------------------------------------------------------------------------------------------------------
###
#############################################################################################################################

### Detialed variable overview

### All variables with value greater zero:
rho[177,19] = 1
eta[177,19,1] = 1
eta[177,19,2] = 1
eta[177,19,3] = 1
y[8,235,0] = 1
y[8,204,235] = 1
y[8,223,138] = 1
y[8,138,204] = 1
y[15,200,112] = 1
y[15,240,236] = 1
y[15,112,36] = 1
y[15,36,240] = 1
y[15,236,0] = 1
y[15,134,200] = 1
y[16,234,0] = 1
y[16,136,202] = 1
y[16,202,234] = 1
xD[46,200,112] = 580
xD[80,240,236] = 194
xD[80,36,240] = 194
xD[81,240,236] = 20
xD[81,36,240] = 20
xD[83,240,236] = 5
xD[83,36,240] = 5
zE[36] = 1240
zE[112] = 284
zE[138] = 615
zE[200] = 238
zE[202] = 406
zE[204] = 711
zE[234] = 1304
zE[235] = 1472
zE[236] = 1640
zE[240] = 1398.71
zX[36] = 1258
zX[112] = 296
zX[134] = 158
zX[136] = 326
zX[138] = 631
zX[200] = 259
zX[202] = 427
zX[204] = 732
zX[223] = 596
zX[234] = 1316
zX[235] = 1484
zX[236] = 1652
zX[240] = 1400.71
w[15,(240,236)] = 125.884
w[15,(36,240)] = 140.711
phi[8] = 888
phi[15] = 1494
phi[16] = 990

### All variables with value smaller zero:

### End

real	3m0.987s
user	6m14.103s
sys	1m2.707s
	Freetype 2.4.12 environment removed
	Python 3.6.0 environment removed
	Gurobi 8.1.0 environment removed
