	Freetype 2.4.12 environment established
		library to render fonts
	Python 3.6.0 environment established
	Gurobi 8.1.0 environment established
Instance LSFRP: LSFDRP_2_2_0_1_fr.p
Instance LSFDP: LSFDRP_2_2_0_1_fd_00.p

*****************************************************************************************************************************
*** Solve LSFDRP_2_2_0_1_fd_00 with Gurobi
***
*** Graph info
*** |S|: 18
*** |S^E|: 0
*** |S^C|: 0
*** |V|: 321
*** |A|: 9520
*** |A^i|: 9469
*** |A^f|: 51
*** |M|: 193
*** |E|: 22

Changed value of parameter TimeLimit to 86400.0
   Prev: 1e+100  Min: 0.0  Max: 1e+100  Default: 1e+100
Changed value of parameter Threads to 4
   Prev: 0  Min: 0  Max: 1024  Default: 0
Optimize a model with 91415 rows, 2029347 columns and 7453790 nonzeros
Variable types: 1857954 continuous, 171393 integer (171393 binary)
Coefficient statistics:
  Matrix range     [1e+00, 4e+03]
  Objective range  [2e+00, 5e+06]
  Bounds range     [1e+00, 1e+00]
  RHS range        [1e+00, 4e+03]
Presolve removed 52457 rows and 1632953 columns (presolve time = 5s) ...
Presolve removed 63110 rows and 1731514 columns (presolve time = 10s) ...
Warning: Failed to open log file 'gurobi.log'
Presolve removed 63114 rows and 1846140 columns (presolve time = 112s) ...
Presolve removed 80610 rows and 1963540 columns (presolve time = 115s) ...
Presolve removed 80953 rows and 1972243 columns (presolve time = 121s) ...
Presolve removed 80953 rows and 1972243 columns
Presolve time: 121.35s
Presolved: 10462 rows, 57104 columns, 319604 nonzeros
Variable types: 34751 continuous, 22353 integer (22309 binary)

Deterministic concurrent LP optimizer: primal and dual simplex
Showing first log only...


Root simplex log...

Iteration    Objective       Primal Inf.    Dual Inf.      Time
       0   -7.8330238e+03   1.240000e+02   1.224327e+09    123s
Concurrent spin time: 0.18s

Solved with dual simplex

Root relaxation: objective 5.144767e+06, 9019 iterations, 1.80 seconds

    Nodes    |    Current Node    |     Objective Bounds      |     Work
 Expl Unexpl |  Obj  Depth IntInf | Incumbent    BestBd   Gap | It/Node Time

     0     0 5144767.20    0  115          - 5144767.20      -     -  125s
H    0     0                    -1694889.682 5144767.20   404%     -  125s
H    0     0                    -1387249.842 5144767.20   471%     -  125s
H    0     0                    809477.94688 5144767.20   536%     -  129s
H    0     0                    1030280.2487 5144463.27   399%     -  133s
     0     0 5045527.74    0  115 1030280.25 5045527.74   390%     -  133s
H    0     0                    1261434.8480 5045527.74   300%     -  136s
     0     0 5035191.32    0  127 1261434.85 5035191.32   299%     -  137s
     0     0 5034860.00    0  128 1261434.85 5034860.00   299%     -  137s
     0     0 5033216.47    0  131 1261434.85 5033216.47   299%     -  137s
     0     0 5033216.47    0  131 1261434.85 5033216.47   299%     -  137s
     0     0 5028455.21    0  136 1261434.85 5028455.21   299%     -  140s
     0     0 5028452.46    0  134 1261434.85 5028452.46   299%     -  143s
     0     0 5027110.09    0  146 1261434.85 5027110.09   299%     -  146s
H    0     0                    1261434.9078 5027110.09   299%     -  148s
     0     0 5026634.63    0  149 1261434.91 5026634.63   298%     -  148s
     0     0 5024508.05    0  152 1261434.91 5024508.05   298%     -  148s
     0     0 5024103.89    0  154 1261434.91 5024103.89   298%     -  149s
     0     0 5017524.06    0  149 1261434.91 5017524.06   298%     -  149s
     0     0 5017206.16    0  150 1261434.91 5017206.16   298%     -  149s
     0     0 5014940.71    0  155 1261434.91 5014940.71   298%     -  149s
     0     0 5014531.97    0  158 1261434.91 5014531.97   298%     -  150s
     0     0 5014531.97    0  158 1261434.91 5014531.97   298%     -  150s
     0     0 4521783.47    0  138 1261434.91 4521783.47   258%     -  154s
H    0     0                    1261434.9083 4521783.47   258%     -  155s
     0     0 4520894.01    0  142 1261434.91 4520894.01   258%     -  156s
     0     0 4520812.91    0  144 1261434.91 4520812.91   258%     -  156s
     0     0 4519853.71    0  144 1261434.91 4519853.71   258%     -  157s
     0     0 4514986.59    0  144 1261434.91 4514986.59   258%     -  159s
     0     0 4505378.64    0  144 1261434.91 4505378.64   257%     -  159s
     0     0 4504161.48    0  145 1261434.91 4504161.48   257%     -  159s
     0     0 4504161.47    0  145 1261434.91 4504161.47   257%     -  160s
     0     0 4499197.92    0  144 1261434.91 4499197.92   257%     -  162s
     0     0 4498187.54    0  154 1261434.91 4498187.54   257%     -  163s
     0     0 4497086.63    0  155 1261434.91 4497086.63   257%     -  163s
     0     0 4496879.94    0  155 1261434.91 4496879.94   256%     -  163s
     0     0 4496652.73    0  156 1261434.91 4496652.73   256%     -  163s
     0     0 4496236.79    0  155 1261434.91 4496236.79   256%     -  163s
     0     0 4496217.32    0  161 1261434.91 4496217.32   256%     -  164s
     0     0 4492661.81    0  152 1261434.91 4492661.81   256%     -  165s
H    0     0                    1261434.9093 4492661.81   256%     -  165s
     0     0 4492380.22    0  153 1261434.91 4492380.22   256%     -  166s
     0     0 4479802.54    0  151 1261434.91 4479802.54   255%     -  166s
     0     0 4478752.88    0  151 1261434.91 4478752.88   255%     -  166s
     0     0 4478585.21    0  153 1261434.91 4478585.21   255%     -  166s
     0     0 4478585.21    0  153 1261434.91 4478585.21   255%     -  166s
     0     0 4478425.10    0  155 1261434.91 4478425.10   255%     -  168s
     0     0 4478065.50    0  159 1261434.91 4478065.50   255%     -  169s
     0     0 4477987.05    0  159 1261434.91 4477987.05   255%     -  169s
     0     0 4477464.25    0  153 1261434.91 4477464.25   255%     -  170s
     0     0 4477223.92    0  157 1261434.91 4477223.92   255%     -  171s
     0     0 4477223.92    0  159 1261434.91 4477223.92   255%     -  171s
     0     0 4477209.08    0  160 1261434.91 4477209.08   255%     -  172s
     0     0 4477209.08    0  160 1261434.91 4477209.08   255%     -  178s
     0     0 4477209.08    0  108 1261434.91 4477209.08   255%     -  185s
     0     0 4477209.08    0  118 1261434.91 4477209.08   255%     -  189s
     0     0 4477209.08    0  119 1261434.91 4477209.08   255%     -  189s
     0     0 4477209.08    0  125 1261434.91 4477209.08   255%     -  189s
     0     0 4477209.08    0  132 1261434.91 4477209.08   255%     -  189s
     0     0 4477209.08    0  133 1261434.91 4477209.08   255%     -  189s
     0     0 4477209.08    0  135 1261434.91 4477209.08   255%     -  190s
     0     0 4477209.08    0  129 1261434.91 4477209.08   255%     -  190s
     0     0 4477209.08    0  132 1261434.91 4477209.08   255%     -  190s
     0     0 4477209.08    0  125 1261434.91 4477209.08   255%     -  190s
     0     0 4471653.35    0  138 1261434.91 4471653.35   254%     -  190s
     0     0 4471544.41    0  136 1261434.91 4471544.41   254%     -  190s
     0     0 4470693.92    0  149 1261434.91 4470693.92   254%     -  190s
     0     0 4470463.99    0  153 1261434.91 4470463.99   254%     -  191s
     0     0 4470349.47    0  150 1261434.91 4470349.47   254%     -  191s
     0     0 4470337.14    0  150 1261434.91 4470337.14   254%     -  191s
     0     0 4453273.90    0  156 1261434.91 4453273.90   253%     -  191s
     0     0 4453197.60    0  157 1261434.91 4453197.60   253%     -  191s
     0     0 4451343.65    0  150 1261434.91 4451343.65   253%     -  193s
     0     0 4451342.70    0  150 1261434.91 4451342.70   253%     -  193s
     0     0 4451342.70    0  150 1261434.91 4451342.70   253%     -  198s
     0     0 4451342.70    0  110 1261434.91 4451342.70   253%     -  202s
     0     0 4451342.70    0  116 1261434.91 4451342.70   253%     -  205s
     0     0 4451342.70    0  124 1261434.91 4451342.70   253%     -  206s
     0     0 4451342.70    0  129 1261434.91 4451342.70   253%     -  206s
     0     0 4451342.70    0  127 1261434.91 4451342.70   253%     -  206s
     0     0 4451342.70    0  132 1261434.91 4451342.70   253%     -  206s
     0     0 4451342.70    0  138 1261434.91 4451342.70   253%     -  206s
     0     0 4451342.70    0  128 1261434.91 4451342.70   253%     -  207s
     0     0 4451342.70    0  136 1261434.91 4451342.70   253%     -  207s
     0     0 4451342.70    0  139 1261434.91 4451342.70   253%     -  207s
H    0     0                    1261434.9098 4451342.70   253%     -  207s
     0     0 4451342.70    0  132 1261434.91 4451342.70   253%     -  207s
     0     0 4451342.70    0  136 1261434.91 4451342.70   253%     -  207s
     0     0 4451342.70    0  140 1261434.91 4451342.70   253%     -  207s
     0     0 4446370.07    0  140 1261434.91 4446370.07   252%     -  208s
     0     0 4446370.06    0  138 1261434.91 4446370.06   252%     -  209s
     0     0 4446342.55    0  128 1261434.91 4446342.55   252%     -  209s
     0     0 4446342.55    0  128 1261434.91 4446342.55   252%     -  210s
H    0     0                    1261434.9128 4446342.55   252%     -  211s
     0     0 4446342.55    0  130 1261434.91 4446342.55   252%     -  211s
     0     0 4429060.43    0  124 1261434.91 4429060.43   251%     -  211s
     0     0 4429036.35    0  127 1261434.91 4429036.35   251%     -  211s
     0     0 4403895.78    0  138 1261434.91 4403895.78   249%     -  211s
     0     0 4403881.66    0  139 1261434.91 4403881.66   249%     -  211s
     0     0 4403196.86    0  144 1261434.91 4403196.86   249%     -  212s
     0     0 4402615.33    0  147 1261434.91 4402615.33   249%     -  213s
     0     0 4402001.64    0  149 1261434.91 4402001.64   249%     -  213s
     0     0 4402001.64    0  150 1261434.91 4402001.64   249%     -  213s
     0     0 4401539.69    0  150 1261434.91 4401539.69   249%     -  214s
     0     0 4401539.69    0  150 1261434.91 4401539.69   249%     -  214s
     0     0 4401523.79    0  150 1261434.91 4401523.79   249%     -  215s
     0     0 4401523.79    0  150 1261434.91 4401523.79   249%     -  215s
     0     0 4401523.79    0  150 1261434.91 4401523.79   249%     -  220s
     0     2 4401523.79    0  150 1261434.91 4401523.79   249%     -  226s
     3     8 4376314.75    2  169 1261434.91 4376314.75   247%  1521  233s
    11    16 4315233.98    4  149 1261434.91 4333099.87   244%   958  235s
    23    24 4241920.42    7  116 1261434.91 4333099.87   244%   809  240s
H   32    33                    1324198.0077 4333099.87   227%   617  242s
    47    48 4137314.70   12  101 1324198.01 4333099.87   227%   494  245s
    69    73 3350875.56   16   95 1324198.01 4333099.87   227%   476  250s
   117   117 3214193.15   28  101 1324198.01 4333099.87   227%   419  256s
   148   145 3058942.58   40   88 1324198.01 4333099.87   227%   424  260s
   224   201 2438956.77   50   89 1324198.01 4333099.87   227%   385  265s
H  245   219                    1324198.0244 4315169.48   226%   372  267s
H  263   236                    1349767.0950 4315169.48   220%   354  267s
   329   280 1682201.91   76   78 1349767.10 4315169.48   220%   320  271s
   390   305 4260766.58    6  139 1349767.10 4301990.79   219%   291  281s
   415   319 4205443.34   12  136 1349767.10 4301990.79   219%   282  300s
   452   334 4154387.84   13  130 1349767.10 4301990.79   219%   336  324s
   465   350 4091432.91   20  131 1349767.10 4301990.79   219%   411  327s
   475   358 4024074.75   19  143 1349767.10 4301990.79   219%   430  331s
   483   356 4016531.06   22  129 1349767.10 4301990.79   219%   445  338s
   507   378 3929885.22   25  118 1349767.10 4301990.79   219%   455  340s
   548   412 3869759.03   28  118 1349767.10 4301990.79   219%   452  345s
   581   438 3850047.26   31  104 1349767.10 4301990.79   219%   435  353s
   636   486 3765833.52   38   93 1349767.10 4301990.79   219%   447  357s
H  640   486                    1349767.0953 4301990.79   219%   446  357s
   665   495 3728696.69   40   90 1349767.10 4301990.79   219%   461  362s
   704   534 3676160.64   44   94 1349767.10 4301990.79   219%   447  366s
   792   605 3508179.03   61   83 1349767.10 4301990.79   219%   429  372s
   882   668 3430254.30   75  101 1349767.10 4301990.79   219%   399  407s
   981   731 3332681.45   95   75 1349767.10 4301990.79   219%   392  415s
  1019   755 3037260.80  108   88 1349767.10 4301990.79   219%   398  423s
  1067   800 2134721.52    7  160 1349767.10 4301990.79   219%   403  438s
  1069   801 3664381.96   28  106 1349767.10 4301990.79   219%   402  442s
  1075   805 2417244.57   52  140 1349767.10 4301990.79   219%   400  445s
  1088   814 2275014.32   58  169 1349767.10 4301990.79   219%   395  450s
  1104   825 3852710.05   31  170 1349767.10 4281791.89   217%   390  455s
  1124   838 3633997.47   14  200 1349767.10 4275117.92   217%   383  460s
  1137   847 3985880.28    9  191 1349767.10 4269225.11   216%   378  470s
  1144   851 2579252.29   51  194 1349767.10 4267135.08   216%   376  475s
  1160   862 2112245.07   39  200 1349767.10 4261065.92   216%   371  480s
  1177   873 2780311.66   39  208 1349767.10 4258830.85   216%   365  485s
  1196   886 4173227.07   13  217 1349767.10 4247520.51   215%   360  490s
  1208   894 1553159.61   75  207 1349767.10 4246688.42   215%   356  499s
  1209   895 2207675.94   50  207 1349767.10 4246688.42   215%   356  500s
  1211   899 4222609.69   15  207 1349767.10 4238003.34   214%   373  518s
  1213   902 4217986.69   16  200 1349767.10 4217986.69   212%   374  530s
  1217   905 4216371.87   17  227 1349767.10 4216371.87   212%   379  537s
  1221   907 3891149.28   17  154 1349767.10 4216281.25   212%   382  541s
  1229   910 4116271.97   18  169 1349767.10 4183808.19   210%   390  546s
  1233   913 4180074.04   19  194 1349767.10 4182872.17   210%   392  552s
  1238   914 3987174.31   19  164 1349767.10 4180071.92   210%   400  561s
  1242   916 4180028.41   20  194 1349767.10 4180028.41   210%   401  565s
  1254   921 4045349.06   21  189 1349767.10 4144772.93   207%   416  572s
  1261   927 4141281.99   22  170 1349767.10 4141281.99   207%   420  578s
  1267   932 4140435.98   23  174 1349767.10 4140435.98   207%   432  586s
  1276   933 4113949.58   24  173 1349767.10 4116244.24   205%   442  595s
  1286   942 4101079.75   25  169 1349767.10 4116244.24   205%   453  600s
  1294   948 4078744.37   26  156 1349767.10 4116244.24   205%   460  608s
  1298   950 3900246.94   26  168 1349767.10 4116244.24   205%   469  613s
  1308   960 3946045.83   27  160 1349767.10 4116244.24   205%   478  619s
  1318   956 4060622.47   28  160 1349767.10 4116244.24   205%   485  622s
  1330   966 3628223.23   29  163 1349767.10 4116244.24   205%   490  625s
  1354   970 4018981.15   31  170 1349767.10 4116244.24   205%   500  634s
  1371   973 3994038.77   33  169 1349767.10 4116244.24   205%   506  639s
  1385   975 2986376.63   34  164 1349767.10 4116244.24   205%   511  643s
  1407   978 3984197.94   36  175 1349767.10 4116244.24   205%   511  650s
  1427   976 3980655.46   38  174 1349767.10 4116219.40   205%   517  660s
  1441   980 2953999.06   38  146 1349767.10 4116219.40   205%   517  666s
  1453   986 2800134.57   39  143 1349767.10 4106605.65   204%   527  673s
  1475   999 3898640.83   40  170 1349767.10 4106605.65   204%   531  682s
  1496  1014 3893890.79   42  170 1349767.10 4106605.65   204%   537  689s
  1521  1031 3863217.74   44  171 1349767.10 4106605.65   204%   543  694s
  1534  1039 3851107.75   45  182 1349767.10 4106605.65   204%   552  700s
  1549  1046 3842782.33   47  182 1349767.10 4106605.65   204%   564  708s
  1557  1053 3801458.19   48  160 1349767.10 4106605.65   204%   574  714s
  1575  1067 3782484.02   50  159 1349767.10 4106605.65   204%   585  719s
  1586  1068 3745793.96   51  165 1349767.10 4106605.65   204%   596  724s
  1615  1088 2793465.94   53  136 1349767.10 4106605.65   204%   601  729s
  1658  1126 3700363.42   55  157 1349767.10 4106605.65   204%   596  735s
  1714  1144 3700337.13   56  160 1349767.10 4106605.65   204%   589  740s
  1777  1191 3627331.33   59  149 1349767.10 4106605.65   204%   582  746s
  1849  1210 3452780.59   62  144 1349767.10 4106605.65   204%   575  755s
  1880  1215 3200013.73   63  141 1349767.10 4106605.65   204%   576  761s
H 1959  1191                    1349767.1256 4106605.65   204%   564  772s
  2011  1192 3368631.92   66  136 1349767.13 4106605.65   204%   558  779s
H 2029  1150                    1349767.1262 4106605.65   204%   559  779s
H 2142  1124                    1349767.1271 4106605.65   204%   536  788s
H 2194  1080                    1349767.1273 4106605.65   204%   527  788s
  2223  1094 2789243.33   72  128 1349767.13 4106605.65   204%   525  798s
H 2245  1052                    1349767.1281 4106605.65   204%   530  798s
  2246  1056 2711875.43   75  109 1349767.13 4106605.65   204%   532  804s
  2292  1069 2669210.01   80  121 1349767.13 4106605.65   204%   536  811s
  2353  1083 2605452.80   89  122 1349767.13 4106605.65   204%   537  819s
  2408  1110     cutoff   96      1349767.13 4037551.10   199%   542  828s
  2456  1121 3145675.07   21  144 1349767.13 4037119.36   199%   547  838s
  2489  1134 3022895.64   28  113 1349767.13 4037119.36   199%   557  851s
  2577  1166 1961982.82   30   68 1349767.13 4037119.36   199%   558  862s
  2614  1179 2011652.29   32   64 1349767.13 3969833.46   194%   564  871s
  2656  1181 3874741.88   25  141 1349767.13 3969615.93   194%   569  889s
  2721  1213 3208652.53   31  126 1349767.13 3969615.93   194%   574  898s
  2774  1226 2948797.01   38  123 1349767.13 3956852.21   193%   577  912s
  2824  1253 3610129.57   24  154 1349767.13 3956852.21   193%   585  924s
  2872  1272 3245950.90   32   92 1349767.13 3954346.99   193%   592  934s
H 2923  1256                    1349767.1285 3954346.99   193%   587  934s
  2981  1284 3567197.87   24  135 1349767.13 3949306.50   193%   587  948s
  3110  1343 1908803.36   30  111 1349767.13 3939723.30   192%   582  972s
  3180  1371 3004906.84   44  115 1349767.13 3939591.72   192%   581  983s
H 3245  1419                    1349767.1288 3939591.72   192%   578  983s
  3276  1432 3540275.49   35  145 1349767.13 3939342.75   192%   582  996s
  3425  1537 3223588.26   30  126 1349767.13 3915147.07   190%   575 1013s
H 3487  1570                    1349770.5615 3915147.07   190%   575 1013s
  3596  1675 2638402.70   41  128 1349770.56 3901718.37   189%   565 1026s
H 3646  1715                    1349770.5625 3901718.37   189%   561 1026s
  3762  1792 3559147.65   46  153 1349770.56 3899993.05   189%   554 1040s
  3927  1920 3655100.11   37  142 1349770.56 3891023.57   188%   550 1056s
  3989  1956 2479917.16   46   90 1349770.56 3890902.36   188%   562 1078s
H 4034  1993                    1349770.7272 3890902.36   188%   560 1078s
  4162  2096 2995336.93   20  147 1349770.73 3881912.14   188%   559 1095s
  4206  2122 2209888.70   26  129 1349770.73 3877871.41   187%   566 1110s
  4350  2233 2894226.14   28  169 1349770.73 3877871.41   187%   565 1129s
  4413  2276 2702985.09   36  149 1349770.73 3877871.41   187%   570 1147s
  4491  2328 1898887.86   43  131 1349770.73 3871753.93   187%   579 1165s
  4613  2392 3078096.50   22  139 1349770.73 3863647.32   186%   583 1187s
  4737  2457 2930015.72   24  132 1349770.73 3856087.52   186%   585 1206s
  4865  2545 3146266.93   25  122 1349770.73 3851586.07   185%   590 1227s
  5114  2677 3281559.98   33  164 1349770.73 3834257.04   184%   578 1247s
  5310  2815 3279286.36   26  149 1349770.73 3833497.91   184%   576 1271s
  5513  2960 2306811.71   31  142 1349770.73 3833497.91   184%   576 1294s
  5641  3059 2288846.24   33  139 1349770.73 3830375.08   184%   579 1316s
  5848  3180 2402951.62   42  108 1349770.73 3815981.88   183%   582 1338s
  6030  3305 1687854.44   39   87 1349770.73 3807393.70   182%   585 1364s
  6179  3365 2532359.44   32  128 1349770.73 3800389.09   182%   593 1395s
  6375  3492 1478332.23   40   98 1349770.73 3799520.28   181%   597 1423s
  6567  3589 1592701.69   42  147 1349770.73 3785991.72   180%   601 1451s
  6787  3732 2491539.47   34  144 1349770.73 3782369.64   180%   600 1494s
  6992  3870 1513522.93   61   84 1349770.73 3776727.56   180%   604 1524s
  7197  3992 3529923.81   21  160 1349770.73 3766109.71   179%   604 1557s
  7441  4133 3051224.80   33  106 1349770.73 3760434.48   179%   607 1592s
  7705  4289 3021856.21   31  137 1349770.73 3747203.21   178%   609 1628s
  7883  4390     cutoff   39      1349770.73 3739945.62   177%   617 1673s
  8085  4497 1658557.93   37  124 1349770.73 3736791.24   177%   624 1714s
  8331  4627     cutoff   38      1349770.73 3730251.16   176%   629 1753s
H 8514  4717                    1355289.0115 3721563.86   175%   635 1753s
  8566  4760 2563975.59   36  119 1355289.01 3719117.90   174%   635 1792s
  8799  4885 2794460.56   40  134 1355289.01 3713161.86   174%   642 1836s
  9063  5021 infeasible   49      1355289.01 3705442.53   173%   647 1883s
  9356  5150 2003822.62   39   96 1355289.01 3693834.12   173%   648 1936s
H 9575  5273                    1355289.0150 3690083.76   172%   657 1985s
  9971  5494 1846210.96   50  115 1355289.02 3674794.35   171%   655 2046s
 10228  5651 3353020.68   41  160 1355289.02 3667699.06   171%   659 2063s
H10229  5369                    1355289.0158 3667699.06   171%   659 2066s
 10236  5373 1506958.30   79  159 1355289.02 3667699.06   171%   659 2070s
 10251  5383 2552984.89   38  205 1355289.02 3667699.06   171%   658 2075s
 10267  5394 3010590.83   29  182 1355289.02 3667699.06   171%   657 2080s
 10281  5403 1686884.72   52  200 1355289.02 3667699.06   171%   656 2085s
 10285  5406 3223385.95   27  196 1355289.02 3667699.06   171%   656 2094s
 10286  5407 2429171.89   31  192 1355289.02 3667699.06   171%   655 2096s
 10299  5415 1519487.26   61  205 1355289.02 3667699.06   171%   655 2101s
 10309  5422 2786371.61   73  204 1355289.02 3667699.06   171%   654 2105s
 10320  5429 2438301.71   39  192 1355289.02 3667699.06   171%   653 2110s
 10334  5439 3086293.49   41  203 1355289.02 3667699.06   171%   652 2118s
 10336  5440 1506958.30   79  203 1355289.02 3667699.06   171%   652 2122s
 10337  5444 3667699.06   28  193 1355289.02 3667699.06   171%   654 2137s
 10339  5447 3667699.06   29  184 1355289.02 3667699.06   171%   654 2153s
 10343  5450 3667699.06   30  191 1355289.02 3667699.06   171%   655 2164s
 10347  5452 3667699.06   30  161 1355289.02 3667699.06   171%   655 2179s
 10351  5455 3667699.06   31  192 1355289.02 3667699.06   171%   655 2186s
 10355  5456 3667699.06   31  155 1355289.02 3667699.06   171%   655 2192s
 10359  5458 3667699.06   32  187 1355289.02 3667699.06   171%   656 2196s
 10363  5461 3667699.06   32  162 1355289.02 3667699.06   171%   656 2210s
H10365  5186                    1355289.5898 3667699.06   171%   656 2210s
 10367  5183 3667699.06   33  173 1355289.59 3667699.06   171%   657 2218s
 10373  5190 3667699.06   33  176 1355289.59 3667699.06   171%   658 2223s
 10379  5192 3667699.06   34  173 1355289.59 3667699.06   171%   658 2228s
 10386  5197 3667699.06   35  177 1355289.59 3667699.06   171%   658 2234s
 10393  5199 3667699.06   36  163 1355289.59 3667699.06   171%   659 2240s
 10413  5209 3667699.06   39  168 1355289.59 3667699.06   171%   660 2249s
 10423  5216 3667699.06   40  163 1355289.59 3667699.06   171%   661 2253s
 10433  5220 3667699.06   41  163 1355289.59 3667699.06   171%   661 2256s
 10443  5227 3667699.06   42  154 1355289.59 3667699.06   171%   661 2264s
 10448  5232 3667699.06   43  146 1355289.59 3667699.06   171%   661 2273s
 10461  5233 3667699.06   44  149 1355289.59 3667699.06   171%   662 2277s
 10477  5244 3469452.04   45  145 1355289.59 3667699.06   171%   662 2281s
 10492  5252 3667699.06   47  146 1355289.59 3667699.06   171%   662 2291s
 10507  5257 2996090.43   48  116 1355289.59 3667699.06   171%   663 2297s
 10522  5268 2648564.47   49  108 1355289.59 3667699.06   171%   663 2301s
 10540  5268 2613685.64   51  112 1355289.59 3667699.06   171%   663 2305s
 10582  5273 2573358.46   56  104 1355289.59 3667699.06   171%   662 2314s
 10608  5279 2557165.13   59  110 1355289.59 3667699.06   171%   662 2319s
 10641  5280 2532025.93   64  104 1355289.59 3667699.06   171%   661 2323s
 10662  5285 2523764.98   67  114 1355289.59 3667699.06   171%   661 2327s
 10698  5289 1642735.21   76   78 1355289.59 3667699.06   171%   660 2336s
 10712  5288     cutoff   76      1355289.59 3667699.06   171%   661 2342s
 10751  5289 1369276.62   89   86 1355289.59 3667699.06   171%   661 2347s
 10770  5293 3667699.06   36  172 1355289.59 3667699.06   171%   661 2351s
 10787  5299 3667699.06   36  167 1355289.59 3667699.06   171%   662 2358s
 10821  5311 3667699.06   35  156 1355289.59 3667699.06   171%   661 2374s
 10829  5311 3667699.06   38  163 1355289.59 3667699.06   171%   662 2380s
 10859  5325 3667699.06   44  158 1355289.59 3667699.06   171%   662 2389s
 10881  5328 3667699.06   47  150 1355289.59 3667699.06   171%   663 2394s
 10897  5336 3667699.06   48  150 1355289.59 3667699.06   171%   663 2400s
 10918  5346 3541051.90   47  150 1355289.59 3667699.06   171%   664 2407s
 10956  5359 3667699.06   50  146 1355289.59 3667699.06   171%   665 2414s
 11006  5373 3667699.06   50  156 1355289.59 3667699.06   171%   664 2424s
 11057  5388 3667699.06   54  176 1355289.59 3667699.06   171%   664 2448s
 11080  5385 3667699.06   57  174 1355289.59 3667699.06   171%   663 2455s
 11141  5409 2535463.27   57  133 1355289.59 3667699.06   171%   662 2466s
 11201  5416 2895702.27   61  123 1355289.59 3667699.06   171%   661 2474s
 11247  5449 2825318.72   76  109 1355289.59 3667699.06   171%   660 2483s
 11299  5473 2768592.92   79  107 1355289.59 3667699.06   171%   659 2492s
 11358  5498 2632115.82   87  114 1355289.59 3667699.06   171%   659 2502s
 11408  5531 2517729.96  102  109 1355289.59 3667699.06   171%   659 2511s
 11480  5574 2410242.57  116  112 1355289.59 3667699.06   171%   658 2520s
 11600  5628 1711268.49  130   75 1355289.59 3667699.06   171%   653 2531s
 11701  5649 1775968.65  143   89 1355289.59 3667699.06   171%   652 2549s
 11765  5666 3667699.06   37  175 1355289.59 3667699.06   171%   654 2559s
 11889  5698 2749473.10   78  131 1355289.59 3667699.06   171%   651 2572s
 12066  5776 2680670.16   45  109 1355289.59 3667699.06   171%   647 2583s
 12152  5824 3246732.27   39  173 1355289.59 3667699.06   171%   646 2595s
 12252  5871 2268018.38   61  114 1355289.59 3667699.06   171%   646 2610s
 12345  5911 3532924.48   46  125 1355289.59 3667699.06   171%   646 2622s
 12478  5960 2114927.58   77   93 1355289.59 3667699.06   171%   644 2635s
 12577  5998 2601860.38   40  115 1355289.59 3667699.06   171%   644 2650s
 12637  6015 1522146.44   43  100 1355289.59 3667699.06   171%   647 2664s
 12773  6058 3249108.44   51  107 1355289.59 3667699.06   171%   646 2677s
 12857  6087     cutoff   56      1355289.59 3667699.06   171%   647 2691s
 12959  6129 3667699.06   33  121 1355289.59 3667699.06   171%   647 2707s
 13056  6173 1926345.37   36  122 1355289.59 3667699.06   171%   649 2724s
 13147  6225 2630232.61   68   80 1355289.59 3667699.06   171%   651 2742s
 13315  6287 3194501.81   50  131 1355289.59 3667699.06   171%   649 2759s
 13475  6361 2800926.04   79  120 1355289.59 3667699.06   171%   648 2776s
 13653  6433 3635434.72   45  140 1355289.59 3667699.06   171%   647 2794s
 13862  6491 2862389.60   45  137 1355289.59 3667699.06   171%   646 2819s
 14030  6526 2359482.74   54  106 1355289.59 3667699.06   171%   646 2838s
 14188  6608 1384355.49   42   82 1355289.59 3667699.06   171%   646 2859s
 14279  6642 1798274.30   44   86 1355289.59 3667699.06   171%   650 2882s
 14386  6684 3056136.10   45  145 1355289.59 3667699.06   171%   653 2903s
 14552  6745 2643102.17   56  121 1355289.59 3667699.06   171%   654 2928s
H14660  6513                    1355289.5900 3667699.06   171%   657 2928s
 14770  6572 3466640.66   39  139 1355289.59 3667699.06   171%   655 2952s
 14905  6615 2262870.15   56  112 1355289.59 3667699.06   171%   657 2980s
 15074  6683 2735801.67   48  107 1355289.59 3667699.06   171%   659 3007s
 15284  6774 3667699.06   46  166 1355289.59 3667699.06   171%   658 3035s
 15391  6806 2086980.60   67  120 1355289.59 3667699.06   171%   662 3065s
 15658  6903 3130288.06   51  136 1355289.59 3667699.06   171%   661 3094s
 15824  6951 3213423.80   41  127 1355289.59 3667699.06   171%   663 3125s
 16227  7091 2202654.84   55  128 1355289.59 3667699.06   171%   657 3156s
 16406  7145 2992081.53   50  111 1355289.59 3667699.06   171%   660 3193s
 16716  7290 3201118.84   41  119 1355289.59 3667699.06   171%   658 3231s
 16843  7341 1926326.46   49   96 1355289.59 3667699.06   171%   662 3265s
 17111  7425 2238759.23   50  112 1355289.59 3667699.06   171%   663 3302s
 17511  7564 3020083.08   52  125 1355289.59 3667699.06   171%   660 3339s
 17973  7756 3667699.06   34  141 1355289.59 3667699.06   171%   655 3378s
 18323  7910 2001366.93  112   98 1355289.59 3667699.06   171%   654 3418s
 18855  8139 2961112.69   51  132 1355289.59 3667699.06   171%   649 3459s
 19199  8238 3450233.48   49  147 1355289.59 3667699.06   171%   651 3508s
 19545  8366 2997602.25   49  121 1355289.59 3667699.06   171%   651 3555s
 19919  8493 3253311.06   51  132 1355289.59 3667699.06   171%   650 3601s
 20293  8604 2625844.71   51  123 1355289.59 3665964.91   170%   652 3650s
 20749  8755 1817393.78   80  160 1355289.59 3662924.45   170%   653 4117s
 20757  8760 2950687.78   49  187 1355289.59 3260989.48   141%   652 4120s
 20787  8780 2097735.53   82  219 1355289.59 3176569.22   134%   651 4126s
 20805  8792 1982462.45   50  244 1355289.59 3124138.16   131%   651 4130s
 20829  8808 2007128.52   95  239 1355289.59 3066013.26   126%   650 4136s
 20852  8824 1916102.46   77  270 1355289.59 3043771.20   125%   649 4140s
 20870  8836 2362888.80   59  259 1355289.59 3027299.19   123%   649 4145s
 20893  8851 1597900.83   75  288 1355289.59 2990826.94   121%   648 4151s
 20914  8865 2373076.43   66  273 1355289.59 2945807.34   117%   647 4155s
 20928  8874 1952638.91   51  276 1355289.59 2896842.63   114%   647 4160s
 20952  8890 1916102.46   77  282 1355289.59 2877672.83   112%   646 4165s
 20971  8903 2870119.33   50  295 1355289.59 2870119.33   112%   646 4170s
 20987  8914 2097735.53   82  319 1355289.59 2867140.43   112%   645 4175s
 21001  8923 2157053.45  105  333 1355289.59 2863444.04   111%   645 4181s
 21017  8934 2859505.57   50  321 1355289.59 2859505.57   111%   644 4185s
 21034  8945 1478116.42  118  298 1355289.59 2852299.17   110%   644 4190s
 21046  8953 2494286.48   64  322 1355289.59 2850544.08   110%   643 4195s
 21055  8959 1916923.36   64  310 1355289.59 2850112.08   110%   643 4200s
 21073  8971 2845522.82   59  305 1355289.59 2845522.82   110%   643 4205s
 21088  8981 2582146.81   64  313 1355289.59 2842776.53   110%   642 4210s
 21100  8989 2042425.24   73  311 1355289.59 2839541.59   110%   642 4215s
 21122  9004 1776280.80   57  319 1355289.59 2831063.66   109%   641 4220s
 21136  9013 2824778.33   50  313 1355289.59 2824778.33   108%   641 4225s
 21152  9024 1916102.46   77  344 1355289.59 2821854.93   108%   640 4231s
 21160  9029 1588092.46   75  321 1355289.59 2818517.36   108%   640 4235s
 21172  9037 1494548.94   83  326 1355289.59 2817024.55   108%   639 4240s
 21174  9038 2817024.55   73  326 1355289.59 2817024.55   108%   639 4246s
 21175  9042 2810631.26   40  313 1355289.59 2810933.66   107%   643 4257s
 21177  9045 2770389.61   41  325 1355289.59 2803401.72   107%   643 4267s
 21181  9048 2763898.90   42  321 1355289.59 2763898.90   104%   643 4272s
 21185  9051 1812241.71   42  252 1355289.59 2763891.65   104%   643 4278s
 21189  9053 2750035.26   43  315 1355289.59 2763772.37   104%   643 4283s
 21193  9056 2645318.66   43  233 1355289.59 2750028.37   103%   643 4287s
 21197  9059 2731867.12   44  275 1355289.59 2750026.15   103%   644 4291s
 21201  9058 2714181.01   44  285 1355289.59 2731856.37   102%   644 4295s
 21210  9065 2639200.09   45  257 1355289.59 2731856.37   102%   644 4302s
 21215  9063 2697596.39   46  293 1355289.59 2731856.37   102%   644 4307s
 21224  9072 2681332.88   47  266 1355289.59 2731856.37   102%   644 4312s
 21231  9076 2586687.81   47  233 1355289.59 2731856.37   102%   644 4315s
 21243  9079 2615421.69   49  271 1355289.59 2731856.37   102%   645 4323s
 21254  9092 2580530.89   50  237 1355289.59 2731856.37   102%   645 4329s
 21265  9100 2566328.45   51  243 1355289.59 2731856.37   102%   645 4334s
 21277  9096 2536147.11   52  267 1355289.59 2731856.37   102%   645 4337s
 21292  9108 2533827.27   53  255 1355289.59 2731856.37   102%   646 4341s
 21326  9120 2392031.80   55  241 1355289.59 2731856.37   102%   646 4347s
 21381  9130 1795983.66   58  245 1355289.59 2731856.37   102%   645 4354s
 21409  9130     cutoff   60      1355289.59 2731856.37   102%   645 4356s
 21457  9142 2235738.68   63  256 1355289.59 2731856.37   102%   645 4362s
 21482  9148     cutoff   64      1355289.59 2731856.37   102%   645 4366s
 21511  9157 2216276.64   66  240 1355289.59 2731856.37   102%   645 4370s
 21579  9154 1941732.80   69  221 1355289.59 2731856.37   102%   644 4376s
 21613  9150 1398822.90   72  181 1355289.59 2700259.32  99.2%   644 4380s
 21646  9164 2190493.09   48  199 1355289.59 2700259.32  99.2%   644 4386s
 21677  9166 1598554.36   53  201 1355289.59 2683542.24  98.0%   644 4390s
 21763  9190 2211572.33   51  232 1355289.59 2683542.24  98.0%   644 4395s
 21846  9219 1960155.80   76  193 1355289.59 2683542.24  98.0%   643 4403s
 21901  9229 1555969.63  101  174 1355289.59 2653816.46  95.8%   643 4408s
 21940  9246 2008680.06   49  215 1355289.59 2646332.28  95.3%   643 4411s
 21985  9263 1828274.32   52  140 1355289.59 2646332.28  95.3%   642 4415s
 22135  9292 2468288.66   51  245 1355289.59 2625686.84  93.7%   641 4423s
 22184  9308 2073760.83   58  269 1355289.59 2625686.84  93.7%   641 4427s
 22229  9328 1915868.54   74  222 1355289.59 2625686.84  93.7%   641 4432s
 22270  9350 1729079.27   93  225 1355289.59 2611268.26  92.7%   641 4439s
 22340  9361 2198250.54   55  243 1355289.59 2605383.87  92.2%   641 4443s
 22424  9404 1876122.98   81  271 1355289.59 2581552.36  90.5%   640 4449s
 22494  9406 2499953.55   50  271 1355289.59 2581552.36  90.5%   640 4454s
 22576  9436 2360807.97   64  243 1355289.59 2581552.36  90.5%   640 4461s
 22669  9477 2208467.53   84  214 1355289.59 2581552.36  90.5%   640 4468s
 22749  9515 1539866.29  101  216 1355289.59 2570403.93  89.7%   640 4475s
 22820  9525 2242070.67   57  170 1355289.59 2559240.81  88.8%   640 4481s
 22912  9578 1999434.77   71  198 1355289.59 2559240.81  88.8%   640 4489s
 23020  9615 1522738.79   87  181 1355289.59 2555893.14  88.6%   640 4497s
 23060  9618 2341565.03   53  193 1355289.59 2555893.14  88.6%   640 4505s
 23135  9638     cutoff   57      1355289.59 2547912.95  88.0%   641 4514s
 23253  9656 2057129.72   52  236 1355289.59 2547912.95  88.0%   640 4524s
 23355  9677 1583039.83   67  209 1355289.59 2543183.19  87.6%   640 4534s
 23467  9717 2180166.63   65  222 1355289.59 2540317.81  87.4%   640 4546s
 23600  9737 1641902.02   57  236 1355289.59 2525294.92  86.3%   640 4556s
 23721  9768 2109793.65   71  204 1355289.59 2522533.25  86.1%   640 4565s
 23835  9779 2011043.07   58  205 1355289.59 2516149.50  85.7%   640 4575s
 23993  9858 2265523.92   54  218 1355289.59 2515415.47  85.6%   639 4586s
 24124  9909 2349787.04   53  231 1355289.59 2510804.06  85.3%   639 4599s
 24269  9962 2038516.27   82  223 1355289.59 2501009.58  84.5%   639 4611s
 24415 10013 2285261.34   62  241 1355289.59 2499708.78  84.4%   639 4623s
 24567 10051 2053344.87   70  201 1355289.59 2490599.04  83.8%   639 4636s
 24754 10097 2344377.80   67  268 1355289.59 2488570.83  83.6%   638 4649s
 24922 10151 1791322.93  104  223 1355289.59 2488132.21  83.6%   638 4664s
 25059 10171 1728935.30   75  203 1355289.59 2479631.34  83.0%   638 4678s
 25222 10222 1945130.43   66  200 1355289.59 2473255.95  82.5%   638 4695s
 25402 10274 1872322.97   51  191 1355289.59 2467361.63  82.1%   638 4712s
 25664 10351 1655377.41   72  159 1355289.59 2461207.98  81.6%   637 4725s
 25871 10420 1775270.11   54  209 1355289.59 2460586.56  81.6%   636 4744s
 26104 10457     cutoff   54      1355289.59 2449952.29  80.8%   636 4762s
 26319 10520 2264235.81   79  228 1355289.59 2436912.61  79.8%   636 4776s
 26563 10611 1514170.78   71  149 1355289.59 2431954.16  79.4%   634 4798s
 26794 10678 1860597.22   65  208 1355289.59 2428627.89  79.2%   635 4818s
 27065 10776 2067649.24   95  187 1355289.59 2424018.50  78.9%   634 4840s
 27384 10892 1938600.70   82  223 1355289.59 2418640.92  78.5%   633 4859s
 27439 10902 infeasible   56      1355289.59 2415022.10  78.2%   633 4881s
 27793 11017 1929055.58   54  153 1355289.59 2406074.10  77.5%   632 4903s
 28117 11083 1403009.85   92  190 1355289.59 2401460.81  77.2%   631 4923s
 28411 11131 1619179.90   52  157 1355289.59 2397358.83  76.9%   631 4948s
 28760 11167 1610006.53   67  212 1355289.59 2389720.55  76.3%   630 4968s
 29103 11211     cutoff   82      1355289.59 2379889.86  75.6%   630 4996s
 29402 11285 2013171.43   83  158 1355289.59 2376617.07  75.4%   630 5020s
 29799 11458 1766165.79   94  190 1355289.59 2371020.58  74.9%   629 5049s
 30195 11557 1761915.01   58  222 1355289.59 2364868.45  74.5%   627 5079s
 30627 11641 1701175.66   75  235 1355289.59 2359418.35  74.1%   626 5110s
 31028 11722 1617714.44   70  178 1355289.59 2354306.05  73.7%   626 5148s
 31490 11857 1471920.06   72  217 1355289.59 2347919.76  73.2%   625 5182s
 31950 11910 1399421.05   88  193 1355289.59 2341673.53  72.8%   624 5216s
 32463 11992 1518244.57   71  216 1355289.59 2336981.30  72.4%   623 5248s
 32920 11998 1707185.64   76  158 1355289.59 2331524.90  72.0%   622 5279s
 33368 12045     cutoff   54      1355289.59 2326494.72  71.7%   622 5313s
 33799 12077 1868472.00   83  210 1355289.59 2320439.28  71.2%   621 5346s
 34225 12089 1863445.67   91  218 1355289.59 2317410.53  71.0%   621 5376s
 34753 12127 1963805.29   63  185 1355289.59 2309811.43  70.4%   620 5408s
 35238 12233 1811251.01   57  260 1355289.59 2305537.62  70.1%   618 5434s
 35628 12275     cutoff   71      1355289.59 2301889.43  69.8%   619 5463s
 36038 12262 1608693.28   85  215 1355289.59 2297830.22  69.5%   619 5494s
 36578 12369 2139309.18   68  230 1355289.59 2290862.18  69.0%   617 5523s
 36953 12441     cutoff   61      1355289.59 2288154.05  68.8%   617 5553s
 37395 12530 1612065.63   98  229 1355289.59 2284412.56  68.6%   617 5584s
 37866 12561 1693149.86   48  282 1355289.59 2278648.72  68.1%   616 5614s
 38266 12620 1787850.83   84  212 1355289.59 2271467.20  67.6%   616 5645s
 38745 12678     cutoff   56      1355289.59 2266265.67  67.2%   615 5678s
 39230 12690 2168914.80   53  195 1355289.59 2262869.35  67.0%   614 5708s
 39635 12682     cutoff   89      1355289.59 2254909.27  66.4%   614 5737s
 40027 12683 1784139.78   89  235 1355289.59 2252359.80  66.2%   614 5766s
H40444 12245                    1355289.5902 2247479.32  65.8%   614 5795s
 40829 12265 1535711.37   71  168 1355289.59 2241255.92  65.4%   614 5821s
 41246 12330 1518555.27   67  136 1355289.59 2238859.40  65.2%   613 5853s
 41634 12359 1955092.86   56  168 1355289.59 2234938.25  64.9%   613 5884s
 42024 12401 1556396.53   85  156 1355289.59 2231430.13  64.6%   613 5915s
 42430 12424 1733091.05   95  210 1355289.59 2226616.47  64.3%   612 5945s
 42842 12480     cutoff   76      1355289.59 2223464.92  64.1%   611 5974s
 43215 12533     cutoff   63      1355289.59 2219230.97  63.7%   611 6002s
 43496 12558 2106722.99   66  289 1355289.59 2216517.57  63.5%   612 6035s
 43807 12546 1950298.76   84  272 1355289.59 2215843.40  63.5%   612 6066s
 44272 12626 1632271.38   54  180 1355289.59 2212670.88  63.3%   611 6097s
 44638 12596     cutoff   64      1355289.59 2208491.83  63.0%   612 6128s
 45088 12660 1488684.86   68  205 1355289.59 2204557.07  62.7%   611 6154s
 45364 12628 1816993.16   53  255 1355289.59 2201483.15  62.4%   612 6183s
 45771 12576 1827875.87   66  223 1355289.59 2195810.27  62.0%   612 6213s
 46210 12553     cutoff   89      1355289.59 2191572.34  61.7%   612 6243s
 46730 12614     cutoff   60      1355289.59 2187300.77  61.4%   611 6273s
 47120 12652     cutoff   65      1355289.59 2184783.94  61.2%   611 6300s
 47575 12842     cutoff   64      1355289.59 2177265.58  60.6%   610 6331s
 48109 13065 1588126.52   92  224 1355289.59 2173870.93  60.4%   609 6362s
 48498 13195 1839496.98   63  172 1355289.59 2170662.12  60.2%   609 6391s
 48850 13300 1945003.09   64  171 1355289.59 2166180.30  59.8%   609 6422s
 49371 13455 1914920.77   58  117 1355289.59 2161024.87  59.5%   607 6452s
 49801 13653 2051928.08   75  239 1355289.59 2157421.16  59.2%   607 6482s
 50257 13755     cutoff  102      1355289.59 2154725.83  59.0%   607 6510s
 50752 13968     cutoff   68      1355289.59 2149631.87  58.6%   606 6538s
 51173 14120 2023798.87   54  230 1355289.59 2144249.25  58.2%   606 6569s
 51653 14247 1733841.65   68  221 1355289.59 2142501.00  58.1%   605 6603s
 52089 14401 1720443.38   57  172 1355289.59 2136919.62  57.7%   605 6630s
 52494 14523 1453948.95   63  197 1355289.59 2131811.54  57.3%   604 6656s
 52884 14636 1766750.10   64  190 1355289.59 2128233.88  57.0%   605 6685s
 53388 14802 1426407.63   63  168 1355289.59 2125159.94  56.8%   604 6715s
 53883 14931 1596373.05   89  220 1355289.59 2120142.60  56.4%   603 6742s
 54345 15076 1555972.46   59  235 1355289.59 2116917.73  56.2%   602 6772s
 54765 15121 1764835.96   73  219 1355289.59 2113857.13  56.0%   602 6800s
 55236 15316 1391065.26   97  184 1355289.59 2109856.85  55.7%   601 6827s
 55576 15358 1637761.93  102  218 1355289.59 2104902.79  55.3%   601 6854s
 55984 15502 1446495.76   68  134 1355289.59 2101434.63  55.1%   601 6880s
 56383 15636 1841551.50   56  203 1355289.59 2098241.48  54.8%   600 6909s
 56843 15789     cutoff   60      1355289.59 2094433.07  54.5%   599 6937s
 57235 15888     cutoff   50      1355289.59 2089134.99  54.1%   600 6965s
 57695 16039     cutoff   93      1355289.59 2083849.31  53.8%   599 6993s
 58106 16190 1566172.30   74  237 1355289.59 2080252.21  53.5%   599 7021s
 58613 16370 1602435.65   74  207 1355289.59 2075992.20  53.2%   597 7049s
 59099 16523 1890355.21   52  208 1355289.59 2070596.27  52.8%   596 7075s
 59521 16624 1773189.93   63  187 1355289.59 2068278.70  52.6%   596 7099s
 59870 16724     cutoff   67      1355289.59 2063086.45  52.2%   596 7126s
 60320 16862     cutoff   74      1355289.59 2062018.10  52.1%   595 7151s
 60707 16951     cutoff   73      1355289.59 2056292.36  51.7%   594 7178s
 61078 17030 1667099.74   81  124 1355289.59 2053722.51  51.5%   594 7204s
 61619 17258 1791795.44   83  152 1355289.59 2051074.55  51.3%   593 7229s
 61978 17308 1678019.59   65  178 1355289.59 2046559.93  51.0%   593 7252s
 62298 17367     cutoff   99      1355289.59 2044082.81  50.8%   593 7278s
 62809 17480 1392548.15   79  222 1355289.59 2040135.40  50.5%   592 7300s
 63241 17610 2009467.95   54  185 1355289.59 2036012.10  50.2%   591 7325s
 63713 17713 1900520.93   66  240 1355289.59 2033334.53  50.0%   590 7350s
H63858 17779                    1355289.6603 2032980.11  50.0%   590 7350s
 64066 17806 1494827.83   87  175 1355289.66 2030411.41  49.8%   590 7374s
 64353 17862 1772650.38   67  121 1355289.66 2026960.23  49.6%   590 7397s
 64755 17949 1694643.56   58  147 1355289.66 2025298.09  49.4%   589 7416s
 65039 18006 1734666.67   75  239 1355289.66 2023481.94  49.3%   589 7438s
 65273 18030 1454033.76   85  148 1355289.66 2022317.94  49.2%   589 7465s
 65733 18130 1862595.78   65  175 1355289.66 2016992.24  48.8%   588 7491s
 66208 18278 1913915.16   57  228 1355289.66 2012232.51  48.5%   587 7517s
 66601 18405     cutoff   81      1355289.66 2009548.75  48.3%   587 7538s
 66957 18474     cutoff   66      1355289.66 2006423.96  48.0%   586 7562s
 67350 18524     cutoff   82      1355289.66 2003544.78  47.8%   586 7587s
 67639 18549 1390859.40   80  195 1355289.66 1998796.66  47.5%   586 7613s
 68098 18656     cutoff   56      1355289.66 1996238.61  47.3%   586 7639s
 68477 18740 1613866.52   65  139 1355289.66 1992571.07  47.0%   585 7665s
 68939 18927 1413753.89   56  105 1355289.66 1989881.61  46.8%   584 7685s
 69267 18952 1384225.56   59  114 1355289.66 1988818.47  46.7%   584 7710s
 69646 19031 1379503.68   65  174 1355289.66 1985060.32  46.5%   583 7735s
 69931 19022     cutoff   59      1355289.66 1981351.42  46.2%   584 7758s
 70289 19090     cutoff   82      1355289.66 1977938.39  45.9%   583 7783s
 70702 19118 1368112.42   81  153 1355289.66 1975290.61  45.7%   583 7807s
 71019 19154     cutoff   84      1355289.66 1972539.52  45.5%   582 7831s
 71420 19261 1375817.31   64  139 1355289.66 1969746.64  45.3%   582 7855s
 71761 19320 1582223.44   64  182 1355289.66 1966602.61  45.1%   581 7879s
 72246 19326     cutoff   55      1355289.66 1963586.89  44.9%   580 7901s
 72612 19348 1390896.43   76  118 1355289.66 1960672.68  44.7%   580 7925s
 72886 19363     cutoff   75      1355289.66 1958225.73  44.5%   579 7947s
 73330 19466 1647975.67   65  188 1355289.66 1955605.76  44.3%   579 7970s
 73766 19582 1527196.17   89  180 1355289.66 1953905.30  44.2%   578 7994s
 74086 19637     cutoff   73      1355289.66 1951518.41  44.0%   578 8018s
 74513 19727 1462221.45   47  212 1355289.66 1948300.74  43.8%   577 8041s
 74920 19808 1610778.33   67  138 1355289.66 1946628.91  43.6%   577 8060s
 75325 19888 1514753.96   73  136 1355289.66 1944594.51  43.5%   576 8079s
 75695 19892 1530211.62   62  175 1355289.66 1941920.48  43.3%   575 8103s
 75987 19922     cutoff   82      1355289.66 1938494.27  43.0%   575 8123s
 76405 19965     cutoff   57      1355289.66 1935966.46  42.8%   574 8143s
 76819 20071 1727171.80   60  188 1355289.66 1933902.70  42.7%   573 8160s
 77001 20062 1653937.72   54  189 1355289.66 1933343.17  42.7%   573 8180s
 77406 20109 1502707.63   55  117 1355289.66 1930089.20  42.4%   573 8203s
 77725 20081     cutoff   63      1355289.66 1927425.56  42.2%   573 8222s
 77989 20083     cutoff   65      1355289.66 1924580.56  42.0%   573 8244s
 78316 20115     cutoff  106      1355289.66 1921863.01  41.8%   573 8265s
 78627 20158     cutoff   69      1355289.66 1919452.69  41.6%   572 8282s
 78859 20121     cutoff   74      1355289.66 1916881.50  41.4%   572 8297s
 79158 20165 1380409.23   86  164 1355289.66 1914811.41  41.3%   571 8314s
 79483 20215     cutoff   72      1355289.66 1912193.68  41.1%   571 8337s
 79898 20311 1485760.20   52  123 1355289.66 1910248.32  40.9%   570 8352s
 80160 20310     cutoff   79      1355289.66 1907056.42  40.7%   570 8362s
 80403 20277     cutoff   77      1355289.66 1904591.85  40.5%   570 8380s
 80674 20266 1386500.45   65  162 1355289.66 1901622.22  40.3%   569 8392s
 80934 20262 1739690.97   60  126 1355289.66 1899047.15  40.1%   569 8408s
 81251 20274     cutoff  102      1355289.66 1896793.24  40.0%   568 8422s
 81495 20251 1891305.23   55  171 1355289.66 1894369.16  39.8%   568 8436s
 81770 20246     cutoff   67      1355289.66 1892106.88  39.6%   568 8453s
 82131 20292     cutoff   54      1355289.66 1889869.45  39.4%   567 8467s
 82379 20279     cutoff   69      1355289.66 1887370.07  39.3%   567 8489s
 82705 20294     cutoff   70      1355289.66 1885704.70  39.1%   566 8513s
 82993 20317     cutoff  108      1355289.66 1883365.34  39.0%   566 8534s
 83391 20356 1749581.17   59  212 1355289.66 1881291.36  38.8%   565 8552s
 83750 20399     cutoff   83      1355289.66 1878868.62  38.6%   564 8567s
 84173 20488 1804217.62   66  142 1355289.66 1876667.41  38.5%   562 8586s
 84469 20478     cutoff   66      1355289.66 1875370.34  38.4%   562 8606s
 84794 20493 1383840.54   58  145 1355289.66 1872858.63  38.2%   562 8619s
 85014 20453     cutoff   56      1355289.66 1870850.10  38.0%   561 8635s
 85321 20442     cutoff   60      1355289.66 1868973.70  37.9%   561 8648s
 85493 20403     cutoff   64      1355289.66 1866815.26  37.7%   561 8668s
 85728 20382     cutoff   77      1355289.66 1864714.73  37.6%   560 8688s
 86046 20411     cutoff   60      1355289.66 1862866.66  37.5%   560 8705s
 86297 20381     cutoff   68      1355289.66 1860991.11  37.3%   560 8722s
 86651 20418 1760029.62   52  212 1355289.66 1858916.31  37.2%   559 8740s
 86906 20392     cutoff   90      1355289.66 1856784.48  37.0%   559 8755s
 87202 20397     cutoff   62      1355289.66 1855015.25  36.9%   558 8771s
 87535 20454     cutoff   84      1355289.66 1853233.59  36.7%   557 8785s
 87844 20498 1818420.66   67  143 1355289.66 1851253.07  36.6%   556 8801s
 88244 20573 1699677.58   60  175 1355289.66 1849290.25  36.4%   555 8821s
 88630 20608     cutoff   52      1355289.66 1846711.90  36.3%   554 8839s
 89044 20697 1800081.35   76  182 1355289.66 1844552.08  36.1%   553 8857s
 89390 20738 1610955.88   64  178 1355289.66 1843051.78  36.0%   553 8872s
 89758 20807     cutoff   71      1355289.66 1841143.70  35.8%   552 8885s
 90073 20848     cutoff   59      1355289.66 1839503.66  35.7%   552 8901s
 90415 20879 1682863.36   78  165 1355289.66 1837486.43  35.6%   551 8916s
 90688 20906     cutoff   81      1355289.66 1835002.06  35.4%   550 8934s
 90982 20896     cutoff   95      1355289.66 1833335.42  35.3%   550 8954s
 91262 20868     cutoff  105      1355289.66 1830859.46  35.1%   550 8966s
 91486 20830     cutoff   76      1355289.66 1828602.60  34.9%   549 8977s
 91687 20795     cutoff   69      1355289.66 1826277.01  34.8%   549 8995s
 91997 20779     cutoff   59      1355289.66 1824556.29  34.6%   548 9009s
 92257 20777     cutoff   69      1355289.66 1822518.10  34.5%   548 9023s
 92532 20795     cutoff   74      1355289.66 1820647.92  34.3%   547 9041s
 92907 20874     cutoff   70      1355289.66 1818808.33  34.2%   547 9054s
 93163 20867 1475947.48   82  166 1355289.66 1816944.26  34.1%   546 9063s
 93442 20870 1439208.34   71  138 1355289.66 1814725.17  33.9%   546 9082s
 93797 20961 1758345.70   71  180 1355289.66 1812812.00  33.8%   545 9100s
 94072 21007     cutoff   81      1355289.66 1812071.92  33.7%   545 9114s
 94350 21027 1766745.38   81  238 1355289.66 1809953.15  33.5%   544 9130s
 94661 21043     cutoff   63      1355289.66 1807866.99  33.4%   544 9145s
 94959 21045 1580719.05   55  210 1355289.66 1805841.32  33.2%   544 9154s
 95171 21000     cutoff   80      1355289.66 1804275.92  33.1%   543 9166s
 95384 20980 1780519.99   52  178 1355289.66 1802530.10  33.0%   543 9184s
 95668 20982     cutoff   74      1355289.66 1800860.90  32.9%   543 9203s
 95977 21022     cutoff   60      1355289.66 1798982.10  32.7%   542 9217s
 96311 21085     cutoff   76      1355289.66 1796760.13  32.6%   541 9234s
 96651 21129 1445205.59   83  226 1355289.66 1795849.49  32.5%   541 9250s
 96984 21113     cutoff   80      1355289.66 1793844.53  32.4%   540 9265s
 97296 21140     cutoff   73      1355289.66 1792495.89  32.3%   540 9276s
 97568 21148 1620225.23   76  140 1355289.66 1791004.67  32.1%   539 9285s
 97754 21108     cutoff   69      1355289.66 1789464.83  32.0%   539 9298s
 98024 21124     cutoff   81      1355289.66 1788059.70  31.9%   538 9314s
 98261 21103 1754822.68   62  265 1355289.66 1787203.45  31.9%   538 9325s
 98520 21093 1432945.07   68  251 1355289.66 1785563.17  31.7%   538 9341s
 98795 21096 1523983.59   86  125 1355289.66 1783931.02  31.6%   537 9358s
 99098 21148     cutoff   64      1355289.66 1782240.89  31.5%   537 9375s
 99335 21141     cutoff   49      1355289.66 1781383.10  31.4%   537 9386s
 99566 21130     cutoff   66      1355289.66 1779619.65  31.3%   536 9401s
 99849 21149 1370500.68   94  141 1355289.66 1778526.12  31.2%   536 9415s
 100130 21176     cutoff   93      1355289.66 1776429.93  31.1%   536 9424s
 100339 21130     cutoff   83      1355289.66 1775125.44  31.0%   535 9439s
 100617 21151     cutoff   72      1355289.66 1773532.51  30.9%   535 9454s
 100881 21150     cutoff   56      1355289.66 1772118.39  30.8%   534 9470s
 101184 21174     cutoff   58      1355289.66 1770440.37  30.6%   534 9486s
 101486 21168 1697614.30   63  150 1355289.66 1768859.91  30.5%   533 9498s
 101749 21158     cutoff   61      1355289.66 1767198.88  30.4%   533 9512s
 101999 21124 1522156.33   57  166 1355289.66 1765700.83  30.3%   532 9520s
 102190 21091     cutoff   59      1355289.66 1764197.73  30.2%   532 9536s
 102375 21048     cutoff   87      1355289.66 1762823.41  30.1%   532 9549s
 102664 21050 1638766.69   59  123 1355289.66 1761494.75  30.0%   532 9562s
 102932 21067 1754646.06   68  242 1355289.66 1760510.46  29.9%   531 9575s
 103228 21115 1659113.46   84  193 1355289.66 1758649.21  29.8%   531 9592s
 103468 21094     cutoff   59      1355289.66 1757351.00  29.7%   530 9605s
 103778 21143     cutoff   71      1355289.66 1756237.33  29.6%   530 9614s
 103996 21103 1672412.03   64  209 1355289.66 1754946.33  29.5%   529 9628s
 104298 21113     cutoff   65      1355289.66 1753603.65  29.4%   529 9645s
 104706 21219     cutoff   93      1355289.66 1752363.91  29.3%   528 9660s
 104916 21184     cutoff   62      1355289.66 1751983.69  29.3%   528 9672s
 105349 21304     cutoff   79      1355289.66 1750044.40  29.1%   526 9686s
 105660 21310     cutoff   96      1355289.66 1748766.84  29.0%   526 9698s
 105968 21327     cutoff   89      1355289.66 1747344.41  28.9%   525 9709s
 106308 21373     cutoff   66      1355289.66 1746109.51  28.8%   525 9717s
 106451 21318     cutoff   60      1355289.66 1744599.79  28.7%   525 9726s
 106611 21257     cutoff   77      1355289.66 1743358.50  28.6%   524 9736s
 106875 21254     cutoff   78      1355289.66 1742056.41  28.5%   524 9747s
 107102 21239 1677806.62   47  249 1355289.66 1740942.42  28.5%   523 9763s
 107279 21198     cutoff   71      1355289.66 1739450.52  28.3%   523 9770s
 107405 21126     cutoff   65      1355289.66 1738082.60  28.2%   523 9783s
 107679 21110 1434955.92   70  133 1355289.66 1736957.06  28.2%   523 9793s
 108009 21110     cutoff   76      1355289.66 1735499.61  28.1%   522 9809s
 108318 21163     cutoff   72      1355289.66 1734273.63  28.0%   521 9818s
 108604 21141     cutoff   84      1355289.66 1733286.16  27.9%   521 9828s
 108907 21135 1666096.38  100   78 1355289.66 1732054.38  27.8%   520 9836s
 109110 21094 1594499.87   88  172 1355289.66 1730756.74  27.7%   520 9849s
H109261 21127                    1355290.4299 1729397.21  27.6%   520 9849s
 109284 21059     cutoff   59      1355290.43 1729373.37  27.6%   520 9860s
 109480 21021     cutoff   87      1355290.43 1728277.51  27.5%   520 9872s
 109735 21025     cutoff   62      1355290.43 1727253.79  27.4%   519 9887s
 110017 21024     cutoff   94      1355290.43 1726435.96  27.4%   518 9898s
 110198 20990     cutoff   67      1355290.43 1724783.47  27.3%   518 9912s
 110441 20991     cutoff   60      1355290.43 1723553.94  27.2%   518 9928s
 110725 21032     cutoff   67      1355290.43 1722934.22  27.1%   517 9943s
 110939 21012     cutoff   56      1355290.43 1722211.20  27.1%   517 9950s
 111119 20962     cutoff   63      1355290.43 1720680.48  27.0%   516 9967s
 111373 20943 1364845.84  109  126 1355290.43 1719446.91  26.9%   516 9973s
 111544 20879     cutoff   74      1355290.43 1718317.41  26.8%   516 9982s
 111793 20845     cutoff   82      1355290.43 1717281.40  26.7%   515 9991s
 112083 20827     cutoff   75      1355290.43 1716069.13  26.6%   515 9999s
 112308 20781     cutoff   80      1355290.43 1715010.40  26.5%   514 10009s
 112583 20765 1638536.89   83  174 1355290.43 1713597.62  26.4%   514 10018s
 112833 20762     cutoff   68      1355290.43 1712362.35  26.3%   513 10026s
 113039 20711     cutoff   57      1355290.43 1711255.43  26.3%   513 10033s
 113279 20705     cutoff   81      1355290.43 1710021.43  26.2%   512 10040s
 113490 20668     cutoff   63      1355290.43 1709018.39  26.1%   512 10047s
 113668 20628 1625883.88   61  193 1355290.43 1707976.68  26.0%   512 10063s
 113882 20572 1596172.37   84  179 1355290.43 1706711.22  25.9%   511 10075s
 114107 20552     cutoff   58      1355290.43 1705403.47  25.8%   511 10083s
 114391 20561     cutoff   63      1355290.43 1704353.90  25.8%   510 10092s
 114690 20547     cutoff   74      1355290.43 1703158.81  25.7%   510 10099s
 114883 20511     cutoff   60      1355290.43 1701883.09  25.6%   509 10107s
 115116 20506 1629321.45   49   53 1355290.43 1700804.87  25.5%   509 10113s
 115327 20480     cutoff   73      1355290.43 1699723.79  25.4%   508 10121s
 115625 20510     cutoff  108      1355290.43 1698686.03  25.3%   508 10130s
 115857 20482     cutoff   70      1355290.43 1697582.64  25.3%   507 10137s
 116035 20437     cutoff   65      1355290.43 1696374.78  25.2%   507 10148s
 116240 20390     cutoff   61      1355290.43 1695324.34  25.1%   507 10152s
 116403 20353     cutoff   68      1355290.43 1694152.50  25.0%   507 10165s
 116685 20350 1597089.77  102  142 1355290.43 1693848.78  25.0%   506 10177s
 116952 20316     cutoff   60      1355290.43 1692291.44  24.9%   506 10191s
 117141 20279     cutoff   64      1355290.43 1691260.49  24.8%   506 10201s
 117424 20258     cutoff   56      1355290.43 1690308.18  24.7%   505 10208s
 117627 20189     cutoff   86      1355290.43 1689290.40  24.6%   505 10220s
 117870 20188     cutoff   80      1355290.43 1688183.02  24.6%   504 10228s
 118108 20174 1611700.37   69  132 1355290.43 1687356.94  24.5%   504 10235s
 118288 20122     cutoff   71      1355290.43 1686275.07  24.4%   503 10246s
 118484 20079     cutoff   60      1355290.43 1685264.76  24.3%   503 10255s
 118736 20053     cutoff   92      1355290.43 1684180.66  24.3%   502 10260s
 118910 20022     cutoff   88      1355290.43 1683249.86  24.2%   502 10272s
 119150 20002     cutoff   62      1355290.43 1682571.70  24.1%   502 10278s
 119347 19984     cutoff   66      1355290.43 1681376.96  24.1%   501 10286s
 119508 19921 1359754.56   64  123 1355290.43 1680412.01  24.0%   501 10294s
 119764 19906 1656654.73   67  205 1355290.43 1679313.75  23.9%   501 10300s
 119964 19852     cutoff   73      1355290.43 1678317.70  23.8%   501 10309s
 120154 19788     cutoff   69      1355290.43 1677351.88  23.8%   500 10318s
 120353 19740     cutoff   61      1355290.43 1676303.48  23.7%   500 10329s
 120554 19708     cutoff   67      1355290.43 1675232.65  23.6%   500 10337s
 120792 19646     cutoff   75      1355290.43 1674197.63  23.5%   500 10344s
 120976 19592     cutoff   71      1355290.43 1672895.05  23.4%   499 10355s
 121189 19551     cutoff   60      1355290.43 1671712.94  23.3%   499 10364s
 121407 19542     cutoff  107      1355290.43 1670818.86  23.3%   499 10370s
 121551 19478     cutoff   62      1355290.43 1669643.57  23.2%   498 10378s
 121749 19430     cutoff   72      1355290.43 1668342.04  23.1%   498 10385s
 121973 19425     cutoff  149      1355290.43 1667526.68  23.0%   498 10399s
 122103 19372     cutoff   66      1355290.43 1667271.39  23.0%   498 10407s
 122315 19317     cutoff   62      1355290.43 1666036.25  22.9%   497 10412s
 122513 19255 1497509.27  127  156 1355290.43 1664907.28  22.8%   497 10424s
 122723 19210     cutoff   73      1355290.43 1663841.28  22.8%   497 10430s
 122907 19168 1422585.92   85  204 1355290.43 1662694.82  22.7%   496 10435s
 123041 19096     cutoff  105      1355290.43 1661682.88  22.6%   496 10444s
 123201 19035     cutoff   58      1355290.43 1660713.52  22.5%   496 10449s
 123342 18961     cutoff   78      1355290.43 1659879.61  22.5%   496 10459s
 123526 18904     cutoff   62      1355290.43 1658953.48  22.4%   495 10467s
 123715 18852     cutoff  154      1355290.43 1657897.19  22.3%   495 10473s
 123910 18801     cutoff  105      1355290.43 1656973.94  22.3%   495 10482s
 124110 18763     cutoff   71      1355290.43 1656125.00  22.2%   494 10488s
 124272 18711     cutoff   71      1355290.43 1655117.20  22.1%   494 10494s
 124473 18652     cutoff   64      1355290.43 1653997.65  22.0%   494 10501s
 124609 18581 1422360.03   52  112 1355290.43 1652987.52  22.0%   494 10506s
 124795 18534     cutoff   98      1355290.43 1652075.76  21.9%   493 10512s
 125026 18530     cutoff   79      1355290.43 1651184.62  21.8%   493 10523s
 125248 18505 1578791.98   51  225 1355290.43 1650163.98  21.8%   492 10530s
 125435 18465 1617235.66   69  130 1355290.43 1649200.65  21.7%   492 10535s
 125564 18399     cutoff   72      1355290.43 1648175.33  21.6%   492 10542s
 125829 18398     cutoff   70      1355290.43 1647174.75  21.5%   491 10549s
 126048 18377     cutoff   70      1355290.43 1646428.20  21.5%   491 10553s
 126320 18372     cutoff   64      1355290.43 1645308.87  21.4%   490 10560s
 126501 18318     cutoff   74      1355290.43 1644204.41  21.3%   490 10570s
 126691 18248 1455976.97   79  104 1355290.43 1643084.06  21.2%   490 10577s
 126900 18201     cutoff   57      1355290.43 1642100.02  21.2%   489 10588s
 127058 18142     cutoff   87      1355290.43 1641193.66  21.1%   489 10592s
 127174 18061     cutoff   60      1355290.43 1640235.86  21.0%   489 10604s
 127376 18009     cutoff   67      1355290.43 1639245.35  21.0%   488 10612s
 127576 17970     cutoff   83      1355290.43 1638476.89  20.9%   488 10617s
 127790 17923     cutoff   67      1355290.43 1637659.56  20.8%   488 10626s
 128017 17880     cutoff   69      1355290.43 1636589.12  20.8%   487 10633s
 128205 17806     cutoff   70      1355290.43 1635828.44  20.7%   487 10638s
 128443 17760 1589198.82   63  126 1355290.43 1634887.57  20.6%   487 10644s
 128654 17721     cutoff   63      1355290.43 1633868.04  20.6%   486 10652s
 128838 17660     cutoff   87      1355290.43 1632960.64  20.5%   486 10658s
 129000 17600     cutoff   71      1355290.43 1632053.34  20.4%   485 10662s
 129115 17522 1620460.93   70   79 1355290.43 1631300.51  20.4%   485 10668s
 129311 17483     cutoff   82      1355290.43 1630461.21  20.3%   485 10673s
 129563 17473     cutoff   73      1355290.43 1629607.75  20.2%   484 10683s
 129707 17407     cutoff   60      1355290.43 1628742.11  20.2%   484 10689s
 129855 17353 1500217.50   87  210 1355290.43 1627706.85  20.1%   484 10695s
 130006 17279     cutoff   75      1355290.43 1626659.81  20.0%   484 10705s
 130236 17248 1480906.92   77  105 1355290.43 1625850.22  20.0%   483 10713s
 130425 17194     cutoff   79      1355290.43 1624988.96  19.9%   483 10717s
 130569 17131 1373324.24   69  143 1355290.43 1624066.97  19.8%   483 10723s
 130751 17075 1586159.32   66  174 1355290.43 1623026.94  19.8%   482 10730s
 130943 17014     cutoff   67      1355290.43 1622149.69  19.7%   482 10736s
 131145 16975     cutoff  117      1355290.43 1621256.28  19.6%   482 10741s
 131316 16922     cutoff   61      1355290.43 1620331.02  19.6%   481 10747s
 131529 16888     cutoff   94      1355290.43 1619457.66  19.5%   481 10754s
 131783 16874     cutoff   68      1355290.43 1618637.09  19.4%   481 10762s
 131958 16816     cutoff   73      1355290.43 1617713.18  19.4%   480 10769s
 132094 16744     cutoff   72      1355290.43 1616892.42  19.3%   480 10776s
 132252 16674     cutoff   82      1355290.43 1615926.39  19.2%   480 10784s
 132406 16606     cutoff   80      1355290.43 1615054.31  19.2%   480 10788s
 132590 16560     cutoff   78      1355290.43 1614187.84  19.1%   479 10794s
 132839 16559     cutoff   93      1355290.43 1613474.74  19.1%   479 10804s
 133009 16493 1583514.62  114   74 1355290.43 1612666.08  19.0%   479 10809s
 133215 16445     cutoff   82      1355290.43 1612088.48  18.9%   478 10814s
 133386 16398     cutoff   57      1355290.43 1611273.53  18.9%   478 10820s
 133556 16338     cutoff   55      1355290.43 1610506.34  18.8%   478 10826s
 133791 16329     cutoff   75      1355290.43 1609718.54  18.8%   477 10832s
 133937 16261     cutoff   64      1355290.43 1608870.32  18.7%   477 10836s
 134058 16178     cutoff   70      1355290.43 1608150.00  18.7%   477 10842s
 134245 16130     cutoff  101      1355290.43 1607309.58  18.6%   477 10854s
 134417 16068 1361054.24   93   56 1355290.43 1606591.04  18.5%   476 10858s
 134570 15997     cutoff   74      1355290.43 1605776.01  18.5%   476 10868s
 134780 15956     cutoff   51      1355290.43 1605032.66  18.4%   476 10875s
 135143 15839     cutoff  105      1355290.43 1603325.68  18.3%   475 10885s
 135328 15780 1540909.25   98   90 1355290.43 1602534.50  18.2%   475 10893s
 135530 15740     cutoff   66      1355290.43 1601781.58  18.2%   474 10899s
 135686 15666     cutoff   56      1355290.43 1600927.52  18.1%   474 10902s
 135830 15611     cutoff   67      1355290.43 1600218.49  18.1%   474 10910s
 136064 15575     cutoff   75      1355290.43 1599405.37  18.0%   473 10915s
 136196 15500     cutoff   78      1355290.43 1598625.62  18.0%   473 10921s
 136600 15410     cutoff   77      1355290.43 1596886.01  17.8%   472 10929s
 136753 15345     cutoff   87      1355290.43 1595990.66  17.8%   472 10933s
 136959 15313     cutoff   83      1355290.43 1595380.80  17.7%   472 10937s
 137105 15244     cutoff  126      1355290.43 1594345.97  17.6%   472 10941s
 137226 15175     cutoff   72      1355290.43 1593567.52  17.6%   471 10948s
 137419 15118     cutoff   60      1355290.43 1592878.65  17.5%   471 10955s
 137742 14978     cutoff   73      1355290.43 1591406.77  17.4%   470 10969s
 137950 14939     cutoff   59      1355290.43 1590719.07  17.4%   470 10974s
 138118 14873     cutoff   95      1355290.43 1589871.63  17.3%   470 10981s
 138309 14834     cutoff   74      1355290.43 1588989.09  17.2%   470 10985s
 138576 14671     cutoff   93      1355290.43 1587631.64  17.1%   469 10991s
 138896 14533     cutoff  101      1355290.43 1586162.95  17.0%   469 11000s
 139204 14399 1459416.02   66  165 1355290.43 1584655.61  16.9%   468 11009s
 139356 14331     cutoff   68      1355290.43 1583851.51  16.9%   468 11015s
 139553 14265     cutoff  141      1355290.43 1582905.56  16.8%   467 11021s
 139726 14210     cutoff   88      1355290.43 1582165.94  16.7%   467 11026s
 139867 14143 1365590.21  121   78 1355290.43 1581254.96  16.7%   467 11031s
 140023 14083     cutoff   60      1355290.43 1580442.83  16.6%   467 11038s
 140167 14017 1450157.04   77  104 1355290.43 1579663.77  16.6%   467 11043s
 140298 13938     cutoff   73      1355290.43 1579044.34  16.5%   466 11046s
 140434 13861     cutoff   99      1355290.43 1578328.75  16.5%   466 11051s
 140741 13739     cutoff   71      1355290.43 1576693.64  16.3%   466 11058s
 140888 13660     cutoff  110      1355290.43 1575875.65  16.3%   465 11062s
 141081 13614     cutoff   73      1355290.43 1575090.38  16.2%   465 11068s
 141303 13570     cutoff   59      1355290.43 1574256.66  16.2%   465 11073s
 141451 13515     cutoff   71      1355290.43 1573606.58  16.1%   465 11078s
 141605 13445     cutoff   77      1355290.43 1573044.31  16.1%   464 11083s
 141772 13377     cutoff  122      1355290.43 1572259.87  16.0%   464 11087s
 141918 13308 1438137.01   93   72 1355290.43 1571415.59  15.9%   464 11093s
 142108 13248     cutoff   99      1355290.43 1570538.66  15.9%   463 11096s
 142271 13192     cutoff  130      1355290.43 1569631.33  15.8%   463 11101s
 142479 13141     cutoff   82      1355290.43 1568999.17  15.8%   463 11105s
 142812 13003     cutoff   74      1355290.43 1567544.84  15.7%   462 11111s
 143042 12850     cutoff  142      1355290.43 1565936.31  15.5%   462 11118s
 143238 12802     cutoff   64      1355290.43 1565245.32  15.5%   462 11121s
 143529 12672     cutoff   79      1355290.43 1563838.14  15.4%   461 11130s
 143738 12619     cutoff   94      1355290.43 1563098.20  15.3%   461 11136s
 143889 12552     cutoff   73      1355290.43 1562403.45  15.3%   460 11141s
 144011 12474     cutoff   77      1355290.43 1561660.84  15.2%   460 11145s
 144178 12429     cutoff   95      1355290.43 1560858.11  15.2%   460 11150s
 144488 12304     cutoff   80      1355290.43 1559236.77  15.0%   460 11157s
 144664 12240     cutoff   74      1355290.43 1558517.30  15.0%   459 11161s
 144929 12090     cutoff  103      1355290.43 1556938.31  14.9%   459 11170s
 145087 12019 1485833.89   71  106 1355290.43 1556120.66  14.8%   459 11175s
 145260 11949     cutoff   93      1355290.43 1555346.19  14.8%   458 11180s
 145544 11805     cutoff   66      1355290.43 1553789.22  14.6%   458 11188s
 145674 11728     cutoff  107      1355290.43 1552979.36  14.6%   458 11190s
 145820 11654     cutoff   65      1355290.43 1552332.34  14.5%   457 11196s
 145988 11602     cutoff   66      1355290.43 1551559.57  14.5%   457 11200s
 146242 11450     cutoff   74      1355290.43 1550143.73  14.4%   457 11209s
 146407 11385 1490469.24   68  155 1355290.43 1549365.77  14.3%   456 11213s
 146597 11349     cutoff   59      1355290.43 1548713.20  14.3%   456 11217s
 146751 11276     cutoff   76      1355290.43 1547935.55  14.2%   456 11223s
 146962 11217 1482215.32   68  178 1355290.43 1547309.17  14.2%   455 11227s
 147159 11154     cutoff   93      1355290.43 1546518.84  14.1%   455 11231s
 147457 11013     cutoff   76      1355290.43 1545009.92  14.0%   455 11238s
 147655 10968     cutoff   60      1355290.43 1544263.90  13.9%   454 11242s
 147953 10827 1484350.32  101   61 1355290.43 1542776.72  13.8%   454 11251s
 148120 10756     cutoff   76      1355290.43 1542032.45  13.8%   454 11257s
 148422 10624     cutoff   94      1355290.43 1540521.33  13.7%   453 11264s
 148551 10543 1466748.44   70  166 1355290.43 1539736.09  13.6%   453 11266s
 148851 10423     cutoff  123      1355290.43 1538021.79  13.5%   452 11270s
 149096 10272     cutoff  133      1355290.43 1536593.04  13.4%   452 11275s
 149349 10114     cutoff   66      1355290.43 1535028.98  13.3%   451 11282s
 149496 10037     cutoff   76      1355290.43 1534247.96  13.2%   451 11290s
 149834  9924     cutoff  114      1355290.43 1532905.89  13.1%   451 11297s
 149957  9843     cutoff   70      1355290.43 1532175.17  13.1%   450 11300s
 150268  9724     cutoff   63      1355290.43 1530337.90  12.9%   450 11306s
 150541  9580     cutoff   79      1355290.43 1528842.61  12.8%   449 11312s
 150654  9505     cutoff   84      1355290.43 1528016.97  12.7%   449 11315s
 150910  9351     cutoff   57      1355290.43 1526448.64  12.6%   449 11325s
 151082  9290     cutoff   75      1355290.43 1525741.71  12.6%   448 11330s
 151252  9225     cutoff   91      1355290.43 1525061.85  12.5%   448 11336s
 151535  9083     cutoff   75      1355290.43 1523325.71  12.4%   448 11341s
 151668  9004     cutoff   62      1355290.43 1522516.84  12.3%   447 11345s
 151800  8929     cutoff   81      1355290.43 1521701.12  12.3%   447 11350s
 152022  8772     cutoff   80      1355290.43 1520123.86  12.2%   447 11357s
 152183  8706     cutoff   78      1355290.43 1519306.12  12.1%   446 11364s
 152343  8643     cutoff   57      1355290.43 1518672.37  12.1%   446 11369s
 152505  8572     cutoff  103      1355290.43 1517736.92  12.0%   446 11372s
 152626  8493 1488933.96   52  168 1355290.43 1516837.15  11.9%   446 11375s
 152997  8263     cutoff   81      1355290.43 1514695.66  11.8%   445 11381s
 153137  8189     cutoff   61      1355290.43 1514053.37  11.7%   445 11386s
 153395  8038     cutoff   92      1355290.43 1512476.86  11.6%   444 11391s
 153662  7894     cutoff   69      1355290.43 1510740.21  11.5%   444 11398s
 153805  7833 1457020.09   98  174 1355290.43 1509935.63  11.4%   444 11400s
 153920  7755     cutoff   76      1355290.43 1508946.85  11.3%   443 11408s
 154040  7675     cutoff   71      1355290.43 1508109.20  11.3%   443 11411s
 154292  7519     cutoff   90      1355290.43 1506143.90  11.1%   443 11416s
 154553  7377     cutoff  107      1355290.43 1504676.54  11.0%   442 11423s
 154679  7307 1393338.42   79  151 1355290.43 1503742.98  11.0%   442 11426s
 154775  7223     cutoff   94      1355290.43 1503001.15  10.9%   442 11430s
 155020  7075     cutoff   66      1355290.43 1501429.76  10.8%   442 11435s
 155275  6919     cutoff  103      1355290.43 1499647.00  10.7%   441 11442s
 155422  6851     cutoff   69      1355290.43 1498826.65  10.6%   441 11445s
 155676  6700     cutoff   61      1355290.43 1497439.38  10.5%   440 11450s
 155941  6549 1431425.51   89  145 1355290.43 1495637.89  10.4%   440 11455s
 156214  6399     cutoff   88      1355290.43 1493804.61  10.2%   440 11461s
 156485  6251     cutoff   75      1355290.43 1491864.75  10.1%   439 11465s
 156716  6084     cutoff   98      1355290.43 1490085.94  9.95%   439 11470s
 157071  5852     cutoff   73      1355290.43 1487474.31  9.75%   438 11477s
 157319  5697 1471073.64   58   56 1355290.43 1485546.37  9.61%   438 11482s
 157533  5530     cutoff   97      1355290.43 1483903.65  9.49%   437 11488s
 157666  5455     cutoff  133      1355290.43 1483075.20  9.43%   437 11491s
 157997  5206     cutoff   68      1355290.43 1480330.15  9.23%   436 11497s
 158122  5125     cutoff   96      1355290.43 1479369.78  9.16%   436 11501s
 158378  4969 1436978.91   94  216 1355290.43 1477373.17  9.01%   436 11507s
 158488  4886     cutoff   78      1355290.43 1476215.66  8.92%   436 11511s
 158736  4733     cutoff   69      1355290.43 1473942.06  8.75%   435 11516s
 158983  4574     cutoff  121      1355290.43 1472034.73  8.61%   435 11520s
 159308  4326     cutoff  103      1355290.43 1469083.98  8.40%   434 11525s
 159400  4242     cutoff   70      1355290.43 1467889.60  8.31%   434 11530s
 159679  4091 1444721.10   94  198 1355290.43 1465960.88  8.17%   434 11537s
 159824  4012     cutoff  130      1355290.43 1464844.55  8.08%   433 11540s
 160079  3855     cutoff  104      1355290.43 1462552.67  7.91%   433 11545s
 160208  3780     cutoff   97      1355290.43 1461463.05  7.83%   433 11552s
 160449  3622     cutoff   72      1355290.43 1459319.75  7.68%   432 11557s
 160664  3460     cutoff  137      1355290.43 1456950.60  7.50%   432 11561s
 160987  3210     cutoff   90      1355290.43 1453384.56  7.24%   431 11567s
 161093  3126     cutoff  114      1355290.43 1452157.13  7.15%   431 11570s
 161311  2963     cutoff   63      1355290.43 1449617.94  6.96%   431 11575s
 161533  2810     cutoff   78      1355290.43 1447139.57  6.78%   430 11580s
 162024  2397     cutoff   68      1355290.43 1440348.26  6.28%   429 11587s
 162253  2234     cutoff   68      1355290.43 1437592.97  6.07%   429 11592s
 162501  2074 1387593.67   97  177 1355290.43 1434971.37  5.88%   428 11596s
 162734  1908     cutoff  118      1355290.43 1431995.34  5.66%   428 11600s
 163154  1580     cutoff   58      1355290.43 1425781.16  5.20%   427 11607s
 163354  1413     cutoff   74      1355290.43 1422696.55  4.97%   427 11611s
 163662  1161 1361107.49   97  129 1355290.43 1417617.92  4.60%   426 11616s
 163870   994     cutoff   79      1355290.43 1413684.61  4.31%   426 11620s
 164302   661     cutoff  111      1355290.43 1404448.63  3.63%   425 11625s
 164810   241     cutoff  108      1355290.43 1385669.20  2.24%   424 11631s

Cutting planes:
  Learned: 2
  Gomory: 431
  Cover: 3
  Implied bound: 29
  Projected implied bound: 123
  Clique: 9
  MIR: 80
  Flow cover: 477
  GUB cover: 1
  Zero half: 9

Explored 165198 nodes (69908586 simplex iterations) in 11636.26 seconds
Thread count was 4 (of 16 available processors)

Solution count 10: 1.35529e+06 1.35529e+06 1.35529e+06 ... 1.34977e+06
No other solutions better than 1.35529e+06

Optimal solution found (tolerance 1.00e-04)
Warning: max constraint violation (1.6664e-04) exceeds tolerance
Warning: max bound violation (4.9720e-05) exceeds tolerance
Best objective 1.355290429883e+06, best bound 1.355290429883e+06, gap 0.0000%

***
***  |- Calculation finished, took 11,636.29 (11636.29) sec.
***  |-----------------------------------------------------------------------------------------------------------------------
***
*****************************************************************************************************************************
#############################################################################################################################
###
### Results
###
### The objective of the solution is 1,355,290.4299 (1355290.4299) and is feasible with a Gap of 0.0
###
### Service 24 (WAF7) is operated by 3 vessels from type 18 (PMax25)
###  |- Vessel  1 has the path [100, 276, -1]
###  |  100 (DEHAM Out@288.0) - 276 (ESALG In@496.0/Out@515.0) - -1 (DUMMY_END Ziel-Service 24)
###  |- Vessel  2 has the path [101, 277, -1]
###  |  101 (DEHAM Out@456.0) - 277 (ESALG In@664.0/Out@683.0) - -1 (DUMMY_END Ziel-Service 24)
###  |- Vessel 13 has the path [104, 275, 201, 291, 202, 114, 278, -1]
###  |  104 (DKAAR Out@220.0) - 275 (ESALG In@328.0/Out@347.0) - 201 (MAPTM In@375.0/Out@396.0) - 291 (MAPTM In@379.0/Out@398
###  |  .0) - 202 (MAPTM In@406.0/Out@427.0) - 114 (ESALG In@452.0/Out@464.0) - 278 (ESALG In@832.0/Out@851.0) - -1 (DUMMY_EN
###  |  D Ziel-Service 24)
###  |   |- and carried Demand  18,   18.0 containers from 201 to 114
###  |   |- and carried Demand  52,  484.0 containers from 202 to 114
###  |   |- and carried Demand  53,   18.0 containers from 202 to 114
###  |   |- and carried Demand 119,  214.0 containers from 201 to 278
###  |   |- and carried Demand 120,   10.0 containers from 201 to 278
###  |   |- and carried Demand 121,  484.0 containers from 201 to 114
###  |   |- and carried Demand 122,   18.0 containers from 201 to 114
###  |   |- and carried Demand 132,  214.0 containers from 202 to 278
###  |   |- and carried Demand 133,   10.0 containers from 202 to 278
###  |   |- and carried Demand 134,  484.0 containers from 202 to 114
###  |   |- and carried Demand 135,   18.0 containers from 202 to 114
###  |   |- and carried Demand 138,  214.0 containers from 291 to 278
###  |   |- and carried Demand 139,   10.0 containers from 291 to 278
###  |   |- and carried Demand 140,  312.0 containers from 291 to 114
###  |   |- and carried Demand 141,   18.0 containers from 291 to 114
###  |
### Service 121 (SAE) is operated by 2 vessels from type 30 (PMax35)
###  |- Vessel 12 has the path [8, 302, -2]
###  |  8 (BEANR Out@570.0) - 302 (HNPCR In@1166.0/Out@1179.0) - -2 (DUMMY_END Ziel-Service 121)
###  |- Vessel 18 has the path [148, 315, 311, 301, -2]
###  |  148 (GBFXT Out@470.0) - 315 (USORF In@873.0/Out@881.0) - 311 (USMIA In@935.0/Out@943.0) - 301 (HNPCR In@998.0/Out@101
###  |  1.0) - -2 (DUMMY_END Ziel-Service 121)
###  |   |- and carried Demand 170,   10.0 containers from 311 to 301
###  |   |- and carried Demand 171,   75.0 containers from 315 to 301
###  |   |- and carried Demand 172,  114.0 containers from 315 to 301
###  |
### Service 177 (WCSA) is operated by 3 vessels from type 19 (PMax28)
###  |- Vessel  5 has the path [218, 133, 199, 290, 200, 112, 284, 45, 36, 240, 236, 0]
###  |  218 (NLRTM Out@92.0) - 133 (FRLEH In@111.0/Out@127.0) - 199 (MAPTM In@207.0/Out@228.0) - 290 (MAPTM In@211.0/Out@230.
###  |  0) - 200 (MAPTM In@238.0/Out@259.0) - 112 (ESALG In@284.0/Out@296.0) - 284 (GWOXB In@463.0/Out@542.0) - 45 (CMDLA In@
###  |  765.0/Out@811.0) - 36 (CLLQN In@1240.0/Out@1258.0) - 240 (PECLL In@1512.12/Out@1514.12) - 236 (PABLB In@1640.0/Out@16
###  |  52.0) - 0 (DUMMY_END Ziel-Service 177)
###  |   |- and carried Demand   6,   17.0 containers from 218 to 133
###  |   |- and carried Demand   7,  161.0 containers from 199 to  45
###  |   |- and carried Demand   8,  580.0 containers from 199 to 112
###  |   |- and carried Demand  45,  161.0 containers from 200 to  45
###  |   |- and carried Demand  46,   19.0 containers from 200 to 112
###  |   |- and carried Demand  80,  194.0 containers from  36 to 236
###  |   |- and carried Demand  81,   20.0 containers from  36 to 236
###  |   |- and carried Demand  83,    5.0 containers from  36 to 236
###  |   |- and carried Demand 117,  580.0 containers from 199 to 112
###  |   |- and carried Demand 131,  580.0 containers from 200 to 112
###  |   |- and carried Demand 144,  161.0 containers from 290 to  45
###  |   |- and carried Demand 145,  580.0 containers from 290 to 112
###  |- Vessel  7 has the path [221, 137, 203, 235, 0]
###  |  221 (NLRTM Out@428.0) - 137 (FRLEH In@447.0/Out@463.0) - 203 (MAPTM In@543.0/Out@564.0) - 235 (PABLB In@1472.0/Out@14
###  |  84.0) - 0 (DUMMY_END Ziel-Service 177)
###  |   |- and carried Demand  26,    6.0 containers from 221 to 137
###  |- Vessel  8 has the path [223, 138, 204, 234, 0]
###  |  223 (NLRTM Out@596.0) - 138 (FRLEH In@615.0/Out@631.0) - 204 (MAPTM In@711.0/Out@732.0) - 234 (PABLB In@1304.0/Out@13
###  |  16.0) - 0 (DUMMY_END Ziel-Service 177)
###  |
### Vessels not used in the solution: [3, 4, 6, 9, 10, 11, 14, 15, 16, 17]
###  |-----------------------------------------------------------------------------------------------------------------------
###
#############################################################################################################################

### Detialed variable overview

### All variables with value greater zero:
rho[24,18] = 1
rho[177,19] = 1
rho[121,30] = 1
eta[24,18,1] = 1
eta[24,18,2] = 1
eta[24,18,3] = 1
eta[177,19,1] = 1
eta[177,19,2] = 1
eta[177,19,3] = 1
eta[121,30,1] = 1
eta[121,30,2] = 1
y[1,276,-1] = 1
y[1,100,276] = 1
y[2,101,277] = 1
y[2,277,-1] = 1
y[5,200,112] = 1
y[5,290,200] = 1
y[5,240,236] = 1
y[5,133,199] = 1
y[5,199,290] = 1
y[5,45,36] = 0.999999
y[5,218,133] = 1
y[5,36,240] = 1
y[5,284,45] = 0.999999
y[5,236,0] = 1
y[5,112,284] = 1
y[7,137,203] = 0.999999
y[7,203,235] = 0.999999
y[7,221,137] = 0.999999
y[7,235,0] = 0.999999
y[8,234,0] = 1
y[8,204,234] = 1
y[8,223,138] = 1
y[8,138,204] = 1
y[12,8,302] = 0.999999
y[12,302,-2] = 0.999999
y[13,104,275] = 0.999997
y[13,275,201] = 0.999997
y[13,291,202] = 1
y[13,114,278] = 1
y[13,202,114] = 1
y[13,278,-1] = 1
y[13,201,291] = 0.999997
y[18,301,-2] = 0.999997
y[18,148,315] = 0.999997
y[18,315,311] = 0.999997
y[18,311,301] = 0.999997
xD[6,218,133] = 17
xD[7,200,112] = 161
xD[7,290,200] = 161
xD[7,199,290] = 161
xD[7,284,45] = 161
xD[7,112,284] = 161
xD[8,200,112] = 580
xD[8,290,200] = 580
xD[8,199,290] = 580
xD[18,291,202] = 18
xD[18,202,114] = 18
xD[18,201,291] = 18
xD[26,221,137] = 6
xD[45,200,112] = 161
xD[45,284,45] = 161
xD[45,112,284] = 161
xD[46,200,112] = 19
xD[52,202,114] = 484
xD[53,202,114] = 18
xD[80,240,236] = 194
xD[80,36,240] = 194
xD[81,240,236] = 20
xD[81,36,240] = 20
xD[83,240,236] = 5
xD[83,36,240] = 5
xD[117,200,112] = 580
xD[117,290,200] = 580
xD[117,199,290] = 580
xD[119,291,202] = 213.999
xD[119,114,278] = 213.999
xD[119,202,114] = 213.999
xD[119,201,291] = 213.999
xD[120,291,202] = 9.99997
xD[120,114,278] = 9.99997
xD[120,202,114] = 9.99997
xD[120,201,291] = 9.99997
xD[121,291,202] = 484
xD[121,202,114] = 484
xD[121,201,291] = 484
xD[122,291,202] = 17.9999
xD[122,202,114] = 17.9999
xD[122,201,291] = 17.9999
xD[131,200,112] = 580
xD[132,114,278] = 214
xD[132,202,114] = 214
xD[133,114,278] = 10
xD[133,202,114] = 10
xD[134,202,114] = 484
xD[135,202,114] = 18
xD[138,291,202] = 214
xD[138,114,278] = 214
xD[138,202,114] = 214
xD[139,291,202] = 10
xD[139,114,278] = 10
xD[139,202,114] = 10
xD[140,291,202] = 311.999
xD[140,202,114] = 311.999
xD[141,291,202] = 18
xD[141,202,114] = 18
xD[144,200,112] = 161
xD[144,290,200] = 161
xD[144,284,45] = 161
xD[144,112,284] = 161
xD[145,200,112] = 580
xD[145,290,200] = 580
xD[170,311,301] = 9.99997
xD[171,315,311] = 74.9998
xD[171,311,301] = 74.9998
xD[172,315,311] = 114
xD[172,311,301] = 114
zE[36] = 1240
zE[45] = 764.999
zE[112] = 284
zE[114] = 452
zE[133] = 111
zE[137] = 447
zE[138] = 615
zE[199] = 207
zE[200] = 238
zE[201] = 375
zE[202] = 406
zE[203] = 543
zE[204] = 711
zE[234] = 1304
zE[235] = 1472
zE[236] = 1640
zE[240] = 1512.12
zE[275] = 328
zE[276] = 496
zE[277] = 664
zE[278] = 832
zE[284] = 463
zE[290] = 211
zE[291] = 379
zE[301] = 998
zE[302] = 1166
zE[311] = 934.997
zE[315] = 872.997
zX[8] = 570
zX[36] = 1258
zX[45] = 810.999
zX[100] = 288
zX[101] = 456
zX[104] = 220
zX[112] = 296
zX[114] = 464
zX[133] = 127
zX[137] = 463
zX[138] = 631
zX[148] = 469.999
zX[199] = 228
zX[200] = 259
zX[201] = 396
zX[202] = 427
zX[203] = 564
zX[204] = 732
zX[218] = 92
zX[221] = 428
zX[223] = 596
zX[234] = 1316
zX[235] = 1484
zX[236] = 1652
zX[240] = 1514.12
zX[275] = 347
zX[276] = 515
zX[277] = 683
zX[278] = 851
zX[284] = 542
zX[290] = 230
zX[291] = 398
zX[301] = 1011
zX[302] = 1179
zX[311] = 942.997
zX[315] = 880.997
w[5,(240,236)] = 125.884
w[5,(36,240)] = 140.711
phi[1] = 227
phi[2] = 227
phi[5] = 1560
phi[7] = 1056
phi[8] = 720
phi[12] = 609
phi[13] = 631
phi[18] = 540.998

### All variables with value smaller zero:

### End

real	196m7.345s
user	737m17.964s
sys	39m5.753s
	Freetype 2.4.12 environment removed
	Python 3.6.0 environment removed
	Gurobi 8.1.0 environment removed
