### Additional Information to the goal services
# Basic costs on route 81: -566269361.4071785
# Direct costs (not staggered):
# For goal service 81:
# n_min: 6
# n_max: 6
# lowest costs of the goal service 81 with configuration (81, 30, 6) at 0.0
# (81, 18, 1): 208393376.15023577
# (81, 18, 2): 209059795.1902358
# (81, 18, 3): 209726214.23023582
# (81, 18, 4): 210392633.27023578
# (81, 18, 5): 209200575.27415067
# (81, 18, 6): 199951628.71415067
# (81, 19, 1): 143577713.75534892
# (81, 19, 2): 144310734.7153489
# (81, 19, 3): 145043755.67534888
# (81, 19, 4): 145776776.63534892
# (81, 19, 5): 141158336.59890807
# (81, 19, 6): 128850785.02524805
# (81, 30, 1): 7485302.879567385
# (81, 30, 2): 8284982.879567385
# (81, 30, 3): 9084662.879567385
# (81, 30, 4): 9884342.879567385
# (81, 30, 5): 10684022.879567385
# (81, 30, 6): 0.0
# -------------------------------------------
