### Additional Information to the goal services
# Basic costs on route 81: -816094079.6750515
# Direct costs (not staggered):
# For goal service 81:
# n_min: 6
# n_max: 6
# lowest costs of the goal service 81 with configuration (81, 30, 6) at 0.0
# (81, 18, 1): 300331630.3341635
# (81, 18, 2): 301292057.7741635
# (81, 18, 3): 302252485.2141634
# (81, 18, 4): 303212912.6541635
# (81, 18, 5): 301494946.718629
# (81, 18, 6): 288165582.55862904
# (81, 19, 1): 206920822.76506174
# (81, 19, 2): 207977235.3250618
# (81, 19, 3): 209033647.88506174
# (81, 19, 4): 210090060.4450618
# (81, 19, 5): 203434073.33372056
# (81, 19, 6): 185696719.59521055
# (81, 30, 1): 10787642.385258913
# (81, 30, 2): 11940122.385258913
# (81, 30, 3): 13092602.385258913
# (81, 30, 4): 14245082.385258913
# (81, 30, 5): 15397562.385258913
# (81, 30, 6): 0.0
# -------------------------------------------
