### Additional Information to the goal services
# Basic costs on route 81: -266479699.48573107
# Direct costs (not staggered):
# For goal service 81:
# n_min: 6
# n_max: 6
# lowest costs of the goal service 81 with configuration (81, 30, 6) at 0.0
# (81, 18, 1): 98067471.12952274
# (81, 18, 2): 98381080.08952272
# (81, 18, 3): 98694689.0495227
# (81, 18, 4): 99008298.00952274
# (81, 18, 5): 98447329.54077679
# (81, 18, 6): 94094884.10077679
# (81, 19, 1): 67565982.94369364
# (81, 19, 2): 67910933.98369363
# (81, 19, 3): 68255885.02369362
# (81, 19, 4): 68600836.06369364
# (81, 19, 5): 66427452.517133206
# (81, 19, 6): 60635663.541293204
# (81, 30, 1): 3522495.4727376103
# (81, 30, 2): 3898815.4727376103
# (81, 30, 3): 4275135.47273761
# (81, 30, 4): 4651455.47273761
# (81, 30, 5): 5027775.47273761
# (81, 30, 6): 0.0
# -------------------------------------------
