	OpenBLAS 0.2.6 environment established
		compiled with gcc for max. 16 cores
	Freetype 2.4.12 environment established
		library to render fonts
	Python 3.6.0 environment established
	Gurobi 8.1.0 environment established
Instance LSFRP: LSFDRP_4_3_4_1_fr.p
Instance LSFDP: LSFDRP_4_3_4_1_fd_25.p

*****************************************************************************************************************************
*** Solve LSFDRP_4_3_4_1_fd_25 with Gurobi
***
*** Graph info
*** |S|: 19
*** |S^E|: 0
*** |S^C|: 1
*** |V|: 347
*** |A|: 8382
*** |A^i|: 8382
*** |A^f|: 0
*** |M|: 343
*** |E|: 0

Changed value of parameter NumericFocus to 1
   Prev: 0  Min: 0  Max: 3  Default: 0
Changed value of parameter TimeLimit to 86400.0
   Prev: 1e+100  Min: 0.0  Max: 1e+100  Default: 1e+100
Changed value of parameter Threads to 4
   Prev: 0  Min: 0  Max: 1024  Default: 0
Optimize a model with 143928 rows, 3051766 columns and 10894115 nonzeros
Variable types: 2892487 continuous, 159279 integer (159279 binary)
Coefficient statistics:
  Matrix range     [1e+00, 4e+03]
  Objective range  [4e+01, 2e+08]
  Bounds range     [1e+00, 1e+00]
  RHS range        [1e+00, 6e+00]
Presolve removed 134716 rows and 2906541 columns (presolve time = 5s) ...
Presolve removed 135903 rows and 2908385 columns (presolve time = 12s) ...
Presolve removed 135903 rows and 2914786 columns (presolve time = 54s) ...
Presolve removed 136041 rows and 2915027 columns (presolve time = 58s) ...
Presolve removed 136041 rows and 2915027 columns (presolve time = 61s) ...
Presolve removed 136041 rows and 2915027 columns
Presolve time: 60.61s
Presolved: 7887 rows, 136739 columns, 468682 nonzeros
Variable types: 4957 continuous, 131782 integer (131745 binary)

Root simplex log...

Iteration    Objective       Primal Inf.    Dual Inf.      Time
       0    9.3644158e+09   1.390189e+06   0.000000e+00     63s
   16643    1.4933190e+07   2.239604e+05   0.000000e+00     65s
   24182    1.0405440e+07   1.655214e+05   0.000000e+00     70s
   30516    8.1121998e+06   1.532240e+05   0.000000e+00     75s
   36014    5.7430329e+06   2.810232e+04   0.000000e+00     80s
   38913    5.4073849e+06   0.000000e+00   0.000000e+00     84s

Root relaxation: objective 5.407385e+06, 38913 iterations, 21.57 seconds

    Nodes    |    Current Node    |     Objective Bounds      |     Work
 Expl Unexpl |  Obj  Depth IntInf | Incumbent    BestBd   Gap | It/Node Time

     0     0 5407384.87    0  174          - 5407384.87      -     -   86s
H    0     0                    -620660.2625 5407384.87   971%     -   87s
H    0     0                    1079769.3275 5407384.87   401%     -  145s
     0     0 5232498.19    0  239 1079769.33 5232498.19   385%     -  147s
     0     0 5232498.19    0  172 1079769.33 5232498.19   385%     -  158s
     0     0 3493068.85    0  185 1079769.33 3493068.85   224%     -  166s
     0     0 3493068.85    0  134 1079769.33 3493068.85   224%     -  171s
     0     0 3483973.87    0  144 1079769.33 3483973.87   223%     -  175s
     0     0 3400532.34    0  176 1079769.33 3400532.34   215%     -  175s
     0     0 3394355.64    0  172 1079769.33 3394355.64   214%     -  175s
     0     0 3394355.64    0  175 1079769.33 3394355.64   214%     -  175s
     0     0 3375904.17    0  211 1079769.33 3375904.17   213%     -  176s
     0     0 3375112.41    0  214 1079769.33 3375112.41   213%     -  177s
     0     0 3374775.55    0  216 1079769.33 3374775.55   213%     -  177s
     0     0 3374477.61    0  216 1079769.33 3374477.61   213%     -  177s
     0     0 3373928.21    0  183 1079769.33 3373928.21   212%     -  177s
     0     0 3373899.97    0  214 1079769.33 3373899.97   212%     -  177s
     0     0 3373532.18    0  182 1079769.33 3373532.18   212%     -  177s
     0     0 3373509.04    0  190 1079769.33 3373509.04   212%     -  177s
     0     0 3373509.04    0  190 1079769.33 3373509.04   212%     -  177s
     0     0 3372008.02    0  191 1079769.33 3372008.02   212%     -  177s
     0     0 3370244.26    0  194 1079769.33 3370244.26   212%     -  177s
     0     0 3370244.26    0  194 1079769.33 3370244.26   212%     -  178s
     0     0 3369618.05    0  192 1079769.33 3369618.05   212%     -  178s
     0     0 3369570.27    0  192 1079769.33 3369570.27   212%     -  178s
     0     0 3369500.16    0  192 1079769.33 3369500.16   212%     -  178s
     0     0 3369163.67    0  192 1079769.33 3369163.67   212%     -  178s
     0     0 3369057.72    0  194 1079769.33 3369057.72   212%     -  178s
     0     0 3368687.57    0  194 1079769.33 3368687.57   212%     -  178s
     0     0 3368391.74    0  194 1079769.33 3368391.74   212%     -  178s
     0     0 3368391.74    0  194 1079769.33 3368391.74   212%     -  178s
     0     0 3368222.27    0  196 1079769.33 3368222.27   212%     -  178s
     0     0 3368222.27    0  196 1079769.33 3368222.27   212%     -  179s
     0     0 3367859.46    0  196 1079769.33 3367859.46   212%     -  179s
     0     0 3367636.85    0  196 1079769.33 3367636.85   212%     -  179s
     0     0 3367428.07    0  196 1079769.33 3367428.07   212%     -  179s
     0     0 3367428.07    0  193 1079769.33 3367428.07   212%     -  183s
     0     0 3367428.07    0  131 1079769.33 3367428.07   212%     -  187s
     0     0 3367428.07    0  149 1079769.33 3367428.07   212%     -  190s
     0     0 3367428.07    0  189 1079769.33 3367428.07   212%     -  191s
     0     0 3367428.07    0  199 1079769.33 3367428.07   212%     -  191s
     0     0 3367428.07    0  186 1079769.33 3367428.07   212%     -  192s
     0     0 3367428.07    0  186 1079769.33 3367428.07   212%     -  192s
     0     0 3367428.07    0  193 1079769.33 3367428.07   212%     -  192s
     0     0 3367428.07    0  195 1079769.33 3367428.07   212%     -  192s
     0     0 3367428.07    0  196 1079769.33 3367428.07   212%     -  192s
     0     0 3367367.72    0  198 1079769.33 3367367.72   212%     -  192s
     0     0 3366898.27    0  194 1079769.33 3366898.27   212%     -  193s
     0     0 3366898.27    0  194 1079769.33 3366898.27   212%     -  193s
     0     0 3366898.27    0  194 1079769.33 3366898.27   212%     -  193s
     0     0 3366698.02    0  196 1079769.33 3366698.02   212%     -  193s
     0     0 3366698.02    0  196 1079769.33 3366698.02   212%     -  193s
     0     0 3366676.46    0  196 1079769.33 3366676.46   212%     -  193s
     0     0 3366676.46    0  196 1079769.33 3366676.46   212%     -  193s
     0     0 3366676.46    0  196 1079769.33 3366676.46   212%     -  193s
     0     0 3366676.46    0  196 1079769.33 3366676.46   212%     -  193s
     0     0 3366676.46    0  195 1079769.33 3366676.46   212%     -  194s
     0     0 3366676.46    0  195 1079769.33 3366676.46   212%     -  197s
     0     2 3366676.46    0  195 1079769.33 3366676.46   212%     -  198s
     1     5 3336981.35    1  192 1079769.33 3336981.35   209%   185  202s
     7    10 2798234.69    3  159 1079769.33 3307538.50   206%   982  205s
    28    26 2897953.59    5  135 1079769.33 3116479.86   189%   731  215s
   157   126 1711869.89   37   35 1079769.33 3116479.86   189%   297  220s
   257   175 2617262.87   10  135 1079769.33 3114558.38   188%   283  226s
   327   212     cutoff    5      1079769.33 3085359.33   186%   302  230s
   426   273 1720887.49   11  116 1079769.33 3043495.40   182%   312  235s
   533   355 2119641.96   27  115 1079769.33 3043495.40   182%   339  240s
   644   402     cutoff    7      1079769.33 2963691.43   174%   357  245s
   784   470 2670069.31    8  121 1079769.33 2943261.87   173%   367  255s
   975   587 1767648.03   28   76 1079769.33 2905758.26   169%   350  261s
  1052   630 2415156.39   34  239 1079769.33 2896935.99   168%   344  285s
  1054   631 1411993.97   39  122 1079769.33 2896935.99   168%   343  291s
  1057   633 1844355.85   27  217 1079769.33 2896935.99   168%   342  295s
  1075   645 2624694.61   13  216 1079769.33 2896935.99   168%   336  300s
  1078   647 2016260.64   28  219 1079769.33 2896935.99   168%   335  305s
  1079   651 2896935.99   13  202 1079769.33 2896935.99   168%   358  316s
  1081   652 2896935.99   14  196 1079769.33 2896935.99   168%   359  326s
  1085   655 2896935.99   15  188 1079769.33 2896935.99   168%   361  330s
  1097   663 2896935.99   17  181 1079769.33 2896935.99   168%   370  335s
  1106   666 2896935.99   18  182 1079769.33 2896935.99   168%   378  343s
  1115   666 2896935.99   19  163 1079769.33 2896935.99   168%   386  345s
  1143   667     cutoff   22      1079769.33 2896935.99   168%   399  350s
  1172   675     cutoff   27      1079769.33 2896935.99   168%   406  355s
  1259   682 2793371.83   22  143 1079769.33 2896935.99   168%   408  360s
  1383   690 2578728.07   19  167 1079769.33 2889812.12   168%   407  365s
  1548   740 2641079.21   22  138 1079769.33 2854344.99   164%   393  370s
  1725   774 1884098.37   31  133 1079769.33 2762199.77   156%   379  375s
  1851   802 2123722.75   37  122 1079769.33 2738315.21   154%   379  380s
  1985   839 2239216.25   25  103 1079769.33 2690938.14   149%   376  385s
  2228   892 1924628.61   18  145 1079769.33 2652238.43   146%   361  390s
  2477   932 2222138.03   25   79 1079769.33 2620912.67   143%   354  396s
  2640   982 1277378.97   41  130 1079769.33 2611386.92   142%   350  400s
  2950  1019     cutoff   33      1079769.33 2582030.93   139%   346  407s
  3020  1022 1219301.53   28   88 1079769.33 2575267.26   139%   347  412s
  3257  1141 1872120.22   41  138 1079769.33 2530637.70   134%   345  417s
  3562  1310 1824579.26   20  114 1079769.33 2498222.32   131%   339  422s
  3907  1500 1299341.49   33   51 1079769.33 2470574.16   129%   329  427s
  4050  1577 1972917.48   36  148 1079769.33 2453267.56   127%   328  430s
  4270  1672     cutoff   25      1079769.33 2444073.18   126%   325  436s
  4601  1845 2332055.82   25  121 1079769.33 2428862.56   125%   321  443s
  4859  1976 1484560.48   40  143 1079769.33 2410873.22   123%   313  447s
  5017  2033 1768633.29   42   54 1079769.33 2401485.08   122%   311  450s
  5243  2161 1387193.85   23   84 1079769.33 2386362.87   121%   307  455s
  5557  2273 1316907.60   23  116 1079769.33 2366149.60   119%   308  464s
  5744  2321 infeasible   30      1079769.33 2344069.95   117%   308  469s
  5915  2386 1906150.97   29   79 1079769.33 2341531.31   117%   308  475s
  6165  2490 1791913.44   37  135 1079769.33 2332407.91   116%   304  480s
  6604  2652 1604790.48   56  140 1079769.33 2310673.71   114%   302  489s
  6801  2734 1204491.53   32  105 1079769.33 2299826.45   113%   302  495s
  7205  2919 1310866.40   55   40 1079769.33 2286966.92   112%   297  501s
  7537  3039 1455426.15   46   28 1079769.33 2277701.58   111%   295  507s
  8078  3276 1261651.75   63   63 1079769.33 2251961.41   109%   288  515s
  8398  3370 1282031.40   29   63 1079769.33 2231422.79   107%   287  521s
  8831  3557     cutoff   25      1079769.33 2216219.87   105%   286  528s
  8941  3573 infeasible   43      1079769.33 2206645.82   104%   285  535s
  9487  3743 2022528.76   30   63 1079769.33 2189819.02   103%   282  542s
  9964  3923     cutoff   28      1079769.33 2174207.16   101%   279  549s
 10537  4110 1540561.76   48   44 1079769.33 2150383.27  99.2%   277  559s
 11020  4247     cutoff   34      1079769.33 2132984.95  97.5%   278  566s
 11388  4316 1393909.32   21  139 1079769.33 2121368.51  96.5%   277  574s
 11973  4446 1205367.39   33  118 1079769.33 2091502.95  93.7%   275  582s
 12641  4620 1340373.16   27   99 1079769.33 2073580.41  92.0%   274  590s
 13165  4758 1742819.52   33   62 1079769.33 2057675.27  90.6%   271  598s
 13283  4762 1276199.06   45   35 1079769.33 2049855.32  89.8%   271  605s
 13862  4941     cutoff   47      1079769.33 2033197.19  88.3%   268  612s
 14520  5144 1841083.89   36   47 1079769.33 2013160.92  86.4%   266  619s
 15124  5315 1390464.04   23  128 1079769.33 2000534.55  85.3%   264  625s
 15789  5459 1365349.02   35   90 1079769.33 1982804.03  83.6%   262  632s
 16376  5591 1706731.14   37   53 1079769.33 1968705.30  82.3%   261  639s
 17018  5753 1299642.88   46   41 1079769.33 1954892.22  81.0%   259  645s
 17560  5835 1337846.68   31   76 1079769.33 1942736.90  79.9%   259  662s
 18096  5946 1854668.63   27   68 1079769.33 1924285.27  78.2%   258  668s
 18568  5970 1470287.86   29   63 1079769.33 1910949.54  77.0%   258  674s
 19126  6057 1145341.51   45  130 1079769.33 1901419.86  76.1%   258  680s
 19601  6140 1688403.45   41   36 1079769.33 1889613.18  75.0%   258  685s
 20100  6217 1720821.81   40   32 1079769.33 1877236.42  73.9%   257  691s
 20608  6289 1274950.76   32   92 1079769.33 1868094.05  73.0%   257  697s
 21035  6309     cutoff   52      1079769.33 1858393.58  72.1%   257  993s
 21542  6397 1645402.21   47   38 1079769.33 1844280.83  70.8%   256  999s
 21976  6489 infeasible   40      1079769.33 1838913.49  70.3%   256 1004s
 22223  6522 1803208.60   54   33 1079769.33 1834641.92  69.9%   257 1009s
 22501  6555 1383088.45   28  118 1079769.33 1830215.19  69.5%   258 1015s
 22683  6561 1390383.69   27   57 1079769.33 1825135.74  69.0%   260 1020s
 22883  6598 1278048.77   30   50 1079769.33 1823638.55  68.9%   260 1025s
 23158  6624 1109203.61   36   92 1079769.33 1818786.47  68.4%   261 1030s
 23479  6665 1338884.99   63   41 1079769.33 1815902.45  68.2%   262 1036s
 23721  6700 1292290.63   31  138 1079769.33 1810232.50  67.6%   264 1041s
 23899  6721 1531842.46   23  137 1079769.33 1804394.36  67.1%   265 1046s
 24179  6786 1687484.50   37   62 1079769.33 1797921.34  66.5%   267 1052s
 24402  6830 1499728.84   26  113 1079769.33 1796328.62  66.4%   268 1057s
 24712  6884     cutoff   36      1079769.33 1790094.33  65.8%   269 1062s
 24946  6897 1374316.11   41   30 1079769.33 1786702.28  65.5%   270 1069s
 25341  6964 1280846.35   36  118 1079769.33 1781145.80  65.0%   270 1075s
 25642  6979 1698618.68   24   78 1079769.33 1773777.94  64.3%   271 1081s
 25964  7010 1599004.52   25  135 1079769.33 1769276.77  63.9%   272 1088s
 26184  7027     cutoff   34      1079769.33 1768900.59  63.8%   274 1094s
 26461  7057     cutoff   38      1079769.33 1761084.81  63.1%   275 1118s
 26728  7123 1290730.94   44   63 1079769.33 1757909.63  62.8%   276 1124s
 27002  7136 1609505.29   43   80 1079769.33 1754141.01  62.5%   277 1129s
 27319  7181 infeasible   39      1079769.33 1751066.64  62.2%   278 1136s
 27728  7263 infeasible   35      1079769.33 1744521.17  61.6%   278 1142s
 27918  7265 1314990.00   41   42 1079769.33 1742383.85  61.4%   279 1148s
 28206  7344 1656412.69   41   44 1079769.33 1739559.75  61.1%   280 1154s
 28463  7394     cutoff   39      1079769.33 1738088.41  61.0%   281 1160s
 28733  7439 infeasible   55      1079769.33 1736449.73  60.8%   281 1166s
 29055  7475 1324244.51   59   49 1079769.33 1734317.40  60.6%   282 1173s
 29417  7523 1369804.91   38   30 1079769.33 1729464.40  60.2%   282 1179s
 29721  7587 1721827.12   37   81 1079769.33 1724431.34  59.7%   283 1186s
 30015  7594 1430422.92   37  176 1079769.33 1722373.36  59.5%   284 1192s
 30293  7580 1659951.61   35   62 1079769.33 1718740.09  59.2%   285 1199s
 30603  7635 1613365.31   47   33 1079769.33 1715373.73  58.9%   286 1206s
 31068  7705 1390729.03   40   25 1079769.33 1709226.10  58.3%   286 1213s
 31396  7774 1548628.39   39   33 1079769.33 1707212.56  58.1%   287 1224s
 31644  7793 1348343.49   50   68 1079769.33 1704440.18  57.9%   288 1230s
 32000  7835 1677435.00   41   74 1079769.33 1701210.14  57.6%   289 1236s
 32267  7834 1153458.61   39   45 1079769.33 1698564.73  57.3%   290 1243s
 32681  7915 1286867.75   44  165 1079769.33 1693438.36  56.8%   291 1249s
 33021  7953 1377132.59   32   49 1079769.33 1688788.66  56.4%   291 1256s
 33340  7993     cutoff   41      1079769.33 1686333.79  56.2%   292 1264s
 33701  8028 1409849.85   56   65 1079769.33 1682564.94  55.8%   293 1272s
 34122  8064 1537030.23   48   46 1079769.33 1677082.79  55.3%   293 1280s
 34471  8087     cutoff   50      1079769.33 1673841.17  55.0%   294 1288s
 34836  8190 1428750.56   39   40 1079769.33 1671294.55  54.8%   294 1295s
 35091  8188 1116800.56   31   44 1079769.33 1668466.81  54.5%   295 1305s
 35354  8151     cutoff   48      1079769.33 1662199.86  53.9%   296 1340s
 35678  8128 1543963.86   26  197 1079769.33 1658784.82  53.6%   296 1348s
 35933  8159     cutoff   44      1079769.33 1658649.58  53.6%   297 1357s
 36175  8131 1613960.45   36   91 1079769.33 1655493.18  53.3%   299 1365s
 36431  8088 infeasible   39      1079769.33 1651109.64  52.9%   299 1373s
 36778  8100 1127168.55   42   73 1079769.33 1645955.18  52.4%   300 1381s
 37030  8083 1406939.54   33   83 1079769.33 1642553.44  52.1%   301 1389s
 37399  8112 1367119.50   51  100 1079769.33 1637962.78  51.7%   302 1397s
 37671  8098     cutoff   40      1079769.33 1635227.03  51.4%   303 1405s
 37881  8048 1386894.79   43   61 1079769.33 1633038.54  51.2%   305 1412s
 38216  8069 1095718.78   38   52 1079769.33 1627426.31  50.7%   306 1420s
 38572  8092 1269046.17   39   48 1079769.33 1625657.73  50.6%   306 1429s
 39062  8118     cutoff   30      1079769.33 1620430.21  50.1%   306 1437s
 39438  8101 1105963.60   41  106 1079769.33 1616470.39  49.7%   306 1444s
 39812  8098     cutoff   43      1079769.33 1611985.76  49.3%   307 1452s
 40227  8132     cutoff   45      1079769.33 1609138.07  49.0%   308 1460s
 40516  8112     cutoff   42      1079769.33 1605604.97  48.7%   308 1468s
 40791  8083 1341270.15   39   42 1079769.33 1600765.62  48.3%   309 1476s
 41132  8078 1165527.48   31   48 1079769.33 1595689.31  47.8%   310 1485s
 41471  8076     cutoff   40      1079769.33 1592772.76  47.5%   311 1493s
 41878  8121 1114383.43   36   78 1079769.33 1589337.05  47.2%   311 1504s
 42230  8128 1483587.26   34   72 1079769.33 1586205.42  46.9%   312 1511s
 42578  8124 1574254.69   38   76 1079769.33 1581782.49  46.5%   312 1518s
 43000  8110 1510114.30   44  129 1079769.33 1577714.72  46.1%   312 1525s
 43247  8068     cutoff   39      1079769.33 1573373.38  45.7%   313 1533s
 43556  8050     cutoff   41      1079769.33 1569950.86  45.4%   314 1541s
 43800  8009 1126278.32   49   50 1079769.33 1566795.18  45.1%   314 1549s
 44144  7990     cutoff   33      1079769.33 1563065.77  44.8%   315 1557s
 44549  7975     cutoff   36      1079769.33 1559085.02  44.4%   315 1565s
 44935  7956     cutoff   42      1079769.33 1555594.83  44.1%   315 1572s
 45329  7969     cutoff   42      1079769.33 1552028.16  43.7%   315 1581s
 45704  7990 1465788.34   37  132 1079769.33 1548736.85  43.4%   315 1589s
 46016  7983     cutoff   56      1079769.33 1544794.87  43.1%   316 1597s
 46321  7951 1153877.41   55   26 1079769.33 1541859.73  42.8%   317 1603s
 46694  7937 1334329.74   50   26 1079769.33 1537048.25  42.3%   317 1610s
 47077  7934 1487807.29   36   30 1079769.33 1534761.35  42.1%   317 1617s
 47442  7896 1399929.78   44   74 1079769.33 1531608.10  41.8%   318 1624s
 47751  7877 1342801.16   50   46 1079769.33 1527997.71  41.5%   318 1631s
 48122  7894     cutoff   80      1079769.33 1524253.72  41.2%   318 1671s
 48440  7876     cutoff   42      1079769.33 1521320.15  40.9%   318 1678s
 48696  7810 1420587.12   44   48 1079769.33 1516613.62  40.5%   319 1685s
 49036  7793     cutoff   36      1079769.33 1512300.85  40.1%   319 1691s
 49403  7776     cutoff   40      1079769.33 1508634.16  39.7%   319 1699s
 49720  7737     cutoff   36      1079769.33 1505367.01  39.4%   319 1706s
 50083  7718 1131017.19   51   39 1079769.33 1501517.13  39.1%   319 1712s
 50377  7717     cutoff   34      1079769.33 1497997.95  38.7%   319 1720s
 51008  7668 1138665.40   41   62 1079769.33 1490920.18  38.1%   319 1731s
 51316  7634 1390737.59   35  192 1079769.33 1486272.20  37.6%   319 1738s
 51615  7597     cutoff   43      1079769.33 1483042.75  37.3%   320 1745s
 51926  7565 1372393.36   38   55 1079769.33 1480918.75  37.2%   320 1752s
 52239  7544     cutoff   33      1079769.33 1476804.12  36.8%   320 1759s
 52507  7505     cutoff   26      1079769.33 1474718.33  36.6%   321 1767s
 52756  7451 1211061.16   35   40 1079769.33 1472044.91  36.3%   321 1774s
 53229  7443 1394180.37   39   69 1079769.33 1467627.93  35.9%   320 1780s
 53557  7415     cutoff   29      1079769.33 1464586.48  35.6%   321 1785s
 53898  7385 infeasible   41      1079769.33 1461440.29  35.3%   320 1790s
 54228  7348     cutoff   46      1079769.33 1458200.19  35.0%   320 1795s
 54540  7324     cutoff   42      1079769.33 1454810.38  34.7%   320 1802s
 54865  7278 1387014.63   33  155 1079769.33 1451778.55  34.5%   320 1807s
 55258  7237     cutoff   71      1079769.33 1448827.42  34.2%   320 1812s
 55533  7182     cutoff   35      1079769.33 1446098.37  33.9%   319 1819s
 55901  7180     cutoff   32      1079769.33 1443477.44  33.7%   319 1824s
 56225  7161 1342913.57   35   29 1079769.33 1440206.03  33.4%   319 1831s
 56541  7136     cutoff   42      1079769.33 1437808.84  33.2%   319 1835s
 56771  7088 1429938.52   29   48 1079769.33 1434474.18  32.9%   319 1843s
 57165  7071 infeasible   47      1079769.33 1432075.93  32.6%   319 1849s
 57405  7024     cutoff   28      1079769.33 1429180.69  32.4%   319 1856s
 57721  6983 infeasible   52      1079769.33 1426511.87  32.1%   319 1861s
 58044  6961     cutoff   58      1079769.33 1423772.54  31.9%   319 1865s
 58331  6909 1220616.20   37   21 1079769.33 1420584.75  31.6%   319 1870s
 59007  6884 1267209.62   44   59 1079769.33 1415039.34  31.1%   318 1878s
 59273  6849 infeasible   46      1079769.33 1412344.84  30.8%   318 1885s
 59790  6743     cutoff   38      1079769.33 1407695.12  30.4%   318 1894s
 60046  6693     cutoff   34      1079769.33 1405064.05  30.1%   318 1899s
 60293  6643 1389760.26   47   14 1079769.33 1402302.11  29.9%   318 1902s
 60615  6605 1377920.45   43   32 1079769.33 1399660.88  29.6%   317 1906s
 61142  6499     cutoff   49      1079769.33 1395069.82  29.2%   317 1915s
 61629  6377 1110239.54   38   41 1079769.33 1389610.18  28.7%   318 1925s
 61891  6318     cutoff   27      1079769.33 1387040.38  28.5%   318 1930s
 62448  6215     cutoff   45      1079769.33 1382162.39  28.0%   317 1940s
 63034  6114     cutoff   39      1079769.33 1377293.62  27.6%   317 1947s
 63279  6057 1367846.58   49   56 1079769.33 1374765.01  27.3%   317 1951s
 63599  6027     cutoff   39      1079769.33 1372262.02  27.1%   317 1956s
 63869  5975     cutoff   41      1079769.33 1369152.78  26.8%   317 1960s
 64148  5923 1311105.86   26  134 1079769.33 1366886.00  26.6%   316 1965s
 64652  5834 1197146.94   35   66 1079769.33 1362044.98  26.1%   316 1975s
 65168  5714 1272655.41   36  152 1079769.33 1356438.44  25.6%   316 1984s
 65415  5659 1318372.83   38   27 1079769.33 1353430.95  25.3%   315 1988s
 65714  5617 1261816.30   39   76 1079769.33 1351232.92  25.1%   315 1993s
 65986  5585 1325974.85   45   16 1079769.33 1348586.91  24.9%   315 1998s
 66303  5543     cutoff   49      1079769.33 1345995.41  24.7%   314 2001s
 66792  5423     cutoff   65      1079769.33 1341605.31  24.2%   314 2009s
 67091  5408 1194230.71   44   23 1079769.33 1339010.70  24.0%   314 2015s
 67584  5290 1278116.08   47   42 1079769.33 1334658.26  23.6%   313 2022s
 67857  5255     cutoff   36      1079769.33 1332397.09  23.4%   313 2027s
 68129  5203     cutoff   57      1079769.33 1329439.59  23.1%   313 2030s
 68569  5074     cutoff   32      1079769.33 1324247.21  22.6%   313 2036s
 68766  5003     cutoff   50      1079769.33 1322407.87  22.5%   312 2042s
 69016  4937     cutoff   53      1079769.33 1320346.80  22.3%   312 2047s
 69323  4906 1279305.18   38   61 1079769.33 1318316.99  22.1%   312 2050s
 69791  4798     cutoff   39      1079769.33 1314584.58  21.7%   312 2056s
 70229  4674     cutoff   36      1079769.33 1310053.12  21.3%   311 2062s
 70469  4611     cutoff   29      1079769.33 1307456.98  21.1%   311 2065s
 70686  4542     cutoff   50      1079769.33 1305344.36  20.9%   311 2070s
 71347  4350     cutoff   36      1079769.33 1297782.55  20.2%   310 2078s
 71551  4282 1226535.14   48   32 1079769.33 1295727.62  20.0%   310 2081s
 72049  4157 1179074.48   41   16 1079769.33 1290917.62  19.6%   310 2086s
 72522  4023     cutoff   51      1079769.33 1286628.98  19.2%   309 2091s
 72929  3873     cutoff   35      1079769.33 1282504.88  18.8%   309 2097s
 73310  3729 1247292.66   37   52 1079769.33 1277722.21  18.3%   309 2102s
 73678  3582     cutoff   56      1079769.33 1273085.10  17.9%   308 2107s
 74077  3444     cutoff   33      1079769.33 1268361.74  17.5%   308 2112s
 74261  3397     cutoff   43      1079769.33 1266312.15  17.3%   308 2118s
 74420  3315     cutoff   46      1079769.33 1266083.92  17.3%   308 2121s
 74852  3179 1097111.41   41   28 1079769.33 1259998.50  16.7%   307 2125s
 75255  3037 1220431.98   50   45 1079769.33 1254444.93  16.2%   307 2130s
 75671  2921 1198868.20   39   47 1079769.33 1249493.52  15.7%   306 2174s
 75802  2833     cutoff   57      1079769.33 1247465.45  15.5%   306 2176s
 76249  2706     cutoff   35      1079769.33 1241290.32  15.0%   306 2181s
 76679  2569     cutoff   27      1079769.33 1236190.04  14.5%   305 2186s
 77112  2439     cutoff   54      1079769.33 1231337.10  14.0%   305 2190s
 77494  2287 1163326.39   44   50 1079769.33 1226318.22  13.6%   304 2196s
 77871  2157     cutoff   31      1079769.33 1221912.91  13.2%   304 2201s
 78260  2016     cutoff   39      1079769.33 1217249.04  12.7%   303 2205s
 78925  1714 1203270.03   57   22 1079769.33 1206412.52  11.7%   302 2211s
 79460  1491     cutoff   54      1079769.33 1196916.40  10.8%   301 2215s
 80055  1284     cutoff   53      1079769.33 1186452.31  9.88%   300 2222s
 80437  1033 1123585.79   40   33 1079769.33 1176245.19  8.93%   300 2225s
 81084   623     cutoff   53      1079769.33 1155267.15  6.99%   299 2230s
 81503   287     cutoff   46      1079769.33 1134493.26  5.07%   298 2235s

Cutting planes:
  Gomory: 69
  Implied bound: 17
  MIR: 34
  Flow cover: 225

Explored 81920 nodes (24504690 simplex iterations) in 2241.21 seconds
Thread count was 4 (of 16 available processors)

Solution count 2: 1.07977e+06 -620660 

Optimal solution found (tolerance 1.00e-04)
Best objective 1.079769212879e+06, best bound 1.079769327542e+06, gap 0.0000%

***
***  |- Calculation finished, took 2,241.26 (2241.26) sec.
***  |-----------------------------------------------------------------------------------------------------------------------
***
*****************************************************************************************************************************
#############################################################################################################################
###
### Results
###
### The objective of the solution is 1,079,769.2129 (1079769.2129) and is feasible with a Gap of 0.0
###
### Service 81 (MECL1) is operated by 6 vessels from type 30 (PMax35)
###  |- Vessel  9 has the path [9, 332, 326, 342, 333, 324, 4, 294, 284, 7, 298, 196, 0]
###  |  9 (BEANR Out@344.0) - 332 (USEWR In@608.0/Out@618.0) - 326 (USCHS In@656.0/Out@666.0) - 342 (USORF In@691.0/Out@704.0
###  |  ) - 333 (USEWR In@728.0/Out@744.0) - 324 (TRZMK In@1063.0/Out@1077.0) - 4 (AEJEA In@1177.0/Out@1201.0) - 294 (PKBQM I
###  |  n@1258.0/Out@1288.0) - 284 (OMSLL In@1410.0/Out@1423.0) - 7 (AEJEA In@1681.0/Out@1705.0) - 298 (PKBQM In@1762.0/Out@1
###  |  792.0) - 196 (INNSA In@1856.0/Out@1872.0) - 0 (DUMMY_END Ziel-Service 81)
###  |   |- and carried Demand 237,   34.0 containers from 298 to 196
###  |   |- and carried Demand 238,   84.0 containers from   7 to 298
###  |   |- and carried Demand 239,   50.0 containers from   7 to 298
###  |   |- and carried Demand 297,  254.0 containers from 294 to 196
###  |   |- and carried Demand 298,    1.0 containers from 294 to 196
###  |   |- and carried Demand 299,  135.0 containers from 294 to 196
###  |   |- and carried Demand 302,   75.0 containers from   4 to 196
###  |   |- and carried Demand 303,  200.0 containers from   4 to 294
###  |   |- and carried Demand 304,   24.0 containers from   4 to 294
###  |   |- and carried Demand 305,   26.0 containers from   4 to 196
###  |   |- and carried Demand 306,  144.0 containers from   4 to 196
###  |   |- and carried Demand 307,    1.0 containers from   4 to 196
###  |   |- and carried Demand 309,  339.0 containers from 342 to   4
###  |   |- and carried Demand 310,  115.0 containers from 342 to   4
###  |   |- and carried Demand 311,    3.0 containers from 342 to 284
###  |   |- and carried Demand 312,    2.0 containers from 342 to 294
###  |   |- and carried Demand 313,  194.0 containers from 326 to   4
###  |   |- and carried Demand 314,   49.0 containers from 326 to   4
###  |   |- and carried Demand 315,   40.0 containers from 326 to 294
###  |   |- and carried Demand 318,  842.0 containers from 332 to   4
###  |   |- and carried Demand 319,   99.0 containers from 332 to   4
###  |   |- and carried Demand 320,  123.0 containers from 332 to 294
###  |   |- and carried Demand 321,    1.0 containers from 332 to 294
###  |- Vessel 10 has the path [10, 316, 190, 0]
###  |  10 (BEANR Out@512.0) - 316 (TRAMB In@854.0/Out@881.0) - 190 (INNSA In@1016.0/Out@1032.0) - 0 (DUMMY_END Ziel-Service 
###  |  81)
###  |- Vessel 11 has the path [13, 313, 191, 0]
###  |  13 (BEANR Out@680.0) - 313 (TRALI In@946.0/Out@964.0) - 191 (INNSA In@1184.0/Out@1200.0) - 0 (DUMMY_END Ziel-Service 
###  |  81)
###  |- Vessel 12 has the path [16, 314, 192, 0]
###  |  16 (BEANR Out@848.0) - 314 (TRALI In@1114.0/Out@1132.0) - 192 (INNSA In@1352.0/Out@1368.0) - 0 (DUMMY_END Ziel-Servic
###  |  e 81)
###  |- Vessel 17 has the path [158, 2, 291, 292, 293, 283, 5, 295, 194, 195, 0]
###  |  158 (GBFXT Out@580.0) - 2 (AEJEA In@841.0/Out@865.0) - 291 (PKBQM In@922.0/Out@952.0) - 292 (PKBQM In@992.0/Out@1020.
###  |  0) - 293 (PKBQM In@1090.0/Out@1120.0) - 283 (OMSLL In@1167.0/Out@1182.0) - 5 (AEJEA In@1345.0/Out@1369.0) - 295 (PKBQ
###  |  M In@1426.0/Out@1456.0) - 194 (INNSA In@1590.0/Out@1622.0) - 195 (INNSA In@1688.0/Out@1704.0) - 0 (DUMMY_END Ziel-Ser
###  |  vice 81)
###  |   |- and carried Demand 120,  237.0 containers from 292 to 194
###  |   |- and carried Demand 121,    2.0 containers from 292 to 194
###  |   |- and carried Demand 123,   97.0 containers from 292 to 194
###  |   |- and carried Demand 283,  153.0 containers from   5 to 195
###  |   |- and carried Demand 284,   86.0 containers from   5 to 295
###  |   |- and carried Demand 285,  118.0 containers from   5 to 295
###  |   |- and carried Demand 323,  244.0 containers from 293 to 195
###  |   |- and carried Demand 324,   67.0 containers from 293 to 195
###  |   |- and carried Demand 333,  237.0 containers from 291 to 194
###  |   |- and carried Demand 334,    2.0 containers from 291 to 194
###  |   |- and carried Demand 336,   97.0 containers from 291 to 194
###  |   |- and carried Demand 338,  704.0 containers from   2 to 195
###  |   |- and carried Demand 339,    8.0 containers from   2 to 195
###  |   |- and carried Demand 340,  156.0 containers from   2 to 291
###  |   |- and carried Demand 341,   45.0 containers from   2 to 291
###  |   |- and carried Demand 342,   16.0 containers from   2 to 194
###  |   |- and carried Demand 343,  264.0 containers from   2 to 194
###  |- Vessel 18 has the path [161, 321, 193, 0]
###  |  161 (GBFXT Out@748.0) - 321 (TRGEM In@1087.0/Out@1095.0) - 193 (INNSA In@1520.0/Out@1536.0) - 0 (DUMMY_END Ziel-Servi
###  |  ce 81)
###  |
### Vessels not used in the solution: [1, 2, 3, 4, 5, 6, 7, 8, 13, 14, 15, 16, 21]
###  |-----------------------------------------------------------------------------------------------------------------------
###
#############################################################################################################################

### Detialed variable overview

### All variables with value greater zero:
rho[81,30] = 1
eta[81,30,1] = 1
eta[81,30,2] = 1
eta[81,30,3] = 1
eta[81,30,4] = 1
eta[81,30,5] = 1
eta[81,30,6] = 1
y[9,4,294] = 1
y[9,332,326] = 1
y[9,294,284] = 1
y[9,284,7] = 1
y[9,342,333] = 1
y[9,9,332] = 1
y[9,324,4] = 1
y[9,7,298] = 1
y[9,196,0] = 1
y[9,333,324] = 1
y[9,298,196] = 1
y[9,326,342] = 1
y[10,190,0] = 1
y[10,316,190] = 1
y[10,10,316] = 1
y[11,313,191] = 1
y[11,191,0] = 1
y[11,13,313] = 1
y[12,192,0] = 1
y[12,314,192] = 1
y[12,16,314] = 1
y[17,283,5] = 1
y[17,293,283] = 1
y[17,195,0] = 1
y[17,5,295] = 1
y[17,292,293] = 1
y[17,194,195] = 1
y[17,291,292] = 1
y[17,295,194] = 1
y[17,2,291] = 1
y[17,158,2] = 1
y[18,161,321] = 1
y[18,193,0] = 1
y[18,321,193] = 1
xD[120,283,5] = 237
xD[120,293,283] = 237
xD[120,5,295] = 237
xD[120,292,293] = 237
xD[120,295,194] = 237
xD[121,283,5] = 2
xD[121,293,283] = 2
xD[121,5,295] = 2
xD[121,292,293] = 2
xD[121,295,194] = 2
xD[123,283,5] = 97
xD[123,293,283] = 97
xD[123,5,295] = 97
xD[123,292,293] = 97
xD[123,295,194] = 97
xD[237,298,196] = 34
xD[238,7,298] = 84
xD[239,7,298] = 50
xD[283,5,295] = 153
xD[283,194,195] = 153
xD[283,295,194] = 153
xD[284,5,295] = 86
xD[285,5,295] = 118
xD[297,294,284] = 254
xD[297,284,7] = 254
xD[297,7,298] = 254
xD[297,298,196] = 254
xD[298,294,284] = 1
xD[298,284,7] = 1
xD[298,7,298] = 1
xD[298,298,196] = 1
xD[299,294,284] = 135
xD[299,284,7] = 135
xD[299,7,298] = 135
xD[299,298,196] = 135
xD[302,4,294] = 75
xD[302,294,284] = 75
xD[302,284,7] = 75
xD[302,7,298] = 75
xD[302,298,196] = 75
xD[303,4,294] = 200
xD[304,4,294] = 24
xD[305,4,294] = 26
xD[305,294,284] = 26
xD[305,284,7] = 26
xD[305,7,298] = 26
xD[305,298,196] = 26
xD[306,4,294] = 144
xD[306,294,284] = 144
xD[306,284,7] = 144
xD[306,7,298] = 144
xD[306,298,196] = 144
xD[307,4,294] = 1
xD[307,294,284] = 1
xD[307,284,7] = 1
xD[307,7,298] = 1
xD[307,298,196] = 1
xD[309,342,333] = 339
xD[309,324,4] = 339
xD[309,333,324] = 339
xD[310,342,333] = 115
xD[310,324,4] = 115
xD[310,333,324] = 115
xD[311,4,294] = 3
xD[311,294,284] = 3
xD[311,342,333] = 3
xD[311,324,4] = 3
xD[311,333,324] = 3
xD[312,4,294] = 2
xD[312,342,333] = 2
xD[312,324,4] = 2
xD[312,333,324] = 2
xD[313,342,333] = 194
xD[313,324,4] = 194
xD[313,333,324] = 194
xD[313,326,342] = 194
xD[314,342,333] = 49
xD[314,324,4] = 49
xD[314,333,324] = 49
xD[314,326,342] = 49
xD[315,4,294] = 40
xD[315,342,333] = 40
xD[315,324,4] = 40
xD[315,333,324] = 40
xD[315,326,342] = 40
xD[318,332,326] = 842
xD[318,342,333] = 842
xD[318,324,4] = 842
xD[318,333,324] = 842
xD[318,326,342] = 842
xD[319,332,326] = 99
xD[319,342,333] = 99
xD[319,324,4] = 99
xD[319,333,324] = 99
xD[319,326,342] = 99
xD[320,4,294] = 123
xD[320,332,326] = 123
xD[320,342,333] = 123
xD[320,324,4] = 123
xD[320,333,324] = 123
xD[320,326,342] = 123
xD[321,4,294] = 1
xD[321,332,326] = 1
xD[321,342,333] = 1
xD[321,324,4] = 1
xD[321,333,324] = 1
xD[321,326,342] = 1
xD[323,283,5] = 244
xD[323,293,283] = 244
xD[323,5,295] = 244
xD[323,194,195] = 244
xD[323,295,194] = 244
xD[324,283,5] = 67
xD[324,293,283] = 67
xD[324,5,295] = 67
xD[324,194,195] = 67
xD[324,295,194] = 67
xD[333,283,5] = 237
xD[333,293,283] = 237
xD[333,5,295] = 237
xD[333,292,293] = 237
xD[333,291,292] = 237
xD[333,295,194] = 237
xD[334,283,5] = 2
xD[334,293,283] = 2
xD[334,5,295] = 2
xD[334,292,293] = 2
xD[334,291,292] = 2
xD[334,295,194] = 2
xD[336,283,5] = 97
xD[336,293,283] = 97
xD[336,5,295] = 97
xD[336,292,293] = 97
xD[336,291,292] = 97
xD[336,295,194] = 97
xD[338,283,5] = 704
xD[338,293,283] = 704
xD[338,5,295] = 704
xD[338,292,293] = 704
xD[338,194,195] = 704
xD[338,291,292] = 704
xD[338,295,194] = 704
xD[338,2,291] = 704
xD[339,283,5] = 8
xD[339,293,283] = 8
xD[339,5,295] = 8
xD[339,292,293] = 8
xD[339,194,195] = 8
xD[339,291,292] = 8
xD[339,295,194] = 8
xD[339,2,291] = 8
xD[340,2,291] = 156
xD[341,2,291] = 45
xD[342,283,5] = 16
xD[342,293,283] = 16
xD[342,5,295] = 16
xD[342,292,293] = 16
xD[342,291,292] = 16
xD[342,295,194] = 16
xD[342,2,291] = 16
xD[343,283,5] = 264
xD[343,293,283] = 264
xD[343,5,295] = 264
xD[343,292,293] = 264
xD[343,291,292] = 264
xD[343,295,194] = 264
xD[343,2,291] = 264
zE[2] = 841
zE[4] = 1177
zE[5] = 1345
zE[7] = 1681
zE[190] = 1016
zE[191] = 1184
zE[192] = 1352
zE[193] = 1520
zE[194] = 1590
zE[195] = 1688
zE[196] = 1856
zE[283] = 1167
zE[284] = 1410
zE[291] = 922
zE[292] = 992
zE[293] = 1090
zE[294] = 1258
zE[295] = 1426
zE[298] = 1762
zE[313] = 946
zE[314] = 1114
zE[316] = 854
zE[321] = 1087
zE[324] = 1063
zE[326] = 656
zE[332] = 608
zE[333] = 728
zE[342] = 691
zX[2] = 865
zX[4] = 1201
zX[5] = 1369
zX[7] = 1705
zX[9] = 344
zX[10] = 512
zX[13] = 680
zX[16] = 848
zX[158] = 580
zX[161] = 748
zX[190] = 1032
zX[191] = 1200
zX[192] = 1368
zX[193] = 1536
zX[194] = 1622
zX[195] = 1704
zX[196] = 1872
zX[283] = 1182
zX[284] = 1423
zX[291] = 952
zX[292] = 1020
zX[293] = 1120
zX[294] = 1288
zX[295] = 1456
zX[298] = 1792
zX[313] = 964
zX[314] = 1132
zX[316] = 881
zX[321] = 1095
zX[324] = 1077
zX[326] = 666
zX[332] = 618
zX[333] = 744
zX[342] = 704
phi[9] = 1528
phi[10] = 520
phi[11] = 520
phi[12] = 520
phi[17] = 1124
phi[18] = 788

### All variables with value smaller zero:

### End

real	40m31.330s
user	139m42.481s
sys	9m10.844s
	OpenBLAS 0.2.6 environment removed
	Freetype 2.4.12 environment removed
	Python 3.6.0 environment removed
	Gurobi 8.1.0 environment removed
