	OpenBLAS 0.2.6 environment established
		compiled with gcc for max. 16 cores
	Freetype 2.4.12 environment established
		library to render fonts
	Python 3.6.0 environment established
	Gurobi 8.1.0 environment established
Instance LSFRP: LSFDRP_4_3_4_1_fr.p
Instance LSFDP: LSFDRP_4_3_4_1_fd_34.p

*****************************************************************************************************************************
*** Solve LSFDRP_4_3_4_1_fd_34 with Gurobi
***
*** Graph info
*** |S|: 19
*** |S^E|: 0
*** |S^C|: 1
*** |V|: 347
*** |A|: 8382
*** |A^i|: 8382
*** |A^f|: 0
*** |M|: 343
*** |E|: 0

Changed value of parameter NumericFocus to 1
   Prev: 0  Min: 0  Max: 3  Default: 0
Changed value of parameter TimeLimit to 86400.0
   Prev: 1e+100  Min: 0.0  Max: 1e+100  Default: 1e+100
Changed value of parameter Threads to 4
   Prev: 0  Min: 0  Max: 1024  Default: 0
Optimize a model with 143928 rows, 3051766 columns and 10894115 nonzeros
Variable types: 2892487 continuous, 159279 integer (159279 binary)
Coefficient statistics:
  Matrix range     [1e+00, 4e+03]
  Objective range  [4e+01, 2e+08]
  Bounds range     [1e+00, 1e+00]
  RHS range        [1e+00, 6e+00]
Presolve removed 127769 rows and 2881732 columns (presolve time = 5s) ...
Presolve removed 135903 rows and 2908385 columns (presolve time = 13s) ...
Presolve removed 135903 rows and 2914786 columns (presolve time = 65s) ...
Presolve removed 135930 rows and 2914786 columns (presolve time = 65s) ...
Presolve removed 136041 rows and 2915027 columns (presolve time = 72s) ...
Presolve removed 136041 rows and 2915027 columns
Presolve time: 72.06s
Presolved: 7887 rows, 136739 columns, 468682 nonzeros
Variable types: 4957 continuous, 131782 integer (131745 binary)

Root simplex log...

Iteration    Objective       Primal Inf.    Dual Inf.      Time
       0    9.3644158e+09   1.390189e+06   0.000000e+00     74s
    8471    5.7448492e+07   4.663752e+04   0.000000e+00     75s
   20120    1.0878254e+07   9.983742e+04   0.000000e+00     80s
   25195    9.2541120e+06   3.341816e+04   0.000000e+00     85s
   30072    7.3212989e+06   1.170251e+05   0.000000e+00     90s
   33782    5.8257897e+06   2.064330e+05   0.000000e+00     95s
   36982    5.4095306e+06   1.902651e+03   0.000000e+00    100s
   37148    5.4073849e+06   0.000000e+00   0.000000e+00    101s

Root relaxation: objective 5.407385e+06, 37148 iterations, 26.28 seconds

    Nodes    |    Current Node    |     Objective Bounds      |     Work
 Expl Unexpl |  Obj  Depth IntInf | Incumbent    BestBd   Gap | It/Node Time

     0     0 5407384.87    0  188          - 5407384.87      -     -  103s
H    0     0                    -596794.2625 5407384.87  1006%     -  104s
H    0     0                    994364.68062 5407384.87   444%     -  172s
     0     0 5146591.61    0  203 994364.681 5146591.61   418%     -  175s
     0     0 5146591.61    0  153 994364.681 5146591.61   418%     -  187s
     0     0 5127966.14    0  160 994364.681 5127966.14   416%     -  193s
     0     0 5125038.12    0  182 994364.681 5125038.12   415%     -  194s
     0     0 5066860.26    0  166 994364.681 5066860.26   410%     -  195s
     0     0 5066300.68    0  155 994364.681 5066300.68   410%     -  195s
     0     0 5061406.85    0  162 994364.681 5061406.85   409%     -  196s
     0     0 5061397.51    0  163 994364.681 5061397.51   409%     -  196s
     0     0 5060694.36    0  172 994364.681 5060694.36   409%     -  196s
     0     0 5060452.54    0  169 994364.681 5060452.54   409%     -  197s
     0     0 5059612.83    0  166 994364.681 5059612.83   409%     -  197s
     0     0 5059612.83    0  166 994364.681 5059612.83   409%     -  197s
     0     0 5059387.60    0  175 994364.681 5059387.60   409%     -  197s
     0     0 3485427.23    0  149 994364.681 3485427.23   251%     -  200s
     0     0 3483010.33    0  163 994364.681 3483010.33   250%     -  200s
     0     0 3482378.26    0  163 994364.681 3482378.26   250%     -  200s
     0     0 3482355.50    0  164 994364.681 3482355.50   250%     -  200s
     0     0 3474858.75    0  164 994364.681 3474858.75   249%     -  201s
     0     0 3474858.75    0  132 994364.681 3474858.75   249%     -  204s
     0     0 3474858.75    0  165 994364.681 3474858.75   249%     -  208s
     0     0 3461547.38    0  169 994364.681 3461547.38   248%     -  208s
     0     0 3459723.94    0  169 994364.681 3459723.94   248%     -  208s
     0     0 3452076.21    0  193 994364.681 3452076.21   247%     -  209s
     0     0 3451863.64    0  197 994364.681 3451863.64   247%     -  209s
     0     0 3451860.38    0  197 994364.681 3451860.38   247%     -  209s
     0     0 3448685.68    0  178 994364.681 3448685.68   247%     -  210s
     0     0 3448115.34    0  182 994364.681 3448115.34   247%     -  210s
     0     0 3422947.37    0  182 994364.681 3422947.37   244%     -  210s
     0     0 3422935.82    0  182 994364.681 3422935.82   244%     -  210s
     0     0 3420039.06    0  178 994364.681 3420039.06   244%     -  211s
     0     0 3418534.86    0  188 994364.681 3418534.86   244%     -  211s
     0     0 3416943.44    0  192 994364.681 3416943.44   244%     -  211s
     0     0 3416676.84    0  194 994364.681 3416676.84   244%     -  211s
     0     0 3414863.20    0  192 994364.681 3414863.20   243%     -  211s
     0     0 3410947.48    0  194 994364.681 3410947.48   243%     -  212s
     0     0 3409436.11    0  193 994364.681 3409436.11   243%     -  212s
     0     0 3409417.36    0  195 994364.681 3409417.36   243%     -  212s
     0     0 3409390.80    0  195 994364.681 3409390.80   243%     -  212s
     0     0 3409390.79    0  195 994364.681 3409390.79   243%     -  212s
     0     0 3408627.43    0  196 994364.681 3408627.43   243%     -  212s
     0     0 3408548.56    0  196 994364.681 3408548.56   243%     -  212s
     0     0 3408305.85    0  197 994364.681 3408305.85   243%     -  212s
     0     0 3408278.61    0  198 994364.681 3408278.61   243%     -  212s
     0     0 3408258.83    0  199 994364.681 3408258.83   243%     -  212s
     0     0 3408235.43    0  199 994364.681 3408235.43   243%     -  213s
     0     0 3408235.43    0  199 994364.681 3408235.43   243%     -  213s
     0     0 3407407.59    0  197 994364.681 3407407.59   243%     -  213s
     0     0 3407155.38    0  199 994364.681 3407155.38   243%     -  213s
     0     0 3407149.45    0  198 994364.681 3407149.45   243%     -  213s
     0     0 3405032.63    0  207 994364.681 3405032.63   242%     -  213s
     0     0 3404904.09    0  208 994364.681 3404904.09   242%     -  214s
     0     0 3404624.44    0  207 994364.681 3404624.44   242%     -  214s
     0     0 3404610.21    0  206 994364.681 3404610.21   242%     -  214s
     0     0 3403850.67    0  197 994364.681 3403850.67   242%     -  214s
     0     0 3403476.83    0  195 994364.681 3403476.83   242%     -  214s
     0     0 3403442.79    0  196 994364.681 3403442.79   242%     -  214s
     0     0 3403423.01    0  196 994364.681 3403423.01   242%     -  214s
     0     0 3403143.35    0  207 994364.681 3403143.35   242%     -  215s
     0     0 3402920.17    0  207 994364.681 3402920.17   242%     -  215s
     0     0 3402749.95    0  208 994364.681 3402749.95   242%     -  215s
     0     0 3402575.25    0  209 994364.681 3402575.25   242%     -  215s
     0     0 3402556.17    0  208 994364.681 3402556.17   242%     -  215s
     0     0 3402031.94    0  207 994364.681 3402031.94   242%     -  215s
     0     0 3402028.98    0  207 994364.681 3402028.98   242%     -  215s
     0     0 3401406.27    0  209 994364.681 3401406.27   242%     -  216s
     0     0 3401379.74    0  206 994364.681 3401379.74   242%     -  216s
     0     0 3401379.25    0  208 994364.681 3401379.25   242%     -  216s
     0     0 3401207.35    0  241 994364.681 3401207.35   242%     -  216s
     0     0 3401207.35    0  238 994364.681 3401207.35   242%     -  221s
     0     2 3401207.35    0  238 994364.681 3401207.35   242%     -  224s
     1     5 3397021.96    1  231 994364.681 3397021.96   242%   210  226s
     7     8 3249509.63    3  178 994364.681 3394102.68   241%  2190  231s
    29    22 3170625.15    8  162 994364.681 3305202.07   232%  1030  248s
    39    29 3114937.42   10  178 994364.681 3305202.07   232%   899  250s
    82    61 3018959.36   18  175 994364.681 3305202.07   232%   587  255s
   116    78 2899236.21   26  141 994364.681 3305202.07   232%   597  260s
   196   114 2630628.23   40  150 994364.681 3282973.71   230%   536  266s
   203   117 2294946.52   42  144 994364.681 3282973.71   230%   566  280s
   289   151 3132088.71    7  174 994364.681 3172400.67   219%   495  285s
   333   193 2788907.41   14  165 994364.681 3172400.67   219%   516  290s
   424   257 1548540.29   27  120 994364.681 3172400.67   219%   493  295s
   535   332 2519542.03   18  142 994364.681 3170042.82   219%   470  300s
   657   402 2718822.40   10  124 994364.681 3104238.64   212%   454  305s
   798   493 1521262.26   37   89 994364.681 3088478.00   211%   446  311s
   928   571 2326706.96   10  166 994364.681 3063520.36   208%   435  315s
  1048   658 2080953.09   44  203 994364.681 3062623.53   208%   420  343s
  1050   659 2956598.33   11  133 994364.681 3062623.53   208%   419  350s
  1069   672 2730436.22   17  247 994364.681 3062623.53   208%   411  355s
  1073   675 2243421.48   40  175 994364.681 3062623.53   208%   410  360s
  1080   679 1476720.16   30  221 994364.681 3030074.53   205%   407  365s
  1094   689 1496335.77   23  253 994364.681 3016876.45   203%   402  370s
  1100   694 1630019.79   63  133 994364.681 3015168.71   203%   432  376s
  1103   696 2491939.35   20  208 994364.681 3015168.71   203%   431  380s
  1118   706 2032873.93   47  229 994364.681 3010117.48   203%   425  385s
  1122   709 1029459.13   50  232 994364.681 3008883.31   203%   424  390s
  1125   714 3003584.80   23  224 994364.681 3003584.80   202%   446  402s
  1127   717 2694736.49   24  173 994364.681 3000778.77   202%   449  411s
  1135   721 2046717.10   25  148 994364.681 2973735.36   199%   452  415s
  1153   720 2335544.99   27   73 994364.681 2924586.93   194%   461  425s
H 1155   685                    1079769.2129 2924586.93   171%   460  425s
  1176   684 2520122.83   30   90 1079769.21 2916223.97   170%   463  430s
  1226   687 1955592.47   33   59 1079769.21 2903918.66   169%   470  435s
  1267   706 2445529.19   38  127 1079769.21 2903918.66   169%   476  440s
  1321   739 2148862.18   42  120 1079769.21 2903918.66   169%   483  445s
  1388   760 2377341.35   50  129 1079769.21 2903918.66   169%   490  450s
  1462   788 2365130.57   55  138 1079769.21 2903918.66   169%   493  455s
  1598   817 2301250.56   67  128 1079769.21 2903918.66   169%   489  461s
  1709   815 2014996.05   31  106 1079769.21 2865204.52   165%   479  465s
  1815   840 1355119.42   54   78 1079769.21 2788843.82   158%   476  471s
  1927   873 1893502.39   49   78 1079769.21 2778158.97   157%   467  478s
  2008   884 2322457.74   43  103 1079769.21 2699529.58   150%   460  480s
  2181   900 2464591.25   29  147 1079769.21 2654387.11   146%   455  487s
  2308   922 1693496.56   40  171 1079769.21 2654387.11   146%   450  491s
  2450   950 2417111.42   33  142 1079769.21 2596396.57   140%   445  496s
  2659  1029     cutoff   61      1079769.21 2579880.90   139%   432  501s
H 2763  1008                    1079769.2130 2570583.48   138%   428  504s
  2818  1008 2257824.93   46  143 1079769.21 2570583.48   138%   426  507s
  2956  1072 1706722.30   77  138 1079769.21 2570583.48   138%   419  510s
H 2958  1043                    1079769.2140 2570583.48   138%   419  510s
  3106  1110 1384201.60  117  100 1079769.21 2568447.37   138%   415  516s
  3388  1302 2178728.85   47  116 1079769.21 2542215.87   135%   405  522s
  3543  1380     cutoff   84      1079769.21 2517845.28   133%   401  526s
H 3603  1400                    1079769.3016 2517845.28   133%   397  526s
  3886  1548 1932796.62   43  125 1079769.30 2490194.15   131%   386  533s
  4059  1641 1417046.38   55   70 1079769.30 2471074.01   129%   381  538s
H 4158  1680                    1079769.3018 2463624.92   128%   378  538s
  4159  1680 1219807.31   48   98 1079769.30 2463224.28   128%   378  543s
  4338  1770 2336255.46   34  121 1079769.30 2453623.06   127%   374  549s
  4484  1853 2201143.23   42  137 1079769.30 2453623.06   127%   372  554s
  4556  1884 2111117.11   45  170 1079769.30 2453623.06   127%   375  558s
  4647  1937 1881407.95   63  118 1079769.30 2453623.06   127%   375  564s
  4793  2021 1155701.35   93  102 1079769.30 2443392.36   126%   373  569s
  4932  2075 1417624.87   79  129 1079769.30 2430329.77   125%   373  575s
  5154  2172 2240050.41   39  110 1079769.30 2416210.22   124%   370  580s
  5372  2284 2391250.02   35  175 1079769.30 2414345.26   124%   365  586s
  5543  2323 1368204.56   48  126 1079769.30 2399259.29   122%   366  591s
  5724  2408     cutoff   41      1079769.30 2389052.77   121%   364  597s
  5969  2534 1836942.00   43  129 1079769.30 2377321.57   120%   362  603s
  6208  2665     cutoff   38      1079769.30 2367740.31   119%   361  610s
  6388  2756 1345324.61   47   92 1079769.30 2361491.49   119%   360  617s
  6665  2875 2167374.96   41   73 1079769.30 2354329.96   118%   360  623s
  6992  3035 1531868.83   40  108 1079769.30 2344681.97   117%   357  632s
  7296  3152     cutoff   79      1079769.30 2334431.00   116%   356  640s
  7568  3274     cutoff   62      1079769.30 2331857.44   116%   355  647s
  7947  3394 1299827.42   44   73 1079769.30 2306224.55   114%   352  656s
  8335  3596     cutoff   46      1079769.30 2290333.79   112%   349  664s
  8698  3726 1658633.61   46   69 1079769.30 2281796.55   111%   349  672s
  8913  3808 1651236.62   53   88 1079769.30 2272990.81   111%   347  682s
  9296  3989     cutoff   75      1079769.30 2264770.63   110%   346  691s
  9750  4177 2040634.19   37   42 1079769.30 2256330.34   109%   346  701s
 10089  4299 1522297.41   62   50 1079769.30 2238951.43   107%   343  710s
 10558  4442 2072279.55   55   75 1079769.30 2219160.67   106%   343  727s
 11064  4577 2046838.35   37   87 1079769.30 2205259.43   104%   340  738s
 11629  4780 1508851.20   49   89 1079769.30 2189984.22   103%   338  748s
 12116  4912 1097827.87   97   65 1079769.30 2181071.06   102%   338  759s
 12602  5015     cutoff   40      1079769.30 2160275.23   100%   339  769s
 13189  5225 1370428.07   50  156 1079769.30 2148158.81  98.9%   338  779s
 13552  5277 1387631.05   55   86 1079769.30 2133933.02  97.6%   341  791s
 14012  5400 1747129.32   46   87 1079769.30 2115441.37  95.9%   341  801s
 14527  5575 1968954.46   51   95 1079769.30 2103801.02  94.8%   340  812s
 15127  5771 1800095.77   38   47 1079769.30 2088910.98  93.5%   338  821s
 15564  5878 1734853.57   47  111 1079769.30 2078695.05  92.5%   337  830s
 16086  6000 1545414.83   53  104 1079769.30 2065941.49  91.3%   337  841s
 16523  6113     cutoff   46      1079769.30 2062613.78  91.0%   337  851s
 17011  6323 1395478.89   30   96 1079769.30 2050754.62  89.9%   335  862s
H17036  6324                    1079769.3677 2050754.62  89.9%   335  863s
 17050  6302 1304196.73   34   81 1079769.37 2049750.30  89.8%   335  873s
 17487  6423 1651634.21   32  118 1079769.37 2045382.09  89.4%   333  883s
 18036  6564     cutoff   49      1079769.37 2032105.50  88.2%   331  892s
 18574  6687     cutoff   44      1079769.37 2023598.06  87.4%   330  901s
 19137  6836 1717544.31   49   37 1079769.37 2012560.04  86.4%   329  910s
 19653  6956 1602880.78   43   72 1079769.37 2000892.02  85.3%   328  919s
 20139  7048 1305640.47   75  132 1079769.37 1994320.58  84.7%   328  928s
 20658  7228     cutoff   36      1079769.37 1983000.47  83.7%   327  936s
 21158  7348 1375732.73   65  135 1079769.37 1975994.64  83.0%   327 1203s
 21752  7503 1613326.56   45  150 1079769.37 1967278.26  82.2%   325 1212s
 22074  7586 1664915.08   45   60 1079769.37 1960620.19  81.6%   327 1220s
 22362  7641 1768574.22   37   52 1079769.37 1954592.36  81.0%   328 1228s
 22579  7664 1341927.06   48  130 1079769.37 1948552.92  80.5%   331 1237s
 22692  7653 1648991.28   50  126 1079769.37 1947618.22  80.4%   333 1246s
 22950  7691 1535222.22   47  144 1079769.37 1940691.99  79.7%   336 1254s
 23252  7752 1544568.49   47  120 1079769.37 1936381.82  79.3%   337 1262s
 23486  7800     cutoff   40      1079769.37 1933747.89  79.1%   338 1269s
 23782  7859 1396235.74   55  159 1079769.37 1927605.47  78.5%   339 1277s
 24011  7905 1449076.82   37   72 1079769.37 1924583.11  78.2%   342 1284s
 24236  7967 1171542.42   80  104 1079769.37 1920065.32  77.8%   343 1293s
 24527  8016 1757934.91   40   92 1079769.37 1915064.64  77.4%   345 1303s
 24760  8072 1349513.55   44  132 1079769.37 1913079.06  77.2%   346 1312s
 25007  8121 1543954.30   57  128 1079769.37 1910138.62  76.9%   348 1322s
 25137  8132 1485629.09   43  110 1079769.37 1909357.32  76.8%   350 1331s
 25427  8197     cutoff   57      1079769.37 1903161.64  76.3%   351 1340s
 25678  8240     cutoff   57      1079769.37 1901724.87  76.1%   353 1350s
 25920  8292 1231190.22   59   95 1079769.37 1901724.87  76.1%   355 1359s
 26183  8339 1288400.91   50  186 1079769.37 1894346.90  75.4%   357 1367s
 26465  8407 1419340.91   49  116 1079769.37 1889443.69  75.0%   359 1375s
 26799  8469 1543887.27   49   55 1079769.37 1884289.79  74.5%   360 1385s
 27069  8536 1668111.53   51  152 1079769.37 1879666.22  74.1%   363 1394s
 27357  8599 1413949.52   42  130 1079769.37 1875502.96  73.7%   364 1404s
 27590  8610 infeasible   46      1079769.37 1872629.78  73.4%   367 1414s
 27891  8675     cutoff   48      1079769.37 1867995.07  73.0%   368 1424s
 28180  8710 1828716.15   38   68 1079769.37 1863540.18  72.6%   370 1433s
 28395  8715 1412141.16   42  103 1079769.37 1859302.74  72.2%   371 1442s
 28700  8746 1082424.67   59  158 1079769.37 1853069.27  71.6%   373 1451s
 28972  8779 1315427.04   79  123 1079769.37 1849738.61  71.3%   375 1460s
 29210  8772 1114829.20   46   82 1079769.37 1848038.61  71.2%   376 1470s
 29490  8832     cutoff   53      1079769.37 1842458.78  70.6%   378 1485s
 29595  8789 1386596.03   48   51 1079769.37 1840130.38  70.4%   379 1495s
 29885  8826 1826938.37   41   54 1079769.37 1833994.97  69.9%   381 1505s
 30176  8849 1726265.52   39   68 1079769.37 1830586.36  69.5%   382 1515s
 30464  8870 1400325.90   61  145 1079769.37 1825647.67  69.1%   384 1540s
 30662  8847 1607396.79   53   39 1079769.37 1824954.15  69.0%   386 1550s
 30996  8866 1562881.91   59   89 1079769.37 1820033.52  68.6%   388 1561s
 31303  8872 1409825.14   71   76 1079769.37 1816816.23  68.3%   390 1571s
 31635  8905 1623500.00   39  112 1079769.37 1812274.13  67.8%   391 1589s
 31919  8885 1405925.55   55   66 1079769.37 1809703.02  67.6%   394 1599s
 32264  8920 infeasible   55      1079769.37 1803829.27  67.1%   396 1610s
 32525  8931 1272196.92   54   69 1079769.37 1798834.81  66.6%   398 1620s
 32795  8944     cutoff   52      1079769.37 1793199.13  66.1%   400 1630s
 33094  8936 1200893.97   49   72 1079769.37 1788935.50  65.7%   403 1641s
 33388  8929 1566980.80   40  122 1079769.37 1784378.89  65.3%   405 1651s
 33676  8955 1652380.43   49  116 1079769.37 1780475.65  64.9%   406 1662s
 34016  8974     cutoff   49      1079769.37 1777965.66  64.7%   408 1674s
 34314  8979     cutoff   50      1079769.37 1772009.64  64.1%   410 1685s
 34733  9016 1340306.62   45   74 1079769.37 1765854.59  63.5%   410 1697s
 35147  9051 1193824.13   54   57 1079769.37 1759542.32  63.0%   411 1708s
 35490  9070     cutoff   39      1079769.37 1754768.40  62.5%   413 1719s
 35888  9087     cutoff   45      1079769.37 1752356.01  62.3%   414 1731s
 36349  9119 1479658.95   51   95 1079769.37 1746448.71  61.7%   414 1742s
 36716  9140 1335095.79   45  113 1079769.37 1740027.74  61.1%   415 1754s
 36993  9116     cutoff   61      1079769.37 1735721.96  60.7%   418 1766s
 37383  9148 1125352.38   56  161 1079769.37 1731465.00  60.4%   419 1779s
 37820  9173     cutoff   78      1079769.37 1727597.06  60.0%   419 1790s
 38244  9193     cutoff   69      1079769.37 1722017.50  59.5%   420 1802s
 38692  9222     cutoff   41      1079769.37 1716571.89  59.0%   421 1815s
 39072  9249 1528947.84   49  125 1079769.37 1712401.06  58.6%   422 1826s
 39508  9274 1318725.17   38   67 1079769.37 1708431.62  58.2%   422 1837s
 39914  9270 1501604.83   50   23 1079769.37 1703623.20  57.8%   423 1847s
 40304  9282 1552980.57   31  105 1079769.37 1698764.29  57.3%   424 1859s
 40639  9276 1206897.31   52   80 1079769.37 1694556.36  56.9%   425 1871s
 40934  9236 1218881.31   43  114 1079769.37 1690524.74  56.6%   426 1884s
 41258  9222     cutoff   39      1079769.37 1686069.72  56.2%   427 1894s
 41566  9208     cutoff   64      1079769.37 1682838.32  55.9%   429 1904s
 42008  9234 1327847.78   65  100 1079769.37 1676808.33  55.3%   429 1915s
 42319  9229 1234472.27   68  141 1079769.37 1674071.83  55.0%   429 1932s
 42725  9256 1151440.21   43   68 1079769.37 1669169.62  54.6%   429 1943s
 43094  9225     cutoff   42      1079769.37 1665085.20  54.2%   430 1954s
 43461  9205     cutoff   64      1079769.37 1659145.20  53.7%   431 1966s
 43828  9199     cutoff   59      1079769.37 1654772.10  53.3%   432 1977s
 44213  9254     cutoff   33      1079769.37 1652209.13  53.0%   432 2010s
 44432  9197 1395218.02   44  180 1079769.37 1650024.31  52.8%   433 2021s
 44853  9194     cutoff   54      1079769.37 1645506.08  52.4%   433 2032s
 45217  9189     cutoff   75      1079769.37 1643415.07  52.2%   434 2047s
 45674  9247 1430250.36   47  149 1079769.37 1638006.58  51.7%   434 2059s
 46013  9237     cutoff   57      1079769.37 1635790.09  51.5%   434 2070s
 46437  9279     cutoff   69      1079769.37 1631861.81  51.1%   434 2080s
 46843  9281 1594436.35   55  137 1079769.37 1628449.80  50.8%   434 2091s
 47221  9261 1250041.92   38  108 1079769.37 1623626.65  50.4%   435 2101s
 47525  9247 1468051.29   37  114 1079769.37 1618724.15  49.9%   436 2113s
 47931  9223 1089982.62   53  101 1079769.37 1615028.91  49.6%   436 2124s
 48360  9222 1607639.20   46   68 1079769.37 1610601.57  49.2%   436 2134s
 48639  9180 1333150.38   44   43 1079769.37 1607606.59  48.9%   437 2145s
 49037  9165     cutoff   83      1079769.37 1603973.95  48.5%   437 2155s
 49462  9143     cutoff   44      1079769.37 1601164.94  48.3%   437 2166s
 49899  9142 1595050.32   46   48 1079769.37 1596401.13  47.8%   437 2176s
 50405  9156 1578838.46   50  113 1079769.37 1595050.32  47.7%   436 2188s
 50752  9134     cutoff   60      1079769.37 1590262.70  47.3%   437 2201s
 51113  9110 1429140.54   47   38 1079769.37 1588317.82  47.1%   437 2209s
 51455  9073 1447889.20   62  110 1079769.37 1584086.71  46.7%   437 2219s
 51862  9081 1453275.13   48   88 1079769.37 1580594.58  46.4%   437 2231s
 52147  9025 infeasible   53      1079769.37 1577940.26  46.1%   437 2241s
 52612  9013     cutoff   65      1079769.37 1572840.07  45.7%   437 2250s
 52953  8982     cutoff   50      1079769.37 1569383.98  45.3%   437 2257s
 53284  8944     cutoff   53      1079769.37 1566214.12  45.1%   437 2267s
 53590  8909     cutoff   44      1079769.37 1562461.43  44.7%   437 2275s
 53884  8914 1502093.31   43   23 1079769.37 1559062.56  44.4%   437 2286s
 54085  8860 1483120.27   44   20 1079769.37 1558655.53  44.4%   437 2295s
 54492  8862     cutoff   51      1079769.37 1555189.77  44.0%   437 2306s
 54869  8845 1145050.94   59  118 1079769.37 1550283.22  43.6%   437 2316s
 55199  8810 1548179.43   54   36 1079769.37 1548551.59  43.4%   437 2325s
 55603  8837     cutoff   52      1079769.37 1544096.77  43.0%   437 2334s
 55982  8830     cutoff   62      1079769.37 1541258.43  42.7%   437 2349s
 56359  8823 1482431.58   42   45 1079769.37 1537750.75  42.4%   437 2358s
 56779  8821     cutoff   37      1079769.37 1535022.09  42.2%   436 2366s
 57102  8776 1150127.21   40   72 1079769.37 1531598.75  41.8%   436 2375s
 57483  8772 1433939.99   44  161 1079769.37 1528903.08  41.6%   436 2383s
 57836  8754     cutoff   55      1079769.37 1525708.44  41.3%   436 2392s
 58085  8702     cutoff   42      1079769.37 1523143.31  41.1%   437 2400s
 58434  8670     cutoff   47      1079769.37 1518565.89  40.6%   436 2407s
 58725  8614     cutoff   52      1079769.37 1515202.87  40.3%   436 2413s
 59033  8577 1493514.16   57   80 1079769.37 1512211.51  40.0%   436 2420s
 59537  8600 1448050.47   52   38 1079769.37 1509557.35  39.8%   435 2428s
 59913  8573     cutoff   45      1079769.37 1506884.99  39.6%   434 2436s
 60226  8543     cutoff   48      1079769.37 1503869.61  39.3%   434 2444s
 60510  8493     cutoff   52      1079769.37 1500667.71  39.0%   435 2454s
 60862  8446 1445429.85   47   41 1079769.37 1498040.41  38.7%   434 2463s
 61164  8425 1254738.96   83  102 1079769.37 1494831.09  38.4%   434 2471s
 61508  8395 1415324.37   50   58 1079769.37 1492030.78  38.2%   434 2478s
 61843  8356 1482986.47   54   97 1079769.37 1488702.16  37.9%   434 2487s
 62197  8339 1205857.05   38  110 1079769.37 1486054.57  37.6%   434 2494s
 62521  8283     cutoff   49      1079769.37 1482628.43  37.3%   434 2501s
 62846  8245     cutoff   47      1079769.37 1479388.70  37.0%   434 2507s
 63173  8207     cutoff   49      1079769.37 1476018.74  36.7%   434 2513s
 63435  8161     cutoff   57      1079769.37 1472858.94  36.4%   434 2519s
 63685  8098 1108640.71   49   56 1079769.37 1470136.92  36.2%   433 2525s
 64084  8121 1282573.13   56   97 1079769.37 1467282.10  35.9%   433 2533s
 64274  8057     cutoff   41      1079769.37 1465979.82  35.8%   433 2539s
 64558  8008     cutoff   45      1079769.37 1462624.26  35.5%   432 2543s
 64817  7960     cutoff   61      1079769.37 1460199.74  35.2%   432 2552s
 65121  7913     cutoff   53      1079769.37 1457649.13  35.0%   432 2557s
 65406  7863     cutoff   49      1079769.37 1455071.36  34.8%   432 2563s
 65715  7824 1439796.63   49   54 1079769.37 1452673.48  34.5%   432 2569s
 66056  7789 1404649.36   55   47 1079769.37 1449818.71  34.3%   431 2575s
 66304  7742     cutoff   62      1079769.37 1447398.87  34.0%   431 2581s
 66637  7707     cutoff   51      1079769.37 1444550.53  33.8%   431 2587s
 66873  7650     cutoff   78      1079769.37 1441752.64  33.5%   431 2593s
 67175  7618     cutoff   44      1079769.37 1438551.16  33.2%   431 2598s
 67465  7580     cutoff   50      1079769.37 1435668.20  33.0%   430 2606s
 67711  7514 1289168.43   43   84 1079769.37 1433128.06  32.7%   430 2611s
 67974  7468     cutoff   48      1079769.37 1430313.05  32.5%   430 2617s
 68216  7400     cutoff   66      1079769.37 1427957.59  32.2%   430 2623s
 68452  7338     cutoff   48      1079769.37 1425387.42  32.0%   430 2629s
 68736  7297 1388064.95   51   62 1079769.37 1422853.83  31.8%   430 2635s
 69032  7255 1387190.25   53   37 1079769.37 1420224.33  31.5%   430 2642s
 69311  7208     cutoff   43      1079769.37 1417296.33  31.3%   430 2649s
 69613  7172     cutoff   43      1079769.37 1414987.95  31.0%   429 2654s
 69842  7113 1332386.54   48  111 1079769.37 1412896.30  30.9%   429 2659s
 70147  7073     cutoff   53      1079769.37 1410228.13  30.6%   429 2667s
 70481  7030 1273465.91   45  118 1079769.37 1407898.07  30.4%   428 2673s
 70755  6979     cutoff   61      1079769.37 1405031.49  30.1%   428 2679s
 71028  6936     cutoff   69      1079769.37 1402404.02  29.9%   428 2686s
 71326  6888     cutoff   64      1079769.37 1400055.89  29.7%   428 2690s
 71520  6813     cutoff   54      1079769.37 1397659.61  29.4%   428 2697s
 71781  6764     cutoff   54      1079769.37 1395096.45  29.2%   428 2704s
 72109  6707 1225152.08   42  102 1079769.37 1392465.62  29.0%   428 2710s
 72449  6670 1087536.46   41  112 1079769.37 1390182.96  28.7%   428 2716s
 72754  6629     cutoff   54      1079769.37 1387888.63  28.5%   427 2721s
 73025  6576     cutoff   39      1079769.37 1385571.64  28.3%   427 2726s
 73253  6508     cutoff   54      1079769.37 1383363.54  28.1%   427 2731s
 73525  6468 1317457.60   63   68 1079769.37 1381031.52  27.9%   426 2737s
 73775  6404 1361125.27   42   61 1079769.37 1378793.57  27.7%   426 2742s
 74038  6332     cutoff   71      1079769.37 1376336.06  27.5%   426 2746s
 74275  6276     cutoff   56      1079769.37 1374319.13  27.3%   426 2751s
 74477  6206 1133115.52   44   69 1079769.37 1371524.95  27.0%   426 2755s
 74702  6195     cutoff   61      1079769.37 1369269.40  26.8%   426 2768s
 74839  6127     cutoff   40      1079769.37 1369063.53  26.8%   425 2774s
 75042  6056     cutoff   68      1079769.37 1366043.32  26.5%   425 2778s
 75261  5988     cutoff   49      1079769.37 1364009.62  26.3%   425 2783s
 75516  5930 1293231.17   39   61 1079769.37 1361596.34  26.1%   425 2789s
 75667  5851     cutoff   61      1079769.37 1359166.99  25.9%   425 2794s
 75894  5779     cutoff   50      1079769.37 1357202.68  25.7%   425 2799s
 76160  5715     cutoff   38      1079769.37 1355193.28  25.5%   425 2803s
 76405  5655 1210498.42   56   88 1079769.37 1352594.71  25.3%   424 2807s
 76667  5612     cutoff   57      1079769.37 1350315.99  25.1%   424 2812s
 76967  5567 1324063.41   50   83 1079769.37 1347929.19  24.8%   424 2815s
 77174  5500     cutoff   49      1079769.37 1345127.08  24.6%   423 2820s
 77691  5382     cutoff   52      1079769.37 1340719.78  24.2%   423 2827s
 77888  5305     cutoff   49      1079769.37 1338288.81  23.9%   423 2831s
 78089  5242     cutoff   61      1079769.37 1336196.73  23.7%   423 2836s
 78319  5168     cutoff   59      1079769.37 1334011.07  23.5%   422 2840s
 78542  5106     cutoff   59      1079769.37 1331618.60  23.3%   422 2845s
 78852  5053     cutoff   56      1079769.37 1329217.62  23.1%   422 2851s
 79100  4990 1195107.10   55   64 1079769.37 1326988.19  22.9%   422 2855s
 79534  4852     cutoff   41      1079769.37 1322183.83  22.5%   421 2862s
 79747  4773 1290143.69   55   45 1079769.37 1320320.67  22.3%   421 2866s
 80178  4636     cutoff   50      1079769.37 1316098.08  21.9%   420 2875s
 80587  4490 1121112.11   48   27 1079769.37 1311502.89  21.5%   420 2886s
 80781  4424     cutoff   45      1079769.37 1309474.58  21.3%   420 2891s
 80939  4347 1271925.97   54   28 1079769.37 1307334.82  21.1%   420 2896s
 81153  4283 1239033.61   51   52 1079769.37 1304759.74  20.8%   420 2900s
 81575  4152     cutoff   65      1079769.37 1300271.55  20.4%   419 2950s
 81919  4003     cutoff   63      1079769.37 1295739.17  20.0%   419 2959s
 82110  3926     cutoff   46      1079769.37 1293212.12  19.8%   419 2963s
 82387  3869     cutoff   43      1079769.37 1290545.61  19.5%   418 2966s
 82824  3735     cutoff   59      1079769.37 1285719.14  19.1%   418 2971s
 83034  3672 1195280.17   44   34 1079769.37 1283003.60  18.8%   417 2975s
 83457  3546     cutoff   57      1079769.37 1278560.93  18.4%   417 2981s
 83845  3399     cutoff   34      1079769.37 1274198.91  18.0%   416 2987s
 84222  3253     cutoff   55      1079769.37 1269572.24  17.6%   416 2992s
 84434  3184     cutoff   43      1079769.37 1267579.45  17.4%   415 2995s
 84895  3060     cutoff   55      1079769.37 1263305.06  17.0%   415 3001s
 85259  2907 1207908.45   34   95 1079769.37 1258079.90  16.5%   415 3007s
 85419  2842     cutoff   65      1079769.37 1255630.69  16.3%   415 3010s
 85904  2600     cutoff   41      1079769.37 1248408.34  15.6%   414 3017s
 86066  2518 1141043.28   50   57 1079769.37 1245912.02  15.4%   414 3020s
 86419  2361     cutoff   49      1079769.37 1240734.11  14.9%   414 3025s
 86746  2206     cutoff   44      1079769.37 1235843.43  14.5%   413 3030s
 87094  2055     cutoff   42      1079769.37 1230507.32  14.0%   413 3035s
 87409  1899 1183229.34   55   33 1079769.37 1224341.89  13.4%   412 3041s
 87758  1739     cutoff   72      1079769.37 1219257.85  12.9%   412 3045s
 88243  1496     cutoff   87      1079769.37 1209499.80  12.0%   411 3051s
 88587  1332 1166510.70   71   64 1079769.37 1203168.78  11.4%   410 3055s
 88893  1171     cutoff   49      1079769.37 1196237.09  10.8%   410 3060s
 89308   924     cutoff   52      1079769.37 1186421.91  9.88%   409 3065s
 89713   681     cutoff   48      1079769.37 1171525.34  8.50%   408 3070s
 90212   349     cutoff   41      1079769.37 1150091.71  6.51%   408 3075s
 90560    97     cutoff   42      1079769.37 1119621.08  3.69%   407 3080s

Cutting planes:
  Gomory: 64
  Implied bound: 19
  Projected implied bound: 4
  MIR: 27
  Flow cover: 273
  Zero half: 1

Explored 90757 nodes (37012768 simplex iterations) in 3085.33 seconds
Thread count was 4 (of 16 available processors)

Solution count 8: 1.07977e+06 1.07977e+06 1.07977e+06 ... -596794

Optimal solution found (tolerance 1.00e-04)
Best objective 1.079769212879e+06, best bound 1.079769367671e+06, gap 0.0000%

***
***  |- Calculation finished, took 3,085.38 (3085.38) sec.
***  |-----------------------------------------------------------------------------------------------------------------------
***
*****************************************************************************************************************************
#############################################################################################################################
###
### Results
###
### The objective of the solution is 1,079,769.2129 (1079769.2129) and is feasible with a Gap of 0.0
###
### Service 81 (MECL1) is operated by 6 vessels from type 30 (PMax35)
###  |- Vessel  9 has the path [9, 332, 326, 342, 333, 324, 4, 294, 284, 7, 298, 196, 0]
###  |  9 (BEANR Out@344.0) - 332 (USEWR In@608.0/Out@618.0) - 326 (USCHS In@656.0/Out@666.0) - 342 (USORF In@691.0/Out@704.0
###  |  ) - 333 (USEWR In@728.0/Out@744.0) - 324 (TRZMK In@1063.0/Out@1077.0) - 4 (AEJEA In@1177.0/Out@1201.0) - 294 (PKBQM I
###  |  n@1258.0/Out@1288.0) - 284 (OMSLL In@1410.0/Out@1423.0) - 7 (AEJEA In@1681.0/Out@1705.0) - 298 (PKBQM In@1762.0/Out@1
###  |  792.0) - 196 (INNSA In@1856.0/Out@1872.0) - 0 (DUMMY_END Ziel-Service 81)
###  |   |- and carried Demand 237,   34.0 containers from 298 to 196
###  |   |- and carried Demand 238,   84.0 containers from   7 to 298
###  |   |- and carried Demand 239,   50.0 containers from   7 to 298
###  |   |- and carried Demand 297,  254.0 containers from 294 to 196
###  |   |- and carried Demand 298,    1.0 containers from 294 to 196
###  |   |- and carried Demand 299,  135.0 containers from 294 to 196
###  |   |- and carried Demand 302,   75.0 containers from   4 to 196
###  |   |- and carried Demand 303,  200.0 containers from   4 to 294
###  |   |- and carried Demand 304,   24.0 containers from   4 to 294
###  |   |- and carried Demand 305,   26.0 containers from   4 to 196
###  |   |- and carried Demand 306,  144.0 containers from   4 to 196
###  |   |- and carried Demand 307,    1.0 containers from   4 to 196
###  |   |- and carried Demand 309,  339.0 containers from 342 to   4
###  |   |- and carried Demand 310,  115.0 containers from 342 to   4
###  |   |- and carried Demand 311,    3.0 containers from 342 to 284
###  |   |- and carried Demand 312,    2.0 containers from 342 to 294
###  |   |- and carried Demand 313,  194.0 containers from 326 to   4
###  |   |- and carried Demand 314,   49.0 containers from 326 to   4
###  |   |- and carried Demand 315,   40.0 containers from 326 to 294
###  |   |- and carried Demand 318,  842.0 containers from 332 to   4
###  |   |- and carried Demand 319,   99.0 containers from 332 to   4
###  |   |- and carried Demand 320,  123.0 containers from 332 to 294
###  |   |- and carried Demand 321,    1.0 containers from 332 to 294
###  |- Vessel 10 has the path [10, 316, 190, 0]
###  |  10 (BEANR Out@512.0) - 316 (TRAMB In@854.0/Out@881.0) - 190 (INNSA In@1016.0/Out@1032.0) - 0 (DUMMY_END Ziel-Service 
###  |  81)
###  |- Vessel 11 has the path [13, 313, 191, 0]
###  |  13 (BEANR Out@680.0) - 313 (TRALI In@946.0/Out@964.0) - 191 (INNSA In@1184.0/Out@1200.0) - 0 (DUMMY_END Ziel-Service 
###  |  81)
###  |- Vessel 12 has the path [16, 314, 192, 0]
###  |  16 (BEANR Out@848.0) - 314 (TRALI In@1114.0/Out@1132.0) - 192 (INNSA In@1352.0/Out@1368.0) - 0 (DUMMY_END Ziel-Servic
###  |  e 81)
###  |- Vessel 17 has the path [158, 2, 291, 292, 293, 283, 5, 295, 194, 195, 0]
###  |  158 (GBFXT Out@580.0) - 2 (AEJEA In@841.0/Out@865.0) - 291 (PKBQM In@922.0/Out@952.0) - 292 (PKBQM In@992.0/Out@1020.
###  |  0) - 293 (PKBQM In@1090.0/Out@1120.0) - 283 (OMSLL In@1167.0/Out@1182.0) - 5 (AEJEA In@1345.0/Out@1369.0) - 295 (PKBQ
###  |  M In@1426.0/Out@1456.0) - 194 (INNSA In@1590.0/Out@1622.0) - 195 (INNSA In@1688.0/Out@1704.0) - 0 (DUMMY_END Ziel-Ser
###  |  vice 81)
###  |   |- and carried Demand 120,  237.0 containers from 292 to 194
###  |   |- and carried Demand 121,    2.0 containers from 292 to 194
###  |   |- and carried Demand 123,   97.0 containers from 292 to 194
###  |   |- and carried Demand 283,  153.0 containers from   5 to 195
###  |   |- and carried Demand 284,   86.0 containers from   5 to 295
###  |   |- and carried Demand 285,  118.0 containers from   5 to 295
###  |   |- and carried Demand 323,  244.0 containers from 293 to 195
###  |   |- and carried Demand 324,   67.0 containers from 293 to 195
###  |   |- and carried Demand 333,  237.0 containers from 291 to 194
###  |   |- and carried Demand 334,    2.0 containers from 291 to 194
###  |   |- and carried Demand 336,   97.0 containers from 291 to 194
###  |   |- and carried Demand 338,  704.0 containers from   2 to 195
###  |   |- and carried Demand 339,    8.0 containers from   2 to 195
###  |   |- and carried Demand 340,  156.0 containers from   2 to 291
###  |   |- and carried Demand 341,   45.0 containers from   2 to 291
###  |   |- and carried Demand 342,   16.0 containers from   2 to 194
###  |   |- and carried Demand 343,  264.0 containers from   2 to 194
###  |- Vessel 18 has the path [161, 321, 193, 0]
###  |  161 (GBFXT Out@748.0) - 321 (TRGEM In@1087.0/Out@1095.0) - 193 (INNSA In@1520.0/Out@1536.0) - 0 (DUMMY_END Ziel-Servi
###  |  ce 81)
###  |
### Vessels not used in the solution: [1, 2, 3, 4, 5, 6, 7, 8, 13, 14, 15, 16, 21]
###  |-----------------------------------------------------------------------------------------------------------------------
###
#############################################################################################################################

### Detialed variable overview

### All variables with value greater zero:
rho[81,30] = 1
eta[81,30,1] = 1
eta[81,30,2] = 1
eta[81,30,3] = 1
eta[81,30,4] = 1
eta[81,30,5] = 1
eta[81,30,6] = 1
y[9,4,294] = 1
y[9,332,326] = 1
y[9,294,284] = 1
y[9,284,7] = 1
y[9,342,333] = 1
y[9,9,332] = 1
y[9,324,4] = 1
y[9,7,298] = 1
y[9,196,0] = 1
y[9,333,324] = 1
y[9,298,196] = 1
y[9,326,342] = 1
y[10,190,0] = 1
y[10,316,190] = 1
y[10,10,316] = 1
y[11,313,191] = 1
y[11,191,0] = 1
y[11,13,313] = 1
y[12,192,0] = 1
y[12,314,192] = 1
y[12,16,314] = 1
y[17,283,5] = 1
y[17,293,283] = 1
y[17,195,0] = 1
y[17,5,295] = 1
y[17,292,293] = 1
y[17,194,195] = 1
y[17,291,292] = 1
y[17,295,194] = 1
y[17,2,291] = 1
y[17,158,2] = 1
y[18,161,321] = 1
y[18,193,0] = 1
y[18,321,193] = 1
xD[120,283,5] = 237
xD[120,293,283] = 237
xD[120,5,295] = 237
xD[120,292,293] = 237
xD[120,295,194] = 237
xD[121,283,5] = 2
xD[121,293,283] = 2
xD[121,5,295] = 2
xD[121,292,293] = 2
xD[121,295,194] = 2
xD[123,283,5] = 97
xD[123,293,283] = 97
xD[123,5,295] = 97
xD[123,292,293] = 97
xD[123,295,194] = 97
xD[237,298,196] = 34
xD[238,7,298] = 84
xD[239,7,298] = 50
xD[283,5,295] = 153
xD[283,194,195] = 153
xD[283,295,194] = 153
xD[284,5,295] = 86
xD[285,5,295] = 118
xD[297,294,284] = 254
xD[297,284,7] = 254
xD[297,7,298] = 254
xD[297,298,196] = 254
xD[298,294,284] = 1
xD[298,284,7] = 1
xD[298,7,298] = 1
xD[298,298,196] = 1
xD[299,294,284] = 135
xD[299,284,7] = 135
xD[299,7,298] = 135
xD[299,298,196] = 135
xD[302,4,294] = 75
xD[302,294,284] = 75
xD[302,284,7] = 75
xD[302,7,298] = 75
xD[302,298,196] = 75
xD[303,4,294] = 200
xD[304,4,294] = 24
xD[305,4,294] = 26
xD[305,294,284] = 26
xD[305,284,7] = 26
xD[305,7,298] = 26
xD[305,298,196] = 26
xD[306,4,294] = 144
xD[306,294,284] = 144
xD[306,284,7] = 144
xD[306,7,298] = 144
xD[306,298,196] = 144
xD[307,4,294] = 1
xD[307,294,284] = 1
xD[307,284,7] = 1
xD[307,7,298] = 1
xD[307,298,196] = 1
xD[309,342,333] = 339
xD[309,324,4] = 339
xD[309,333,324] = 339
xD[310,342,333] = 115
xD[310,324,4] = 115
xD[310,333,324] = 115
xD[311,4,294] = 3
xD[311,294,284] = 3
xD[311,342,333] = 3
xD[311,324,4] = 3
xD[311,333,324] = 3
xD[312,4,294] = 2
xD[312,342,333] = 2
xD[312,324,4] = 2
xD[312,333,324] = 2
xD[313,342,333] = 194
xD[313,324,4] = 194
xD[313,333,324] = 194
xD[313,326,342] = 194
xD[314,342,333] = 49
xD[314,324,4] = 49
xD[314,333,324] = 49
xD[314,326,342] = 49
xD[315,4,294] = 40
xD[315,342,333] = 40
xD[315,324,4] = 40
xD[315,333,324] = 40
xD[315,326,342] = 40
xD[318,332,326] = 842
xD[318,342,333] = 842
xD[318,324,4] = 842
xD[318,333,324] = 842
xD[318,326,342] = 842
xD[319,332,326] = 99
xD[319,342,333] = 99
xD[319,324,4] = 99
xD[319,333,324] = 99
xD[319,326,342] = 99
xD[320,4,294] = 123
xD[320,332,326] = 123
xD[320,342,333] = 123
xD[320,324,4] = 123
xD[320,333,324] = 123
xD[320,326,342] = 123
xD[321,4,294] = 1
xD[321,332,326] = 1
xD[321,342,333] = 1
xD[321,324,4] = 1
xD[321,333,324] = 1
xD[321,326,342] = 1
xD[323,283,5] = 244
xD[323,293,283] = 244
xD[323,5,295] = 244
xD[323,194,195] = 244
xD[323,295,194] = 244
xD[324,283,5] = 67
xD[324,293,283] = 67
xD[324,5,295] = 67
xD[324,194,195] = 67
xD[324,295,194] = 67
xD[333,283,5] = 237
xD[333,293,283] = 237
xD[333,5,295] = 237
xD[333,292,293] = 237
xD[333,291,292] = 237
xD[333,295,194] = 237
xD[334,283,5] = 2
xD[334,293,283] = 2
xD[334,5,295] = 2
xD[334,292,293] = 2
xD[334,291,292] = 2
xD[334,295,194] = 2
xD[336,283,5] = 97
xD[336,293,283] = 97
xD[336,5,295] = 97
xD[336,292,293] = 97
xD[336,291,292] = 97
xD[336,295,194] = 97
xD[338,283,5] = 704
xD[338,293,283] = 704
xD[338,5,295] = 704
xD[338,292,293] = 704
xD[338,194,195] = 704
xD[338,291,292] = 704
xD[338,295,194] = 704
xD[338,2,291] = 704
xD[339,283,5] = 8
xD[339,293,283] = 8
xD[339,5,295] = 8
xD[339,292,293] = 8
xD[339,194,195] = 8
xD[339,291,292] = 8
xD[339,295,194] = 8
xD[339,2,291] = 8
xD[340,2,291] = 156
xD[341,2,291] = 45
xD[342,283,5] = 16
xD[342,293,283] = 16
xD[342,5,295] = 16
xD[342,292,293] = 16
xD[342,291,292] = 16
xD[342,295,194] = 16
xD[342,2,291] = 16
xD[343,283,5] = 264
xD[343,293,283] = 264
xD[343,5,295] = 264
xD[343,292,293] = 264
xD[343,291,292] = 264
xD[343,295,194] = 264
xD[343,2,291] = 264
zE[2] = 841
zE[4] = 1177
zE[5] = 1345
zE[7] = 1681
zE[190] = 1016
zE[191] = 1184
zE[192] = 1352
zE[193] = 1520
zE[194] = 1590
zE[195] = 1688
zE[196] = 1856
zE[283] = 1167
zE[284] = 1410
zE[291] = 922
zE[292] = 992
zE[293] = 1090
zE[294] = 1258
zE[295] = 1426
zE[298] = 1762
zE[313] = 946
zE[314] = 1114
zE[316] = 854
zE[321] = 1087
zE[324] = 1063
zE[326] = 656
zE[332] = 608
zE[333] = 728
zE[342] = 691
zX[2] = 865
zX[4] = 1201
zX[5] = 1369
zX[7] = 1705
zX[9] = 344
zX[10] = 512
zX[13] = 680
zX[16] = 848
zX[158] = 580
zX[161] = 748
zX[190] = 1032
zX[191] = 1200
zX[192] = 1368
zX[193] = 1536
zX[194] = 1622
zX[195] = 1704
zX[196] = 1872
zX[283] = 1182
zX[284] = 1423
zX[291] = 952
zX[292] = 1020
zX[293] = 1120
zX[294] = 1288
zX[295] = 1456
zX[298] = 1792
zX[313] = 964
zX[314] = 1132
zX[316] = 881
zX[321] = 1095
zX[324] = 1077
zX[326] = 666
zX[332] = 618
zX[333] = 744
zX[342] = 704
phi[9] = 1528
phi[10] = 520
phi[11] = 520
phi[12] = 520
phi[17] = 1124
phi[18] = 788

### All variables with value smaller zero:

### End

real	55m16.916s
user	194m51.638s
sys	10m22.946s
	OpenBLAS 0.2.6 environment removed
	Freetype 2.4.12 environment removed
	Python 3.6.0 environment removed
	Gurobi 8.1.0 environment removed
