	OpenBLAS 0.2.6 environment established
		compiled with gcc for max. 16 cores
	Freetype 2.4.12 environment established
		library to render fonts
	Python 3.6.0 environment established
	Gurobi 8.1.0 environment established
Instance LSFRP: LSFDRP_4_3_4_1_fr.p
Instance LSFDP: LSFDRP_4_3_4_1_fd_37.p

*****************************************************************************************************************************
*** Solve LSFDRP_4_3_4_1_fd_37 with Gurobi
***
*** Graph info
*** |S|: 19
*** |S^E|: 0
*** |S^C|: 1
*** |V|: 347
*** |A|: 8382
*** |A^i|: 8382
*** |A^f|: 0
*** |M|: 343
*** |E|: 0

Changed value of parameter NumericFocus to 1
   Prev: 0  Min: 0  Max: 3  Default: 0
Changed value of parameter TimeLimit to 86400.0
   Prev: 1e+100  Min: 0.0  Max: 1e+100  Default: 1e+100
Changed value of parameter Threads to 4
   Prev: 0  Min: 0  Max: 1024  Default: 0
Optimize a model with 143928 rows, 3051766 columns and 10894115 nonzeros
Variable types: 2892487 continuous, 159279 integer (159279 binary)
Coefficient statistics:
  Matrix range     [1e+00, 4e+03]
  Objective range  [4e+01, 2e+08]
  Bounds range     [1e+00, 1e+00]
  RHS range        [1e+00, 6e+00]
Presolve removed 98897 rows and 2684379 columns (presolve time = 5s) ...
Presolve removed 135895 rows and 2908378 columns (presolve time = 10s) ...
Presolve removed 135903 rows and 2914786 columns (presolve time = 56s) ...
Presolve removed 136041 rows and 2915027 columns (presolve time = 62s) ...
Presolve removed 136041 rows and 2915027 columns
Presolve time: 62.06s
Presolved: 7887 rows, 136739 columns, 468682 nonzeros
Variable types: 4957 continuous, 131782 integer (131745 binary)

Root simplex log...

Iteration    Objective       Primal Inf.    Dual Inf.      Time
       0    9.3644158e+09   1.390189e+06   0.000000e+00     64s
    9431    6.0338323e+07   6.028790e+04   0.000000e+00     65s
   22183    1.1296093e+07   1.229088e+06   0.000000e+00     70s
   28509    9.0247020e+06   1.024142e+05   0.000000e+00     75s
   34221    6.9884557e+06   7.181196e+04   0.000000e+00     80s
   38461    5.5022050e+06   1.682720e+04   0.000000e+00     85s
   39407    5.4073849e+06   0.000000e+00   0.000000e+00     87s

Root relaxation: objective 5.407385e+06, 39407 iterations, 22.27 seconds

    Nodes    |    Current Node    |     Objective Bounds      |     Work
 Expl Unexpl |  Obj  Depth IntInf | Incumbent    BestBd   Gap | It/Node Time

     0     0 5407384.87    0  165          - 5407384.87      -     -   89s
H    0     0                    -596794.2625 5407384.87  1006%     -   90s
H    0     0                    102353.33268 5407384.87  5183%     -  130s
H    0     0                    826603.16341 5407384.87   554%     -  131s
     0     0 5142387.94    0  152 826603.163 5142387.94   522%     -  132s
     0     0 5142387.94    0  156 826603.163 5142387.94   522%     -  141s
     0     0 5127854.27    0  150 826603.163 5127854.27   520%     -  147s
     0     0 5124831.27    0  174 826603.163 5124831.27   520%     -  148s
     0     0 4818429.71    0  216 826603.163 4818429.71   483%     -  149s
     0     0 4658754.87    0  184 826603.163 4658754.87   464%     -  150s
     0     0 4646917.42    0  199 826603.163 4646917.42   462%     -  151s
     0     0 4646031.23    0  222 826603.163 4646031.23   462%     -  151s
     0     0 4645752.73    0  221 826603.163 4645752.73   462%     -  151s
     0     0 4645752.73    0  221 826603.163 4645752.73   462%     -  151s
     0     0 3110070.79    0  109 826603.163 3110070.79   276%     -  153s
     0     0 3108190.05    0  138 826603.163 3108190.05   276%     -  153s
     0     0 3106577.23    0  164 826603.163 3106577.23   276%     -  153s
     0     0 3106577.23    0  164 826603.163 3106577.23   276%     -  153s
     0     0 3101825.81    0  136 826603.163 3101825.81   275%     -  154s
     0     0 3101825.81    0  161 826603.163 3101825.81   275%     -  157s
     0     0 3101825.81    0  162 826603.163 3101825.81   275%     -  162s
     0     0 3101825.81    0  152 826603.163 3101825.81   275%     -  163s
     0     0 3101825.81    0  154 826603.163 3101825.81   275%     -  163s
     0     0 3101825.81    0  116 826603.163 3101825.81   275%     -  164s
     0     0 3101484.03    0  139 826603.163 3101484.03   275%     -  164s
     0     0 3100711.10    0  134 826603.163 3100711.10   275%     -  164s
     0     0 3100568.75    0  134 826603.163 3100568.75   275%     -  165s
     0     0 3092963.55    0  139 826603.163 3092963.55   274%     -  165s
     0     0 3091688.23    0  137 826603.163 3091688.23   274%     -  165s
     0     0 3090316.86    0  142 826603.163 3090316.86   274%     -  165s
     0     0 3090073.73    0  143 826603.163 3090073.73   274%     -  165s
     0     0 3089915.10    0  147 826603.163 3089915.10   274%     -  166s
     0     0 3089869.97    0  146 826603.163 3089869.97   274%     -  166s
     0     0 3089320.26    0  147 826603.163 3089320.26   274%     -  166s
     0     0 3088616.56    0  145 826603.163 3088616.56   274%     -  166s
     0     0 3088477.10    0  142 826603.163 3088477.10   274%     -  166s
     0     0 3087857.43    0  145 826603.163 3087857.43   274%     -  166s
     0     0 3087857.43    0  145 826603.163 3087857.43   274%     -  169s
H    0     0                    864882.26522 3087857.43   257%     -  172s
     0     0 3087857.43    0  151 864882.265 3087857.43   257%     -  175s
H    0     0                    932943.06537 3087857.43   231%     -  178s
     0     0 3087857.43    0  169 932943.065 3087857.43   231%     -  180s
     0     0 3087857.43    0  152 932943.065 3087857.43   231%     -  181s
     0     0 3087857.43    0  133 932943.065 3087857.43   231%     -  182s
     0     0 3087857.43    0  136 932943.065 3087857.43   231%     -  182s
     0     0 3087857.43    0  150 932943.065 3087857.43   231%     -  182s
     0     0 3087857.43    0  144 932943.065 3087857.43   231%     -  182s
     0     0 3087857.43    0  147 932943.065 3087857.43   231%     -  182s
     0     0 3087855.15    0  148 932943.065 3087855.15   231%     -  182s
     0     0 3087075.38    0  155 932943.065 3087075.38   231%     -  183s
     0     0 3086667.52    0  153 932943.065 3086667.52   231%     -  183s
     0     0 3085751.63    0  161 932943.065 3085751.63   231%     -  183s
     0     0 3083725.88    0  168 932943.065 3083725.88   231%     -  183s
     0     0 3083267.87    0  169 932943.065 3083267.87   230%     -  183s
     0     0 3081748.40    0  166 932943.065 3081748.40   230%     -  184s
     0     0 3081642.03    0  168 932943.065 3081642.03   230%     -  184s
     0     0 3080243.26    0  163 932943.065 3080243.26   230%     -  184s
     0     0 3080243.26    0  161 932943.065 3080243.26   230%     -  186s
     0     2 3080243.26    0  161 932943.065 3080243.26   230%     -  191s
     3     8 2753451.28    2   76 932943.065 3019419.34   224%  1184  195s
    28    23 2717860.97    6   83 932943.065 2741979.03   194%   852  205s
H   29    23                    969000.27815 2741979.03   183%   822  205s
    64    63 2241017.56   13  121 969000.278 2741979.03   183%   735  210s
   162   139 2365918.70   24  166 969000.278 2741979.03   183%   448  215s
   246   207 2254918.45   45  139 969000.278 2741979.03   183%   433  220s
   359   293 1991659.03   70  100 969000.278 2741979.03   183%   402  225s
   499   371 2632500.56    9  144 969000.278 2736702.77   182%   385  230s
   666   495 1954360.79    7   54 969000.278 2714066.98   180%   356  235s
   894   651 2038845.03   14  126 969000.278 2693411.63   178%   327  240s
  1030   750 1701642.46   60  152 969000.278 2680457.69   177%   314  263s
H 1031   713                    994364.68058 2680457.69   170%   314  266s
  1037   717 1506678.22   58  110 994364.681 2680457.69   170%   312  270s
  1058   731 2213393.61   29  205 994364.681 2680457.69   170%   306  275s
  1062   736 2680457.69   11  132 994364.681 2680457.69   170%   329  285s
  1064   739 2680457.69   12   88 994364.681 2680457.69   170%   330  292s
  1072   742 2073928.91   13   76 994364.681 2680457.69   170%   336  295s
  1089   747 2613985.21   16   88 994364.681 2680457.69   170%   342  300s
  1127   763 2335243.92   19   69 994364.681 2680457.69   170%   356  307s
  1164   771 1998370.04   22  109 994364.681 2680457.69   170%   363  310s
  1250   796 2442438.60   29   80 994364.681 2680457.69   170%   378  315s
  1366   813 2340481.58   36   79 994364.681 2680457.69   170%   380  320s
  1464   839 1142570.49   44   55 994364.681 2571922.92   159%   385  326s
  1545   851 2015527.06   56   71 994364.681 2571922.92   159%   397  330s
  1692   870 2071751.78   30  137 994364.681 2553606.32   157%   398  335s
  1807   905 1583198.73   23  118 994364.681 2487615.74   150%   403  341s
  1955   948 2258762.33   29   54 994364.681 2486823.57   150%   399  347s
H 1998   914                    994364.68418 2486823.57   150%   395  347s
  2080   939 infeasible   88      994364.684 2482821.04   150%   390  350s
  2354   984 2140516.31   62  116 994364.684 2465318.01   148%   381  355s
* 2551   995              39    1054404.8105 2452727.89   133%   375  357s
  2567   991 1563313.96   35   56 1054404.81 2449409.33   132%   376  360s
  2823  1059 1224998.59   39   70 1054404.81 2439166.81   131%   371  366s
  2948  1079 2343224.73   21   72 1054404.81 2435436.14   131%   379  371s
H 2958  1039                    1079769.2129 2435436.14   126%   378  371s
  3156  1155 1808058.79   35  112 1079769.21 2425605.58   125%   381  376s
  3420  1267 2221907.11   24  144 1079769.21 2406041.37   123%   374  381s
H 3486  1303                    1079769.4164 2401667.30   122%   372  381s
  3653  1415 2287582.67   28  192 1079769.42 2400205.96   122%   369  387s
  3806  1505 2046057.31   54  106 1079769.42 2400205.96   122%   368  390s
H 4037  1615                    1079769.5335 2368679.10   119%   368  396s
  4131  1665 1560873.77   23   47 1079769.53 2359595.55   119%   367  400s
  4476  1818     cutoff   29      1079769.53 2337658.61   116%   365  407s
  4664  1895 1700856.38   28   62 1079769.53 2330510.31   116%   365  411s
  4839  1972 1378196.86   44  146 1079769.53 2320969.18   115%   364  415s
H 5071  2073                    1079769.5342 2309632.73   114%   363  419s
  5129  2082 2252768.37   30  147 1079769.53 2301249.35   113%   364  424s
  5338  2137 2088442.37   37  132 1079769.53 2293556.53   112%   363  429s
  5496  2206 2233381.68   31  137 1079769.53 2282848.94   111%   365  433s
  5625  2244 1753495.81   37  165 1079769.53 2279966.59   111%   365  438s
  5817  2301 1363813.73   41   61 1079769.53 2263614.12   110%   366  442s
  6064  2399 1290596.62   34  166 1079769.53 2242077.32   108%   368  448s
  6227  2444 2082121.70   39  197 1079769.53 2236586.56   107%   369  452s
  6441  2544 1623004.63   62  158 1079769.53 2236586.56   107%   372  458s
H 6568  2569                    1079769.5356 2236586.56   107%   373  458s
  6615  2586 1215840.60   75  109 1079769.54 2224117.14   106%   374  463s
  6834  2669 1612357.91   29   58 1079769.54 2213275.63   105%   376  469s
  7038  2722     cutoff   32      1079769.54 2210291.75   105%   378  476s
H 7198  2772                    1079769.8482 2210291.75   105%   380  476s
  7221  2777 1741599.58   40   95 1079769.85 2202515.23   104%   382  483s
  7426  2821 2110425.94   25   78 1079769.85 2193573.47   103%   383  489s
  7733  2891 1554876.64   38  120 1079769.85 2180226.37   102%   385  496s
  7997  2935 1459370.05   59  115 1079769.85 2169483.61   101%   385  503s
  8344  3039 1200357.25   19   60 1079769.85 2154885.77   100%   386  510s
  8663  3107 1700769.82   23   57 1079769.85 2151858.84  99.3%   385  518s
  8867  3130 1994093.34   30   80 1079769.85 2132279.01  97.5%   390  525s
  9371  3286 1397122.74   45   52 1079769.85 2114481.05  95.8%   387  533s
  9768  3403     cutoff   29      1079769.85 2095441.27  94.1%   388  542s
 10076  3409 1312634.35   41  148 1079769.85 2086624.11  93.2%   393  551s
 10503  3529 1408235.46   28   52 1079769.85 2071264.71  91.8%   396  564s
 10916  3597 1259363.01   42  111 1079769.85 2054209.44  90.2%   399  573s
 11320  3696     cutoff   34      1079769.85 2040725.67  89.0%   403  583s
 11547  3690 1363954.07   43  168 1079769.85 2031121.39  88.1%   406  593s
 11995  3787     cutoff   28      1079769.85 2016869.13  86.8%   408  604s
 12481  3889 1519018.24   30  130 1079769.85 2006588.72  85.8%   410  613s
 12885  3941 1421417.16   32   35 1079769.85 1989588.17  84.3%   410  623s
 13418  4052 1272989.03   35   96 1079769.85 1975808.06  83.0%   410  633s
 13836  4101 1484628.35   51  111 1079769.85 1958811.94  81.4%   412  644s
 14233  4130     cutoff   32      1079769.85 1951466.48  80.7%   413  653s
 14715  4222 1384308.91   33   72 1079769.85 1938203.22  79.5%   414  663s
 15040  4219 1831817.49   28   33 1079769.85 1922887.15  78.1%   414  672s
 15480  4244     cutoff   36      1079769.85 1908385.80  76.7%   416  681s
 15870  4246 1738377.43   32   55 1079769.85 1903653.63  76.3%   418  690s
 16353  4292 1692746.26   26   40 1079769.85 1884713.15  74.5%   418  700s
 16754  4320     cutoff   36      1079769.85 1878335.02  74.0%   420  710s
 17231  4407     cutoff   41      1079769.85 1866161.57  72.8%   422  718s
 17508  4367 1546321.48   34  125 1079769.85 1851696.24  71.5%   422  728s
 17978  4453     cutoff   50      1079769.85 1839640.18  70.4%   422  738s
 18296  4433 1341681.77   58  195 1079769.85 1835588.63  70.0%   424  747s
 18837  4471 1458443.39   52  143 1079769.85 1819882.11  68.5%   422  757s
 19285  4489     cutoff   41      1079769.85 1813914.40  68.0%   422  766s
 19793  4517     cutoff   45      1079769.85 1800646.25  66.8%   421  774s
 20148  4569 1755600.91   32   27 1079769.85 1791109.69  65.9%   423  785s
 20199  4484 1729412.86   40   78 1079769.85 1788005.33  65.6%   423  795s
 20697  4488 1777049.40   52   99 1079769.85 1777083.21  64.6%   422  804s
 21131  4496 1642322.29   22   68 1079769.85 1768818.13  63.8%   423  812s
 21514  4488 1757527.29   23  101 1079769.85 1758890.37  62.9%   423  820s
 21915  4483 1554191.83   24   82 1079769.85 1752294.72  62.3%   423  828s
 22416  4501 1625048.92   30   55 1079769.85 1738756.96  61.0%   422 1103s
 22876  4545 1570748.92   21   63 1079769.85 1731133.63  60.3%   421 1110s
 23179  4543 1326241.46   65  110 1079769.85 1726547.69  59.9%   423 1119s
 23487  4547 1644783.21   45  130 1079769.85 1720286.64  59.3%   426 1126s
 23659  4543 1135959.53   67  118 1079769.85 1714425.95  58.8%   430 1135s
 23843  4563 1149615.98   31  124 1079769.85 1710357.87  58.4%   432 1143s
 24011  4549     cutoff   37      1079769.85 1705846.05  58.0%   435 1150s
 24246  4554 1097427.81   29  126 1079769.85 1700898.94  57.5%   438 1158s
 24485  4525 1496434.14   30   76 1079769.85 1696975.71  57.2%   440 1180s
 24793  4524 1084970.50   41   99 1079769.85 1688953.90  56.4%   441 1188s
 25041  4507     cutoff   39      1079769.85 1683216.25  55.9%   444 1195s
 25257  4490 1319878.65   50  123 1079769.85 1677354.20  55.3%   447 1203s
 25522  4475     cutoff   31      1079769.85 1670661.66  54.7%   449 1228s
 25749  4456     cutoff   55      1079769.85 1664756.21  54.2%   451 1236s
 25999  4449     cutoff   67      1079769.85 1659647.42  53.7%   454 1244s
 26248  4441 1224979.45   26   25 1079769.85 1653201.18  53.1%   457 1252s
 26536  4424     cutoff   59      1079769.85 1647112.80  52.5%   459 1260s
 26863  4403 1233668.79   30   83 1079769.85 1640697.65  51.9%   462 1270s
 27185  4399     cutoff   57      1079769.85 1632847.09  51.2%   464 1280s
 27448  4357 1328295.79   39  112 1079769.85 1625520.09  50.5%   467 1288s
 27743  4343 1207231.69   33  103 1079769.85 1618361.24  49.9%   470 1297s
 27950  4291 1174082.65   36  113 1079769.85 1612818.75  49.4%   472 1305s
 28243  4258     cutoff   29      1079769.85 1609165.61  49.0%   474 1314s
 28536  4221     cutoff   53      1079769.85 1600975.34  48.3%   476 1323s
 28817  4175 1463141.01   26   22 1079769.85 1597280.26  47.9%   478 1332s
 29101  4148 1157068.37   25   42 1079769.85 1587834.23  47.1%   479 1341s
 29319  4092     cutoff   34      1079769.85 1581257.62  46.4%   481 1351s
 29629  4052 1262798.36   33  106 1079769.85 1574668.86  45.8%   483 1361s
 29992  4029     cutoff   26      1079769.85 1565889.62  45.0%   485 1370s
 30326  4005     cutoff   38      1079769.85 1556564.63  44.2%   486 1379s
 30580  3951 1141449.67   33   35 1079769.85 1549813.85  43.5%   488 1387s
 30911  3931     cutoff   63      1079769.85 1542024.83  42.8%   490 1396s
 31220  3892     cutoff   23      1079769.85 1534843.21  42.1%   492 1404s
 31450  3835     cutoff   36      1079769.85 1527368.98  41.5%   494 1411s
 31738  3777 1496981.34   39   43 1079769.85 1520760.75  40.8%   494 1419s
 32049  3726 1457712.78   29   87 1079769.85 1514715.78  40.3%   495 1428s
 32434  3704 1417089.33   39  191 1079769.85 1508502.71  39.7%   496 1438s
 32766  3679 1374402.40   36  119 1079769.85 1503798.48  39.3%   497 1446s
 33053  3633     cutoff   59      1079769.85 1497850.94  38.7%   498 1453s
 33385  3607 1468685.38   30   46 1079769.85 1491634.39  38.1%   498 1463s
 33582  3554     cutoff   45      1079769.85 1490075.88  38.0%   500 1473s
 33896  3495     cutoff   36      1079769.85 1480766.85  37.1%   500 1481s
 34195  3447     cutoff   26      1079769.85 1475419.95  36.6%   501 1488s
 34499  3398     cutoff   38      1079769.85 1469352.89  36.1%   501 1495s
 34773  3349     cutoff   34      1079769.85 1462778.49  35.5%   502 1502s
 35070  3313     cutoff   44      1079769.85 1456296.16  34.9%   502 1510s
 35379  3266     cutoff   39      1079769.85 1449557.97  34.2%   502 1516s
 35689  3230     cutoff   38      1079769.85 1442310.27  33.6%   502 1523s
 35943  3177     cutoff   40      1079769.85 1434756.72  32.9%   503 1529s
 36274  3138     cutoff   27      1079769.85 1429884.71  32.4%   502 1535s
 36569  3102     cutoff   25      1079769.85 1425441.57  32.0%   502 1544s
 36840  3058     cutoff   36      1079769.85 1421028.26  31.6%   502 1551s
 37172  3015     cutoff   52      1079769.85 1413879.82  30.9%   503 1557s
 37501  2985     cutoff   43      1079769.85 1408785.01  30.5%   502 1564s
 37818  2958 1351074.83   28   92 1079769.85 1403233.89  30.0%   502 1572s
 38062  2902 1112373.26   37   63 1079769.85 1399369.26  29.6%   503 1579s
 38311  2836     cutoff   34      1079769.85 1392565.21  29.0%   504 1586s
 38577  2781     cutoff   22      1079769.85 1387727.11  28.5%   504 1590s
 38807  2719     cutoff   31      1079769.85 1381251.27  27.9%   504 1597s
 39065  2663 1336976.69   32   52 1079769.85 1375387.22  27.4%   504 1603s
 39328  2600     cutoff   28      1079769.85 1369806.53  26.9%   504 1609s
 39595  2530 1330067.87   30   86 1079769.85 1363994.94  26.3%   504 1614s
 39821  2466     cutoff   45      1079769.85 1358548.15  25.8%   504 1617s
 40082  2414 1237805.47   29   22 1079769.85 1353689.64  25.4%   503 1621s
 40316  2337 1169418.54   38   29 1079769.85 1348960.29  24.9%   503 1627s
 40559  2270 1299058.00   31  112 1079769.85 1344167.27  24.5%   502 1631s
 40800  2207     cutoff   44      1079769.85 1337868.34  23.9%   502 1638s
 41052  2153 1316587.04   35   32 1079769.85 1332453.70  23.4%   501 1642s
 41272  2086     cutoff   25      1079769.85 1327760.64  23.0%   500 1648s
 41492  2006 1317864.98   38   38 1079769.85 1322535.03  22.5%   500 1651s
 41717  1935     cutoff   39      1079769.85 1316691.62  21.9%   500 1656s
 41984  1866 1309986.10   29   50 1079769.85 1311345.20  21.4%   499 1661s
 42505  1746     cutoff   28      1079769.85 1299203.90  20.3%   498 1669s
 42814  1688     cutoff   30      1079769.85 1295310.79  20.0%   496 1672s
 43009  1614     cutoff   43      1079769.85 1290317.29  19.5%   496 1675s
 43392  1463     cutoff   31      1079769.85 1278291.38  18.4%   495 1681s
 43781  1316 1268030.25   30   78 1079769.85 1268030.25  17.4%   494 1688s
 44017  1248 1263069.23   24   95 1079769.85 1263242.75  17.0%   493 1691s
 44227  1187     cutoff   32      1079769.85 1257488.10  16.5%   492 1731s
 44397  1127     cutoff   28      1079769.85 1253927.23  16.1%   492 1738s
 44571  1046 infeasible   24      1079769.85 1250957.20  15.9%   491 1742s
 44757   968 1099307.98   37   51 1079769.85 1239377.93  14.8%   491 1745s
 45090   812     cutoff   69      1079769.85 1224918.37  13.4%   490 1751s
 45442   666 infeasible   36      1079769.85 1210158.33  12.1%   489 1755s
 45781   511 1128312.72   42   28 1079769.85 1196896.44  10.8%   488 1760s
 46094   350     cutoff   45      1079769.85 1178618.95  9.15%   487 1765s
 46514   109     cutoff   33      1079769.85 1143508.24  5.90%   485 1770s

Cutting planes:
  Gomory: 88
  Implied bound: 23
  Projected implied bound: 1
  MIR: 45
  Flow cover: 162

Explored 46736 nodes (22782472 simplex iterations) in 1776.49 seconds
Thread count was 4 (of 16 available processors)

Solution count 10: 1.07977e+06 1.07977e+06 1.07977e+06 ... 969000

Optimal solution found (tolerance 1.00e-04)
Best objective 1.079769212879e+06, best bound 1.079769848156e+06, gap 0.0001%

***
***  |- Calculation finished, took 1,776.58 (1776.58) sec.
***  |-----------------------------------------------------------------------------------------------------------------------
***
*****************************************************************************************************************************
#############################################################################################################################
###
### Results
###
### The objective of the solution is 1,079,769.2129 (1079769.2129) and is feasible with a Gap of 0.0
###
### Service 81 (MECL1) is operated by 6 vessels from type 30 (PMax35)
###  |- Vessel  9 has the path [9, 332, 326, 342, 333, 324, 4, 294, 284, 7, 298, 196, 0]
###  |  9 (BEANR Out@344.0) - 332 (USEWR In@608.0/Out@618.0) - 326 (USCHS In@656.0/Out@666.0) - 342 (USORF In@691.0/Out@704.0
###  |  ) - 333 (USEWR In@728.0/Out@744.0) - 324 (TRZMK In@1063.0/Out@1077.0) - 4 (AEJEA In@1177.0/Out@1201.0) - 294 (PKBQM I
###  |  n@1258.0/Out@1288.0) - 284 (OMSLL In@1410.0/Out@1423.0) - 7 (AEJEA In@1681.0/Out@1705.0) - 298 (PKBQM In@1762.0/Out@1
###  |  792.0) - 196 (INNSA In@1856.0/Out@1872.0) - 0 (DUMMY_END Ziel-Service 81)
###  |   |- and carried Demand 237,   34.0 containers from 298 to 196
###  |   |- and carried Demand 238,   84.0 containers from   7 to 298
###  |   |- and carried Demand 239,   50.0 containers from   7 to 298
###  |   |- and carried Demand 297,  254.0 containers from 294 to 196
###  |   |- and carried Demand 298,    1.0 containers from 294 to 196
###  |   |- and carried Demand 299,  135.0 containers from 294 to 196
###  |   |- and carried Demand 302,   75.0 containers from   4 to 196
###  |   |- and carried Demand 303,  200.0 containers from   4 to 294
###  |   |- and carried Demand 304,   24.0 containers from   4 to 294
###  |   |- and carried Demand 305,   26.0 containers from   4 to 196
###  |   |- and carried Demand 306,  144.0 containers from   4 to 196
###  |   |- and carried Demand 307,    1.0 containers from   4 to 196
###  |   |- and carried Demand 309,  339.0 containers from 342 to   4
###  |   |- and carried Demand 310,  115.0 containers from 342 to   4
###  |   |- and carried Demand 311,    3.0 containers from 342 to 284
###  |   |- and carried Demand 312,    2.0 containers from 342 to 294
###  |   |- and carried Demand 313,  194.0 containers from 326 to   4
###  |   |- and carried Demand 314,   49.0 containers from 326 to   4
###  |   |- and carried Demand 315,   40.0 containers from 326 to 294
###  |   |- and carried Demand 318,  842.0 containers from 332 to   4
###  |   |- and carried Demand 319,   99.0 containers from 332 to   4
###  |   |- and carried Demand 320,  123.0 containers from 332 to 294
###  |   |- and carried Demand 321,    1.0 containers from 332 to 294
###  |- Vessel 10 has the path [10, 316, 190, 0]
###  |  10 (BEANR Out@512.0) - 316 (TRAMB In@854.0/Out@881.0) - 190 (INNSA In@1016.0/Out@1032.0) - 0 (DUMMY_END Ziel-Service 
###  |  81)
###  |- Vessel 11 has the path [13, 313, 191, 0]
###  |  13 (BEANR Out@680.0) - 313 (TRALI In@946.0/Out@964.0) - 191 (INNSA In@1184.0/Out@1200.0) - 0 (DUMMY_END Ziel-Service 
###  |  81)
###  |- Vessel 12 has the path [16, 314, 192, 0]
###  |  16 (BEANR Out@848.0) - 314 (TRALI In@1114.0/Out@1132.0) - 192 (INNSA In@1352.0/Out@1368.0) - 0 (DUMMY_END Ziel-Servic
###  |  e 81)
###  |- Vessel 17 has the path [158, 2, 291, 292, 293, 283, 5, 295, 194, 195, 0]
###  |  158 (GBFXT Out@580.0) - 2 (AEJEA In@841.0/Out@865.0) - 291 (PKBQM In@922.0/Out@952.0) - 292 (PKBQM In@992.0/Out@1020.
###  |  0) - 293 (PKBQM In@1090.0/Out@1120.0) - 283 (OMSLL In@1167.0/Out@1182.0) - 5 (AEJEA In@1345.0/Out@1369.0) - 295 (PKBQ
###  |  M In@1426.0/Out@1456.0) - 194 (INNSA In@1590.0/Out@1622.0) - 195 (INNSA In@1688.0/Out@1704.0) - 0 (DUMMY_END Ziel-Ser
###  |  vice 81)
###  |   |- and carried Demand 120,  237.0 containers from 292 to 194
###  |   |- and carried Demand 121,    2.0 containers from 292 to 194
###  |   |- and carried Demand 123,   97.0 containers from 292 to 194
###  |   |- and carried Demand 283,  153.0 containers from   5 to 195
###  |   |- and carried Demand 284,   86.0 containers from   5 to 295
###  |   |- and carried Demand 285,  118.0 containers from   5 to 295
###  |   |- and carried Demand 323,  244.0 containers from 293 to 195
###  |   |- and carried Demand 324,   67.0 containers from 293 to 195
###  |   |- and carried Demand 333,  237.0 containers from 291 to 194
###  |   |- and carried Demand 334,    2.0 containers from 291 to 194
###  |   |- and carried Demand 336,   97.0 containers from 291 to 194
###  |   |- and carried Demand 338,  704.0 containers from   2 to 195
###  |   |- and carried Demand 339,    8.0 containers from   2 to 195
###  |   |- and carried Demand 340,  156.0 containers from   2 to 291
###  |   |- and carried Demand 341,   45.0 containers from   2 to 291
###  |   |- and carried Demand 342,   16.0 containers from   2 to 194
###  |   |- and carried Demand 343,  264.0 containers from   2 to 194
###  |- Vessel 18 has the path [161, 321, 193, 0]
###  |  161 (GBFXT Out@748.0) - 321 (TRGEM In@1087.0/Out@1095.0) - 193 (INNSA In@1520.0/Out@1536.0) - 0 (DUMMY_END Ziel-Servi
###  |  ce 81)
###  |
### Vessels not used in the solution: [1, 2, 3, 4, 5, 6, 7, 8, 13, 14, 15, 16, 21]
###  |-----------------------------------------------------------------------------------------------------------------------
###
#############################################################################################################################

### Detialed variable overview

### All variables with value greater zero:
rho[81,30] = 1
eta[81,30,1] = 1
eta[81,30,2] = 1
eta[81,30,3] = 1
eta[81,30,4] = 1
eta[81,30,5] = 1
eta[81,30,6] = 1
y[9,4,294] = 1
y[9,332,326] = 1
y[9,294,284] = 1
y[9,284,7] = 1
y[9,342,333] = 1
y[9,9,332] = 1
y[9,324,4] = 1
y[9,7,298] = 1
y[9,196,0] = 1
y[9,333,324] = 1
y[9,298,196] = 1
y[9,326,342] = 1
y[10,190,0] = 1
y[10,316,190] = 1
y[10,10,316] = 1
y[11,313,191] = 1
y[11,191,0] = 1
y[11,13,313] = 1
y[12,192,0] = 1
y[12,314,192] = 1
y[12,16,314] = 1
y[17,283,5] = 1
y[17,293,283] = 1
y[17,195,0] = 1
y[17,5,295] = 1
y[17,292,293] = 1
y[17,194,195] = 1
y[17,291,292] = 1
y[17,295,194] = 1
y[17,2,291] = 1
y[17,158,2] = 1
y[18,161,321] = 1
y[18,193,0] = 1
y[18,321,193] = 1
xD[120,283,5] = 237
xD[120,293,283] = 237
xD[120,5,295] = 237
xD[120,292,293] = 237
xD[120,295,194] = 237
xD[121,283,5] = 2
xD[121,293,283] = 2
xD[121,5,295] = 2
xD[121,292,293] = 2
xD[121,295,194] = 2
xD[123,283,5] = 97
xD[123,293,283] = 97
xD[123,5,295] = 97
xD[123,292,293] = 97
xD[123,295,194] = 97
xD[237,298,196] = 34
xD[238,7,298] = 84
xD[239,7,298] = 50
xD[283,5,295] = 153
xD[283,194,195] = 153
xD[283,295,194] = 153
xD[284,5,295] = 86
xD[285,5,295] = 118
xD[297,294,284] = 254
xD[297,284,7] = 254
xD[297,7,298] = 254
xD[297,298,196] = 254
xD[298,294,284] = 1
xD[298,284,7] = 1
xD[298,7,298] = 1
xD[298,298,196] = 1
xD[299,294,284] = 135
xD[299,284,7] = 135
xD[299,7,298] = 135
xD[299,298,196] = 135
xD[302,4,294] = 75
xD[302,294,284] = 75
xD[302,284,7] = 75
xD[302,7,298] = 75
xD[302,298,196] = 75
xD[303,4,294] = 200
xD[304,4,294] = 24
xD[305,4,294] = 26
xD[305,294,284] = 26
xD[305,284,7] = 26
xD[305,7,298] = 26
xD[305,298,196] = 26
xD[306,4,294] = 144
xD[306,294,284] = 144
xD[306,284,7] = 144
xD[306,7,298] = 144
xD[306,298,196] = 144
xD[307,4,294] = 1
xD[307,294,284] = 1
xD[307,284,7] = 1
xD[307,7,298] = 1
xD[307,298,196] = 1
xD[309,342,333] = 339
xD[309,324,4] = 339
xD[309,333,324] = 339
xD[310,342,333] = 115
xD[310,324,4] = 115
xD[310,333,324] = 115
xD[311,4,294] = 3
xD[311,294,284] = 3
xD[311,342,333] = 3
xD[311,324,4] = 3
xD[311,333,324] = 3
xD[312,4,294] = 2
xD[312,342,333] = 2
xD[312,324,4] = 2
xD[312,333,324] = 2
xD[313,342,333] = 194
xD[313,324,4] = 194
xD[313,333,324] = 194
xD[313,326,342] = 194
xD[314,342,333] = 49
xD[314,324,4] = 49
xD[314,333,324] = 49
xD[314,326,342] = 49
xD[315,4,294] = 40
xD[315,342,333] = 40
xD[315,324,4] = 40
xD[315,333,324] = 40
xD[315,326,342] = 40
xD[318,332,326] = 842
xD[318,342,333] = 842
xD[318,324,4] = 842
xD[318,333,324] = 842
xD[318,326,342] = 842
xD[319,332,326] = 99
xD[319,342,333] = 99
xD[319,324,4] = 99
xD[319,333,324] = 99
xD[319,326,342] = 99
xD[320,4,294] = 123
xD[320,332,326] = 123
xD[320,342,333] = 123
xD[320,324,4] = 123
xD[320,333,324] = 123
xD[320,326,342] = 123
xD[321,4,294] = 1
xD[321,332,326] = 1
xD[321,342,333] = 1
xD[321,324,4] = 1
xD[321,333,324] = 1
xD[321,326,342] = 1
xD[323,283,5] = 244
xD[323,293,283] = 244
xD[323,5,295] = 244
xD[323,194,195] = 244
xD[323,295,194] = 244
xD[324,283,5] = 67
xD[324,293,283] = 67
xD[324,5,295] = 67
xD[324,194,195] = 67
xD[324,295,194] = 67
xD[333,283,5] = 237
xD[333,293,283] = 237
xD[333,5,295] = 237
xD[333,292,293] = 237
xD[333,291,292] = 237
xD[333,295,194] = 237
xD[334,283,5] = 2
xD[334,293,283] = 2
xD[334,5,295] = 2
xD[334,292,293] = 2
xD[334,291,292] = 2
xD[334,295,194] = 2
xD[336,283,5] = 97
xD[336,293,283] = 97
xD[336,5,295] = 97
xD[336,292,293] = 97
xD[336,291,292] = 97
xD[336,295,194] = 97
xD[338,283,5] = 704
xD[338,293,283] = 704
xD[338,5,295] = 704
xD[338,292,293] = 704
xD[338,194,195] = 704
xD[338,291,292] = 704
xD[338,295,194] = 704
xD[338,2,291] = 704
xD[339,283,5] = 8
xD[339,293,283] = 8
xD[339,5,295] = 8
xD[339,292,293] = 8
xD[339,194,195] = 8
xD[339,291,292] = 8
xD[339,295,194] = 8
xD[339,2,291] = 8
xD[340,2,291] = 156
xD[341,2,291] = 45
xD[342,283,5] = 16
xD[342,293,283] = 16
xD[342,5,295] = 16
xD[342,292,293] = 16
xD[342,291,292] = 16
xD[342,295,194] = 16
xD[342,2,291] = 16
xD[343,283,5] = 264
xD[343,293,283] = 264
xD[343,5,295] = 264
xD[343,292,293] = 264
xD[343,291,292] = 264
xD[343,295,194] = 264
xD[343,2,291] = 264
zE[2] = 841
zE[4] = 1177
zE[5] = 1345
zE[7] = 1681
zE[190] = 1016
zE[191] = 1184
zE[192] = 1352
zE[193] = 1520
zE[194] = 1590
zE[195] = 1688
zE[196] = 1856
zE[283] = 1167
zE[284] = 1410
zE[291] = 922
zE[292] = 992
zE[293] = 1090
zE[294] = 1258
zE[295] = 1426
zE[298] = 1762
zE[313] = 946
zE[314] = 1114
zE[316] = 854
zE[321] = 1087
zE[324] = 1063
zE[326] = 656
zE[332] = 608
zE[333] = 728
zE[342] = 691
zX[2] = 865
zX[4] = 1201
zX[5] = 1369
zX[7] = 1705
zX[9] = 344
zX[10] = 512
zX[13] = 680
zX[16] = 848
zX[158] = 580
zX[161] = 748
zX[190] = 1032
zX[191] = 1200
zX[192] = 1368
zX[193] = 1536
zX[194] = 1622
zX[195] = 1704
zX[196] = 1872
zX[283] = 1182
zX[284] = 1423
zX[291] = 952
zX[292] = 1020
zX[293] = 1120
zX[294] = 1288
zX[295] = 1456
zX[298] = 1792
zX[313] = 964
zX[314] = 1132
zX[316] = 881
zX[321] = 1095
zX[324] = 1077
zX[326] = 666
zX[332] = 618
zX[333] = 744
zX[342] = 704
phi[9] = 1528
phi[10] = 520
phi[11] = 520
phi[12] = 520
phi[17] = 1124
phi[18] = 788

### All variables with value smaller zero:

### End

real	33m26.096s
user	111m49.106s
sys	7m9.704s
	OpenBLAS 0.2.6 environment removed
	Freetype 2.4.12 environment removed
	Python 3.6.0 environment removed
	Gurobi 8.1.0 environment removed
