### Additional Information to the goal services
# Basic costs on route 24: 10162203.702130424
# Basic costs on route 177: 11192333.276187016
# Direct costs (not staggered):
# For goal service 24:
# n_min: 2
# n_max: 4
# lowest costs of the goal service 24 with configuration (24, 18, 3) at 0.0
# For goal service 177:
# n_min: 2
# n_max: 3
# lowest costs of the goal service 177 with configuration (177, 18, 3) at 0.0
# (24, 18, 1): 6153215.090755282
# (24, 18, 2): 3387976.383614015
# (24, 18, 3): 0.0
# (24, 18, 4): 254807.27999999747
# (24, 19, 1): 9503169.25648932
# (24, 19, 2): 5533557.809004694
# (24, 19, 3): 2894963.380318908
# (24, 19, 4): 3175236.100318907
# (24, 30, 1): 9310047.641194781
# (24, 30, 2): 5920641.675786991
# (24, 30, 3): 2736198.2705910206
# (24, 30, 4): 3041958.270591017
# (177, 18, 1): 4991092.415804863
# (177, 18, 2): 3536361.920000002
# (177, 18, 3): 0.0
# (177, 19, 1): 7429085.346903594
# (177, 19, 2): 5103196.948655911
# (177, 19, 3): 397368.40578591265
# (177, 30, 1): 7305560.7476956565
# (177, 30, 2): 5840836.538701063
# (177, 30, 3): 948801.4403870609
# -------------------------------------------
