### Additional Information to the goal services
# Basic costs on route 24: 24232947.289695613
# Basic costs on route 177: 26689410.120138265
# Direct costs (not staggered):
# For goal service 24:
# n_min: 2
# n_max: 4
# lowest costs of the goal service 24 with configuration (24, 18, 3) at 0.0
# For goal service 177:
# n_min: 2
# n_max: 3
# lowest costs of the goal service 177 with configuration (177, 18, 3) at 0.0
# (24, 18, 1): 14673051.3702626
# (24, 18, 2): 8079020.607079573
# (24, 18, 3): 0.0
# (24, 18, 4): 607617.3599999994
# (24, 19, 1): 22661403.6116284
# (24, 19, 2): 13195407.083011217
# (24, 19, 3): 6903374.214606635
# (24, 19, 4): 7571716.854606643
# (24, 30, 1): 22200882.836695246
# (24, 30, 2): 14118453.226876684
# (24, 30, 3): 6524780.491409361
# (24, 30, 4): 7253900.491409361
# (177, 18, 1): 11901835.76076544
# (177, 18, 2): 8432863.04
# (177, 18, 3): 0.0
# (177, 19, 1): 17715511.21184703
# (177, 19, 2): 12169161.954487175
# (177, 19, 3): 947570.8137971759
# (177, 30, 1): 17420952.552197337
# (177, 30, 2): 13928148.669210218
# (177, 30, 3): 2262526.5116922185
# -------------------------------------------
