	Freetype 2.4.12 environment established
		library to render fonts
	Python 3.6.0 environment established
	Gurobi 8.1.0 environment established
Instance LSFRP: LSFDRP_3_2_1_0_fr.p
Instance LSFDP: LSFDRP_3_2_1_0_fd_43.p

*****************************************************************************************************************************
*** Solve LSFDRP_3_2_1_0_fd_43 with Gurobi
***
*** Graph info
*** |S|: 24
*** |S^E|: 0
*** |S^C|: 6
*** |V|: 431
*** |A|: 14925
*** |A^i|: 14778
*** |A^f|: 147
*** |M|: 348
*** |E|: 28

Changed value of parameter TimeLimit to 86400.0
   Prev: 1e+100  Min: 0.0  Max: 1e+100  Default: 1e+100
Changed value of parameter Threads to 4
   Prev: 0  Min: 0  Max: 1024  Default: 0
Optimize a model with 203293 rows, 5586376 columns and 20275474 nonzeros
Variable types: 5228140 continuous, 358236 integer (358236 binary)
Coefficient statistics:
  Matrix range     [1e+00, 5e+03]
  Objective range  [2e+00, 3e+07]
  Bounds range     [1e+00, 1e+00]
  RHS range        [1e+00, 5e+03]
Presolve removed 31003 rows and 1191981 columns (presolve time = 5s) ...
Presolve removed 83178 rows and 3393705 columns (presolve time = 10s) ...
Presolve removed 90596 rows and 3609084 columns (presolve time = 16s) ...
Presolve removed 91065 rows and 3620000 columns (presolve time = 20s) ...
Presolve removed 97683 rows and 3642624 columns (presolve time = 25s) ...
Presolve removed 100417 rows and 3718915 columns (presolve time = 30s) ...
Presolve removed 101377 rows and 3720254 columns (presolve time = 35s) ...
Presolve removed 101383 rows and 3720941 columns (presolve time = 41s) ...
Warning: Failed to open log file 'gurobi.log'
Presolve removed 101410 rows and 3720941 columns (presolve time = 50s) ...
Presolve removed 101410 rows and 3926308 columns (presolve time = 703s) ...
Presolve removed 150047 rows and 5119721 columns (presolve time = 705s) ...
Presolve removed 153772 rows and 5124677 columns (presolve time = 710s) ...
Presolve removed 154141 rows and 5128045 columns (presolve time = 715s) ...
Presolve removed 155240 rows and 5139190 columns (presolve time = 725s) ...
Presolve removed 155242 rows and 5140133 columns (presolve time = 797s) ...
Presolve removed 155215 rows and 5140106 columns
Presolve time: 797.06s
Presolved: 48078 rows, 446270 columns, 2147272 nonzeros
Variable types: 286994 continuous, 159276 integer (158571 binary)

Deterministic concurrent LP optimizer: primal simplex, dual simplex, and barrier
Showing barrier log only...

Presolve removed 382 rows and 3821 columns
Presolved: 47696 rows, 442449 columns, 2142123 nonzeros

Root barrier log...

Ordering time: 0.00s

Barrier statistics:
 Dense cols : 22
 AA' NZ     : 2.575e+06
 Factor NZ  : 4.628e+07 (roughly 600 MBytes of memory)
 Factor Ops : 1.468e+11 (roughly 9 seconds per iteration)
 Threads    : 1

                  Objective                Residual
Iter       Primal          Dual         Primal    Dual     Compl     Time
   0  -2.54663316e+15  2.95946071e+15  1.82e+08 3.23e+06  1.84e+12   826s
   1  -1.53351423e+15  2.94202550e+15  1.09e+08 1.08e+07  1.12e+12   837s
   2  -1.08231737e+15  2.91455462e+15  7.70e+07 6.97e+06  7.90e+11   849s
   3  -6.63451972e+14  2.87171090e+15  4.72e+07 3.63e+06  4.88e+11   860s
   4  -3.35594137e+14  2.82887955e+15  2.39e+07 2.54e+06  2.52e+11   871s
   5  -1.17419999e+14  2.67622975e+15  8.35e+06 1.16e+06  9.09e+10   882s
   6  -3.72509017e+13  2.28991560e+15  2.65e+06 3.68e+05  3.07e+10   893s
   7  -7.54219955e+12  1.59102070e+15  5.34e+05 8.43e+04  7.31e+09   905s
   8  -1.55680831e+12  5.49452421e+14  1.10e+05 9.25e-04  1.65e+09   917s
   9  -3.40560753e+11  1.38889532e+14  2.39e+04 9.74e-04  3.54e+08   928s
  10  -2.66701969e+11  8.13658682e+13  1.87e+04 5.45e-04  2.40e+08   939s
  11  -7.31115058e+10  2.44465034e+13  4.99e+03 1.08e-04  6.55e+07   950s
  12  -1.88832416e+10  9.17847021e+12  1.29e+03 3.04e-05  2.03e+07   962s
  13  -1.17751669e+10  7.36969981e+12  8.01e+02 2.40e-05  1.44e+07   972s
  14  -6.60300932e+09  5.25861081e+12  4.47e+02 1.71e-05  9.31e+06   983s
  15  -2.93935147e+09  2.49349783e+12  1.95e+02 7.93e-06  4.30e+06   994s
  16  -6.30550018e+08  6.33468223e+11  3.73e+01 1.66e-06  1.01e+06  1007s
  17  -3.37485814e+08  3.39375453e+11  1.79e+01 9.39e-07  5.20e+05  1019s
  18  -1.79980095e+08  2.23275801e+11  8.11e+00 5.53e-07  3.12e+05  1030s
  19  -1.41639008e+08  1.76127874e+11  5.83e+00 5.14e-07  2.41e+05  1040s
  20  -1.15791110e+08  1.32959446e+11  4.35e+00 3.77e-07  1.82e+05  1051s
  21  -9.04147173e+07  1.11498616e+11  2.97e+00 3.44e-07  1.47e+05  1062s
  22  -6.68934971e+07  8.29495209e+10  1.79e+00 2.87e-07  1.06e+05  1073s
  23  -5.04766202e+07  5.89035315e+10  1.07e+00 2.76e-07  7.39e+04  1084s
  24  -4.28324962e+07  3.60348921e+10  7.30e-01 2.69e-07  4.55e+04  1095s
  25  -3.63558143e+07  2.26688284e+10  4.66e-01 3.87e-07  2.84e+04  1106s
  26  -3.12417749e+07  1.66150833e+10  2.63e-01 3.40e-07  2.02e+04  1117s
  27  -2.80791595e+07  1.09705858e+10  1.63e-01 3.48e-07  1.32e+04  1128s
  28  -2.54484737e+07  5.94711625e+09  1.01e-01 2.55e-07  7.23e+03  1138s
  29  -2.16914699e+07  2.95916684e+09  5.80e-02 2.84e-07  3.63e+03  1149s
  30  -1.51558176e+07  2.58946992e+09  3.02e-02 3.12e-07  3.06e+03  1159s
  31  -1.57036998e+07  2.01283435e+09  2.46e-02 4.11e-07  2.39e+03  1169s
  32  -1.47746458e+07  1.71984942e+09  2.30e-02 4.99e-07  2.05e+03  1181s
  33  -1.52504134e+07  1.46165130e+09  2.13e-02 4.71e-07  1.76e+03  1191s
  34  -1.19724918e+07  8.18984464e+08  1.21e-02 3.77e-07  9.90e+02  1202s
  35  -7.52961809e+06  3.86547564e+08  4.89e-03 4.73e-07  4.66e+02  1213s
  36  -4.45861210e+06  2.45669851e+08  2.89e-03 4.29e-07  2.95e+02  1224s
  37  -1.60355988e+06  1.94462982e+08  1.73e-03 5.53e-07  2.28e+02  1236s
  38   4.11341483e+05  1.50890670e+08  1.24e-03 5.70e-07  1.75e+02  1248s
  39   2.24698268e+06  1.09544216e+08  7.75e-04 4.61e-07  1.24e+02  1258s
  40   3.38016111e+06  8.71167991e+07  6.25e-04 4.60e-07  9.69e+01  1269s
  41   4.49152790e+06  6.36912991e+07  4.16e-04 3.72e-07  6.83e+01  1281s
  42   5.42184923e+06  3.96910609e+07  2.78e-04 3.45e-07  3.99e+01  1293s
  43   5.92763690e+06  3.28703987e+07  2.23e-04 4.07e-07  3.14e+01  1303s
  44   6.28933207e+06  2.86014945e+07  1.91e-04 3.47e-07  2.61e+01  1314s
  45   6.94641008e+06  2.45761636e+07  1.40e-04 3.99e-07  2.05e+01  1326s
  46   7.29321898e+06  2.30834023e+07  1.25e-04 4.52e-07  1.84e+01  1337s
  47   7.54003274e+06  2.19175493e+07  1.12e-04 4.16e-07  1.67e+01  1348s
  48   7.68064209e+06  1.97678273e+07  1.06e-04 3.95e-07  1.42e+01  1358s
  49   7.90455449e+06  1.93886792e+07  9.28e-05 4.26e-07  1.34e+01  1368s
  50   8.25131009e+06  1.78370022e+07  7.20e-05 6.22e-07  1.12e+01  1379s
  51   8.64707935e+06  1.64205560e+07  5.29e-05 4.61e-07  9.02e+00  1390s
  52   8.85981322e+06  1.54816621e+07  4.48e-05 4.01e-07  7.68e+00  1402s
  53   9.11947625e+06  1.46016730e+07  3.69e-05 4.64e-07  6.36e+00  1413s
  54   9.37382795e+06  1.39259551e+07  3.10e-05 4.54e-07  5.29e+00  1424s
  55   9.66911438e+06  1.33477090e+07  2.39e-05 4.23e-07  4.26e+00  1435s
  56   9.79948345e+06  1.32232319e+07  2.13e-05 4.51e-07  3.96e+00  1445s
  57   9.93044447e+06  1.27373461e+07  1.87e-05 5.48e-07  3.26e+00  1456s
  58   1.02332648e+07  1.22026838e+07  1.32e-05 4.16e-07  2.29e+00  1467s
  59   1.04856979e+07  1.21433011e+07  3.59e-04 4.74e-07  2.30e+00  1477s
  60   1.07334793e+07  1.13984123e+07  1.80e-04 5.36e-07  9.72e-01  1489s
  61   1.07726487e+07  1.12313289e+07  1.52e-04 7.33e-07  7.05e-01  1500s
  62   1.08473749e+07  1.11771631e+07  1.00e-04 6.15e-07  4.96e-01  1511s
  63   1.08814814e+07  1.11355169e+07  7.73e-05 5.40e-07  3.82e-01  1522s
  64   1.09117307e+07  1.10952132e+07  5.71e-05 5.14e-07  2.78e-01  1533s
  65   1.09774678e+07  1.10223072e+07  1.46e-05 8.07e-07  6.90e-02  1545s
  66   1.10000691e+07  1.10045383e+07  1.71e-06 9.56e-07  6.29e-03  1557s
  67   1.10018065e+07  1.10033712e+07  4.35e-07 1.03e-06  2.08e-03  1567s
  68   1.10023244e+07  1.10024762e+07  6.43e-08 8.72e-07  2.20e-04  1578s
  69   1.10023964e+07  1.10024291e+07  1.64e-08 1.10e-06  4.95e-05  1589s
  70   1.10024047e+07  1.10024229e+07  2.70e-08 2.35e-06  2.90e-05  1600s
  71   1.10024158e+07  1.10024216e+07  1.42e-08 1.09e-06  9.31e-06  1611s
  72   1.10024164e+07  1.10024215e+07  1.88e-07 1.79e-06  7.97e-06  1623s
  73   1.10024195e+07  1.10024213e+07  6.56e-08 1.19e-06  2.69e-06  1634s
  74   1.10024205e+07  1.10024212e+07  1.02e-06 1.99e-06  1.02e-06  1645s
  75   1.10024208e+07  1.10024212e+07  5.90e-07 1.58e-06  6.19e-07  1655s
  76   1.10024211e+07  1.10024212e+07  1.88e-07 1.19e-06  1.98e-07  1666s
  77   1.10024215e+07  1.10024212e+07  1.28e-07 1.16e-06  5.67e-08  1677s
  78   1.10024213e+07  1.10024212e+07  9.23e-09 1.16e-06  7.45e-09  1688s

Barrier solved model in 78 iterations and 1687.62 seconds
Optimal objective 1.10024213e+07


Root crossover log...

   44753 DPushes remaining with DInf 0.0000000e+00              1688s
     151 DPushes remaining with DInf 0.0000000e+00              1690s
       0 DPushes remaining with DInf 1.6832685e-07              1692s

     132 PPushes remaining with PInf 0.0000000e+00              1692s
       0 PPushes remaining with PInf 0.0000000e+00              1692s

  Push phase complete: Pinf 0.0000000e+00, Dinf 8.2941460e-08   1692s


Root simplex log...

Iteration    Objective       Primal Inf.    Dual Inf.      Time
   39186    1.1002421e+07   0.000000e+00   0.000000e+00   1692s
   40228    1.1002425e+07   0.000000e+00   3.700111e+07   1695s
   41645    1.1002441e+07   0.000000e+00   1.207264e+08   1700s
   42927    1.1002503e+07   0.000000e+00   1.140999e+10   1705s
   44209    1.1002589e+07   0.000000e+00   1.558033e+09   1710s
   45363    1.1002706e+07   0.000000e+00   2.045931e+10   1715s
   46644    1.1002884e+07   0.000000e+00   5.647580e+09   1720s
   47926    1.1003034e+07   0.000000e+00   2.093118e+09   1725s
   49208    1.1003214e+07   0.000000e+00   4.915365e+09   1730s
   50494    1.1003413e+07   0.000000e+00   4.082219e+09   1735s
   51787    1.1003616e+07   0.000000e+00   2.940739e+10   1740s
   53068    1.1003763e+07   0.000000e+00   1.921607e+09   1745s
   54349    1.1003920e+07   0.000000e+00   1.868197e+09   1750s
   55631    1.1004064e+07   0.000000e+00   6.248636e+10   1755s
   56913    1.1004263e+07   0.000000e+00   6.088480e+09   1760s
   58322    1.1004473e+07   0.000000e+00   7.474894e+09   1766s
   59475    1.1004600e+07   0.000000e+00   9.694833e+08   1770s
   60761    1.1004762e+07   0.000000e+00   1.443224e+10   1775s
   62178    1.1004965e+07   0.000000e+00   4.430018e+09   1781s
   63464    1.1005112e+07   0.000000e+00   2.104018e+10   1786s
   64747    1.1005262e+07   0.000000e+00   2.315389e+09   1790s
   66158    1.1005483e+07   0.000000e+00   6.708000e+10   1795s
   67438    1.1005621e+07   0.000000e+00   1.699028e+09   1800s
   68849    1.1005767e+07   0.000000e+00   1.279551e+09   1805s
   70134    1.1005904e+07   0.000000e+00   3.950150e+08   1810s
   71546    1.1006087e+07   0.000000e+00   1.540567e+09   1815s
   72829    1.1006207e+07   0.000000e+00   9.413681e+09   1820s
   74117    1.1006341e+07   0.000000e+00   5.072741e+09   1825s
   75527    1.1006448e+07   0.000000e+00   1.580339e+09   1830s
   76807    1.1006550e+07   0.000000e+00   1.314360e+09   1835s
   78215    1.1006721e+07   0.000000e+00   5.971055e+09   1840s
   79631    1.1006864e+07   0.000000e+00   9.462992e+08   1845s
   80916    1.1006965e+07   0.000000e+00   4.242390e+09   1850s
   82204    1.1007065e+07   0.000000e+00   3.127572e+10   1855s
   83492    1.1007226e+07   0.000000e+00   1.328773e+09   1860s
   84901    1.1007336e+07   0.000000e+00   2.853353e+09   1865s
   86318    1.1007452e+07   0.000000e+00   4.742072e+10   1870s
   87732    1.1007566e+07   0.000000e+00   7.389242e+10   1875s
   89152    1.1007654e+07   0.000000e+00   2.303462e+09   1880s
   90436    1.1007720e+07   0.000000e+00   1.616732e+09   1885s
   91862    1.1007818e+07   0.000000e+00   3.795181e+09   1890s
   93147    1.1007888e+07   0.000000e+00   2.494337e+10   1895s
   94557    1.1007976e+07   0.000000e+00   4.457244e+08   1900s
   95851    1.1008036e+07   0.000000e+00   3.362516e+10   1905s
   97268    1.1008103e+07   0.000000e+00   1.388572e+09   1910s
   98566    1.1008148e+07   0.000000e+00   8.465515e+08   1915s
  100126    1.1008233e+07   0.000000e+00   3.369137e+09   1920s
  101416    1.1008309e+07   0.000000e+00   1.795009e+10   1925s
  102840    1.1008407e+07   0.000000e+00   4.111700e+08   1930s
  104128    1.1008477e+07   0.000000e+00   4.871043e+09   1935s
  105543    1.1008561e+07   0.000000e+00   6.175755e+08   1940s
  106834    1.1008605e+07   0.000000e+00   4.737484e+08   1945s
  108248    1.1008655e+07   0.000000e+00   1.274442e+09   1950s
  109543    1.1008715e+07   0.000000e+00   9.842873e+09   1955s
  110958    1.1008780e+07   0.000000e+00   1.780850e+09   1960s
  112376    1.1008826e+07   0.000000e+00   4.330990e+08   1965s
  113668    1.1008868e+07   0.000000e+00   5.611937e+10   1970s
  115087    1.1008913e+07   0.000000e+00   1.615742e+10   1975s
  116384    1.1008976e+07   0.000000e+00   1.528749e+09   1980s
  117806    1.1009019e+07   0.000000e+00   2.080723e+08   1985s
  119098    1.1009054e+07   0.000000e+00   5.155991e+09   1990s
  120521    1.1009128e+07   0.000000e+00   7.717282e+08   1995s
  121809    1.1009162e+07   0.000000e+00   4.506577e+08   2000s
  123230    1.1009199e+07   0.000000e+00   2.932008e+08   2005s
  124647    1.1009278e+07   0.000000e+00   5.092885e+08   2010s
  125934    1.1009434e+07   0.000000e+00   4.182216e+09   2015s
  127352    1.1009558e+07   0.000000e+00   5.758766e+08   2021s
  128513    1.1009605e+07   0.000000e+00   2.155089e+09   2025s
  130075    1.1009660e+07   0.000000e+00   3.494868e+08   2030s
  131497    1.1009706e+07   0.000000e+00   2.014435e+09   2035s
  132920    1.1009747e+07   0.000000e+00   2.352951e+08   2040s
  134207    1.1009786e+07   0.000000e+00   2.704662e+08   2045s
  135761    1.1009840e+07   0.000000e+00   4.554332e+08   2050s
  137047    1.1009881e+07   0.000000e+00   2.491835e+08   2055s
  138594    1.1009936e+07   0.000000e+00   3.922372e+09   2061s
  140012    1.1009988e+07   0.000000e+00   8.554253e+08   2065s
  141559    1.1010027e+07   0.000000e+00   1.982007e+09   2070s
  142851    1.1010073e+07   0.000000e+00   1.853664e+09   2075s
  144135    1.1010137e+07   0.000000e+00   1.579575e+09   2080s
  145561    1.1010179e+07   0.000000e+00   1.129228e+09   2085s
  146991    1.1010221e+07   0.000000e+00   4.436650e+07   2090s
  148421    1.1010254e+07   0.000000e+00   1.323151e+09   2095s
  149720    1.1010286e+07   0.000000e+00   9.055866e+08   2100s
  151134    1.1010320e+07   0.000000e+00   1.645859e+09   2105s
  152556    1.1010342e+07   0.000000e+00   2.961126e+09   2110s
  153970    1.1010372e+07   0.000000e+00   5.492447e+08   2115s
  155391    1.1010402e+07   0.000000e+00   1.115340e+08   2120s
  156810    1.1010450e+07   0.000000e+00   8.082356e+09   2125s
  158173    1.1010535e+07   0.000000e+00   1.691650e+08   2130s
  159587    1.1010570e+07   0.000000e+00   1.172993e+11   2135s
  161001    1.1010628e+07   0.000000e+00   4.160014e+09   2140s
  162293    1.1010660e+07   0.000000e+00   1.249515e+08   2145s
  163740    1.1010702e+07   0.000000e+00   2.304823e+09   2150s
  165159    1.1010770e+07   0.000000e+00   2.596077e+08   2155s
  166590    1.1010804e+07   0.000000e+00   1.088944e+10   2160s
  168008    1.1010836e+07   0.000000e+00   1.138353e+10   2165s
  169297    1.1010855e+07   0.000000e+00   3.162819e+08   2170s
  170721    1.1010873e+07   0.000000e+00   2.624390e+08   2175s
  172139    1.1010888e+07   0.000000e+00   3.729167e+07   2180s
  173699    1.1010900e+07   0.000000e+00   1.774682e+08   2185s
  175110    1.1010913e+07   0.000000e+00   1.609602e+07   2190s
  176672    1.1010930e+07   0.000000e+00   4.767468e+07   2195s
  178274    1.1010942e+07   0.000000e+00   4.334143e+08   2200s
  179686    1.1010953e+07   0.000000e+00   4.757422e+08   2205s
  181103    1.1010963e+07   0.000000e+00   3.965734e+07   2210s
  182521    1.1010983e+07   0.000000e+00   2.894022e+07   2215s
  184072    1.1010995e+07   0.000000e+00   2.961426e+07   2220s
  185492    1.1011011e+07   0.000000e+00   1.540273e+08   2225s
  187036    1.1011023e+07   0.000000e+00   2.445923e+07   2230s
  188487    1.1011028e+07   0.000000e+00   1.959258e+08   2235s
  189912    1.1011040e+07   0.000000e+00   1.768027e+08   2240s
  191327    1.1011048e+07   0.000000e+00   4.214903e+06   2245s
  192736    1.1011058e+07   0.000000e+00   1.476907e+08   2250s
  194279    1.1011063e+07   0.000000e+00   3.610972e+06   2255s
  195690    1.1011071e+07   0.000000e+00   1.051334e+08   2260s
  197111    1.1011074e+07   0.000000e+00   9.545685e+06   2265s
  198537    1.1011077e+07   0.000000e+00   4.788882e+06   2270s
  199956    1.1011079e+07   0.000000e+00   1.571515e+07   2275s
  201374    1.1011081e+07   0.000000e+00   8.573592e+05   2280s
  202791    1.1011082e+07   0.000000e+00   1.572314e+06   2285s
  204218    1.1011083e+07   0.000000e+00   2.677317e+04   2290s
  205380    1.1011083e+07   0.000000e+00   4.465319e+03   2295s
  206204    1.1002421e+07   0.000000e+00   0.000000e+00   2299s
Extra 167018 simplex iterations after uncrush
Concurrent spin time: 35.75s

Solved with barrier

Root relaxation: objective 1.100242e+07, 206204 iterations, 1533.42 seconds
Total elapsed time = 2335.76s

    Nodes    |    Current Node    |     Objective Bounds      |     Work
 Expl Unexpl |  Obj  Depth IntInf | Incumbent    BestBd   Gap | It/Node Time

     0     0 1.0957e+07    0  335          - 1.0957e+07      -     - 2647s
     0     0 9384949.75    0  462          - 9384949.75      -     - 4341s
H    0     0                    -3476455.080 9384949.75   370%     - 4343s
H    0     0                    -2511188.816 9384949.75   474%     - 4388s
     0     0 9381640.71    0  463 -2511188.8 9381640.71   474%     - 4421s
     0     0 9380500.81    0  463 -2511188.8 9380500.81   474%     - 4539s
     0     0 9379578.63    0  481 -2511188.8 9379578.63   474%     - 4658s
     0     0 9379409.16    0  481 -2511188.8 9379409.16   474%     - 4663s
     0     0 9235032.11    0  453 -2511188.8 9235032.11   468%     - 5594s
     0     0 9227687.30    0  427 -2511188.8 9227687.30   467%     - 6072s
     0     0 9215518.66    0  423 -2511188.8 9215518.66   467%     - 6473s
     0     0 9215472.48    0  419 -2511188.8 9215472.48   467%     - 6536s
     0     0 9000926.28    0  454 -2511188.8 9000926.28   458%     - 7880s
     0     0 9000533.32    0  454 -2511188.8 9000533.32   458%     - 7889s
     0     0 9000533.32    0  454 -2511188.8 9000533.32   458%     - 7891s
     0     0 8997282.92    0  444 -2511188.8 8997282.92   458%     - 8115s
     0     0 8995086.85    0  437 -2511188.8 8995086.85   458%     - 8517s
     0     0 8994598.91    0  433 -2511188.8 8994598.91   458%     - 8730s
     0     0 8994525.99    0  413 -2511188.8 8994525.99   458%     - 8764s
     0     0 8992732.47    0  444 -2511188.8 8992732.47   458%     - 8945s
     0     0 8992421.91    0  455 -2511188.8 8992421.91   458%     - 9025s
     0     0 8992381.43    0  464 -2511188.8 8992381.43   458%     - 9062s
     0     0 8991799.40    0  457 -2511188.8 8991799.40   458%     - 9117s
     0     0 8991746.64    0  457 -2511188.8 8991746.64   458%     - 9134s
     0     0 8991453.51    0  448 -2511188.8 8991453.51   458%     - 9239s
     0     0 8991268.33    0  445 -2511188.8 8991268.33   458%     - 9309s
     0     0 8991203.23    0  449 -2511188.8 8991203.23   458%     - 9335s
     0     0 8991202.98    0  451 -2511188.8 8991202.98   458%     - 9338s
     0     0 8991202.86    0  456 -2511188.8 8991202.86   458%     - 9358s
     0     0 8991199.30    0  461 -2511188.8 8991199.30   458%     - 9372s
     0     0 8991195.75    0  444 -2511188.8 8991195.75   458%     - 9417s
     0     0 8991195.75    0  444 -2511188.8 8991195.75   458%     - 9819s
     0     2 8991195.75    0  444 -2511188.8 8991195.75   458%     - 11374s
     1     4 7982183.15    1  404 -2511188.8 8991188.12   458% 136972 13860s
     3     8 7552881.61    2  327 -2511188.8 8746189.68   448% 152161 17537s
     7    12 7547800.26    3  331 -2511188.8 8735630.95   448% 105005 20192s
    11    16 2635036.82    3  372 -2511188.8 8735630.95   448% 107569 23179s
    15    18 7546932.94    4  333 -2511188.8 8735630.95   448% 83095 23405s
    19    20 7545631.96    5  329 -2511188.8 8735630.95   448% 66941 24062s
    23    23 7511804.86    6  306 -2511188.8 8735630.95   448% 59441 24533s
    28    30 7507731.33    7  301 -2511188.8 8735630.95   448% 51000 27824s
H   33    35                    -1595232.503 8735630.95   648% 46497 27824s
    34    35 7367666.82    8  293 -1595232.5 8735630.95   648% 53901 29779s
    40    41 7466116.47    9  308 -1595232.5 8735630.95   648% 47852 32756s
    46    47 7432456.09   12  313 -1595232.5 8735630.95   648% 48327 33737s
    55    55 7423252.79   13  314 -1595232.5 8735630.95   648% 42757 34422s
    61    63 6979986.01   14  290 -1595232.5 8735630.95   648% 40864 36079s
    67    69 7352823.15   14  298 -1595232.5 8735630.95   648% 40705 38111s
    74    73 7350085.94   15  296 -1595232.5 8735630.95   648% 40336 53021s
    82    84 7330407.84   16  284 -1595232.5 8735630.95   648% 48508 54652s
    89    88 7309715.95   18  303 -1595232.5 8735630.95   648% 47030 56682s
H   90    88                    -1258913.630 8735630.95   794% 46507 56682s
    97    99 7275369.17   20  310 -1258913.6 8735630.95   794% 45032 58532s
   104   107 7083442.70   21  290 -1258913.6 8735630.95   794% 46305 65231s
   112   112 7239486.32   22  318 -1258913.6 8735630.95   794% 48267 67495s
   118   117 7228901.40   23  297 -1258913.6 8735630.95   794% 47896 71586s
   131   135 7105457.38   24  279 -1258913.6 8735630.95   794% 46579 75784s
   138   139 7092567.18   25  281 -1258913.6 8735630.95   794% 46667 78104s
   146   146 6591987.81   26  333 -1258913.6 8735630.95   794% 46763 80457s
   153   153 6976006.15   26  273 -1258913.6 8735630.95   794% 46392 82712s
   173   174 6959821.23   28  300 -1258913.6 8735630.95   794% 42529 85932s
   188   186 7638983.81   57  393 -1258913.6 8735630.95   794% 41342 86400s

Cutting planes:
  Gomory: 7
  Implied bound: 25
  Clique: 13
  MIR: 32
  Flow cover: 92
  Zero half: 2

Explored 192 nodes (8476719 simplex iterations) in 86400.42 seconds
Thread count was 4 (of 16 available processors)

Solution count 4: -1.25891e+06 -1.59523e+06 -2.51119e+06 -3.47646e+06 

Time limit reached
Warning: max constraint violation (1.1095e-06) exceeds tolerance
Best objective -1.258913630167e+06, best bound 8.735630946756e+06, gap 793.9023%

***
***  |- Calculation finished, timelimit reached 86,400.5 (86400.5) sec.))
***  |-----------------------------------------------------------------------------------------------------------------------
***
*****************************************************************************************************************************
#############################################################################################################################
###
### Results
###
### The objective of the solution is -1,258,913.6302 (-1258913.6302) and is feasible with a Gap of 7.939
###
### Service 24 (WAF7) is operated by 3 vessels from type 18 (PMax25)
###  |- Vessel  1 has the path [131, 386, -1]
###  |  131 (DEHAM Out@288.0) - 386 (ESALG In@496.0/Out@515.0) - -1 (DUMMY_END Ziel-Service 24)
###  |- Vessel  2 has the path [132, 387, -1]
###  |  132 (DEHAM Out@456.0) - 387 (ESALG In@664.0/Out@683.0) - -1 (DUMMY_END Ziel-Service 24)
###  |- Vessel  3 has the path [133, 388, -1]
###  |  133 (DEHAM Out@624.0) - 388 (ESALG In@832.0/Out@851.0) - -1 (DUMMY_END Ziel-Service 24)
###  |
### Service 121 (SAE) is operated by 2 vessels from type 30 (PMax35)
###  |- Vessel  9 has the path [9, 384, 260, 400, 261, 147, 401, 263, 149, 421, 411, -2]
###  |  9 (BEANR Out@66.0) - 384 (ESALG In@160.0/Out@179.0) - 260 (MAPTM In@207.0/Out@228.0) - 400 (MAPTM In@211.0/Out@230.0)
###  |   - 261 (MAPTM In@238.0/Out@259.0) - 147 (ESALG In@284.0/Out@296.0) - 401 (MAPTM In@379.0/Out@398.0) - 263 (MAPTM In@4
###  |  06.0/Out@427.0) - 149 (ESALG In@452.0/Out@464.0) - 421 (USMIA In@935.0/Out@943.0) - 411 (HNPCR In@998.0/Out@1011.0) -
###  |   -2 (DUMMY_END Ziel-Service 121)
###  |   |- and carried Demand  11,  580.0 containers from 260 to 147
###  |   |- and carried Demand  60,  580.0 containers from 261 to 147
###  |   |- and carried Demand  66,  484.0 containers from 263 to 149
###  |   |- and carried Demand  67,   18.0 containers from 263 to 149
###  |   |- and carried Demand 257,  580.0 containers from 260 to 147
###  |   |- and carried Demand 271,  580.0 containers from 261 to 147
###  |   |- and carried Demand 274,  484.0 containers from 263 to 149
###  |   |- and carried Demand 275,   18.0 containers from 263 to 149
###  |   |- and carried Demand 287,  484.0 containers from 401 to 149
###  |   |- and carried Demand 288,   18.0 containers from 401 to 149
###  |   |- and carried Demand 295,  580.0 containers from 400 to 147
###  |   |- and carried Demand 325,   10.0 containers from 421 to 411
###  |- Vessel 24 has the path [231, 106, 78, 210, 107, 75, 86, 119, 300, 412, -2]
###  |  231 (JPYOK Out@171.0) - 106 (CNXMN In@238.0/Out@260.0) - 78 (CNNSA In@287.0/Out@297.0) - 210 (HKHKG In@334.0/Out@350.
###  |  0) - 107 (CNYTN In@358.0/Out@376.0) - 75 (CNNGB In@430.0/Out@439.0) - 86 (CNSHA In@465.0/Out@483.0) - 119 (COBUN In@8
###  |  40.0/Out@855.0) - 300 (PABLB In@982.0/Out@1030.0) - 412 (HNPCR In@1166.0/Out@1179.0) - -2 (DUMMY_END Ziel-Service 121
###  |  )
###  |   |- and carried Demand  87,  541.0 containers from 231 to 300
###  |   |- and carried Demand 178,  785.0 containers from 106 to 210
###  |   |- and carried Demand 179,    1.0 containers from 106 to 210
###  |   |- and carried Demand 181,  121.0 containers from 210 to  75
###  |   |- and carried Demand 182,   75.0 containers from 210 to  86
###  |   |- and carried Demand 183,    1.0 containers from 210 to 107
###  |   |- and carried Demand 186,    6.0 containers from 107 to 300
###  |   |- and carried Demand 188,  773.0 containers from  75 to 300
###  |   |- and carried Demand 189,    1.0 containers from  75 to 300
###  |   |- and carried Demand 297,    6.0 containers from 107 to 300
###  |   |- and carried Demand 298,  773.0 containers from  75 to 300
###  |   |- and carried Demand 299,    1.0 containers from  75 to 300
###  |
### Service 177 (WCSA) is operated by 3 vessels from type 18 (PMax25)
###  |- Vessel  4 has the path [134, 303, 0]
###  |  134 (DEHAM Out@792.0) - 303 (PABLB In@1472.0/Out@1484.0) - 0 (DUMMY_END Ziel-Service 177)
###  |- Vessel 13 has the path [135, 385, 262, 302, 0]
###  |  135 (DKAAR Out@220.0) - 385 (ESALG In@328.0/Out@347.0) - 262 (MAPTM In@375.0/Out@396.0) - 302 (PABLB In@1304.0/Out@13
###  |  16.0) - 0 (DUMMY_END Ziel-Service 177)
###  |- Vessel 14 has the path [136, 407, 270, 121, 305, 0]
###  |  136 (DKAAR Out@388.0) - 407 (GTSTC In@687.0/Out@701.0) - 270 (MXLZC In@873.0/Out@896.0) - 121 (COBUN In@1176.0/Out@11
###  |  91.0) - 305 (PABLB In@1640.0/Out@1652.0) - 0 (DUMMY_END Ziel-Service 177)
###  |
### Vessels not used in the solution: [5, 6, 7, 8, 10, 11, 12, 15, 16, 17, 18, 19, 20, 21, 22, 23]
###  |-----------------------------------------------------------------------------------------------------------------------
###
#############################################################################################################################

### Detialed variable overview

### All variables with value greater zero:
rho[24,18] = 1
rho[177,18] = 1
rho[121,30] = 1
eta[24,18,1] = 1
eta[24,18,2] = 1
eta[24,18,3] = 1
eta[177,18,1] = 1
eta[177,18,2] = 1
eta[177,18,3] = 1
eta[121,30,1] = 1
eta[121,30,2] = 1
y[1,131,386] = 1
y[1,386,-1] = 1
y[2,387,-1] = 1
y[2,132,387] = 1
y[3,133,388] = 1
y[3,388,-1] = 1
y[4,303,0] = 1
y[4,134,303] = 1
y[9,260,400] = 1
y[9,421,411] = 1
y[9,401,263] = 1
y[9,9,384] = 1
y[9,263,149] = 1
y[9,261,147] = 1
y[9,149,421] = 1
y[9,147,401] = 1
y[9,384,260] = 1
y[9,411,-2] = 1
y[9,400,261] = 1
y[13,302,0] = 1
y[13,262,302] = 1
y[13,385,262] = 1
y[13,135,385] = 1
y[14,136,407] = 1
y[14,270,121] = 1
y[14,305,0] = 1
y[14,121,305] = 1
y[14,407,270] = 1
y[24,300,412] = 1
y[24,119,300] = 1
y[24,231,106] = 1
y[24,210,107] = 1
y[24,412,-2] = 1
y[24,106,78] = 1
y[24,86,119] = 1
y[24,75,86] = 1
y[24,78,210] = 1
y[24,107,75] = 1
xD[11,260,400] = 580
xD[11,261,147] = 580
xD[11,400,261] = 580
xD[60,261,147] = 580
xD[66,263,149] = 484
xD[67,263,149] = 18
xD[87,119,300] = 541
xD[87,231,106] = 541
xD[87,210,107] = 541
xD[87,106,78] = 541
xD[87,86,119] = 541
xD[87,75,86] = 541
xD[87,78,210] = 541
xD[87,107,75] = 541
xD[178,106,78] = 785
xD[178,78,210] = 785
xD[179,106,78] = 1
xD[179,78,210] = 1
xD[181,210,107] = 121
xD[181,107,75] = 121
xD[182,210,107] = 75
xD[182,75,86] = 75
xD[182,107,75] = 75
xD[183,210,107] = 1
xD[186,119,300] = 6
xD[186,86,119] = 6
xD[186,75,86] = 6
xD[186,107,75] = 6
xD[188,119,300] = 773
xD[188,86,119] = 773
xD[188,75,86] = 773
xD[189,119,300] = 1
xD[189,86,119] = 1
xD[189,75,86] = 1
xD[257,260,400] = 580
xD[257,261,147] = 580
xD[257,400,261] = 580
xD[271,261,147] = 580
xD[274,263,149] = 484
xD[275,263,149] = 18
xD[287,401,263] = 484
xD[287,263,149] = 484
xD[288,401,263] = 18
xD[288,263,149] = 18
xD[295,261,147] = 580
xD[295,400,261] = 580
xD[297,119,300] = 6
xD[297,86,119] = 6
xD[297,75,86] = 6
xD[297,107,75] = 6
xD[298,119,300] = 773
xD[298,86,119] = 773
xD[298,75,86] = 773
xD[299,119,300] = 1
xD[299,86,119] = 1
xD[299,75,86] = 1
xD[325,421,411] = 10
zE[75] = 430
zE[78] = 287
zE[86] = 465
zE[106] = 238
zE[107] = 358
zE[119] = 840
zE[121] = 1176
zE[147] = 284
zE[149] = 452
zE[210] = 334
zE[260] = 207
zE[261] = 238
zE[262] = 375
zE[263] = 406
zE[270] = 873
zE[300] = 982
zE[302] = 1304
zE[303] = 1472
zE[305] = 1640
zE[384] = 160
zE[385] = 328
zE[386] = 496
zE[387] = 664
zE[388] = 832
zE[400] = 211
zE[401] = 379
zE[407] = 687
zE[411] = 998
zE[412] = 1166
zE[421] = 935
zX[9] = 66
zX[75] = 439
zX[78] = 297
zX[86] = 483
zX[106] = 260
zX[107] = 376
zX[119] = 855
zX[121] = 1191
zX[131] = 288
zX[132] = 456
zX[133] = 624
zX[134] = 792
zX[135] = 220
zX[136] = 388
zX[147] = 296
zX[149] = 464
zX[210] = 350
zX[231] = 171
zX[260] = 228
zX[261] = 259
zX[262] = 396
zX[263] = 427
zX[270] = 896
zX[300] = 1030
zX[302] = 1316
zX[303] = 1484
zX[305] = 1652
zX[324] = 5093
zX[384] = 179
zX[385] = 347
zX[386] = 515
zX[387] = 683
zX[388] = 851
zX[400] = 230
zX[401] = 398
zX[407] = 701
zX[411] = 1011
zX[412] = 1179
zX[421] = 943
phi[1] = 227
phi[2] = 227
phi[3] = 227
phi[4] = 692
phi[9] = 945
phi[13] = 1096
phi[14] = 1264
phi[24] = 1008

### All variables with value smaller zero:

### End

real	1446m26.279s
user	5030m33.011s
sys	592m16.822s
	Freetype 2.4.12 environment removed
	Python 3.6.0 environment removed
	Gurobi 8.1.0 environment removed
