	Freetype 2.4.12 environment established
		library to render fonts
	Python 3.6.0 environment established
	Gurobi 8.1.0 environment established
Instance LSFRP: LSFDRP_3_2_1_0_fr.p
Instance LSFDP: LSFDRP_3_2_1_0_fd_22.p

*****************************************************************************************************************************
*** Solve LSFDRP_3_2_1_0_fd_22 with Gurobi
***
*** Graph info
*** |S|: 24
*** |S^E|: 0
*** |S^C|: 6
*** |V|: 431
*** |A|: 14925
*** |A^i|: 14778
*** |A^f|: 147
*** |M|: 348
*** |E|: 28

Changed value of parameter TimeLimit to 86400.0
   Prev: 1e+100  Min: 0.0  Max: 1e+100  Default: 1e+100
Changed value of parameter Threads to 4
   Prev: 0  Min: 0  Max: 1024  Default: 0
Optimize a model with 203293 rows, 5586376 columns and 20275474 nonzeros
Variable types: 5228140 continuous, 358236 integer (358236 binary)
Coefficient statistics:
  Matrix range     [1e+00, 5e+03]
  Objective range  [2e+00, 2e+07]
  Bounds range     [1e+00, 1e+00]
  RHS range        [1e+00, 5e+03]
Presolve removed 10089 rows and 1260 columns (presolve time = 6s) ...
Presolve removed 48342 rows and 2089741 columns (presolve time = 11s) ...
Presolve removed 79589 rows and 3220196 columns (presolve time = 15s) ...
Presolve removed 89649 rows and 3582319 columns (presolve time = 20s) ...
Presolve removed 90596 rows and 3610344 columns (presolve time = 25s) ...
Presolve removed 91065 rows and 3620000 columns (presolve time = 31s) ...
Presolve removed 96574 rows and 3642624 columns (presolve time = 35s) ...
Presolve removed 100112 rows and 3710721 columns (presolve time = 40s) ...
Presolve removed 100417 rows and 3718987 columns (presolve time = 45s) ...
Presolve removed 101377 rows and 3720254 columns (presolve time = 50s) ...
Presolve removed 101377 rows and 3720254 columns (presolve time = 56s) ...
Presolve removed 101383 rows and 3720941 columns (presolve time = 60s) ...
Warning: Failed to open log file 'gurobi.log'
Presolve removed 101410 rows and 3720941 columns (presolve time = 70s) ...
Presolve removed 101410 rows and 3926308 columns (presolve time = 715s) ...
Presolve removed 110835 rows and 3926366 columns (presolve time = 715s) ...
Presolve removed 153667 rows and 5124246 columns (presolve time = 720s) ...
Presolve removed 154027 rows and 5125061 columns (presolve time = 725s) ...
Presolve removed 154141 rows and 5128045 columns (presolve time = 730s) ...
Presolve removed 155240 rows and 5139190 columns (presolve time = 738s) ...
Presolve removed 155242 rows and 5140133 columns (presolve time = 811s) ...
Presolve removed 155215 rows and 5140106 columns
Presolve time: 811.39s
Presolved: 48078 rows, 446270 columns, 2147272 nonzeros
Variable types: 286994 continuous, 159276 integer (158571 binary)

Deterministic concurrent LP optimizer: primal simplex, dual simplex, and barrier
Showing barrier log only...

Presolve removed 382 rows and 3821 columns
Presolved: 47696 rows, 442449 columns, 2142123 nonzeros

Root barrier log...

Ordering time: 0.00s

Barrier statistics:
 Dense cols : 22
 AA' NZ     : 2.575e+06
 Factor NZ  : 4.628e+07 (roughly 600 MBytes of memory)
 Factor Ops : 1.468e+11 (roughly 9 seconds per iteration)
 Threads    : 1

                  Objective                Residual
Iter       Primal          Dual         Primal    Dual     Compl     Time
   0  -2.54541140e+15  1.51447072e+15  1.82e+08 2.66e+06  9.44e+11   840s
   1  -1.53218959e+15  1.50554543e+15  1.09e+08 5.51e+06  5.72e+11   851s
   2  -1.08207465e+15  1.49148966e+15  7.71e+07 3.57e+06  4.05e+11   863s
   3  -6.62707541e+14  1.46957636e+15  4.72e+07 1.86e+06  2.50e+11   874s
   4  -3.34824076e+14  1.44754905e+15  2.39e+07 1.30e+06  1.29e+11   885s
   5  -1.17044101e+14  1.37019615e+15  8.34e+06 6.02e+05  4.66e+10   896s
   6  -3.58663576e+13  1.17197737e+15  2.55e+06 1.91e+05  1.53e+10   908s
   7  -1.30753675e+13  8.90345200e+14  9.29e+05 6.08e+04  5.89e+09   919s
   8  -4.03801096e+12  3.43265249e+14  2.86e+05 2.26e+03  1.75e+09   930s
   9  -4.88337108e+11  1.13480376e+14  3.44e+04 2.11e-03  2.76e+08   943s
  10  -2.78129730e+11  4.26281362e+13  1.95e+04 8.13e-04  1.26e+08   954s
  11  -7.46968855e+10  1.62636235e+13  5.12e+03 2.50e-04  3.84e+07   966s
  12  -4.12900359e+10  7.83004470e+12  2.83e+03 1.07e-04  2.00e+07   976s
  13  -1.48770913e+10  4.38489755e+12  1.02e+03 5.81e-05  8.98e+06   987s
  14  -6.51504760e+09  2.63958463e+12  4.43e+02 3.46e-05  4.71e+06   999s
  15  -2.98135326e+09  1.54683010e+12  2.00e+02 1.98e-05  2.52e+06  1010s
  16  -1.20003246e+09  8.60454520e+11  7.73e+01 1.07e-05  1.27e+06  1021s
  17  -5.76166843e+08  4.59800428e+11  3.48e+01 5.41e-06  6.53e+05  1032s
  18  -3.17214839e+08  2.18510070e+11  1.74e+01 2.44e-06  3.12e+05  1044s
  19  -1.73246496e+08  1.59859167e+11  8.27e+00 1.74e-06  2.11e+05  1055s
  20  -1.36651076e+08  1.29895470e+11  6.09e+00 1.40e-06  1.69e+05  1066s
  21  -1.00325932e+08  1.01286345e+11  4.00e+00 1.10e-06  1.29e+05  1077s
  22  -8.37381211e+07  8.14349593e+10  3.10e+00 9.03e-07  1.03e+05  1087s
  23  -6.36788843e+07  5.67674984e+10  2.08e+00 6.28e-07  7.15e+04  1099s
  24  -4.40394826e+07  4.43079256e+10  1.15e+00 4.84e-07  5.40e+04  1110s
  25  -3.27998174e+07  2.82486877e+10  6.32e-01 3.29e-07  3.39e+04  1122s
  26  -2.77733899e+07  1.44375834e+10  4.37e-01 1.62e-07  1.76e+04  1133s
  27  -2.48588321e+07  9.69308789e+09  3.25e-01 1.55e-07  1.19e+04  1143s
  28  -2.32832060e+07  7.53230451e+09  2.70e-01 1.51e-07  9.26e+03  1154s
  29  -2.11233007e+07  5.21540599e+09  2.13e-01 1.57e-07  6.47e+03  1166s
  30  -1.79897454e+07  3.21110444e+09  1.32e-01 2.04e-07  3.97e+03  1177s
  31  -1.40336149e+07  2.03457021e+09  5.44e-02 1.77e-07  2.44e+03  1188s
  32  -1.04260786e+07  1.63420514e+09  3.59e-02 2.01e-07  1.94e+03  1199s
  33  -1.02637485e+07  1.21576342e+09  2.79e-02 2.80e-07  1.45e+03  1209s
  34  -8.22398401e+06  1.15068648e+09  2.25e-02 1.75e-07  1.36e+03  1220s
  35  -6.72666880e+06  6.29288994e+08  1.57e-02 1.72e-07  7.54e+02  1231s
  36  -4.26495492e+06  4.61965338e+08  9.84e-03 1.97e-07  5.48e+02  1242s
  37  -1.86551027e+06  2.90550362e+08  6.00e-03 2.45e-07  3.44e+02  1252s
  38  -3.84743022e+05  2.16682524e+08  4.49e-03 1.68e-07  2.56e+02  1264s
  39   1.86553797e+06  1.61019197e+08  2.34e-03 1.92e-07  1.85e+02  1276s
  40   3.62612727e+06  9.52034044e+07  1.63e-03 1.69e-07  1.07e+02  1287s
  41   5.28562867e+06  7.59911347e+07  8.35e-04 1.63e-07  8.16e+01  1299s
  42   6.21209726e+06  4.52803347e+07  6.15e-04 2.36e-07  4.57e+01  1310s
  43   6.85876821e+06  3.58524126e+07  4.63e-04 2.87e-07  3.40e+01  1322s
  44   7.24373788e+06  3.13191340e+07  3.95e-04 2.05e-07  2.83e+01  1333s
  45   7.43009133e+06  3.02069226e+07  3.67e-04 2.07e-07  2.67e+01  1344s
  46   7.76597795e+06  2.77725001e+07  3.36e-04 2.31e-07  2.35e+01  1355s
  47   8.06685395e+06  2.54800527e+07  2.96e-04 2.52e-07  2.05e+01  1367s
  48   8.31787608e+06  2.36888840e+07  2.65e-04 2.54e-07  1.81e+01  1377s
  49   8.62090999e+06  2.20164091e+07  2.27e-04 3.04e-07  1.58e+01  1388s
  50   8.82616774e+06  2.10022753e+07  2.01e-04 2.72e-07  1.43e+01  1400s
  51   9.07670267e+06  1.91808974e+07  1.74e-04 2.98e-07  1.19e+01  1411s
  52   9.28734175e+06  1.83140220e+07  1.54e-04 2.95e-07  1.06e+01  1422s
  53   9.51778388e+06  1.73177874e+07  1.32e-04 3.30e-07  9.18e+00  1433s
  54   1.00039644e+07  1.62869650e+07  9.50e-05 2.64e-07  7.36e+00  1444s
  55   1.03047232e+07  1.59138700e+07  7.70e-05 2.41e-07  6.54e+00  1455s
  56   1.05782061e+07  1.51074508e+07  6.00e-05 2.11e-07  5.28e+00  1466s
  57   1.09280562e+07  1.40824232e+07  4.14e-05 1.90e-07  3.68e+00  1478s
  58   1.13402079e+07  1.29466340e+07  2.08e-05 2.93e-07  1.88e+00  1489s
  59   1.14909873e+07  1.25500825e+07  1.39e-05 2.50e-07  1.24e+00  1499s
  60   1.17162812e+07  1.22927702e+07  3.70e-06 2.12e-07  6.58e-01  1510s
  61   1.17545901e+07  1.19869515e+07  2.14e-06 2.16e-07  2.68e-01  1521s
  62   1.17777526e+07  1.19068348e+07  2.50e-06 2.76e-07  1.49e-01  1532s
  63   1.17876526e+07  1.18513727e+07  1.60e-06 2.71e-07  7.49e-02  1543s
  64   1.18041520e+07  1.18197592e+07  4.62e-07 3.03e-07  1.86e-02  1554s
  65   1.18098821e+07  1.18121566e+07  2.17e-07 3.96e-07  2.66e-03  1564s
  66   1.18104702e+07  1.18106354e+07  1.68e-07 4.75e-07  2.09e-04  1575s
  67   1.18105916e+07  1.18106087e+07  1.44e-08 5.50e-07  2.16e-05  1585s
  68   1.18106026e+07  1.18106070e+07  1.75e-07 3.55e-07  5.67e-06  1597s
  69   1.18106037e+07  1.18106063e+07  1.03e-07 4.97e-07  3.28e-06  1607s
  70   1.18106038e+07  1.18106063e+07  2.86e-07 4.75e-07  3.13e-06  1618s
  71   1.18106052e+07  1.18106060e+07  1.05e-07 4.95e-07  1.08e-06  1629s
  72   1.18106054e+07  1.18106060e+07  1.33e-07 1.04e-06  5.30e-07  1639s
  73   1.18106061e+07  1.18106059e+07  2.60e-07 5.25e-07  3.66e-08  1650s
  74   1.18106059e+07  1.18106059e+07  5.63e-06 7.25e-07  2.47e-09  1664s

Barrier solved model in 74 iterations and 1663.61 seconds
Optimal objective 1.18106059e+07


Root crossover log...

   44767 DPushes remaining with DInf 0.0000000e+00              1664s
     132 DPushes remaining with DInf 0.0000000e+00              1666s
       0 DPushes remaining with DInf 5.9168796e-08              1667s

      91 PPushes remaining with PInf 3.3894201e-06              1667s
       0 PPushes remaining with PInf 0.0000000e+00              1667s

  Push phase complete: Pinf 0.0000000e+00, Dinf 1.2076645e-07   1667s


Root simplex log...

Iteration    Objective       Primal Inf.    Dual Inf.      Time
   39183    1.1810606e+07   0.000000e+00   0.000000e+00   1667s
   39213    1.1810606e+07   0.000000e+00   0.000000e+00   1667s
Extra 30 simplex iterations after uncrush
Concurrent spin time: 13.44s

Solved with barrier

Root relaxation: objective 1.181061e+07, 39213 iterations, 864.99 seconds

    Nodes    |    Current Node    |     Objective Bounds      |     Work
 Expl Unexpl |  Obj  Depth IntInf | Incumbent    BestBd   Gap | It/Node Time

     0     0 1.1755e+07    0  369          - 1.1755e+07      -     - 1799s
     0     0 1.0555e+07    0  435          - 1.0555e+07      -     - 3341s
H    0     0                    -2051322.639 1.0555e+07   615%     - 3342s
     0     0 1.0545e+07    0  446 -2051322.6 1.0545e+07   614%     - 3623s
     0     0 1.0545e+07    0  446 -2051322.6 1.0545e+07   614%     - 3632s
     0     0 1.0483e+07    0  434 -2051322.6 1.0483e+07   611%     - 4602s
H    0     0                    -1082684.519 1.0483e+07  1068%     - 4603s
     0     0 1.0469e+07    0  433 -1082684.5 1.0469e+07  1067%     - 4951s
     0     0 1.0466e+07    0  430 -1082684.5 1.0466e+07  1067%     - 5050s
     0     0 1.0465e+07    0  441 -1082684.5 1.0465e+07  1067%     - 5093s
     0     0 1.0465e+07    0  441 -1082684.5 1.0465e+07  1067%     - 5093s
     0     0 1.0462e+07    0  460 -1082684.5 1.0462e+07  1066%     - 5430s
H    0     0                    -633371.2009 1.0462e+07  1752%     - 5431s
     0     0 1.0460e+07    0  479 -633371.20 1.0460e+07  1752%     - 5637s
     0     0 1.0459e+07    0  445 -633371.20 1.0459e+07  1751%     - 5719s
     0     0 1.0459e+07    0  451 -633371.20 1.0459e+07  1751%     - 5722s
     0     0 1.0458e+07    0  449 -633371.20 1.0458e+07  1751%     - 5869s
     0     0 1.0457e+07    0  436 -633371.20 1.0457e+07  1751%     - 5940s
     0     0 1.0457e+07    0  432 -633371.20 1.0457e+07  1751%     - 5943s
     0     0 1.0455e+07    0  441 -633371.20 1.0455e+07  1751%     - 6113s
     0     0 1.0455e+07    0  446 -633371.20 1.0455e+07  1751%     - 6165s
     0     0 1.0455e+07    0  447 -633371.20 1.0455e+07  1751%     - 6176s
     0     0 1.0455e+07    0  451 -633371.20 1.0455e+07  1751%     - 6201s
     0     0 1.0454e+07    0  463 -633371.20 1.0454e+07  1751%     - 6275s
H    0     0                    -630365.1382 1.0454e+07  1758%     - 6276s
H    0     0                    -95821.11958 1.0454e+07      -     - 6316s
     0     0 1.0454e+07    0  463 -95821.120 1.0454e+07      -     - 6319s
     0     0 1.0452e+07    0  456 -95821.120 1.0452e+07      -     - 6433s
     0     0 1.0452e+07    0  456 -95821.120 1.0452e+07      -     - 6447s
     0     0 1.0368e+07    0  442 -95821.120 1.0368e+07      -     - 7294s
     0     0 1.0368e+07    0  444 -95821.120 1.0368e+07      -     - 7430s
     0     0 1.0367e+07    0  442 -95821.120 1.0367e+07      -     - 7493s
     0     0 1.0367e+07    0  436 -95821.120 1.0367e+07      -     - 7523s
     0     0 1.0360e+07    0  466 -95821.120 1.0360e+07      -     - 7882s
     0     0 1.0359e+07    0  458 -95821.120 1.0359e+07      -     - 8007s
     0     0 1.0359e+07    0  458 -95821.120 1.0359e+07      -     - 12620s
     0     0 1.0357e+07    0  463 -95821.120 1.0357e+07      -     - 12883s
     0     0 1.0357e+07    0  468 -95821.120 1.0357e+07      -     - 12914s
     0     0 1.0354e+07    0  461 -95821.120 1.0354e+07      -     - 13645s
     0     0 1.0345e+07    0  451 -95821.120 1.0345e+07      -     - 14361s
     0     0 1.0344e+07    0  467 -95821.120 1.0344e+07      -     - 14466s
     0     0 1.0342e+07    0  476 -95821.120 1.0342e+07      -     - 14653s
     0     0 1.0342e+07    0  473 -95821.120 1.0342e+07      -     - 14682s
     0     0 1.0342e+07    0  493 -95821.120 1.0342e+07      -     - 14773s
     0     0 1.0342e+07    0  519 -95821.120 1.0342e+07      -     - 15055s
     0     0 1.0342e+07    0  513 -95821.120 1.0342e+07      -     - 15073s
     0     0 1.0342e+07    0  504 -95821.120 1.0342e+07      -     - 15252s
     0     0 1.0341e+07    0  497 -95821.120 1.0341e+07      -     - 15287s
     0     0 1.0341e+07    0  474 -95821.120 1.0341e+07      -     - 15508s
     0     0 1.0341e+07    0  474 -95821.120 1.0341e+07      -     - 15520s
     0     0 1.0341e+07    0  480 -95821.120 1.0341e+07      -     - 15577s
     0     0 1.0341e+07    0  480 -95821.120 1.0341e+07      -     - 15991s
H    0     0                    398729.36235 1.0341e+07  2493%     - 16417s
     0     2 1.0341e+07    0  480 398729.362 1.0341e+07  2493%     - 18643s
     1     4 1.0227e+07    1  434 398729.362 1.0341e+07  2493% 67897 19983s
     3     8 1.0151e+07    2  493 398729.362 1.0316e+07  2487% 82713 28299s
     7    12 1.0146e+07    3  472 398729.362 1.0151e+07  2446% 143669 30064s
    11    16 9966703.49    3  411 398729.362 1.0146e+07  2444% 124655 33241s
    15    18 9865137.69    4  425 398729.362 1.0146e+07  2444% 124748 36287s
    19    18 9852518.26    5  431 398729.362 1.0146e+07  2444% 103666 38322s
    23    26 9848285.77    6  406 398729.362 1.0146e+07  2444% 94194 41274s
    29    33 9829123.44    7  344 398729.362 1.0146e+07  2444% 88954 43239s
    33    34 9835719.84    8  405 398729.362 1.0146e+07  2444% 87224 47257s
    37    36 9809608.03    8  338 398729.362 1.0146e+07  2444% 89138 48859s
    43    43 9818547.87    9  417 398729.362 1.0146e+07  2444% 81570 51393s
    47    46 9818103.71   10  424 398729.362 1.0146e+07  2444% 80945 53212s
    52    54 9798298.92   12  435 398729.362 1.0146e+07  2444% 78089 54746s
    57    59 9778542.17   14  465 398729.362 1.0146e+07  2444% 75891 56443s
    63    63 9776465.57   15  468 398729.362 1.0146e+07  2444% 73482 57846s
    69    71 9755164.56   18  419 398729.362 1.0146e+07  2444% 69333 59860s
    77    76 9755164.56   19  427 398729.362 1.0146e+07  2444% 66488 61347s
    87    92 9347255.73   21  333 398729.362 1.0146e+07  2444% 62802 63405s
    91    89 9688090.02   22  445 398729.362 1.0146e+07  2444% 62862 65336s
   104   104 9664448.68   27  458 398729.362 1.0146e+07  2444% 57226 66598s
   120   121 9631235.25   33  440 398729.362 1.0146e+07  2444% 51742 67939s
   128   129 9611441.62   35  463 398729.362 1.0146e+07  2444% 50504 69453s
   141   142 9588691.77   40  452 398729.362 1.0146e+07  2444% 47773 70945s
   156   159 9571771.49   47  430 398729.362 1.0146e+07  2444% 44936 72707s
   168   168 9528940.46   50  405 398729.362 1.0146e+07  2444% 43447 74999s
   179   182 9463023.79   53  378 398729.362 1.0146e+07  2444% 42896 77733s
   189   190 9392859.90   56  406 398729.362 1.0146e+07  2444% 43162 81617s
   198   198 9345641.13   58  449 398729.362 1.0146e+07  2444% 43381 85639s
   209   206 9303114.31   60  431 398729.362 1.0146e+07  2444% 43513 86400s

Cutting planes:
  Gomory: 6
  Implied bound: 44
  Clique: 14
  MIR: 55
  Flow cover: 130
  Zero half: 5
  Mod-K: 1

Explored 212 nodes (10191188 simplex iterations) in 86400.45 seconds
Thread count was 4 (of 16 available processors)

Solution count 6: 398729 -95821.1 -630365 ... -2.05132e+06

Time limit reached
Warning: max constraint violation (6.0368e-06) exceeds tolerance
Warning: max bound violation (5.9195e-06) exceeds tolerance
Best objective 3.987293623553e+05, best bound 1.014562678428e+07, gap 2444.4895%

***
***  |- Calculation finished, timelimit reached 86,400.53 (86400.53) sec.))
***  |-----------------------------------------------------------------------------------------------------------------------
***
*****************************************************************************************************************************
#############################################################################################################################
###
### Results
###
### The objective of the solution is 398,729.3624 (398729.3624) and is feasible with a Gap of 24.4449
###
### Service 24 (WAF7) is operated by 3 vessels from type 18 (PMax25)
###  |- Vessel  1 has the path [131, 386, -1]
###  |  131 (DEHAM Out@288.0) - 386 (ESALG In@496.0/Out@515.0) - -1 (DUMMY_END Ziel-Service 24)
###  |- Vessel  2 has the path [132, 387, -1]
###  |  132 (DEHAM Out@456.0) - 387 (ESALG In@664.0/Out@683.0) - -1 (DUMMY_END Ziel-Service 24)
###  |- Vessel 13 has the path [135, 401, 263, 149, 388, -1]
###  |  135 (DKAAR Out@220.0) - 401 (MAPTM In@379.0/Out@398.0) - 263 (MAPTM In@406.0/Out@427.0) - 149 (ESALG In@452.0/Out@464
###  |  .0) - 388 (ESALG In@832.0/Out@851.0) - -1 (DUMMY_END Ziel-Service 24)
###  |   |- and carried Demand  66,  484.0 containers from 263 to 149
###  |   |- and carried Demand  67,   18.0 containers from 263 to 149
###  |   |- and carried Demand 272,  214.0 containers from 263 to 388
###  |   |- and carried Demand 273,   10.0 containers from 263 to 388
###  |   |- and carried Demand 274,  484.0 containers from 263 to 149
###  |   |- and carried Demand 275,   18.0 containers from 263 to 149
###  |   |- and carried Demand 285,  214.0 containers from 401 to 388
###  |   |- and carried Demand 286,   10.0 containers from 401 to 388
###  |   |- and carried Demand 287,  484.0 containers from 401 to 149
###  |   |- and carried Demand 288,   18.0 containers from 401 to 149
###  |
### Service 121 (SAE) is operated by 2 vessels from type 30 (PMax35)
###  |- Vessel  9 has the path [9, 384, 260, 400, 261, 385, 262, 148, 411, -2]
###  |  9 (BEANR Out@66.0) - 384 (ESALG In@160.0/Out@179.0) - 260 (MAPTM In@207.0/Out@228.0) - 400 (MAPTM In@211.0/Out@230.0)
###  |   - 261 (MAPTM In@238.0/Out@259.0) - 385 (ESALG In@328.0/Out@347.0) - 262 (MAPTM In@375.0/Out@396.0) - 148 (ESALG In@4
###  |  21.0/Out@433.0) - 411 (HNPCR In@998.0/Out@1011.0) - -2 (DUMMY_END Ziel-Service 121)
###  |   |- and carried Demand  20,  484.0 containers from 262 to 148
###  |   |- and carried Demand  21,   18.0 containers from 262 to 148
###  |   |- and carried Demand 257,  580.0 containers from 260 to 385
###  |   |- and carried Demand 261,  484.0 containers from 262 to 148
###  |   |- and carried Demand 262,   18.0 containers from 262 to 148
###  |   |- and carried Demand 271,  580.0 containers from 261 to 385
###  |   |- and carried Demand 295,  580.0 containers from 400 to 385
###  |- Vessel 24 has the path [231, 106, 78, 210, 107, 75, 86, 140, 300, 412, -2]
###  |  231 (JPYOK Out@171.0) - 106 (CNXMN In@238.0/Out@260.0) - 78 (CNNSA In@287.0/Out@297.0) - 210 (HKHKG In@334.0/Out@350.
###  |  0) - 107 (CNYTN In@358.0/Out@376.0) - 75 (CNNGB In@430.0/Out@439.0) - 86 (CNSHA In@465.0/Out@483.0) - 140 (ECGYE In@9
###  |  11.0/Out@923.0) - 300 (PABLB In@982.0/Out@1030.0) - 412 (HNPCR In@1166.0/Out@1179.0) - -2 (DUMMY_END Ziel-Service 121
###  |  )
###  |   |- and carried Demand  87,  541.0 containers from 231 to 300
###  |   |- and carried Demand 178,  785.0 containers from 106 to 210
###  |   |- and carried Demand 179,    1.0 containers from 106 to 210
###  |   |- and carried Demand 181,  121.0 containers from 210 to  75
###  |   |- and carried Demand 182,   75.0 containers from 210 to  86
###  |   |- and carried Demand 183,    1.0 containers from 210 to 107
###  |   |- and carried Demand 186,    6.0 containers from 107 to 300
###  |   |- and carried Demand 188,  773.0 containers from  75 to 300
###  |   |- and carried Demand 189,    1.0 containers from  75 to 300
###  |   |- and carried Demand 297,    6.0 containers from 107 to 300
###  |   |- and carried Demand 298,  773.0 containers from  75 to 300
###  |   |- and carried Demand 299,    1.0 containers from  75 to 300
###  |
### Service 177 (WCSA) is operated by 3 vessels from type 19 (PMax28)
###  |- Vessel  5 has the path [282, 409, 407, 270, 121, 305, 0]
###  |  282 (NLRTM Out@92.0) - 409 (HNPCR In@662.0/Out@675.0) - 407 (GTSTC In@687.0/Out@701.0) - 270 (MXLZC In@873.0/Out@896.
###  |  0) - 121 (COBUN In@1176.0/Out@1191.0) - 305 (PABLB In@1640.0/Out@1652.0) - 0 (DUMMY_END Ziel-Service 177)
###  |- Vessel  7 has the path [285, 182, 264, 302, 0]
###  |  285 (NLRTM Out@428.0) - 182 (FRLEH In@447.0/Out@463.0) - 264 (MAPTM In@543.0/Out@564.0) - 302 (PABLB In@1304.0/Out@13
###  |  16.0) - 0 (DUMMY_END Ziel-Service 177)
###  |   |- and carried Demand  32,    6.0 containers from 285 to 182
###  |- Vessel  8 has the path [287, 183, 265, 303, 0]
###  |  287 (NLRTM Out@596.0) - 183 (FRLEH In@615.0/Out@631.0) - 265 (MAPTM In@711.0/Out@732.0) - 303 (PABLB In@1472.0/Out@14
###  |  84.0) - 0 (DUMMY_END Ziel-Service 177)
###  |
### Vessels not used in the solution: [3, 4, 6, 10, 11, 12, 14, 15, 16, 17, 18, 19, 20, 21, 22, 23]
###  |-----------------------------------------------------------------------------------------------------------------------
###
#############################################################################################################################

### Detialed variable overview

### All variables with value greater zero:
rho[24,18] = 1
rho[177,19] = 1
rho[121,30] = 1
eta[24,18,1] = 1
eta[24,18,2] = 1
eta[24,18,3] = 1
eta[177,19,1] = 1
eta[177,19,2] = 1
eta[177,19,3] = 1
eta[121,30,1] = 1
eta[121,30,2] = 1
y[1,131,386] = 1
y[1,386,-1] = 1
y[2,387,-1] = 1
y[2,132,387] = 1
y[5,409,407] = 1
y[5,282,409] = 1
y[5,270,121] = 1
y[5,305,0] = 1
y[5,121,305] = 1
y[5,407,270] = 1
y[7,302,0] = 1
y[7,285,182] = 1
y[7,264,302] = 1
y[7,182,264] = 1
y[8,287,183] = 1
y[8,183,265] = 1
y[8,303,0] = 1
y[8,265,303] = 1
y[9,260,400] = 1
y[9,9,384] = 1
y[9,148,411] = 1
y[9,385,262] = 1
y[9,261,385] = 1
y[9,384,260] = 1
y[9,411,-2] = 1
y[9,400,261] = 1
y[9,262,148] = 1
y[13,401,263] = 1
y[13,263,149] = 1
y[13,135,401] = 1
y[13,149,388] = 1
y[13,388,-1] = 1
y[24,300,412] = 1
y[24,231,106] = 1
y[24,210,107] = 1
y[24,412,-2] = 1
y[24,106,78] = 1
y[24,75,86] = 1
y[24,140,300] = 1
y[24,78,210] = 1
y[24,86,140] = 1
y[24,107,75] = 1
xD[20,262,148] = 484
xD[21,262,148] = 18
xD[32,285,182] = 6
xD[66,263,149] = 484
xD[67,263,149] = 18
xD[87,231,106] = 541
xD[87,210,107] = 541
xD[87,106,78] = 541
xD[87,75,86] = 541
xD[87,140,300] = 541
xD[87,78,210] = 541
xD[87,86,140] = 541
xD[87,107,75] = 541
xD[178,106,78] = 785
xD[178,78,210] = 785
xD[179,106,78] = 1
xD[179,78,210] = 1
xD[181,210,107] = 121
xD[181,107,75] = 121
xD[182,210,107] = 75
xD[182,75,86] = 75
xD[182,107,75] = 75
xD[183,210,107] = 1
xD[186,75,86] = 6
xD[186,140,300] = 6
xD[186,86,140] = 6
xD[186,107,75] = 6
xD[188,75,86] = 773
xD[188,140,300] = 773
xD[188,86,140] = 773
xD[189,75,86] = 1
xD[189,140,300] = 1
xD[189,86,140] = 1
xD[257,260,400] = 580
xD[257,261,385] = 580
xD[257,400,261] = 580
xD[261,262,148] = 484
xD[262,262,148] = 18
xD[271,261,385] = 580
xD[272,263,149] = 214
xD[272,149,388] = 214
xD[273,263,149] = 10
xD[273,149,388] = 10
xD[274,263,149] = 484
xD[275,263,149] = 18
xD[285,401,263] = 214
xD[285,263,149] = 214
xD[285,149,388] = 214
xD[286,401,263] = 10
xD[286,263,149] = 10
xD[286,149,388] = 10
xD[287,401,263] = 484
xD[287,263,149] = 484
xD[288,401,263] = 18
xD[288,263,149] = 18
xD[295,261,385] = 580
xD[295,400,261] = 580
xD[297,75,86] = 6
xD[297,140,300] = 6
xD[297,86,140] = 6
xD[297,107,75] = 6
xD[298,75,86] = 773
xD[298,140,300] = 773
xD[298,86,140] = 773
xD[299,75,86] = 1
xD[299,140,300] = 1
xD[299,86,140] = 1
zE[75] = 430
zE[78] = 287
zE[86] = 465
zE[106] = 238
zE[107] = 358
zE[121] = 1176
zE[140] = 911
zE[148] = 421
zE[149] = 452
zE[182] = 447
zE[183] = 615
zE[210] = 334
zE[260] = 207
zE[261] = 238
zE[262] = 375
zE[263] = 406
zE[264] = 543
zE[265] = 711
zE[270] = 873
zE[300] = 982
zE[302] = 1304
zE[303] = 1472
zE[305] = 1640
zE[384] = 160
zE[385] = 328
zE[386] = 496
zE[387] = 664
zE[388] = 832
zE[400] = 211
zE[401] = 379
zE[407] = 687
zE[409] = 662
zE[411] = 998
zE[412] = 1166
zX[9] = 66
zX[75] = 439
zX[78] = 297
zX[86] = 483
zX[106] = 260
zX[107] = 376
zX[121] = 1191
zX[131] = 288
zX[132] = 456
zX[135] = 220
zX[140] = 923
zX[148] = 433
zX[149] = 464
zX[182] = 463
zX[183] = 631
zX[210] = 350
zX[231] = 171
zX[260] = 228
zX[261] = 259
zX[262] = 396
zX[263] = 427
zX[264] = 564
zX[265] = 732
zX[270] = 896
zX[282] = 92
zX[285] = 428
zX[287] = 596
zX[300] = 1030
zX[302] = 1316
zX[303] = 1484
zX[305] = 1652
zX[384] = 179
zX[385] = 347
zX[386] = 515
zX[387] = 683
zX[388] = 851
zX[400] = 230
zX[401] = 398
zX[407] = 701
zX[409] = 675
zX[411] = 1011
zX[412] = 1179
phi[1] = 227
phi[2] = 227
phi[5] = 1560
phi[7] = 888
phi[8] = 888
phi[9] = 945
phi[13] = 631
phi[24] = 1008

### All variables with value smaller zero:

### End

real	1446m44.509s
user	5036m11.623s
sys	483m47.002s
	Freetype 2.4.12 environment removed
	Python 3.6.0 environment removed
	Gurobi 8.1.0 environment removed
