	Freetype 2.4.12 environment established
		library to render fonts
	Python 3.6.0 environment established
	Gurobi 8.1.0 environment established
Instance LSFRP: LSFDRP_3_2_1_0_fr.p
Instance LSFDP: LSFDRP_3_2_1_0_fd_13.p

*****************************************************************************************************************************
*** Solve LSFDRP_3_2_1_0_fd_13 with Gurobi
***
*** Graph info
*** |S|: 24
*** |S^E|: 0
*** |S^C|: 6
*** |V|: 431
*** |A|: 14925
*** |A^i|: 14778
*** |A^f|: 147
*** |M|: 348
*** |E|: 28

Changed value of parameter TimeLimit to 86400.0
   Prev: 1e+100  Min: 0.0  Max: 1e+100  Default: 1e+100
Changed value of parameter Threads to 4
   Prev: 0  Min: 0  Max: 1024  Default: 0
Optimize a model with 203293 rows, 5586376 columns and 20275474 nonzeros
Variable types: 5228140 continuous, 358236 integer (358236 binary)
Coefficient statistics:
  Matrix range     [1e+00, 5e+03]
  Objective range  [2e+00, 1e+07]
  Bounds range     [1e+00, 1e+00]
  RHS range        [1e+00, 5e+03]
Presolve removed 31003 rows and 1191981 columns (presolve time = 5s) ...
Presolve removed 83178 rows and 3393705 columns (presolve time = 10s) ...
Presolve removed 90596 rows and 3609084 columns (presolve time = 15s) ...
Presolve removed 96238 rows and 3642624 columns (presolve time = 21s) ...
Presolve removed 98593 rows and 3668174 columns (presolve time = 25s) ...
Presolve removed 100417 rows and 3719123 columns (presolve time = 30s) ...
Presolve removed 101377 rows and 3720254 columns (presolve time = 35s) ...
Presolve removed 101383 rows and 3720941 columns (presolve time = 40s) ...
Warning: Failed to open log file 'gurobi.log'
Presolve removed 101410 rows and 3720941 columns (presolve time = 50s) ...
Presolve removed 101410 rows and 3926308 columns (presolve time = 652s) ...
Presolve removed 153667 rows and 5124246 columns (presolve time = 656s) ...
Presolve removed 154027 rows and 5125061 columns (presolve time = 660s) ...
Presolve removed 154166 rows and 5129637 columns (presolve time = 665s) ...
Presolve removed 155244 rows and 5139166 columns (presolve time = 671s) ...
Presolve removed 155246 rows and 5140096 columns (presolve time = 736s) ...
Presolve removed 155219 rows and 5140069 columns
Presolve time: 736.15s
Presolved: 48074 rows, 446307 columns, 2147356 nonzeros
Variable types: 287213 continuous, 159094 integer (158571 binary)

Deterministic concurrent LP optimizer: primal simplex, dual simplex, and barrier
Showing barrier log only...

Presolve removed 369 rows and 3716 columns
Presolved: 47705 rows, 442591 columns, 2142469 nonzeros

Root barrier log...

Ordering time: 0.00s

Barrier statistics:
 Dense cols : 22
 AA' NZ     : 2.575e+06
 Factor NZ  : 5.042e+07 (roughly 600 MBytes of memory)
 Factor Ops : 1.877e+11 (roughly 11 seconds per iteration)
 Threads    : 1

                  Objective                Residual
Iter       Primal          Dual         Primal    Dual     Compl     Time
   0  -2.54486519e+15  8.95189860e+14  1.82e+08 2.66e+06  5.58e+11   766s
   1  -1.53125203e+15  8.89914034e+14  1.09e+08 3.25e+06  3.38e+11   779s
   2  -1.05620194e+15  8.80678585e+14  7.54e+07 1.98e+06  2.34e+11   793s
   3  -6.14650964e+14  8.70656014e+14  4.39e+07 1.27e+06  1.37e+11   806s
   4  -2.28899771e+14  8.44936411e+14  1.63e+07 6.10e+05  5.39e+10   821s
   5  -8.47216613e+13  7.82221877e+14  6.04e+06 2.54e+05  2.04e+10   834s
   6  -2.03131687e+13  6.51822948e+14  1.45e+06 7.08e+04  5.39e+09   848s
   7  -5.96697920e+12  3.91836043e+14  4.23e+05 1.45e+04  1.73e+09   861s
   8  -1.35759858e+12  1.32370269e+14  9.61e+04 2.79e+02  4.09e+08   875s
   9  -3.15591276e+11  3.11691102e+13  2.22e+04 1.44e-06  8.93e+07   888s
  10  -7.78408451e+10  1.28326246e+13  5.35e+03 4.22e-06  2.70e+07   902s
  11  -4.35732642e+10  4.83057610e+12  2.99e+03 1.75e-06  1.26e+07   915s
  12  -1.79438852e+10  3.29956977e+12  1.23e+03 1.72e-06  6.64e+06   928s
  13  -1.22727393e+10  2.74148850e+12  8.42e+02 1.26e-06  5.07e+06   940s
  14  -7.27666206e+09  2.01168253e+12  4.97e+02 9.78e-07  3.43e+06   953s
  15  -3.09019778e+09  1.00599140e+12  2.08e+02 4.92e-07  1.61e+06   967s
  16  -1.21144349e+09  6.21754330e+11  7.87e+01 3.35e-07  8.78e+05   980s
  17  -5.01119702e+08  2.54229262e+11  3.02e+01 4.44e-07  3.53e+05   994s
  18  -2.97426438e+08  1.13590694e+11  1.65e+01 1.19e-07  1.64e+05  1007s
  19  -1.65038868e+08  8.38990942e+10  8.29e+00 7.51e-08  1.12e+05  1020s
  20  -1.12162177e+08  6.67556700e+10  5.12e+00 1.10e-07  8.58e+04  1034s
  21  -9.07364356e+07  5.18775798e+10  3.90e+00 9.55e-08  6.65e+04  1047s
  22  -6.59371881e+07  3.81712535e+10  2.53e+00 9.22e-08  4.83e+04  1061s
  23  -4.06034634e+07  2.77057505e+10  1.26e+00 8.03e-08  3.38e+04  1074s
  24  -3.14487069e+07  2.01745383e+10  8.29e-01 9.58e-08  2.44e+04  1087s
  25  -2.22847717e+07  1.14247843e+10  4.37e-01 1.32e-07  1.37e+04  1100s
  26  -1.87732604e+07  6.57054940e+09  2.99e-01 1.36e-07  7.92e+03  1113s
  27  -1.63993270e+07  4.11952737e+09  2.19e-01 1.42e-07  5.01e+03  1128s
  28  -1.31831813e+07  2.27509607e+09  1.24e-01 1.13e-07  2.77e+03  1142s
  29  -1.00502413e+07  1.27721730e+09  5.90e-02 9.72e-08  1.54e+03  1156s
  30  -6.25758109e+06  7.76228097e+08  3.06e-02 9.74e-08  9.27e+02  1169s
  31  -3.16046277e+06  4.56111087e+08  1.94e-02 9.83e-08  5.46e+02  1183s
  32  -1.52565714e+06  2.93659598e+08  1.53e-02 9.83e-08  3.56e+02  1196s
  33  -9.43152039e+04  2.15231326e+08  1.14e-02 1.04e-07  2.61e+02  1210s
  34   1.99318612e+06  1.24036079e+08  6.95e-03 9.84e-08  1.49e+02  1224s
  35   3.09056132e+06  1.20655267e+08  5.50e-03 1.33e-07  1.41e+02  1236s
  36   3.62566164e+06  1.04154073e+08  4.99e-03 9.00e-08  1.21e+02  1249s
  37   4.45563144e+06  8.39135498e+07  4.19e-03 1.20e-07  9.63e+01  1262s
  38   5.51908537e+06  6.51501752e+07  3.05e-03 1.21e-07  7.21e+01  1274s
  39   5.95626881e+06  6.35255789e+07  2.66e-03 1.75e-07  6.91e+01  1289s
  40   6.29181336e+06  5.53651298e+07  2.32e-03 1.51e-07  5.90e+01  1302s
  41   6.98131841e+06  4.18647649e+07  1.74e-03 1.05e-07  4.22e+01  1315s
  42   7.30917939e+06  3.60270413e+07  1.53e-03 1.02e-07  3.49e+01  1329s
  43   8.03008506e+06  2.98574407e+07  1.13e-03 1.08e-07  2.65e+01  1343s
  44   8.25914294e+06  2.86583840e+07  1.06e-03 1.20e-07  2.48e+01  1355s
  45   8.57047690e+06  2.63915492e+07  9.21e-04 1.39e-07  2.16e+01  1369s
  46   8.82075648e+06  2.48848039e+07  8.22e-04 1.63e-07  1.95e+01  1381s
  47   9.23215984e+06  2.26614860e+07  6.36e-04 1.21e-07  1.62e+01  1395s
  48   9.60036508e+06  2.10162849e+07  5.31e-04 1.24e-07  1.38e+01  1409s
  49   9.86200512e+06  1.97336289e+07  4.73e-04 1.58e-07  1.19e+01  1422s
  50   1.02639564e+07  1.80099969e+07  3.68e-04 1.13e-07  9.35e+00  1436s
  51   1.05534486e+07  1.71221004e+07  2.89e-04 1.27e-07  7.89e+00  1450s
  52   1.08135388e+07  1.64478518e+07  2.46e-04 1.33e-07  6.76e+00  1463s
  53   1.11186744e+07  1.56813888e+07  1.95e-04 1.20e-07  5.47e+00  1476s
  54   1.15169836e+07  1.45956492e+07  1.31e-04 1.21e-07  3.69e+00  1489s
  55   1.17736737e+07  1.38041317e+07  9.07e-05 1.02e-07  2.45e+00  1502s
  56   1.18768795e+07  1.34570440e+07  7.46e-05 1.36e-07  1.91e+00  1516s
  57   1.19753769e+07  1.33429233e+07  5.82e-05 1.63e-07  1.64e+00  1529s
  58   1.20504434e+07  1.31896191e+07  4.67e-05 1.63e-07  1.37e+00  1542s
  59   1.21337651e+07  1.29392639e+07  3.39e-05 1.31e-07  9.67e-01  1555s
  60   1.22511761e+07  1.27487297e+07  1.68e-05 1.04e-07  5.90e-01  1569s
  61   1.23253295e+07  1.26149355e+07  6.56e-06 1.19e-07  3.37e-01  1583s
  62   1.23437054e+07  1.24744027e+07  3.97e-06 1.48e-07  1.55e-01  1596s
  63   1.23666823e+07  1.23953537e+07  1.14e-06 2.45e-07  3.48e-02  1609s
  64   1.23730294e+07  1.23837497e+07  4.71e-07 2.59e-07  1.32e-02  1623s
  65   1.23767464e+07  1.23790556e+07  5.74e-07 2.73e-07  2.85e-03  1636s
  66   1.23778221e+07  1.23780426e+07  5.91e-08 3.05e-07  2.60e-04  1649s
  67   1.23778735e+07  1.23778924e+07  3.08e-08 2.60e-07  2.42e-05  1662s
  68   1.23778816e+07  1.23778887e+07  3.82e-08 3.97e-07  9.38e-06  1676s
  69   1.23778817e+07  1.23778887e+07  1.20e-07 4.95e-07  9.27e-06  1689s
  70   1.23778818e+07  1.23778887e+07  1.10e-06 6.14e-07  9.15e-06  1702s
  71   1.23778842e+07  1.23778884e+07  6.79e-07 4.40e-07  5.55e-06  1715s
  72   1.23778857e+07  1.23778883e+07  4.26e-07 4.81e-07  3.48e-06  1728s
  73   1.23778863e+07  1.23778882e+07  3.26e-07 2.87e-07  2.62e-06  1741s
  74   1.23778869e+07  1.23778881e+07  3.50e-06 2.87e-07  1.67e-06  1755s
  75   1.23778870e+07  1.23778881e+07  8.19e-06 2.87e-07  1.67e-06  1767s
  76   1.23778870e+07  1.23778881e+07  8.24e-06 3.48e-07  1.67e-06  1780s
  77   1.23778870e+07  1.23778882e+07  8.83e-06 2.76e-07  1.57e-06  1793s
  78   1.23778871e+07  1.23778881e+07  8.41e-06 9.58e-07  1.47e-06  1806s
  79   1.23778879e+07  1.23778881e+07  5.93e-06 2.99e-07  3.10e-07  1819s
  80   1.23778878e+07  1.23778881e+07  7.32e-06 3.92e-07  3.08e-07  1832s
  81   1.23778869e+07  1.23778881e+07  4.32e-05 3.37e-07  1.98e-07  1845s
  82   1.23778869e+07  1.23778881e+07  4.53e-05 2.68e-07  1.99e-07  1858s
  83   1.23778869e+07  1.23778881e+07  4.39e-05 2.75e-07  2.00e-07  1871s
  84   1.23778888e+07  1.23778881e+07  7.15e-06 3.34e-07  3.30e-08  1884s
  85   1.23778887e+07  1.23778881e+07  1.72e-05 3.21e-07  3.12e-08  1897s

Barrier solved model in 85 iterations and 1897.03 seconds
Optimal objective 1.23778887e+07


Root crossover log...

   44553 DPushes remaining with DInf 0.0000000e+00              1897s
       0 DPushes remaining with DInf 0.0000000e+00              1900s

     130 PPushes remaining with PInf 0.0000000e+00              1900s
       0 PPushes remaining with PInf 0.0000000e+00              1900s

  Push phase complete: Pinf 0.0000000e+00, Dinf 8.2782025e-08   1900s


Root simplex log...

Iteration    Objective       Primal Inf.    Dual Inf.      Time
   39061    1.2377888e+07   0.000000e+00   0.000000e+00   1900s
   40475    1.2377910e+07   0.000000e+00   3.098021e+08   1905s
   42013    1.2377949e+07   0.000000e+00   4.453816e+08   1910s
   43485    1.2378053e+07   0.000000e+00   1.902238e+10   1915s
   44768    1.2378268e+07   0.000000e+00   1.142764e+10   1921s
   46049    1.2378475e+07   0.000000e+00   9.792206e+09   1925s
   47333    1.2378644e+07   0.000000e+00   2.581508e+09   1930s
   48742    1.2378795e+07   0.000000e+00   4.110768e+09   1935s
   50151    1.2378922e+07   0.000000e+00   7.689550e+08   1940s
   51436    1.2379041e+07   0.000000e+00   1.298070e+10   1945s
   52721    1.2379133e+07   0.000000e+00   1.269006e+09   1950s
   54129    1.2379226e+07   0.000000e+00   2.745765e+09   1955s
   55410    1.2379334e+07   0.000000e+00   3.644248e+09   1960s
   56690    1.2379420e+07   0.000000e+00   1.482789e+10   1965s
   58103    1.2379520e+07   0.000000e+00   9.167699e+08   1970s
   59384    1.2379586e+07   0.000000e+00   2.567133e+10   1975s
   60671    1.2379663e+07   0.000000e+00   7.879294e+08   1980s
   61953    1.2379729e+07   0.000000e+00   7.875608e+08   1985s
   63362    1.2379810e+07   0.000000e+00   9.104142e+08   1990s
   64647    1.2379874e+07   0.000000e+00   4.225433e+09   1995s
   66057    1.2379961e+07   0.000000e+00   8.038885e+09   2000s
   67341    1.2380058e+07   0.000000e+00   6.754000e+09   2005s
   68749    1.2380133e+07   0.000000e+00   5.400597e+09   2010s
   70157    1.2380240e+07   0.000000e+00   1.963108e+09   2015s
   71442    1.2380322e+07   0.000000e+00   7.073518e+08   2020s
   72851    1.2380419e+07   0.000000e+00   3.534140e+09   2025s
   74265    1.2380475e+07   0.000000e+00   6.375658e+08   2030s
   75676    1.2380591e+07   0.000000e+00   1.905278e+09   2036s
   76961    1.2380671e+07   0.000000e+00   3.717118e+09   2040s
   78507    1.2380790e+07   0.000000e+00   4.564108e+08   2045s
   79787    1.2380883e+07   0.000000e+00   3.815514e+08   2050s
   81328    1.2380951e+07   0.000000e+00   2.301383e+09   2055s
   82739    1.2381035e+07   0.000000e+00   4.146871e+08   2060s
   84148    1.2381153e+07   0.000000e+00   2.348088e+09   2065s
   85429    1.2381239e+07   0.000000e+00   5.111204e+09   2070s
   86841    1.2381359e+07   0.000000e+00   1.486171e+09   2075s
   88249    1.2381423e+07   0.000000e+00   5.659554e+09   2080s
   89791    1.2381492e+07   0.000000e+00   8.156938e+08   2085s
   91206    1.2381579e+07   0.000000e+00   5.422728e+08   2090s
   92620    1.2381651e+07   0.000000e+00   3.420103e+09   2095s
   94035    1.2381722e+07   0.000000e+00   1.013714e+10   2100s
   95576    1.2381796e+07   0.000000e+00   4.932986e+09   2105s
   96989    1.2381852e+07   0.000000e+00   6.516898e+08   2110s
   98528    1.2381929e+07   0.000000e+00   1.292815e+09   2115s
  100070    1.2381968e+07   0.000000e+00   4.391749e+09   2120s
  101614    1.2382022e+07   0.000000e+00   8.419706e+08   2125s
  103034    1.2382082e+07   0.000000e+00   9.209554e+08   2130s
  104478    1.2382125e+07   0.000000e+00   2.347127e+08   2135s
  105761    1.2382179e+07   0.000000e+00   6.435730e+09   2140s
  107177    1.2382238e+07   0.000000e+00   9.006218e+08   2145s
  107307    1.2382241e+07   0.000000e+00   1.913138e+09   2152s
  108340    1.2382271e+07   0.000000e+00   1.463923e+09   2155s
  109888    1.2382302e+07   0.000000e+00   2.518236e+08   2160s
  111299    1.2382367e+07   0.000000e+00   1.741644e+08   2165s
  112849    1.2382395e+07   0.000000e+00   1.928499e+08   2170s
  114141    1.2382445e+07   0.000000e+00   8.000874e+08   2175s
  115829    1.2382478e+07   0.000000e+00   5.495656e+08   2180s
  117128    1.2382554e+07   0.000000e+00   1.611716e+10   2185s
  118416    1.2382617e+07   0.000000e+00   1.327088e+09   2190s
  119833    1.2382670e+07   0.000000e+00   5.776436e+10   2195s
  121246    1.2382752e+07   0.000000e+00   7.595478e+09   2200s
  122538    1.2382800e+07   0.000000e+00   2.202063e+09   2205s
  124080    1.2382916e+07   0.000000e+00   3.703001e+09   2210s
  125494    1.2382965e+07   0.000000e+00   1.278683e+08   2215s
  127043    1.2383014e+07   0.000000e+00   7.633937e+08   2220s
  128465    1.2383052e+07   0.000000e+00   8.260548e+07   2225s
  129882    1.2383086e+07   0.000000e+00   1.323643e+09   2230s
  131553    1.2383119e+07   0.000000e+00   9.120235e+08   2235s
  132968    1.2383153e+07   0.000000e+00   3.929427e+08   2240s
  134650    1.2383191e+07   0.000000e+00   1.814558e+08   2245s
  136063    1.2383224e+07   0.000000e+00   8.095641e+07   2250s
  137480    1.2383266e+07   0.000000e+00   8.591238e+07   2255s
  138925    1.2383319e+07   0.000000e+00   1.029498e+08   2260s
  140467    1.2383350e+07   0.000000e+00   4.208271e+09   2265s
  141878    1.2383420e+07   0.000000e+00   6.908523e+08   2270s
  143293    1.2383453e+07   0.000000e+00   8.196103e+08   2275s
  144709    1.2383502e+07   0.000000e+00   1.433908e+07   2280s
  146260    1.2383530e+07   0.000000e+00   3.844036e+08   2285s
  147686    1.2383567e+07   0.000000e+00   2.409430e+09   2290s
  149115    1.2383596e+07   0.000000e+00   4.499126e+07   2295s
  150551    1.2383618e+07   0.000000e+00   2.837836e+08   2300s
  151847    1.2383688e+07   0.000000e+00   1.979225e+09   2305s
  153531    1.2383709e+07   0.000000e+00   5.299896e+07   2310s
  154954    1.2383730e+07   0.000000e+00   4.967444e+09   2315s
  156517    1.2383748e+07   0.000000e+00   1.787983e+08   2320s
  158065    1.2383770e+07   0.000000e+00   9.655998e+07   2325s
  159675    1.2383788e+07   0.000000e+00   2.691311e+07   2330s
  161229    1.2383803e+07   0.000000e+00   1.245066e+08   2335s
  162790    1.2383825e+07   0.000000e+00   1.032449e+07   2340s
  164330    1.2383842e+07   0.000000e+00   2.112021e+08   2345s
  165891    1.2383861e+07   0.000000e+00   1.422062e+07   2350s
  167314    1.2383885e+07   0.000000e+00   1.351264e+07   2355s
  168867    1.2383893e+07   0.000000e+00   1.141607e+07   2360s
  170409    1.2383906e+07   0.000000e+00   7.035212e+06   2365s
  171994    1.2383921e+07   0.000000e+00   5.089694e+06   2370s
  173410    1.2383928e+07   0.000000e+00   1.733382e+07   2375s
  174951    1.2383952e+07   0.000000e+00   2.066654e+07   2380s
  176495    1.2383959e+07   0.000000e+00   7.843720e+06   2385s
  178037    1.2383970e+07   0.000000e+00   1.285869e+09   2390s
  179586    1.2383974e+07   0.000000e+00   1.090150e+08   2395s
  181011    1.2383977e+07   0.000000e+00   4.063251e+06   2400s
  182558    1.2383980e+07   0.000000e+00   8.081456e+06   2405s
  184102    1.2383983e+07   0.000000e+00   5.922458e+07   2410s
  185524    1.2383987e+07   0.000000e+00   2.530584e+07   2415s
  187079    1.2383990e+07   0.000000e+00   7.164372e+05   2420s
  188498    1.2383992e+07   0.000000e+00   6.303097e+06   2425s
  190054    1.2383995e+07   0.000000e+00   3.469040e+05   2430s
  191477    1.2383996e+07   0.000000e+00   2.226933e+05   2435s
  192910    1.2383997e+07   0.000000e+00   2.058451e+05   2440s
  194078    1.2383997e+07   0.000000e+00   2.457033e+02   2445s
  194442    1.2377890e+07   3.130920e-01   0.000000e+00   2450s
  194792    1.2377890e+07   3.958385e+00   0.000000e+00   2456s
  195122    1.2377890e+07   1.203551e+00   0.000000e+00   2461s
  195462    1.2377890e+07   1.933235e+00   0.000000e+00   2467s
  195692    1.2377890e+07   1.704577e+00   0.000000e+00   2470s
  196022    1.2377890e+07   1.508657e+00   0.000000e+00   2475s
  196327    1.2377888e+07   0.000000e+00   0.000000e+00   2480s
Extra 157266 simplex iterations after uncrush
Concurrent spin time: 43.68s

Solved with barrier

Root relaxation: objective 1.237789e+07, 196327 iterations, 1784.03 seconds

    Nodes    |    Current Node    |     Objective Bounds      |     Work
 Expl Unexpl |  Obj  Depth IntInf | Incumbent    BestBd   Gap | It/Node Time

     0     0 1.2229e+07    0  391          - 1.2229e+07      -     - 2863s
     0     0 1.1485e+07    0  449          - 1.1485e+07      -     - 3831s
H    0     0                    -5547834.474 1.1485e+07   307%     - 3832s
H    0     0                    -4020006.471 1.1485e+07   386%     - 3863s
     0     0 1.1382e+07    0  453 -4020006.5 1.1382e+07   383%     - 4504s
     0     0 1.1382e+07    0  448 -4020006.5 1.1382e+07   383%     - 4566s
     0     0 1.1335e+07    0  421 -4020006.5 1.1335e+07   382%     - 5349s
     0     0 1.1335e+07    0  430 -4020006.5 1.1335e+07   382%     - 5404s
     0     0 1.1335e+07    0  431 -4020006.5 1.1335e+07   382%     - 5417s
     0     0 1.1183e+07    0  437 -4020006.5 1.1183e+07   378%     - 6376s
     0     0 1.1182e+07    0  437 -4020006.5 1.1182e+07   378%     - 6422s
     0     0 1.1182e+07    0  445 -4020006.5 1.1182e+07   378%     - 6588s
     0     0 1.1182e+07    0  438 -4020006.5 1.1182e+07   378%     - 6608s
     0     0 1.1182e+07    0  438 -4020006.5 1.1182e+07   378%     - 6623s
     0     0 1.1169e+07    0  427 -4020006.5 1.1169e+07   378%     - 17169s
     0     0 1.1168e+07    0  424 -4020006.5 1.1168e+07   378%     - 27179s
     0     0 1.1168e+07    0  424 -4020006.5 1.1168e+07   378%     - 27186s
     0     0 1.1163e+07    0  435 -4020006.5 1.1163e+07   378%     - 28419s
H    0     0                    -1018977.561 1.1163e+07  1196%     - 28676s
     0     0 1.1161e+07    0  447 -1018977.6 1.1161e+07  1195%     - 58755s
     0     0 1.1161e+07    0  450 -1018977.6 1.1161e+07  1195%     - 58952s
     0     0 1.1161e+07    0  453 -1018977.6 1.1161e+07  1195%     - 58969s
     0     0 1.1156e+07    0  474 -1018977.6 1.1156e+07  1195%     - 59818s
H    0     0                    -1016817.561 1.1156e+07  1197%     - 59819s
     0     0 1.1155e+07    0  497 -1016817.6 1.1155e+07  1197%     - 60144s
     0     0 1.1155e+07    0  497 -1016817.6 1.1155e+07  1197%     - 60145s
     0     0 1.1152e+07    0  498 -1016817.6 1.1152e+07  1197%     - 60833s
     0     0 1.1152e+07    0  481 -1016817.6 1.1152e+07  1197%     - 61015s
     0     0 1.1151e+07    0  478 -1016817.6 1.1151e+07  1197%     - 61297s
     0     0 1.1151e+07    0  479 -1016817.6 1.1151e+07  1197%     - 61384s
     0     0 1.1150e+07    0  464 -1016817.6 1.1150e+07  1197%     - 61894s
     0     0 1.1150e+07    0  468 -1016817.6 1.1150e+07  1197%     - 62149s
     0     0 1.1148e+07    0  465 -1016817.6 1.1148e+07  1196%     - 62313s
     0     0 1.1148e+07    0  466 -1016817.6 1.1148e+07  1196%     - 62328s
     0     0 1.1142e+07    0  472 -1016817.6 1.1142e+07  1196%     - 62978s
     0     0 1.1141e+07    0  499 -1016817.6 1.1141e+07  1196%     - 63436s
     0     0 1.1141e+07    0  502 -1016817.6 1.1141e+07  1196%     - 63446s
     0     0 1.1140e+07    0  482 -1016817.6 1.1140e+07  1196%     - 63890s
     0     0 1.1138e+07    0  502 -1016817.6 1.1138e+07  1195%     - 64446s
     0     0 1.1138e+07    0  494 -1016817.6 1.1138e+07  1195%     - 64485s
     0     0 1.1136e+07    0  528 -1016817.6 1.1136e+07  1195%     - 64835s
     0     0 1.1135e+07    0  518 -1016817.6 1.1135e+07  1195%     - 65104s
     0     0 1.1135e+07    0  480 -1016817.6 1.1135e+07  1195%     - 65296s
     0     0 1.1135e+07    0  545 -1016817.6 1.1135e+07  1195%     - 65488s
     0     0 1.1135e+07    0  483 -1016817.6 1.1135e+07  1195%     - 65535s
     0     0 1.1122e+07    0  501 -1016817.6 1.1122e+07  1194%     - 66623s
H    0     0                    -1014601.193 1.1122e+07  1196%     - 66624s
H    0     0                    -525309.1884 1.1122e+07  2217%     - 66666s
     0     0 1.1121e+07    0  507 -525309.19 1.1121e+07  2217%     - 66917s
     0     0 1.1121e+07    0  525 -525309.19 1.1121e+07  2217%     - 67001s
     0     0 1.1121e+07    0  509 -525309.19 1.1121e+07  2217%     - 67194s
     0     0 1.1121e+07    0  546 -525309.19 1.1121e+07  2217%     - 67320s
     0     0 1.1121e+07    0  509 -525309.19 1.1121e+07  2217%     - 67436s
     0     0 1.1121e+07    0  504 -525309.19 1.1121e+07  2217%     - 67442s
     0     0 1.1121e+07    0  504 -525309.19 1.1121e+07  2217%     - 67468s
     0     0 1.1121e+07    0  500 -525309.19 1.1121e+07  2217%     - 67886s
H    0     0                    -525309.1837 1.1121e+07  2217%     - 68840s
     0     2 1.1121e+07    0  498 -525309.18 1.1121e+07  2217%     - 75066s
     1     4 1.1112e+07    1  523 -525309.18 1.1121e+07  2217% 40440 80089s
     3     7 1.0779e+07    2  435 -525309.18 1.1112e+07  2215% 171219 86400s

Cutting planes:
  Gomory: 2
  Implied bound: 34
  Clique: 9
  MIR: 55
  Flow cover: 105
  Zero half: 5

Explored 6 nodes (5516516 simplex iterations) in 86400.40 seconds
Thread count was 4 (of 16 available processors)

Solution count 7: -525309 -525309 -1.0146e+06 ... -5.54783e+06

Time limit reached
Warning: max bound violation (1.2563e-06) exceeds tolerance
Best objective -5.253091831203e+05, best bound 1.109057358149e+07, gap 2211.2469%

***
***  |- Calculation finished, timelimit reached 86,400.48 (86400.48) sec.))
***  |-----------------------------------------------------------------------------------------------------------------------
***
*****************************************************************************************************************************
#############################################################################################################################
###
### Results
###
### The objective of the solution is -525,309.1831 (-525309.1831) and is feasible with a Gap of 22.1125
###
### Service 24 (WAF7) is operated by 3 vessels from type 18 (PMax25)
###  |- Vessel  1 has the path [131, 386, -1]
###  |  131 (DEHAM Out@288.0) - 386 (ESALG In@496.0/Out@515.0) - -1 (DUMMY_END Ziel-Service 24)
###  |- Vessel  2 has the path [132, 387, -1]
###  |  132 (DEHAM Out@456.0) - 387 (ESALG In@664.0/Out@683.0) - -1 (DUMMY_END Ziel-Service 24)
###  |- Vessel 13 has the path [135, 401, 151, 388, -1]
###  |  135 (DKAAR Out@220.0) - 401 (MAPTM In@379.0/Out@398.0) - 151 (ESALG In@625.0/Out@670.0) - 388 (ESALG In@832.0/Out@851
###  |  .0) - -1 (DUMMY_END Ziel-Service 24)
###  |   |- and carried Demand 285,  214.0 containers from 401 to 388
###  |   |- and carried Demand 286,   10.0 containers from 401 to 388
###  |
### Service 121 (SAE) is operated by 2 vessels from type 30 (PMax35)
###  |- Vessel  9 has the path [9, 400, 261, 385, 263, 149, 411, -2]
###  |  9 (BEANR Out@66.0) - 400 (MAPTM In@211.0/Out@230.0) - 261 (MAPTM In@238.0/Out@259.0) - 385 (ESALG In@328.0/Out@347.0)
###  |   - 263 (MAPTM In@406.0/Out@427.0) - 149 (ESALG In@452.0/Out@464.0) - 411 (HNPCR In@998.0/Out@1011.0) - -2 (DUMMY_END 
###  |  Ziel-Service 121)
###  |   |- and carried Demand  66,  484.0 containers from 263 to 149
###  |   |- and carried Demand  67,   18.0 containers from 263 to 149
###  |   |- and carried Demand 271,  580.0 containers from 261 to 385
###  |   |- and carried Demand 274,  484.0 containers from 263 to 149
###  |   |- and carried Demand 275,   18.0 containers from 263 to 149
###  |   |- and carried Demand 295,  580.0 containers from 400 to 385
###  |- Vessel 24 has the path [231, 106, 78, 210, 107, 75, 86, 140, 300, 412, -2]
###  |  231 (JPYOK Out@171.0) - 106 (CNXMN In@238.0/Out@260.0) - 78 (CNNSA In@287.0/Out@297.0) - 210 (HKHKG In@334.0/Out@350.
###  |  0) - 107 (CNYTN In@358.0/Out@376.0) - 75 (CNNGB In@430.0/Out@439.0) - 86 (CNSHA In@465.0/Out@483.0) - 140 (ECGYE In@9
###  |  11.0/Out@923.0) - 300 (PABLB In@982.0/Out@1030.0) - 412 (HNPCR In@1166.0/Out@1179.0) - -2 (DUMMY_END Ziel-Service 121
###  |  )
###  |   |- and carried Demand  87,  541.0 containers from 231 to 300
###  |   |- and carried Demand 178,  785.0 containers from 106 to 210
###  |   |- and carried Demand 179,    1.0 containers from 106 to 210
###  |   |- and carried Demand 181,  121.0 containers from 210 to  75
###  |   |- and carried Demand 182,   75.0 containers from 210 to  86
###  |   |- and carried Demand 183,    1.0 containers from 210 to 107
###  |   |- and carried Demand 186,    6.0 containers from 107 to 300
###  |   |- and carried Demand 188,  773.0 containers from  75 to 300
###  |   |- and carried Demand 189,    1.0 containers from  75 to 300
###  |   |- and carried Demand 297,    6.0 containers from 107 to 300
###  |   |- and carried Demand 298,  773.0 containers from  75 to 300
###  |   |- and carried Demand 299,    1.0 containers from  75 to 300
###  |
### Service 177 (WCSA) is operated by 3 vessels from type 19 (PMax28)
###  |- Vessel  5 has the path [282, 178, 260, 146, 407, 270, 301, 305, 0]
###  |  282 (NLRTM Out@92.0) - 178 (FRLEH In@111.0/Out@127.0) - 260 (MAPTM In@207.0/Out@228.0) - 146 (ESALG In@253.0/Out@265.
###  |  0) - 407 (GTSTC In@687.0/Out@701.0) - 270 (MXLZC In@873.0/Out@896.0) - 301 (PABLB In@1136.0/Out@1148.0) - 305 (PABLB 
###  |  In@1640.0/Out@1652.0) - 0 (DUMMY_END Ziel-Service 177)
###  |   |- and carried Demand   8,   42.0 containers from 282 to 146
###  |   |- and carried Demand   9,   17.0 containers from 282 to 178
###  |   |- and carried Demand  11,  580.0 containers from 260 to 146
###  |   |- and carried Demand 256,   42.0 containers from 282 to 146
###  |   |- and carried Demand 257,  580.0 containers from 260 to 146
###  |- Vessel  6 has the path [283, 180, 262, 302, 0]
###  |  283 (NLRTM Out@260.0) - 180 (FRLEH In@279.0/Out@295.0) - 262 (MAPTM In@375.0/Out@396.0) - 302 (PABLB In@1304.0/Out@13
###  |  16.0) - 0 (DUMMY_END Ziel-Service 177)
###  |   |- and carried Demand  17,    5.0 containers from 283 to 180
###  |- Vessel  7 has the path [285, 182, 264, 303, 0]
###  |  285 (NLRTM Out@428.0) - 182 (FRLEH In@447.0/Out@463.0) - 264 (MAPTM In@543.0/Out@564.0) - 303 (PABLB In@1472.0/Out@14
###  |  84.0) - 0 (DUMMY_END Ziel-Service 177)
###  |   |- and carried Demand  32,    6.0 containers from 285 to 182
###  |
### Vessels not used in the solution: [3, 4, 8, 10, 11, 12, 14, 15, 16, 17, 18, 19, 20, 21, 22, 23]
###  |-----------------------------------------------------------------------------------------------------------------------
###
#############################################################################################################################

### Detialed variable overview

### All variables with value greater zero:
rho[24,18] = 1
rho[177,19] = 1
rho[121,30] = 1
eta[24,18,1] = 1
eta[24,18,2] = 1
eta[24,18,3] = 1
eta[177,19,1] = 1
eta[177,19,2] = 1
eta[177,19,3] = 1
eta[121,30,1] = 1
eta[121,30,2] = 1
y[1,131,386] = 1
y[1,386,-1] = 1
y[2,387,-1] = 1
y[2,132,387] = 1
y[5,270,301] = 1
y[5,146,407] = 1
y[5,260,146] = 1
y[5,282,178] = 1
y[5,305,0] = 1
y[5,178,260] = 1
y[5,301,305] = 1
y[5,407,270] = 1
y[6,180,262] = 1
y[6,302,0] = 1
y[6,262,302] = 1
y[6,283,180] = 1
y[7,285,182] = 1
y[7,303,0] = 1
y[7,182,264] = 1
y[7,264,303] = 1
y[9,263,149] = 1
y[9,149,411] = 1
y[9,385,263] = 1
y[9,9,400] = 1
y[9,261,385] = 1
y[9,411,-2] = 1
y[9,400,261] = 1
y[13,401,151] = 1
y[13,135,401] = 1
y[13,388,-1] = 1
y[13,151,388] = 1
y[24,300,412] = 1
y[24,231,106] = 1
y[24,210,107] = 1
y[24,412,-2] = 1
y[24,106,78] = 1
y[24,75,86] = 1
y[24,140,300] = 1
y[24,78,210] = 1
y[24,86,140] = 1
y[24,107,75] = 1
xD[8,260,146] = 42
xD[8,282,178] = 42
xD[8,178,260] = 42
xD[9,282,178] = 17
xD[11,260,146] = 580
xD[17,283,180] = 5
xD[32,285,182] = 6
xD[66,263,149] = 484
xD[67,263,149] = 18
xD[87,231,106] = 541
xD[87,210,107] = 541
xD[87,106,78] = 541
xD[87,75,86] = 541
xD[87,140,300] = 541
xD[87,78,210] = 541
xD[87,86,140] = 541
xD[87,107,75] = 541
xD[178,106,78] = 785
xD[178,78,210] = 785
xD[179,106,78] = 1
xD[179,78,210] = 1
xD[181,210,107] = 121
xD[181,107,75] = 121
xD[182,210,107] = 75
xD[182,75,86] = 75
xD[182,107,75] = 75
xD[183,210,107] = 1
xD[186,75,86] = 6
xD[186,140,300] = 6
xD[186,86,140] = 6
xD[186,107,75] = 6
xD[188,75,86] = 773
xD[188,140,300] = 773
xD[188,86,140] = 773
xD[189,75,86] = 1
xD[189,140,300] = 1
xD[189,86,140] = 1
xD[256,260,146] = 42
xD[256,282,178] = 42
xD[256,178,260] = 42
xD[257,260,146] = 580
xD[271,261,385] = 580
xD[274,263,149] = 484
xD[275,263,149] = 18
xD[285,401,151] = 214
xD[285,151,388] = 214
xD[286,401,151] = 10
xD[286,151,388] = 10
xD[295,261,385] = 580
xD[295,400,261] = 580
xD[297,75,86] = 6
xD[297,140,300] = 6
xD[297,86,140] = 6
xD[297,107,75] = 6
xD[298,75,86] = 773
xD[298,140,300] = 773
xD[298,86,140] = 773
xD[299,75,86] = 1
xD[299,140,300] = 1
xD[299,86,140] = 1
zE[75] = 430
zE[78] = 287
zE[86] = 465
zE[106] = 238
zE[107] = 358
zE[140] = 911
zE[146] = 253
zE[149] = 452
zE[151] = 625
zE[178] = 111
zE[180] = 279
zE[182] = 447
zE[210] = 334
zE[260] = 207
zE[261] = 238
zE[262] = 375
zE[263] = 406
zE[264] = 543
zE[270] = 873
zE[300] = 982
zE[301] = 1136
zE[302] = 1304
zE[303] = 1472
zE[305] = 1640
zE[385] = 328
zE[386] = 496
zE[387] = 664
zE[388] = 832
zE[400] = 211
zE[401] = 379
zE[407] = 687
zE[411] = 998
zE[412] = 1166
zX[9] = 66
zX[75] = 439
zX[78] = 297
zX[86] = 483
zX[106] = 260
zX[107] = 376
zX[131] = 288
zX[132] = 456
zX[135] = 220
zX[140] = 923
zX[146] = 265
zX[149] = 464
zX[151] = 670
zX[178] = 127
zX[180] = 295
zX[182] = 463
zX[210] = 350
zX[231] = 171
zX[260] = 228
zX[261] = 259
zX[262] = 396
zX[263] = 427
zX[264] = 564
zX[270] = 896
zX[282] = 92
zX[283] = 260
zX[285] = 428
zX[300] = 1030
zX[301] = 1148
zX[302] = 1316
zX[303] = 1484
zX[305] = 1652
zX[385] = 347
zX[386] = 515
zX[387] = 683
zX[388] = 851
zX[400] = 230
zX[401] = 398
zX[407] = 701
zX[411] = 1011
zX[412] = 1179
phi[1] = 227
phi[2] = 227
phi[5] = 1560
phi[6] = 1056
phi[7] = 1056
phi[9] = 945
phi[13] = 631
phi[24] = 1008

### All variables with value smaller zero:

### End

real	1446m40.269s
user	4014m20.156s
sys	639m51.284s
	Freetype 2.4.12 environment removed
	Python 3.6.0 environment removed
	Gurobi 8.1.0 environment removed
