	Freetype 2.4.12 environment established
		library to render fonts
	Python 3.6.0 environment established
	Gurobi 8.1.0 environment established
Instance LSFRP: LSFDRP_3_2_1_0_fr.p
Instance LSFDP: LSFDRP_3_2_1_0_fd_46.p

*****************************************************************************************************************************
*** Solve LSFDRP_3_2_1_0_fd_46 with Gurobi
***
*** Graph info
*** |S|: 24
*** |S^E|: 0
*** |S^C|: 6
*** |V|: 431
*** |A|: 14925
*** |A^i|: 14778
*** |A^f|: 147
*** |M|: 348
*** |E|: 28

Changed value of parameter TimeLimit to 86400.0
   Prev: 1e+100  Min: 0.0  Max: 1e+100  Default: 1e+100
Changed value of parameter Threads to 4
   Prev: 0  Min: 0  Max: 1024  Default: 0
Optimize a model with 203293 rows, 5586376 columns and 20275474 nonzeros
Variable types: 5228140 continuous, 358236 integer (358236 binary)
Coefficient statistics:
  Matrix range     [1e+00, 5e+03]
  Objective range  [2e+00, 3e+07]
  Bounds range     [1e+00, 1e+00]
  RHS range        [1e+00, 5e+03]
Presolve removed 31003 rows and 1191981 columns (presolve time = 5s) ...
Presolve removed 83178 rows and 3393705 columns (presolve time = 10s) ...
Presolve removed 90596 rows and 3609084 columns (presolve time = 15s) ...
Presolve removed 96238 rows and 3642624 columns (presolve time = 21s) ...
Presolve removed 98593 rows and 3668174 columns (presolve time = 25s) ...
Presolve removed 100417 rows and 3719100 columns (presolve time = 30s) ...
Presolve removed 101377 rows and 3720254 columns (presolve time = 35s) ...
Presolve removed 101383 rows and 3720941 columns (presolve time = 40s) ...
Warning: Failed to open log file 'gurobi.log'
Presolve removed 101410 rows and 3720941 columns (presolve time = 50s) ...
Presolve removed 101410 rows and 3926308 columns (presolve time = 734s) ...
Presolve removed 143271 rows and 5113120 columns (presolve time = 736s) ...
Presolve removed 153765 rows and 5124297 columns (presolve time = 740s) ...
Presolve removed 154039 rows and 5127943 columns (presolve time = 745s) ...
Presolve removed 155240 rows and 5139190 columns (presolve time = 755s) ...
Presolve removed 155242 rows and 5140133 columns (presolve time = 830s) ...
Presolve removed 155215 rows and 5140106 columns
Presolve time: 830.39s
Presolved: 48078 rows, 446270 columns, 2147272 nonzeros
Variable types: 286994 continuous, 159276 integer (158571 binary)

Deterministic concurrent LP optimizer: primal simplex, dual simplex, and barrier
Showing barrier log only...

Presolve removed 382 rows and 3821 columns
Presolved: 47696 rows, 442449 columns, 2142123 nonzeros

Root barrier log...

Ordering time: 0.00s

Barrier statistics:
 Dense cols : 22
 AA' NZ     : 2.575e+06
 Factor NZ  : 4.628e+07 (roughly 600 MBytes of memory)
 Factor Ops : 1.468e+11 (roughly 9 seconds per iteration)
 Threads    : 1

                  Objective                Residual
Iter       Primal          Dual         Primal    Dual     Compl     Time
   0  -2.54680769e+15  3.16588785e+15  1.82e+08 3.45e+06  1.97e+12   858s
   1  -1.53367319e+15  3.14723693e+15  1.09e+08 1.15e+07  1.20e+12   869s
   2  -1.08238934e+15  3.11784960e+15  7.70e+07 7.46e+06  8.46e+11   881s
   3  -6.63532612e+14  3.07201488e+15  4.72e+07 3.88e+06  5.22e+11   892s
   4  -3.35659575e+14  3.02621514e+15  2.39e+07 2.72e+06  2.69e+11   903s
   5  -1.17515104e+14  2.86290425e+15  8.35e+06 1.24e+06  9.73e+10   915s
   6  -3.72661976e+13  2.44975814e+15  2.65e+06 3.94e+05  3.29e+10   926s
   7  -6.59347808e+12  1.67575087e+15  4.67e+05 9.04e+04  7.08e+09   937s
   8  -1.53636510e+12  5.35005375e+14  1.08e+05 5.38e-04  1.68e+09   949s
   9  -3.19585616e+11  1.28210676e+14  2.24e+04 3.81e-06  3.40e+08   961s
  10  -2.65433314e+11  7.79163945e+13  1.86e+04 4.77e-06  2.44e+08   972s
  11  -7.46759017e+10  2.38885194e+13  5.11e+03 3.20e-06  6.81e+07   983s
  12  -1.88111305e+10  8.49447669e+12  1.28e+03 2.58e-06  2.00e+07   996s
  13  -1.18200878e+10  6.87215443e+12  8.04e+02 2.23e-06  1.43e+07  1007s
  14  -6.37048748e+09  4.90547040e+12  4.30e+02 2.05e-06  8.98e+06  1018s
  15  -2.09055262e+09  1.54761133e+12  1.37e+02 3.54e-06  2.87e+06  1030s
  16  -6.41188862e+08  7.98047717e+11  3.80e+01 2.27e-06  1.21e+06  1041s
  17  -3.28077594e+08  4.23858886e+11  1.71e+01 1.18e-06  6.18e+05  1053s
  18  -1.91285374e+08  2.88414228e+11  8.63e+00 8.75e-07  3.94e+05  1064s
  19  -1.52280708e+08  2.25960924e+11  6.29e+00 6.71e-07  3.04e+05  1075s
  20  -1.13311946e+08  1.65197697e+11  4.02e+00 5.26e-07  2.18e+05  1086s
  21  -9.31658776e+07  1.26090364e+11  2.94e+00 3.90e-07  1.65e+05  1097s
  22  -6.42144739e+07  8.78721078e+10  1.53e+00 3.44e-07  1.11e+05  1110s
  23  -5.31207177e+07  6.21383652e+10  1.04e+00 2.87e-07  7.78e+04  1121s
  24  -4.25849686e+07  3.49419067e+10  5.96e-01 3.35e-07  4.34e+04  1132s
  25  -3.80749851e+07  2.68509035e+10  4.30e-01 4.48e-07  3.30e+04  1143s
  26  -3.27579328e+07  1.89909869e+10  2.39e-01 4.16e-07  2.28e+04  1154s
  27  -3.12585766e+07  1.36866034e+10  1.93e-01 3.58e-07  1.65e+04  1165s
  28  -2.82304781e+07  9.48369975e+09  1.14e-01 2.82e-07  1.13e+04  1176s
  29  -2.62949851e+07  5.66333453e+09  8.07e-02 3.31e-07  6.80e+03  1187s
  30  -2.24459061e+07  3.46108744e+09  3.31e-02 5.12e-07  4.08e+03  1198s
  31  -1.65956262e+07  2.80594742e+09  1.64e-02 3.61e-07  3.24e+03  1209s
  32  -1.34035336e+07  2.31704398e+09  1.25e-02 2.84e-07  2.67e+03  1220s
  33  -1.30744525e+07  1.22772114e+09  8.00e-03 4.28e-07  1.43e+03  1231s
  34  -8.39541870e+06  4.58325103e+08  3.06e-03 3.07e-07  5.41e+02  1243s
  35  -5.39532152e+06  2.89628771e+08  1.67e-03 3.89e-07  3.41e+02  1255s
  36  -2.11529716e+06  1.78923013e+08  8.52e-04 5.35e-07  2.09e+02  1266s
  37   6.36004265e+05  1.09980472e+08  5.37e-04 3.99e-07  1.26e+02  1279s
  38   2.66536369e+06  8.22130032e+07  2.84e-04 6.34e-07  9.13e+01  1291s
  39   3.66378832e+06  7.81718732e+07  2.25e-04 6.19e-07  8.51e+01  1302s
  40   4.14592596e+06  5.53058989e+07  1.98e-04 6.94e-07  5.88e+01  1313s
  41   5.19401185e+06  4.03410388e+07  1.29e-04 7.39e-07  4.04e+01  1326s
  42   5.78311712e+06  3.28407581e+07  1.01e-04 4.77e-07  3.11e+01  1337s
  43   6.52363271e+06  2.82909069e+07  7.11e-05 7.19e-07  2.50e+01  1349s
  44   6.75598705e+06  2.57562862e+07  6.42e-05 6.71e-07  2.18e+01  1359s
  45   7.08436261e+06  2.41692145e+07  5.88e-05 7.35e-07  1.96e+01  1370s
  46   7.18909935e+06  2.24678571e+07  5.49e-05 7.86e-07  1.76e+01  1381s
  47   7.61156379e+06  1.96412935e+07  4.50e-05 8.99e-07  1.39e+01  1392s
  48   7.97963670e+06  1.84696232e+07  3.64e-05 1.24e-06  1.21e+01  1403s
  49   8.31384906e+06  1.65750549e+07  2.89e-05 6.26e-07  9.50e+00  1415s
  50   8.50720344e+06  1.57172021e+07  2.57e-05 8.00e-07  8.30e+00  1428s
  51   8.80487586e+06  1.52976548e+07  2.14e-05 9.95e-07  7.46e+00  1440s
  52   9.18773181e+06  1.43096168e+07  1.60e-05 9.67e-07  5.88e+00  1451s
  53   9.46872231e+06  1.33174045e+07  1.30e-05 8.86e-07  4.43e+00  1463s
  54   9.73392164e+06  1.28840224e+07  1.02e-05 5.95e-07  3.62e+00  1474s
  55   1.00855382e+07  1.22342252e+07  6.81e-06 7.66e-07  2.47e+00  1486s
  56   1.04579192e+07  1.17944402e+07  3.58e-06 8.18e-07  1.53e+00  1497s
  57   1.05828809e+07  1.13470459e+07  2.55e-06 9.58e-07  8.81e-01  1508s
  58   1.06743617e+07  1.12237999e+07  1.77e-06 9.43e-07  6.33e-01  1520s
  59   1.07531755e+07  1.11021008e+07  1.10e-06 1.09e-06  4.02e-01  1531s
  60   1.07941806e+07  1.10459950e+07  7.42e-07 8.25e-07  2.89e-01  1543s
  61   1.08288914e+07  1.09973148e+07  4.62e-07 1.01e-06  1.93e-01  1554s
  62   1.08441564e+07  1.09736011e+07  3.66e-07 1.02e-06  1.48e-01  1565s
  63   1.08612327e+07  1.09401719e+07  2.36e-07 8.58e-07  9.07e-02  1576s
  64   1.08748893e+07  1.08947020e+07  6.33e-07 1.24e-06  2.35e-02  1587s
  65   1.08862043e+07  1.08904893e+07  1.24e-07 1.17e-06  5.07e-03  1598s
  66   1.08883696e+07  1.08895950e+07  4.63e-08 1.16e-06  1.43e-03  1608s
  67   1.08887407e+07  1.08890491e+07  1.87e-08 5.28e-04  3.74e-04  1619s
  68   1.08890061e+07  1.08890234e+07  8.91e-09 2.59e-04  2.09e-05  1630s
  69   1.08890136e+07  1.08890225e+07  5.51e-06 2.92e-04  1.07e-05  1641s
  70   1.08890168e+07  1.08890220e+07  3.46e-06 3.09e-04  6.88e-06  1652s
  71   1.08890177e+07  1.08890215e+07  2.64e-06 2.71e-04  4.99e-06  1663s
  72   1.08890198e+07  1.08890213e+07  1.07e-06 2.43e-04  1.96e-06  1674s
  73   1.08890200e+07  1.08890212e+07  1.01e-06 3.43e-04  1.10e-06  1684s
  74   1.08890202e+07  1.08890212e+07  8.07e-07 3.85e-04  8.73e-07  1695s
  75   1.08890207e+07  1.08890212e+07  8.28e-07 3.63e-04  3.77e-07  1705s
  76   1.08890212e+07  1.08890212e+07  4.19e-06 5.28e-04  3.76e-07  1716s

Barrier solved model in 76 iterations and 1715.88 seconds
Optimal objective 1.08890212e+07


Root crossover log...

   44749 DPushes remaining with DInf 1.9970948e-06              1716s
       0 DPushes remaining with DInf 1.5124189e+12              1720s

     160 PPushes remaining with PInf 2.3033435e-04              1720s
       0 PPushes remaining with PInf 0.0000000e+00              1720s

  Push phase complete: Pinf 0.0000000e+00, Dinf 2.5674857e+02   1720s


Root simplex log...

Iteration    Objective       Primal Inf.    Dual Inf.      Time
   39230    1.0889021e+07   0.000000e+00   2.567486e+02   1720s
   39486    1.0889021e+07   0.000000e+00   6.141952e+04   1720s
   39952    1.0889021e+07   0.000000e+00   0.000000e+00   1722s
   40994    1.0889028e+07   0.000000e+00   4.376366e+06   1725s
   42408    1.0889036e+07   0.000000e+00   7.983812e+07   1730s
   43826    1.0889057e+07   0.000000e+00   8.905621e+08   1735s
   45114    1.0889085e+07   0.000000e+00   6.506639e+07   1740s
   46394    1.0889204e+07   0.000000e+00   8.727390e+08   1745s
   47678    1.0889369e+07   0.000000e+00   1.307818e+10   1750s
   48836    1.0889503e+07   0.000000e+00   5.493160e+09   1755s
   50120    1.0889629e+07   0.000000e+00   1.987014e+10   1760s
   51274    1.0889790e+07   0.000000e+00   1.124439e+10   1765s
   52561    1.0890035e+07   0.000000e+00   4.873507e+09   1770s
   53592    1.0890184e+07   0.000000e+00   1.151019e+10   1775s
   54876    1.0890330e+07   0.000000e+00   3.218916e+09   1780s
   56157    1.0890498e+07   0.000000e+00   2.567115e+09   1785s
   57440    1.0890692e+07   0.000000e+00   1.361639e+10   1790s
   58728    1.0890823e+07   0.000000e+00   1.100315e+10   1795s
   59891    1.0890963e+07   0.000000e+00   4.979145e+09   1800s
   61173    1.0891132e+07   0.000000e+00   2.674458e+09   1805s
   62455    1.0891327e+07   0.000000e+00   2.494373e+10   1810s
   63739    1.0891480e+07   0.000000e+00   2.052170e+10   1815s
   64893    1.0891618e+07   0.000000e+00   1.815189e+09   1820s
   66173    1.0891814e+07   0.000000e+00   1.355574e+10   1825s
   67457    1.0891964e+07   0.000000e+00   2.045655e+09   1830s
   68740    1.0892150e+07   0.000000e+00   8.579033e+09   1835s
   69894    1.0892332e+07   0.000000e+00   3.581421e+09   1840s
   71177    1.0892508e+07   0.000000e+00   5.858158e+08   1845s
   72587    1.0892670e+07   0.000000e+00   1.415507e+09   1850s
   73740    1.0892801e+07   0.000000e+00   1.039729e+10   1855s
   75023    1.0892940e+07   0.000000e+00   2.680315e+09   1860s
   76305    1.0893042e+07   0.000000e+00   1.384267e+09   1865s
   77717    1.0893160e+07   0.000000e+00   2.991112e+09   1870s
   79003    1.0893276e+07   0.000000e+00   8.840463e+08   1875s
   80291    1.0893347e+07   0.000000e+00   4.351907e+10   1880s
   81573    1.0893446e+07   0.000000e+00   9.848870e+09   1885s
   82854    1.0893538e+07   0.000000e+00   3.579106e+09   1890s
   84135    1.0893646e+07   0.000000e+00   9.326999e+09   1895s
   85421    1.0893763e+07   0.000000e+00   5.252920e+08   1900s
   86964    1.0893854e+07   0.000000e+00   5.033979e+09   1905s
   88246    1.0893934e+07   0.000000e+00   4.457782e+09   1910s
   89657    1.0894006e+07   0.000000e+00   1.873006e+08   1916s
   90938    1.0894092e+07   0.000000e+00   2.709912e+08   1920s
   92219    1.0894161e+07   0.000000e+00   1.361359e+09   1925s
   93628    1.0894266e+07   0.000000e+00   1.105114e+09   1930s
   94910    1.0894342e+07   0.000000e+00   6.295999e+08   1935s
   96319    1.0894413e+07   0.000000e+00   2.463329e+09   1940s
   97602    1.0894489e+07   0.000000e+00   4.647739e+09   1945s
   98891    1.0894561e+07   0.000000e+00   1.610835e+09   1950s
  100176    1.0894622e+07   0.000000e+00   2.171636e+08   1955s
  101588    1.0894701e+07   0.000000e+00   4.554080e+08   1960s
  102870    1.0894766e+07   0.000000e+00   2.592299e+10   1965s
  104155    1.0894839e+07   0.000000e+00   2.697097e+08   1970s
  105568    1.0894913e+07   0.000000e+00   2.156949e+09   1975s
  106853    1.0894971e+07   0.000000e+00   1.854906e+09   1980s
  108264    1.0895044e+07   0.000000e+00   2.383382e+09   1985s
  109545    1.0895097e+07   0.000000e+00   1.440316e+09   1990s
  110958    1.0895178e+07   0.000000e+00   1.009085e+09   1995s
  112240    1.0895243e+07   0.000000e+00   6.681263e+09   2000s
  113522    1.0895329e+07   0.000000e+00   2.416619e+08   2005s
  114938    1.0895430e+07   0.000000e+00   7.669714e+08   2010s
  116351    1.0895567e+07   0.000000e+00   7.501582e+08   2015s
  117633    1.0895633e+07   0.000000e+00   3.085165e+08   2020s
  118920    1.0895698e+07   0.000000e+00   3.475567e+09   2025s
  120211    1.0895755e+07   0.000000e+00   1.752328e+08   2030s
  121763    1.0895796e+07   0.000000e+00   9.086979e+07   2035s
  123054    1.0895828e+07   0.000000e+00   3.003785e+08   2040s
  124341    1.0895882e+07   0.000000e+00   2.111543e+08   2045s
  125882    1.0895946e+07   0.000000e+00   1.847802e+09   2051s
  127167    1.0896060e+07   0.000000e+00   1.236465e+10   2055s
  128324    1.0896170e+07   0.000000e+00   1.458478e+09   2060s
  129735    1.0896245e+07   0.000000e+00   2.338114e+08   2066s
  130890    1.0896300e+07   0.000000e+00   2.409779e+09   2070s
  132309    1.0896344e+07   0.000000e+00   1.301275e+09   2075s
  133593    1.0896384e+07   0.000000e+00   2.352811e+09   2080s
  134754    1.0896408e+07   0.000000e+00   9.853046e+10   2085s
  136171    1.0896452e+07   0.000000e+00   1.954115e+09   2090s
  137455    1.0896517e+07   0.000000e+00   7.770636e+07   2095s
  138738    1.0896560e+07   0.000000e+00   1.568680e+09   2100s
  139892    1.0896639e+07   0.000000e+00   1.476629e+10   2105s
  141176    1.0896715e+07   0.000000e+00   2.042317e+08   2110s
  142329    1.0896760e+07   0.000000e+00   1.236084e+09   2115s
  143618    1.0896815e+07   0.000000e+00   1.054298e+09   2120s
  144901    1.0896872e+07   0.000000e+00   1.212701e+09   2125s
  146058    1.0896985e+07   0.000000e+00   2.780603e+08   2130s
  147515    1.0897034e+07   0.000000e+00   1.483072e+09   2135s
  148670    1.0897106e+07   0.000000e+00   1.738888e+08   2140s
  150084    1.0897148e+07   0.000000e+00   5.563852e+08   2145s
  151371    1.0897190e+07   0.000000e+00   5.119269e+08   2150s
  152663    1.0897220e+07   0.000000e+00   9.239968e+07   2155s
  154082    1.0897275e+07   0.000000e+00   3.835495e+08   2160s
  155366    1.0897318e+07   0.000000e+00   3.262549e+07   2165s
  156649    1.0897361e+07   0.000000e+00   1.467914e+09   2170s
  158196    1.0897407e+07   0.000000e+00   5.094470e+08   2175s
  159480    1.0897477e+07   0.000000e+00   7.418902e+08   2180s
  160765    1.0897514e+07   0.000000e+00   6.913035e+08   2185s
  162183    1.0897541e+07   0.000000e+00   5.287025e+08   2190s
  163598    1.0897572e+07   0.000000e+00   2.333985e+09   2195s
  164882    1.0897601e+07   0.000000e+00   9.526073e+07   2200s
  166172    1.0897627e+07   0.000000e+00   2.706522e+08   2205s
  167590    1.0897663e+07   0.000000e+00   9.181108e+07   2210s
  168874    1.0897699e+07   0.000000e+00   2.547532e+07   2215s
  170032    1.0897712e+07   0.000000e+00   3.953219e+07   2220s
  171066    1.0897730e+07   0.000000e+00   2.069844e+07   2225s
  172353    1.0897758e+07   0.000000e+00   9.951033e+07   2231s
  173671    1.0897773e+07   0.000000e+00   1.225214e+08   2235s
  175093    1.0897788e+07   0.000000e+00   8.751502e+06   2240s
  176513    1.0897805e+07   0.000000e+00   2.379083e+07   2245s
  177796    1.0897824e+07   0.000000e+00   2.388721e+08   2250s
  179254    1.0897841e+07   0.000000e+00   3.938577e+08   2255s
  180675    1.0897861e+07   0.000000e+00   3.491096e+08   2260s
  182092    1.0897882e+07   0.000000e+00   3.165550e+08   2265s
  183383    1.0897896e+07   0.000000e+00   2.054185e+07   2270s
  184927    1.0897910e+07   0.000000e+00   7.942075e+06   2275s
  186344    1.0897919e+07   0.000000e+00   5.825875e+07   2280s
  187628    1.0897931e+07   0.000000e+00   6.617963e+06   2285s
  189049    1.0897940e+07   0.000000e+00   4.975751e+07   2290s
  190466    1.0897949e+07   0.000000e+00   1.650775e+08   2295s
  191892    1.0897956e+07   0.000000e+00   9.648135e+06   2300s
  193309    1.0897963e+07   0.000000e+00   1.871163e+07   2305s
  194725    1.0897970e+07   0.000000e+00   3.335267e+07   2310s
  196140    1.0897975e+07   0.000000e+00   1.169828e+06   2315s
  197439    1.0897985e+07   0.000000e+00   1.200100e+07   2320s
  198865    1.0897989e+07   0.000000e+00   9.947103e+06   2325s
  200295    1.0897992e+07   0.000000e+00   2.205093e+06   2330s
  201728    1.0897994e+07   0.000000e+00   1.475998e+07   2335s
  203148    1.0897996e+07   0.000000e+00   1.344489e+06   2340s
  204565    1.0897998e+07   0.000000e+00   6.044151e+05   2345s
  205850    1.0897999e+07   0.000000e+00   1.477891e+06   2350s
  207262    1.0898000e+07   0.000000e+00   9.706594e+04   2355s
  208675    1.0898001e+07   0.000000e+00   2.890552e+05   2360s
  209958    1.0898005e+07   0.000000e+00   3.919596e+04   2365s
  211323    1.0889021e+07   0.000000e+00   0.000000e+00   2371s
Extra 171371 simplex iterations after uncrush
Concurrent spin time: 0.01s

Solved with barrier

Root relaxation: objective 1.088902e+07, 211323 iterations, 1537.18 seconds

    Nodes    |    Current Node    |     Objective Bounds      |     Work
 Expl Unexpl |  Obj  Depth IntInf | Incumbent    BestBd   Gap | It/Node Time

     0     0 1.0844e+07    0  347          - 1.0844e+07      -     - 2594s
     0     0 9225481.52    0  465          - 9225481.52      -     - 4531s
H    0     0                    -4085387.326 9225481.52   326%     - 5580s
     0     0 9225224.32    0  467 -4085387.3 9225224.32   326%     - 5674s
     0     0 9225118.20    0  465 -4085387.3 9225118.20   326%     - 5731s
     0     0 9074034.91    0  459 -4085387.3 9074034.91   322%     - 6808s
H    0     0                    -3037777.793 9074034.91   399%     - 6809s
H    0     0                    -2301885.791 9074034.91   494%     - 6844s
     0     0 9063982.53    0  451 -2301885.8 9063982.53   494%     - 7018s
     0     0 9061560.95    0  466 -2301885.8 9061560.95   494%     - 7105s
     0     0 9061545.41    0  477 -2301885.8 9061545.41   494%     - 7140s
     0     0 8861989.43    0  443 -2301885.8 8861989.43   485%     - 8159s
     0     0 8860342.18    0  456 -2301885.8 8860342.18   485%     - 8346s
     0     0 8860302.11    0  454 -2301885.8 8860302.11   485%     - 8389s
     0     0 8857864.42    0  459 -2301885.8 8857864.42   485%     - 8625s
     0     0 8856301.46    0  462 -2301885.8 8856301.46   485%     - 8881s
     0     0 8856301.46    0  462 -2301885.8 8856301.46   485%     - 8883s
     0     0 8851065.00    0  460 -2301885.8 8851065.00   485%     - 9550s
     0     0 8851045.31    0  479 -2301885.8 8851045.31   485%     - 9688s
     0     0 8850711.59    0  482 -2301885.8 8850711.59   484%     - 9930s
     0     0 8850323.03    0  472 -2301885.8 8850323.03   484%     - 10019s
     0     0 8850129.03    0  457 -2301885.8 8850129.03   484%     - 10070s
     0     0 8848731.91    0  484 -2301885.8 8848731.91   484%     - 10262s
     0     0 8848401.44    0  485 -2301885.8 8848401.44   484%     - 10362s
     0     0 8848378.09    0  483 -2301885.8 8848378.09   484%     - 10402s
     0     0 8842988.87    0  470 -2301885.8 8842988.87   484%     - 10893s
     0     0 8842181.74    0  496 -2301885.8 8842181.74   484%     - 10972s
     0     0 8841868.66    0  501 -2301885.8 8841868.66   484%     - 11026s
     0     0 8841867.22    0  506 -2301885.8 8841867.22   484%     - 11034s
     0     0 8833843.43    0  472 -2301885.8 8833843.43   484%     - 11289s
     0     0 8831869.40    0  487 -2301885.8 8831869.40   484%     - 11467s
     0     0 8831842.13    0  488 -2301885.8 8831842.13   484%     - 11481s
     0     0 8831062.19    0  483 -2301885.8 8831062.19   484%     - 11551s
     0     0 8830415.05    0  479 -2301885.8 8830415.05   484%     - 11665s
     0     0 8830371.74    0  479 -2301885.8 8830371.74   484%     - 11702s
     0     0 8829989.27    0  492 -2301885.8 8829989.27   484%     - 11835s
     0     0 8829079.43    0  476 -2301885.8 8829079.43   484%     - 12011s
     0     0 8829079.43    0  478 -2301885.8 8829079.43   484%     - 12014s
     0     0 8828841.14    0  489 -2301885.8 8828841.14   484%     - 12056s
     0     0 8828834.97    0  484 -2301885.8 8828834.97   484%     - 12119s
     0     0 8828800.70    0  494 -2301885.8 8828800.70   484%     - 12246s
     0     0 8828800.70    0  494 -2301885.8 8828800.70   484%     - 12730s
     0     2 8828800.70    0  493 -2301885.8 8828800.70   484%     - 14797s
     1     4 7815972.92    1  429 -2301885.8 8823098.18   483% 146890 17864s
     3     8 7422052.72    2  307 -2301885.8 8544447.93   471% 201891 22988s
     7    12 7421289.18    3  316 -2301885.8 8542966.01   471% 137295 23283s
    11    16 7419988.20    4  316 -2301885.8 8542966.01   471% 90357 24402s
    15    17 7416788.33    5  328 -2301885.8 8542966.01   471% 73440 27016s
    19    21 7382838.09    6  333 -2301885.8 8542966.01   471% 73771 29608s
    23    24 6370255.56    6  242 -2301885.8 8542966.01   471% 84895 34014s
    28    30 7370641.28    7  327 -2301885.8 8542966.01   471% 83210 42058s
    34    36 7163311.76    8  259 -2301885.8 8542966.01   471% 99649 46638s
    38    38 7084425.74    8  259 -2301885.8 8542966.01   471% 98538 48826s
    44    47 7155517.20    9  307 -2301885.8 8542966.01   471% 92492 52595s
    48    49 7108028.51    9  237 -2301885.8 8542966.01   471% 94800 54471s
    55    55 7138337.47   10  277 -2301885.8 8542966.01   471% 87913 56034s
H   59    58                    -1448348.138 8542966.01   690% 86217 58336s
    65    65 7024337.85   11  245 -1448348.1 8542966.01   690% 84049 60164s
H   75    75                    -1448348.137 8542966.01   690% 75561 61212s
    87    89 6972895.21   13  286 -1448348.1 8542966.01   690% 68318 63590s
    96    98 7049202.51   14  262 -1448348.1 8542966.01   690% 64345 70683s
H   97    98                    -1307800.477 8542966.01   753% 63682 70683s
   104   105 6984586.89   16  246 -1307800.5 8542966.01   753% 64830 73268s
   115   117 6979617.72   17  260 -1307800.5 8542966.01   753% 61236 75569s
   122   123 6776271.11   18  324 -1307800.5 8542966.01   753% 61854 78169s
   133   133 6844598.79   19  345 -1307800.5 8542966.01   753% 59502 80202s
   143   148 6707091.16   19  313 -1307800.5 8542966.01   753% 57728 82478s
   154   150 6840875.70   20  345 -1307800.5 8542966.01   753% 55782 85847s

Cutting planes:
  Gomory: 5
  Implied bound: 22
  Clique: 13
  MIR: 43
  Flow cover: 106
  Zero half: 4

Explored 166 nodes (9844370 simplex iterations) in 86400.40 seconds
Thread count was 4 (of 16 available processors)

Solution count 6: -1.3078e+06 -1.44835e+06 -1.44835e+06 ... -4.08539e+06

Time limit reached
Warning: max constraint violation (1.4388e-06) exceeds tolerance
Warning: max bound violation (1.4867e-06) exceeds tolerance
Best objective -1.307800477041e+06, best bound 8.542966011279e+06, gap 753.2316%

***
***  |- Calculation finished, timelimit reached 86,400.48 (86400.48) sec.))
***  |-----------------------------------------------------------------------------------------------------------------------
***
*****************************************************************************************************************************
#############################################################################################################################
###
### Results
###
### The objective of the solution is -1,307,800.477 (-1307800.477) and is feasible with a Gap of 7.5323
###
### Service 24 (WAF7) is operated by 3 vessels from type 18 (PMax25)
###  |- Vessel  1 has the path [131, 386, -1]
###  |  131 (DEHAM Out@288.0) - 386 (ESALG In@496.0/Out@515.0) - -1 (DUMMY_END Ziel-Service 24)
###  |- Vessel  2 has the path [132, 387, -1]
###  |  132 (DEHAM Out@456.0) - 387 (ESALG In@664.0/Out@683.0) - -1 (DUMMY_END Ziel-Service 24)
###  |- Vessel 13 has the path [135, 401, 263, 149, 388, -1]
###  |  135 (DKAAR Out@220.0) - 401 (MAPTM In@379.0/Out@398.0) - 263 (MAPTM In@406.0/Out@427.0) - 149 (ESALG In@452.0/Out@464
###  |  .0) - 388 (ESALG In@832.0/Out@851.0) - -1 (DUMMY_END Ziel-Service 24)
###  |   |- and carried Demand  66,  484.0 containers from 263 to 149
###  |   |- and carried Demand  67,   18.0 containers from 263 to 149
###  |   |- and carried Demand 272,  214.0 containers from 263 to 388
###  |   |- and carried Demand 273,   10.0 containers from 263 to 388
###  |   |- and carried Demand 274,  484.0 containers from 263 to 149
###  |   |- and carried Demand 275,   18.0 containers from 263 to 149
###  |   |- and carried Demand 285,  214.0 containers from 401 to 388
###  |   |- and carried Demand 286,   10.0 containers from 401 to 388
###  |   |- and carried Demand 287,  484.0 containers from 401 to 149
###  |   |- and carried Demand 288,   18.0 containers from 401 to 149
###  |
### Service 121 (SAE) is operated by 2 vessels from type 30 (PMax35)
###  |- Vessel  9 has the path [9, 384, 260, 400, 261, 385, 262, 425, 421, 411, -2]
###  |  9 (BEANR Out@66.0) - 384 (ESALG In@160.0/Out@179.0) - 260 (MAPTM In@207.0/Out@228.0) - 400 (MAPTM In@211.0/Out@230.0)
###  |   - 261 (MAPTM In@238.0/Out@259.0) - 385 (ESALG In@328.0/Out@347.0) - 262 (MAPTM In@375.0/Out@396.0) - 425 (USORF In@8
###  |  73.0/Out@881.0) - 421 (USMIA In@935.0/Out@943.0) - 411 (HNPCR In@998.0/Out@1011.0) - -2 (DUMMY_END Ziel-Service 121)
###  |   |- and carried Demand 257,  580.0 containers from 260 to 385
###  |   |- and carried Demand 271,  580.0 containers from 261 to 385
###  |   |- and carried Demand 295,  580.0 containers from 400 to 385
###  |   |- and carried Demand 325,   10.0 containers from 421 to 411
###  |   |- and carried Demand 326,   75.0 containers from 425 to 411
###  |   |- and carried Demand 327,  114.0 containers from 425 to 411
###  |- Vessel 24 has the path [231, 106, 78, 210, 107, 75, 86, 140, 300, 412, -2]
###  |  231 (JPYOK Out@171.0) - 106 (CNXMN In@238.0/Out@260.0) - 78 (CNNSA In@287.0/Out@297.0) - 210 (HKHKG In@334.0/Out@350.
###  |  0) - 107 (CNYTN In@358.0/Out@376.0) - 75 (CNNGB In@430.0/Out@439.0) - 86 (CNSHA In@465.0/Out@483.0) - 140 (ECGYE In@9
###  |  11.0/Out@923.0) - 300 (PABLB In@982.0/Out@1030.0) - 412 (HNPCR In@1166.0/Out@1179.0) - -2 (DUMMY_END Ziel-Service 121
###  |  )
###  |   |- and carried Demand  87,  541.0 containers from 231 to 300
###  |   |- and carried Demand 178,  785.0 containers from 106 to 210
###  |   |- and carried Demand 179,    1.0 containers from 106 to 210
###  |   |- and carried Demand 181,  121.0 containers from 210 to  75
###  |   |- and carried Demand 182,   75.0 containers from 210 to  86
###  |   |- and carried Demand 183,    1.0 containers from 210 to 107
###  |   |- and carried Demand 186,    6.0 containers from 107 to 300
###  |   |- and carried Demand 188,  773.0 containers from  75 to 300
###  |   |- and carried Demand 189,    1.0 containers from  75 to 300
###  |   |- and carried Demand 297,    6.0 containers from 107 to 300
###  |   |- and carried Demand 298,  773.0 containers from  75 to 300
###  |   |- and carried Demand 299,    1.0 containers from  75 to 300
###  |
### Service 177 (WCSA) is operated by 3 vessels from type 18 (PMax25)
###  |- Vessel  3 has the path [133, 58, 63, 305, 0]
###  |  133 (DEHAM Out@624.0) - 58 (CLLQN In@1240.0/Out@1258.0) - 63 (CLSAI In@1288.0/Out@1304.0) - 305 (PABLB In@1640.0/Out@
###  |  1652.0) - 0 (DUMMY_END Ziel-Service 177)
###  |   |- and carried Demand 218,  194.0 containers from  58 to 305
###  |   |- and carried Demand 219,   20.0 containers from  58 to 305
###  |   |- and carried Demand 221,    5.0 containers from  58 to 305
###  |- Vessel  4 has the path [134, 303, 0]
###  |  134 (DEHAM Out@792.0) - 303 (PABLB In@1472.0/Out@1484.0) - 0 (DUMMY_END Ziel-Service 177)
###  |- Vessel 14 has the path [136, 57, 62, 302, 0]
###  |  136 (DKAAR Out@388.0) - 57 (CLLQN In@1072.0/Out@1090.0) - 62 (CLSAI In@1120.0/Out@1136.0) - 302 (PABLB In@1304.0/Out@
###  |  1316.0) - 0 (DUMMY_END Ziel-Service 177)
###  |
### Vessels not used in the solution: [5, 6, 7, 8, 10, 11, 12, 15, 16, 17, 18, 19, 20, 21, 22, 23]
###  |-----------------------------------------------------------------------------------------------------------------------
###
#############################################################################################################################

### Detialed variable overview

### All variables with value greater zero:
rho[24,18] = 1
rho[177,18] = 1
rho[121,30] = 1
eta[24,18,1] = 1
eta[24,18,2] = 1
eta[24,18,3] = 1
eta[177,18,1] = 1
eta[177,18,2] = 1
eta[177,18,3] = 1
eta[121,30,1] = 1
eta[121,30,2] = 1
y[1,131,386] = 1
y[1,386,-1] = 1
y[2,387,-1] = 1
y[2,132,387] = 1
y[3,63,305] = 1
y[3,305,0] = 1
y[3,58,63] = 1
y[3,133,58] = 1
y[4,303,0] = 1
y[4,134,303] = 1
y[9,260,400] = 1
y[9,421,411] = 1
y[9,9,384] = 1
y[9,385,262] = 1
y[9,425,421] = 1
y[9,262,425] = 1
y[9,261,385] = 1
y[9,384,260] = 1
y[9,411,-2] = 1
y[9,400,261] = 1
y[13,401,263] = 1
y[13,263,149] = 1
y[13,135,401] = 1
y[13,149,388] = 1
y[13,388,-1] = 1
y[14,302,0] = 1
y[14,57,62] = 1
y[14,136,57] = 1
y[14,62,302] = 1
y[24,300,412] = 1
y[24,231,106] = 1
y[24,210,107] = 1
y[24,412,-2] = 1
y[24,106,78] = 1
y[24,75,86] = 1
y[24,140,300] = 1
y[24,78,210] = 1
y[24,86,140] = 1
y[24,107,75] = 1
xD[66,263,149] = 484
xD[67,263,149] = 18
xD[87,231,106] = 541
xD[87,210,107] = 541
xD[87,106,78] = 541
xD[87,75,86] = 541
xD[87,140,300] = 541
xD[87,78,210] = 541
xD[87,86,140] = 541
xD[87,107,75] = 541
xD[178,106,78] = 785
xD[178,78,210] = 785
xD[179,106,78] = 1
xD[179,78,210] = 1
xD[181,210,107] = 121
xD[181,107,75] = 121
xD[182,210,107] = 75
xD[182,75,86] = 75
xD[182,107,75] = 75
xD[183,210,107] = 1
xD[186,75,86] = 6
xD[186,140,300] = 6
xD[186,86,140] = 6
xD[186,107,75] = 6
xD[188,75,86] = 773
xD[188,140,300] = 773
xD[188,86,140] = 773
xD[189,75,86] = 1
xD[189,140,300] = 1
xD[189,86,140] = 1
xD[218,63,305] = 194
xD[218,58,63] = 194
xD[219,63,305] = 20
xD[219,58,63] = 20
xD[221,63,305] = 5
xD[221,58,63] = 5
xD[257,260,400] = 580
xD[257,261,385] = 580
xD[257,400,261] = 580
xD[271,261,385] = 580
xD[272,263,149] = 214
xD[272,149,388] = 214
xD[273,263,149] = 10
xD[273,149,388] = 10
xD[274,263,149] = 484
xD[275,263,149] = 18
xD[285,401,263] = 214
xD[285,263,149] = 214
xD[285,149,388] = 214
xD[286,401,263] = 10
xD[286,263,149] = 10
xD[286,149,388] = 10
xD[287,401,263] = 484
xD[287,263,149] = 484
xD[288,401,263] = 18
xD[288,263,149] = 18
xD[295,261,385] = 580
xD[295,400,261] = 580
xD[297,75,86] = 6
xD[297,140,300] = 6
xD[297,86,140] = 6
xD[297,107,75] = 6
xD[298,75,86] = 773
xD[298,140,300] = 773
xD[298,86,140] = 773
xD[299,75,86] = 1
xD[299,140,300] = 1
xD[299,86,140] = 1
xD[325,421,411] = 10
xD[326,421,411] = 75
xD[326,425,421] = 75
xD[327,421,411] = 114
xD[327,425,421] = 114
zE[57] = 1072
zE[58] = 1240
zE[62] = 1120
zE[63] = 1288
zE[75] = 430
zE[78] = 287
zE[86] = 465
zE[106] = 238
zE[107] = 358
zE[140] = 911
zE[149] = 452
zE[210] = 334
zE[260] = 207
zE[261] = 238
zE[262] = 375
zE[263] = 406
zE[300] = 982
zE[302] = 1304
zE[303] = 1472
zE[305] = 1640
zE[384] = 160
zE[385] = 328
zE[386] = 496
zE[387] = 664
zE[388] = 832
zE[400] = 211
zE[401] = 379
zE[411] = 998
zE[412] = 1166
zE[421] = 935
zE[425] = 873
zX[9] = 66
zX[57] = 1090
zX[58] = 1258
zX[62] = 1136
zX[63] = 1304
zX[75] = 439
zX[78] = 297
zX[86] = 483
zX[106] = 260
zX[107] = 376
zX[131] = 288
zX[132] = 456
zX[133] = 624
zX[134] = 792
zX[135] = 220
zX[136] = 388
zX[140] = 923
zX[149] = 464
zX[210] = 350
zX[231] = 171
zX[260] = 228
zX[261] = 259
zX[262] = 396
zX[263] = 427
zX[300] = 1030
zX[302] = 1316
zX[303] = 1484
zX[305] = 1652
zX[384] = 179
zX[385] = 347
zX[386] = 515
zX[387] = 683
zX[388] = 851
zX[400] = 230
zX[401] = 398
zX[411] = 1011
zX[412] = 1179
zX[421] = 943
zX[425] = 881
phi[1] = 227
phi[2] = 227
phi[3] = 1028
phi[4] = 692
phi[9] = 945
phi[13] = 631
phi[14] = 928
phi[24] = 1008

### All variables with value smaller zero:

### End

real	1446m37.638s
user	5062m20.316s
sys	514m8.355s
	Freetype 2.4.12 environment removed
	Python 3.6.0 environment removed
	Gurobi 8.1.0 environment removed
