	Freetype 2.4.12 environment established
		library to render fonts
	Python 3.6.0 environment established
	Gurobi 8.1.0 environment established
Instance LSFRP: LSFDRP_2_2_0_1_fr.p
Instance LSFDP: LSFDRP_2_2_0_1_fd_40.p

*****************************************************************************************************************************
*** Solve LSFDRP_2_2_0_1_fd_40 with Gurobi
***
*** Graph info
*** |S|: 18
*** |S^E|: 0
*** |S^C|: 0
*** |V|: 321
*** |A|: 9520
*** |A^i|: 9469
*** |A^f|: 51
*** |M|: 193
*** |E|: 22

Changed value of parameter TimeLimit to 86400.0
   Prev: 1e+100  Min: 0.0  Max: 1e+100  Default: 1e+100
Changed value of parameter Threads to 4
   Prev: 0  Min: 0  Max: 1024  Default: 0
Optimize a model with 91412 rows, 2029350 columns and 7453802 nonzeros
Variable types: 1857954 continuous, 171396 integer (171396 binary)
Coefficient statistics:
  Matrix range     [1e+00, 4e+03]
  Objective range  [2e+00, 3e+07]
  Bounds range     [1e+00, 1e+00]
  RHS range        [1e+00, 4e+03]
Presolve removed 52886 rows and 1659923 columns (presolve time = 5s) ...
Presolve removed 62474 rows and 1706691 columns (presolve time = 10s) ...
Warning: Failed to open log file 'gurobi.log'
Presolve removed 62486 rows and 1706880 columns (presolve time = 29s) ...
Presolve removed 62713 rows and 1706896 columns (presolve time = 30s) ...
Presolve removed 63782 rows and 1710087 columns (presolve time = 109s) ...
Presolve removed 63782 rows and 1710087 columns
Presolve time: 108.93s
Presolved: 27630 rows, 319263 columns, 1387957 nonzeros
Variable types: 147960 continuous, 171303 integer (171255 binary)

Deterministic concurrent LP optimizer: primal and dual simplex
Showing first log only...


Root simplex log...

Iteration    Objective       Primal Inf.    Dual Inf.      Time
       0   -9.1610275e+03   5.000000e+00   7.215587e+07    114s
   11880   -2.1838108e+07   0.000000e+00   6.500083e+09    115s
   26026   -2.5589670e+06   0.000000e+00   7.623713e+10    120s
Concurrent spin time: 0.00s

Solved with dual simplex

Root relaxation: objective 6.709129e+06, 13760 iterations, 9.19 seconds

    Nodes    |    Current Node    |     Objective Bounds      |     Work
 Expl Unexpl |  Obj  Depth IntInf | Incumbent    BestBd   Gap | It/Node Time

     0     0 6703605.18    0  170          - 6703605.18      -     -  129s
     0     0 6342913.46    0  113          - 6342913.46      -     -  143s
H    0     0                    -1.58470e+07 6342913.46   140%     -  144s
     0     0 6179269.02    0  131 -1.585e+07 6179269.02   139%     -  151s
     0     0 6179269.02    0  131 -1.585e+07 6179269.02   139%     -  151s
     0     0 5846493.39    0  226 -1.585e+07 5846493.39   137%     -  164s
H    0     0                    -1431404.722 5846493.39   508%     -  165s
     0     0 5846082.55    0  228 -1431404.7 5846082.55   508%     -  169s
     0     0 5844637.66    0  224 -1431404.7 5844637.66   508%     -  170s
     0     0 5844326.90    0  228 -1431404.7 5844326.90   508%     -  170s
     0     0 5843872.79    0  228 -1431404.7 5843872.79   508%     -  171s
     0     0 5835117.96    0  151 -1431404.7 5835117.96   508%     -  177s
H    0     0                    -1041493.842 5835117.96   660%     -  178s
     0     0 5834287.34    0  144 -1041493.8 5834287.34   660%     -  180s
     0     0 5834287.34    0  144 -1041493.8 5834287.34   660%     -  180s
     0     0 5816419.34    0  303 -1041493.8 5816419.34   658%     -  188s
H    0     0                    -1017413.842 5816419.34   672%     -  189s
     0     0 5816045.33    0  297 -1017413.8 5816045.33   672%     -  190s
     0     0 5806462.01    0  275 -1017413.8 5806462.01   671%     -  191s
     0     0 5806462.01    0  279 -1017413.8 5806462.01   671%     -  192s
     0     0 5801910.83    0  279 -1017413.8 5801910.83   670%     -  195s
H    0     0                    579751.15788 5801910.83   901%     -  197s
     0     0 5801910.83    0  279 579751.158 5801910.83   901%     -  197s
     0     0 5801618.26    0  279 579751.158 5801618.26   901%     -  200s
     0     0 5797306.67    0  277 579751.158 5797306.67   900%     -  202s
     0     0 5797306.67    0  279 579751.158 5797306.67   900%     -  205s
H    0     0                    598844.59909 5797306.67   868%     -  208s
     0     0 5790197.86    0  218 598844.599 5790197.86   867%     -  243s
     0     0 5790197.86    0  216 598844.599 5790197.86   867%     -  248s
     0     2 5790197.86    0  214 598844.599 5790197.86   867%     -  270s
     1     4 5773808.07    1  214 598844.599 5773808.07   864%   224  280s
     3     8 5668280.21    2  221 598844.599 5668280.21   847%   883  293s
     7    12 5658845.43    3  223 598844.599 5658845.43   845%   757  301s
    11    16 5177663.87    4  212 598844.599 5177663.87   765%   698  305s
    15    16 5171563.08    5  174 598844.599 5173228.75   764%   574  313s
    19    20 5168558.99    6  171 598844.599 5173228.75   764%   524  319s
    23    24 5164207.36    7  173 598844.599 5173228.75   764%   532  329s
    29    30 5118048.38    9  176 598844.599 5173228.75   764%   539 1073s
H   31    32                    598844.60116 5173228.75   764%  3554 1073s
    35    36 5021871.43   11  214 598844.601 5173228.75   764% 12412 4658s
    39    41 infeasible   11      598844.601 5173228.75   764% 11276 4703s
    44    43 4995107.83   13  150 598844.601 5173228.75   764% 10268 6284s
    50    47 4895972.40   14  150 598844.601 5173228.75   764% 17262 8844s
    56    54 4863027.49   14  128 598844.601 5173228.75   764% 19135 8913s
    63    59 4577713.60   15  129 598844.601 5173228.75   764% 17603 9221s
H   65    61                    825116.55550 5173228.75   527% 17064 9222s
    67    68 4873774.71   15  140 825116.555 5173228.75   527% 16705 9280s
    77    69 4869856.66   16  141 825116.555 5173228.75   527% 14848 9322s
    88    83 4828580.79   18  133 825116.555 5173228.75   527% 13254 9367s
   101    96 4821218.93   19  129 825116.555 5173228.75   527% 11691 9741s
   111   109 4651138.70   22  124 825116.555 5173228.75   527% 10837 9837s
   124   116 4656767.34   23  131 825116.555 5173228.75   527% 10002 9901s
   140   138 4172938.31   25  103 825116.555 5173228.75   527%  9112 10010s
   158   151 4016897.62   26  146 825116.555 5173228.75   527%  8458 10092s
   176   169 4465640.41   26  126 825116.555 5173228.75   527%  7738 10175s
   195   190 4375250.00   30  142 825116.555 5173228.75   527%  7249 10220s
   218   210 4318264.96   32  129 825116.555 5173228.75   527%  6600 10269s
   254   248 4281698.57   35  110 825116.555 5173228.75   527%  5747 10298s
   306   297 3759553.15   45   79 825116.555 5173228.75   527%  4832 10313s
   370   353 3668852.22   59   57 825116.555 5173228.75   527%  4028 10333s
   446   413 3481172.49   78   67 825116.555 5171297.49   527%  3362 10361s
   511   457 4070403.15    6  121 825116.555 5171297.49   527%  2974 10392s
   559   479 3726180.75    9   98 825116.555 5171297.49   527%  2762 10431s
   579   494 3200610.59   10   91 825116.555 5171297.49   527%  2714 10457s
   600   514 3351996.42   15  111 825116.555 5171297.49   527%  2656 10485s
H  655   553                    880144.56404 5171297.49   488%  2466 10485s
   670   580 3044438.56   27  104 880144.564 5171297.49   488%  2415 10718s
H  698   577                    1236136.1479 5171297.49   318%  2325 10718s
   722   601 2936111.06   36   94 1236136.15 5171297.49   318%  2259 10755s
   795   667 2723856.21   51  115 1236136.15 5171297.49   318%  2092 10793s
   859   719 2637461.01   62  116 1236136.15 5171297.49   318%  1982 10824s
   936   773 2496751.41   72   94 1236136.15 5171297.49   318%  1861 10856s
  1001   833 2298931.25   76   95 1236136.15 5171297.49   318%  1778 10889s
  1140   931 2590815.54   69  216 1236136.15 5117701.06   314%  1587 11153s
  1142   932 3633050.24   70  130 1236136.15 5117701.06   314%  1584 11168s
  1143   933 4151525.16    3  147 1236136.15 5089471.33   312%  1583 11178s
  1145   934 2693479.21   56  154 1236136.15 5066185.89   310%  1580 11183s
  1146   935 2728692.97   51  141 1236136.15 5059539.08   309%  1578 11192s
  1147   936 4835281.05   18  133 1236136.15 5000658.46   305%  1577 11195s
  1149   937 4649280.11    6  130 1236136.15 4912149.93   297%  1574 11200s
  1150   938 4307506.21   34  148 1236136.15 4859376.59   293%  1573 11211s
H 1150   890                    1236136.1481 4859376.59   293%  1573 11215s
H 1151   846                    1236136.1482 4814513.48   289%  1572 11221s
  1153   848 3295372.43   11  158 1236136.15 4790546.52   288%  1569 11225s
  1154   848 3406764.58   44  157 1236136.15 4784779.31   287%  1567 11235s
H 1154   805                    1236136.1484 4784779.31   287%  1567 11239s
H 1155   765                    1236136.1485 4775800.74   286%  1566 11244s
  1157   766 3451707.74   37  164 1236136.15 4765482.52   286%  1563 11257s
  1158   767 1696700.07   98  153 1236136.15 4753543.56   285%  1562 11261s
  1159   768 1404299.37  110  150 1236136.15 4752188.70   284%  1561 11266s
  1160   768 3433193.12   13  153 1236136.15 4752029.73   284%  1559 11286s
  1162   770 2705067.76   69  153 1236136.15 4752029.73   284%  1557 11300s
  1163   772 2799202.63   60  216 1236136.15 4752029.73   284%  1585 11309s
  1165   773 3653493.01   68  115 1236136.15 4752029.73   284%  1582 11321s
  1166   774 2570888.91   39  135 1236136.15 4752029.73   284%  1581 11332s
  1168   775 2962771.86   29  133 1236136.15 4752029.73   284%  1578 11336s
  1171   777 2320050.23   89  150 1236136.15 4545297.66   268%  1574 11340s
H 1171   738                    1261434.8484 4545297.66   260%  1574 11344s
  1173   740 2771024.96   50  147 1261434.85 4453799.41   253%  1572 11354s
  1174   740 3527704.93   42  149 1261434.85 4443417.92   252%  1570 11355s
  1176   742 3738624.77   31  154 1261434.85 4439680.62   252%  1568 11366s
  1177   742 2764253.45   52  160 1261434.85 4436761.95   252%  1566 11370s
H 1177   704                    1261434.8489 4436761.95   252%  1566 11374s
  1178   705 4392043.84   13  135 1261434.85 4406842.41   249%  1565 11386s
  1179   706 2022598.23   64  135 1261434.85 4406842.41   249%  1564 11390s
  1180   706 4232367.64   13  135 1261434.85 4406842.41   249%  1562 11400s
  1181   710 4358467.68   26  135 1261434.85 4406778.22   249%  1583 11427s
  1183   713 4348565.96   27  155 1261434.85 4377213.98   247%  1583 11459s
  1187   716 4335427.84   28  146 1261434.85 4372882.09   247%  1583 11498s
  1191   719 4172867.67   28  146 1261434.85 4372865.27   247%  1587 11533s
  1195   721 4330074.11   29  146 1261434.85 4371956.90   247%  1588 11551s
  1199   724 3981542.71   29  135 1261434.85 4371956.90   247%  1589 11565s
  1203   727 4273231.03   30  156 1261434.85 4364317.81   246%  1595 11588s
  1207   727 4286453.85   30  151 1261434.85 4364317.81   246%  1598 11607s
H 1208   692                    1261434.8507 4364317.81   246%  1596 11607s
  1212   693 4278149.82   31  160 1261434.85 4324179.66   243%  1608 11635s
  1217   700 4265078.45   32  151 1261434.85 4324081.71   243%  1617 11648s
  1222   698 4256310.98   33  155 1261434.85 4271906.00   239%  1622 11673s
  1228   704 4240381.60   34  158 1261434.85 4262616.45   238%  1634 11688s
  1234   709 4210849.60   35  156 1261434.85 4262616.45   238%  1645 11700s
  1241   714 4190111.43   36  145 1261434.85 4262616.45   238%  1649 11712s
  1246   717 4185133.25   37  135 1261434.85 4262616.45   238%  1650 11739s
  1253   719 4184611.81   38  137 1261434.85 4262616.45   238%  1661 11754s
  1262   726 4181911.91   39  131 1261434.85 4262616.45   238%  1669 11765s
  1274   738 4174909.90   40  132 1261434.85 4262616.45   238%  1666 11783s
  1283   742 4171488.68   41  127 1261434.85 4262616.45   238%  1677 11814s
  1292   749 3339108.26   42  121 1261434.85 4262616.45   238%  1697 11844s
  1298   745 4167030.67   43  129 1261434.85 4262616.45   238%  1715 11879s
  1316   763 4080110.86   45  130 1261434.85 4262616.45   238%  1716 11919s
  1329   772 4074629.65   46  130 1261434.85 4262616.45   238%  1723 11933s
  1351   784 4037003.10   49  128 1261434.85 4262616.45   238%  1712 11954s
  1375   802 4022898.23   52  124 1261434.85 4262616.45   238%  1704 11973s
  1399   818 4009737.35   55  122 1261434.85 4262616.45   238%  1693 11987s
  1418   832 3978200.27   57  132 1261434.85 4262616.45   238%  1685 12008s
  1442   840 3905165.70   60  120 1261434.85 4262616.45   238%  1676 12030s
  1467   856 3826968.90   64  128 1261434.85 4262616.45   238%  1668 12046s
  1495   863 3773154.46   66  100 1261434.85 4262616.45   238%  1655 12062s
  1524   871 3582513.75   69   91 1261434.85 4262616.45   238%  1641 12098s
  1545   880 3500989.88   70   79 1261434.85 4262616.45   238%  1626 12148s
  1573   880 3485907.76   72   77 1261434.85 4262616.45   238%  1633 12176s
  1586   887 3478677.95   74   72 1261434.85 4262616.45   238%  1648 12204s
  1604   902 2408215.17   76   73 1261434.85 4262616.45   238%  1655 12232s
  1626   916 3447359.34   82   67 1261434.85 4262616.45   238%  1661 12258s
  1642   924 3417815.95   86   72 1261434.85 4262616.45   238%  1673 12281s
  1664   933 3406931.61   90   81 1261434.85 4262616.45   238%  1679 12330s
H 1669   901                    1305104.0876 4262616.45   227%  1678 12330s
  1680   912 2487691.01   91   53 1305104.09 4262616.45   227%  1683 12358s
  1709   920 3384489.87   96   96 1305104.09 4262616.45   227%  1689 12397s
H 1717   893                    1330673.6548 4262616.45   220%  1692 12397s
H 1720   863                    1349767.0985 4262616.45   216%  1700 12397s
  1721   863 3368268.35   98   85 1349767.10 4262616.45   216%  1700 12428s
  1759   881 3352019.38  105  101 1349767.10 4262616.45   216%  1703 12464s
  1773   894 2345824.58  105   46 1349767.10 4262616.45   216%  1711 12494s
  1812   908 3349738.54  110  102 1349767.10 4262616.45   216%  1709 12524s
  1877   920 3306643.01  119   78 1349767.10 4262616.45   216%  1683 12566s
  1953   935 3247513.49  126   98 1349767.10 4262616.45   216%  1657 12640s
  1994   950 2513651.48  137   83 1349767.10 4262616.45   216%  1662 12717s
  2071   969 1781866.43  151   93 1349767.10 4262616.45   216%  1636 12758s
  2238   991 1957529.80  184   67 1349767.10 4262616.45   216%  1547 12791s
  2334   983 1511229.93  215   53 1349767.10 4221940.77   213%  1507 13127s
  2391   999 4093418.66   39  158 1349767.10 4220493.88   213%  1493 13165s
  2412  1014 4045200.00   42  133 1349767.10 4220493.88   213%  1506 13202s
  2454  1038 3515135.56   70   91 1349767.10 4220493.88   213%  1507 13273s
  2509  1073 3224705.82  107   70 1349767.10 4215715.97   212%  1511 13320s
  2596  1121 1906624.80   33  117 1349767.10 4209760.50   212%  1486 13374s
  2659  1154 4039776.17   35  166 1349767.10 4209760.50   212%  1491 13427s
  2776  1205 3953983.77   46  162 1349767.10 4209760.50   212%  1464 13495s
  2846  1244 3795258.78   52  152 1349767.10 4209760.50   212%  1461 13552s
  2914  1284 3311437.61   61  131 1349767.10 4209760.50   212%  1457 13623s
  3040  1401 2525215.58   82  113 1349767.10 4181855.78   210%  1434 13686s
  3142  1475 4016346.06   37  158 1349767.10 4181855.78   210%  1426 13740s
  3243  1573 3634556.28   48  164 1349767.10 4181855.78   210%  1414 13791s
  3442  1702 2536040.06   68   74 1349767.10 4150093.91   207%  1360 13852s
  3543  1759 3891145.01   42  136 1349767.10 4140934.91   207%  1357 13914s
  3619  1832 3416839.09   46   95 1349767.10 4140934.91   207%  1362 13970s
  3730  1930 3383404.20   48  133 1349767.10 4140934.91   207%  1353 14031s
  3848  2033 3182887.60   53   94 1349767.10 4140934.91   207%  1347 14102s
  4080  2233 3035253.03   90   82 1349767.10 4135067.86   206%  1303 14169s
  4252  2359 3961339.61   44  117 1349767.10 4127920.87   206%  1283 14245s
  4445  2523 3479159.82   65   92 1349767.10 4126225.25   206%  1262 14321s
  4639  2698 3878986.24   45  136 1349767.10 4126225.25   206%  1247 14402s
  4791  2805 3677818.92   53  129 1349767.10 4126225.25   206%  1243 14502s
  4871  2865 1842851.61   63   97 1349767.10 4100070.31   204%  1261 14588s
  5071  3008 3911399.20   40  134 1349767.10 4096696.26   204%  1248 14691s
  5259  3091 2479743.96   54   97 1349767.10 4096696.26   204%  1251 14783s
  5391  3201 3613462.81   66   94 1349767.10 4096696.26   204%  1256 14874s
  5608  3374 3349879.80   81  109 1349767.10 4096696.26   204%  1243 14958s
  5908  3555 1555249.96  193   54 1349767.10 4096696.26   204%  1209 15069s
  6155  3718     cutoff  207      1349767.10 4096696.26   204%  1190 15246s
  6329  3868 1904543.21  224   88 1349767.10 4076725.62   202%  1180 15354s
  6514  3924 2860134.86   78   89 1349767.10 4066628.17   201%  1184 15472s
  6818  4149 2335802.23   52  102 1349767.10 4054272.31   200%  1171 15591s
  7027  4292 3820220.89   39  138 1349767.10 4049298.08   200%  1174 15711s
  7274  4490 3973043.02   41  140 1349767.10 4043255.17   200%  1174 15841s
  7577  4748 3484328.79   48   93 1349767.10 4039271.27   199%  1167 15957s
  7802  4905 3404769.14   37  154 1349767.10 4037382.96   199%  1170 16087s
  8002  5064 3217841.29   47  121 1349767.10 4037382.96   199%  1174 16295s
  8129  5150 3211764.64   49  120 1349767.10 4033585.18   199%  1174 16447s
  8403  5370 3459134.59   62  100 1349767.10 4023799.25   198%  1170 16614s
  8757  5657 3062133.33   52  109 1349767.10 4018368.42   198%  1165 16770s
  8970  5834 2999824.97   56   97 1349767.10 4016278.55   198%  1174 16928s
  9100  5947 3661127.97   54  120 1349767.10 4014262.12   197%  1181 17103s
  9402  6164 1773183.49   63  115 1349767.10 4013619.98   197%  1186 17284s
  9728  6411 3417961.94   42  151 1349767.10 4004512.82   197%  1191 17469s
 10063  6671 1811718.18   90   58 1349767.10 4003024.29   197%  1195 17677s
 10292  6837 2306576.12   49  107 1349767.10 4000413.12   196%  1213 17895s
 10699  7129 3094355.28   53  144 1349767.10 3986033.46   195%  1210 18106s
 11037  7374 3493314.55   42  126 1349767.10 3980540.16   195%  1218 18311s
 11304  7536 3122264.72   63   46 1349767.10 3973055.50   194%  1232 18536s
 11823  7933 3153035.10   41  144 1349767.10 3964311.24   194%  1223 18767s
 12314  8260 2474397.06   70  136 1349767.10 3961339.61   193%  1219 18983s
 12766  8614 3668810.74   47  131 1349767.10 3952676.19   193%  1217 19202s
 13200  8896 2899041.55   45  115 1349767.10 3946828.13   192%  1210 19450s
 13898  9437 1522584.10  141   15 1349767.10 3935116.48   192%  1188 19667s
 14195  9622 2599031.71   41   78 1349767.10 3931287.18   191%  1198 19877s
 14490  9818 1667692.71   67   79 1349767.10 3928580.29   191%  1207 20076s
 14643  9842 3871540.72   44  141 1349767.10 3925539.84   191%  1203 20307s
 15006 10113 2353419.79   56  152 1349767.10 3921436.52   191%  1205 20540s
 15513 10385 2948113.64   63  129 1349767.10 3916532.05   190%  1202 20752s
 15994 10754 2905747.97   42  107 1349767.10 3913959.83   190%  1199 20986s
 16563 11214     cutoff   49      1349767.10 3912422.51   190%  1186 21196s
 16902 11491 2943170.80   42  118 1349767.10 3910904.57   190%  1190 21402s
 17288 11760 2987413.18   57  103 1349767.10 3908890.70   190%  1188 21610s
 17606 12010 3393158.59   36  109 1349767.10 3905958.14   189%  1194 21832s
 17900 12208 2105531.49   38   96 1349767.10 3905958.14   189%  1202 22059s
 18199 12409 3210762.25   39   93 1349767.10 3900111.27   189%  1210 22284s
 18686 12739 3518165.40   50  117 1349767.10 3896170.56   189%  1207 22491s
 19120 13086 3099624.66   77   77 1349767.10 3893970.22   188%  1201 22707s
 19617 13447 2023828.41   63  124 1349767.10 3891736.82   188%  1197 22985s
 19906 13682 3277382.20   84  143 1349767.10 3891145.01   188%  1191 23192s
 20537 14144 1617352.27   78  216 1349767.10 3886224.24   188%  1179 25358s
 20539 14145 1936966.12   99  115 1349767.10 3886224.24   188%  1179 25369s
 20540 14146 2245215.02   68  167 1349767.10 3886224.24   188%  1179 25385s
 20542 14147 2036066.75  116  178 1349767.10 3886224.24   188%  1178 25390s
 20545 14149 1696167.36   46  195 1349767.10 3886224.24   188%  1178 25396s
 20547 14151 3415519.85   44  201 1349767.10 3886224.24   188%  1178 25400s
 20550 14153 2053767.60   77  207 1349767.10 3886224.24   188%  1178 25408s
 20551 14153 3379870.36   43  207 1349767.10 3886224.24   188%  1178 25443s
 20552 14154 2353707.65   56  210 1349767.10 3886224.24   188%  1178 25460s
 20553 14155 2164570.78   94  226 1349767.10 3886224.24   188%  1178 25484s
 20554 14155 1883922.42  107  234 1349767.10 3886224.24   188%  1178 25487s
 20557 14157 1554943.81  115  242 1349767.10 3886224.24   188%  1178 25509s
 20558 14158 1967940.01   96  218 1349767.10 3868368.42   187%  1178 25528s
 20559 14159 2592224.35   50  232 1349767.10 3863454.09   186%  1178 25530s
 20560 14159 3787252.98   44  237 1349767.10 3861770.71   186%  1177 25550s
 20561 14160 2180567.51   96  219 1349767.10 3850606.44   185%  1177 25590s
 20563 14161 2985825.89   68  217 1349767.10 3845956.40   185%  1177 25611s
 20564 14162 2460926.53   72  225 1349767.10 3830146.29   184%  1177 25654s
 20565 14163 3462624.28   52  214 1349767.10 3829520.53   184%  1177 25675s
 20566 14163 2443414.55   53  218 1349767.10 3826983.85   184%  1177 25715s
 20567 14164 2274497.57   82  224 1349767.10 3826717.81   184%  1177 25734s
 20568 14165 3014488.48   43  236 1349767.10 3824105.05   183%  1177 25761s
 20570 14166 3149685.72   48  233 1349767.10 3814848.89   183%  1177 25781s
 20571 14167 1808893.14   74  222 1349767.10 3808949.53   182%  1177 25824s
 20572 14167 1939725.62   76  228 1349767.10 3808528.85   182%  1177 25842s
 20573 14168 1915270.84   86  225 1349767.10 3801013.13   182%  1177 25883s
 20575 14169 3088600.73   57  228 1349767.10 3795633.77   181%  1177 25900s
 20576 14170 2467638.67   52  235 1349767.10 3795099.95   181%  1177 25936s
 20577 14171 2125714.16   77  230 1349767.10 3794411.90   181%  1176 25955s
 20578 14171 1711372.47   59  229 1349767.10 3792243.03   181%  1176 25993s
 20579 14172 2500150.97   51  233 1349767.10 3791623.73   181%  1176 26012s
 20580 14173 2891107.03   66  223 1349767.10 3776206.62   180%  1176 26052s
 20581 14173 1871407.43  112  224 1349767.10 3775310.19   180%  1176 26071s
 20582 14174 2361034.28   50  226 1349767.10 3731914.17   176%  1176 26118s
 20583 14175 2030589.50   72  231 1349767.10 3731632.58   176%  1176 26137s
 20584 14175 3435752.70   95  214 1349767.10 3729386.21   176%  1176 26179s
 20585 14176 2769665.79   52  240 1349767.10 3728178.83   176%  1176 26200s
 20586 14177 1916797.88   79  231 1349767.10 3724623.45   176%  1176 26246s
 20588 14178 1732362.57  166  232 1349767.10 3689101.54   173%  1176 26250s
 20589 14179 1794875.43   62  245 1349767.10 3686335.26   173%  1176 26269s
 20590 14179 3064305.96   52  251 1349767.10 3682536.03   173%  1176 26312s
 20591 14180 2391143.68   76  264 1349767.10 3681058.86   173%  1176 26333s
 20592 14181 3136837.77   69  259 1349767.10 3672067.21   172%  1176 26376s
 20593 14181 3670759.31   39  267 1349767.10 3670759.31   172%  1176 26393s
 20594 14182 3463804.02   55  248 1349767.10 3666583.76   172%  1176 26432s
 20595 14183 1740101.88  105  244 1349767.10 3665866.20   172%  1175 26448s
 20596 14183 2281764.78   79  258 1349767.10 3664851.02   172%  1175 26483s
 20597 14184 2116544.98   78  253 1349767.10 3664420.13   171%  1175 26498s
 20598 14185 1959041.48   90  264 1349767.10 3663681.03   171%  1175 26534s
 20599 14185 3047375.79   89  264 1349767.10 3663062.26   171%  1175 26552s
 20600 14186 2401524.31   58  245 1349767.10 3660109.58   171%  1175 26587s
 20601 14187 2778793.23  107  256 1349767.10 3659829.58   171%  1175 26603s
 20602 14187 1951063.63   73  261 1349767.10 3630974.58   169%  1175 26636s
 20604 14189 3027513.99   57  265 1349767.10 3619975.16   168%  1175 26640s
 20605 14189 1763341.85  119  280 1349767.10 3618326.08   168%  1175 26654s
 20606 14190 1618085.09   66  243 1349767.10 3598849.72   167%  1175 26683s
 20607 14191 2492621.15   87  277 1349767.10 3597756.29   167%  1175 26697s
 20608 14191 2233412.30   80  267 1349767.10 3595489.02   166%  1175 26727s
 20610 14193 1719867.16   66  287 1349767.10 3589897.96   166%  1175 26743s
 20611 14193 2414451.48   73  278 1349767.10 3515557.55   160%  1175 26763s
 20613 14196 1915240.93  119  216 1349767.10 3515557.55   160%  1178 26767s
 20615 14197 3338849.86   43  115 1349767.10 3515557.55   160%  1178 26775s
 20616 14198 3151485.29   45  175 1349767.10 3515557.55   160%  1178 26792s
 20617 14199 2889102.49   68  189 1349767.10 3515557.55   160%  1178 26798s
 20618 14199 3515557.55   49  142 1349767.10 3515557.55   160%  1178 26801s
 20619 14200 2284943.12   77  160 1349767.10 3515557.55   160%  1178 26807s
 20620 14201 2881627.10   69  214 1349767.10 3515557.55   160%  1178 26815s
 20622 14202 1714467.00   72  206 1349767.10 3515557.55   160%  1178 26820s
 20624 14203 2644996.59   95  211 1349767.10 3515557.55   160%  1178 26827s
 20625 14204 1890587.43   96  187 1349767.10 3515557.55   160%  1178 26856s
 20627 14205 1715361.30   60  207 1349767.10 3515557.55   160%  1178 26868s
 20628 14206 2332404.09   61  245 1349767.10 3515557.55   160%  1178 26872s
 20629 14207 2941427.12   49  232 1349767.10 3515557.55   160%  1178 26875s
 20631 14208 3344744.53   45  256 1349767.10 3511147.73   160%  1177 26895s
 20632 14209 2827709.51   76  250 1349767.10 3504136.39   160%  1177 26925s
 20634 14210 2243935.90   88  260 1349767.10 3495194.50   159%  1177 26940s
 20635 14211 1794183.04   79  264 1349767.10 3486714.49   158%  1177 26969s
 20636 14211 1588157.72  119  274 1349767.10 3483405.98   158%  1177 26985s
 20637 14212 1617352.27   78  269 1349767.10 3478292.41   158%  1177 27015s
 20640 14214 2245215.02   68  266 1349767.10 3468955.37   157%  1177 27032s
 20641 14215 2441986.26   54  274 1349767.10 3467636.87   157%  1177 27053s
 20642 14215 2036066.75  116  269 1349767.10 3462537.92   157%  1177 27055s
 20643 14216 1909937.12   95  280 1349767.10 3459909.22   156%  1177 27071s
 20644 14217 1948597.35   92  271 1349767.10 3457994.89   156%  1177 27101s
 20645 14217 1696167.36   46  271 1349767.10 3457662.53   156%  1177 27113s
 20646 14218 3148582.55   52  267 1349767.10 3451226.11   156%  1177 27143s
 20647 14219 3415519.85   44  268 1349767.10 3448830.39   156%  1176 27159s
 20648 14219 1829579.83   50  266 1349767.10 3438538.24   155%  1176 27189s
 20649 14220 2150108.04   93  274 1349767.10 3438100.67   155%  1176 27202s
 20650 14221 2053767.60   77  279 1349767.10 3436776.44   155%  1176 27231s
 20652 14222 2353707.65   56  295 1349767.10 3433212.40   154%  1176 27247s
 20653 14223 2164570.78   94  293 1349767.10 3416804.25   153%  1176 27278s
 20654 14223 1883922.42  107  295 1349767.10 3416022.76   153%  1176 27292s
 20655 14224 2463082.45  144  284 1349767.10 3413986.73   153%  1176 27320s
 20656 14225 1575105.35   77  294 1349767.10 3413248.79   153%  1176 27333s
 20657 14225 1554943.81  115  284 1349767.10 3412392.07   153%  1176 27361s
 20658 14226 1967940.01   96  288 1349767.10 3411329.62   153%  1176 27374s
 20659 14227 2592224.35   50  293 1349767.10 3410265.88   153%  1176 27404s
 20660 14227 3409692.19   44  281 1349767.10 3409692.19   153%  1176 27418s
 20661 14228 2180567.51   96  286 1349767.10 3408191.40   153%  1176 27448s
H20661 13515                    1349767.4804 3407311.92   152%  1176 27460s
 20663 13516 2985825.89   68  291 1349767.48 3406700.71   152%  1176 27486s
 20664 13517 2460926.53   72  299 1349767.48 3405549.57   152%  1176 27498s
 20665 13518 3404606.94   52  297 1349767.48 3404606.94   152%  1175 27526s
H20665 12842                    1349769.4087 3404486.30   152%  1175 27539s
 20667 12843 2274497.57   82  296 1349769.41 3404192.83   152%  1175 27572s
 20668 12844 3014488.48   43  308 1349769.41 3403406.55   152%  1175 27585s
 20669 12844 3218316.31   76  288 1349769.41 3381579.03   151%  1175 27611s
 20671 12846 1808893.14   74  284 1349769.41 3375048.15   150%  1175 27625s
 20672 12846 1939725.62   76  296 1349769.41 3368924.73   150%  1175 27653s
 20674 12848 3364551.03   35  304 1349769.41 3364551.03   149%  1175 27666s
 20675 12848 3088600.73   57  311 1349769.41 3363302.17   149%  1175 27694s
 20676 12849 2467638.67   52  309 1349769.41 3362438.60   149%  1175 27707s
 20677 12850 2125714.16   77  315 1349769.41 3360654.72   149%  1175 27735s
 20678 12850 1711372.47   59  315 1349769.41 3360487.87   149%  1175 27748s
 20679 12851 2500150.97   51  321 1349769.41 3354409.72   149%  1175 27777s
 20680 12852 2891107.03   66  327 1349769.41 3337415.50   147%  1175 27781s
 20681 12852 1871407.43  112  318 1349769.41 3334667.75   147%  1175 27796s
 20682 12853 2361034.28   50  314 1349769.41 3332536.33   147%  1174 27825s
 20683 12854 2030589.50   72  315 1349769.41 3329314.83   147%  1174 27839s
 20684 12854 3304241.94   95  288 1349769.41 3304241.94   145%  1174 27890s
 20685 12855 2769665.79   52  293 1349769.41 3301345.50   145%  1174 27904s
 20686 12856 1916797.88   79  304 1349769.41 3292017.65   144%  1174 27935s
 20688 12857 1732362.57  166  317 1349769.41 3287043.08   144%  1174 27949s
 20689 12858 1794875.43   62  318 1349769.41 3284592.40   143%  1174 27977s
 20690 12858 3064305.96   52  320 1349769.41 3284078.07   143%  1174 27990s
 20691 12859 2391143.68   76  349 1349769.41 3279868.80   143%  1174 28033s
 20692 12860 3136837.77   69  339 1349769.41 3279720.51   143%  1174 28045s
 20693 12860 3278764.52   39  347 1349769.41 3278764.52   143%  1174 28074s
 20694 12861 3277954.07   55  345 1349769.41 3277954.07   143%  1174 28086s
 20695 12862 1740101.88  105  361 1349769.41 3277197.58   143%  1174 28111s
 20696 12862 2281764.78   79  354 1349769.41 3276538.10   143%  1174 28124s
 20697 12863 2116544.98   78  318 1349769.41 3254507.10   141%  1174 28160s
 20699 12864 3047375.79   89  318 1349769.41 3247558.36   141%  1174 28177s
 20700 12865 2401524.31   58  319 1349769.41 3245177.08   140%  1173 28218s
 20701 12866 2778793.23  107  336 1349769.41 3244299.97   140%  1173 28231s
 20702 12866 1951063.63   73  334 1349769.41 3243686.02   140%  1173 28253s
 20703 12867 3205451.02   50  339 1349769.41 3243012.59   140%  1173 28265s
 20704 12868 3027513.99   57  340 1349769.41 3242488.31   140%  1173 28292s
 20705 12868 1763341.85  119  345 1349769.41 3242361.38   140%  1173 28304s
 20706 12869 1618085.09   66  347 1349769.41 3240387.31   140%  1173 28319s
 20707 12870 2492621.15   87  349 1349769.41 3240112.26   140%  1173 28332s
 20708 12870 2233412.30   80  340 1349769.41 3237877.21   140%  1173 28348s
 20709 12871 3212978.63   46  349 1349769.41 3236839.83   140%  1173 28362s
 20710 12872 1719867.16   66  342 1349769.41 3236559.59   140%  1173 28377s
 20711 12872 2414451.48   73  352 1349769.41 3236459.61   140%  1173 28389s
 20712 12873 1652392.21  171  350 1349769.41 3236095.52   140%  1173 28406s
 20713 12874 1915240.93  119  351 1349769.41 3236077.33   140%  1173 28417s
 20714 12874 3235637.90   56  353 1349769.41 3235637.90   140%  1173 28444s
 20715 12875 3235455.96   43  341 1349769.41 3235455.96   140%  1173 28455s
 20716 12876 3151485.29   45  347 1349769.41 3235371.81   140%  1173 28466s
 20717 12876 2889102.49   68  349 1349769.41 3235325.43   140%  1173 28478s
 20718 12877 3234629.66   49  337 1349769.41 3234629.66   140%  1172 28493s
 20719 12878 2284943.12   77  347 1349769.41 3234494.16   140%  1172 28503s
 20720 12878 2881627.10   69  345 1349769.41 3234480.52   140%  1172 28517s
 20721 12879 2246912.78   83  346 1349769.41 3234480.52   140%  1172 28544s
 20722 12880 1714467.00   72  345 1349769.41 3234480.52   140%  1172 28554s
 20723 12880 1871407.43  112  345 1349769.41 3234480.52   140%  1172 28637s
 20724 12884 3233001.72   48  337 1349769.41 3233001.72   140%  1178 28742s
 20726 12887 3195536.96   49  310 1349769.41 3228802.78   139%  1178 28814s
 20730 12890 3175283.53   50  319 1349769.41 3175283.53   135%  1179 28879s
 20734 12891     cutoff   50      1349769.41 3175283.53   135%  1181 28914s
 20738 12893 3175283.53   51  319 1349769.41 3175283.53   135%  1182 28944s
 20742 12894     cutoff   51      1349769.41 3175272.78   135%  1183 28996s
 20746 12897 3166225.68   52  325 1349769.41 3175245.43   135%  1185 29023s
 20750 12894     cutoff   52      1349769.41 3166217.16   135%  1186 29061s
 20754 12894 3151461.83   53  323 1349769.41 3166217.16   135%  1188 29106s
 20758 12899 3088607.80   53  281 1349769.41 3151460.37   133%  1189 29140s
 20762 12898 3129466.63   54  330 1349769.41 3151434.01   133%  1190 29169s
 20767 12904 3026791.43   54  263 1349769.41 3129454.46   132%  1191 29204s
 20772 12909 3128687.35   55  326 1349769.41 3128687.35   132%  1193 29253s
 20779 12908 3042002.94   56  314 1349769.41 3128660.39   132%  1196 29296s
 20786 12912 3059644.58   56  236 1349769.41 3088552.31   129%  1198 29343s
 20794 12915 2956783.00   57  254 1349769.41 3088552.31   129%  1200 29378s
 20802 12920 2954914.83   58  248 1349769.41 3088552.31   129%  1202 29407s
 20813 12922 2834336.31   59  225 1349769.41 3088552.31   129%  1203 29450s
 20821 12930 2882728.43   59  244 1349769.41 3088552.31   129%  1205 29484s
 20833 12939 2703286.11   60  161 1349769.41 3088552.31   129%  1207 29511s
 20845 12942 2867738.96   61  219 1349769.41 3088552.31   129%  1208 29551s
H20854 12301                    1349769.6603 3088552.31   129%  1209 29551s
 20862 12302 2857976.88   62  217 1349769.66 3088552.31   129%  1209 29585s
 20880 12317 2822221.10   63  217 1349769.66 3088552.31   129%  1211 29613s
 20900 12319 2789337.96   64  211 1349769.66 3088552.31   129%  1212 29642s
 20928 12339 2795227.32   67  193 1349769.66 3088552.31   129%  1213 29685s
 20955 12347 2573053.47   67  164 1349769.66 3088552.31   129%  1212 29710s
 20993 12369 2786423.83   69  188 1349769.66 3088552.31   129%  1212 29738s
 21036 12386 2762697.00   72  180 1349769.66 3088552.31   129%  1212 29768s
 21080 12403 2758892.16   73  171 1349769.66 3088552.31   129%  1211 29788s
 21134 12420 2737806.12   76  179 1349769.66 3088552.31   129%  1211 29823s
 21183 12441 2713270.41   78  172 1349769.66 3088552.31   129%  1211 29860s
 21227 12454 2697659.28   80  179 1349769.66 3088552.31   129%  1211 29910s
 21280 12468 2678010.98   83  200 1349769.66 3088552.31   129%  1211 29942s
 21357 12481 2640992.40   86  191 1349769.66 3088552.31   129%  1209 29974s
 21459 12503 2551956.07   89  179 1349769.66 3088552.31   129%  1206 30012s
 21545 12491 2546893.00   91  182 1349769.66 3088552.31   129%  1203 30042s
 21576 12493 2456212.99   93  166 1349769.66 3088552.31   129%  1204 30187s
 21586 12496 2435113.25   96  170 1349769.66 3088552.31   129%  1205 30224s
 21603 12501 2430213.20   99  171 1349769.66 3088552.31   129%  1207 30243s
 21622 12512 2422846.74  102  175 1349769.66 3088552.31   129%  1209 30261s
 21659 12521 2392940.09  105  167 1349769.66 3088552.31   129%  1210 30292s
 21733 12561 2379941.50  109  170 1349769.66 3088552.31   129%  1209 30323s
 21783 12582 2373139.22  113  169 1349769.66 3088552.31   129%  1209 30349s
 21818 12592 2333468.70  117  154 1349769.66 3088552.31   129%  1210 30401s
 21861 12609 2053685.98  122  157 1349769.66 3088552.31   129%  1212 30445s
 21911 12634 1951668.46  128  160 1349769.66 3088552.31   129%  1213 30474s
 21969 12658 1886812.94  136  155 1349769.66 3088552.31   129%  1214 30506s
 22056 12674 1744393.58  154  153 1349769.66 3026787.87   124%  1214 30545s
 22140 12681 2414351.15   55  229 1349769.66 3026787.87   124%  1214 30590s
 22203 12690 2041525.09   63  185 1349769.66 3014932.39   123%  1215 30636s
 22331 12756 3001229.80   56  253 1349769.66 3006086.72   123%  1213 30716s
 22368 12767 1715975.98   60  150 1349769.66 3006086.72   123%  1218 30770s
 22451 12810 2909904.04   60  250 1349769.66 3001204.37   122%  1218 30814s
 22548 12862 2773727.58   69  200 1349769.66 3001204.37   122%  1217 30877s
 22640 12905 2607522.70  100  180 1349769.66 3001204.37   122%  1217 30918s
 22767 12975     cutoff  135      1349769.66 2986401.13   121%  1216 30980s
 22827 12999 2826830.25   60  234 1349769.66 2986401.13   121%  1219 31060s
 22895 13030 2781604.43   63  225 1349769.66 2981090.77   121%  1222 31108s
 23007 13082 2616067.88   75  170 1349769.66 2981090.77   121%  1222 31152s
 23072 13114 2529792.01  103  162 1349769.66 2977083.03   121%  1225 31242s
 23162 13135 2431433.01   60  226 1349769.66 2977083.03   121%  1229 31321s
 23369 13256 2212769.15   74  226 1349769.66 2977083.03   121%  1225 31370s
 23456 13287 1774465.84  107  152 1349769.66 2967215.89   120%  1228 31428s
 23559 13343 2890731.32   59  187 1349769.66 2967070.51   120%  1229 31524s
 23716 13432 2646503.38   86  140 1349769.66 2955252.75   119%  1229 31610s
 23848 13496 2731165.81   57  221 1349769.66 2955252.75   119%  1232 31697s
 23971 13552 2616678.42   66  164 1349769.66 2949230.77   118%  1234 31777s
 24062 13593 2563290.71   65  234 1349769.66 2947993.89   118%  1239 31885s
 24194 13652 2301032.60   99  192 1349769.66 2940731.02   118%  1243 31977s
 24388 13754 2475223.02   64  254 1349769.66 2933498.82   117%  1245 32077s
 24549 13838 1630737.52   90  193 1349769.66 2924696.69   117%  1246 32191s
 24770 13940 2115371.42   62  248 1349769.66 2912470.54   116%  1245 32272s
 24956 14046 1922931.23   70  166 1349769.66 2910345.40   116%  1247 32363s
 25106 14128 2817825.90   66  268 1349769.66 2910345.40   116%  1251 32462s
 25214 14174 2594873.79  101  207 1349769.66 2909896.87   116%  1257 32596s
 25425 14255 2769640.68   62  196 1349769.66 2904859.01   115%  1259 32726s
 25607 14333 2623797.97   72  194 1349769.66 2904859.01   115%  1261 32868s
 25768 14426     cutoff   87      1349769.66 2904859.01   115%  1266 33057s
 25866 14469     cutoff   88      1349769.66 2904859.01   115%  1271 33231s
 25989 14489 2090753.11  106  184 1349769.66 2895811.45   115%  1279 33381s
 26144 14538 2424045.56   90  117 1349769.66 2893094.93   114%  1282 33539s
 26353 14638 2689893.70   53  190 1349769.66 2893094.93   114%  1284 33672s
 26530 14710 2600744.24   59  190 1349769.66 2893094.93   114%  1289 33886s
 26659 14769 2378963.28   75  131 1349769.66 2890222.02   114%  1293 34116s
 26951 14919 2756855.25   57  244 1349769.66 2885445.00   114%  1295 34308s
 27287 15089 2475408.13   70  213 1349769.66 2882279.07   114%  1295 34486s
 27567 15231 2788783.62   64  214 1349769.66 2879631.79   113%  1296 34632s
 27783 15348 1866947.00  103  104 1349769.66 2878021.24   113%  1299 34812s
 28086 15507 2576311.30   59  221 1349769.66 2877285.78   113%  1300 34994s
 28489 15684 2291753.53   70  164 1349769.66 2874819.20   113%  1301 35210s
 29094 16005 2213732.54   75  159 1349769.66 2864750.31   112%  1294 35394s
 29622 16246 1799006.68   72  215 1349769.66 2857635.86   112%  1289 35570s
 29899 16371 2217864.16   76  157 1349769.66 2853593.93   111%  1297 35866s
 30286 16541 2060947.46   54  178 1349769.66 2850459.83   111%  1302 36145s
 30743 16751 1692407.17   58  216 1349769.66 2848416.75   111%  1302 36670s
 30745 16752 1891170.47  110  115 1349769.66 2848416.75   111%  1302 36678s
 30746 16753 2399072.14   78  189 1349769.66 2848416.75   111%  1302 36694s
 30747 16754 2671989.14   69  180 1349769.66 2848416.75   111%  1302 36700s
 30748 16754 1797087.62   78  225 1349769.66 2848416.75   111%  1302 36707s
 30749 16755 2714650.67   77  204 1349769.66 2848416.75   111%  1302 36711s
 30750 16756 1484863.34   89  231 1349769.66 2848416.75   111%  1302 36716s
 30751 16756 2467257.65   94  232 1349769.66 2848416.75   111%  1302 36720s
 30753 16758 2357915.70  102  252 1349769.66 2848416.75   111%  1301 36732s
 30754 16758 2750688.63   66  279 1349769.66 2848416.75   111%  1301 36742s
 30755 16759 2146966.57   89  277 1349769.66 2848416.75   111%  1301 36746s
 30757 16760 1863881.48  116  297 1349769.66 2848416.75   111%  1301 36755s
 30758 16761 2361431.13   85  297 1349769.66 2848416.75   111%  1301 36762s
 30759 16762 2538026.69  112  286 1349769.66 2848416.75   111%  1301 36770s
 30760 16762 2637381.36   90  283 1349769.66 2848416.75   111%  1301 36808s
 30761 16763 2506777.06   87  276 1349769.66 2848416.75   111%  1301 36812s
 30762 16764 2587583.21  103  281 1349769.66 2848416.75   111%  1301 36818s
 30763 16764 1611249.61  125  283 1349769.66 2848416.75   111%  1301 36823s
 30764 16765 2604066.71   76  289 1349769.66 2848416.75   111%  1301 36830s
 30765 16766 2552797.28   70  284 1349769.66 2848416.75   111%  1301 36851s
 30766 16766 2177560.60  103  276 1349769.66 2848416.75   111%  1301 36880s
 30767 16767 1864937.92   90  266 1349769.66 2848416.75   111%  1301 36897s
 30768 16768 2354576.18  124  275 1349769.66 2848416.75   111%  1301 36901s
 30769 16768 1958682.42  127  276 1349769.66 2848416.75   111%  1301 36922s
 30770 16769 2578763.08  109  287 1349769.66 2848416.75   111%  1301 36956s
 30771 16770 2623003.32   76  303 1349769.66 2848416.75   111%  1301 36972s
 30772 16770 2376906.67   97  299 1349769.66 2848416.75   111%  1301 37007s
 30773 16771 2486217.52   73  300 1349769.66 2848416.75   111%  1301 37026s
 30774 16772 2527820.93  109  306 1349769.66 2848416.75   111%  1301 37045s
 30775 16772 1961653.62   89  299 1349769.66 2848416.75   111%  1301 37064s
 30776 16773 2616961.67  100  308 1349769.66 2848416.75   111%  1300 37096s
 30777 16774 2564330.44   84  306 1349769.66 2848416.75   111%  1300 37114s
 30778 16774 2584176.97   87  288 1349769.66 2848416.75   111%  1300 37149s
 30779 16775 2085735.27  155  315 1349769.66 2848416.75   111%  1300 37169s
 30780 16776 2703246.87   76  316 1349769.66 2848416.75   111%  1300 37203s
 30781 16776 2450611.64   81  306 1349769.66 2848416.75   111%  1300 37220s
 30782 16777 1878100.47  122  301 1349769.66 2848416.75   111%  1300 37253s
 30783 16778 2066012.62   71  323 1349769.66 2848416.75   111%  1300 37270s
 30784 16778 1875938.25  139  311 1349769.66 2848416.75   111%  1300 37301s
 30785 16779 1899431.63   72  329 1349769.66 2848416.75   111%  1300 37317s
 30786 16780 2343972.61   86  310 1349769.66 2848416.75   111%  1300 37361s
 30787 16780 2720656.45   63  311 1349769.66 2848416.75   111%  1300 37368s
 30788 16781 2485058.02  109  318 1349769.66 2848416.75   111%  1300 37386s
 30789 16782 2217861.20   77  335 1349769.66 2848416.75   111%  1300 37422s
 30790 16782 2140370.59   78  329 1349769.66 2848416.75   111%  1300 37428s
 30791 16783 1503379.07  126  335 1349769.66 2848416.75   111%  1300 37432s
 30792 16784 2584751.94  104  324 1349769.66 2848416.75   111%  1300 37451s
 30793 16784 1382731.62  130  360 1349769.66 2848416.75   111%  1300 37490s
 30794 16785 1925992.33  121  366 1349769.66 2848416.75   111%  1300 37509s
 30795 16786 1988000.17   82  368 1349769.66 2848416.75   111%  1300 37539s
 30796 16786 1746176.49  119  367 1349769.66 2848416.75   111%  1300 37543s
 30797 16787 2074319.49  110  365 1349769.66 2848416.75   111%  1300 37559s
 30798 16788 1595634.64   77  330 1349769.66 2848416.75   111%  1300 37594s
 30799 16788 2626471.80   95  359 1349769.66 2848416.75   111%  1300 37599s
 30800 16789 2841334.56   63  354 1349769.66 2848416.75   111%  1299 37617s
 30801 16790 1633692.69  111  343 1349769.66 2848416.75   111%  1299 37637s
 30802 16790 2585544.17  110  346 1349769.66 2848416.75   111%  1299 37650s
 30803 16791 2410900.93  125  340 1349769.66 2848416.75   111%  1299 37671s
 30804 16792 1897025.62  157  342 1349769.66 2848416.75   111%  1299 37689s
 30805 16792 2406746.82  109  334 1349769.66 2848416.75   111%  1299 37707s
 30806 16793 1946195.61  106  326 1349769.66 2848416.75   111%  1299 37723s
 30807 16794 1887387.43  154  310 1349769.66 2848416.75   111%  1299 37746s
 30808 16794 2456725.30  100  311 1349769.66 2848416.75   111%  1299 37762s
 30809 16795 2233196.36  127  330 1349769.66 2848416.75   111%  1299 37789s
 30810 16796 2700940.14   81  343 1349769.66 2848416.75   111%  1299 37794s
 30811 16796 2213085.29  108  337 1349769.66 2848416.75   111%  1299 37797s
 30812 16797 1904142.59   65  368 1349769.66 2848416.75   111%  1299 37815s
 30813 16798 1782196.77  144  340 1349769.66 2848416.75   111%  1299 37833s
 30814 16798 2521670.19   79  371 1349769.66 2848416.75   111%  1299 37837s
 30815 16799 1920899.30   60  351 1349769.66 2848416.75   111%  1299 37853s
 30816 16800 1930834.10   85  354 1349769.66 2848416.75   111%  1299 37873s
 30817 16800 2013951.84  133  342 1349769.66 2848416.75   111%  1299 37891s
 30818 16801 2116776.84   78  351 1349769.66 2848416.75   111%  1299 37923s
 30819 16802 2087239.18   99  374 1349769.66 2848416.75   111%  1299 37939s
 30820 16802 2654028.12   69  339 1349769.66 2848416.75   111%  1299 37957s
 30821 16803 2301440.35   88  343 1349769.66 2848416.75   111%  1299 37973s
 30822 16804 2552912.57   99  376 1349769.66 2848416.75   111%  1299 37993s
 30823 16804 2225098.90   83  394 1349769.66 2848416.75   111%  1299 38009s
 30824 16805 2432433.63   64  363 1349769.66 2848416.75   111%  1298 38024s
 30825 16806 1676116.85   79  377 1349769.66 2848416.75   111%  1298 38039s
 30826 16806 1861489.82   82  362 1349769.66 2848416.75   111%  1298 38052s
 30827 16807 2648641.07   64  382 1349769.66 2848416.75   111%  1298 38067s
 30828 16808 1861628.04   91  391 1349769.66 2848416.75   111%  1298 38083s
 30829 16808 2361370.68   66  393 1349769.66 2848416.75   111%  1298 38098s
 30830 16809 2728295.88   76  392 1349769.66 2848416.75   111%  1298 38111s
 30831 16810 1959441.77  114  393 1349769.66 2848416.75   111%  1298 38125s
 30832 16810 1582257.86  165  394 1349769.66 2848416.75   111%  1298 38153s
 30833 16811 2799214.16   64  391 1349769.66 2848416.75   111%  1298 38168s
 30834 16812 1878384.64   68  398 1349769.66 2848416.75   111%  1298 38181s
 30835 16812 2514750.68  113  395 1349769.66 2848416.75   111%  1298 38196s
 30836 16813 2695906.95   68  395 1349769.66 2848416.75   111%  1298 38208s
 30837 16814 1547225.18   99  396 1349769.66 2848416.75   111%  1298 38222s
 30838 16814 2663741.38   63  395 1349769.66 2848416.75   111%  1298 38236s
 30839 16815 2428678.60   95  381 1349769.66 2848416.75   111%  1298 38252s
 30840 16816 1617535.84   92  383 1349769.66 2848416.75   111%  1298 38267s
 30841 16816 2204916.77   90  380 1349769.66 2848416.75   111%  1298 38313s
 30842 16817 1795199.58  117  380 1349769.66 2848416.75   111%  1298 38326s
 30843 16818 1692407.17   58  380 1349769.66 2848416.75   111%  1298 38383s
 30844 16821 2848416.75   57  321 1349769.66 2848416.75   111%  1246 38467s
 30846 16823 2848416.75   58  319 1349769.66 2848416.75   111%  1247 38519s
 30850 16825 2848416.75   59  341 1349769.66 2848416.75   111%  1248 38617s
 30854 16828 2805859.42   60  361 1349769.66 2848416.75   111%  1248 38698s
 30858 16831 2824543.34   60  338 1349769.66 2848416.75   111%  1249 38733s
 30862 16833 2813833.59   61  328 1349769.66 2848416.75   111%  1250 38775s
 30866 16833     cutoff   61      1349769.66 2848416.75   111%  1251 38809s
 30871 16835 2806684.88   62  318 1349769.66 2848416.75   111%  1251 38843s
 30876 16840 2783649.66   62  249 1349769.66 2848416.75   111%  1252 38885s
 30881 16838 2784674.39   63  325 1349769.66 2848416.75   111%  1252 38918s
 30887 16840 2708283.37   63  278 1349769.66 2848416.75   111%  1253 38948s
 30892 16848 2007745.02   64  301 1349769.66 2848416.75   111%  1254 38990s
 30897 16849 2772296.34   64  342 1349769.66 2848416.75   111%  1255 39025s
 30902 16855 2758473.03   65  341 1349769.66 2848416.75   111%  1256 39072s
 30908 16857 2689278.62   66  276 1349769.66 2848416.75   111%  1258 39121s
 30915 16863 2735432.59   67  331 1349769.66 2848416.75   111%  1258 39157s
 30923 16868 2714577.33   68  354 1349769.66 2848416.75   111%  1260 39194s
 30933 16863 2651486.34   69  318 1349769.66 2848416.75   111%  1261 39233s
 30944 16878 2269074.81   69  270 1349769.66 2848416.75   111%  1261 39270s
 30954 16883 2647405.61   70  323 1349769.66 2848416.75   111%  1262 39305s
 30966 16893 2627041.54   71  353 1349769.66 2848416.75   111%  1263 39353s
 30977 16900 2607806.02   72  325 1349769.66 2848416.75   111%  1264 39391s
 30989 16906 2583205.01   73  333 1349769.66 2848416.75   111%  1265 39440s
 30998 16909 2579157.62   74  318 1349769.66 2848416.75   111%  1267 39484s
 31012 16918 1553398.19   75  262 1349769.66 2848416.75   111%  1269 39539s
 31028 16928 2566889.56   76  314 1349769.66 2848416.75   111%  1269 39583s
 31044 16942 2564790.99   77  303 1349769.66 2848416.75   111%  1270 39620s
 31061 16946 2564303.76   78  309 1349769.66 2848416.75   111%  1271 39663s
 31078 16955 2521216.49   79  283 1349769.66 2848416.75   111%  1272 39716s
 31091 16959 2486378.95   80  337 1349769.66 2848416.75   111%  1274 39771s
 31120 16978 1845429.16   81  288 1349769.66 2848416.75   111%  1275 39823s
 31140 16983 2293235.62   83  327 1349769.66 2848416.75   111%  1276 39880s
 31161 16984 2284055.82   85  335 1349769.66 2848416.75   111%  1277 39948s
 31189 16989 2242217.98   87  355 1349769.66 2848416.75   111%  1279 40004s
 31208 17001 2216965.55   88  295 1349769.66 2848416.75   111%  1280 40068s
 31222 17008 2209545.27   91  349 1349769.66 2848416.75   111%  1283 40139s
 31240 17015 2204923.46   93  351 1349769.66 2848416.75   111%  1286 40214s
 31257 17028 2195875.19   95  348 1349769.66 2848416.75   111%  1289 40309s
 31279 17037 2138453.35   98  269 1349769.66 2848416.75   111%  1292 40374s
 31299 17042 2132268.39  100  265 1349769.66 2848416.75   111%  1295 40432s
 31332 17065 1617682.76  101  274 1349769.66 2848416.75   111%  1297 40529s
 31362 17088 1611989.22  105  270 1349769.66 2848416.75   111%  1299 40614s
 31398 17111 1603371.33  107  257 1349769.66 2848416.75   111%  1301 40725s
 31427 17118 1520441.70  110  252 1349769.66 2848416.75   111%  1304 40827s
 31460 17139 1479308.88  113  258 1349769.66 2848416.75   111%  1307 40922s
 31494 17148 1466488.50  115  262 1349769.66 2848416.75   111%  1309 41045s
 31542 17174 1466161.66  117  255 1349769.66 2848416.75   111%  1312 41156s
 31588 17173     cutoff  124      1349769.66 2848416.75   111%  1315 41291s
 31620 17173 1421900.07  131  212 1349769.66 2848416.75   111%  1319 41415s
 31680 17190     cutoff  138      1349769.66 2848416.75   111%  1323 41574s
 31744 17206     cutoff  144      1349769.66 2848416.75   111%  1325 41700s
 31811 17214     cutoff  155      1349769.66 2848416.75   111%  1328 41795s
 31867 17226 2557157.15   66  216 1349769.66 2848416.75   111%  1332 41897s
 31941 17263 2598535.10   68  230 1349769.66 2848416.75   111%  1335 41999s
 32019 17293 2470485.46   91  228 1349769.66 2848416.75   111%  1337 42112s
 32064 17316 2339734.67   99  239 1349769.66 2848416.75   111%  1343 42209s
 32147 17354 2243367.63  141  235 1349769.66 2848416.75   111%  1346 42334s
 32221 17392 2106550.44  170  200 1349769.66 2848416.75   111%  1349 42450s
 32300 17408 1930899.60  185  205 1349769.66 2848416.75   111%  1353 42626s
 32446 17458 1515503.81  204  169 1349769.66 2749432.39   104%  1354 42745s
 32511 17476 2514383.06   64  251 1349769.66 2749432.39   104%  1359 42867s
 32572 17513 2345073.14   81  239 1349769.66 2749432.39   104%  1364 43048s
 32651 17543 2193097.79   95  240 1349769.66 2749432.39   104%  1370 43288s
 32735 17561     cutoff  104      1349769.66 2749432.39   104%  1377 43417s
 32814 17598 1608311.25  120  138 1349769.66 2732375.93   102%  1382 43558s
 32907 17631 2356490.12   67  213 1349769.66 2731449.30   102%  1388 43719s
 33084 17693     cutoff   63      1349769.66 2708278.33   101%  1392 43936s
 33156 17713 2546619.65   65  295 1349769.66 2699099.36   100%  1398 44183s
 33248 17747 2051373.34   72  173 1349769.66 2699099.36   100%  1405 44422s
 33345 17804 1729288.79   89  126 1349769.66 2696166.83   100%  1411 44690s
 33550 17913 2006131.70   67  161 1349769.66 2685450.99  99.0%  1412 44962s
 33640 17931 2254554.57   65  220 1349769.66 2676018.50  98.3%  1421 45248s
 33758 17964 1947506.87   75  145 1349769.66 2676008.61  98.3%  1428 45463s
 33917 18018 2286684.02   71  238 1349769.66 2676008.61  98.3%  1435 45781s
 34026 18054 1759580.74   89   86 1349769.66 2664196.93  97.4%  1444 46077s
 34152 18080 1853218.09   78  158 1349769.66 2655700.25  96.8%  1453 46368s
 34344 18154 2539113.89   63  303 1349769.66 2653976.40  96.6%  1458 46670s
 34460 18205 1604253.89   68  188 1349769.66 2652102.40  96.5%  1467 47009s
 34654 18295 2407849.34   71  251 1349769.66 2637405.00  95.4%  1472 47234s
 34767 18352     cutoff  101      1349769.66 2636959.57  95.4%  1483 47562s
 34967 18415 2058069.72   80  253 1349769.66 2633377.58  95.1%  1489 47876s
 35257 18553 2014497.78   68  173 1349769.66 2625968.58  94.5%  1493 48146s
 35522 18650 2289903.94   67  223 1349769.66 2621364.12  94.2%  1498 48477s
 35727 18703 2328909.67   68  161 1349769.66 2609334.05  93.3%  1507 48933s
 35918 18785 1689357.53   87  170 1349769.66 2605839.94  93.1%  1517 49336s
 36097 18843     cutoff   90      1349769.66 2599734.14  92.6%  1528 49786s
 36336 18930 2116421.88  109  240 1349769.66 2596377.45  92.4%  1537 50259s
 36536 19014 1365502.30  127  245 1349769.66 2589942.92  91.9%  1548 50813s
 36751 19085 1586861.24  111  133 1349769.66 2581145.95  91.2%  1560 51315s
 36926 19154 1619382.36   81  151 1349769.66 2579690.29  91.1%  1575 51926s
 37142 19223 1395775.35   69  219 1349769.66 2575975.06  90.8%  1590 52557s
 37378 19312 1758521.66   78  217 1349769.66 2571282.29  90.5%  1602 52980s
 37584 19372     cutoff   88      1349769.66 2568499.51  90.3%  1616 53518s
 37910 19513 1943597.99  113  193 1349769.66 2567963.28  90.3%  1628 54158s
 38207 19607 1603286.23  115  183 1349769.66 2559757.49  89.6%  1641 54726s
 38514 19728 2193403.67   68  197 1349769.66 2551022.40  89.0%  1653 55372s
 38859 19852 1516121.78  102  147 1349769.66 2546673.28  88.7%  1666 56105s
 39162 19930     cutoff   68      1349769.66 2543892.85  88.5%  1680 56721s
 39486 20020 1624065.69   76  126 1349769.66 2537569.37  88.0%  1695 57571s
 39921 20144 2079379.48   70  199 1349769.66 2533502.94  87.7%  1706 58259s
 40332 20288 2228600.22   79  256 1349769.66 2521570.51  86.8%  1719 59074s
 40650 20389 1884459.53   91  163 1349769.66 2508956.80  85.9%  1734 60020s
 41088 20516 2344687.79   70  223 1349769.66 2502073.53  85.4%  1747 60856s
 41486 20676     cutoff   90      1349769.66 2498730.73  85.1%  1760 61565s
 41803 20787 1858923.31   95  279 1349769.66 2493804.80  84.8%  1776 62528s
 42160 20873     cutoff  104      1349769.66 2489470.44  84.4%  1791 63416s
 42548 21013 2357318.66   79  219 1349769.66 2486173.94  84.2%  1805 64250s
 42894 21079 2068554.12   75  197 1349769.66 2480104.05  83.7%  1821 65160s
 43275 21182 1567576.97   86  165 1349769.66 2477260.27  83.5%  1836 66060s
 43634 21292 2114159.40   95  212 1349769.66 2472276.58  83.2%  1851 67064s
 44017 21426 1452888.65  100  137 1349769.66 2467112.79  82.8%  1865 68012s
 44404 21524 1797446.84   90  219 1349769.66 2463101.01  82.5%  1879 68894s
 44748 21598     cutoff  101      1349769.66 2458471.35  82.1%  1894 69777s
 45228 21782 2310538.12   82  175 1349769.66 2454150.17  81.8%  1903 70762s
 45546 21835 2043203.47   72  195 1349769.66 2447305.21  81.3%  1920 71692s
 45882 21912 1597051.34  106  158 1349769.66 2443122.47  81.0%  1936 72506s
 46184 21974 1916567.11   82  144 1349769.66 2440108.67  80.8%  1952 73377s
 46534 22043 1432070.12   94  158 1349769.66 2436017.85  80.5%  1966 74338s
 46915 22128     cutoff   79      1349769.66 2430813.37  80.1%  1980 75377s
 47210 22198 1612415.37   84  150 1349769.66 2426994.29  79.8%  1999 76245s
 47549 22294 1357211.32   87  133 1349769.66 2422887.30  79.5%  2014 77286s
 47924 22365 2126447.12   81  234 1349769.66 2417036.89  79.1%  2028 78354s
 48249 22463 1738800.85   89  276 1349769.66 2416216.57  79.0%  2044 79364s
 48626 22528 1539433.44  110  140 1349769.66 2414520.14  78.9%  2058 80106s
 48999 22606 2304916.69   76  235 1349769.66 2411612.05  78.7%  2070 81012s
 49486 22756 2092171.47   85  256 1349769.66 2407177.63  78.3%  2079 81967s
 49827 22811 1645436.34   85  248 1349769.66 2401588.14  77.9%  2094 82998s
 50205 22922 2284116.59   70  210 1349769.66 2398960.15  77.7%  2106 84009s
 50560 23000 1457284.22   84  242 1349769.66 2395957.47  77.5%  2118 84844s
 50979 23130 2168604.84   97  217 1349769.66 2392272.90  77.2%  2127 85789s
 51344 23218     cutoff   84      1349769.66 2388613.45  77.0%  2140 86400s

Cutting planes:
  Gomory: 262
  Cover: 3
  Implied bound: 13
  Projected implied bound: 18
  Clique: 17
  MIR: 100
  Flow cover: 268
  Zero half: 7

Explored 51551 nodes (112545856 simplex iterations) in 86401.03 seconds
Thread count was 4 (of 16 available processors)

Solution count 10: 1.34977e+06 1.34977e+06 1.34977e+06 ... 1.23614e+06

Time limit reached
Best objective 1.349772367899e+06, best bound 2.387210314378e+06, gap 76.8602%

***
***  |- Calculation finished, timelimit reached 86,401.06 (86401.06) sec.))
***  |-----------------------------------------------------------------------------------------------------------------------
***
*****************************************************************************************************************************
#############################################################################################################################
###
### Results
###
### The objective of the solution is 1,349,772.3679 (1349772.3679) and is feasible with a Gap of 0.7686
###
### Service 24 (WAF7) is operated by 3 vessels from type 18 (PMax25)
###  |- Vessel  1 has the path [100, 276, -1]
###  |  100 (DEHAM Out@288.0) - 276 (ESALG In@496.0/Out@515.0) - -1 (DUMMY_END Ziel-Service 24)
###  |- Vessel  2 has the path [101, 277, -1]
###  |  101 (DEHAM Out@456.0) - 277 (ESALG In@664.0/Out@683.0) - -1 (DUMMY_END Ziel-Service 24)
###  |- Vessel 13 has the path [104, 291, 202, 114, 278, -1]
###  |  104 (DKAAR Out@220.0) - 291 (MAPTM In@379.0/Out@398.0) - 202 (MAPTM In@406.0/Out@427.0) - 114 (ESALG In@452.0/Out@464
###  |  .0) - 278 (ESALG In@832.0/Out@851.0) - -1 (DUMMY_END Ziel-Service 24)
###  |   |- and carried Demand  52,  484.0 containers from 202 to 114
###  |   |- and carried Demand  53,   18.0 containers from 202 to 114
###  |   |- and carried Demand 132,  214.0 containers from 202 to 278
###  |   |- and carried Demand 133,   10.0 containers from 202 to 278
###  |   |- and carried Demand 134,  484.0 containers from 202 to 114
###  |   |- and carried Demand 135,   18.0 containers from 202 to 114
###  |   |- and carried Demand 138,  214.0 containers from 291 to 278
###  |   |- and carried Demand 139,   10.0 containers from 291 to 278
###  |   |- and carried Demand 140,  484.0 containers from 291 to 114
###  |   |- and carried Demand 141,   18.0 containers from 291 to 114
###  |
### Service 121 (SAE) is operated by 2 vessels from type 30 (PMax35)
###  |- Vessel  9 has the path [1, 274, 199, 290, 200, 112, 284, 45, 302, -2]
###  |  1 (BEANR Out@66.0) - 274 (ESALG In@160.0/Out@179.0) - 199 (MAPTM In@207.0/Out@228.0) - 290 (MAPTM In@211.0/Out@230.0)
###  |   - 200 (MAPTM In@238.0/Out@259.0) - 112 (ESALG In@284.0/Out@296.0) - 284 (GWOXB In@463.0/Out@542.0) - 45 (CMDLA In@76
###  |  5.0/Out@811.0) - 302 (HNPCR In@1166.0/Out@1179.0) - -2 (DUMMY_END Ziel-Service 121)
###  |   |- and carried Demand   7,  161.0 containers from 199 to  45
###  |   |- and carried Demand   8,  580.0 containers from 199 to 112
###  |   |- and carried Demand  45,  161.0 containers from 200 to  45
###  |   |- and carried Demand  46,  580.0 containers from 200 to 112
###  |   |- and carried Demand 117,  580.0 containers from 199 to 112
###  |   |- and carried Demand 131,  580.0 containers from 200 to 112
###  |   |- and carried Demand 144,  161.0 containers from 290 to  45
###  |   |- and carried Demand 145,  580.0 containers from 290 to 112
###  |- Vessel 18 has the path [148, 315, 311, 301, -2]
###  |  148 (GBFXT Out@470.0) - 315 (USORF In@873.0/Out@881.0) - 311 (USMIA In@935.0/Out@943.0) - 301 (HNPCR In@998.0/Out@101
###  |  1.0) - -2 (DUMMY_END Ziel-Service 121)
###  |   |- and carried Demand 170,   10.0 containers from 311 to 301
###  |   |- and carried Demand 171,   75.0 containers from 315 to 301
###  |   |- and carried Demand 172,  114.0 containers from 315 to 301
###  |
### Service 177 (WCSA) is operated by 3 vessels from type 19 (PMax28)
###  |- Vessel  5 has the path [218, 275, 203, 234, 0]
###  |  218 (NLRTM Out@92.0) - 275 (ESALG In@328.0/Out@347.0) - 203 (MAPTM In@543.0/Out@564.0) - 234 (PABLB In@1304.0/Out@131
###  |  6.0) - 0 (DUMMY_END Ziel-Service 177)
###  |   |- and carried Demand 116,   42.0 containers from 218 to 275
###  |- Vessel  6 has the path [219, 135, 201, 113, 36, 240, 236, 0]
###  |  219 (NLRTM Out@260.0) - 135 (FRLEH In@279.0/Out@295.0) - 201 (MAPTM In@375.0/Out@396.0) - 113 (ESALG In@421.0/Out@433
###  |  .0) - 36 (CLLQN In@1240.0/Out@1258.0) - 240 (PECLL In@1398.71/Out@1400.71) - 236 (PABLB In@1640.0/Out@1652.0) - 0 (DU
###  |  MMY_END Ziel-Service 177)
###  |   |- and carried Demand  13,   74.0 containers from 219 to 113
###  |   |- and carried Demand  14,    5.0 containers from 219 to 135
###  |   |- and carried Demand  17,  484.0 containers from 201 to 113
###  |   |- and carried Demand  18,   18.0 containers from 201 to 113
###  |   |- and carried Demand  80,  194.0 containers from  36 to 236
###  |   |- and carried Demand  81,   20.0 containers from  36 to 236
###  |   |- and carried Demand  83,    5.0 containers from  36 to 236
###  |   |- and carried Demand 118,   74.0 containers from 219 to 113
###  |   |- and carried Demand 121,  484.0 containers from 201 to 113
###  |   |- and carried Demand 122,   18.0 containers from 201 to 113
###  |- Vessel  8 has the path [223, 138, 204, 235, 0]
###  |  223 (NLRTM Out@596.0) - 138 (FRLEH In@615.0/Out@631.0) - 204 (MAPTM In@711.0/Out@732.0) - 235 (PABLB In@1472.0/Out@14
###  |  84.0) - 0 (DUMMY_END Ziel-Service 177)
###  |
### Vessels not used in the solution: [3, 4, 7, 10, 11, 12, 14, 15, 16, 17]
###  |-----------------------------------------------------------------------------------------------------------------------
###
#############################################################################################################################

### Detialed variable overview

### All variables with value greater zero:
rho[24,18] = 1
rho[177,19] = 1
rho[121,30] = 1
eta[24,18,1] = 1
eta[24,18,2] = 1
eta[24,18,3] = 1
eta[177,19,1] = 1
eta[177,19,2] = 1
eta[177,19,3] = 1
eta[121,30,1] = 1
eta[121,30,2] = 1
y[1,276,-1] = 1
y[1,100,276] = 1
y[2,101,277] = 1
y[2,277,-1] = 1
y[5,234,0] = 1
y[5,275,203] = 0.999999
y[5,203,234] = 0.999999
y[5,218,275] = 0.999999
y[6,113,36] = 1
y[6,240,236] = 1
y[6,135,201] = 1
y[6,36,240] = 1
y[6,201,113] = 1
y[6,236,0] = 1
y[6,219,135] = 1
y[8,235,0] = 1
y[8,204,235] = 1
y[8,223,138] = 1
y[8,138,204] = 1
y[9,200,112] = 1
y[9,274,199] = 0.999999
y[9,290,200] = 1
y[9,1,274] = 0.999999
y[9,45,302] = 0.999999
y[9,199,290] = 0.999999
y[9,302,-2] = 1
y[9,284,45] = 0.999999
y[9,112,284] = 0.999999
y[13,104,291] = 1
y[13,291,202] = 1
y[13,114,278] = 1
y[13,202,114] = 1
y[13,278,-1] = 1
y[18,301,-2] = 1
y[18,148,315] = 1
y[18,315,311] = 1
y[18,311,301] = 1
xD[7,200,112] = 161
xD[7,290,200] = 161
xD[7,199,290] = 161
xD[7,284,45] = 161
xD[7,112,284] = 161
xD[8,200,112] = 580
xD[8,290,200] = 580
xD[8,199,290] = 580
xD[13,135,201] = 74
xD[13,201,113] = 74
xD[13,219,135] = 74
xD[14,219,135] = 5
xD[17,201,113] = 484
xD[18,201,113] = 18
xD[45,200,112] = 161
xD[45,284,45] = 161
xD[45,112,284] = 161
xD[46,200,112] = 580
xD[52,202,114] = 484
xD[53,202,114] = 18
xD[80,240,236] = 194
xD[80,36,240] = 194
xD[81,240,236] = 20
xD[81,36,240] = 20
xD[83,240,236] = 5
xD[83,36,240] = 5
xD[116,218,275] = 42
xD[117,200,112] = 580
xD[117,290,200] = 580
xD[117,199,290] = 580
xD[118,135,201] = 74
xD[118,201,113] = 74
xD[118,219,135] = 74
xD[121,201,113] = 484
xD[122,201,113] = 18
xD[131,200,112] = 580
xD[132,114,278] = 214
xD[132,202,114] = 214
xD[133,114,278] = 10
xD[133,202,114] = 10
xD[134,202,114] = 484
xD[135,202,114] = 18
xD[138,291,202] = 214
xD[138,114,278] = 214
xD[138,202,114] = 214
xD[139,291,202] = 10
xD[139,114,278] = 10
xD[139,202,114] = 10
xD[140,291,202] = 484
xD[140,202,114] = 484
xD[141,291,202] = 18
xD[141,202,114] = 18
xD[144,200,112] = 161
xD[144,290,200] = 161
xD[144,284,45] = 161
xD[144,112,284] = 161
xD[145,200,112] = 580
xD[145,290,200] = 580
xD[170,311,301] = 10
xD[171,315,311] = 75
xD[171,311,301] = 75
xD[172,315,311] = 114
xD[172,311,301] = 114
zE[36] = 1240
zE[45] = 764.999
zE[112] = 284
zE[113] = 421
zE[114] = 452
zE[135] = 279
zE[138] = 615
zE[199] = 207
zE[200] = 238
zE[201] = 375
zE[202] = 406
zE[203] = 543
zE[204] = 711
zE[234] = 1304
zE[235] = 1472
zE[236] = 1640
zE[240] = 1398.71
zE[274] = 160
zE[275] = 328
zE[276] = 496
zE[277] = 664
zE[278] = 832
zE[284] = 463
zE[290] = 211
zE[291] = 379
zE[301] = 998
zE[302] = 1166
zE[311] = 935
zE[315] = 873
zX[1] = 66
zX[36] = 1258
zX[45] = 810.999
zX[100] = 288
zX[101] = 456
zX[104] = 220
zX[112] = 296
zX[113] = 433
zX[114] = 464
zX[135] = 295
zX[138] = 631
zX[148] = 470
zX[199] = 228
zX[200] = 259
zX[201] = 396
zX[202] = 427
zX[203] = 564
zX[204] = 732
zX[218] = 92
zX[219] = 260
zX[223] = 596
zX[234] = 1316
zX[235] = 1484
zX[236] = 1652
zX[240] = 1400.71
zX[274] = 179
zX[275] = 347
zX[276] = 515
zX[277] = 683
zX[278] = 851
zX[284] = 542
zX[290] = 230
zX[291] = 398
zX[301] = 1011
zX[302] = 1179
zX[311] = 943
zX[315] = 881
w[6,(240,236)] = 125.884
w[6,(36,240)] = 140.711
phi[1] = 227
phi[2] = 227
phi[5] = 1224
phi[6] = 1392
phi[8] = 888
phi[9] = 1113
phi[13] = 631
phi[18] = 541

### All variables with value smaller zero:

### End

real	1442m11.378s
user	5466m28.584s
sys	296m14.846s
	Freetype 2.4.12 environment removed
	Python 3.6.0 environment removed
	Gurobi 8.1.0 environment removed
