	Freetype 2.4.12 environment established
		library to render fonts
	Python 3.6.0 environment established
	Gurobi 8.1.0 environment established
Instance LSFRP: LSFDRP_2_2_0_1_fr.p
Instance LSFDP: LSFDRP_2_2_0_1_fd_13.p

*****************************************************************************************************************************
*** Solve LSFDRP_2_2_0_1_fd_13 with Gurobi
***
*** Graph info
*** |S|: 18
*** |S^E|: 0
*** |S^C|: 0
*** |V|: 321
*** |A|: 9520
*** |A^i|: 9469
*** |A^f|: 51
*** |M|: 193
*** |E|: 22

Changed value of parameter TimeLimit to 86400.0
   Prev: 1e+100  Min: 0.0  Max: 1e+100  Default: 1e+100
Changed value of parameter Threads to 4
   Prev: 0  Min: 0  Max: 1024  Default: 0
Optimize a model with 91412 rows, 2029350 columns and 7453802 nonzeros
Variable types: 1857954 continuous, 171396 integer (171396 binary)
Coefficient statistics:
  Matrix range     [1e+00, 4e+03]
  Objective range  [2e+00, 1e+07]
  Bounds range     [1e+00, 1e+00]
  RHS range        [1e+00, 4e+03]
Presolve removed 55036 rows and 1697960 columns (presolve time = 5s) ...
Presolve removed 62474 rows and 1706691 columns (presolve time = 10s) ...
Warning: Failed to open log file 'gurobi.log'
Presolve removed 62486 rows and 1706880 columns (presolve time = 28s) ...
Presolve removed 62718 rows and 1706896 columns (presolve time = 30s) ...
Presolve removed 63782 rows and 1710087 columns (presolve time = 101s) ...
Presolve removed 63782 rows and 1710087 columns
Presolve time: 100.56s
Presolved: 27630 rows, 319263 columns, 1387957 nonzeros
Variable types: 147960 continuous, 171303 integer (171255 binary)

Deterministic concurrent LP optimizer: primal and dual simplex
Showing first log only...


Root simplex log...

Iteration    Objective       Primal Inf.    Dual Inf.      Time
       0   -9.1610275e+03   5.000000e+00   8.416794e+07    105s
   11915   -2.0830192e+07   0.000000e+00   1.597648e+10    106s
   23422   -1.3344307e+07   0.000000e+00   9.324926e+10    110s
Concurrent spin time: 0.00s

Solved with dual simplex

Root relaxation: objective 6.709129e+06, 15257 iterations, 8.76 seconds

    Nodes    |    Current Node    |     Objective Bounds      |     Work
 Expl Unexpl |  Obj  Depth IntInf | Incumbent    BestBd   Gap | It/Node Time

     0     0 6708912.10    0  162          - 6708912.10      -     -  117s
     0     0 6353047.57    0  118          - 6353047.57      -     -  130s
H    0     0                    -5497421.036 6353047.57   216%     -  131s
H    0     0                    -5189333.033 6353047.57   222%     -  133s
     0     0 6217669.43    0  142 -5189333.0 6217669.43   220%     -  134s
     0     0 6216272.81    0  145 -5189333.0 6216272.81   220%     -  134s
     0     0 6014844.24    0  195 -5189333.0 6014844.24   216%     -  142s
     0     0 6011149.48    0  209 -5189333.0 6011149.48   216%     -  145s
     0     0 6009949.46    0  155 -5189333.0 6009949.46   216%     -  146s
     0     0 6009897.33    0  155 -5189333.0 6009897.33   216%     -  146s
     0     0 5997036.72    0  203 -5189333.0 5997036.72   216%     -  153s
     0     0 5996314.09    0  198 -5189333.0 5996314.09   216%     -  155s
     0     0 5996314.09    0  198 -5189333.0 5996314.09   216%     -  155s
     0     0 5860597.80    0  149 -5189333.0 5860597.80   213%     -  162s
H    0     0                    -1437033.842 5860597.80   508%     -  163s
H    0     0                    -1437033.842 5860597.80   508%     -  164s
     0     0 5859941.72    0  147 -1437033.8 5859941.72   508%     -  165s
     0     0 5859372.93    0  150 -1437033.8 5859372.93   508%     -  166s
     0     0 5859034.51    0  145 -1437033.8 5859034.51   508%     -  167s
     0     0 5859012.99    0  145 -1437033.8 5859012.99   508%     -  167s
     0     0 5836102.64    0  233 -1437033.8 5836102.64   506%     -  173s
     0     0 5836099.43    0  235 -1437033.8 5836099.43   506%     -  175s
     0     0 5829350.11    0  246 -1437033.8 5829350.11   506%     -  180s
H    0     0                    598844.59762 5829350.11   873%     -  184s
     0     0 5829350.11    0  245 598844.598 5829350.11   873%     -  184s
     0     0 5829348.78    0  247 598844.598 5829348.78   873%     -  187s
     0     0 5829348.78    0  242 598844.598 5829348.78   873%     -  220s
H    0     0                    620940.03762 5829348.78   839%     -  233s
H    0     0                    620940.03972 5829348.78   839%     -  235s
     0     2 5829348.78    0  242 620940.040 5829348.78   839%     -  245s
     1     4 5116626.87    1  229 620940.040 5829244.36   839% 291860 2045s
     3     8 4556619.09    2  222 620940.040 5806376.83   835% 98440 2130s
     7    10 4456120.72    3  198 620940.040 5794917.88   833% 44994 2321s
    11    14 4218841.72    4  157 620940.040 5770212.81   829% 32566 2474s
    15    15 3705718.84    5  109 620940.040 5770090.06   829% 28540 2914s
    19    20 3897245.24    5  133 620940.040 5761516.02   828% 25004 3312s
    23    22 3886695.89    6  137 620940.040 5761516.02   828% 23005 3457s
    30    29 3793110.63    7  125 620940.040 5761516.02   828% 18033 3474s
    38    37 3738995.72    9  133 620940.040 5761516.02   828% 14439 3525s
    44    45 3723962.86   10  126 620940.040 5761516.02   828% 12720 3559s
    54    52 3636480.40   11  116 620940.040 5761516.02   828% 10548 3719s
    64    62 3620408.99   12  121 620940.040 5761516.02   828%  9434 3859s
H   66    63                    871170.53962 5761516.02   561%  9157 3860s
    68    65 3013405.84   13  123 871170.540 5761516.02   561%  9178 3950s
    78    76 3413784.89   13  102 871170.540 5761516.02   561%  8147 3976s
    93    91 2793162.32   15  122 871170.540 5761516.02   561%  7132 4087s
   108   105 3250529.19   16  124 871170.540 5761516.02   561%  6380 4131s
   128   120 3139925.06   17  125 871170.540 5761516.02   561%  5509 4170s
H  134   122                    871170.54068 5761516.02   561%  5306 4170s
   146   135 3075641.55   18   92 871170.541 5761516.02   561%  4951 4195s
   164   152 3062062.96   19  100 871170.541 5761516.02   561%  4491 4327s
   181   167 2908752.97   20   96 871170.541 5761516.02   561%  4338 4358s
   207   192 2837365.74   24   91 871170.541 5761516.02   561%  3856 4535s
   232   213 2572929.54   25   96 871170.541 5761516.02   561%  3573 4602s
   259   230 2554967.23   26   81 871170.541 5761516.02   561%  3310 4855s
H  281   247                    1094736.4242 5761516.02   426%  3066 4855s
   283   249 2392331.91   34   68 1094736.42 5761516.02   426%  3046 4895s
   333   293 2082184.50   46   66 1094736.42 5761516.02   426%  2650 4929s
   382   335 2001112.80   55   64 1094736.42 5761515.32   426%  2399 5232s
   431   368 5603214.94    7  127 1094736.42 5761515.32   426%  2205 5274s
   483   411 5240904.15   12  112 1094736.42 5761515.32   426%  2029 6006s
H  486   404                    1236136.1368 5761515.32   366%  2019 6006s
H  490   407                    1236137.3882 5761515.32   366%  2006 6006s
   504   411 5221716.92   15   82 1236137.39 5761515.32   366%  1978 6079s
   558   463 5039480.25   35   87 1236137.39 5761515.32   366%  1868 6297s
   622   514 4364629.50   49   91 1236137.39 5734410.94   364%  1774 6374s
   691   550 5550625.21    9  129 1236137.39 5734410.94   364%  1676 6438s
   734   570 5372683.57   12  126 1236137.39 5734410.94   364%  1648 6512s
   766   585 4637489.81   18   93 1236137.39 5734410.94   364%  1643 6585s
   821   617 3020265.75   38   97 1236137.39 5685480.37   360%  1605 6656s
   906   663 5409699.16   10  140 1236137.39 5685480.37   360%  1525 6724s
   973   714 5396495.87   10  142 1236137.39 5685480.37   360%  1478 6799s
  1009   725 infeasible   21      1236137.39 5685480.37   360%  1483 6912s
H 1111   796                    1236137.5647 5632815.34   356%  1417 6913s
  1112   797 4274856.47   51  242 1236137.56 5632815.34   356%  1416 7164s
  1114   798 2161493.84  132  123 1236137.56 5146105.99   316%  1413 7185s
  1115   799 3770892.01   30  138 1236137.56 5056836.96   309%  1412 7194s
  1116   800 3735703.73   33  150 1236137.56 5056836.96   309%  1411 7196s
  1117   800 1756280.29   53  155 1236137.56 5032324.15   307%  1410 7200s
  1118   801 4361800.47   50  201 1236137.56 4999417.45   304%  1408 7216s
  1121   803 4973874.76   18  205 1236137.56 4973874.76   302%  1405 7227s
  1122   804 3937835.30   24  154 1236137.56 4954460.91   301%  1403 7235s
  1124   805 4857316.21   32  167 1236137.56 4946852.20   300%  1401 7243s
  1125   806 4374378.15   24  167 1236137.56 4942795.09   300%  1400 7245s
  1127   807 1744449.97   67  183 1236137.56 4936996.19   299%  1397 7251s
  1132   810 4509451.88   42  192 1236137.56 4920749.52   298%  1391 7259s
  1133   811 4245881.60   17  272 1236137.56 4859632.80   293%  1390 7293s
  1134   812 4627363.55   23  233 1236137.56 4845011.15   292%  1389 7303s
  1135   812 1790410.74   60  254 1236137.56 4843056.32   292%  1387 7307s
  1136   813 2012445.16   39  261 1236137.56 4842735.72   292%  1386 7313s
  1137   814 4385614.53   46  282 1236137.56 4842403.75   292%  1385 7320s
  1138   814 2799341.22   60  271 1236137.56 4816737.69   290%  1384 7347s
  1139   815 4813968.96   15  251 1236137.56 4813968.96   289%  1382 7351s
  1141   816 4813213.10   14  266 1236137.56 4813213.10   289%  1380 7355s
  1143   818 2931948.39   41  271 1236137.56 4794924.59   288%  1378 7360s
  1144   818 2454629.61   86  284 1236137.56 4793555.85   288%  1376 7367s
  1145   819 4784420.00   15  271 1236137.56 4784420.00   287%  1375 7380s
  1146   820 2768699.30  104  283 1236137.56 4783432.57   287%  1374 7386s
  1147   820 1604122.88  146  286 1236137.56 4775220.78   286%  1373 7402s
  1148   821 4773929.56   37  271 1236137.56 4773929.56   286%  1372 7405s
  1149   822 3425954.22   40  256 1236137.56 4766836.27   286%  1370 7410s
  1150   822 2891266.35   65  272 1236137.56 4745493.67   284%  1369 7417s
  1152   824 3305147.36   53  247 1236137.56 4741930.07   284%  1367 7420s
  1153   824 1269901.56  140  257 1236137.56 4741548.76   284%  1366 7426s
  1154   825 2440258.27   86  268 1236137.56 4740349.37   283%  1364 7433s
  1155   826 4740109.02   12  286 1236137.56 4740109.02   283%  1363 7439s
  1156   826 4739854.06   11  290 1236137.56 4739854.06   283%  1362 7449s
  1157   827 4669768.83   15  297 1236137.56 4738542.62   283%  1361 7452s
  1158   828 4724682.32   37  292 1236137.56 4738063.42   283%  1360 7458s
  1159   828 2406446.09   93  297 1236137.56 4737120.41   283%  1359 7489s
  1160   829 4737120.41   12  297 1236137.56 4737120.41   283%  1357 7494s
  1161   830 4659345.93   32  297 1236137.56 4737120.41   283%  1356 7538s
  1162   833 4725294.11   11  225 1236137.56 4737081.91   283%  1415 7645s
  1164   837 4662494.82   12  234 1236137.56 4662494.82   277%  1420 7782s
  1168   839 4313696.22   13  163 1236137.56 4621843.91   274%  1473 7842s
  1172   842 2403493.51   13  213 1236137.56 4608293.59   273%  1490 7897s
  1176   845 4283842.62   14  156 1236137.56 4588961.59   271%  1514 7967s
  1180   847 4287401.04   14  139 1236137.56 4573486.09   270%  1528 7993s
  1184   853 4277834.56   15  145 1236137.56 4573486.09   270%  1537 8026s
  1191   849 4245409.10   16  141 1236137.56 4514545.43   265%  1557 8060s
  1195   850 4084865.63   16  137 1236137.56 4379410.36   254%  1567 8081s
  1201   851 4230686.38   17  131 1236137.56 4378142.03   254%  1576 8117s
  1209   858 4222772.94   18  141 1236137.56 4378142.03   254%  1586 8164s
  1216   859 4215387.36   19  143 1236137.56 4323176.79   250%  1611 8194s
  1222   862 4203009.52   20  139 1236137.56 4323176.79   250%  1629 8226s
  1231   869 4196174.50   21  134 1236137.56 4323176.79   250%  1641 8255s
  1241   872 4179044.09   22  134 1236137.56 4323176.79   250%  1657 8281s
  1251   879 4160812.17   23  133 1236137.56 4323176.79   250%  1671 8311s
H 1265   850                    1349767.0953 4323176.79   220%  1681 8336s
  1277   854 4059254.82   26  145 1349767.10 4323176.79   220%  1693 8359s
  1290   866 4016623.79   27  153 1349767.10 4323176.79   220%  1700 8385s
  1301   868 4040805.14   29  175 1349767.10 4323176.79   220%  1714 8411s
  1316   883 3839603.05   29  124 1349767.10 4323176.79   220%  1719 8441s
  1327   892 4036064.54   31  134 1349767.10 4323176.79   220%  1736 8478s
  1342   892 4005572.32   34  124 1349767.10 4323176.79   220%  1763 8508s
  1363   913 3962799.24   35  122 1349767.10 4323176.79   220%  1772 8540s
  1383   925 3926671.22   38  138 1349767.10 4323176.79   220%  1786 8612s
  1395   933 3922242.56   40  129 1349767.10 4323176.79   220%  1797 8645s
  1426   956 3831550.18   42  140 1349767.10 4323176.79   220%  1793 8681s
  1453   975 3829146.40   45  138 1349767.10 4323176.79   220%  1801 8712s
  1491   997 3819758.65   47  144 1349767.10 4323176.79   220%  1794 8744s
  1545  1032 3764616.11   50  129 1349767.10 4323176.79   220%  1776 8792s
  1585  1062 3699298.25   54  113 1349767.10 4323176.79   220%  1763 8822s
  1638  1089 3683882.72   58  102 1349767.10 4323176.79   220%  1747 8850s
  1711  1124 3671582.46   63  103 1349767.10 4323176.79   220%  1716 8874s
  1791  1146 3624378.22   67   83 1349767.10 4323176.79   220%  1670 8930s
  1865  1148 3584100.29   74   89 1349767.10 4323176.79   220%  1640 8960s
  1880  1154 3205870.87   78   88 1349767.10 4323176.79   220%  1655 8992s
  1913  1177 3170324.71   85   97 1349767.10 4323176.79   220%  1656 9025s
  1941  1196 2797416.88   90   81 1349767.10 4323176.79   220%  1665 9063s
  1976  1216 2293393.72   95   73 1349767.10 4323176.79   220%  1674 9096s
  2016  1239 3021442.10  103   88 1349767.10 4323176.79   220%  1665 9129s
  2111  1279 3005550.56  112   83 1349767.10 4323176.79   220%  1623 9175s
  2182  1327 2966580.77  120   94 1349767.10 4323176.79   220%  1604 9224s
H 2203  1294                    1349767.0956 4323176.79   220%  1619 9224s
  2255  1313 2951700.71  127   80 1349767.10 4323176.79   220%  1585 9261s
  2322  1347 2277974.54  140   69 1349767.10 4323176.79   220%  1577 9487s
H 2386  1294                    1349767.0971 4323176.79   220%  1551 9487s
H 2392  1258                    1349767.0976 4323176.79   220%  1552 9487s
  2393  1264     cutoff  172      1349767.10 4273399.03   217%  1551 9532s
  2494  1288 4138385.87   20  205 1349767.10 4273399.03   217%  1521 9642s
  2563  1324 3987326.66   28  187 1349767.10 4273399.03   217%  1493 9837s
  2602  1334 3925483.08   31  195 1349767.10 4273399.03   217%  1486 9884s
  2742  1389 2947684.83   47  103 1349767.10 4243584.27   214%  1446 9942s
  2829  1439 3863840.00   17  156 1349767.10 4243584.27   214%  1441 10004s
  2885  1446 3518566.07   20  148 1349767.10 4243584.27   214%  1444 10058s
  2972  1484 1423265.36   32  124 1349767.10 4217145.67   212%  1443 10133s
  3113  1521 3374867.92   27  216 1349767.10 4206552.63   212%  1414 10189s
  3169  1549 1589077.80   42  187 1349767.10 4202597.01   211%  1423 10264s
  3358  1706 3640600.60   28  201 1349767.10 4201061.55   211%  1385 10330s
  3521  1819 3497742.21   19  123 1349767.10 4195600.29   211%  1361 10396s
  3695  1954 2574893.72   75  113 1349767.10 4191035.39   211%  1343 10458s
  3828  2049 3496449.27   33  169 1349767.10 4191035.39   211%  1343 10531s
  3993  2130 2931641.76   77  115 1349767.10 4181800.36   210%  1329 10612s
  4312  2417 3483833.92   29  180 1349767.10 4179064.38   210%  1268 10700s
  4537  2609 3384476.69   23  179 1349767.10 4176657.87   209%  1242 10819s
  4876  2917 3985413.03   18  252 1349767.10 4176657.87   209%  1194 10894s
  5048  3053 3215426.46   29  157 1349767.10 4170982.05   209%  1181 10985s
  5193  3137 3236630.90   23  135 1349767.10 4159710.86   208%  1188 11081s
  5406  3304 3629207.11   30  131 1349767.10 4159710.86   208%  1183 11174s
  5496  3343 2982278.06   59  106 1349767.10 4158289.38   208%  1187 11284s
  5980  3758 3012711.29   27  115 1349767.10 4156656.59   208%  1124 11374s
  6165  3913 2834853.27   19  191 1349767.10 4150335.06   207%  1119 11490s
  6481  4186 3091372.36   44  102 1349767.10 4146072.40   207%  1093 11593s
  6687  4346 4042908.22   20  163 1349767.10 4146072.40   207%  1089 11703s
H 6824  4465                    1349767.0990 4146072.40   207%  1080 11703s
  6831  4470 3958948.20   20  182 1349767.10 4146072.40   207%  1083 11832s
  7108  4711 3375478.25   28  139 1349767.10 4146072.40   207%  1075 12000s
  7280  4845 2745501.53   44  111 1349767.10 4135992.90   206%  1091 12114s
  7682  5042 3326007.88   24  117 1349767.10 4132953.48   206%  1083 12243s
  7885  5192 3682556.78   20  163 1349767.10 4131289.97   206%  1085 12373s
  8138  5402 3722954.10   30  175 1349767.10 4124208.81   206%  1083 12505s
  8511  5744 3374634.12   46  109 1349767.10 4112568.94   205%  1067 12635s
  9058  6217 2258578.15  110   86 1349767.10 4112482.69   205%  1032 12915s
  9486  6510 2801494.38  110   79 1349767.10 4105125.83   204%  1014 13056s
  9906  6851 2918291.11   37  213 1349767.10 4100393.88   204%  1001 13210s
 10183  7082 1626092.73   44  148 1349767.10 4096730.84   204%  1004 13372s
 10484  7310 3790452.14   52  242 1349767.10 4096217.05   203%  1006 13640s

Cutting planes:
  Gomory: 5
  Implied bound: 1
  Projected implied bound: 1
  Clique: 2
  Flow cover: 8
  Zero half: 4

Explored 10490 nodes (10583226 simplex iterations) in 13645.08 seconds
Thread count was 4 (of 16 available processors)

Solution count 10: 1.34977e+06 1.34977e+06 1.34977e+06 ... 871171
No other solutions better than 1.34977e+06

Optimal solution found (tolerance 1.00e-04)
Best objective 1.349767099021e+06, best bound 1.349767099021e+06, gap 0.0000%

***
***  |- Calculation finished, took 13,645.11 (13645.11) sec.
***  |-----------------------------------------------------------------------------------------------------------------------
***
*****************************************************************************************************************************
#############################################################################################################################
###
### Results
###
### The objective of the solution is 1,349,767.099 (1349767.099) and is feasible with a Gap of 0.0
###
### Service 24 (WAF7) is operated by 3 vessels from type 18 (PMax25)
###  |- Vessel  1 has the path [100, 276, -1]
###  |  100 (DEHAM Out@288.0) - 276 (ESALG In@496.0/Out@515.0) - -1 (DUMMY_END Ziel-Service 24)
###  |- Vessel  2 has the path [101, 277, -1]
###  |  101 (DEHAM Out@456.0) - 277 (ESALG In@664.0/Out@683.0) - -1 (DUMMY_END Ziel-Service 24)
###  |- Vessel 13 has the path [104, 291, 202, 114, 278, -1]
###  |  104 (DKAAR Out@220.0) - 291 (MAPTM In@379.0/Out@398.0) - 202 (MAPTM In@406.0/Out@427.0) - 114 (ESALG In@452.0/Out@464
###  |  .0) - 278 (ESALG In@832.0/Out@851.0) - -1 (DUMMY_END Ziel-Service 24)
###  |   |- and carried Demand  52,  484.0 containers from 202 to 114
###  |   |- and carried Demand  53,   18.0 containers from 202 to 114
###  |   |- and carried Demand 132,  214.0 containers from 202 to 278
###  |   |- and carried Demand 133,   10.0 containers from 202 to 278
###  |   |- and carried Demand 134,  484.0 containers from 202 to 114
###  |   |- and carried Demand 135,   18.0 containers from 202 to 114
###  |   |- and carried Demand 138,  214.0 containers from 291 to 278
###  |   |- and carried Demand 139,   10.0 containers from 291 to 278
###  |   |- and carried Demand 140,  484.0 containers from 291 to 114
###  |   |- and carried Demand 141,   18.0 containers from 291 to 114
###  |
### Service 121 (SAE) is operated by 2 vessels from type 30 (PMax35)
###  |- Vessel  9 has the path [1, 274, 199, 290, 200, 112, 284, 45, 302, -2]
###  |  1 (BEANR Out@66.0) - 274 (ESALG In@160.0/Out@179.0) - 199 (MAPTM In@207.0/Out@228.0) - 290 (MAPTM In@211.0/Out@230.0)
###  |   - 200 (MAPTM In@238.0/Out@259.0) - 112 (ESALG In@284.0/Out@296.0) - 284 (GWOXB In@463.0/Out@542.0) - 45 (CMDLA In@76
###  |  5.0/Out@811.0) - 302 (HNPCR In@1166.0/Out@1179.0) - -2 (DUMMY_END Ziel-Service 121)
###  |   |- and carried Demand   7,  161.0 containers from 199 to  45
###  |   |- and carried Demand   8,  580.0 containers from 199 to 112
###  |   |- and carried Demand  45,  161.0 containers from 200 to  45
###  |   |- and carried Demand  46,  580.0 containers from 200 to 112
###  |   |- and carried Demand 117,  580.0 containers from 199 to 112
###  |   |- and carried Demand 131,  580.0 containers from 200 to 112
###  |   |- and carried Demand 144,  161.0 containers from 290 to  45
###  |   |- and carried Demand 145,  580.0 containers from 290 to 112
###  |- Vessel 18 has the path [148, 315, 311, 301, -2]
###  |  148 (GBFXT Out@470.0) - 315 (USORF In@873.0/Out@881.0) - 311 (USMIA In@935.0/Out@943.0) - 301 (HNPCR In@998.0/Out@101
###  |  1.0) - -2 (DUMMY_END Ziel-Service 121)
###  |   |- and carried Demand 170,   10.0 containers from 311 to 301
###  |   |- and carried Demand 171,   75.0 containers from 315 to 301
###  |   |- and carried Demand 172,  114.0 containers from 315 to 301
###  |
### Service 177 (WCSA) is operated by 3 vessels from type 19 (PMax28)
###  |- Vessel  5 has the path [218, 275, 203, 234, 0]
###  |  218 (NLRTM Out@92.0) - 275 (ESALG In@328.0/Out@347.0) - 203 (MAPTM In@543.0/Out@564.0) - 234 (PABLB In@1304.0/Out@131
###  |  6.0) - 0 (DUMMY_END Ziel-Service 177)
###  |   |- and carried Demand 116,   42.0 containers from 218 to 275
###  |- Vessel  6 has the path [219, 135, 201, 113, 36, 240, 236, 0]
###  |  219 (NLRTM Out@260.0) - 135 (FRLEH In@279.0/Out@295.0) - 201 (MAPTM In@375.0/Out@396.0) - 113 (ESALG In@421.0/Out@433
###  |  .0) - 36 (CLLQN In@1240.0/Out@1258.0) - 240 (PECLL In@1398.71/Out@1400.71) - 236 (PABLB In@1640.0/Out@1652.0) - 0 (DU
###  |  MMY_END Ziel-Service 177)
###  |   |- and carried Demand  13,   74.0 containers from 219 to 113
###  |   |- and carried Demand  14,    5.0 containers from 219 to 135
###  |   |- and carried Demand  17,  484.0 containers from 201 to 113
###  |   |- and carried Demand  18,   18.0 containers from 201 to 113
###  |   |- and carried Demand  80,  194.0 containers from  36 to 236
###  |   |- and carried Demand  81,   20.0 containers from  36 to 236
###  |   |- and carried Demand  83,    5.0 containers from  36 to 236
###  |   |- and carried Demand 118,   74.0 containers from 219 to 113
###  |   |- and carried Demand 121,  484.0 containers from 201 to 113
###  |   |- and carried Demand 122,   18.0 containers from 201 to 113
###  |- Vessel  8 has the path [223, 138, 204, 235, 0]
###  |  223 (NLRTM Out@596.0) - 138 (FRLEH In@615.0/Out@631.0) - 204 (MAPTM In@711.0/Out@732.0) - 235 (PABLB In@1472.0/Out@14
###  |  84.0) - 0 (DUMMY_END Ziel-Service 177)
###  |
### Vessels not used in the solution: [3, 4, 7, 10, 11, 12, 14, 15, 16, 17]
###  |-----------------------------------------------------------------------------------------------------------------------
###
#############################################################################################################################

### Detialed variable overview

### All variables with value greater zero:
rho[24,18] = 1
rho[177,19] = 1
rho[121,30] = 1
eta[24,18,1] = 1
eta[24,18,2] = 1
eta[24,18,3] = 1
eta[177,19,1] = 1
eta[177,19,2] = 1
eta[177,19,3] = 1
eta[121,30,1] = 1
eta[121,30,2] = 1
y[1,276,-1] = 1
y[1,100,276] = 1
y[2,101,277] = 1
y[2,277,-1] = 1
y[5,234,0] = 1
y[5,275,203] = 1
y[5,203,234] = 1
y[5,218,275] = 1
y[6,113,36] = 1
y[6,240,236] = 1
y[6,135,201] = 1
y[6,36,240] = 1
y[6,201,113] = 1
y[6,236,0] = 1
y[6,219,135] = 1
y[8,235,0] = 1
y[8,204,235] = 1
y[8,223,138] = 1
y[8,138,204] = 1
y[9,200,112] = 1
y[9,274,199] = 1
y[9,290,200] = 1
y[9,1,274] = 1
y[9,45,302] = 1
y[9,199,290] = 1
y[9,302,-2] = 1
y[9,284,45] = 1
y[9,112,284] = 1
y[13,104,291] = 1
y[13,291,202] = 1
y[13,114,278] = 1
y[13,202,114] = 1
y[13,278,-1] = 1
y[18,301,-2] = 1
y[18,148,315] = 1
y[18,315,311] = 1
y[18,311,301] = 1
xD[7,200,112] = 161
xD[7,290,200] = 161
xD[7,199,290] = 161
xD[7,284,45] = 161
xD[7,112,284] = 161
xD[8,200,112] = 580
xD[8,290,200] = 580
xD[8,199,290] = 580
xD[13,135,201] = 74
xD[13,201,113] = 74
xD[13,219,135] = 74
xD[14,219,135] = 5
xD[17,201,113] = 484
xD[18,201,113] = 18
xD[45,200,112] = 161
xD[45,284,45] = 161
xD[45,112,284] = 161
xD[46,200,112] = 580
xD[52,202,114] = 484
xD[53,202,114] = 18
xD[80,240,236] = 194
xD[80,36,240] = 194
xD[81,240,236] = 20
xD[81,36,240] = 20
xD[83,240,236] = 5
xD[83,36,240] = 5
xD[116,218,275] = 42
xD[117,200,112] = 580
xD[117,290,200] = 580
xD[117,199,290] = 580
xD[118,135,201] = 74
xD[118,201,113] = 74
xD[118,219,135] = 74
xD[121,201,113] = 484
xD[122,201,113] = 18
xD[131,200,112] = 580
xD[132,114,278] = 214
xD[132,202,114] = 214
xD[133,114,278] = 10
xD[133,202,114] = 10
xD[134,202,114] = 484
xD[135,202,114] = 18
xD[138,291,202] = 214
xD[138,114,278] = 214
xD[138,202,114] = 214
xD[139,291,202] = 10
xD[139,114,278] = 10
xD[139,202,114] = 10
xD[140,291,202] = 484
xD[140,202,114] = 484
xD[141,291,202] = 18
xD[141,202,114] = 18
xD[144,200,112] = 161
xD[144,290,200] = 161
xD[144,284,45] = 161
xD[144,112,284] = 161
xD[145,200,112] = 580
xD[145,290,200] = 580
xD[170,311,301] = 10
xD[171,315,311] = 75
xD[171,311,301] = 75
xD[172,315,311] = 114
xD[172,311,301] = 114
zE[36] = 1240
zE[45] = 765
zE[112] = 284
zE[113] = 421
zE[114] = 452
zE[135] = 279
zE[138] = 615
zE[199] = 207
zE[200] = 238
zE[201] = 375
zE[202] = 406
zE[203] = 543
zE[204] = 711
zE[234] = 1304
zE[235] = 1472
zE[236] = 1640
zE[240] = 1398.71
zE[274] = 160
zE[275] = 328
zE[276] = 496
zE[277] = 664
zE[278] = 832
zE[284] = 463
zE[290] = 211
zE[291] = 379
zE[301] = 998
zE[302] = 1166
zE[311] = 935
zE[315] = 873
zX[1] = 66
zX[36] = 1258
zX[45] = 811
zX[100] = 288
zX[101] = 456
zX[104] = 220
zX[112] = 296
zX[113] = 433
zX[114] = 464
zX[135] = 295
zX[138] = 631
zX[148] = 470
zX[199] = 228
zX[200] = 259
zX[201] = 396
zX[202] = 427
zX[203] = 564
zX[204] = 732
zX[218] = 92
zX[219] = 260
zX[223] = 596
zX[234] = 1316
zX[235] = 1484
zX[236] = 1652
zX[240] = 1400.71
zX[274] = 179
zX[275] = 347
zX[276] = 515
zX[277] = 683
zX[278] = 851
zX[284] = 542
zX[290] = 230
zX[291] = 398
zX[301] = 1011
zX[302] = 1179
zX[311] = 943
zX[315] = 881
w[6,(240,236)] = 125.884
w[6,(36,240)] = 140.711
phi[1] = 227
phi[2] = 227
phi[5] = 1224
phi[6] = 1392
phi[8] = 888
phi[9] = 1113
phi[13] = 631
phi[18] = 541

### All variables with value smaller zero:

### End

real	229m35.059s
user	835m57.948s
sys	73m46.642s
	Freetype 2.4.12 environment removed
	Python 3.6.0 environment removed
	Gurobi 8.1.0 environment removed
