	Freetype 2.4.12 environment established
		library to render fonts
	Python 3.6.0 environment established
	Gurobi 8.1.0 environment established
Instance LSFRP: LSFDRP_2_2_0_1_fr.p
Instance LSFDP: LSFDRP_2_2_0_1_fd_28.p

*****************************************************************************************************************************
*** Solve LSFDRP_2_2_0_1_fd_28 with Gurobi
***
*** Graph info
*** |S|: 18
*** |S^E|: 0
*** |S^C|: 0
*** |V|: 321
*** |A|: 9520
*** |A^i|: 9469
*** |A^f|: 51
*** |M|: 193
*** |E|: 22

Changed value of parameter TimeLimit to 86400.0
   Prev: 1e+100  Min: 0.0  Max: 1e+100  Default: 1e+100
Changed value of parameter Threads to 4
   Prev: 0  Min: 0  Max: 1024  Default: 0
Optimize a model with 91412 rows, 2029350 columns and 7453802 nonzeros
Variable types: 1857954 continuous, 171396 integer (171396 binary)
Coefficient statistics:
  Matrix range     [1e+00, 4e+03]
  Objective range  [2e+00, 2e+07]
  Bounds range     [1e+00, 1e+00]
  RHS range        [1e+00, 4e+03]
Presolve removed 52754 rows and 1636338 columns (presolve time = 5s) ...
Presolve removed 62474 rows and 1706691 columns (presolve time = 10s) ...
Warning: Failed to open log file 'gurobi.log'
Presolve removed 62486 rows and 1706880 columns (presolve time = 30s) ...
Presolve removed 63782 rows and 1710087 columns (presolve time = 105s) ...
Presolve removed 63782 rows and 1710087 columns
Presolve time: 104.75s
Presolved: 27630 rows, 319263 columns, 1387957 nonzeros
Variable types: 147960 continuous, 171303 integer (171255 binary)

Deterministic concurrent LP optimizer: primal and dual simplex
Showing first log only...


Root simplex log...

Iteration    Objective       Primal Inf.    Dual Inf.      Time
       0   -9.1610275e+03   5.000000e+00   7.465522e+07    110s
    6842   -4.8858061e+03   1.495698e+00   1.790690e+11    110s
   12047   -2.1299440e+07   0.000000e+00   2.926507e+10    111s
   24717   -1.5342931e+07   0.000000e+00   6.301918e+10    115s
Concurrent spin time: 0.00s

Solved with dual simplex

Root relaxation: objective 6.709129e+06, 15449 iterations, 9.13 seconds

    Nodes    |    Current Node    |     Objective Bounds      |     Work
 Expl Unexpl |  Obj  Depth IntInf | Incumbent    BestBd   Gap | It/Node Time

     0     0 6708912.10    0  159          - 6708912.10      -     -  122s
     0     0 6353047.57    0  119          - 6353047.57      -     -  136s
H    0     0                    -1.11391e+07 6353047.57   157%     -  137s
H    0     0                    -1.06191e+07 6353047.57   160%     -  138s
     0     0 6195552.39    0  142 -1.062e+07 6195552.39   158%     -  139s
     0     0 6185257.89    0  141 -1.062e+07 6185257.89   158%     -  144s
     0     0 6179194.33    0  152 -1.062e+07 6179194.33   158%     -  148s
     0     0 6177703.18    0  154 -1.062e+07 6177703.18   158%     -  148s
     0     0 6176087.48    0  154 -1.062e+07 6176087.48   158%     -  150s
     0     0 6176087.48    0  154 -1.062e+07 6176087.48   158%     -  150s
     0     0 6150859.86    0  222 -1.062e+07 6150859.86   158%     -  158s
     0     0 6147666.52    0  205 -1.062e+07 6147666.52   158%     -  160s
     0     0 6146260.12    0  219 -1.062e+07 6146260.12   158%     -  161s
     0     0 6146260.12    0  219 -1.062e+07 6146260.12   158%     -  161s
     0     0 6143688.30    0  220 -1.062e+07 6143688.30   158%     -  166s
H    0     0                    -1.04346e+07 6143688.30   159%     -  166s
H    0     0                    -8862988.918 6143688.30   169%     -  172s
     0     0 6142364.12    0  221 -8862988.9 6142364.12   169%     -  173s
     0     0 6142182.51    0  229 -8862988.9 6142182.51   169%     -  174s
     0     0 6141151.27    0  231 -8862988.9 6141151.27   169%     -  177s
H    0     0                    -8862988.914 6141151.27   169%     -  179s
     0     0 6141151.27    0  231 -8862988.9 6141151.27   169%     -  180s
     0     0 6141151.27    0  228 -8862988.9 6141151.27   169%     -  218s
H    0     0                    -2012979.794 6141151.27   405%     -  238s
H    0     0                    579751.15869 6141151.27   959%     -  240s
H    0     0                    579751.15878 6141151.27   959%     -  240s
     0     2 6141151.27    0  228 579751.159 6141151.27   959%     -  243s
     1     3 6035347.94    1  149 579751.159 6035347.94   941%  1444  259s
     3     3 6015348.50    2  219 579751.159 6015348.50   938%  1236  272s
     6     4 6014276.09    3  212 579751.159 6014276.09   937%   737  283s
     9     6 4165777.76    4  162 579751.159 5804610.72   901%  2839  409s
    13     7 4126308.11    5  201 579751.159 5794986.98   900%  3610  450s
    17    11 3627306.43    6  144 579751.159 5794879.49   900%  3064  712s
    21    15 3612394.71    7  144 579751.159 5794879.49   900%  4724 2631s
    28    22 3563648.45    9  147 579751.159 5794879.49   900% 12402 4998s
    34    27 3494925.86   11  190 579751.159 5794879.49   900% 28246 6883s
    39    28 3493477.48   12  151 579751.159 5794879.49   900% 30315 6979s
    47    36 3428254.99   14  162 579751.159 5794879.49   900% 25367 7046s
    57    45 3373019.02   17  145 579751.159 5794879.49   900% 21272 7129s
    69    59 3337098.62   20  144 579751.159 5794879.49   900% 17962 7175s
H   73    63                    593415.46659 5794879.49   877% 17027 7175s
    82    69 3309105.89   23  130 593415.467 5794879.49   877% 15332 7213s
    97    82 3308779.16   24  128 593415.467 5794879.49   877% 13168 7262s
   117    99 3246108.22   29  120 593415.467 5794879.49   877% 11053 7433s
H  123    98                    1044476.5155 5794879.49   455% 10535 7433s
   133   107 3214375.37   35  117 1044476.52 5794879.49   455%  9811 7492s
   148   124 3117444.41   41  106 1044476.52 5794879.49   455%  9061 7537s
   165   125 3063897.95   48  119 1044476.52 5794879.49   455%  8291 7600s
H  174   129                    1077142.9930 5794879.49   438%  7892 7600s
   185   141 2937518.87   55  114 1077142.99 5794879.49   438%  7523 7711s
   217   170 2044145.62   63  139 1077142.99 5794879.49   438%  6585 7919s
   241   179 1945518.18   71  136 1077142.99 5794879.49   438%  5985 7971s
   278   202 1920050.23   84  106 1077142.99 5794879.49   438%  5273 8052s
   302   217     cutoff   96      1077142.99 5794879.49   438%  4967 8167s
   333   246 1441096.68  112   83 1077142.99 5794879.49   438%  4605 8234s
   366   264     cutoff  128      1077142.99 5785171.69   437%  4265 8300s
   387   282 5379079.67   11  124 1077142.99 5785171.69   437%  4132 8532s
   404   281 5029876.70   14  128 1077142.99 5785171.69   437%  4037 8673s
   419   297 4543412.68   18  107 1077142.99 5785171.69   437%  4002 9148s
H  420   292                    1261434.8481 5785171.69   359%  3992 9149s
   423   286 4535948.02   19  107 1261434.85 5785171.69   359%  4000 9229s
   455   313 3760997.61   26   80 1261434.85 5785171.69   359%  3818 9317s
   481   340 3633085.37   39  112 1261434.85 5785171.69   359%  3710 9570s
H  494   340                    1261435.2002 5785171.69   359%  3633 9570s
   506   348 2099464.75   53   92 1261435.20 5785171.69   359%  3622 9680s
   539   376 3868498.64   16  143 1261435.20 5578363.93   342%  3528 9805s
   551   380 3719734.90   18  127 1261435.20 5578363.93   342%  3556 9887s
   576   401 3529232.47   23  124 1261435.20 5578363.93   342%  3489 10033s
   602   420 1960440.83   30   83 1261435.20 5578363.93   342%  3495 10167s
   643   454 1780047.60   31   66 1261435.20 5529185.83   338%  3368 10254s
   682   476 4373825.73   14  141 1261435.20 5529185.83   338%  3244 10466s
   704   491 3671349.40   24  124 1261435.20 5529185.83   338%  3287 10585s
   791   564 2586090.01   36   49 1261435.20 5525744.43   338%  3027 10699s
   866   610 4494815.48   17   97 1261435.20 5525743.60   338%  2878 10849s
   929   662 4451634.54   18  102 1261435.20 5525743.60   338%  2753 10962s
   988   706 4066263.86   27  113 1261435.20 5525743.60   338%  2664 11074s
  1123   817 1797383.74   55  228 1261435.20 5525743.60   338%  2420 11329s
  1125   818 1896496.52   43  130 1261435.20 5146105.99   308%  2416 11341s
  1126   819 3874163.94   22  132 1261435.20 5033153.50   299%  2414 11351s
  1128   820 4895123.13   25  145 1261435.20 4895123.13   288%  2410 11356s
  1129   821 3046430.41   47  145 1261435.20 4692330.53   272%  2407 11366s
  1131   822 3233678.31   25  166 1261435.20 4681861.75   271%  2403 11370s
  1132   823 4655476.60   27  150 1261435.20 4658447.22   269%  2401 11378s
  1133   824 3046430.41   47  152 1261435.20 4599113.11   265%  2399 11381s
  1134   824 4564904.12   15  159 1261435.20 4564904.12   262%  2397 11385s
  1136   826 4504055.25   16  162 1261435.20 4504055.25   257%  2393 11402s
  1137   826 4497684.28   21  177 1261435.20 4497684.28   257%  2391 11405s
  1140   828 4455328.13   15  179 1261435.20 4455328.13   253%  2384 11414s
  1141   829 1617692.41   91  171 1261435.20 4443708.67   252%  2382 11426s
  1143   830 1802312.32   51  175 1261435.20 4437182.76   252%  2378 11432s
  1144   831 1907996.10   17  192 1261435.20 4436586.25   252%  2376 11442s
  1145   832 4007642.63   30  192 1261435.20 4435672.25   252%  2374 11449s
  1146   832 3411149.83   23  195 1261435.20 4435488.93   252%  2372 11472s
  1147   833 2972139.80   48  195 1261435.20 4435488.93   252%  2370 11476s
  1148   834 2147078.06   64  195 1261435.20 4435488.93   252%  2368 11494s
  1149   837 4435304.45   16  193 1261435.20 4435304.45   252%  2391 11536s
  1151   841 4423542.87   17  156 1261435.20 4423542.87   251%  2390 11581s
  1155   843 4417041.36   18  156 1261435.20 4417041.36   250%  2390 11647s
  1159   846 4206010.53   18  177 1261435.20 4409687.54   250%  2402 11688s
  1163   849 4401192.17   19  189 1261435.20 4401192.17   249%  2398 11706s
  1167   851 4225092.92   19  148 1261435.20 4401192.17   249%  2394 11737s
  1171   855 4400186.57   20  182 1261435.20 4401192.17   249%  2393 11756s
  1176   856 4365606.24   20  178 1261435.20 4400186.57   249%  2393 11792s
H 1179   814                    1355289.0117 4400186.57   225%  2389 11792s
  1181   811 4400186.57   21  182 1355289.01 4400186.57   225%  2397 11813s
  1188   817 4376674.07   22  165 1355289.01 4400135.03   225%  2398 11833s
  1193   824 4329574.45   22  200 1355289.01 4376669.59   223%  2409 11861s
  1198   824 4370279.56   23  152 1355289.01 4370279.56   222%  2409 11883s
  1206   829 4365546.03   24  154 1355289.01 4365593.57   222%  2411 11920s
H 1209   790                    1355289.0124 4365593.57   222%  2410 11920s
  1212   797 4342877.13   25  176 1355289.01 4365593.57   222%  2425 11975s
  1219   798 4341418.42   26  174 1355289.01 4365593.57   222%  2442 12009s
  1228   803 4332972.63   27  155 1355289.01 4365593.57   222%  2458 12036s
  1241   814 4265875.39   27  169 1355289.01 4365593.57   222%  2453 12063s
  1249   819 4327221.17   28  154 1355289.01 4365593.57   222%  2459 12110s
  1256   826 4247724.73   28  158 1355289.01 4365593.57   222%  2481 12140s
  1267   832 4260559.40   29  144 1355289.01 4365593.57   222%  2491 12169s
H 1274   794                    1355289.0135 4365593.57   222%  2502 12202s
H 1278   762                    1355289.0142 4365593.57   222%  2514 12202s
  1284   768 4269968.80   30  153 1355289.01 4365593.57   222%  2516 12261s
  1295   779 4220117.87   31  159 1355289.01 4365593.57   222%  2536 12306s
  1305   784 3994631.55   32  117 1355289.01 4365593.57   222%  2565 12340s
  1312   784 4165307.44   33  171 1355289.01 4365593.57   222%  2578 12373s
  1323   793 4129600.56   35  162 1355289.01 4365593.57   222%  2592 12401s
  1336   805 4053980.39   36  160 1355289.01 4365593.57   222%  2603 12432s
  1346   807 4053980.39   37  160 1355289.01 4365593.57   222%  2617 12489s
  1357   818 3924576.62   38  134 1355289.01 4365593.57   222%  2639 12529s
  1379   827 3839367.21   39  189 1355289.01 4365593.57   222%  2635 12626s
  1396   838 3926421.10   42  184 1355289.01 4365593.57   222%  2642 12670s
  1422   849 3924779.13   44  162 1355289.01 4365593.57   222%  2638 12718s
H 1428   819                    1355289.0145 4365593.57   222%  2640 12718s
  1439   824 3880809.69   47  163 1355289.01 4365593.57   222%  2646 12753s
  1466   833 3870031.87   49  176 1355289.01 4365593.57   222%  2634 12802s
  1479   836 3869147.36   51  177 1355289.01 4365593.57   222%  2649 12855s
  1504   851 3858828.84   54  198 1355289.01 4365593.57   222%  2662 12920s
  1518   862 3855056.40   55  194 1355289.01 4365593.57   222%  2670 12963s
  1554   877 3825339.40   57  167 1355289.01 4365593.57   222%  2656 13014s
  1585   893 2827822.62   58  142 1355289.01 4365593.57   222%  2664 13053s
  1623   915 3786462.09   60  167 1355289.01 4365593.57   222%  2639 13137s
H 1640   881                    1355289.3866 4365593.57   222%  2640 13137s
  1661   900 3782581.34   62  165 1355289.39 4365593.57   222%  2622 13189s
  1700   912 3776361.43   64  157 1355289.39 4365593.57   222%  2621 13241s
  1756   934 3762434.99   68  153 1355289.39 4365593.57   222%  2604 13294s
  1785   952 3736159.74   72  125 1355289.39 4365593.57   222%  2600 13338s
  1842   977 3684525.65   74  137 1355289.39 4365593.57   222%  2578 13427s
  1935  1008 3685876.25   80  140 1355289.39 4365593.57   222%  2511 13522s
  1954  1017 3673045.48   83  134 1355289.39 4365593.57   222%  2529 13873s
  2019  1049 2797252.30   85   99 1355289.39 4365593.57   222%  2491 13960s
  2113  1064 3644029.60   89  183 1355289.39 4365593.57   222%  2442 14049s
  2169  1081 3616078.37   91  138 1355289.39 4365593.57   222%  2413 14265s
  2255  1088 3606259.54   95  143 1355289.39 4365593.57   222%  2384 14334s
  2367  1141 3536591.33  102  143 1355289.39 4365593.57   222%  2318 14392s
  2550  1244 3449856.74  110  140 1355289.39 4365593.57   222%  2185 14468s
  2637  1266 2631957.94  124   93 1355289.39 4317135.27   219%  2165 14556s
  2663  1265 1866721.24  124   77 1355289.39 4317135.27   219%  2177 14628s
  2813  1310 2175607.75  150   86 1355289.39 4294090.80   217%  2127 14702s
  3047  1458 3072613.06   25  135 1355289.39 4294090.80   217%  2012 14776s
  3240  1576 1960457.83   31  108 1355289.39 4260451.07   214%  1929 14865s
  3355  1660 3996738.05   30  132 1355289.39 4256370.45   214%  1902 14941s
  3487  1776 3700363.38   50  112 1355289.39 4253985.87   214%  1869 15043s
  3685  1945 4008318.52   27  165 1355289.39 4253985.87   214%  1816 15120s
  3776  2011 3294180.45   54  165 1355289.39 4228666.61   212%  1811 15225s
  3939  2135 3578434.84   25  155 1355289.39 4225424.81   212%  1788 15311s
  4036  2219 2672349.32   46   97 1355289.39 4225058.87   212%  1790 15420s
  4133  2286 3701125.73   37  130 1355289.39 4223918.04   212%  1791 15520s
  4225  2359 3136816.03   52  122 1355289.39 4223614.70   212%  1798 15634s
  4371  2486 3347630.59   33  124 1355289.39 4216900.51   211%  1787 15902s
  4511  2592 3194613.04   41  128 1355289.39 4214546.30   211%  1766 16012s
  4813  2829 2831976.09   42  132 1355289.39 4207353.50   210%  1708 16126s
  5015  2970 3561901.45   30  126 1355289.39 4206010.53   210%  1695 16251s
  5137  3033 3734740.04   38  170 1355289.39 4206010.53   210%  1700 16375s
  5282  3156 3636478.81   48  169 1355289.39 4206010.53   210%  1700 16499s
  5502  3350 3564072.70   59  161 1355289.39 4202212.96   210%  1680 16633s
  5753  3555 3865145.13   21  174 1355289.39 4198583.56   210%  1652 16767s
  5882  3670 3419939.72   31  128 1355289.39 4198583.56   210%  1656 16912s
  6254  4025 2329267.09  166  118 1355289.39 4192434.81   209%  1598 17060s
  6457  4192 3065627.59   36  151 1355289.39 4185735.95   209%  1596 17233s
  6686  4369 3955541.86   33  145 1355289.39 4171938.16   208%  1599 17404s
  7137  4689 3589439.79   85  130 1355289.39 4165246.53   207%  1548 17593s
  7531  5019 2286876.02   93   52 1355289.39 4160687.59   207%  1518 17762s
  7860  5242 3614181.57   55  188 1355289.39 4155982.14   207%  1500 17934s
  8166  5502 2526665.27   33  133 1355289.39 4152192.34   206%  1480 18108s
  8602  5844 2466357.80   35  136 1355289.39 4138149.54   205%  1450 18317s
  8941  6127 2285424.62   37  136 1355289.39 4135909.86   205%  1442 18511s
  9370  6497 2308254.90   40  103 1355289.39 4135909.86   205%  1415 18726s
  9431  6543 2255535.64   41   79 1355289.39 4122761.01   204%  1423 19327s
  9675  6733 4003315.17   35  159 1355289.39 4115623.84   204%  1421 19571s
 10024  7031 2721015.97   59  114 1355289.39 4108339.22   203%  1415 19804s
 10363  7331 2906898.27   37  228 1355289.39 4098190.48   202%  1403 19862s
 10365  7332 2448095.62   37  114 1355289.39 4098190.48   202%  1402 19873s
 10366  7333 1687959.47   77  127 1355289.39 4098190.48   202%  1402 19883s
 10367  7334 3131930.05   24  135 1355289.39 4098190.48   202%  1402 19887s
 10368  7334 3627111.11   34  143 1355289.39 4098190.48   202%  1402 19890s
 10370  7336 1582163.76  107  158 1355289.39 4098190.48   202%  1402 19896s
 10371  7336 2784345.08   85  163 1355289.39 4098190.48   202%  1402 19906s
 10374  7338 2503210.08   76  170 1355289.39 4098190.48   202%  1401 19914s
 10375  7339 2553591.20  122  165 1355289.39 4098190.48   202%  1401 19925s
 10378  7341 1599767.59  143  174 1355289.39 4098190.48   202%  1401 19954s
 10379  7342 2360118.83   47  175 1355289.39 4098190.48   202%  1401 19956s
 10380  7342 3431372.87   41  178 1355289.39 4098190.48   202%  1400 19960s
 10381  7343 2387204.94  145  182 1355289.39 4098190.48   202%  1400 19969s
 10382  7344 1718746.37  128  169 1355289.39 4098190.48   202%  1400 19973s
 10383  7344 1569166.74  146  174 1355289.39 4098190.48   202%  1400 19977s
 10384  7345 1836524.17  107  171 1355289.39 4098190.48   202%  1400 19985s
 10386  7346 1771379.65  123  177 1355289.39 4098190.48   202%  1400 19990s
 10387  7347 2648060.17   55  171 1355289.39 4098190.48   202%  1399 20011s
 10388  7348 2608125.12   91  171 1355289.39 4098190.48   202%  1399 20015s
 10389  7348 2094858.19   84  171 1355289.39 4098190.48   202%  1399 20028s
 10390  7350 1599385.27  178  228 1355289.39 4098190.48   202%  1403 20033s
 10392  7351 3264365.05   32  114 1355289.39 4098190.48   202%  1402 20043s
 10393  7352 1633274.83  139  116 1355289.39 4098190.48   202%  1402 20049s
 10394  7353 3299301.60   35  135 1355289.39 4098190.48   202%  1402 20050s
 10396  7354 3410763.83   56  140 1355289.39 4098190.48   202%  1402 20062s
 10397  7355 2909158.51   74  165 1355289.39 4098190.48   202%  1402 20066s
 10399  7356 2039469.26   43  161 1355289.39 4098190.48   202%  1401 20071s
 10400  7357 1664698.75  112  168 1355289.39 4098190.48   202%  1401 20085s
 10403  7359 1686454.86   85  169 1355289.39 4098190.48   202%  1401 20090s
 10404  7359 2435592.74  130  164 1355289.39 4098190.48   202%  1401 20099s
 10405  7360 3686125.31   48  162 1355289.39 4098190.48   202%  1401 20102s
 10406  7361 1695344.74   93  157 1355289.39 4098190.48   202%  1401 20109s
 10407  7361 1937969.00   74  164 1355289.39 4098190.48   202%  1400 20114s
 10408  7362 3550679.69   41  168 1355289.39 4098190.48   202%  1400 20121s
 10410  7363 2703956.07   58  175 1355289.39 4098190.48   202%  1400 20132s
 10411  7364 3121578.55   69  184 1355289.39 4098190.48   202%  1400 20136s
 10412  7365 3692628.73   52  164 1355289.39 4098190.48   202%  1400 20152s
 10413  7365 1774189.38  157  162 1355289.39 4098190.48   202%  1400 20155s
 10414  7366 1811727.89  152  162 1355289.39 4098190.48   202%  1399 20167s
 10415  7370 4098190.48   36  164 1355289.39 4098190.48   202%  1402 20214s
 10417  7373 4098190.48   37  173 1355289.39 4098190.48   202%  1403 20249s
 10421  7376 4098190.48   38  162 1355289.39 4098190.48   202%  1404 20280s
 10425  7378 4098190.48   38  178 1355289.39 4098190.48   202%  1404 20306s
 10429  7381 4098190.48   39  163 1355289.39 4098190.48   202%  1405 20323s
 10433  7384 3483497.17   39  120 1355289.39 4098190.48   202%  1406 20345s
 10437  7388 4098190.48   40  142 1355289.39 4098190.48   202%  1408 20365s
 10443  7388 4098190.48   41  141 1355289.39 4098190.48   202%  1408 20390s
 10447  7389 2632991.05   41  123 1355289.39 4098190.48   202%  1410 20408s
 10451  7393 4098190.48   42  156 1355289.39 4098190.48   202%  1410 20428s
 10458  7392 4049328.88   43  126 1355289.39 4098190.48   202%  1412 20449s
 10463  7399 4089103.90   43  139 1355289.39 4098190.48   202%  1412 20460s
 10469  7405 4087984.78   44  139 1355289.39 4098190.48   202%  1412 20476s
 10475  7409 3004124.44   44  110 1355289.39 4098190.48   202%  1414 20506s
 10480  7411 4076154.19   45  146 1355289.39 4098190.48   202%  1416 20527s
 10486  7413 3985663.84   46  126 1355289.39 4098190.48   202%  1419 20542s
 10496  7419 3974428.37   47  126 1355289.39 4098190.48   202%  1419 20570s
 10508  7427 3946855.51   48  127 1355289.39 4098190.48   202%  1421 20600s
 10520  7432 3949505.63   50  118 1355289.39 4098190.48   202%  1424 20614s
 10535  7437 1933040.19   51   92 1355289.39 4098190.48   202%  1424 20632s
 10550  7444 3884891.59   53  107 1355289.39 4098190.48   202%  1424 20647s
 10567  7444 3854645.46   54  115 1355289.39 4098190.48   202%  1424 20664s
 10588  7455 3831599.75   55  136 1355289.39 4098190.48   202%  1424 20676s
 10607  7463 2846645.54   55  115 1355289.39 4098190.48   202%  1423 20689s
 10629  7462 3829713.19   56  115 1355289.39 4098190.48   202%  1422 20702s
 10656  7467 3739260.80   57  107 1355289.39 4098190.48   202%  1420 20729s
 10686  7461 3723821.92   58  104 1355289.39 4098190.48   202%  1419 20746s
 10697  7468 2522390.56   58   97 1355289.39 4098190.48   202%  1420 20767s
 10705  7475 3691190.64   59  130 1355289.39 4098190.48   202%  1421 20784s
 10722  7476 1688065.45   60  103 1355289.39 4098190.48   202%  1421 20807s
 10741  7496 3679608.34   61  143 1355289.39 4098190.48   202%  1421 20830s
 10757  7502 3677382.62   62  142 1355289.39 4098190.48   202%  1423 20852s
 10776  7515 3674560.21   63  116 1355289.39 4098190.48   202%  1423 20875s
 10807  7520 3667205.91   64  115 1355289.39 4098190.48   202%  1423 20907s
 10842  7533 3656572.15   66  121 1355289.39 4098190.48   202%  1421 20930s
 10880  7546 3650375.09   67  116 1355289.39 4098190.48   202%  1420 20960s
 10924  7550 3650375.09   69  113 1355289.39 4098190.48   202%  1418 20983s
 10963  7567 3641613.31   72  110 1355289.39 4098190.48   202%  1417 21019s
 11002  7581 3621389.18   75  121 1355289.39 4098190.48   202%  1416 21041s
 11061  7593 3619226.43   78  106 1355289.39 4098190.48   202%  1412 21065s
 11086  7603 3589756.74   82  114 1355289.39 4098190.48   202%  1413 21096s
 11112  7618 3583346.45   85  117 1355289.39 4098190.48   202%  1414 21127s
 11138  7636 3542177.74   87  105 1355289.39 4098190.48   202%  1416 21155s
 11169  7658 2271871.68   90  125 1355289.39 4098190.48   202%  1417 21180s
 11211  7680 3265472.77   93  149 1355289.39 4098190.48   202%  1416 21206s
 11294  7731 3256349.47   96  142 1355289.39 4098190.48   202%  1410 21232s
 11370  7750 3240147.37   99  140 1355289.39 4098190.48   202%  1405 21306s
 11392  7759 3216227.21  102  142 1355289.39 4098190.48   202%  1407 21336s
 11459  7800 3079644.13  110  118 1355289.39 4098190.48   202%  1405 21364s
 11529  7827 2188497.00  119   94 1355289.39 4098190.48   202%  1403 21392s
 11627  7859 1574853.90  136  107 1355289.39 4098190.48   202%  1399 21424s
 11706  7891 1702165.10  152   94 1355289.39 4098190.48   202%  1396 21452s
 11855  7934 1747196.20  191   78 1355289.39 4098190.48   202%  1384 21485s
 11912  7942 4084239.12   46  129 1355289.39 4098190.48   202%  1382 21521s
 11992  7988 3555658.17   56  116 1355289.39 4098190.48   202%  1379 21662s
 12070  8028 3513190.30   59  118 1355289.39 4098190.48   202%  1375 21709s
 12138  8057 2822706.26   82   94 1355289.39 4098190.48   202%  1375 21748s
 12200  8084 4038854.82   43  136 1355289.39 4098190.48   202%  1373 21800s
 12235  8104 3660162.23   53  126 1355289.39 4098190.48   202%  1377 21846s
 12279  8133 3537059.51   62  120 1355289.39 4098190.48   202%  1379 21897s
 12325  8163 1849971.49   75   90 1355289.39 4098190.48   202%  1381 21996s
 12396  8194 3853842.18   56  147 1355289.39 4098190.48   202%  1382 22043s
 12451  8229 3238979.99   73  157 1355289.39 4098190.48   202%  1385 22096s
 12543  8253 2042955.73  112   75 1355289.39 4098190.48   202%  1386 22149s
 12614  8273 2697229.95   59  128 1355289.39 4098190.48   202%  1390 22212s
 12739  8317 2604972.23   61  126 1355289.39 4098190.48   202%  1388 22273s
 12852  8363 3542473.25   52  142 1355289.39 4098190.48   202%  1388 22333s
 13039  8452 3033716.96   69  100 1355289.39 4098190.48   202%  1378 22395s
 13142  8499 3273767.74   55  136 1355289.39 4098190.48   202%  1375 22453s
 13334  8601 1731174.54   89   90 1355289.39 4079770.83   201%  1366 22681s
 13441  8650 2049828.89   76   54 1355289.39 4079577.39   201%  1361 22753s
 13655  8692 3857654.80   55  141 1355289.39 4075120.91   201%  1353 22827s
 13771  8725 3632132.58   63  112 1355289.39 4075120.91   201%  1354 22902s
 13950  8820 2945383.39   72  102 1355289.39 4075120.91   201%  1350 22985s
 14023  8854 3603850.36   80  113 1355289.39 4075120.91   201%  1354 23083s
 14202  8946 3579395.41   86  122 1355289.39 4075120.91   201%  1352 23179s
 14247  8973 2193698.26   87  114 1355289.39 4075120.91   201%  1352 23272s
 14420  9060 3111329.18  100  102 1355289.39 4075120.91   201%  1351 23355s
 14620  9146 3108946.99  101  100 1355289.39 4075120.91   201%  1344 23450s
 14799  9226 2203996.16  115   95 1355289.39 4075120.91   201%  1346 23542s
 15096  9340 2055166.01  153   90 1355289.39 4041816.47   198%  1340 23646s
 15434  9420 2291158.39   52  127 1355289.39 4034277.42   198%  1329 23748s
 15805  9566 3614124.64   43   94 1355289.39 4031369.09   197%  1313 23855s
 16124  9720 3794276.19   47  166 1355289.39 4030820.90   197%  1303 23966s
 16388  9823 2926889.78   55  103 1355289.39 4018792.96   197%  1300 24071s
 16766  9983 2243594.71   96   94 1355289.39 4015871.84   196%  1289 24174s
 17150 10113 3049783.71   77  113 1355289.39 4010962.22   196%  1278 24288s
 17443 10261 3651134.64   55   93 1355289.39 3996902.04   195%  1274 24413s
 17818 10359 3692269.59   60  143 1355289.39 3984866.45   194%  1270 24545s
 18180 10538 3644014.01   49  119 1355289.39 3981586.24   194%  1264 24685s
 18477 10670 2184379.47   56  117 1355289.39 3976136.79   193%  1262 24828s
 18747 10765 3122051.44   51  119 1355289.39 3968337.32   193%  1265 24976s
 19226 10903 3534371.83   55  131 1355289.39 3958762.29   192%  1256 25120s
 19484 11027 3452343.58   47  123 1355289.39 3954462.21   192%  1257 25261s
 19958 11221 3879747.40   64  150 1355289.39 3949068.70   191%  1249 25405s
 20531 11470 2589402.18   63  115 1355289.39 3946971.91   191%  1235 25574s
 21126 11758 2883204.45   66  228 1355289.39 3945818.76   191%  1223 27488s
 21128 11759 2799246.36   89  112 1355289.39 3945818.76   191%  1223 27499s
 21129 11760 1817046.41   50  173 1355289.39 3945818.76   191%  1223 27511s
 21130 11761 3568139.24   78  191 1355289.39 3945818.76   191%  1222 27515s
 21131 11761 3162858.54   91  216 1355289.39 3829359.70   183%  1222 27520s
 21133 11763 3005972.04   92  223 1355289.39 3770506.19   178%  1222 27529s
 21134 11763 1540328.67   80  253 1355289.39 3725121.97   175%  1222 27538s
 21135 11764 3094223.81   92  232 1355289.39 3701400.02   173%  1222 27544s
 21136 11765 2498632.53   66  241 1355289.39 3696607.86   173%  1222 27548s
 21138 11766 3006492.19   78  245 1355289.39 3692140.90   172%  1222 27554s
 21139 11767 3175898.29   60  257 1355289.39 3684638.26   172%  1222 27590s
 21142 11769 3537404.45   73  241 1355289.39 3672471.96   171%  1222 27610s
 21143 11769 3318933.59   57  240 1355289.39 3653172.25   170%  1222 27650s
 21144 11770 2452628.02   77  248 1355289.39 3652703.53   170%  1222 27667s
 21145 11771 2021092.75   74  248 1355289.39 3638969.28   169%  1222 27703s
 21146 11771 3204994.84   54  250 1355289.39 3637609.59   168%  1222 27719s
H21146 11182                    1355289.3872 3637609.59   168%  1222 27738s
 21147 11183 1809651.36   99  256 1355289.39 3618221.70   167%  1221 27757s
 21149 11184 2081744.47   83  302 1355289.39 3607617.61   166%  1221 27761s
 21150 11185 1524156.19   78  307 1355289.39 3606923.17   166%  1221 27778s
 21151 11186 3307270.94   61  281 1355289.39 3597311.34   165%  1221 27811s
 21153 11187 2472980.29   82  279 1355289.39 3592910.99   165%  1221 27830s
 21154 11188 2935111.77   58  279 1355289.39 3590914.11   165%  1221 27863s
 21155 11188 3142104.88   58  243 1355289.39 3521381.13   160%  1221 27888s
 21156 11189 2848819.96   70  261 1355289.39 3518865.06   160%  1221 27907s
 21157 11190 3514097.48   56  267 1355289.39 3514097.48   159%  1221 27941s
 21158 11190 3203011.86   84  260 1355289.39 3511710.74   159%  1221 27959s
 21159 11191 2172991.34   85  259 1355289.39 3505188.63   159%  1221 27996s
 21161 11192 2571727.50   79  283 1355289.39 3495920.51   158%  1221 28005s
 21162 11193 1906263.97   86  270 1355289.39 3494248.66   158%  1221 28023s
 21163 11194 3484886.14   51  265 1355289.39 3484886.14   157%  1221 28057s
 21164 11194 3025116.49   75  267 1355289.39 3481634.35   157%  1220 28060s
 21165 11195 1772742.39  107  273 1355289.39 3480677.68   157%  1220 28076s
 21166 11196 1628478.30  102  283 1355289.39 3478966.12   157%  1220 28121s
 21168 11197 1780863.75  125  280 1355289.39 3471398.38   156%  1220 28127s
 21169 11198 3471000.78   86  286 1355289.39 3471000.78   156%  1220 28145s
 21170 11198 1794127.57  119  289 1355289.39 3468496.60   156%  1220 28182s
 21171 11199 2074741.06   96  295 1355289.39 3461604.04   155%  1220 28185s
 21172 11200 2315997.74  116  280 1355289.39 3459608.99   155%  1220 28202s
 21173 11200 1700272.69  115  284 1355289.39 3459087.35   155%  1220 28234s
 21174 11201 2760034.45  106  285 1355289.39 3457290.52   155%  1220 28253s
 21175 11202 3453690.14   67  283 1355289.39 3453690.14   155%  1220 28284s
 21176 11202 3452682.97   55  283 1355289.39 3452682.97   155%  1220 28300s
 21177 11203 2238939.16   82  282 1355289.39 3449385.04   155%  1220 28328s
 21178 11204 2700218.19   67  278 1355289.39 3448853.33   154%  1220 28341s
 21179 11204 1739304.45  120  291 1355289.39 3446916.55   154%  1220 28368s
 21180 11205 2234726.82   92  291 1355289.39 3443680.59   154%  1220 28370s
 21181 11206 1505800.91  136  291 1355289.39 3441921.38   154%  1220 28384s
 21182 11206 2514036.53   78  296 1355289.39 3440970.57   154%  1219 28414s
 21183 11207 1694602.85   88  289 1355289.39 3439103.41   154%  1219 28427s
 21184 11208 3161319.33   85  287 1355289.39 3437620.00   154%  1219 28462s
 21185 11208 2344615.81  123  283 1355289.39 3437532.78   154%  1219 28474s
 21186 11209 2485793.44   83  291 1355289.39 3437035.38   154%  1219 28491s
 21187 11210 2506973.41  101  287 1355289.39 3434218.05   153%  1219 28505s
 21188 11210 2974707.31   78  281 1355289.39 3433753.07   153%  1219 28526s
 21189 11211 3433006.51   56  289 1355289.39 3433006.51   153%  1219 28541s
 21190 11212 3428976.09   53  293 1355289.39 3428976.09   153%  1219 28567s
 21191 11212 1955779.74   66  296 1355289.39 3428702.16   153%  1219 28581s
 21192 11213 1798722.10   87  284 1355289.39 3407129.15   151%  1219 28636s
 21194 11214 3211204.97   83  281 1355289.39 3401453.45   151%  1219 28656s
 21195 11215 3252304.38   64  297 1355289.39 3389590.48   150%  1219 28692s
 21196 11216 1604896.57   71  313 1355289.39 3388007.47   150%  1219 28710s
 21197 11216 1766666.59   73  237 1355289.39 3357450.16   148%  1219 28774s
 21198 11217 2427195.45  110  289 1355289.39 3351234.46   147%  1219 28777s
 21199 11218 2808552.88   77  292 1355289.39 3350695.12   147%  1218 28795s
 21200 11218 2226120.71   54  279 1355289.39 3320982.62   145%  1218 28834s
 21201 11219 2985475.03   49  299 1355289.39 3318616.08   145%  1218 28850s
 21202 11220 2376714.13   66  282 1355289.39 3287566.15   143%  1218 28884s
 21203 11220 3283339.45   51  289 1355289.39 3283339.45   142%  1218 28886s
 21204 11221 2320109.29   88  298 1355289.39 3282761.10   142%  1218 28902s
 21205 11222 3278385.69   65  288 1355289.39 3278385.69   142%  1218 28935s
 21206 11222 1519749.85  117  305 1355289.39 3276589.67   142%  1218 28951s
 21207 11223 2353501.16  118  296 1355289.39 3274357.24   142%  1218 28984s
 21208 11224 3113366.99   59  298 1355289.39 3270540.61   141%  1218 28986s
 21209 11224 1958060.43   77  294 1355289.39 3269047.06   141%  1218 29001s
 21210 11225 2158040.11   91  293 1355289.39 3262355.65   141%  1218 29040s
 21211 11226 2890977.36   65  304 1355289.39 3260593.41   141%  1218 29054s
 21212 11226 3256259.48   65  304 1355289.39 3256259.48   140%  1218 29072s
 21213 11227 1774865.51  115  318 1355289.39 3255892.16   140%  1218 29087s
 21214 11228 3251986.28   58  322 1355289.39 3251986.28   140%  1218 29107s
 21215 11228 3250455.04   45  344 1355289.39 3250455.04   140%  1218 29123s
 21216 11229 1560199.92  113  350 1355289.39 3249271.79   140%  1218 29141s
 21217 11230 3150663.33   55  343 1355289.39 3248696.03   140%  1217 29157s
 21218 11230 2854914.82   62  330 1355289.39 3242200.16   139%  1217 29193s
 21219 11231 1871486.30   68  319 1355289.39 3240602.36   139%  1217 29208s
 21220 11232 3236677.69   71  326 1355289.39 3236677.69   139%  1217 29241s
 21221 11232 1933586.72  121  324 1355289.39 3235069.06   139%  1217 29257s
 21222 11233 3233577.17   60  325 1355289.39 3233577.17   139%  1217 29287s
 21223 11234 1531015.00   81  308 1355289.39 3231415.86   138%  1217 29301s
 21224 11234 2764518.97   54  315 1355289.39 3230153.29   138%  1217 29316s
 21225 11235 2976420.30   82  332 1355289.39 3229550.20   138%  1217 29331s
 21226 11236 2883204.45   66  337 1355289.39 3226352.39   138%  1217 29348s
 21227 11236 1650333.11   83  339 1355289.39 3225990.94   138%  1217 29361s
 21228 11237 2799246.36   89  336 1355289.39 3225333.23   138%  1217 29379s
 21229 11238 1817046.41   50  333 1355289.39 3224920.91   138%  1217 29394s
 21230 11238 3224719.49   78  332 1355289.39 3224719.49   138%  1217 29412s
 21231 11239 3162858.54   91  337 1355289.39 3219782.69   138%  1217 29418s
 21232 11240 3219231.43   70  334 1355289.39 3219231.43   138%  1217 29433s
 21233 11240 3005972.04   92  336 1355289.39 3218929.31   138%  1217 29466s
 21234 11241 1540328.67   80  352 1355289.39 3218541.72   137%  1216 29482s
 21235 11242 3094223.81   92  368 1355289.39 3215871.88   137%  1216 29501s
 21236 11242 2498632.53   66  361 1355289.39 3214758.15   137%  1216 29516s
 21237 11243 2778000.17   68  364 1355289.39 3214298.85   137%  1216 29537s
 21238 11244 3006492.19   78  362 1355289.39 3214170.76   137%  1216 29554s
 21239 11244 3175898.29   60  364 1355289.39 3214093.44   137%  1216 29571s
 21240 11245 2649048.07   56  360 1355289.39 3213879.42   137%  1216 29588s
 21241 11246 2642313.68   57  359 1355289.39 3211989.85   137%  1216 29612s
 21242 11246 3211715.32   73  361 1355289.39 3211715.32   137%  1216 29627s
 21243 11247 3211635.66   57  368 1355289.39 3211635.66   137%  1216 29649s
 21244 11248 2452628.02   77  368 1355289.39 3211598.68   137%  1216 29666s
 21245 11248 2021092.75   74  366 1355289.39 3211501.84   137%  1216 29691s
 21246 11249 3204994.84   54  361 1355289.39 3211437.40   137%  1216 29708s
 21247 11250 1809651.36   99  363 1355289.39 3211380.21   137%  1216 29730s
 21248 11250 2930594.62   78  364 1355289.39 3210405.51   137%  1216 29746s
 21249 11251 2081744.47   83  367 1355289.39 3210211.75   137%  1216 29771s
 21250 11252 1524156.19   78  369 1355289.39 3210161.58   137%  1216 29786s
 21251 11252 3209994.73   61  371 1355289.39 3209994.73   137%  1216 29812s
 21252 11253 2894741.65   89  371 1355289.39 3209961.54   137%  1215 29828s
 21253 11254 2472980.29   82  357 1355289.39 3208943.65   137%  1215 29848s
 21254 11254 2935111.77   58  362 1355289.39 3208815.09   137%  1215 29865s
 21255 11255 3142104.88   58  364 1355289.39 3208771.78   137%  1215 29883s
 21256 11256 2848819.96   70  363 1355289.39 3208502.21   137%  1215 29900s
 21257 11256 3208240.15   56  349 1355289.39 3208240.15   137%  1215 29918s
 21258 11257 3203011.86   84  361 1355289.39 3208184.40   137%  1215 29933s
 21259 11258 2172991.34   85  355 1355289.39 3207863.85   137%  1215 29950s
 21260 11258 1549634.62   78  365 1355289.39 3207777.43   137%  1215 29967s
 21261 11259 2571727.50   79  372 1355289.39 3207681.04   137%  1215 29988s
 21262 11260 1906263.97   86  359 1355289.39 3207531.02   137%  1215 30005s
 21263 11260 3207374.18   51  367 1355289.39 3207374.18   137%  1215 30024s
 21264 11261 3025116.49   75  370 1355289.39 3207346.05   137%  1215 30039s
 21265 11262 1772742.39  107  359 1355289.39 3206665.23   137%  1215 30060s
 21266 11262 1628478.30  102  350 1355289.39 3206567.61   137%  1215 30077s
 21267 11263 1598358.92   74  366 1355289.39 3205686.78   137%  1215 30099s
 21268 11264 1780863.75  125  364 1355289.39 3205619.78   137%  1215 30114s
 21269 11264 3205506.47   86  359 1355289.39 3205506.47   137%  1214 30134s
 21270 11265 1794127.57  119  349 1355289.39 3205323.99   137%  1214 30149s
 21271 11266 2074741.06   96  367 1355289.39 3205295.81   137%  1214 30167s
 21272 11266 2315997.74  116  365 1355289.39 3205275.45   137%  1214 30183s
 21273 11267 1700272.69  115  365 1355289.39 3205188.77   136%  1214 30202s
 21274 11268 2760034.45  106  365 1355289.39 3205163.19   136%  1214 30220s
 21275 11268 3205061.02   67  358 1355289.39 3205061.02   136%  1214 30242s
 21276 11269 3205061.02   55  358 1355289.39 3205061.02   136%  1214 30257s
 21277 11270 2238939.16   82  367 1355289.39 3203134.45   136%  1214 30278s
 21278 11270 2700218.19   67  366 1355289.39 3203023.05   136%  1214 30294s
 21279 11271 1739304.45  120  374 1355289.39 3202877.28   136%  1214 30329s
 21280 11272 2234726.82   92  372 1355289.39 3202786.71   136%  1214 30345s
 21281 11272 1505800.91  136  375 1355289.39 3202720.23   136%  1214 30367s
 21282 11273 2514036.53   78  374 1355289.39 3202666.88   136%  1214 30383s
 21283 11274 1694602.85   88  372 1355289.39 3202633.55   136%  1214 30404s
 21284 11274 3161319.33   85  370 1355289.39 3202628.02   136%  1214 30420s
 21285 11275 2344615.81  123  371 1355289.39 3201689.17   136%  1214 30441s
 21286 11276 2485793.44   83  372 1355289.39 3201456.83   136%  1214 30457s
 21287 11276 2506973.41  101  371 1355289.39 3200969.56   136%  1213 30477s
 21288 11277 2974707.31   78  373 1355289.39 3200907.16   136%  1213 30494s
 21289 11278 3200759.18   56  376 1355289.39 3200759.18   136%  1213 30517s
 21290 11278 3200735.63   53  376 1355289.39 3200735.63   136%  1213 30532s
 21291 11279 1955779.74   66  363 1355289.39 3200004.51   136%  1213 30553s
 21292 11280 1798722.10   87  376 1355289.39 3199880.39   136%  1213 30568s
 21293 11280 2457206.25   87  377 1355289.39 3199875.25   136%  1213 30589s
 21294 11281 3199852.78   83  380 1355289.39 3199852.78   136%  1213 30606s
 21295 11282 3199831.74   64  370 1355289.39 3199831.74   136%  1213 30627s
 21296 11282 1604896.57   71  383 1355289.39 3199806.95   136%  1213 30643s
 21297 11283 1766666.59   73  380 1355289.39 3199639.14   136%  1213 30664s
 21298 11284 2427195.45  110  372 1355289.39 3199252.79   136%  1213 30681s
 21299 11284 2808552.88   77  365 1355289.39 3199024.41   136%  1213 30701s
 21300 11285 2226120.71   54  376 1355289.39 3198955.83   136%  1213 30718s
 21301 11286 2985475.03   49  377 1355289.39 3198925.64   136%  1213 30737s
 21302 11286 2376714.13   66  378 1355289.39 3198904.76   136%  1213 30752s
 21303 11287 3198904.64   51  382 1355289.39 3198904.64   136%  1213 30772s
 21304 11288 2320109.29   88  383 1355289.39 3198904.64   136%  1212 30788s
 21305 11288 3198899.31   65  383 1355289.39 3198899.31   136%  1212 30843s
 21306 11289 1519749.85  117  383 1355289.39 3198899.31   136%  1212 30858s
 21307 11290 2353501.16  118  383 1355289.39 3198899.31   136%  1212 30934s
 21308 11292 3113366.99   59  228 1355289.39 3198899.31   136%  1221 30938s
 21310 11293 2158040.11   91  116 1355289.39 3198899.31   136%  1221 30944s
 21311 11294 2890977.36   65  167 1355289.39 3198899.31   136%  1221 30954s
 21312 11295 3198899.31   65  190 1355289.39 3198899.31   136%  1221 30960s
 21313 11295 1774865.51  115  221 1355289.39 3198899.31   136%  1221 30970s
 21314 11296 3198899.31   58  218 1355289.39 3198899.31   136%  1221 30989s
 21315 11297 3198899.31   45  221 1355289.39 3198899.31   136%  1221 31020s
 21316 11297 1560199.92  113  212 1355289.39 3198899.31   136%  1221 31029s
 21317 11298 3150663.33   55  240 1355289.39 3198899.31   136%  1221 31037s
 21318 11299 2854914.82   62  254 1355289.39 3198899.31   136%  1221 31054s
 21319 11299 1871486.30   68  251 1355289.39 3198899.31   136%  1221 31063s
 21320 11300 3198899.31   71  323 1355289.39 3198899.31   136%  1221 31073s
 21321 11301 1933586.72  121  299 1355289.39 3198899.31   136%  1220 31079s
 21322 11301 3198899.31   60  284 1355289.39 3198899.31   136%  1220 31086s
 21323 11302 1531015.00   81  298 1355289.39 3198899.31   136%  1220 31098s
 21324 11303 2764518.97   54  270 1355289.39 3198899.31   136%  1220 31105s
 21325 11303 2976420.30   82  336 1355289.39 3183631.82   135%  1220 31165s
 21326 11304 2883204.45   66  337 1355289.39 3130678.83   131%  1220 31172s
 21327 11305 1650333.11   83  321 1355289.39 3111039.64   130%  1220 31181s
 21328 11305 2799246.36   89  313 1355289.39 3105972.50   129%  1220 31185s
 21329 11306 1817046.41   50  312 1355289.39 3103416.17   129%  1220 31204s
 21330 11307 3064283.68   78  320 1355289.39 3064283.68   126%  1220 31249s
 21331 11307 3059809.26   91  334 1355289.39 3059809.26   126%  1220 31254s
 21332 11308 3054028.67   70  337 1355289.39 3054028.67   125%  1220 31259s
 21333 11309 3005972.04   92  322 1355289.39 3042858.69   125%  1220 31268s
 21334 11309 1540328.67   80  318 1355289.39 3042090.05   124%  1220 31286s
 21335 11310 3016744.04   92  340 1355289.39 3016744.04   123%  1220 31334s
 21336 11311 2498632.53   66  320 1355289.39 3009941.21   122%  1220 31339s
 21337 11311 2778000.17   68  320 1355289.39 2998514.72   121%  1220 31346s
 21338 11312 2945413.11   78  323 1355289.39 2945413.11   117%  1219 31362s
 21339 11313 2941439.25   60  344 1355289.39 2941439.25   117%  1219 31367s
 21340 11313 2649048.07   56  368 1355289.39 2934927.67   117%  1219 31372s
 21341 11314 2642313.68   57  319 1355289.39 2930875.48   116%  1219 31377s
 21342 11315 2926431.91   73  360 1355289.39 2926431.91   116%  1219 31383s
 21343 11315 2920654.83   57  357 1355289.39 2920654.83   116%  1219 31386s
 21344 11316 2452628.02   77  360 1355289.39 2920033.04   115%  1219 31406s
 21345 11317 2021092.75   74  340 1355289.39 2918833.88   115%  1219 31440s
 21346 11317 2918360.96   54  350 1355289.39 2918360.96   115%  1219 31456s
 21347 11318 1809651.36   99  324 1355289.39 2914639.14   115%  1219 31493s
 21348 11319 2913712.67   78  315 1355289.39 2913712.67   115%  1219 31509s
 21349 11319 2081744.47   83  329 1355289.39 2911029.69   115%  1219 31546s
 21350 11320 1524156.19   78  325 1355289.39 2909194.23   115%  1219 31562s
 21351 11321 2906976.44   61  340 1355289.39 2906976.44   114%  1219 31598s
 21352 11321 2894741.65   89  339 1355289.39 2899197.48   114%  1219 31602s
 21353 11322 2472980.29   82  335 1355289.39 2898737.22   114%  1219 31618s
 21354 11323 2896398.08   58  328 1355289.39 2896398.08   114%  1219 31651s
 21355 11323 2895789.23   58  318 1355289.39 2895789.23   114%  1219 31667s
 21356 11324 2848819.96   70  349 1355289.39 2891723.54   113%  1218 31710s
 21357 11325 2889538.34   56  356 1355289.39 2889538.34   113%  1218 31726s
 21358 11325 2888078.41   84  323 1355289.39 2888078.41   113%  1218 31757s
 21359 11326 2172991.34   85  360 1355289.39 2887546.59   113%  1218 31772s
 21360 11327 1549634.62   78  320 1355289.39 2886989.17   113%  1218 31805s
 21361 11327 2571727.50   79  360 1355289.39 2886863.42   113%  1218 31821s
 21362 11328 1906263.97   86  358 1355289.39 2886709.35   113%  1218 31853s
 21363 11329 2885834.48   51  318 1355289.39 2885834.48   113%  1218 31869s
 21364 11329 2883548.81   75  347 1355289.39 2883548.81   113%  1218 31910s
 21365 11330 1772742.39  107  353 1355289.39 2883023.07   113%  1218 31925s
 21366 11331 1628478.30  102  353 1355289.39 2882494.58   113%  1218 31955s
 21367 11331 1598358.92   74  371 1355289.39 2882251.82   113%  1218 31969s
 21368 11332 1780863.75  125  357 1355289.39 2881734.21   113%  1218 31998s
 21369 11333 2881691.77   86  358 1355289.39 2881691.77   113%  1218 32013s
 21370 11333 1794127.57  119  362 1355289.39 2876161.13   112%  1218 32045s
 21371 11334 2074741.06   96  358 1355289.39 2875022.69   112%  1218 32059s
 21372 11335 2315997.74  116  367 1355289.39 2874826.94   112%  1218 32076s
 21373 11335 1700272.69  115  358 1355289.39 2874730.06   112%  1217 32091s
 21374 11336 2760034.45  106  359 1355289.39 2874719.13   112%  1217 32106s
 21375 11337 2873700.25   67  365 1355289.39 2873700.25   112%  1217 32123s
 21376 11337 2873162.47   55  371 1355289.39 2873162.47   112%  1217 32138s
 21377 11338 2238939.16   82  363 1355289.39 2872002.38   112%  1217 32150s
 21378 11339 2700218.19   67  368 1355289.39 2871048.25   112%  1217 32179s
 21379 11339 1739304.45  120  370 1355289.39 2866834.93   112%  1217 32185s
 21380 11340 2234726.82   92  360 1355289.39 2866394.59   111%  1217 32199s
 21381 11341 1505800.91  136  344 1355289.39 2854722.48   111%  1217 32234s
 21382 11341 2514036.53   78  347 1355289.39 2854138.42   111%  1217 32246s
 21383 11342 1694602.85   88  346 1355289.39 2846037.81   110%  1217 32281s
 21384 11343 2844976.64   85  346 1355289.39 2844976.64   110%  1217 32296s
 21385 11343 2344615.81  123  345 1355289.39 2843505.02   110%  1217 32316s
 21386 11344 2485793.44   83  359 1355289.39 2842953.05   110%  1217 32331s
 21387 11345 2506973.41  101  350 1355289.39 2842410.62   110%  1217 32345s
 21388 11345 2842040.02   78  346 1355289.39 2842040.02   110%  1217 32359s
 21389 11346 2840904.11   56  361 1355289.39 2840904.11   110%  1217 32375s
 21390 11347 2840888.91   53  362 1355289.39 2840888.91   110%  1217 32389s
 21391 11347 1955779.74   66  364 1355289.39 2840500.61   110%  1216 32430s
 21392 11348 1798722.10   87  369 1355289.39 2840426.55   110%  1216 32445s
 21393 11349 2457206.25   87  361 1355289.39 2840355.29   110%  1216 32462s
 21394 11349 2840342.41   83  359 1355289.39 2840342.41   110%  1216 32475s
 21395 11350 2840079.68   64  363 1355289.39 2840079.68   110%  1216 32490s
 21396 11351 1604896.57   71  364 1355289.39 2840044.45   110%  1216 32503s
 21397 11351 1766666.59   73  361 1355289.39 2837748.13   109%  1216 32519s
 21398 11352 2427195.45  110  364 1355289.39 2837489.30   109%  1216 32533s
 21399 11353 2808552.88   77  369 1355289.39 2837153.94   109%  1216 32560s
 21400 11353 2226120.71   54  374 1355289.39 2836754.25   109%  1216 32573s
 21401 11354 2836226.54   49  371 1355289.39 2836226.54   109%  1216 32596s
 21402 11355 2376714.13   66  375 1355289.39 2835937.95   109%  1216 32608s
 21403 11355 2835811.69   51  372 1355289.39 2835811.69   109%  1216 32622s
 21404 11356 2320109.29   88  370 1355289.39 2835645.49   109%  1216 32635s
 21405 11357 2835631.14   65  363 1355289.39 2835631.14   109%  1216 32650s
 21406 11357 1519749.85  117  370 1355289.39 2835547.41   109%  1216 32664s
 21407 11358 2353501.16  118  369 1355289.39 2835487.89   109%  1216 32694s
 21408 11359 2835479.04   59  366 1355289.39 2835479.04   109%  1215 32708s
 21409 11359 1958060.43   77  373 1355289.39 2835443.86   109%  1215 32722s
 21410 11360 2158040.11   91  371 1355289.39 2835428.65   109%  1215 32733s
 21411 11361 2835428.42   65  374 1355289.39 2835428.42   109%  1215 32746s
 21412 11361 2835423.65   65  376 1355289.39 2835423.65   109%  1215 32779s
 21413 11362 1774865.51  115  376 1355289.39 2835423.65   109%  1215 32791s
 21414 11363 2835423.65   58  376 1355289.39 2835423.65   109%  1215 32860s
 21417 11366 2835423.65   55  115 1355289.39 2835423.65   109%  1225 32869s
 21418 11367 2835423.65   62  173 1355289.39 2835423.65   109%  1225 32877s
 21419 11368 1871486.30   68  205 1355289.39 2835423.65   109%  1225 32884s
 21420 11368 2835423.65   71  211 1355289.39 2835423.65   109%  1225 32902s
 21421 11369 1933586.72  121  197 1355289.39 2835423.65   109%  1225 32913s
 21422 11370 2835423.65   60  213 1355289.39 2835423.65   109%  1225 32925s
 21423 11370 1531015.00   81  227 1355289.39 2835423.65   109%  1225 32933s
 21424 11371 2764518.97   54  308 1355289.39 2835423.65   109%  1225 32948s
 21425 11372 2835423.65   82  261 1355289.39 2835423.65   109%  1225 32953s
 21426 11372 2835423.65   66  255 1355289.39 2835423.65   109%  1225 32957s
 21427 11373 1650333.11   83  317 1355289.39 2835423.65   109%  1224 32966s
 21428 11374 2799246.36   89  307 1355289.39 2835423.65   109%  1224 32976s
 21430 11375 2835423.65   78  307 1355289.39 2835423.65   109%  1224 32988s
 21431 11376 2835423.65   91  300 1355289.39 2835423.65   109%  1224 33005s
 21432 11376 2835423.65   70  340 1355289.39 2835423.65   109%  1224 33013s
 21433 11377 2835423.65   92  336 1355289.39 2835423.65   109%  1224 33017s
 21434 11378 1540328.67   80  323 1355289.39 2835423.65   109%  1224 33022s
 21435 11378 2835423.65   92  315 1355289.39 2835423.65   109%  1224 33025s
 21436 11379 2498632.53   66  329 1355289.39 2835423.65   109%  1224 33030s
 21437 11380 2778000.17   68  338 1355289.39 2835423.65   109%  1224 33036s
 21438 11380 2835423.65   78  318 1355289.39 2835423.65   109%  1224 33070s
 21439 11381 2835423.65   60  316 1355289.39 2835423.65   109%  1224 33076s
 21440 11382 2649048.07   56  314 1355289.39 2835423.65   109%  1224 33092s
 21441 11382 2642313.68   57  318 1355289.39 2835423.65   109%  1224 33125s
 21443 11384 2835423.65   57  347 1355289.39 2835423.65   109%  1224 33144s
 21444 11384 2452628.02   77  334 1355289.39 2835423.65   109%  1223 33174s
 21445 11385 2021092.75   74  323 1355289.39 2835423.65   109%  1223 33177s
 21446 11386 2835423.65   54  338 1355289.39 2835423.65   109%  1223 33192s
 21447 11386 1809651.36   99  306 1355289.39 2835423.65   109%  1223 33220s
 21449 11388 2081744.47   83  344 1355289.39 2829185.97   109%  1223 33237s
 21450 11388 1524156.19   78  318 1355289.39 2823370.25   108%  1223 33266s
 21451 11389 2821942.73   61  360 1355289.39 2821942.73   108%  1223 33281s
 21452 11390 2791634.37   89  318 1355289.39 2791634.37   106%  1223 33314s
 21453 11390 2472980.29   82  315 1355289.39 2787417.52   106%  1223 33317s
 21454 11391 2785107.10   58  321 1355289.39 2785107.10   105%  1223 33331s
 21455 11392 2764074.82   58  319 1355289.39 2764074.82   104%  1223 33362s
 21456 11392 2761016.43   70  344 1355289.39 2761016.43   104%  1223 33378s
 21457 11393 2753258.29   56  340 1355289.39 2753258.29   103%  1223 33410s
 21459 11394 2172991.34   85  363 1355289.39 2748760.76   103%  1223 33425s
 21460 11395 1549634.62   78  332 1355289.39 2746504.20   103%  1223 33454s
 21461 11396 2571727.50   79  355 1355289.39 2746309.51   103%  1223 33466s
 21462 11396 1906263.97   86  366 1355289.39 2746138.60   103%  1222 33497s
 21463 11397 2745812.94   51  347 1355289.39 2745812.94   103%  1222 33510s
 21464 11398 2744245.47   75  342 1355289.39 2744245.47   102%  1222 33541s
 21465 11398 1772742.39  107  367 1355289.39 2744023.36   102%  1222 33554s
 21466 11399 1628478.30  102  345 1355289.39 2740753.60   102%  1222 33585s
 21467 11400 1598358.92   74  358 1355289.39 2740274.66   102%  1222 33599s
 21468 11400 1780863.75  125  352 1355289.39 2731765.95   102%  1222 33635s
 21469 11401 2730071.57   86  353 1355289.39 2730071.57   101%  1222 33649s
 21470 11402 1794127.57  119  370 1355289.39 2729417.05   101%  1222 33678s
 21471 11402 2074741.06   96  342 1355289.39 2727101.09   101%  1222 33689s
 21472 11403 2315997.74  116  338 1355289.39 2725529.57   101%  1222 33717s
 21473 11404 1700272.69  115  345 1355289.39 2725076.20   101%  1222 33728s
 21474 11404 2724130.10  106  352 1355289.39 2724130.10   101%  1222 33756s
 21475 11405 2724057.21   67  360 1355289.39 2724057.21   101%  1222 33767s
 21476 11406 2723787.88   55  349 1355289.39 2723787.88   101%  1222 33796s
 21477 11406 2238939.16   82  364 1355289.39 2723600.80   101%  1222 33807s
 21478 11407 2700218.19   67  364 1355289.39 2723498.70   101%  1222 33832s
 21479 11408 1739304.45  120  351 1355289.39 2723436.92   101%  1222 33844s
 21480 11408 2234726.82   92  361 1355289.39 2723009.94   101%  1221 33873s
 21481 11409 1505800.91  136  349 1355289.39 2721928.92   101%  1221 33892s
 21482 11410 2514036.53   78  369 1355289.39 2721739.58   101%  1221 33910s
 21483 11410 1694602.85   88  353 1355289.39 2718658.94   101%  1221 33917s
 21484 11411 2717966.28   85  365 1355289.39 2717966.28   101%  1221 33929s
 21485 11412 2344615.81  123  368 1355289.39 2717656.84   101%  1221 33950s
 21486 11412 2485793.44   83  371 1355289.39 2717508.64   101%  1221 33964s
 21487 11413 2506973.41  101  371 1355289.39 2716906.30   100%  1221 33996s
 21488 11414 2716903.02   78  370 1355289.39 2716903.02   100%  1221 34010s
 21489 11414 2716886.05   56  366 1355289.39 2716886.05   100%  1221 34042s
 21490 11415 2716838.68   53  362 1355289.39 2716838.68   100%  1221 34076s
 21491 11416 1955779.74   66  362 1355289.39 2716838.68   100%  1221 34085s
 21492 11416 1798722.10   87  362 1355289.39 2716838.68   100%  1221 34144s
 21493 11420 2693156.84   67  335 1355289.39 2716837.84   100%  1229 34213s
 21495 11423 2644828.30   68  336 1355289.39 2705881.77   100%  1229 34281s
 21499 11426 2643949.69   69  340 1355289.39 2705220.46   100%  1230 34317s
 21503 11429 2179562.44   69  322 1355289.39 2705208.81   100%  1231 34383s
 21507 11431 2641970.87   70  350 1355289.39 2700286.50  99.2%  1233 34407s
 21511 11432 2148856.11   70  322 1355289.39 2694454.71  98.8%  1233 34451s
 21515 11435 2635185.87   71  339 1355289.39 2677027.91  97.5%  1235 34475s
 21519 11437 2356559.86   71  312 1355289.39 2676980.88  97.5%  1236 34550s
 21523 11433 2602142.59   72  344 1355289.39 2664723.49  96.6%  1237 34596s
 21528 11441 2263928.47   72  322 1355289.39 2660025.02  96.3%  1238 34626s
 21532 11443 2598385.22   73  352 1355289.39 2660018.22  96.3%  1239 34659s
 21538 11444 2591155.58   74  341 1355289.39 2634694.39  94.4%  1240 34687s
 21546 11449 2567355.36   75  334 1355289.39 2629935.75  94.0%  1242 34731s
 21553 11457 2484593.79   75  303 1355289.39 2628299.82  93.9%  1244 34766s
 21561 11460 2567058.06   76  331 1355289.39 2616203.58  93.0%  1245 34791s
 21571 11463 2551764.25   77  319 1355289.39 2611179.34  92.7%  1246 34818s
 21582 11473 2430456.72   78  278 1355289.39 2599088.23  91.8%  1247 34841s
 21592 11479 2505799.98   79  305 1355289.39 2599088.23  91.8%  1248 34863s
 21601 11483 2332424.42   80  292 1355289.39 2599088.23  91.8%  1250 34902s
 21614 11487 2476254.67   82  242 1355289.39 2599088.23  91.8%  1252 34932s
 21627 11490 2453619.80   83  248 1355289.39 2599088.23  91.8%  1254 34957s
 21643 11500 2436246.36   84  233 1355289.39 2599088.23  91.8%  1255 34985s
 21661 11503 2204627.35   86  185 1355289.39 2599088.23  91.8%  1256 35011s
 21680 11511 2402876.12   88  232 1355289.39 2599088.23  91.8%  1257 35056s
 21694 11519 2394667.14   90  221 1355289.39 2599088.23  91.8%  1259 35093s
 21711 11522 2329771.35   92  230 1355289.39 2599088.23  91.8%  1262 35130s
 21728 11527 2315851.73   94  201 1355289.39 2599088.23  91.8%  1264 35169s
 21752 11532 2298784.89   97  211 1355289.39 2599088.23  91.8%  1266 35198s
 21768 11538 2296798.07   99  213 1355289.39 2599088.23  91.8%  1268 35232s
 21791 11554 2201697.96  100  180 1355289.39 2599088.23  91.8%  1271 35270s
 21819 11561 2231849.92  103  210 1355289.39 2599088.23  91.8%  1273 35297s
 21842 11579 2202323.97  105  205 1355289.39 2599088.23  91.8%  1275 35332s
 21877 11598 2097810.90  111  146 1355289.39 2599088.23  91.8%  1276 35361s
 21921 11616 1995733.02  116  144 1355289.39 2599088.23  91.8%  1277 35392s
 21964 11622     cutoff  124      1355289.39 2599088.23  91.8%  1279 35436s
 22012 11635 1890924.91  134  130 1355289.39 2599088.23  91.8%  1280 35489s
 22087 11629 1739369.85  147  125 1355289.39 2599088.23  91.8%  1280 35518s
 22142 11636 2577219.93   80  315 1355289.39 2599029.00  91.8%  1282 35566s
 22197 11636 2464719.24   88  280 1355289.39 2599029.00  91.8%  1283 35597s
 22268 11634 2246349.82   99  249 1355289.39 2599029.00  91.8%  1282 35641s
 22325 11645 1869481.82  114  188 1355289.39 2599029.00  91.8%  1283 35675s
 22386 11668 1737127.58  148  144 1355289.39 2599029.00  91.8%  1282 35713s
 22449 11687 1649550.10  172  150 1355289.39 2583136.69  90.6%  1283 35749s
 22541 11684 2432402.52   84  221 1355289.39 2583136.69  90.6%  1282 35797s
 22608 11688 infeasible   97      1355289.39 2562777.61  89.1%  1283 35850s
 22698 11722 2533032.15   81  259 1355289.39 2554004.13  88.4%  1281 35887s
 22760 11737 1752570.15   91  229 1355289.39 2553510.16  88.4%  1282 35926s
 22817 11739 1943460.96   84  259 1355289.39 2553510.16  88.4%  1284 35978s
 22978 11791 1679193.00  107  223 1355289.39 2545073.16  87.8%  1281 36038s
 23088 11835 2342059.49   84  245 1355289.39 2534387.76  87.0%  1281 36097s
 23206 11870 2091102.15   98  245 1355289.39 2534387.76  87.0%  1280 36136s
 23293 11912 1800207.83  129  192 1355289.39 2534387.76  87.0%  1280 36196s
 23458 11990 1672725.27  195  168 1355289.39 2519601.34  85.9%  1276 36241s
 23693 12124 2339621.64   82  337 1355289.39 2514382.54  85.5%  1269 36282s
 23764 12147 2094762.34   96  184 1355289.39 2512228.31  85.4%  1271 36338s
 23946 12239 1774248.00  186  172 1355289.39 2510685.34  85.3%  1267 36402s
 24050 12283 2151954.90   87  163 1355289.39 2506710.73  85.0%  1266 36495s
 24224 12347 2005317.50   79  354 1355289.39 2503297.03  84.7%  1264 36558s
 24383 12406 2070913.74   84  240 1355289.39 2500857.48  84.5%  1262 36612s
 24610 12522 1808392.33   83  248 1355289.39 2498852.10  84.4%  1258 36696s
 24795 12591 2202798.57   86  270 1355289.39 2496038.92  84.2%  1256 36797s
 24991 12664 1819704.09   88  245 1355289.39 2490101.25  83.7%  1254 36867s
 25222 12772 1544414.21   82  120 1355289.39 2482825.69  83.2%  1251 36945s
 25327 12803 2021030.24  105  215 1355289.39 2480620.57  83.0%  1254 37046s
 25675 12996 1443661.66   92  226 1355289.39 2473505.39  82.5%  1244 37120s
 25777 13040 2073134.54   94  170 1355289.39 2466032.54  82.0%  1246 37207s
 25990 13150 2176293.22   81  185 1355289.39 2464718.71  81.9%  1243 37306s
 26186 13231 2278339.36   86  263 1355289.39 2457527.56  81.3%  1241 37394s
 26310 13287 2217436.32   87  195 1355289.39 2457527.56  81.3%  1244 37486s
 26492 13370 2245391.50   93  251 1355289.39 2457527.56  81.3%  1243 37614s
 26773 13526     cutoff  102      1355289.39 2457527.56  81.3%  1240 37738s
 27071 13593 1948299.78  114  179 1355289.39 2457527.56  81.3%  1238 37855s
 27469 13707     cutoff  173      1355289.39 2452486.78  81.0%  1231 37956s
 27821 13870 1984721.54   95  173 1355289.39 2448921.09  80.7%  1226 38093s
 28069 13959 1892670.96  102  175 1355289.39 2442746.66  80.2%  1226 38250s
 28286 14049 2041596.65   87  128 1355289.39 2440687.33  80.1%  1228 38392s
 28541 14139 1835511.71  128  118 1355289.39 2437044.53  79.8%  1230 38559s
 28952 14263 1857923.56  132  205 1355289.39 2432397.06  79.5%  1226 38702s
 29273 14409 2111255.59   90  232 1355289.39 2430425.10  79.3%  1225 38816s
 29505 14485 1938830.07  104  191 1355289.39 2426321.23  79.0%  1228 38973s
 29831 14598 1802664.47   80  308 1355289.39 2423246.15  78.8%  1224 39165s
 30180 14692 1830890.98   93  174 1355289.39 2410130.23  77.8%  1223 39310s
 30570 14851 2068817.29   84  258 1355289.39 2403890.46  77.4%  1222 39503s
 30940 14965 1936083.95   88  170 1355289.39 2400819.52  77.1%  1223 39635s
 31455 15094 2014028.15   87  178 1355289.39 2393495.09  76.6%  1219 39849s
 31982 15307 2100099.75   88  242 1355289.39 2387235.84  76.1%  1215 40032s
 32376 15459 1647456.15   92  195 1355289.39 2383089.91  75.8%  1215 40230s
 32791 15600 2217079.53   84  342 1355289.39 2376884.74  75.4%  1215 40419s
 33148 15696 2025037.58  104  218 1355289.39 2371016.18  74.9%  1216 40621s
 33617 15895 1878628.84   80  257 1355289.39 2365774.51  74.6%  1214 40772s
 34031 16038 2198174.97   89  178 1355289.39 2360428.48  74.2%  1213 40920s
 34109 16056 1553019.25   80  167 1355289.39 2358724.06  74.0%  1215 41113s
 34484 16171 1710206.84   94  228 1355289.39 2356772.21  73.9%  1216 41317s
 34967 16349 2065091.61   92  272 1355289.39 2352013.81  73.5%  1214 41523s
 35514 16553 1875516.26  102  195 1355289.39 2344153.88  73.0%  1210 41741s
 35972 16708     cutoff  101      1355289.39 2340863.48  72.7%  1208 41960s
 36405 16857 2086829.73   89  166 1355289.39 2335750.16  72.3%  1208 42177s
 36881 16990 2007588.72   88  190 1355289.39 2332687.94  72.1%  1206 42394s
 37332 17113 2095057.01   85  254 1355289.39 2329484.24  71.9%  1205 42624s
 37824 17327 1771015.38  106  199 1355289.39 2326567.88  71.7%  1202 42820s
 38250 17385 1699936.00   97  200 1355289.39 2321774.20  71.3%  1201 43046s
 38572 17467 1940641.69   84  362 1355289.39 2316532.20  70.9%  1204 43238s
 39053 17653 1982434.83   89  190 1355289.39 2311183.29  70.5%  1202 43435s
 39467 17792 1895255.57  108  189 1355289.39 2306293.27  70.2%  1202 43649s
 39952 17970 1816380.13   98  166 1355289.39 2302797.39  69.9%  1199 43853s
 40363 18123     cutoff  131      1355289.39 2300572.51  69.7%  1199 44032s
 40822 18290 1913915.49  136  105 1355289.39 2296564.60  69.5%  1197 44211s
 41220 18354 2130653.00   84  249 1355289.39 2292841.79  69.2%  1197 44404s
 41806 18592 1835538.64   82  141 1355289.39 2286638.20  68.7%  1192 44537s
 42147 18700     cutoff   88      1355289.39 2286297.86  68.7%  1191 44734s
 42629 18845 2065209.74   94  187 1355289.39 2282761.51  68.4%  1188 44948s
 43120 19021 1868937.01  102   77 1355289.39 2278959.59  68.2%  1186 45147s
 43631 19204 2151427.06   87  243 1355289.39 2275330.93  67.9%  1183 45333s
 43891 19245 1875387.42   91  228 1355289.39 2272067.02  67.6%  1186 45522s
 44343 19361 2168034.75   91  220 1355289.39 2269008.56  67.4%  1184 45690s
 44823 19520 1835210.84   89  227 1355289.39 2266080.30  67.2%  1182 45883s
 45200 19632 1992813.77   94  160 1355289.39 2262116.05  66.9%  1182 46045s
 45622 19764 1787594.19   99  172 1355289.39 2260302.91  66.8%  1182 46174s
 46104 19866 1580733.05   99  183 1355289.39 2257841.92  66.6%  1181 46377s
 46539 19974 2143732.42   91  126 1355289.39 2253948.18  66.3%  1180 46564s
 46945 20065 2240120.24   90  258 1355289.39 2252257.89  66.2%  1180 46755s
 47395 20238 1598386.31   88  186 1355289.39 2249657.58  66.0%  1176 46955s
 47758 20309 1583114.30   84  212 1355289.39 2247806.85  65.9%  1177 47141s
 48130 20363     cutoff  124      1355289.39 2245559.73  65.7%  1178 47296s
 48610 20517 1740323.29  112  182 1355289.39 2244248.33  65.6%  1176 47493s
 49205 20674 1581451.46   78  329 1355289.39 2241377.48  65.4%  1172 47707s
 49662 20786 1810980.65   95  148 1355289.39 2239845.28  65.3%  1171 47878s
 50018 20838 1951522.61  104  260 1355289.39 2238026.65  65.1%  1172 48049s
 50456 20992 1963483.35   91  191 1355289.39 2236490.94  65.0%  1171 48234s
 50871 21117 2154027.55   83  252 1355289.39 2233479.12  64.8%  1170 48425s
 51281 21171 2155499.86   84  202 1355289.39 2231679.15  64.7%  1169 48618s
 51633 21269 1842594.28   91  139 1355289.39 2229815.17  64.5%  1170 48803s
 52071 21389 1767471.44   97  156 1355289.39 2227807.11  64.4%  1170 48974s
 52673 21635 1984909.51   97  185 1355289.39 2225326.76  64.2%  1165 49142s
 53155 21839 1724486.64  135  130 1355289.39 2224403.85  64.1%  1162 49329s
 53603 21939 1837459.54   75  186 1355289.39 2222208.89  64.0%  1161 49527s
 54106 22092 1834713.14   96  158 1355289.39 2220105.75  63.8%  1158 49715s
 54584 22183 1848812.57  102  199 1355289.39 2218044.40  63.7%  1157 49877s
 54991 22184 1672593.43  102  145 1355289.39 2215806.94  63.5%  1155 50062s
 55461 22339 2039437.42   91  227 1355289.39 2213646.50  63.3%  1154 50243s
 55980 22600 1757198.85  107  164 1355289.39 2211023.59  63.1%  1151 50425s
 56483 22854 1613876.66   93  234 1355289.39 2209735.86  63.0%  1147 50605s
 56870 23081 1786195.82   92  147 1355289.39 2207646.01  62.9%  1147 50825s
 57241 23288 2103245.68   94  205 1355289.39 2204802.87  62.7%  1147 51090s
 57742 23616 1448007.56  101  258 1355289.39 2203500.04  62.6%  1145 51266s
 58175 23883 1885383.98  101  160 1355289.39 2201599.03  62.4%  1144 51488s
 58536 24040 1813083.74   95  181 1355289.39 2200266.01  62.3%  1143 51670s
 58970 24298 1428147.92  111  166 1355289.39 2198024.23  62.2%  1143 51865s
 59400 24517 1422782.70   94  188 1355289.39 2195501.31  62.0%  1142 52103s
 59743 24697 1600000.24   85  200 1355289.39 2194681.16  61.9%  1143 52337s
 60214 25020 1869620.33   92  138 1355289.39 2193444.68  61.8%  1141 52527s
 60626 25246 1918112.73   91  183 1355289.39 2191917.87  61.7%  1141 52707s
 61060 25514 1384109.62   88  200 1355289.39 2190876.94  61.7%  1140 52894s
 61565 25773     cutoff   97      1355289.39 2189532.18  61.6%  1138 53074s
 62027 26064 1704567.29  100  163 1355289.39 2187502.29  61.4%  1136 53278s
 62392 26276 1455407.55  100  208 1355289.39 2185302.69  61.2%  1137 53502s
 62852 26499 2026561.52   90  172 1355289.39 2184525.92  61.2%  1135 53690s
 63313 26743 1622289.39  101  177 1355289.39 2182543.36  61.0%  1134 53863s
 63861 27116 1956470.31   96  183 1355289.39 2181703.00  61.0%  1131 54033s
 64281 27342 1867161.14  110  178 1355289.39 2180963.23  60.9%  1130 54205s
 64675 27592 1408808.18   75  205 1355289.39 2179430.34  60.8%  1128 54370s
 65218 27976 1473002.68   97  220 1355289.39 2178487.24  60.7%  1125 54550s
 65643 28178 1644658.27  105  172 1355289.39 2176898.74  60.6%  1125 54727s
 66025 28387 1673059.90  101  219 1355289.39 2175573.51  60.5%  1124 54891s
 66416 28652 2154080.82   87  207 1355289.39 2174755.72  60.5%  1123 55034s
 66843 28914 1576194.32   91  201 1355289.39 2172493.29  60.3%  1121 55207s
 67259 29160 1859229.95   95  208 1355289.39 2170457.77  60.1%  1120 55389s
 67766 29469 1505526.04  105  137 1355289.39 2168452.72  60.0%  1118 55571s
 68144 29710 1617629.01   87  109 1355289.39 2167431.03  59.9%  1118 55786s
 68550 29943 2070180.13  101  186 1355289.39 2166410.52  59.8%  1117 56010s
 69038 30213 2050348.40   92  226 1355289.39 2164625.03  59.7%  1115 56194s
 69451 30469 1781394.00  106  147 1355289.39 2162968.20  59.6%  1114 56362s
 69951 30771     cutoff   99      1355289.39 2160796.32  59.4%  1112 56520s
 70379 31034 1576494.96  115  135 1355289.39 2159548.74  59.3%  1111 56680s
 70845 31280     cutoff   85      1355289.39 2157944.79  59.2%  1109 56848s
 71255 31532     cutoff  108      1355289.39 2156249.25  59.1%  1109 57040s
 71684 31766 1817383.63  101  196 1355289.39 2154234.04  59.0%  1108 57247s
 72092 32016 1677707.12  102  136 1355289.39 2152541.07  58.8%  1107 57444s
 72548 32197 2012116.92  102  163 1355289.39 2151011.14  58.7%  1105 57588s
 73000 32490 1722287.57  101  133 1355289.39 2149695.12  58.6%  1104 57771s
 73344 32677 2046177.78   73  332 1355289.39 2148086.73  58.5%  1104 57896s
 73708 32874     cutoff   96      1355289.39 2147513.98  58.5%  1103 58031s
 74110 33069 1927758.10   88  171 1355289.39 2145670.94  58.3%  1103 58201s
 74594 33362 1576605.62   96  142 1355289.39 2144232.72  58.2%  1101 58410s
 74920 33489 1791352.94   86  315 1355289.39 2142159.33  58.1%  1102 58629s
 75306 33678 2121061.21   86  186 1355289.39 2141029.24  58.0%  1101 58801s
 75741 33954 1855213.49  104  218 1355289.39 2139672.42  57.9%  1101 58966s
 76084 34058 2039312.94   93  124 1355289.39 2138674.07  57.8%  1100 59139s
 76644 34404 1968081.25   93  157 1355289.39 2136743.05  57.7%  1098 59289s
 77071 34634 1878311.38   99  211 1355289.39 2136080.76  57.6%  1097 59457s
 77573 34941 1738272.58   92  173 1355289.39 2134564.72  57.5%  1095 59643s
 78215 35356 1567586.94  105  122 1355289.39 2133596.22  57.4%  1091 59822s
 78485 35461 1932973.51   98  273 1355289.39 2131844.03  57.3%  1092 59968s
 78923 35732 1968008.95   90  243 1355289.39 2130750.70  57.2%  1091 60114s
 79325 35971 1827354.17   90  194 1355289.39 2129793.46  57.1%  1090 60279s
 79729 36191 1383357.10  106  154 1355289.39 2128182.38  57.0%  1090 60425s
 80119 36351 1639572.26  100  198 1355289.39 2126995.40  56.9%  1089 60562s
 80507 36542 1876198.92   91  167 1355289.39 2125707.80  56.8%  1089 60722s
 80968 36803 1748216.71   92  141 1355289.39 2124761.99  56.8%  1087 60879s
 81414 37053 1968649.89   91  167 1355289.39 2123323.39  56.7%  1086 61070s
 81898 37351 1656316.71  102  162 1355289.39 2122225.97  56.6%  1084 61199s
 82078 37401 1577246.05   89  137 1355289.39 2121551.05  56.5%  1085 61379s
 82439 37564 1794759.34   89  195 1355289.39 2120985.75  56.5%  1085 61537s
 82903 37736 1463953.11   91  138 1355289.39 2118824.93  56.3%  1084 61708s
 83294 37936 1930132.45   80  281 1355289.39 2117651.48  56.3%  1084 61919s
 83869 38288 1779359.89   97  113 1355289.39 2116863.29  56.2%  1081 62116s
 84395 38622 1929997.07   91  246 1355289.39 2115272.99  56.1%  1079 62306s
 84736 38791 1791573.69  101  138 1355289.39 2114001.93  56.0%  1080 62464s
 85141 39027     cutoff   88      1355289.39 2113482.84  55.9%  1079 62629s
 85582 39252 1888514.24   99  248 1355289.39 2112770.93  55.9%  1078 62808s
 86138 39549 1763428.98   91  178 1355289.39 2110697.44  55.7%  1075 62980s
 86448 39638 1811684.74  104  186 1355289.39 2110087.02  55.7%  1076 63153s
 86888 39860 1900184.48  102   99 1355289.39 2108456.99  55.6%  1075 63353s
 87245 39970     cutoff   94      1355289.39 2107239.40  55.5%  1075 63565s
 87700 40191 1873880.22  102  161 1355289.39 2105951.70  55.4%  1074 63729s
 88199 40440 1846665.26  103  189 1355289.39 2104504.03  55.3%  1072 63887s
 88752 40726 1645479.59   89  209 1355289.39 2103031.15  55.2%  1070 64036s
 89127 40899 1857688.22   96  195 1355289.39 2102506.23  55.1%  1070 64203s
 89576 41160 1565536.93  103  128 1355289.39 2101010.61  55.0%  1068 64324s
 89933 41364     cutoff   99      1355289.39 2099953.77  54.9%  1068 64475s
 90277 41530 1506958.12  115  143 1355289.39 2098910.86  54.9%  1068 64654s
 90716 41725 1697210.26   98  175 1355289.39 2098393.96  54.8%  1067 64840s
 91139 41923 1836249.39   97  184 1355289.39 2096930.28  54.7%  1066 65021s
 91591 42185 1898160.81   98  175 1355289.39 2095653.71  54.6%  1065 65165s
 91986 42380 1758116.38   99  197 1355289.39 2094588.98  54.5%  1065 65307s
 92414 42617 1508901.18   95  183 1355289.39 2093356.99  54.5%  1064 65441s
 92780 42781 1577875.77   98  229 1355289.39 2092200.27  54.4%  1064 65597s
 93183 42996 1632261.60  115  211 1355289.39 2091435.51  54.3%  1063 65728s
 93528 43149 1484446.22   98  109 1355289.39 2090637.77  54.3%  1063 65858s
 93918 43355 1638944.66   95  236 1355289.39 2089420.07  54.2%  1063 66052s
 94252 43503 1830099.39  106  198 1355289.39 2089014.82  54.1%  1064 66244s
 94768 43763 1781223.09  108  166 1355289.39 2087939.60  54.1%  1062 66392s
 95269 44091 1384932.95   98   48 1355289.39 2086895.52  54.0%  1060 66576s
 95547 44202 1920026.27   94  175 1355289.39 2086337.09  53.9%  1060 66717s
 96020 44444 1796232.72   92  124 1355289.39 2085378.09  53.9%  1058 66857s
 96538 44790 1929271.96  111  172 1355289.39 2084216.94  53.8%  1057 66982s
 97024 45029 1457580.35   99  143 1355289.39 2083013.59  53.7%  1055 67138s
 97527 45270 1659531.83  109  149 1355289.39 2081777.88  53.6%  1054 67268s
 98063 45586 1359722.98   80  212 1355289.39 2080992.84  53.5%  1052 67397s
 98494 45820 1871190.74   96  192 1355289.39 2079806.19  53.5%  1051 67535s
 99001 46111 1503057.43   94  184 1355289.39 2078587.69  53.4%  1050 67688s
 99409 46322     cutoff   88      1355289.39 2077307.03  53.3%  1049 67833s
 99927 46638     cutoff  127      1355289.39 2076440.70  53.2%  1047 67974s
 100422 46894 1446690.52   90  145 1355289.39 2075624.90  53.1%  1046 68120s
 100845 47093 1917004.51   92  190 1355289.39 2073924.59  53.0%  1045 68249s
 101196 47266 1758153.24   90   97 1355289.39 2072786.32  52.9%  1045 68374s
 101562 47399 1762847.99  118  157 1355289.39 2072278.98  52.9%  1045 68490s
 101976 47607 1972767.24  101  221 1355289.39 2070913.37  52.8%  1044 68619s
 102413 47881 1485590.63   82  193 1355289.39 2070012.47  52.7%  1043 68744s
 102869 48095 1450383.44  107  232 1355289.39 2069032.86  52.7%  1042 68876s
 103318 48321 1402034.52   79  155 1355289.39 2067928.60  52.6%  1041 69016s
 103696 48479 1479823.21   91  116 1355289.39 2067265.16  52.5%  1041 69156s
 104087 48642 1772201.33   94  229 1355289.39 2066145.94  52.5%  1040 69333s
 104555 48847 1557068.35  106  125 1355289.39 2064892.27  52.4%  1039 69492s
 104998 49067 1385760.35   80  183 1355289.39 2064201.31  52.3%  1038 69650s
 105367 49266 1839253.92  103  166 1355289.39 2063464.36  52.3%  1038 69809s
 105731 49409 1794204.23   89  207 1355289.39 2062737.69  52.2%  1038 69944s
 106077 49610 1694738.73   96  150 1355289.39 2062517.07  52.2%  1037 70103s
 106537 49871 1438162.34  110  134 1355289.39 2061437.26  52.1%  1035 70254s
 107149 50215 1861310.89   96  154 1355289.39 2060317.37  52.0%  1033 70407s
 107575 50419 1447794.04   87  156 1355289.39 2059936.95  52.0%  1032 70560s
 107970 50595 1739587.01   92  197 1355289.39 2058736.05  51.9%  1032 70710s
 108572 50850 1600178.06  100  136 1355289.39 2057960.52  51.8%  1029 70860s
 108932 51014 2046793.85   87  193 1355289.39 2057177.92  51.8%  1029 70992s
 109361 51211 1991059.43  109  210 1355289.39 2056112.92  51.7%  1028 71108s
 109942 51612 1438683.42  102   84 1355289.39 2055661.07  51.7%  1026 71239s
 110303 51788 1707065.62   91  167 1355289.39 2055127.10  51.6%  1026 71357s
 110680 51983 1786833.84  102  227 1355289.39 2054763.50  51.6%  1025 71459s
 110799 52031 1546221.82   88  101 1355289.39 2054359.62  51.6%  1025 71595s
 111250 52259 1549988.65   96  150 1355289.39 2053012.19  51.5%  1024 71730s
 111746 52516 1861089.81   91  200 1355289.39 2052390.50  51.4%  1023 71878s
 112161 52690 1393967.27   88  164 1355289.39 2051891.42  51.4%  1022 72016s
 112532 52864 1734814.38   75  242 1355289.39 2051124.66  51.3%  1022 72152s
 113038 53038 1463536.70  100  116 1355289.39 2049986.02  51.3%  1020 72285s
 113398 53175 1410855.94   90  162 1355289.39 2049167.20  51.2%  1020 72436s
 113720 53322 1377466.66   95  140 1355289.39 2048950.18  51.2%  1020 72592s
 114185 53555 1615053.86   86  169 1355289.39 2048048.84  51.1%  1019 72745s
 114659 53830 1594953.16   95  185 1355289.39 2046998.13  51.0%  1018 72923s
 115080 54038 1589372.56   75  200 1355289.39 2046036.59  51.0%  1017 73074s
 115440 54173     cutoff  112      1355289.39 2045115.69  50.9%  1017 73217s
 115939 54460     cutoff   88      1355289.39 2044720.32  50.9%  1015 73376s
 116301 54620 1860969.45   92  115 1355289.39 2044002.85  50.8%  1015 73509s
 116590 54752 1669353.13   99  175 1355289.39 2043682.87  50.8%  1016 73661s
 116906 54852 1581215.20  104  150 1355289.39 2043186.51  50.8%  1016 73815s
 117241 54995 1865559.93   98  194 1355289.39 2041804.57  50.7%  1016 73965s
 117652 55166 1749114.67  102  193 1355289.39 2041439.82  50.6%  1015 74113s
 118081 55359 1504419.23   95  152 1355289.39 2039947.92  50.5%  1015 74270s
 118623 55589 1550870.81   94   56 1355289.39 2039034.22  50.5%  1013 74415s
 119043 55818 1657472.60   86  169 1355289.39 2038512.22  50.4%  1012 74563s
 119445 56054 1895147.36  113  165 1355289.39 2037672.53  50.3%  1012 74711s
 120049 56421 1566968.90   90  195 1355289.39 2037057.12  50.3%  1009 74844s
 120448 56600 1703304.55   89  169 1355289.39 2036539.62  50.3%  1009 74985s
 120881 56807 1409001.05  108  163 1355289.39 2035778.98  50.2%  1008 75128s
 121333 57036 1403572.45  100  165 1355289.39 2035378.64  50.2%  1007 75271s
 121670 57175 1750066.99  163  171 1355289.39 2034786.66  50.1%  1007 75408s
 122091 57394 1868874.73   93  175 1355289.39 2033846.41  50.1%  1007 75563s
 122465 57489 1886309.49   98  205 1355289.39 2032961.42  50.0%  1006 75718s
 122859 57686 1452004.24  100  238 1355289.39 2032174.15  49.9%  1006 75866s
 123249 57899 1760056.20  109  146 1355289.39 2031925.34  49.9%  1005 76025s
 123649 58090 1725485.49   90  122 1355289.39 2030921.15  49.9%  1004 76181s
 124078 58301     cutoff   95      1355289.39 2030286.00  49.8%  1004 76332s
 124479 58507     cutoff  133      1355289.39 2029714.67  49.8%  1003 76468s
 124995 58711 1837256.41   94  202 1355289.39 2028508.46  49.7%  1002 76641s
 125400 58924 1709341.20  110  161 1355289.39 2028088.60  49.6%  1001 76798s
 125934 59087 1414445.35  105  177 1355289.39 2027602.69  49.6%  1000 76953s
 126449 59384     cutoff  103      1355289.39 2027147.00  49.6%   999 77115s
 126755 59474 1781181.63  108  178 1355289.39 2026243.51  49.5%   999 77254s
 127003 59547 1797346.94  115  183 1355289.39 2025194.85  49.4%   999 77399s
 127316 59691 1791740.79  114  194 1355289.39 2024704.78  49.4%   999 77542s
 127724 59905 1582685.20  136  168 1355289.39 2024183.77  49.4%   999 77703s
 128198 60085     cutoff   84      1355289.39 2023222.57  49.3%   998 77874s
 128568 60214 1814416.56   98  158 1355289.39 2022215.44  49.2%   998 78046s
 129068 60451     cutoff  112      1355289.39 2021329.85  49.1%   996 78198s
 129571 60736 1441821.08  107  153 1355289.39 2021070.14  49.1%   995 78329s
 129840 60804 1523839.67   98  136 1355289.39 2020392.38  49.1%   995 78470s
 130300 61019     cutoff   77      1355289.39 2019272.10  49.0%   994 78612s
 130776 61322 1695641.53   93  130 1355289.39 2019027.16  49.0%   993 78749s
 131224 61492 1470230.88   95  185 1355289.39 2018021.80  48.9%   993 78893s
 131608 61678 1520959.09   92  219 1355289.39 2017617.21  48.9%   992 79037s
 131959 61830 1690986.53  104  123 1355289.39 2016930.29  48.8%   992 79182s
 132545 62150 1610739.13  108  156 1355289.39 2016009.89  48.8%   990 79321s
 132993 62408 1634453.69   85  193 1355289.39 2015396.03  48.7%   989 79450s
 133496 62640 1942113.46  101  194 1355289.39 2014590.93  48.6%   988 79587s
 133914 62845 1540901.08   86  231 1355289.39 2013970.24  48.6%   988 79720s
 134444 63153     cutoff   88      1355289.39 2012955.41  48.5%   986 79863s
 134845 63357 1622993.03   96  176 1355289.39 2012283.10  48.5%   986 79981s
 135132 63476 1358146.95  104  202 1355289.39 2012011.76  48.5%   986 80112s
 135585 63672 1787716.59   94  215 1355289.39 2011412.51  48.4%   985 80270s
 135967 63908 1870353.72  104  186 1355289.39 2011048.34  48.4%   984 80403s
 136309 64050 1704723.04  104  190 1355289.39 2010469.80  48.3%   984 80530s
 136630 64194 1626462.97  105  235 1355289.39 2010161.51  48.3%   984 80667s
 137088 64423 1489955.34  119  126 1355289.39 2009137.56  48.2%   983 80808s
 137475 64642 1420350.03  101  141 1355289.39 2008626.70  48.2%   983 80950s
 137742 64692 1411888.30   83  192 1355289.39 2008317.87  48.2%   983 81083s
 138143 64838 1867701.03  115  152 1355289.39 2007653.90  48.1%   983 81212s
 138660 65047 1741449.96   96  121 1355289.39 2007069.84  48.1%   981 81361s
 139065 65244 1419105.11  130  128 1355289.39 2006038.74  48.0%   981 81510s
 139395 65397 1721902.32  108  195 1355289.39 2005231.55  48.0%   981 81633s
 139993 65714 1954274.10   99  227 1355289.39 2004466.72  47.9%   979 81752s
 140377 65834 1617124.61   97  144 1355289.39 2004039.04  47.9%   979 81870s
 140742 65996 1712800.76   88  157 1355289.39 2003634.11  47.8%   979 81985s
 141231 66260 1677048.70  119  126 1355289.39 2003006.30  47.8%   978 82114s
 141700 66470 1678737.89  105  231 1355289.39 2002704.09  47.8%   977 82242s
 142063 66615 1797626.74   96  123 1355289.39 2002114.71  47.7%   977 82361s
 142491 66822 1719950.20   97  151 1355289.39 2001561.81  47.7%   976 82479s
 142812 66956 1588815.48   92  104 1355289.39 2001052.05  47.6%   976 82606s
 143151 67084 1713046.67  109  212 1355289.39 2000276.77  47.6%   976 82731s
 143590 67211 1511115.85  107   74 1355289.39 1999523.42  47.5%   975 82859s
 144008 67394 1801038.81  107  123 1355289.39 1998862.28  47.5%   975 82978s
 144460 67626 1963846.04   85  222 1355289.39 1998357.26  47.4%   974 83075s
 144665 67723 1648035.67   86  157 1355289.39 1998077.21  47.4%   974 83196s
 145109 67917 1890856.82   97  168 1355289.39 1997088.45  47.4%   973 83318s
 145585 68156 1716707.07   94   91 1355289.39 1996656.01  47.3%   972 83439s
 145941 68290 1878618.92   93  165 1355289.39 1995970.31  47.3%   972 83567s
 146304 68468 1741792.67  104  253 1355289.39 1995305.99  47.2%   972 83675s
 146727 68677 1714231.62  124  162 1355289.39 1994894.76  47.2%   971 83793s
 147221 68940 1449958.79  135  106 1355289.39 1994297.27  47.1%   970 83902s
 147630 69163 1389644.82  118  164 1355289.39 1993978.05  47.1%   970 84027s
 148003 69329     cutoff   80      1355289.39 1993625.48  47.1%   970 84145s
 148301 69390     cutoff   99      1355289.39 1992919.18  47.0%   970 84262s
 148703 69584 1383359.64   96  164 1355289.39 1992370.59  47.0%   969 84389s
 149154 69760 1775539.99   91  230 1355289.39 1991602.54  47.0%   968 84493s
 149633 69991     cutoff   93      1355289.39 1991179.05  46.9%   968 84623s
 150079 70202 1586875.36   95  149 1355289.39 1990534.85  46.9%   967 84745s
 150615 70508 1723383.71  104  182 1355289.39 1989988.89  46.8%   966 84850s
 151074 70719 1715823.91  110  116 1355289.39 1989281.93  46.8%   965 84968s
 151454 70868 1481210.19   94  128 1355289.39 1988538.97  46.7%   965 85091s
 151823 70985 1645146.90   96  144 1355289.39 1987886.23  46.7%   965 85205s
 152290 71213 1664684.86   91  163 1355289.39 1987290.99  46.6%   964 85333s
 152622 71317 1572806.31   92  173 1355289.39 1986750.78  46.6%   963 85454s
 152956 71413     cutoff  102      1355289.39 1986093.23  46.5%   963 85570s
 153361 71564 1736367.46   95  207 1355289.39 1985603.51  46.5%   963 85683s
 153849 71783 1529465.29   93  179 1355289.39 1985004.85  46.5%   962 85802s
 154330 72024 1802016.98   97  132 1355289.39 1984254.95  46.4%   961 85934s
 154733 72191 1622676.88   99  166 1355289.39 1983712.01  46.4%   961 86057s
 155133 72366 1756736.68  116  228 1355289.39 1983301.53  46.3%   961 86178s
 155651 72624     cutoff   95      1355289.39 1982305.65  46.3%   960 86281s
 156069 72818 1634247.95  100  143 1355289.39 1981852.70  46.2%   959 86400s

Cutting planes:
  Gomory: 211
  Cover: 2
  Implied bound: 7
  Projected implied bound: 10
  Clique: 23
  MIR: 144
  Flow cover: 325
  GUB cover: 1
  Zero half: 12

Explored 156503 nodes (150014819 simplex iterations) in 86401.10 seconds
Thread count was 4 (of 16 available processors)

Solution count 10: 1.35529e+06 1.35529e+06 1.35529e+06 ... 1.07714e+06

Time limit reached
Warning: max constraint violation (8.8010e-04) exceeds tolerance
Best objective 1.355288504361e+06, best bound 1.981355429853e+06, gap 46.1944%

***
***  |- Calculation finished, timelimit reached 86,401.14 (86401.14) sec.))
***  |-----------------------------------------------------------------------------------------------------------------------
***
*****************************************************************************************************************************
#############################################################################################################################
###
### Results
###
### The objective of the solution is 1,355,288.5044 (1355288.5044) and is feasible with a Gap of 0.4619
###
### Service 24 (WAF7) is operated by 3 vessels from type 18 (PMax25)
###  |- Vessel  1 has the path [100, 276, -1]
###  |  100 (DEHAM Out@288.0) - 276 (ESALG In@496.0/Out@515.0) - -1 (DUMMY_END Ziel-Service 24)
###  |- Vessel  2 has the path [101, 277, -1]
###  |  101 (DEHAM Out@456.0) - 277 (ESALG In@664.0/Out@683.0) - -1 (DUMMY_END Ziel-Service 24)
###  |- Vessel 13 has the path [104, 275, 201, 291, 202, 114, 278, -1]
###  |  104 (DKAAR Out@220.0) - 275 (ESALG In@328.0/Out@347.0) - 201 (MAPTM In@375.0/Out@396.0) - 291 (MAPTM In@379.0/Out@398
###  |  .0) - 202 (MAPTM In@406.0/Out@427.0) - 114 (ESALG In@452.0/Out@464.0) - 278 (ESALG In@832.0/Out@851.0) - -1 (DUMMY_EN
###  |  D Ziel-Service 24)
###  |   |- and carried Demand  18,   18.0 containers from 201 to 114
###  |   |- and carried Demand  52,  484.0 containers from 202 to 114
###  |   |- and carried Demand  53,   18.0 containers from 202 to 114
###  |   |- and carried Demand 119,  214.0 containers from 201 to 278
###  |   |- and carried Demand 120,   10.0 containers from 201 to 278
###  |   |- and carried Demand 121,  312.0 containers from 201 to 114
###  |   |- and carried Demand 122,   18.0 containers from 201 to 114
###  |   |- and carried Demand 132,  214.0 containers from 202 to 278
###  |   |- and carried Demand 133,   10.0 containers from 202 to 278
###  |   |- and carried Demand 134,  484.0 containers from 202 to 114
###  |   |- and carried Demand 135,   18.0 containers from 202 to 114
###  |   |- and carried Demand 138,  214.0 containers from 291 to 278
###  |   |- and carried Demand 139,   10.0 containers from 291 to 278
###  |   |- and carried Demand 140,  484.0 containers from 291 to 114
###  |   |- and carried Demand 141,   18.0 containers from 291 to 114
###  |
### Service 121 (SAE) is operated by 2 vessels from type 30 (PMax35)
###  |- Vessel 12 has the path [8, 302, -2]
###  |  8 (BEANR Out@570.0) - 302 (HNPCR In@1166.0/Out@1179.0) - -2 (DUMMY_END Ziel-Service 121)
###  |- Vessel 18 has the path [148, 315, 311, 301, -2]
###  |  148 (GBFXT Out@470.0) - 315 (USORF In@873.0/Out@881.0) - 311 (USMIA In@935.0/Out@943.0) - 301 (HNPCR In@998.0/Out@101
###  |  1.0) - -2 (DUMMY_END Ziel-Service 121)
###  |   |- and carried Demand 170,   10.0 containers from 311 to 301
###  |   |- and carried Demand 171,   75.0 containers from 315 to 301
###  |   |- and carried Demand 172,  114.0 containers from 315 to 301
###  |
### Service 177 (WCSA) is operated by 3 vessels from type 19 (PMax28)
###  |- Vessel  5 has the path [218, 133, 199, 290, 200, 112, 284, 45, 36, 240, 236, 0]
###  |  218 (NLRTM Out@92.0) - 133 (FRLEH In@111.0/Out@127.0) - 199 (MAPTM In@207.0/Out@228.0) - 290 (MAPTM In@211.0/Out@230.
###  |  0) - 200 (MAPTM In@238.0/Out@259.0) - 112 (ESALG In@284.0/Out@296.0) - 284 (GWOXB In@463.0/Out@542.0) - 45 (CMDLA In@
###  |  765.0/Out@811.0) - 36 (CLLQN In@1240.0/Out@1258.0) - 240 (PECLL In@1398.71/Out@1400.71) - 236 (PABLB In@1640.0/Out@16
###  |  52.0) - 0 (DUMMY_END Ziel-Service 177)
###  |   |- and carried Demand   6,   17.0 containers from 218 to 133
###  |   |- and carried Demand   7,  161.0 containers from 199 to  45
###  |   |- and carried Demand   8,   19.0 containers from 199 to 112
###  |   |- and carried Demand  45,  161.0 containers from 200 to  45
###  |   |- and carried Demand  46,  580.0 containers from 200 to 112
###  |   |- and carried Demand  80,  194.0 containers from  36 to 236
###  |   |- and carried Demand  81,   20.0 containers from  36 to 236
###  |   |- and carried Demand  83,    5.0 containers from  36 to 236
###  |   |- and carried Demand 117,  580.0 containers from 199 to 112
###  |   |- and carried Demand 131,  580.0 containers from 200 to 112
###  |   |- and carried Demand 144,  161.0 containers from 290 to  45
###  |   |- and carried Demand 145,  580.0 containers from 290 to 112
###  |- Vessel  7 has the path [221, 137, 203, 235, 0]
###  |  221 (NLRTM Out@428.0) - 137 (FRLEH In@447.0/Out@463.0) - 203 (MAPTM In@543.0/Out@564.0) - 235 (PABLB In@1472.0/Out@14
###  |  84.0) - 0 (DUMMY_END Ziel-Service 177)
###  |   |- and carried Demand  26,    6.0 containers from 221 to 137
###  |- Vessel  8 has the path [223, 138, 204, 234, 0]
###  |  223 (NLRTM Out@596.0) - 138 (FRLEH In@615.0/Out@631.0) - 204 (MAPTM In@711.0/Out@732.0) - 234 (PABLB In@1304.0/Out@13
###  |  16.0) - 0 (DUMMY_END Ziel-Service 177)
###  |
### Vessels not used in the solution: [3, 4, 6, 9, 10, 11, 14, 15, 16, 17]
###  |-----------------------------------------------------------------------------------------------------------------------
###
#############################################################################################################################

### Detialed variable overview

### All variables with value greater zero:
rho[24,18] = 1
rho[177,19] = 1
rho[121,30] = 1
eta[24,18,1] = 1
eta[24,18,2] = 1
eta[24,18,3] = 1
eta[177,19,1] = 1
eta[177,19,2] = 1
eta[177,19,3] = 1
eta[121,30,1] = 1
eta[121,30,2] = 1
y[1,276,-1] = 1
y[1,100,276] = 1
y[2,101,277] = 1
y[2,277,-1] = 1
y[5,200,112] = 1
y[5,290,200] = 1
y[5,240,236] = 1
y[5,133,199] = 1
y[5,199,290] = 1
y[5,45,36] = 1
y[5,218,133] = 1
y[5,36,240] = 1
y[5,284,45] = 1
y[5,236,0] = 1
y[5,112,284] = 1
y[7,137,203] = 1
y[7,203,235] = 1
y[7,221,137] = 1
y[7,235,0] = 1
y[8,234,0] = 1
y[8,204,234] = 1
y[8,223,138] = 1
y[8,138,204] = 1
y[12,8,302] = 1
y[12,302,-2] = 1
y[13,104,275] = 1
y[13,275,201] = 1
y[13,291,202] = 1
y[13,114,278] = 1
y[13,202,114] = 1
y[13,278,-1] = 1
y[13,201,291] = 1
y[18,301,-2] = 1
y[18,148,315] = 1
y[18,315,311] = 1
y[18,311,301] = 1
xD[6,218,133] = 17
xD[7,200,112] = 161
xD[7,290,200] = 161
xD[7,199,290] = 161
xD[7,284,45] = 161
xD[7,112,284] = 161
xD[8,200,112] = 19.0001
xD[8,290,200] = 19.0001
xD[8,199,290] = 19.0001
xD[18,291,202] = 18
xD[18,202,114] = 18
xD[18,201,291] = 18
xD[26,221,137] = 6
xD[45,200,112] = 161
xD[45,284,45] = 161
xD[45,112,284] = 161
xD[46,200,112] = 580
xD[52,202,114] = 484
xD[53,202,114] = 18
xD[80,240,236] = 194
xD[80,36,240] = 194
xD[81,240,236] = 20
xD[81,36,240] = 20
xD[83,240,236] = 5
xD[83,36,240] = 5
xD[117,200,112] = 580
xD[117,290,200] = 580
xD[117,199,290] = 580
xD[119,291,202] = 214
xD[119,114,278] = 214
xD[119,202,114] = 214
xD[119,201,291] = 214
xD[120,291,202] = 10
xD[120,114,278] = 10
xD[120,202,114] = 10
xD[120,201,291] = 10
xD[121,291,202] = 312
xD[121,202,114] = 312
xD[121,201,291] = 312
xD[122,291,202] = 18
xD[122,202,114] = 18
xD[122,201,291] = 18
xD[131,200,112] = 580
xD[132,114,278] = 214
xD[132,202,114] = 214
xD[133,114,278] = 10
xD[133,202,114] = 10
xD[134,202,114] = 484
xD[135,202,114] = 18
xD[138,291,202] = 214
xD[138,114,278] = 214
xD[138,202,114] = 214
xD[139,291,202] = 10
xD[139,114,278] = 10
xD[139,202,114] = 10
xD[140,291,202] = 484
xD[140,202,114] = 484
xD[141,291,202] = 18
xD[141,202,114] = 18
xD[144,200,112] = 161
xD[144,290,200] = 161
xD[144,284,45] = 161
xD[144,112,284] = 161
xD[145,200,112] = 580
xD[145,290,200] = 580
xD[170,311,301] = 10
xD[171,315,311] = 75
xD[171,311,301] = 75
xD[172,315,311] = 114
xD[172,311,301] = 114
zE[36] = 1240
zE[45] = 764.999
zE[112] = 284
zE[114] = 452
zE[133] = 111
zE[137] = 447
zE[138] = 615
zE[199] = 207
zE[200] = 238
zE[201] = 375
zE[202] = 406
zE[203] = 543
zE[204] = 711
zE[234] = 1304
zE[235] = 1472
zE[236] = 1640
zE[240] = 1398.71
zE[275] = 328
zE[276] = 496
zE[277] = 664
zE[278] = 832
zE[284] = 463
zE[290] = 211
zE[291] = 379
zE[301] = 998
zE[302] = 1166
zE[311] = 935
zE[315] = 873
zX[8] = 570
zX[36] = 1258
zX[45] = 810.999
zX[100] = 288
zX[101] = 456
zX[104] = 220
zX[112] = 296
zX[114] = 464
zX[133] = 127
zX[137] = 463
zX[138] = 631
zX[148] = 470
zX[199] = 228
zX[200] = 259
zX[201] = 396
zX[202] = 427
zX[203] = 564
zX[204] = 732
zX[218] = 92
zX[221] = 428
zX[223] = 596
zX[234] = 1316
zX[235] = 1484
zX[236] = 1652
zX[240] = 1400.71
zX[275] = 347
zX[276] = 515
zX[277] = 683
zX[278] = 851
zX[284] = 542
zX[290] = 230
zX[291] = 398
zX[301] = 1011
zX[302] = 1179
zX[311] = 943
zX[315] = 881
w[5,(240,236)] = 125.884
w[5,(36,240)] = 140.711
phi[1] = 227
phi[2] = 227
phi[5] = 1560
phi[7] = 1056
phi[8] = 720
phi[12] = 609
phi[13] = 631
phi[18] = 541

### All variables with value smaller zero:

### End

real	1442m14.215s
user	5493m41.166s
sys	269m22.875s
	Freetype 2.4.12 environment removed
	Python 3.6.0 environment removed
	Gurobi 8.1.0 environment removed
