	Freetype 2.4.12 environment established
		library to render fonts
	Python 3.6.0 environment established
	Gurobi 8.1.0 environment established
Instance LSFRP: LSFDRP_2_3_0_1_fr.p
Instance LSFDP: LSFDRP_2_3_0_1_fd_00.p

*****************************************************************************************************************************
*** Solve LSFDRP_2_3_0_1_fd_00 with Gurobi
***
*** Graph info
*** |S|: 18
*** |S^E|: 0
*** |S^C|: 0
*** |V|: 370
*** |A|: 13829
*** |A^i|: 13778
*** |A^f|: 51
*** |M|: 221
*** |E|: 22

Changed value of parameter TimeLimit to 86400.0
   Prev: 1e+100  Min: 0.0  Max: 1e+100  Default: 1e+100
Changed value of parameter Threads to 4
   Prev: 0  Min: 0  Max: 1024  Default: 0
Optimize a model with 121089 rows, 3334481 columns and 12198120 nonzeros
Variable types: 3085505 continuous, 248976 integer (248976 binary)
Coefficient statistics:
  Matrix range     [1e+00, 4e+03]
  Objective range  [2e+00, 5e+06]
  Bounds range     [1e+00, 1e+00]
  RHS range        [1e+00, 4e+03]
Presolve removed 34741 rows and 1658855 columns (presolve time = 5s) ...
Presolve removed 70104 rows and 2751770 columns (presolve time = 11s) ...
Presolve removed 78629 rows and 2792897 columns (presolve time = 15s) ...
Presolve removed 79060 rows and 2793352 columns (presolve time = 20s) ...
Warning: Failed to open log file 'gurobi.log'
Presolve removed 79062 rows and 2793354 columns (presolve time = 26s) ...
Presolve removed 79062 rows and 2918877 columns (presolve time = 173s) ...
Presolve removed 101890 rows and 3170069 columns (presolve time = 175s) ...
Presolve removed 103499 rows and 3184569 columns (presolve time = 205s) ...
Presolve removed 103499 rows and 3184569 columns
Presolve time: 204.64s
Presolved: 17590 rows, 149912 columns, 672151 nonzeros
Variable types: 73348 continuous, 76564 integer (76519 binary)

Deterministic concurrent LP optimizer: primal and dual simplex
Showing first log only...


Root simplex log...

Iteration    Objective       Primal Inf.    Dual Inf.      Time
       0   -5.7878776e+04   1.280000e+02   2.817515e+09    208s
   13305   -1.3412308e+07   0.000000e+00   1.748424e+10    210s
   15568   -1.3354512e+07   0.000000e+00   4.246832e+10    215s
Concurrent spin time: 4.33s

Solved with dual simplex

Root relaxation: objective 4.200801e+06, 21630 iterations, 13.30 seconds
Total elapsed time = 220.03s

    Nodes    |    Current Node    |     Objective Bounds      |     Work
 Expl Unexpl |  Obj  Depth IntInf | Incumbent    BestBd   Gap | It/Node Time

     0     0 4154625.64    0  278          - 4154625.64      -     -  222s
H    0     0                    -1866102.263 4127258.69   321%     -  234s
     0     0 3252527.20    0  279 -1866102.3 3252527.20   274%     -  234s
H    0     0                    -991401.7564 3252527.20   428%     -  235s
     0     0 3250852.20    0  294 -991401.76 3250852.20   428%     -  237s
     0     0 3250171.06    0  290 -991401.76 3250171.06   428%     -  237s
     0     0 3250171.06    0  290 -991401.76 3250171.06   428%     -  237s
     0     0 3199052.80    0  293 -991401.76 3199052.80   423%     -  248s
H    0     0                    -905388.6800 3199052.80   453%     -  249s
     0     0 3198170.36    0  288 -905388.68 3198170.36   453%     -  250s
     0     0 3195515.09    0  289 -905388.68 3195515.09   453%     -  251s
     0     0 3194687.39    0  288 -905388.68 3194687.39   453%     -  252s
     0     0 3194687.39    0  288 -905388.68 3194687.39   453%     -  252s
     0     0 3156179.42    0  345 -905388.68 3156179.42   449%     -  257s
H    0     0                    -902790.3112 3156179.42   450%     -  260s
     0     0 3152298.06    0  357 -902790.31 3152298.06   449%     -  260s
     0     0 3151357.10    0  349 -902790.31 3151357.10   449%     -  261s
     0     0 3151315.48    0  348 -902790.31 3151315.48   449%     -  261s
     0     0 3116797.14    0  351 -902790.31 3116797.14   445%     -  270s
     0     0 3113465.85    0  329 -902790.31 3113465.85   445%     -  273s
     0     0 3112793.48    0  328 -902790.31 3112793.48   445%     -  273s
     0     0 3112782.61    0  329 -902790.31 3112782.61   445%     -  274s
     0     0 3099085.67    0  355 -902790.31 3099085.67   443%     -  278s
     0     0 3098577.81    0  356 -902790.31 3098577.81   443%     -  280s
     0     0 3097043.13    0  342 -902790.31 3097043.13   443%     -  281s
     0     0 3096872.20    0  344 -902790.31 3096872.20   443%     -  282s
     0     0 3096814.77    0  348 -902790.31 3096814.77   443%     -  282s
     0     0 3093146.20    0  306 -902790.31 3093146.20   443%     -  288s
     0     0 3092281.89    0  305 -902790.31 3092281.89   443%     -  291s
     0     0 3092013.88    0  320 -902790.31 3092013.88   442%     -  292s
     0     0 3091977.00    0  321 -902790.31 3091977.00   442%     -  292s
     0     0 3091730.60    0  312 -902790.31 3091730.60   442%     -  296s
     0     0 3091475.46    0  372 -902790.31 3091475.46   442%     -  297s
     0     0 3091453.38    0  373 -902790.31 3091453.38   442%     -  298s
     0     0 3090168.97    0  345 -902790.31 3090168.97   442%     -  303s
     0     0 3089935.23    0  313 -902790.31 3089935.23   442%     -  305s
     0     0 3089935.23    0  315 -902790.31 3089935.23   442%     -  305s
     0     0 3089929.30    0  315 -902790.31 3089929.30   442%     -  313s
     0     0 3089929.30    0  317 -902790.31 3089929.30   442%     -  315s
     0     0 3089799.07    0  321 -902790.31 3089799.07   442%     -  323s
     0     0 3089799.07    0  321 -902790.31 3089799.07   442%     -  359s
     0     2 3089799.07    0  321 -902790.31 3089799.07   442%     -  368s
     1     4 3010793.62    1  316 -902790.31 3088815.85   442%  1414  384s
     3     8 2979106.95    2  309 -902790.31 3010793.62   433%  1913  400s
     7    12 2968340.98    3  310 -902790.31 2978825.76   430%  1815  409s
    11    16 2960614.31    4  292 -902790.31 2978825.76   430%  1431  417s
    15    17 2952889.28    5  306 -902790.31 2978825.76   430%  1454  428s
    19    21 1544736.47    5  290 -902790.31 2978825.76   430%  1655  689s
    23    26 2841310.16    6  320 -902790.31 2978825.76   430%  6785  702s
    28    28 2908705.85    6  304 -902790.31 2978825.76   430%  5946  710s
H   33    34                    -769608.9520 2978825.76   487%  5097  710s
    34    32 2896461.97    7  293 -769608.95 2978825.76   487%  5002  960s
    41    43 2891564.93    9  307 -769608.95 2978825.76   487%  6339 1272s
    46    46 2891564.93   10  295 -769608.95 2978825.76   487%  8204 1754s
    53    54 2888964.91   12  293 -769608.95 2978825.76   487% 10760 1840s
H   60    61                    -769608.9518 2978825.76   487%  9939 2103s
H   61    62                    -769608.9517 2978825.76   487%  9920 2103s
H   62    63                    -695830.7249 2978825.76   528% 10306 2103s
    67    69 2866968.27   14  305 -695830.72 2978825.76   528%  9835 2736s
    72    75 2854420.03   14  295 -695830.72 2978825.76   528% 11217 3101s
    76    78 2774426.41   15  271 -695830.72 2978825.76   528% 11228 3392s
    81    81 1301024.64   15  273 -695830.72 2978825.76   528% 11817 3791s
    88    88 2762456.06   16  274 -695830.72 2978825.76   528% 11637 4220s
   101   102 2555420.56   18  241 -695830.72 2978825.76   528% 11856 4687s
H  106   102                    -592196.0457 2978825.76   603% 11357 4687s
   115   114 2613840.26   24  249 -592196.05 2978825.76   603% 11861 4947s
   125   126 1477434.24   25  223 -592196.05 2978825.76   603% 11549 5440s
   134   136 2532532.49   29  241 -592196.05 2978825.76   603% 11949 5738s
H  141   144                    -592196.0448 2978825.76   603% 11987 6120s
   149   149 2526883.99   31  244 -592196.04 2978825.76   603% 12392 6258s
   157   158 2472610.47   34  240 -592196.04 2978825.76   603% 12191 6549s
   165   165 2451050.67   35  256 -592196.04 2978825.76   603% 12138 6762s
H  179   181                    -368133.2342 2978825.76   909% 11693 7018s
   184   184 2429423.58   41  260 -368133.23 2978825.76   909% 11748 7215s
   200   200 2369546.30   48  195 -368133.23 2978825.76   909% 11201 7467s
H  213   216                    -362440.6303 2978825.76   922% 10872 7706s
H  214   217                    -362440.6301 2978825.76   922% 10836 7706s
H  217   219                    -316735.9967 2978825.76  1040% 10816 7706s
   224   224 2374001.53   52  227 -316736.00 2978825.76  1040% 10657 7955s
H  247   248                    -316735.9967 2978825.76  1040% 10107 8334s
H  251   251                    -311043.3928 2978825.76  1058% 10127 8334s
   262   264 2232631.93   59  215 -311043.39 2978825.76  1058% 10004 8638s
   272   272 2248218.47   59  198 -311043.39 2978825.76  1058%  9987 8910s
H  291   291                    -311043.3927 2978825.76  1058%  9737 9404s
H  293   293                    -311043.3896 2978825.76  1058%  9811 9404s
   302   303 2190377.61   64  198 -311043.39 2978825.76  1058%  9867 9661s
H  336   330                    -311043.3891 2978825.76  1058%  9261 10007s
H  348   342                    -311043.3891 2978825.76  1058%  9170 10007s
   370   366 950954.544   75  148 -311043.39 2978825.76  1058%  8746 10625s
H  380   366                    -310185.2851 2978825.76  1060%  8545 10625s
   408   389 1701545.06   89  156 -310185.29 2978825.76  1060%  8442 10849s
   444   420 985324.861  105  130 -310185.29 2978825.76  1060%  8071 11017s
H  467   438                    -310185.2848 2978825.76  1060%  7681 11017s
   477   447 683419.334  128  129 -310185.28 2978825.76  1060%  7787 11150s
   522   490 infeasible  148      -310185.28 2921565.14  1042%  7319 11357s
   546   506 2789608.33    7  304 -310185.28 2921565.14  1042%  7333 11504s
H  578   536                    -281875.6408 2921565.14  1136%  7158 11797s
   615   557 2666496.73   12  306 -281875.64 2921565.14  1136%  6968 12110s
H  617   555                    -270274.8376 2921565.14  1181%  6970 12110s
   654   588 2578150.24   19  268 -270274.84 2921565.14  1181%  6852 12484s
   677   610 2466038.15   23  241 -270274.84 2921565.14  1181%  7024 12826s
   710   632 2419713.62   25  223 -270274.84 2921565.14  1181%  7090 13091s
   754   676 2389265.40   26  238 -270274.84 2921565.14  1181%  6961 13635s
   828   735 2302858.08   39  238 -270274.84 2921565.14  1181%  6617 14007s
   869   769 2248873.37   47  246 -270274.84 2921565.14  1181%  6617 14340s
   888   784 2118975.91   55  219 -270274.84 2921565.14  1181%  6768 14612s
   910   811 1970030.61   62  181 -270274.84 2921565.14  1181%  6893 14902s
   974   872 1968293.08   62  173 -270274.84 2921565.14  1181%  6681 15178s
H 1054   932                    -270274.8358 2921565.14  1181%  6375 15179s
  1055   933 2527445.89   23  321 -270274.84 2921565.14  1181%  6369 15286s
  1057   934 2607296.55   12  243 -270274.84 2921565.14  1181%  6357 15310s
  1058   935 1721749.03   73  253 -270274.84 2921565.14  1181%  6351 15327s
  1059   936 2628571.93    7  255 -270274.84 2921565.14  1181%  6345 15331s
  1061   937 2468657.01   51  280 -270274.84 2921565.14  1181%  6333 15339s
  1062   938 2560053.83   14  287 -270274.84 2921565.14  1181%  6327 15340s
  1064   939 2232005.39   60  295 -270274.84 2921565.14  1181%  6315 15348s
  1065   940 2283893.32   73  293 -270274.84 2283893.32   945%  6309 15367s
  1066   940 2269599.81   15  309 -270274.84 2269599.81   940%  6303 15372s
  1067   941 1918093.28   84  320 -270274.84 2261703.03   937%  6297 15375s
  1069   942 2156473.96   76  285 -270274.84 2156473.96   898%  6285 15390s
  1071   945 2156473.96   26  321 -270274.84 2156473.96   898%  6313 15403s
  1073   946 1711815.11   72  250 -270274.84 2156473.96   898%  6302 15417s
  1074   947 2156473.96   20  254 -270274.84 2156473.96   898%  6296 15428s
  1075   948 1826576.71  109  276 -270274.84 2156473.96   898%  6290 15431s
  1076   948 2156473.96   27  278 -270274.84 2156473.96   898%  6284 15436s
  1077   949 322492.506  172  289 -270274.84 2150615.53   896%  6278 15440s
  1079   950 2131129.96   46  265 -270274.84 2131129.96   889%  6267 15452s
  1081   952 110397.420   56  305 -270274.84 2118098.74   884%  6255 15457s
  1084   954 2111189.52   44  319 -270274.84 2111189.52   881%  6238 15462s
  1085   954 2103255.17   24  296 -270274.84 2103255.17   878%  6232 15472s
  1088   956 -50217.949  102  325 -270274.84 2096248.88   876%  6215 15478s
  1089   957 1798637.00   11  333 -270274.84 2089290.87   873%  6209 15487s
  1091   958 1568018.11   99  327 -270274.84 2080075.64   870%  6198 15490s
  1093   960 553474.943  115  335 -270274.84 2076799.77   868%  6186 15495s
  1094   960 2059321.19   50  324 -270274.84 2059321.19   862%  6181 15508s
  1096   962 2054444.67   85  318 -270274.84 2054444.67   860%  6169 15511s
  1098   963 1856811.02   42  329 -270274.84 2053397.96   860%  6158 15517s
  1099   964 1992401.51   18  329 -270274.84 2049678.76   858%  6153 15548s
  1101   965 -39475.778  106  323 -270274.84 2047833.76   858%  6141 15550s
  1102   966 2047317.40   56  334 -270274.84 2047317.40   857%  6136 15555s
  1103   966 459697.733  192  333 -270274.84 2045850.00   857%  6130 15563s
  1105   968 1180879.93   57  339 -270274.84 2044645.96   857%  6119 15567s
  1106   968 2043365.78   36  348 -270274.84 2043365.78   856%  6114 15575s
  1108   970 1944632.60  101  348 -270274.84 2041371.21   855%  6103 15606s
  1109   970 2041371.21   16  346 -270274.84 2041371.21   855%  6097 15610s
H 1109   920                    -270274.8340 2041371.21   855%  6097 15623s
  1110   921 2041371.21   16  346 -270274.83 2041371.21   855%  6092 15765s
  1111   925 2022878.31   26  350 -270274.83 2022878.31   848%  6156 15842s
  1113   928 1892597.59   27  340 -270274.83 1978936.80   832%  6148 15951s
  1117   931 1878612.49   28  365 -270274.83 1934290.80   816%  6141 16050s
  1121   933 1821165.97   28  306 -270274.83 1928470.94   814%  6135 16090s
  1125   936 1867381.97   29  310 -270274.83 1867381.97   791%  6122 16119s
  1129   938 1826405.56   29  277 -270274.83 1863868.06   790%  6106 16361s
  1133   941 1854384.79   30  305 -270274.83 1863868.06   790%  6159 16383s
  1137   942 1278769.93   30  236 -270274.83 1863868.06   790%  6148 16414s
  1143   945 1743837.56   31  286 -270274.83 1863868.06   790%  6129 16445s
  1148   945 1782465.63   31  329 -270274.83 1863868.06   790%  6119 16481s
  1154   951 1629571.84   32  307 -270274.83 1863868.06   790%  6109 16526s
  1162   959 1690805.39   33  257 -270274.83 1863868.06   790%  6095 16551s
  1170   963 1611329.18   34  230 -270274.83 1863868.06   790%  6082 16575s
  1177   966 1636868.00   35  239 -270274.83 1863868.06   790%  6068 16616s
  1186   972 1616264.35   36  253 -270274.83 1863868.06   790%  6055 16639s
  1199   980 1611875.03   37  274 -270274.83 1863868.06   790%  6005 16657s
  1214   992 1579448.27   40  226 -270274.83 1863868.06   790%  5951 16682s
  1225  1000 1511341.59   42  193 -270274.83 1863868.06   790%  5923 16707s
  1242  1007 742867.795   45  196 -270274.83 1863868.06   790%  5867 16740s
  1261  1023 1439594.12   48  229 -270274.83 1863868.06   790%  5801 16780s
  1276  1031 1427238.69   51  225 -270274.83 1863868.06   790%  5765 16902s
  1298  1047 589906.156   55  185 -270274.83 1863868.06   790%  5709 16931s
  1323  1061 1179224.47   59  149 -270274.83 1863868.06   790%  5631 17039s
  1345  1077 1392852.17   61  204 -270274.83 1863868.06   790%  5576 17354s
  1362  1086 1377145.31   65  164 -270274.83 1863868.06   790%  5524 17512s
  1388  1099 1363602.78   71  152 -270274.83 1863868.06   790%  5478 17682s
  1417  1122 1327907.99   77  134 -270274.83 1863868.06   790%  5426 17730s
  1462  1146 1316150.48   84  138 -270274.83 1863868.06   790%  5300 17792s
  1494  1165 -252360.78   91  139 -270274.83 1863868.06   790%  5245 17959s
  1542  1194 1274538.06  101  131 -270274.83 1863868.06   790%  5190 18012s
  1600  1218 1258660.85  112  125 -270274.83 1863868.06   790%  5046 18117s
  1652  1244 1244906.21  119  140 -270274.83 1863868.06   790%  4950 18165s
  1708  1271 1233884.17  129  134 -270274.83 1863868.06   790%  4838 18214s
  1759  1286 1225484.02  138  146 -270274.83 1863868.06   790%  4755 18272s
  1845  1305 92029.3650  154   67 -270274.83 1863868.06   790%  4595 18351s
  1947  1334 509310.331  173   95 -270274.83 1863868.06   790%  4406 18451s
  2031  1344 151277.196  188  114 -270274.83 1863868.06   790%  4274 18503s
  2166  1382 773917.569  213  111 -270274.83 1863868.06   790%  4046 18605s
  2298  1419 388783.074  248  104 -270274.83 1815256.55   772%  3850 18729s
  2383  1448 1717019.04   34  275 -270274.83 1815237.84   772%  3760 18887s
  2433  1464 1672092.64   35  242 -270274.83 1815237.84   772%  3725 19094s
  2442  1466 1682737.92   38  253 -270274.83 1815237.84   772%  3777 19180s
  2457  1475 1680320.80   39  259 -270274.83 1815237.84   772%  3786 19247s
  2470  1484 1659536.32   42  224 -270274.83 1815237.84   772%  3805 19338s
  2502  1502 1659250.95   43  217 -270274.83 1815237.84   772%  3788 19611s
  2510  1497 1575458.76   44  224 -270274.83 1815237.84   772%  3852 19717s
  2576  1532 1387431.28   54  188 -270274.83 1815237.84   772%  3789 19830s
  2603  1550 1389561.88   67  231 -270274.83 1815237.84   772%  3786 19933s
  2640  1566 1272813.08   72  184 -270274.83 1815237.84   772%  3767 20111s
  2718  1616 1263824.83   83  176 -270274.83 1815237.84   772%  3701 20353s
  2751  1632 1239464.53   86  164 -270274.83 1815237.84   772%  3726 20423s
  2863  1682 -222347.42  158  136 -270274.83 1805897.18   768%  3614 20530s
  2936  1719 1344730.25   32  257 -270274.83 1805897.18   768%  3570 21305s
H 2958  1683                    -270274.8302 1805897.18   768%  3546 21412s
  3064  1740 1276541.32   34  225 -270274.83 1805897.18   768%  3446 21615s
  3094  1758 1203006.10   40  243 -270274.83 1805897.18   768%  3464 21696s
  3136  1782 1126128.33   56  240 -270274.83 1805897.18   768%  3452 21817s
  3208  1820 1085324.12   77  246 -270274.83 1805897.18   768%  3414 22085s
  3329  1871 1028290.59   94  217 -270274.83 1805897.18   768%  3362 22193s
  3353  1881 935586.499  107  209 -270274.83 1805897.18   768%  3378 22322s
  3379  1891 822614.060  127  191 -270274.83 1781823.33   759%  3396 22490s
  3434  1912 1727606.39   31  279 -270274.83 1781803.97   759%  3397 22655s
  3472  1937 1486260.99   34  278 -270274.83 1781803.97   759%  3421 22830s
  3530  1965 1478164.01   35  261 -270274.83 1781803.97   759%  3408 23019s
  3600  1999 1414737.90   39  275 -270274.83 1781803.97   759%  3392 23139s
  3662  2037 1206520.58   61  196 -270274.83 1781803.97   759%  3376 23326s
  3730  2075 1079867.68   73  203 -270274.83 1781803.97   759%  3354 23533s
  3868  2205 903673.999   96  183 -270274.83 1781803.97   759%  3278 23679s
  4001  2323 801651.159  120  200 -270274.83 1781803.97   759%  3197 24091s
  4274  2561 295488.201  198  186 -270274.83 1764439.19   753%  3064 24324s
  4311  2586 1158804.84   32  240 -270274.83 1764439.19   753%  3099 24594s
  4379  2634 900082.108   36  192 -270274.83 1764439.19   753%  3100 24886s
  4425  2674 568672.659   67  184 -270274.83 1759568.88   751%  3123 25136s
  4580  2804 1212937.54   33  250 -270274.83 1759568.88   751%  3071 25373s
  4641  2861 1169035.57   35  219 -270274.83 1759568.88   751%  3067 25613s
  4711  2928 921361.168   49  203 -270274.83 1753739.02   749%  3064 25896s
  4838  3036 1606317.23   36  281 -270274.83 1753739.02   749%  3039 26089s
  5002  3163 1531328.60   42  251 -270274.83 1753739.02   749%  2986 26333s
  5074  3215 8994.64485   61  222 -270274.83 1750188.88   748%  2986 26533s
  5133  3263 609231.157   38  170 -270274.83 1743812.84   745%  3010 26836s
  5323  3443 1674570.63   35  239 -270274.83 1743812.84   745%  2971 27085s
  5550  3622 1492970.66   44  232 -270274.83 1743812.84   745%  2908 27403s
  5701  3742 1175922.32  104  139 -270274.83 1738844.45   743%  2886 27744s
  5950  3941 1706210.80   33  293 -270274.83 1738844.45   743%  2804 28157s
  6014  3979 1496240.57   40  289 -270274.83 1738844.45   743%  2833 29429s
  6067  4030 505131.377   63  249 -270274.83 1737173.84   743%  2906 29846s
  6303  4159 1472180.87   37  218 -270274.83 1737173.84   743%  2870 30267s
  6516  4351 1227338.84   44  205 -270274.83 1737173.84   743%  2834 30680s
  6809  4609 -124995.62  111  159 -270274.83 1727686.96   739%  2772 31315s
  6889  4661 1575203.85   36  255 -270274.83 1722355.00   737%  2774 31686s
  6943  4698 1419427.21   47  241 -270274.83 1722355.00   737%  2785 32181s
  7063  4800 1363392.75   62  217 -270274.83 1722355.00   737%  2805 32723s
  7362  5079 1230933.61   99  184 -270274.83 1721193.05   737%  2762 33561s
  7784  5440 1598329.75   34  294 -270274.83 1721193.05   737%  2687 34076s
  7952  5586 1080555.74   80  179 -270274.83 1717004.99   735%  2688 34571s
  8090  5703 1566818.43   37  256 -270274.83 1716967.59   735%  2706 35055s
  8337  5931 332411.716   63  176 -270274.83 1716485.49   735%  2680 35499s
  8572  6125 1569000.21   43  263 -270274.83 1714350.43   734%  2669 35996s
  8688  6228 1626890.85   35  271 -270274.83 1714350.43   734%  2700 36742s
  8832  6309 955625.011   51  203 -270274.83 1713369.20   734%  2739 37424s
  9140  6574 441601.682   35  193 -270274.83 1709856.58   733%  2709 37952s
  9476  6884 1470969.59   35  226 -270274.83 1709764.98   733%  2664 38560s
  9660  7040 432932.412   72  229 -270274.83 1708755.15   732%  2665 39275s
  9858  7189 1526670.56   39  235 -270274.83 1704211.44   731%  2691 39986s
  9968  7281 1433679.69   33  221 -270274.83 1704211.44   731%  2738 40563s
 10149  7433 1298415.32   35  174 -270274.83 1703569.29   730%  2721 41272s
H10508  7753                    -270274.8204 1703216.51   730%  2698 41748s
 10509  7754 167585.332  202  321 -270274.82 1703216.51   730%  2698 41856s
 10511  7755 267315.891   54  253 -270274.82 1703216.51   730%  2698 41870s
 10512  7756 1400626.63   42  276 -270274.82 1703216.51   730%  2697 41882s
 10513  7757 200941.785   62  287 -270274.82 1703216.51   730%  2697 41892s
 10514  7757 1097163.27   63  296 -270274.82 1703216.51   730%  2697 41900s
 10515  7758 397808.325   96  307 -270274.82 1703216.51   730%  2697 41905s
 10517  7759 960808.843   89  326 -270274.82 1703216.51   730%  2696 41910s
 10518  7760 935783.415   79  295 -270274.82 1703216.51   730%  2696 41916s
 10521  7762 1413960.60   41  356 -270274.82 1703216.51   730%  2695 41922s
 10523  7763 647038.976  113  354 -270274.82 1703216.51   730%  2694 41925s
 10525  7765 -107791.13   52  369 -270274.82 1703216.51   730%  2694 41931s
 10526  7765 915447.842   50  361 -270274.82 1703216.51   730%  2694 41938s
 10527  7766 1650839.18   36  393 -270274.82 1703216.51   730%  2693 41940s
 10529  7767 602979.343  177  398 -270274.82 1703216.51   730%  2693 41946s
 10530  7768 559496.699   72  347 -270274.82 1703216.51   730%  2693 41951s
 10532  7769 1077412.13   91  356 -270274.82 1703216.51   730%  2692 41955s
 10534  7771 1183146.75   67  363 -270274.82 1703216.51   730%  2692 41967s
 10535  7771 238945.789  106  358 -270274.82 1703216.51   730%  2691 41972s
 10536  7772 1302877.52   53  352 -270274.82 1703216.51   730%  2691 41979s
 10537  7773 1289403.35   50  362 -270274.82 1703216.51   730%  2691 41980s
 10538  7773 1367938.53   51  361 -270274.82 1703216.51   730%  2691 41985s
 10539  7774 572542.702  131  380 -270274.82 1703216.51   730%  2690 42017s
 10540  7775 1638934.37   39  380 -270274.82 1703216.51   730%  2690 42021s
 10541  7775 1508411.64   44  380 -270274.82 1703216.51   730%  2690 42030s
 10542  7779 1703216.51   35  378 -270274.82 1703216.51   730%  2057 42117s
 10544  7782 1703216.51   36  354 -270274.82 1703216.51   730%  2057 42226s
 10548  7785 1703216.51   37  356 -270274.82 1703216.51   730%  2058 42314s
 10552  7788 1703216.51   37  297 -270274.82 1703216.51   730%  2059 42372s
 10556  7790 1703216.51   38  280 -270274.82 1703216.51   730%  2066 42596s
 10560  7792 1703216.51   38  261 -270274.82 1703216.51   730%  2066 42644s
 10564  7796 1703216.51   39  261 -270274.82 1703216.51   730%  2067 42664s
 10569  7795 1703216.51   40  263 -270274.82 1703216.51   730%  2067 42744s
 10573  7795 1684055.89   40  236 -270274.82 1703216.51   730%  2070 42779s
 10579  7802 1339381.17   41  243 -270274.82 1703216.51   730%  2071 42861s
 10583  7805 1686743.21   42  284 -270274.82 1703216.51   730%  2074 42926s
 10591  7808 1650142.90   43  253 -270274.82 1703216.51   730%  2076 42954s
 10599  7816 1609109.96   44  269 -270274.82 1703216.51   730%  2076 42996s
 10607  7818 1568469.62   45  242 -270274.82 1703216.51   730%  2077 43022s
 10614  7826 1454684.89   45  233 -270274.82 1703216.51   730%  2078 43054s
 10622  7831 1447979.17   46  246 -270274.82 1703216.51   730%  2079 43099s
 10634  7838 1495540.62   48  246 -270274.82 1703216.51   730%  2080 43133s
 10649  7840 1488833.36   50  255 -270274.82 1703216.51   730%  2079 43174s
 10666  7860 1269434.28   51  232 -270274.82 1703216.51   730%  2079 43206s
 10679  7866 1475433.79   53  231 -270274.82 1703216.51   730%  2078 43243s
 10695  7880 1363046.61   55  214 -270274.82 1703216.51   730%  2078 43284s
 10715  7888 1414233.04   57  219 -270274.82 1703216.51   730%  2077 43317s
 10734  7900 1384658.11   59  228 -270274.82 1703216.51   730%  2077 43391s
 10750  7913 1379432.16   60  210 -270274.82 1703216.51   730%  2076 43435s
 10767  7925 1365615.32   61  211 -270274.82 1703216.51   730%  2075 43501s
 10785  7935 1355924.93   62  210 -270274.82 1703216.51   730%  2075 43554s
 10803  7942 551644.851   63  191 -270274.82 1703216.51   730%  2076 43619s
 10827  7958 1342718.89   65  216 -270274.82 1703216.51   730%  2076 43684s
 10846  7963 1340489.92   66  201 -270274.82 1703216.51   730%  2077 43746s
 10879  7980 1334607.48   68  188 -270274.82 1703216.51   730%  2076 43804s
 10908  7992 1165547.30   69  164 -270274.82 1703216.51   730%  2076 43859s
 10946  8003 1313301.33   71  192 -270274.82 1703216.51   730%  2072 43913s
 10983  8018 1309006.00   73  190 -270274.82 1703216.51   730%  2070 43971s
 11022  8025 1306522.99   77  203 -270274.82 1703216.51   730%  2067 44046s
 11062  8035 1277683.72   81  191 -270274.82 1703216.51   730%  2064 44104s
 11109  8031     cutoff   84      -270274.82 1703216.51   730%  2060 44164s
 11166  8047 1256280.59   87  191 -270274.82 1703216.51   730%  2054 44262s
 11193  8042 1248747.51   90  202 -270274.82 1703216.51   730%  2058 44419s
 11215  8057 1247106.15   91  194 -270274.82 1703216.51   730%  2064 44522s
 11234  8068 1244024.55   93  185 -270274.82 1703216.51   730%  2069 44655s
 11269  8077 1243126.85   94  183 -270274.82 1703216.51   730%  2071 44833s
 11312  8095 1238584.09   97  183 -270274.82 1703216.51   730%  2072 45043s
 11352  8103 1231201.44  101  181 -270274.82 1703216.51   730%  2074 45128s
 11392  8113 1223197.96  104  201 -270274.82 1703216.51   730%  2074 45278s
 11428  8120 1222380.04  107  200 -270274.82 1703216.51   730%  2079 45393s
 11481  8120 1219844.83  109  191 -270274.82 1703216.51   730%  2078 45487s
 11545  8113 1216393.49  112  204 -270274.82 1703216.51   730%  2072 45687s
 11602  8113 1195523.81  117  218 -270274.82 1703216.51   730%  2077 45770s
 11620  8125 1189434.91  121  211 -270274.82 1703216.51   730%  2082 45881s
 11636  8130 1185285.47  125  207 -270274.82 1703216.51   730%  2090 45994s
 11656  8144 661954.432  129  192 -270274.82 1703216.51   730%  2096 46137s
 11685  8153 606153.995  136  219 -270274.82 1703216.51   730%  2099 46558s
 11722  8170 572309.541  147  206 -270274.82 1703216.51   730%  2110 46695s
 11767  8179     cutoff  163      -270274.82 1703216.51   730%  2112 46861s
 11799  8191     cutoff  168      -270274.82 1703216.51   730%  2118 47029s
 11828  8207 1635739.09   40  302 -270274.82 1703216.51   730%  2127 47137s
 11846  8218 1601975.89   42  296 -270274.82 1703216.51   730%  2133 47253s
 11878  8238 1604134.03   42  270 -270274.82 1703216.51   730%  2136 47402s
 11908  8256 1555549.46   48  208 -270274.82 1703216.51   730%  2143 47528s
 11935  8278 1546230.06   52  219 -270274.82 1703216.51   730%  2149 48200s
 11976  8304 1514804.63   55  211 -270274.82 1703216.51   730%  2169 48439s
 12010  8324 1489708.22   59  235 -270274.82 1703216.51   730%  2176 48638s
 12035  8353 1392754.31   58  212 -270274.82 1703216.51   730%  2185 48892s
 12080  8345 1420892.34   66  219 -270274.82 1703216.51   730%  2194 49089s
 12158  8386 1318648.90   73  203 -270274.82 1703216.51   730%  2194 49264s
 12213  8417 112021.273   74  196 -270274.82 1703216.51   730%  2199 49453s
 12255  8438 839217.603   75  220 -270274.82 1703216.51   730%  2208 49764s
 12276  8429 772500.717   77  224 -270274.82 1703216.51   730%  2227 50036s
 12320  8461 761713.345   82  212 -270274.82 1703216.51   730%  2234 50443s
 12382  8508 600659.548   89  209 -270274.82 1703216.51   730%  2245 50786s
 12409  8512 544309.967   90  189 -270274.82 1703216.51   730%  2264 51235s
 12496  8549 408225.492  100  233 -270274.82 1703216.51   730%  2274 51562s
 12549  8565 1667336.59   43  264 -270274.82 1703216.51   730%  2287 51779s
 12599  8592 1627217.81   46  234 -270274.82 1703216.51   730%  2300 52343s
 12685  8622 1514190.03   53  225 -270274.82 1703216.51   730%  2313 53416s
 12778  8661 1421683.77   60  218 -270274.82 1703216.51   730%  2333 54146s
 12808  8674 1268292.35   66  209 -270274.82 1703216.51   730%  2362 54510s
 12848  8695 372149.181   73  209 -270274.82 1703216.51   730%  2380 54926s
 12924  8743 307415.586   81  126 -270274.82 1703216.51   730%  2391 55331s
 13036  8779 1587703.25   41  276 -270274.82 1703216.51   730%  2396 55589s
 13089  8815 1578205.37   45  228 -270274.82 1703216.51   730%  2413 55866s
 13174  8869 1423305.49   54  242 -270274.82 1703216.51   730%  2422 56879s
 13239  8877 1389698.98   57  218 -270274.82 1703216.51   730%  2456 57333s
 13368  8950 1305157.03   64  202 -270274.82 1703216.51   730%  2462 57775s
 13440  8977 993718.327   72  190 -270274.82 1703216.51   730%  2479 58477s
 13530  9024 1519271.58   46  275 -270274.82 1703216.51   730%  2503 58912s
 13604  9050 1379984.59   48  250 -270274.82 1703216.51   730%  2524 59462s
 13747  9101 1351715.35   53  132 -270274.82 1703216.51   730%  2536 59949s
 13842  9165 1134245.84   66  136 -270274.82 1703216.51   730%  2555 60678s
 14028  9252 791600.321   42  258 -270274.82 1703216.51   730%  2558 61371s
 14163  9306 424695.359   64  161 -270274.82 1703216.51   730%  2577 62035s
 14293  9357 1348189.07   55  216 -270274.82 1703216.51   730%  2591 62668s
 14497  9481     cutoff   88      -270274.82 1703216.51   730%  2597 63250s
 14785  9557 1563144.19   46  265 -270274.82 1703216.51   730%  2587 63828s
 14868  9596 1037333.92   55  270 -270274.82 1703216.51   730%  2608 64609s
 14994  9666 681444.135   92  230 -270274.82 1703216.51   730%  2631 65395s
 15255  9754 1522931.53   43  208 -270274.82 1703216.51   730%  2632 66337s
 15339  9816 1377021.16   54  193 -270274.82 1703216.51   730%  2669 67183s
 15524  9902 1057389.93  101  207 -270274.82 1703216.51   730%  2681 68106s
 15767 10032 760813.587  137  190 -270274.82 1703216.51   730%  2695 68951s
 16000 10112 1172705.64   61  202 -270274.82 1696448.58   728%  2706 69698s
 16178 10175 1390214.47   49  233 -270274.82 1692630.74   726%  2725 70693s
 16541 10362 1560501.76   47  277 -270274.82 1692630.74   726%  2721 71576s
 16700 10435 1177566.17   81  155 -270274.82 1692630.74   726%  2753 73133s
 17037 10611 811669.978  151  122 -270274.82 1690293.85   725%  2759 74209s
 17204 10668 1513426.90   53  223 -270274.82 1683058.93   723%  2793 75448s
 17486 10823 1080334.56  125  124 -270274.82 1683058.93   723%  2808 76702s
 17723 10921 -204396.74  216   91 -270274.82 1679680.00   721%  2837 77826s
 18063 11096 1001782.53   70  225 -270274.82 1674817.63   720%  2846 79268s
 18531 11344 -103093.38   84  125 -270274.82 1673883.73   719%  2846 80874s
 18803 11455 1574527.43   49  233 -270274.82 1670494.27   718%  2876 82044s
 19110 11617 975960.221   88  143 -270274.82 1667200.66   717%  2894 83323s
 19575 11858 976597.421   70  122 -270274.82 1665129.28   716%  2892 84929s
 20130 12108 -149643.50  102   92 -270274.82 1660128.59   714%  2889 86198s
 20435 12254 1236207.03   68  238 -270274.82 1655813.92   713%  2911 86400s

Cutting planes:
  Gomory: 12
  Implied bound: 4
  Projected implied bound: 3
  Clique: 8
  MIR: 51
  Flow cover: 323
  Zero half: 4

Explored 20501 nodes (66431105 simplex iterations) in 86400.28 seconds
Thread count was 4 (of 16 available processors)

Solution count 10: -270275 -270275 -270275 ... -311043

Time limit reached
Warning: max constraint violation (4.7618e-06) exceeds tolerance
Best objective -2.702748203779e+05, best bound 1.655813922865e+06, gap 712.6408%

***
***  |- Calculation finished, timelimit reached 86,400.33 (86400.33) sec.))
***  |-----------------------------------------------------------------------------------------------------------------------
***
*****************************************************************************************************************************
#############################################################################################################################
###
### Results
###
### The objective of the solution is -270,274.8204 (-270274.8204) and is feasible with a Gap of 7.1264
###
### Service 7 (ME3) is operated by 6 vessels from type 19 (PMax28)
###  |- Vessel  5 has the path [218, 363, 334, 352, 229, 327, -3]
###  |  218 (NLRTM Out@92.0) - 363 (TRMER In@243.0/Out@287.0) - 334 (EGPSD In@531.0/Out@550.0) - 352 (OMSLL In@710.0/Out@722.
###  |  0) - 229 (OMSLL In@721.0/Out@736.0) - 327 (AEJEA In@858.0/Out@891.0) - -3 (DUMMY_END Ziel-Service 7)
###  |   |- and carried Demand 207,  288.0 containers from 352 to 327
###  |   |- and carried Demand 208,   14.0 containers from 352 to 327
###  |   |- and carried Demand 214,  164.0 containers from 334 to 327
###  |   |- and carried Demand 215,   58.0 containers from 334 to 327
###  |- Vessel  6 has the path [219, 272, 353, 230, 328, -3]
###  |  219 (NLRTM Out@260.0) - 272 (TRZMK In@617.0/Out@631.0) - 353 (OMSLL In@878.0/Out@890.0) - 230 (OMSLL In@889.0/Out@904
###  |  .0) - 328 (AEJEA In@1026.0/Out@1059.0) - -3 (DUMMY_END Ziel-Service 7)
###  |   |- and carried Demand 201,  111.0 containers from 353 to 328
###  |   |- and carried Demand 202,   35.0 containers from 353 to 328
###  |- Vessel  7 has the path [221, 137, 203, 115, 367, 330, -3]
###  |  221 (NLRTM Out@428.0) - 137 (FRLEH In@447.0/Out@463.0) - 203 (MAPTM In@543.0/Out@564.0) - 115 (ESALG In@589.0/Out@601
###  |  .0) - 367 (TRMER In@915.0/Out@959.0) - 330 (AEJEA In@1362.0/Out@1395.0) - -3 (DUMMY_END Ziel-Service 7)
###  |   |- and carried Demand  25,   68.0 containers from 221 to 115
###  |   |- and carried Demand  26,    6.0 containers from 221 to 137
###  |   |- and carried Demand  29,   60.0 containers from 203 to 115
###  |   |- and carried Demand  30,   11.0 containers from 203 to 115
###  |   |- and carried Demand 123,   68.0 containers from 221 to 115
###  |   |- and carried Demand 126,   60.0 containers from 203 to 115
###  |   |- and carried Demand 127,   11.0 containers from 203 to 115
###  |- Vessel  8 has the path [223, 368, 331, -3]
###  |  223 (NLRTM Out@596.0) - 368 (TRMER In@1083.0/Out@1127.0) - 331 (AEJEA In@1530.0/Out@1563.0) - -3 (DUMMY_END Ziel-Serv
###  |  ice 7)
###  |- Vessel 15 has the path [134, 364, 325, -3]
###  |  134 (FRLEH Out@158.0) - 364 (TRMER In@411.0/Out@455.0) - 325 (AEJEA In@690.0/Out@723.0) - -3 (DUMMY_END Ziel-Service 
###  |  7)
###  |- Vessel 16 has the path [136, 365, 338, 339, 329, -3]
###  |  136 (FRLEH Out@326.0) - 365 (TRMER In@579.0/Out@623.0) - 338 (EGPSD In@867.0/Out@886.0) - 339 (EGPSD In@957.0/Out@973
###  |  .0) - 329 (AEJEA In@1194.0/Out@1227.0) - -3 (DUMMY_END Ziel-Service 7)
###  |   |- and carried Demand 206,  467.0 containers from 338 to 329
###  |   |- and carried Demand 210,  467.0 containers from 339 to 329
###  |
### Service 24 (WAF7) is operated by 3 vessels from type 18 (PMax25)
###  |- Vessel  1 has the path [100, 276, -1]
###  |  100 (DEHAM Out@288.0) - 276 (ESALG In@496.0/Out@515.0) - -1 (DUMMY_END Ziel-Service 24)
###  |- Vessel  2 has the path [101, 277, -1]
###  |  101 (DEHAM Out@456.0) - 277 (ESALG In@664.0/Out@683.0) - -1 (DUMMY_END Ziel-Service 24)
###  |- Vessel 13 has the path [104, 275, 201, 291, 202, 114, 278, -1]
###  |  104 (DKAAR Out@220.0) - 275 (ESALG In@328.0/Out@347.0) - 201 (MAPTM In@375.0/Out@396.0) - 291 (MAPTM In@379.0/Out@398
###  |  .0) - 202 (MAPTM In@406.0/Out@427.0) - 114 (ESALG In@452.0/Out@464.0) - 278 (ESALG In@832.0/Out@851.0) - -1 (DUMMY_EN
###  |  D Ziel-Service 24)
###  |   |- and carried Demand  17,  484.0 containers from 201 to 114
###  |   |- and carried Demand  18,   18.0 containers from 201 to 114
###  |   |- and carried Demand  53,   18.0 containers from 202 to 114
###  |   |- and carried Demand 119,  214.0 containers from 201 to 278
###  |   |- and carried Demand 120,   10.0 containers from 201 to 278
###  |   |- and carried Demand 121,  312.0 containers from 201 to 114
###  |   |- and carried Demand 122,   18.0 containers from 201 to 114
###  |   |- and carried Demand 132,  214.0 containers from 202 to 278
###  |   |- and carried Demand 133,   10.0 containers from 202 to 278
###  |   |- and carried Demand 134,  484.0 containers from 202 to 114
###  |   |- and carried Demand 135,   18.0 containers from 202 to 114
###  |   |- and carried Demand 138,  214.0 containers from 291 to 278
###  |   |- and carried Demand 139,   10.0 containers from 291 to 278
###  |   |- and carried Demand 140,  484.0 containers from 291 to 114
###  |   |- and carried Demand 141,   18.0 containers from 291 to 114
###  |
### Service 121 (SAE) is operated by 2 vessels from type 30 (PMax35)
###  |- Vessel  9 has the path [1, 274, 199, 290, 200, 112, 284, 45, 302, -2]
###  |  1 (BEANR Out@66.0) - 274 (ESALG In@160.0/Out@179.0) - 199 (MAPTM In@207.0/Out@228.0) - 290 (MAPTM In@211.0/Out@230.0)
###  |   - 200 (MAPTM In@238.0/Out@259.0) - 112 (ESALG In@284.0/Out@296.0) - 284 (GWOXB In@463.0/Out@542.0) - 45 (CMDLA In@76
###  |  5.0/Out@811.0) - 302 (HNPCR In@1166.0/Out@1179.0) - -2 (DUMMY_END Ziel-Service 121)
###  |   |- and carried Demand   7,  161.0 containers from 199 to  45
###  |   |- and carried Demand   8,  580.0 containers from 199 to 112
###  |   |- and carried Demand  45,  161.0 containers from 200 to  45
###  |   |- and carried Demand  46,  580.0 containers from 200 to 112
###  |   |- and carried Demand 117,  580.0 containers from 199 to 112
###  |   |- and carried Demand 131,  580.0 containers from 200 to 112
###  |   |- and carried Demand 144,  161.0 containers from 290 to  45
###  |   |- and carried Demand 145,  580.0 containers from 290 to 112
###  |- Vessel 18 has the path [148, 315, 311, 301, -2]
###  |  148 (GBFXT Out@470.0) - 315 (USORF In@873.0/Out@881.0) - 311 (USMIA In@935.0/Out@943.0) - 301 (HNPCR In@998.0/Out@101
###  |  1.0) - -2 (DUMMY_END Ziel-Service 121)
###  |   |- and carried Demand 170,   10.0 containers from 311 to 301
###  |   |- and carried Demand 171,   75.0 containers from 315 to 301
###  |   |- and carried Demand 172,  114.0 containers from 315 to 301
###  |
### Service 177 (WCSA) is operated by 3 vessels from type 18 (PMax25)
###  |- Vessel  3 has the path [102, 366, 267, 236, 0]
###  |  102 (DEHAM Out@624.0) - 366 (TRMER In@747.0/Out@791.0) - 267 (TRALI In@836.0/Out@854.0) - 236 (PABLB In@1640.0/Out@16
###  |  52.0) - 0 (DUMMY_END Ziel-Service 177)
###  |- Vessel  4 has the path [103, 234, 0]
###  |  103 (DEHAM Out@792.0) - 234 (PABLB In@1304.0/Out@1316.0) - 0 (DUMMY_END Ziel-Service 177)
###  |- Vessel 14 has the path [105, 273, 235, 0]
###  |  105 (DKAAR Out@388.0) - 273 (TRZMK In@785.0/Out@799.0) - 235 (PABLB In@1472.0/Out@1484.0) - 0 (DUMMY_END Ziel-Service
###  |   177)
###  |
### Vessels not used in the solution: [10, 11, 12, 17]
###  |-----------------------------------------------------------------------------------------------------------------------
###
#############################################################################################################################

### Detialed variable overview

### All variables with value greater zero:
rho[24,18] = 1
rho[177,18] = 1
rho[121,30] = 1
rho[7,19] = 1
eta[24,18,1] = 1
eta[24,18,2] = 1
eta[24,18,3] = 1
eta[177,18,1] = 1
eta[177,18,2] = 1
eta[177,18,3] = 1
eta[121,30,1] = 1
eta[121,30,2] = 1
eta[7,19,1] = 1
eta[7,19,2] = 1
eta[7,19,3] = 1
eta[7,19,4] = 1
eta[7,19,5] = 1
eta[7,19,6] = 1
y[1,276,-1] = 1
y[1,100,276] = 1
y[2,101,277] = 1
y[2,277,-1] = 1
y[3,366,267] = 1
y[3,267,236] = 1
y[3,102,366] = 1
y[3,236,0] = 1
y[4,234,0] = 1
y[4,103,234] = 1
y[5,229,327] = 1
y[5,218,363] = 1
y[5,327,-3] = 1
y[5,352,229] = 1
y[5,334,352] = 1
y[5,363,334] = 1
y[6,219,272] = 1
y[6,272,353] = 1
y[6,328,-3] = 1
y[6,353,230] = 1
y[6,230,328] = 1
y[7,137,203] = 1
y[7,221,137] = 1
y[7,367,330] = 1
y[7,203,115] = 1
y[7,115,367] = 1
y[7,330,-3] = 1
y[8,223,368] = 1
y[8,368,331] = 1
y[8,331,-3] = 1
y[9,200,112] = 1
y[9,274,199] = 1
y[9,290,200] = 1
y[9,1,274] = 1
y[9,45,302] = 1
y[9,199,290] = 1
y[9,302,-2] = 1
y[9,284,45] = 1
y[9,112,284] = 1
y[13,104,275] = 1
y[13,275,201] = 1
y[13,291,202] = 1
y[13,114,278] = 1
y[13,202,114] = 1
y[13,278,-1] = 1
y[13,201,291] = 1
y[14,105,273] = 1
y[14,235,0] = 1
y[14,273,235] = 1
y[15,364,325] = 1
y[15,134,364] = 1
y[15,325,-3] = 1
y[16,136,365] = 1
y[16,329,-3] = 1
y[16,339,329] = 1
y[16,365,338] = 1
y[16,338,339] = 1
y[18,301,-2] = 1
y[18,148,315] = 1
y[18,315,311] = 1
y[18,311,301] = 1
xD[7,200,112] = 161
xD[7,290,200] = 161
xD[7,199,290] = 161
xD[7,284,45] = 161
xD[7,112,284] = 161
xD[8,200,112] = 580
xD[8,290,200] = 580
xD[8,199,290] = 580
xD[17,291,202] = 484
xD[17,202,114] = 484
xD[17,201,291] = 484
xD[18,291,202] = 18
xD[18,202,114] = 18
xD[18,201,291] = 18
xD[25,137,203] = 68
xD[25,221,137] = 68
xD[25,203,115] = 68
xD[26,221,137] = 6
xD[29,203,115] = 60
xD[30,203,115] = 11
xD[45,200,112] = 161
xD[45,284,45] = 161
xD[45,112,284] = 161
xD[46,200,112] = 580
xD[53,202,114] = 18
xD[117,200,112] = 580
xD[117,290,200] = 580
xD[117,199,290] = 580
xD[119,291,202] = 214
xD[119,114,278] = 214
xD[119,202,114] = 214
xD[119,201,291] = 214
xD[120,291,202] = 10
xD[120,114,278] = 10
xD[120,202,114] = 10
xD[120,201,291] = 10
xD[121,291,202] = 312
xD[121,202,114] = 312
xD[121,201,291] = 312
xD[122,291,202] = 18
xD[122,202,114] = 18
xD[122,201,291] = 18
xD[123,137,203] = 68
xD[123,221,137] = 68
xD[123,203,115] = 68
xD[126,203,115] = 60
xD[127,203,115] = 11
xD[131,200,112] = 580
xD[132,114,278] = 214
xD[132,202,114] = 214
xD[133,114,278] = 10
xD[133,202,114] = 10
xD[134,202,114] = 484
xD[135,202,114] = 18
xD[138,291,202] = 214
xD[138,114,278] = 214
xD[138,202,114] = 214
xD[139,291,202] = 10
xD[139,114,278] = 10
xD[139,202,114] = 10
xD[140,291,202] = 484
xD[140,202,114] = 484
xD[141,291,202] = 18
xD[141,202,114] = 18
xD[144,200,112] = 161
xD[144,290,200] = 161
xD[144,284,45] = 161
xD[144,112,284] = 161
xD[145,200,112] = 580
xD[145,290,200] = 580
xD[170,311,301] = 10
xD[171,315,311] = 75
xD[171,311,301] = 75
xD[172,315,311] = 114
xD[172,311,301] = 114
xD[201,353,230] = 111
xD[201,230,328] = 111
xD[202,353,230] = 35
xD[202,230,328] = 35
xD[206,339,329] = 467
xD[206,338,339] = 467
xD[207,229,327] = 288
xD[207,352,229] = 288
xD[208,229,327] = 14
xD[208,352,229] = 14
xD[210,339,329] = 467
xD[214,229,327] = 164
xD[214,352,229] = 164
xD[214,334,352] = 164
xD[215,229,327] = 58
xD[215,352,229] = 58
xD[215,334,352] = 58
zE[45] = 765
zE[112] = 284
zE[114] = 452
zE[115] = 589
zE[137] = 447
zE[199] = 207
zE[200] = 238
zE[201] = 375
zE[202] = 406
zE[203] = 543
zE[229] = 721
zE[230] = 889
zE[234] = 1304
zE[235] = 1472
zE[236] = 1640
zE[267] = 836
zE[272] = 617
zE[273] = 785
zE[274] = 160
zE[275] = 328
zE[276] = 496
zE[277] = 664
zE[278] = 832
zE[284] = 463
zE[290] = 211
zE[291] = 379
zE[301] = 998
zE[302] = 1166
zE[311] = 935
zE[315] = 873
zE[325] = 690
zE[327] = 858
zE[328] = 1026
zE[329] = 1194
zE[330] = 1362
zE[331] = 1530
zE[334] = 531
zE[338] = 867
zE[339] = 957
zE[352] = 710
zE[353] = 878
zE[363] = 243
zE[364] = 411
zE[365] = 579
zE[366] = 747
zE[367] = 915
zE[368] = 1083
zX[1] = 66
zX[45] = 811
zX[100] = 288
zX[101] = 456
zX[102] = 624
zX[103] = 792
zX[104] = 220
zX[105] = 388
zX[112] = 296
zX[114] = 464
zX[115] = 601
zX[134] = 158
zX[136] = 326
zX[137] = 463
zX[148] = 470
zX[199] = 228
zX[200] = 259
zX[201] = 396
zX[202] = 427
zX[203] = 564
zX[218] = 92
zX[219] = 260
zX[221] = 428
zX[223] = 596
zX[229] = 736
zX[230] = 904
zX[234] = 1316
zX[235] = 1484
zX[236] = 1652
zX[267] = 854
zX[272] = 631
zX[273] = 799
zX[274] = 179
zX[275] = 347
zX[276] = 515
zX[277] = 683
zX[278] = 851
zX[284] = 542
zX[290] = 230
zX[291] = 398
zX[301] = 1011
zX[302] = 1179
zX[311] = 943
zX[315] = 881
zX[325] = 723
zX[327] = 891
zX[328] = 1059
zX[329] = 1227
zX[330] = 1395
zX[331] = 1563
zX[334] = 550
zX[338] = 886
zX[339] = 973
zX[352] = 722
zX[353] = 890
zX[363] = 287
zX[364] = 455
zX[365] = 623
zX[366] = 791
zX[367] = 959
zX[368] = 1127
phi[1] = 227
phi[2] = 227
phi[3] = 1028
phi[4] = 524
phi[5] = 799
phi[6] = 799
phi[7] = 967
phi[8] = 967
phi[9] = 1113
phi[13] = 631
phi[14] = 1096
phi[15] = 565
phi[16] = 901
phi[18] = 541

### All variables with value smaller zero:

### End

real	1443m51.869s
user	5401m59.679s
sys	358m13.357s
	Freetype 2.4.12 environment removed
	Python 3.6.0 environment removed
	Gurobi 8.1.0 environment removed
