	Freetype 2.4.12 environment established
		library to render fonts
	Python 3.6.0 environment established
	Gurobi 8.1.0 environment established
Instance LSFRP: LSFDRP_4_2_0_1_fr.p
Instance LSFDP: LSFDRP_4_2_0_1_fd_16.p

*****************************************************************************************************************************
*** Solve LSFDRP_4_2_0_1_fd_16 with Gurobi
***
*** Graph info
*** |S|: 18
*** |S^E|: 0
*** |S^C|: 0
*** |V|: 152
*** |A|: 1246
*** |A^i|: 1246
*** |A^f|: 0
*** |M|: 71
*** |E|: 0

Changed value of parameter TimeLimit to 86400.0
   Prev: 1e+100  Min: 0.0  Max: 1e+100  Default: 1e+100
Changed value of parameter Threads to 4
   Prev: 0  Min: 0  Max: 1024  Default: 0
Optimize a model with 16609 rows, 113713 columns and 466975 nonzeros
Variable types: 91270 continuous, 22443 integer (22443 binary)
Coefficient statistics:
  Matrix range     [1e+00, 4e+03]
  Objective range  [2e+01, 1e+07]
  Bounds range     [1e+00, 1e+00]
  RHS range        [1e+00, 4e+00]
Presolve removed 14928 rows and 104884 columns (presolve time = 6s) ...
Presolve removed 14927 rows and 104883 columns
Presolve time: 5.72s
Presolved: 1682 rows, 8830 columns, 38724 nonzeros
Variable types: 869 continuous, 7961 integer (7937 binary)
Warning: Failed to open log file 'gurobi.log'

Root simplex log...

Iteration    Objective       Primal Inf.    Dual Inf.      Time
       0    1.9937677e+09   1.824992e+05   0.000000e+00      6s
    4598    4.3056903e+06   0.000000e+00   0.000000e+00      6s

Root relaxation: objective 4.305690e+06, 4598 iterations, 0.33 seconds

    Nodes    |    Current Node    |     Objective Bounds      |     Work
 Expl Unexpl |  Obj  Depth IntInf | Incumbent    BestBd   Gap | It/Node Time

     0     0 4305690.27    0   57          - 4305690.27      -     -    6s
H    0     0                    -6983509.967 4305690.27   162%     -    6s
H    0     0                    -2345294.024 4305690.27   284%     -    6s
H    0     0                    705932.87463 4305690.27   510%     -    6s
     0     0 2922667.27    0   89 705932.875 2922667.27   314%     -    6s
     0     0 2922667.27    0   86 705932.875 2922667.27   314%     -    6s
     0     0 2424771.57    0   86 705932.875 2424771.57   243%     -    7s
     0     0 2424771.57    0   57 705932.875 2424771.57   243%     -    7s
     0     0 2155968.16    0   75 705932.875 2155968.16   205%     -    7s
H    0     0                    868757.23983 2155968.16   148%     -    7s
     0     0 2134655.87    0   75 868757.240 2134655.87   146%     -    7s
     0     0 1809724.78    0   74 868757.240 1809724.78   108%     -    7s
H    0     0                    1764567.4262 1809724.78  2.56%     -    8s
     0     0     cutoff    0      1764567.43 1764567.43  0.00%     -    8s

Cutting planes:
  Gomory: 4
  Implied bound: 1
  Clique: 4
  Flow cover: 2
  Zero half: 8

Explored 1 nodes (13353 simplex iterations) in 8.20 seconds
Thread count was 4 (of 16 available processors)

Solution count 5: 1.76457e+06 868757 705933 ... -6.98351e+06
No other solutions better than 1.76457e+06

Optimal solution found (tolerance 1.00e-04)
Best objective 1.764567426168e+06, best bound 1.764567426168e+06, gap 0.0000%

***
***  |- Calculation finished, took 8.2 (8.2) sec.
***  |-----------------------------------------------------------------------------------------------------------------------
***
*****************************************************************************************************************************
#############################################################################################################################
###
### Results
###
### The objective of the solution is 1,764,567.4262 (1764567.4262) and is feasible with a Gap of 0.0
###
### Service 24 (WAF7) is operated by 3 vessels from type 18 (PMax25)
###  |- Vessel  1 has the path [48, 60, 0]
###  |  48 (DEHAM Out@734.0) - 60 (ESALG In@942.0/Out@961.0) - 0 (DUMMY_END Ziel-Service 24)
###  |- Vessel  2 has the path [49, 62, 0]
###  |  49 (DEHAM Out@902.0) - 62 (ESALG In@1110.0/Out@1129.0) - 0 (DUMMY_END Ziel-Service 24)
###  |- Vessel 13 has the path [52, 57, 120, 121, 122, 59, 64, 0]
###  |  52 (DKAAR Out@666.0) - 57 (ESALG In@774.0/Out@793.0) - 120 (MAPTM In@821.0/Out@842.0) - 121 (MAPTM In@825.0/Out@844.0
###  |  ) - 122 (MAPTM In@852.0/Out@873.0) - 59 (ESALG In@898.0/Out@910.0) - 64 (ESALG In@1278.0/Out@1297.0) - 0 (DUMMY_END Z
###  |  iel-Service 24)
###  |   |- and carried Demand 11,  214.0 containers from 120 to  64
###  |   |- and carried Demand 12,   10.0 containers from 120 to  64
###  |   |- and carried Demand 13,  484.0 containers from 120 to  59
###  |   |- and carried Demand 14,   18.0 containers from 120 to  59
###  |   |- and carried Demand 28,  214.0 containers from 122 to  64
###  |   |- and carried Demand 29,   10.0 containers from 122 to  64
###  |   |- and carried Demand 30,  484.0 containers from 122 to  59
###  |   |- and carried Demand 31,   18.0 containers from 122 to  59
###  |   |- and carried Demand 61,  214.0 containers from 121 to  64
###  |   |- and carried Demand 62,   10.0 containers from 121 to  64
###  |   |- and carried Demand 63,  484.0 containers from 121 to  59
###  |   |- and carried Demand 64,   18.0 containers from 121 to  59
###  |
### Vessels not used in the solution: [3, 4, 5, 6, 7, 8, 9, 10, 11, 12, 14, 15, 16, 17, 18]
###  |-----------------------------------------------------------------------------------------------------------------------
###
#############################################################################################################################

### Detialed variable overview

### All variables with value greater zero:
rho[24,18] = 1
eta[24,18,1] = 1
eta[24,18,2] = 1
eta[24,18,3] = 1
y[1,60,0] = 1
y[1,48,60] = 1
y[2,49,62] = 1
y[2,62,0] = 1
y[13,59,64] = 1
y[13,52,57] = 1
y[13,122,59] = 1
y[13,64,0] = 1
y[13,120,121] = 1
y[13,57,120] = 1
y[13,121,122] = 1
xD[11,59,64] = 214
xD[11,122,59] = 214
xD[11,120,121] = 214
xD[11,121,122] = 214
xD[12,59,64] = 10
xD[12,122,59] = 10
xD[12,120,121] = 10
xD[12,121,122] = 10
xD[13,122,59] = 484
xD[13,120,121] = 484
xD[13,121,122] = 484
xD[14,122,59] = 18
xD[14,120,121] = 18
xD[14,121,122] = 18
xD[28,59,64] = 214
xD[28,122,59] = 214
xD[29,59,64] = 10
xD[29,122,59] = 10
xD[30,122,59] = 484
xD[31,122,59] = 18
xD[61,59,64] = 214
xD[61,122,59] = 214
xD[61,121,122] = 214
xD[62,59,64] = 10
xD[62,122,59] = 10
xD[62,121,122] = 10
xD[63,122,59] = 484
xD[63,121,122] = 484
xD[64,122,59] = 18
xD[64,121,122] = 18
zE[57] = 774
zE[59] = 898
zE[60] = 942
zE[62] = 1110
zE[64] = 1278
zE[120] = 821
zE[121] = 825
zE[122] = 852
zX[48] = 734
zX[49] = 902
zX[52] = 666
zX[57] = 793
zX[59] = 910
zX[60] = 961
zX[62] = 1129
zX[64] = 1297
zX[120] = 842
zX[121] = 844
zX[122] = 873
phi[1] = 227
phi[2] = 227
phi[13] = 631

### All variables with value smaller zero:

### End

real	0m13.837s
user	0m17.351s
sys	0m0.870s
	Freetype 2.4.12 environment removed
	Python 3.6.0 environment removed
	Gurobi 8.1.0 environment removed
