	Freetype 2.4.12 environment established
		library to render fonts
	Python 3.6.0 environment established
	Gurobi 8.1.0 environment established
Instance LSFRP: LSFDRP_2_4_0_0_fr.p
Instance LSFDP: LSFDRP_2_4_0_0_fd_40.p


*****************************************************************************************************************************
*** Solve LSFDRP_2_4_0_0_fd_40.p with matheuristics.
***  |
***  |- Create instance object for heuristic
***  |   |- Convert flexible visitations into inflexible visitations,	took 0.039056 sec.
***  |   |- Calculate demand structure for node flow model,		took 0.523042 sec.
***  |   |- Create additional vessel information,				took 0.005913 sec.
***  |
***  |   |- Create ranking for FDP solutions,				took 0.036388 sec.
***  |- Start solving instance with matheuristics, run 1
***  |   |- Create ranking for FDP solutions,				took  0.03624 sec.
***  |   |- Calculation finished, timelimit reached 			took   592.45 sec.
***  |
***  |- Start solving instance with matheuristics, run 2
***  |   |- Create ranking for FDP solutions,				took 0.061702 sec.
***  |   |- Calculation finished, timelimit reached 			took   589.79 sec.
***  |
***  |- Start solving instance with matheuristics, run 3
***  |   |- Create ranking for FDP solutions,				took 0.056897 sec.
***  |   |- Calculation finished, timelimit reached 			took    603.0 sec.
***  |
***  |- Start solving instance with matheuristics, run 4
***  |   |- Create ranking for FDP solutions,				took 0.057459 sec.
***  |   |- Calculation finished, timelimit reached 			took   590.85 sec.
***  |
***  |- Start solving instance with matheuristics, run 5
***  |   |- Create ranking for FDP solutions,				took 0.064463 sec.
***  |   |- Calculation finished, timelimit reached 			took   595.45 sec.
***  |
***  |- Start solving instance with matheuristics, run 6
***  |   |- Create ranking for FDP solutions,				took 0.036441 sec.
***  |   |- Calculation finished, timelimit reached 			took    603.7 sec.
***  |
***  |-----------------------------------------------------------------------------------------------------------------------
***
*****************************************************************************************************************************
###
###
#############################################################################################################################
### Solution run 1
#############################################################################################################################
###
### Results
###
### The objective of the solution is -28,205,196.4463 (-28205196.4463)
###
### Service 7 (ME3) is operated by 5 vessels from type 19 (PMax28)
###  |
###  |- Vessel  5 has the path [218, 290, 200, 112, 284, 45, 367, 330, -3]
###  |  218 (NLRTM Out@92) - 290 (MAPTM In@211/Out@230) - 200 (MAPTM In@238/Out@259) - 112 (ESALG In@284/Out@296) - 284 (GWOX
###  |  B In@463/Out@542) - 45 (CMDLA In@765/Out@811) - 367 (TRMER In@915/Out@959) - 330 (AEJEA In@1362/Out@1395) - -3 (DUMMY
###  |  _END Ziel-Service 7)
###  |   |- and carried Demand   5,   42.0 containers from 218 to 112
###  |   |- and carried Demand  45,  161.0 containers from 200 to 45
###  |   |- and carried Demand  46,  580.0 containers from 200 to 112
###  |   |- and carried Demand 116,   42.0 containers from 218 to 112
###  |   |- and carried Demand 131,  580.0 containers from 200 to 112
###  |   |- and carried Demand 144,  161.0 containers from 290 to 45
###  |   |- and carried Demand 145,  580.0 containers from 290 to 112
###  |
###  |- Vessel  6 has the path [219, 364, 334, 335, 327, -3]
###  |  219 (NLRTM Out@260) - 364 (TRMER In@411/Out@455) - 334 (EGPSD In@531/Out@550) - 335 (EGPSD In@621/Out@637) - 327 (AEJ
###  |  EA In@858/Out@891) - -3 (DUMMY_END Ziel-Service 7)
###  |   |- and carried Demand 214,  164.0 containers from 334 to 327
###  |   |- and carried Demand 215,   58.0 containers from 334 to 327
###  |   |- and carried Demand 218,  164.0 containers from 335 to 327
###  |   |- and carried Demand 219,   58.0 containers from 335 to 327
###  |
###  |- Vessel  7 has the path [221, 365, 353, 230, 328, -3]
###  |  221 (NLRTM Out@428) - 365 (TRMER In@579/Out@623) - 353 (OMSLL In@878/Out@890) - 230 (OMSLL In@889/Out@904) - 328 (AEJ
###  |  EA In@1026/Out@1059) - -3 (DUMMY_END Ziel-Service 7)
###  |   |- and carried Demand 201,  111.0 containers from 353 to 328
###  |   |- and carried Demand 202,   35.0 containers from 353 to 328
###  |
###  |- Vessel  8 has the path [223, 366, 338, 339, 329, -3]
###  |  223 (NLRTM Out@596) - 366 (TRMER In@747/Out@791) - 338 (EGPSD In@867/Out@886) - 339 (EGPSD In@957/Out@973) - 329 (AEJ
###  |  EA In@1194/Out@1227) - -3 (DUMMY_END Ziel-Service 7)
###  |   |- and carried Demand 206,  467.0 containers from 338 to 329
###  |   |- and carried Demand 210,  467.0 containers from 339 to 329
###  |
###  |- Vessel 15 has the path [134, 356, 325, -3]
###  |  134 (FRLEH Out@158) - 356 (TRAMB In@347/Out@395) - 325 (AEJEA In@690/Out@723) - -3 (DUMMY_END Ziel-Service 7)
###  |
###  |
### Service 24 (WAF7) is operated by 3 vessels from type 18 (PMax25)
###  |
###  |- Vessel  1 has the path [100, 276, -1]
###  |  100 (DEHAM Out@288) - 276 (ESALG In@496/Out@515) - -1 (DUMMY_END Ziel-Service 24)
###  |
###  |- Vessel  2 has the path [101, 277, -1]
###  |  101 (DEHAM Out@456) - 277 (ESALG In@664/Out@683) - -1 (DUMMY_END Ziel-Service 24)
###  |
###  |- Vessel 13 has the path [104, 275, 201, 291, 202, 114, 278, -1]
###  |  104 (DKAAR Out@220) - 275 (ESALG In@328/Out@347) - 201 (MAPTM In@375/Out@396) - 291 (MAPTM In@379/Out@398) - 202 (MAP
###  |  TM In@406/Out@427) - 114 (ESALG In@452/Out@464) - 278 (ESALG In@832/Out@851) - -1 (DUMMY_END Ziel-Service 24)
###  |   |- and carried Demand  18,   18.0 containers from 201 to 114
###  |   |- and carried Demand  52,  484.0 containers from 202 to 114
###  |   |- and carried Demand  53,   18.0 containers from 202 to 114
###  |   |- and carried Demand 119,  214.0 containers from 201 to 278
###  |   |- and carried Demand 120,   10.0 containers from 201 to 278
###  |   |- and carried Demand 121,  484.0 containers from 201 to 114
###  |   |- and carried Demand 122,   18.0 containers from 201 to 114
###  |   |- and carried Demand 132,  214.0 containers from 202 to 278
###  |   |- and carried Demand 133,   10.0 containers from 202 to 278
###  |   |- and carried Demand 134,  484.0 containers from 202 to 114
###  |   |- and carried Demand 135,   18.0 containers from 202 to 114
###  |   |- and carried Demand 138,  214.0 containers from 291 to 278
###  |   |- and carried Demand 139,   10.0 containers from 291 to 278
###  |   |- and carried Demand 140,  312.0 containers from 291 to 114
###  |   |- and carried Demand 141,   18.0 containers from 291 to 114
###  |
###  |
### Service 81 (MECL1) is operated by 6 vessels from type 30 (PMax35)
###  |
###  |- Vessel  9 has the path [1, 274, 199, 371, 424, 229, 425, 231, 375, 428, 408, -4]
###  |  1 (BEANR Out@66) - 274 (ESALG In@160/Out@179) - 199 (MAPTM In@207/Out@228) - 371 (AEJEA In@563/Out@587) - 424 (PKBQM 
###  |  In@644/Out@674) - 229 (OMSLL In@721/Out@736) - 425 (PKBQM In@812/Out@842) - 231 (OMSLL In@1132/Out@1145) - 375 (AEJEA
###  |   In@1235/Out@1259) - 428 (PKBQM In@1316/Out@1346) - 408 (INNSA In@1410/Out@1426) - -4 (DUMMY_END Ziel-Service 81)
###  |   |- and carried Demand 306,   31.0 containers from 428 to 408
###  |   |- and carried Demand 307,   37.0 containers from 375 to 408
###  |   |- and carried Demand 308,  211.0 containers from 375 to 408
###  |   |- and carried Demand 309,  176.0 containers from 375 to 428
###  |   |- and carried Demand 362,  244.0 containers from 425 to 408
###  |   |- and carried Demand 363,   67.0 containers from 425 to 408
###  |   |- and carried Demand 377,  704.0 containers from 371 to 408
###  |   |- and carried Demand 378,    8.0 containers from 371 to 408
###  |   |- and carried Demand 379,  156.0 containers from 371 to 424
###  |   |- and carried Demand 380,   45.0 containers from 371 to 424
###  |
###  |- Vessel 10 has the path [2, 160, 405, -4]
###  |  2 (BEANR Out@234) - 160 (GRPIR In@528/Out@553) - 405 (INNSA In@906/Out@922) - -4 (DUMMY_END Ziel-Service 81)
###  |
###  |- Vessel 11 has the path [5, 266, 373, 426, 354, 376, 429, 409, -4]
###  |  5 (BEANR Out@402) - 266 (TRALI In@668/Out@686) - 373 (AEJEA In@899/Out@923) - 426 (PKBQM In@980/Out@1010) - 354 (OMSL
###  |  L In@1300/Out@1313) - 376 (AEJEA In@1403/Out@1427) - 429 (PKBQM In@1484/Out@1514) - 409 (INNSA In@1578/Out@1594) - -4
###  |   (DUMMY_END Ziel-Service 81)
###  |   |- and carried Demand 289,   34.0 containers from 429 to 409
###  |   |- and carried Demand 290,   84.0 containers from 376 to 429
###  |   |- and carried Demand 291,   50.0 containers from 376 to 429
###  |   |- and carried Demand 342,  254.0 containers from 426 to 409
###  |   |- and carried Demand 343,    1.0 containers from 426 to 409
###  |   |- and carried Demand 344,  135.0 containers from 426 to 409
###  |   |- and carried Demand 347,   75.0 containers from 373 to 409
###  |   |- and carried Demand 348,  200.0 containers from 373 to 426
###  |   |- and carried Demand 349,   24.0 containers from 373 to 426
###  |   |- and carried Demand 350,   26.0 containers from 373 to 409
###  |   |- and carried Demand 351,  144.0 containers from 373 to 409
###  |   |- and carried Demand 352,    1.0 containers from 373 to 409
###  |
###  |- Vessel 12 has the path [8, 267, 374, 427, 407, -4]
###  |  8 (BEANR Out@570) - 267 (TRALI In@836/Out@854) - 374 (AEJEA In@1067/Out@1091) - 427 (PKBQM In@1148/Out@1178) - 407 (I
###  |  NNSA In@1242/Out@1258) - -4 (DUMMY_END Ziel-Service 81)
###  |   |- and carried Demand 329,   86.0 containers from 374 to 427
###  |   |- and carried Demand 330,  118.0 containers from 374 to 427
###  |
###  |- Vessel 17 has the path [145, 268, 404, -4]
###  |  145 (GBFXT Out@302) - 268 (TRAMB In@576/Out@603) - 404 (INNSA In@738/Out@754) - -4 (DUMMY_END Ziel-Service 81)
###  |
###  |- Vessel 18 has the path [148, 222, 273, 406, -4]
###  |  148 (GBFXT Out@470) - 222 (NLRTM In@500/Out@512) - 273 (TRZMK In@785/Out@799) - 406 (INNSA In@1074/Out@1090) - -4 (DU
###  |  MMY_END Ziel-Service 81)
###  |
###  |
### Service 121 (SAE) is operated by 1 vessels from type 19 (PMax28)
###  |
###  |- Vessel 16 has the path [136, 315, 311, 301, -2]
###  |  136 (FRLEH Out@326) - 315 (USORF In@873/Out@881) - 311 (USMIA In@935/Out@943) - 301 (HNPCR In@998/Out@1011) - -2 (DUM
###  |  MY_END Ziel-Service 121)
###  |   |- and carried Demand 170,   10.0 containers from 311 to 301
###  |   |- and carried Demand 171,   75.0 containers from 315 to 301
###  |   |- and carried Demand 172,  114.0 containers from 315 to 301
###  |
###  |
### Service 177 (WCSA) is operated by 3 vessels from type 18 (PMax25)
###  |
###  |- Vessel  3 has the path [102, 358, 269, 236, 0]
###  |  102 (DEHAM Out@624) - 358 (TRAMB In@683/Out@731) - 269 (TRAMB In@744/Out@771) - 236 (PABLB In@1640/Out@1652) - 0 (DUM
###  |  MY_END Ziel-Service 177)
###  |
###  |- Vessel  4 has the path [103, 235, 0]
###  |  103 (DEHAM Out@792) - 235 (PABLB In@1472/Out@1484) - 0 (DUMMY_END Ziel-Service 177)
###  |
###  |- Vessel 14 has the path [105, 272, 234, 0]
###  |  105 (DKAAR Out@388) - 272 (TRZMK In@617/Out@631) - 234 (PABLB In@1304/Out@1316) - 0 (DUMMY_END Ziel-Service 177)
###  |
###  |
### Vessels not used in the solution: []
###  |-----------------------------------------------------------------------------------------------------------------------
###
#############################################################################################################################
###
###
#############################################################################################################################
### Solution run 2
#############################################################################################################################
###
### Results
###
### The objective of the solution is -28,205,196.4463 (-28205196.4463)
###
### Service 7 (ME3) is operated by 5 vessels from type 19 (PMax28)
###  |
###  |- Vessel  5 has the path [218, 290, 200, 112, 284, 45, 367, 330, -3]
###  |  218 (NLRTM Out@92) - 290 (MAPTM In@211/Out@230) - 200 (MAPTM In@238/Out@259) - 112 (ESALG In@284/Out@296) - 284 (GWOX
###  |  B In@463/Out@542) - 45 (CMDLA In@765/Out@811) - 367 (TRMER In@915/Out@959) - 330 (AEJEA In@1362/Out@1395) - -3 (DUMMY
###  |  _END Ziel-Service 7)
###  |   |- and carried Demand   5,   42.0 containers from 218 to 112
###  |   |- and carried Demand  45,  161.0 containers from 200 to 45
###  |   |- and carried Demand  46,  580.0 containers from 200 to 112
###  |   |- and carried Demand 116,   42.0 containers from 218 to 112
###  |   |- and carried Demand 131,  580.0 containers from 200 to 112
###  |   |- and carried Demand 144,  161.0 containers from 290 to 45
###  |   |- and carried Demand 145,  580.0 containers from 290 to 112
###  |
###  |- Vessel  6 has the path [219, 364, 334, 335, 327, -3]
###  |  219 (NLRTM Out@260) - 364 (TRMER In@411/Out@455) - 334 (EGPSD In@531/Out@550) - 335 (EGPSD In@621/Out@637) - 327 (AEJ
###  |  EA In@858/Out@891) - -3 (DUMMY_END Ziel-Service 7)
###  |   |- and carried Demand 214,  164.0 containers from 334 to 327
###  |   |- and carried Demand 215,   58.0 containers from 334 to 327
###  |   |- and carried Demand 218,  164.0 containers from 335 to 327
###  |   |- and carried Demand 219,   58.0 containers from 335 to 327
###  |
###  |- Vessel  7 has the path [221, 365, 353, 230, 328, -3]
###  |  221 (NLRTM Out@428) - 365 (TRMER In@579/Out@623) - 353 (OMSLL In@878/Out@890) - 230 (OMSLL In@889/Out@904) - 328 (AEJ
###  |  EA In@1026/Out@1059) - -3 (DUMMY_END Ziel-Service 7)
###  |   |- and carried Demand 201,  111.0 containers from 353 to 328
###  |   |- and carried Demand 202,   35.0 containers from 353 to 328
###  |
###  |- Vessel  8 has the path [223, 366, 338, 339, 329, -3]
###  |  223 (NLRTM Out@596) - 366 (TRMER In@747/Out@791) - 338 (EGPSD In@867/Out@886) - 339 (EGPSD In@957/Out@973) - 329 (AEJ
###  |  EA In@1194/Out@1227) - -3 (DUMMY_END Ziel-Service 7)
###  |   |- and carried Demand 206,  467.0 containers from 338 to 329
###  |   |- and carried Demand 210,  467.0 containers from 339 to 329
###  |
###  |- Vessel 15 has the path [134, 356, 325, -3]
###  |  134 (FRLEH Out@158) - 356 (TRAMB In@347/Out@395) - 325 (AEJEA In@690/Out@723) - -3 (DUMMY_END Ziel-Service 7)
###  |
###  |
### Service 24 (WAF7) is operated by 3 vessels from type 18 (PMax25)
###  |
###  |- Vessel  1 has the path [100, 276, -1]
###  |  100 (DEHAM Out@288) - 276 (ESALG In@496/Out@515) - -1 (DUMMY_END Ziel-Service 24)
###  |
###  |- Vessel  2 has the path [101, 277, -1]
###  |  101 (DEHAM Out@456) - 277 (ESALG In@664/Out@683) - -1 (DUMMY_END Ziel-Service 24)
###  |
###  |- Vessel 13 has the path [104, 275, 201, 291, 202, 114, 278, -1]
###  |  104 (DKAAR Out@220) - 275 (ESALG In@328/Out@347) - 201 (MAPTM In@375/Out@396) - 291 (MAPTM In@379/Out@398) - 202 (MAP
###  |  TM In@406/Out@427) - 114 (ESALG In@452/Out@464) - 278 (ESALG In@832/Out@851) - -1 (DUMMY_END Ziel-Service 24)
###  |   |- and carried Demand  18,   18.0 containers from 201 to 114
###  |   |- and carried Demand  52,  484.0 containers from 202 to 114
###  |   |- and carried Demand  53,   18.0 containers from 202 to 114
###  |   |- and carried Demand 119,  214.0 containers from 201 to 278
###  |   |- and carried Demand 120,   10.0 containers from 201 to 278
###  |   |- and carried Demand 121,  484.0 containers from 201 to 114
###  |   |- and carried Demand 122,   18.0 containers from 201 to 114
###  |   |- and carried Demand 132,  214.0 containers from 202 to 278
###  |   |- and carried Demand 133,   10.0 containers from 202 to 278
###  |   |- and carried Demand 134,  484.0 containers from 202 to 114
###  |   |- and carried Demand 135,   18.0 containers from 202 to 114
###  |   |- and carried Demand 138,  214.0 containers from 291 to 278
###  |   |- and carried Demand 139,   10.0 containers from 291 to 278
###  |   |- and carried Demand 140,  312.0 containers from 291 to 114
###  |   |- and carried Demand 141,   18.0 containers from 291 to 114
###  |
###  |
### Service 81 (MECL1) is operated by 6 vessels from type 30 (PMax35)
###  |
###  |- Vessel  9 has the path [1, 274, 199, 371, 424, 229, 425, 231, 375, 428, 408, -4]
###  |  1 (BEANR Out@66) - 274 (ESALG In@160/Out@179) - 199 (MAPTM In@207/Out@228) - 371 (AEJEA In@563/Out@587) - 424 (PKBQM 
###  |  In@644/Out@674) - 229 (OMSLL In@721/Out@736) - 425 (PKBQM In@812/Out@842) - 231 (OMSLL In@1132/Out@1145) - 375 (AEJEA
###  |   In@1235/Out@1259) - 428 (PKBQM In@1316/Out@1346) - 408 (INNSA In@1410/Out@1426) - -4 (DUMMY_END Ziel-Service 81)
###  |   |- and carried Demand 306,   31.0 containers from 428 to 408
###  |   |- and carried Demand 307,   37.0 containers from 375 to 408
###  |   |- and carried Demand 308,  211.0 containers from 375 to 408
###  |   |- and carried Demand 309,  176.0 containers from 375 to 428
###  |   |- and carried Demand 362,  244.0 containers from 425 to 408
###  |   |- and carried Demand 363,   67.0 containers from 425 to 408
###  |   |- and carried Demand 377,  704.0 containers from 371 to 408
###  |   |- and carried Demand 378,    8.0 containers from 371 to 408
###  |   |- and carried Demand 379,  156.0 containers from 371 to 424
###  |   |- and carried Demand 380,   45.0 containers from 371 to 424
###  |
###  |- Vessel 10 has the path [2, 160, 405, -4]
###  |  2 (BEANR Out@234) - 160 (GRPIR In@528/Out@553) - 405 (INNSA In@906/Out@922) - -4 (DUMMY_END Ziel-Service 81)
###  |
###  |- Vessel 11 has the path [5, 266, 373, 426, 354, 376, 429, 409, -4]
###  |  5 (BEANR Out@402) - 266 (TRALI In@668/Out@686) - 373 (AEJEA In@899/Out@923) - 426 (PKBQM In@980/Out@1010) - 354 (OMSL
###  |  L In@1300/Out@1313) - 376 (AEJEA In@1403/Out@1427) - 429 (PKBQM In@1484/Out@1514) - 409 (INNSA In@1578/Out@1594) - -4
###  |   (DUMMY_END Ziel-Service 81)
###  |   |- and carried Demand 289,   34.0 containers from 429 to 409
###  |   |- and carried Demand 290,   84.0 containers from 376 to 429
###  |   |- and carried Demand 291,   50.0 containers from 376 to 429
###  |   |- and carried Demand 342,  254.0 containers from 426 to 409
###  |   |- and carried Demand 343,    1.0 containers from 426 to 409
###  |   |- and carried Demand 344,  135.0 containers from 426 to 409
###  |   |- and carried Demand 347,   75.0 containers from 373 to 409
###  |   |- and carried Demand 348,  200.0 containers from 373 to 426
###  |   |- and carried Demand 349,   24.0 containers from 373 to 426
###  |   |- and carried Demand 350,   26.0 containers from 373 to 409
###  |   |- and carried Demand 351,  144.0 containers from 373 to 409
###  |   |- and carried Demand 352,    1.0 containers from 373 to 409
###  |
###  |- Vessel 12 has the path [8, 267, 374, 427, 407, -4]
###  |  8 (BEANR Out@570) - 267 (TRALI In@836/Out@854) - 374 (AEJEA In@1067/Out@1091) - 427 (PKBQM In@1148/Out@1178) - 407 (I
###  |  NNSA In@1242/Out@1258) - -4 (DUMMY_END Ziel-Service 81)
###  |   |- and carried Demand 329,   86.0 containers from 374 to 427
###  |   |- and carried Demand 330,  118.0 containers from 374 to 427
###  |
###  |- Vessel 17 has the path [145, 268, 404, -4]
###  |  145 (GBFXT Out@302) - 268 (TRAMB In@576/Out@603) - 404 (INNSA In@738/Out@754) - -4 (DUMMY_END Ziel-Service 81)
###  |
###  |- Vessel 18 has the path [148, 222, 273, 406, -4]
###  |  148 (GBFXT Out@470) - 222 (NLRTM In@500/Out@512) - 273 (TRZMK In@785/Out@799) - 406 (INNSA In@1074/Out@1090) - -4 (DU
###  |  MMY_END Ziel-Service 81)
###  |
###  |
### Service 121 (SAE) is operated by 1 vessels from type 19 (PMax28)
###  |
###  |- Vessel 16 has the path [136, 315, 311, 301, -2]
###  |  136 (FRLEH Out@326) - 315 (USORF In@873/Out@881) - 311 (USMIA In@935/Out@943) - 301 (HNPCR In@998/Out@1011) - -2 (DUM
###  |  MY_END Ziel-Service 121)
###  |   |- and carried Demand 170,   10.0 containers from 311 to 301
###  |   |- and carried Demand 171,   75.0 containers from 315 to 301
###  |   |- and carried Demand 172,  114.0 containers from 315 to 301
###  |
###  |
### Service 177 (WCSA) is operated by 3 vessels from type 18 (PMax25)
###  |
###  |- Vessel  3 has the path [102, 358, 269, 236, 0]
###  |  102 (DEHAM Out@624) - 358 (TRAMB In@683/Out@731) - 269 (TRAMB In@744/Out@771) - 236 (PABLB In@1640/Out@1652) - 0 (DUM
###  |  MY_END Ziel-Service 177)
###  |
###  |- Vessel  4 has the path [103, 235, 0]
###  |  103 (DEHAM Out@792) - 235 (PABLB In@1472/Out@1484) - 0 (DUMMY_END Ziel-Service 177)
###  |
###  |- Vessel 14 has the path [105, 272, 234, 0]
###  |  105 (DKAAR Out@388) - 272 (TRZMK In@617/Out@631) - 234 (PABLB In@1304/Out@1316) - 0 (DUMMY_END Ziel-Service 177)
###  |
###  |
### Vessels not used in the solution: []
###  |-----------------------------------------------------------------------------------------------------------------------
###
#############################################################################################################################
###
###
#############################################################################################################################
### Solution run 3
#############################################################################################################################
###
### Results
###
### The objective of the solution is -28,205,196.4463 (-28205196.4463)
###
### Service 7 (ME3) is operated by 5 vessels from type 19 (PMax28)
###  |
###  |- Vessel  5 has the path [218, 290, 200, 112, 284, 45, 367, 330, -3]
###  |  218 (NLRTM Out@92) - 290 (MAPTM In@211/Out@230) - 200 (MAPTM In@238/Out@259) - 112 (ESALG In@284/Out@296) - 284 (GWOX
###  |  B In@463/Out@542) - 45 (CMDLA In@765/Out@811) - 367 (TRMER In@915/Out@959) - 330 (AEJEA In@1362/Out@1395) - -3 (DUMMY
###  |  _END Ziel-Service 7)
###  |   |- and carried Demand   5,   42.0 containers from 218 to 112
###  |   |- and carried Demand  45,  161.0 containers from 200 to 45
###  |   |- and carried Demand  46,  580.0 containers from 200 to 112
###  |   |- and carried Demand 116,   42.0 containers from 218 to 112
###  |   |- and carried Demand 131,  580.0 containers from 200 to 112
###  |   |- and carried Demand 144,  161.0 containers from 290 to 45
###  |   |- and carried Demand 145,  580.0 containers from 290 to 112
###  |
###  |- Vessel  6 has the path [219, 364, 334, 335, 327, -3]
###  |  219 (NLRTM Out@260) - 364 (TRMER In@411/Out@455) - 334 (EGPSD In@531/Out@550) - 335 (EGPSD In@621/Out@637) - 327 (AEJ
###  |  EA In@858/Out@891) - -3 (DUMMY_END Ziel-Service 7)
###  |   |- and carried Demand 214,  164.0 containers from 334 to 327
###  |   |- and carried Demand 215,   58.0 containers from 334 to 327
###  |   |- and carried Demand 218,  164.0 containers from 335 to 327
###  |   |- and carried Demand 219,   58.0 containers from 335 to 327
###  |
###  |- Vessel  7 has the path [221, 365, 353, 230, 328, -3]
###  |  221 (NLRTM Out@428) - 365 (TRMER In@579/Out@623) - 353 (OMSLL In@878/Out@890) - 230 (OMSLL In@889/Out@904) - 328 (AEJ
###  |  EA In@1026/Out@1059) - -3 (DUMMY_END Ziel-Service 7)
###  |   |- and carried Demand 201,  111.0 containers from 353 to 328
###  |   |- and carried Demand 202,   35.0 containers from 353 to 328
###  |
###  |- Vessel  8 has the path [223, 366, 338, 339, 329, -3]
###  |  223 (NLRTM Out@596) - 366 (TRMER In@747/Out@791) - 338 (EGPSD In@867/Out@886) - 339 (EGPSD In@957/Out@973) - 329 (AEJ
###  |  EA In@1194/Out@1227) - -3 (DUMMY_END Ziel-Service 7)
###  |   |- and carried Demand 206,  467.0 containers from 338 to 329
###  |   |- and carried Demand 210,  467.0 containers from 339 to 329
###  |
###  |- Vessel 15 has the path [134, 356, 325, -3]
###  |  134 (FRLEH Out@158) - 356 (TRAMB In@347/Out@395) - 325 (AEJEA In@690/Out@723) - -3 (DUMMY_END Ziel-Service 7)
###  |
###  |
### Service 24 (WAF7) is operated by 3 vessels from type 18 (PMax25)
###  |
###  |- Vessel  1 has the path [100, 276, -1]
###  |  100 (DEHAM Out@288) - 276 (ESALG In@496/Out@515) - -1 (DUMMY_END Ziel-Service 24)
###  |
###  |- Vessel  2 has the path [101, 277, -1]
###  |  101 (DEHAM Out@456) - 277 (ESALG In@664/Out@683) - -1 (DUMMY_END Ziel-Service 24)
###  |
###  |- Vessel 13 has the path [104, 275, 201, 291, 202, 114, 278, -1]
###  |  104 (DKAAR Out@220) - 275 (ESALG In@328/Out@347) - 201 (MAPTM In@375/Out@396) - 291 (MAPTM In@379/Out@398) - 202 (MAP
###  |  TM In@406/Out@427) - 114 (ESALG In@452/Out@464) - 278 (ESALG In@832/Out@851) - -1 (DUMMY_END Ziel-Service 24)
###  |   |- and carried Demand  18,   18.0 containers from 201 to 114
###  |   |- and carried Demand  52,  484.0 containers from 202 to 114
###  |   |- and carried Demand  53,   18.0 containers from 202 to 114
###  |   |- and carried Demand 119,  214.0 containers from 201 to 278
###  |   |- and carried Demand 120,   10.0 containers from 201 to 278
###  |   |- and carried Demand 121,  484.0 containers from 201 to 114
###  |   |- and carried Demand 122,   18.0 containers from 201 to 114
###  |   |- and carried Demand 132,  214.0 containers from 202 to 278
###  |   |- and carried Demand 133,   10.0 containers from 202 to 278
###  |   |- and carried Demand 134,  484.0 containers from 202 to 114
###  |   |- and carried Demand 135,   18.0 containers from 202 to 114
###  |   |- and carried Demand 138,  214.0 containers from 291 to 278
###  |   |- and carried Demand 139,   10.0 containers from 291 to 278
###  |   |- and carried Demand 140,  312.0 containers from 291 to 114
###  |   |- and carried Demand 141,   18.0 containers from 291 to 114
###  |
###  |
### Service 81 (MECL1) is operated by 6 vessels from type 30 (PMax35)
###  |
###  |- Vessel  9 has the path [1, 274, 199, 371, 424, 229, 425, 231, 375, 428, 408, -4]
###  |  1 (BEANR Out@66) - 274 (ESALG In@160/Out@179) - 199 (MAPTM In@207/Out@228) - 371 (AEJEA In@563/Out@587) - 424 (PKBQM 
###  |  In@644/Out@674) - 229 (OMSLL In@721/Out@736) - 425 (PKBQM In@812/Out@842) - 231 (OMSLL In@1132/Out@1145) - 375 (AEJEA
###  |   In@1235/Out@1259) - 428 (PKBQM In@1316/Out@1346) - 408 (INNSA In@1410/Out@1426) - -4 (DUMMY_END Ziel-Service 81)
###  |   |- and carried Demand 306,   31.0 containers from 428 to 408
###  |   |- and carried Demand 307,   37.0 containers from 375 to 408
###  |   |- and carried Demand 308,  211.0 containers from 375 to 408
###  |   |- and carried Demand 309,  176.0 containers from 375 to 428
###  |   |- and carried Demand 362,  244.0 containers from 425 to 408
###  |   |- and carried Demand 363,   67.0 containers from 425 to 408
###  |   |- and carried Demand 377,  704.0 containers from 371 to 408
###  |   |- and carried Demand 378,    8.0 containers from 371 to 408
###  |   |- and carried Demand 379,  156.0 containers from 371 to 424
###  |   |- and carried Demand 380,   45.0 containers from 371 to 424
###  |
###  |- Vessel 10 has the path [2, 160, 405, -4]
###  |  2 (BEANR Out@234) - 160 (GRPIR In@528/Out@553) - 405 (INNSA In@906/Out@922) - -4 (DUMMY_END Ziel-Service 81)
###  |
###  |- Vessel 11 has the path [5, 266, 373, 426, 354, 376, 429, 409, -4]
###  |  5 (BEANR Out@402) - 266 (TRALI In@668/Out@686) - 373 (AEJEA In@899/Out@923) - 426 (PKBQM In@980/Out@1010) - 354 (OMSL
###  |  L In@1300/Out@1313) - 376 (AEJEA In@1403/Out@1427) - 429 (PKBQM In@1484/Out@1514) - 409 (INNSA In@1578/Out@1594) - -4
###  |   (DUMMY_END Ziel-Service 81)
###  |   |- and carried Demand 289,   34.0 containers from 429 to 409
###  |   |- and carried Demand 290,   84.0 containers from 376 to 429
###  |   |- and carried Demand 291,   50.0 containers from 376 to 429
###  |   |- and carried Demand 342,  254.0 containers from 426 to 409
###  |   |- and carried Demand 343,    1.0 containers from 426 to 409
###  |   |- and carried Demand 344,  135.0 containers from 426 to 409
###  |   |- and carried Demand 347,   75.0 containers from 373 to 409
###  |   |- and carried Demand 348,  200.0 containers from 373 to 426
###  |   |- and carried Demand 349,   24.0 containers from 373 to 426
###  |   |- and carried Demand 350,   26.0 containers from 373 to 409
###  |   |- and carried Demand 351,  144.0 containers from 373 to 409
###  |   |- and carried Demand 352,    1.0 containers from 373 to 409
###  |
###  |- Vessel 12 has the path [8, 267, 374, 427, 407, -4]
###  |  8 (BEANR Out@570) - 267 (TRALI In@836/Out@854) - 374 (AEJEA In@1067/Out@1091) - 427 (PKBQM In@1148/Out@1178) - 407 (I
###  |  NNSA In@1242/Out@1258) - -4 (DUMMY_END Ziel-Service 81)
###  |   |- and carried Demand 329,   86.0 containers from 374 to 427
###  |   |- and carried Demand 330,  118.0 containers from 374 to 427
###  |
###  |- Vessel 17 has the path [145, 268, 404, -4]
###  |  145 (GBFXT Out@302) - 268 (TRAMB In@576/Out@603) - 404 (INNSA In@738/Out@754) - -4 (DUMMY_END Ziel-Service 81)
###  |
###  |- Vessel 18 has the path [148, 222, 273, 406, -4]
###  |  148 (GBFXT Out@470) - 222 (NLRTM In@500/Out@512) - 273 (TRZMK In@785/Out@799) - 406 (INNSA In@1074/Out@1090) - -4 (DU
###  |  MMY_END Ziel-Service 81)
###  |
###  |
### Service 121 (SAE) is operated by 1 vessels from type 19 (PMax28)
###  |
###  |- Vessel 16 has the path [136, 315, 311, 301, -2]
###  |  136 (FRLEH Out@326) - 315 (USORF In@873/Out@881) - 311 (USMIA In@935/Out@943) - 301 (HNPCR In@998/Out@1011) - -2 (DUM
###  |  MY_END Ziel-Service 121)
###  |   |- and carried Demand 170,   10.0 containers from 311 to 301
###  |   |- and carried Demand 171,   75.0 containers from 315 to 301
###  |   |- and carried Demand 172,  114.0 containers from 315 to 301
###  |
###  |
### Service 177 (WCSA) is operated by 3 vessels from type 18 (PMax25)
###  |
###  |- Vessel  3 has the path [102, 358, 269, 236, 0]
###  |  102 (DEHAM Out@624) - 358 (TRAMB In@683/Out@731) - 269 (TRAMB In@744/Out@771) - 236 (PABLB In@1640/Out@1652) - 0 (DUM
###  |  MY_END Ziel-Service 177)
###  |
###  |- Vessel  4 has the path [103, 235, 0]
###  |  103 (DEHAM Out@792) - 235 (PABLB In@1472/Out@1484) - 0 (DUMMY_END Ziel-Service 177)
###  |
###  |- Vessel 14 has the path [105, 272, 234, 0]
###  |  105 (DKAAR Out@388) - 272 (TRZMK In@617/Out@631) - 234 (PABLB In@1304/Out@1316) - 0 (DUMMY_END Ziel-Service 177)
###  |
###  |
### Vessels not used in the solution: []
###  |-----------------------------------------------------------------------------------------------------------------------
###
#############################################################################################################################
###
###
#############################################################################################################################
### Solution run 4
#############################################################################################################################
###
### Results
###
### The objective of the solution is -28,205,196.4463 (-28205196.4463)
###
### Service 7 (ME3) is operated by 5 vessels from type 19 (PMax28)
###  |
###  |- Vessel  5 has the path [218, 290, 200, 112, 284, 45, 367, 330, -3]
###  |  218 (NLRTM Out@92) - 290 (MAPTM In@211/Out@230) - 200 (MAPTM In@238/Out@259) - 112 (ESALG In@284/Out@296) - 284 (GWOX
###  |  B In@463/Out@542) - 45 (CMDLA In@765/Out@811) - 367 (TRMER In@915/Out@959) - 330 (AEJEA In@1362/Out@1395) - -3 (DUMMY
###  |  _END Ziel-Service 7)
###  |   |- and carried Demand   5,   42.0 containers from 218 to 112
###  |   |- and carried Demand  45,  161.0 containers from 200 to 45
###  |   |- and carried Demand  46,  580.0 containers from 200 to 112
###  |   |- and carried Demand 116,   42.0 containers from 218 to 112
###  |   |- and carried Demand 131,  580.0 containers from 200 to 112
###  |   |- and carried Demand 144,  161.0 containers from 290 to 45
###  |   |- and carried Demand 145,  580.0 containers from 290 to 112
###  |
###  |- Vessel  6 has the path [219, 364, 334, 335, 327, -3]
###  |  219 (NLRTM Out@260) - 364 (TRMER In@411/Out@455) - 334 (EGPSD In@531/Out@550) - 335 (EGPSD In@621/Out@637) - 327 (AEJ
###  |  EA In@858/Out@891) - -3 (DUMMY_END Ziel-Service 7)
###  |   |- and carried Demand 214,  164.0 containers from 334 to 327
###  |   |- and carried Demand 215,   58.0 containers from 334 to 327
###  |   |- and carried Demand 218,  164.0 containers from 335 to 327
###  |   |- and carried Demand 219,   58.0 containers from 335 to 327
###  |
###  |- Vessel  7 has the path [221, 365, 353, 230, 328, -3]
###  |  221 (NLRTM Out@428) - 365 (TRMER In@579/Out@623) - 353 (OMSLL In@878/Out@890) - 230 (OMSLL In@889/Out@904) - 328 (AEJ
###  |  EA In@1026/Out@1059) - -3 (DUMMY_END Ziel-Service 7)
###  |   |- and carried Demand 201,  111.0 containers from 353 to 328
###  |   |- and carried Demand 202,   35.0 containers from 353 to 328
###  |
###  |- Vessel  8 has the path [223, 366, 338, 339, 329, -3]
###  |  223 (NLRTM Out@596) - 366 (TRMER In@747/Out@791) - 338 (EGPSD In@867/Out@886) - 339 (EGPSD In@957/Out@973) - 329 (AEJ
###  |  EA In@1194/Out@1227) - -3 (DUMMY_END Ziel-Service 7)
###  |   |- and carried Demand 206,  467.0 containers from 338 to 329
###  |   |- and carried Demand 210,  467.0 containers from 339 to 329
###  |
###  |- Vessel 15 has the path [134, 356, 325, -3]
###  |  134 (FRLEH Out@158) - 356 (TRAMB In@347/Out@395) - 325 (AEJEA In@690/Out@723) - -3 (DUMMY_END Ziel-Service 7)
###  |
###  |
### Service 24 (WAF7) is operated by 3 vessels from type 18 (PMax25)
###  |
###  |- Vessel  1 has the path [100, 276, -1]
###  |  100 (DEHAM Out@288) - 276 (ESALG In@496/Out@515) - -1 (DUMMY_END Ziel-Service 24)
###  |
###  |- Vessel  2 has the path [101, 277, -1]
###  |  101 (DEHAM Out@456) - 277 (ESALG In@664/Out@683) - -1 (DUMMY_END Ziel-Service 24)
###  |
###  |- Vessel 13 has the path [104, 275, 201, 291, 202, 114, 278, -1]
###  |  104 (DKAAR Out@220) - 275 (ESALG In@328/Out@347) - 201 (MAPTM In@375/Out@396) - 291 (MAPTM In@379/Out@398) - 202 (MAP
###  |  TM In@406/Out@427) - 114 (ESALG In@452/Out@464) - 278 (ESALG In@832/Out@851) - -1 (DUMMY_END Ziel-Service 24)
###  |   |- and carried Demand  18,   18.0 containers from 201 to 114
###  |   |- and carried Demand  52,  484.0 containers from 202 to 114
###  |   |- and carried Demand  53,   18.0 containers from 202 to 114
###  |   |- and carried Demand 119,  214.0 containers from 201 to 278
###  |   |- and carried Demand 120,   10.0 containers from 201 to 278
###  |   |- and carried Demand 121,  484.0 containers from 201 to 114
###  |   |- and carried Demand 122,   18.0 containers from 201 to 114
###  |   |- and carried Demand 132,  214.0 containers from 202 to 278
###  |   |- and carried Demand 133,   10.0 containers from 202 to 278
###  |   |- and carried Demand 134,  484.0 containers from 202 to 114
###  |   |- and carried Demand 135,   18.0 containers from 202 to 114
###  |   |- and carried Demand 138,  214.0 containers from 291 to 278
###  |   |- and carried Demand 139,   10.0 containers from 291 to 278
###  |   |- and carried Demand 140,  312.0 containers from 291 to 114
###  |   |- and carried Demand 141,   18.0 containers from 291 to 114
###  |
###  |
### Service 81 (MECL1) is operated by 6 vessels from type 30 (PMax35)
###  |
###  |- Vessel  9 has the path [1, 274, 199, 371, 424, 229, 425, 231, 375, 428, 408, -4]
###  |  1 (BEANR Out@66) - 274 (ESALG In@160/Out@179) - 199 (MAPTM In@207/Out@228) - 371 (AEJEA In@563/Out@587) - 424 (PKBQM 
###  |  In@644/Out@674) - 229 (OMSLL In@721/Out@736) - 425 (PKBQM In@812/Out@842) - 231 (OMSLL In@1132/Out@1145) - 375 (AEJEA
###  |   In@1235/Out@1259) - 428 (PKBQM In@1316/Out@1346) - 408 (INNSA In@1410/Out@1426) - -4 (DUMMY_END Ziel-Service 81)
###  |   |- and carried Demand 306,   31.0 containers from 428 to 408
###  |   |- and carried Demand 307,   37.0 containers from 375 to 408
###  |   |- and carried Demand 308,  211.0 containers from 375 to 408
###  |   |- and carried Demand 309,  176.0 containers from 375 to 428
###  |   |- and carried Demand 362,  244.0 containers from 425 to 408
###  |   |- and carried Demand 363,   67.0 containers from 425 to 408
###  |   |- and carried Demand 377,  704.0 containers from 371 to 408
###  |   |- and carried Demand 378,    8.0 containers from 371 to 408
###  |   |- and carried Demand 379,  156.0 containers from 371 to 424
###  |   |- and carried Demand 380,   45.0 containers from 371 to 424
###  |
###  |- Vessel 10 has the path [2, 160, 405, -4]
###  |  2 (BEANR Out@234) - 160 (GRPIR In@528/Out@553) - 405 (INNSA In@906/Out@922) - -4 (DUMMY_END Ziel-Service 81)
###  |
###  |- Vessel 11 has the path [5, 266, 373, 426, 354, 376, 429, 409, -4]
###  |  5 (BEANR Out@402) - 266 (TRALI In@668/Out@686) - 373 (AEJEA In@899/Out@923) - 426 (PKBQM In@980/Out@1010) - 354 (OMSL
###  |  L In@1300/Out@1313) - 376 (AEJEA In@1403/Out@1427) - 429 (PKBQM In@1484/Out@1514) - 409 (INNSA In@1578/Out@1594) - -4
###  |   (DUMMY_END Ziel-Service 81)
###  |   |- and carried Demand 289,   34.0 containers from 429 to 409
###  |   |- and carried Demand 290,   84.0 containers from 376 to 429
###  |   |- and carried Demand 291,   50.0 containers from 376 to 429
###  |   |- and carried Demand 342,  254.0 containers from 426 to 409
###  |   |- and carried Demand 343,    1.0 containers from 426 to 409
###  |   |- and carried Demand 344,  135.0 containers from 426 to 409
###  |   |- and carried Demand 347,   75.0 containers from 373 to 409
###  |   |- and carried Demand 348,  200.0 containers from 373 to 426
###  |   |- and carried Demand 349,   24.0 containers from 373 to 426
###  |   |- and carried Demand 350,   26.0 containers from 373 to 409
###  |   |- and carried Demand 351,  144.0 containers from 373 to 409
###  |   |- and carried Demand 352,    1.0 containers from 373 to 409
###  |
###  |- Vessel 12 has the path [8, 267, 374, 427, 407, -4]
###  |  8 (BEANR Out@570) - 267 (TRALI In@836/Out@854) - 374 (AEJEA In@1067/Out@1091) - 427 (PKBQM In@1148/Out@1178) - 407 (I
###  |  NNSA In@1242/Out@1258) - -4 (DUMMY_END Ziel-Service 81)
###  |   |- and carried Demand 329,   86.0 containers from 374 to 427
###  |   |- and carried Demand 330,  118.0 containers from 374 to 427
###  |
###  |- Vessel 17 has the path [145, 268, 404, -4]
###  |  145 (GBFXT Out@302) - 268 (TRAMB In@576/Out@603) - 404 (INNSA In@738/Out@754) - -4 (DUMMY_END Ziel-Service 81)
###  |
###  |- Vessel 18 has the path [148, 222, 273, 406, -4]
###  |  148 (GBFXT Out@470) - 222 (NLRTM In@500/Out@512) - 273 (TRZMK In@785/Out@799) - 406 (INNSA In@1074/Out@1090) - -4 (DU
###  |  MMY_END Ziel-Service 81)
###  |
###  |
### Service 121 (SAE) is operated by 1 vessels from type 19 (PMax28)
###  |
###  |- Vessel 16 has the path [136, 315, 311, 301, -2]
###  |  136 (FRLEH Out@326) - 315 (USORF In@873/Out@881) - 311 (USMIA In@935/Out@943) - 301 (HNPCR In@998/Out@1011) - -2 (DUM
###  |  MY_END Ziel-Service 121)
###  |   |- and carried Demand 170,   10.0 containers from 311 to 301
###  |   |- and carried Demand 171,   75.0 containers from 315 to 301
###  |   |- and carried Demand 172,  114.0 containers from 315 to 301
###  |
###  |
### Service 177 (WCSA) is operated by 3 vessels from type 18 (PMax25)
###  |
###  |- Vessel  3 has the path [102, 358, 269, 236, 0]
###  |  102 (DEHAM Out@624) - 358 (TRAMB In@683/Out@731) - 269 (TRAMB In@744/Out@771) - 236 (PABLB In@1640/Out@1652) - 0 (DUM
###  |  MY_END Ziel-Service 177)
###  |
###  |- Vessel  4 has the path [103, 235, 0]
###  |  103 (DEHAM Out@792) - 235 (PABLB In@1472/Out@1484) - 0 (DUMMY_END Ziel-Service 177)
###  |
###  |- Vessel 14 has the path [105, 272, 234, 0]
###  |  105 (DKAAR Out@388) - 272 (TRZMK In@617/Out@631) - 234 (PABLB In@1304/Out@1316) - 0 (DUMMY_END Ziel-Service 177)
###  |
###  |
### Vessels not used in the solution: []
###  |-----------------------------------------------------------------------------------------------------------------------
###
#############################################################################################################################
###
###
#############################################################################################################################
### Solution run 5
#############################################################################################################################
###
### Results
###
### The objective of the solution is -28,205,196.4463 (-28205196.4463)
###
### Service 7 (ME3) is operated by 5 vessels from type 19 (PMax28)
###  |
###  |- Vessel  5 has the path [218, 290, 200, 112, 284, 45, 367, 330, -3]
###  |  218 (NLRTM Out@92) - 290 (MAPTM In@211/Out@230) - 200 (MAPTM In@238/Out@259) - 112 (ESALG In@284/Out@296) - 284 (GWOX
###  |  B In@463/Out@542) - 45 (CMDLA In@765/Out@811) - 367 (TRMER In@915/Out@959) - 330 (AEJEA In@1362/Out@1395) - -3 (DUMMY
###  |  _END Ziel-Service 7)
###  |   |- and carried Demand   5,   42.0 containers from 218 to 112
###  |   |- and carried Demand  45,  161.0 containers from 200 to 45
###  |   |- and carried Demand  46,  580.0 containers from 200 to 112
###  |   |- and carried Demand 116,   42.0 containers from 218 to 112
###  |   |- and carried Demand 131,  580.0 containers from 200 to 112
###  |   |- and carried Demand 144,  161.0 containers from 290 to 45
###  |   |- and carried Demand 145,  580.0 containers from 290 to 112
###  |
###  |- Vessel  6 has the path [219, 364, 334, 335, 327, -3]
###  |  219 (NLRTM Out@260) - 364 (TRMER In@411/Out@455) - 334 (EGPSD In@531/Out@550) - 335 (EGPSD In@621/Out@637) - 327 (AEJ
###  |  EA In@858/Out@891) - -3 (DUMMY_END Ziel-Service 7)
###  |   |- and carried Demand 214,  164.0 containers from 334 to 327
###  |   |- and carried Demand 215,   58.0 containers from 334 to 327
###  |   |- and carried Demand 218,  164.0 containers from 335 to 327
###  |   |- and carried Demand 219,   58.0 containers from 335 to 327
###  |
###  |- Vessel  7 has the path [221, 365, 353, 230, 328, -3]
###  |  221 (NLRTM Out@428) - 365 (TRMER In@579/Out@623) - 353 (OMSLL In@878/Out@890) - 230 (OMSLL In@889/Out@904) - 328 (AEJ
###  |  EA In@1026/Out@1059) - -3 (DUMMY_END Ziel-Service 7)
###  |   |- and carried Demand 201,  111.0 containers from 353 to 328
###  |   |- and carried Demand 202,   35.0 containers from 353 to 328
###  |
###  |- Vessel  8 has the path [223, 366, 338, 339, 329, -3]
###  |  223 (NLRTM Out@596) - 366 (TRMER In@747/Out@791) - 338 (EGPSD In@867/Out@886) - 339 (EGPSD In@957/Out@973) - 329 (AEJ
###  |  EA In@1194/Out@1227) - -3 (DUMMY_END Ziel-Service 7)
###  |   |- and carried Demand 206,  467.0 containers from 338 to 329
###  |   |- and carried Demand 210,  467.0 containers from 339 to 329
###  |
###  |- Vessel 15 has the path [134, 356, 325, -3]
###  |  134 (FRLEH Out@158) - 356 (TRAMB In@347/Out@395) - 325 (AEJEA In@690/Out@723) - -3 (DUMMY_END Ziel-Service 7)
###  |
###  |
### Service 24 (WAF7) is operated by 3 vessels from type 18 (PMax25)
###  |
###  |- Vessel  1 has the path [100, 276, -1]
###  |  100 (DEHAM Out@288) - 276 (ESALG In@496/Out@515) - -1 (DUMMY_END Ziel-Service 24)
###  |
###  |- Vessel  2 has the path [101, 277, -1]
###  |  101 (DEHAM Out@456) - 277 (ESALG In@664/Out@683) - -1 (DUMMY_END Ziel-Service 24)
###  |
###  |- Vessel 13 has the path [104, 275, 201, 291, 202, 114, 278, -1]
###  |  104 (DKAAR Out@220) - 275 (ESALG In@328/Out@347) - 201 (MAPTM In@375/Out@396) - 291 (MAPTM In@379/Out@398) - 202 (MAP
###  |  TM In@406/Out@427) - 114 (ESALG In@452/Out@464) - 278 (ESALG In@832/Out@851) - -1 (DUMMY_END Ziel-Service 24)
###  |   |- and carried Demand  18,   18.0 containers from 201 to 114
###  |   |- and carried Demand  52,  484.0 containers from 202 to 114
###  |   |- and carried Demand  53,   18.0 containers from 202 to 114
###  |   |- and carried Demand 119,  214.0 containers from 201 to 278
###  |   |- and carried Demand 120,   10.0 containers from 201 to 278
###  |   |- and carried Demand 121,  484.0 containers from 201 to 114
###  |   |- and carried Demand 122,   18.0 containers from 201 to 114
###  |   |- and carried Demand 132,  214.0 containers from 202 to 278
###  |   |- and carried Demand 133,   10.0 containers from 202 to 278
###  |   |- and carried Demand 134,  484.0 containers from 202 to 114
###  |   |- and carried Demand 135,   18.0 containers from 202 to 114
###  |   |- and carried Demand 138,  214.0 containers from 291 to 278
###  |   |- and carried Demand 139,   10.0 containers from 291 to 278
###  |   |- and carried Demand 140,  312.0 containers from 291 to 114
###  |   |- and carried Demand 141,   18.0 containers from 291 to 114
###  |
###  |
### Service 81 (MECL1) is operated by 6 vessels from type 30 (PMax35)
###  |
###  |- Vessel  9 has the path [1, 274, 199, 371, 424, 229, 425, 231, 375, 428, 408, -4]
###  |  1 (BEANR Out@66) - 274 (ESALG In@160/Out@179) - 199 (MAPTM In@207/Out@228) - 371 (AEJEA In@563/Out@587) - 424 (PKBQM 
###  |  In@644/Out@674) - 229 (OMSLL In@721/Out@736) - 425 (PKBQM In@812/Out@842) - 231 (OMSLL In@1132/Out@1145) - 375 (AEJEA
###  |   In@1235/Out@1259) - 428 (PKBQM In@1316/Out@1346) - 408 (INNSA In@1410/Out@1426) - -4 (DUMMY_END Ziel-Service 81)
###  |   |- and carried Demand 306,   31.0 containers from 428 to 408
###  |   |- and carried Demand 307,   37.0 containers from 375 to 408
###  |   |- and carried Demand 308,  211.0 containers from 375 to 408
###  |   |- and carried Demand 309,  176.0 containers from 375 to 428
###  |   |- and carried Demand 362,  244.0 containers from 425 to 408
###  |   |- and carried Demand 363,   67.0 containers from 425 to 408
###  |   |- and carried Demand 377,  704.0 containers from 371 to 408
###  |   |- and carried Demand 378,    8.0 containers from 371 to 408
###  |   |- and carried Demand 379,  156.0 containers from 371 to 424
###  |   |- and carried Demand 380,   45.0 containers from 371 to 424
###  |
###  |- Vessel 10 has the path [2, 160, 405, -4]
###  |  2 (BEANR Out@234) - 160 (GRPIR In@528/Out@553) - 405 (INNSA In@906/Out@922) - -4 (DUMMY_END Ziel-Service 81)
###  |
###  |- Vessel 11 has the path [5, 266, 373, 426, 354, 376, 429, 409, -4]
###  |  5 (BEANR Out@402) - 266 (TRALI In@668/Out@686) - 373 (AEJEA In@899/Out@923) - 426 (PKBQM In@980/Out@1010) - 354 (OMSL
###  |  L In@1300/Out@1313) - 376 (AEJEA In@1403/Out@1427) - 429 (PKBQM In@1484/Out@1514) - 409 (INNSA In@1578/Out@1594) - -4
###  |   (DUMMY_END Ziel-Service 81)
###  |   |- and carried Demand 289,   34.0 containers from 429 to 409
###  |   |- and carried Demand 290,   84.0 containers from 376 to 429
###  |   |- and carried Demand 291,   50.0 containers from 376 to 429
###  |   |- and carried Demand 342,  254.0 containers from 426 to 409
###  |   |- and carried Demand 343,    1.0 containers from 426 to 409
###  |   |- and carried Demand 344,  135.0 containers from 426 to 409
###  |   |- and carried Demand 347,   75.0 containers from 373 to 409
###  |   |- and carried Demand 348,  200.0 containers from 373 to 426
###  |   |- and carried Demand 349,   24.0 containers from 373 to 426
###  |   |- and carried Demand 350,   26.0 containers from 373 to 409
###  |   |- and carried Demand 351,  144.0 containers from 373 to 409
###  |   |- and carried Demand 352,    1.0 containers from 373 to 409
###  |
###  |- Vessel 12 has the path [8, 267, 374, 427, 407, -4]
###  |  8 (BEANR Out@570) - 267 (TRALI In@836/Out@854) - 374 (AEJEA In@1067/Out@1091) - 427 (PKBQM In@1148/Out@1178) - 407 (I
###  |  NNSA In@1242/Out@1258) - -4 (DUMMY_END Ziel-Service 81)
###  |   |- and carried Demand 329,   86.0 containers from 374 to 427
###  |   |- and carried Demand 330,  118.0 containers from 374 to 427
###  |
###  |- Vessel 17 has the path [145, 268, 404, -4]
###  |  145 (GBFXT Out@302) - 268 (TRAMB In@576/Out@603) - 404 (INNSA In@738/Out@754) - -4 (DUMMY_END Ziel-Service 81)
###  |
###  |- Vessel 18 has the path [148, 222, 273, 406, -4]
###  |  148 (GBFXT Out@470) - 222 (NLRTM In@500/Out@512) - 273 (TRZMK In@785/Out@799) - 406 (INNSA In@1074/Out@1090) - -4 (DU
###  |  MMY_END Ziel-Service 81)
###  |
###  |
### Service 121 (SAE) is operated by 1 vessels from type 19 (PMax28)
###  |
###  |- Vessel 16 has the path [136, 315, 311, 301, -2]
###  |  136 (FRLEH Out@326) - 315 (USORF In@873/Out@881) - 311 (USMIA In@935/Out@943) - 301 (HNPCR In@998/Out@1011) - -2 (DUM
###  |  MY_END Ziel-Service 121)
###  |   |- and carried Demand 170,   10.0 containers from 311 to 301
###  |   |- and carried Demand 171,   75.0 containers from 315 to 301
###  |   |- and carried Demand 172,  114.0 containers from 315 to 301
###  |
###  |
### Service 177 (WCSA) is operated by 3 vessels from type 18 (PMax25)
###  |
###  |- Vessel  3 has the path [102, 358, 269, 236, 0]
###  |  102 (DEHAM Out@624) - 358 (TRAMB In@683/Out@731) - 269 (TRAMB In@744/Out@771) - 236 (PABLB In@1640/Out@1652) - 0 (DUM
###  |  MY_END Ziel-Service 177)
###  |
###  |- Vessel  4 has the path [103, 235, 0]
###  |  103 (DEHAM Out@792) - 235 (PABLB In@1472/Out@1484) - 0 (DUMMY_END Ziel-Service 177)
###  |
###  |- Vessel 14 has the path [105, 272, 234, 0]
###  |  105 (DKAAR Out@388) - 272 (TRZMK In@617/Out@631) - 234 (PABLB In@1304/Out@1316) - 0 (DUMMY_END Ziel-Service 177)
###  |
###  |
### Vessels not used in the solution: []
###  |-----------------------------------------------------------------------------------------------------------------------
###
#############################################################################################################################
###
###
#############################################################################################################################
### Solution run 6
#############################################################################################################################
###
### Results
###
### The objective of the solution is -28,205,196.4463 (-28205196.4463)
###
### Service 7 (ME3) is operated by 5 vessels from type 19 (PMax28)
###  |
###  |- Vessel  5 has the path [218, 290, 200, 112, 284, 45, 367, 330, -3]
###  |  218 (NLRTM Out@92) - 290 (MAPTM In@211/Out@230) - 200 (MAPTM In@238/Out@259) - 112 (ESALG In@284/Out@296) - 284 (GWOX
###  |  B In@463/Out@542) - 45 (CMDLA In@765/Out@811) - 367 (TRMER In@915/Out@959) - 330 (AEJEA In@1362/Out@1395) - -3 (DUMMY
###  |  _END Ziel-Service 7)
###  |   |- and carried Demand   5,   42.0 containers from 218 to 112
###  |   |- and carried Demand  45,  161.0 containers from 200 to 45
###  |   |- and carried Demand  46,  580.0 containers from 200 to 112
###  |   |- and carried Demand 116,   42.0 containers from 218 to 112
###  |   |- and carried Demand 131,  580.0 containers from 200 to 112
###  |   |- and carried Demand 144,  161.0 containers from 290 to 45
###  |   |- and carried Demand 145,  580.0 containers from 290 to 112
###  |
###  |- Vessel  6 has the path [219, 364, 334, 335, 327, -3]
###  |  219 (NLRTM Out@260) - 364 (TRMER In@411/Out@455) - 334 (EGPSD In@531/Out@550) - 335 (EGPSD In@621/Out@637) - 327 (AEJ
###  |  EA In@858/Out@891) - -3 (DUMMY_END Ziel-Service 7)
###  |   |- and carried Demand 214,  164.0 containers from 334 to 327
###  |   |- and carried Demand 215,   58.0 containers from 334 to 327
###  |   |- and carried Demand 218,  164.0 containers from 335 to 327
###  |   |- and carried Demand 219,   58.0 containers from 335 to 327
###  |
###  |- Vessel  7 has the path [221, 365, 353, 230, 328, -3]
###  |  221 (NLRTM Out@428) - 365 (TRMER In@579/Out@623) - 353 (OMSLL In@878/Out@890) - 230 (OMSLL In@889/Out@904) - 328 (AEJ
###  |  EA In@1026/Out@1059) - -3 (DUMMY_END Ziel-Service 7)
###  |   |- and carried Demand 201,  111.0 containers from 353 to 328
###  |   |- and carried Demand 202,   35.0 containers from 353 to 328
###  |
###  |- Vessel  8 has the path [223, 366, 338, 339, 329, -3]
###  |  223 (NLRTM Out@596) - 366 (TRMER In@747/Out@791) - 338 (EGPSD In@867/Out@886) - 339 (EGPSD In@957/Out@973) - 329 (AEJ
###  |  EA In@1194/Out@1227) - -3 (DUMMY_END Ziel-Service 7)
###  |   |- and carried Demand 206,  467.0 containers from 338 to 329
###  |   |- and carried Demand 210,  467.0 containers from 339 to 329
###  |
###  |- Vessel 15 has the path [134, 356, 325, -3]
###  |  134 (FRLEH Out@158) - 356 (TRAMB In@347/Out@395) - 325 (AEJEA In@690/Out@723) - -3 (DUMMY_END Ziel-Service 7)
###  |
###  |
### Service 24 (WAF7) is operated by 3 vessels from type 18 (PMax25)
###  |
###  |- Vessel  1 has the path [100, 276, -1]
###  |  100 (DEHAM Out@288) - 276 (ESALG In@496/Out@515) - -1 (DUMMY_END Ziel-Service 24)
###  |
###  |- Vessel  2 has the path [101, 277, -1]
###  |  101 (DEHAM Out@456) - 277 (ESALG In@664/Out@683) - -1 (DUMMY_END Ziel-Service 24)
###  |
###  |- Vessel 13 has the path [104, 275, 201, 291, 202, 114, 278, -1]
###  |  104 (DKAAR Out@220) - 275 (ESALG In@328/Out@347) - 201 (MAPTM In@375/Out@396) - 291 (MAPTM In@379/Out@398) - 202 (MAP
###  |  TM In@406/Out@427) - 114 (ESALG In@452/Out@464) - 278 (ESALG In@832/Out@851) - -1 (DUMMY_END Ziel-Service 24)
###  |   |- and carried Demand  18,   18.0 containers from 201 to 114
###  |   |- and carried Demand  52,  484.0 containers from 202 to 114
###  |   |- and carried Demand  53,   18.0 containers from 202 to 114
###  |   |- and carried Demand 119,  214.0 containers from 201 to 278
###  |   |- and carried Demand 120,   10.0 containers from 201 to 278
###  |   |- and carried Demand 121,  484.0 containers from 201 to 114
###  |   |- and carried Demand 122,   18.0 containers from 201 to 114
###  |   |- and carried Demand 132,  214.0 containers from 202 to 278
###  |   |- and carried Demand 133,   10.0 containers from 202 to 278
###  |   |- and carried Demand 134,  484.0 containers from 202 to 114
###  |   |- and carried Demand 135,   18.0 containers from 202 to 114
###  |   |- and carried Demand 138,  214.0 containers from 291 to 278
###  |   |- and carried Demand 139,   10.0 containers from 291 to 278
###  |   |- and carried Demand 140,  312.0 containers from 291 to 114
###  |   |- and carried Demand 141,   18.0 containers from 291 to 114
###  |
###  |
### Service 81 (MECL1) is operated by 6 vessels from type 30 (PMax35)
###  |
###  |- Vessel  9 has the path [1, 274, 199, 371, 424, 229, 425, 231, 375, 428, 408, -4]
###  |  1 (BEANR Out@66) - 274 (ESALG In@160/Out@179) - 199 (MAPTM In@207/Out@228) - 371 (AEJEA In@563/Out@587) - 424 (PKBQM 
###  |  In@644/Out@674) - 229 (OMSLL In@721/Out@736) - 425 (PKBQM In@812/Out@842) - 231 (OMSLL In@1132/Out@1145) - 375 (AEJEA
###  |   In@1235/Out@1259) - 428 (PKBQM In@1316/Out@1346) - 408 (INNSA In@1410/Out@1426) - -4 (DUMMY_END Ziel-Service 81)
###  |   |- and carried Demand 306,   31.0 containers from 428 to 408
###  |   |- and carried Demand 307,   37.0 containers from 375 to 408
###  |   |- and carried Demand 308,  211.0 containers from 375 to 408
###  |   |- and carried Demand 309,  176.0 containers from 375 to 428
###  |   |- and carried Demand 362,  244.0 containers from 425 to 408
###  |   |- and carried Demand 363,   67.0 containers from 425 to 408
###  |   |- and carried Demand 377,  704.0 containers from 371 to 408
###  |   |- and carried Demand 378,    8.0 containers from 371 to 408
###  |   |- and carried Demand 379,  156.0 containers from 371 to 424
###  |   |- and carried Demand 380,   45.0 containers from 371 to 424
###  |
###  |- Vessel 10 has the path [2, 160, 405, -4]
###  |  2 (BEANR Out@234) - 160 (GRPIR In@528/Out@553) - 405 (INNSA In@906/Out@922) - -4 (DUMMY_END Ziel-Service 81)
###  |
###  |- Vessel 11 has the path [5, 266, 373, 426, 354, 376, 429, 409, -4]
###  |  5 (BEANR Out@402) - 266 (TRALI In@668/Out@686) - 373 (AEJEA In@899/Out@923) - 426 (PKBQM In@980/Out@1010) - 354 (OMSL
###  |  L In@1300/Out@1313) - 376 (AEJEA In@1403/Out@1427) - 429 (PKBQM In@1484/Out@1514) - 409 (INNSA In@1578/Out@1594) - -4
###  |   (DUMMY_END Ziel-Service 81)
###  |   |- and carried Demand 289,   34.0 containers from 429 to 409
###  |   |- and carried Demand 290,   84.0 containers from 376 to 429
###  |   |- and carried Demand 291,   50.0 containers from 376 to 429
###  |   |- and carried Demand 342,  254.0 containers from 426 to 409
###  |   |- and carried Demand 343,    1.0 containers from 426 to 409
###  |   |- and carried Demand 344,  135.0 containers from 426 to 409
###  |   |- and carried Demand 347,   75.0 containers from 373 to 409
###  |   |- and carried Demand 348,  200.0 containers from 373 to 426
###  |   |- and carried Demand 349,   24.0 containers from 373 to 426
###  |   |- and carried Demand 350,   26.0 containers from 373 to 409
###  |   |- and carried Demand 351,  144.0 containers from 373 to 409
###  |   |- and carried Demand 352,    1.0 containers from 373 to 409
###  |
###  |- Vessel 12 has the path [8, 267, 374, 427, 407, -4]
###  |  8 (BEANR Out@570) - 267 (TRALI In@836/Out@854) - 374 (AEJEA In@1067/Out@1091) - 427 (PKBQM In@1148/Out@1178) - 407 (I
###  |  NNSA In@1242/Out@1258) - -4 (DUMMY_END Ziel-Service 81)
###  |   |- and carried Demand 329,   86.0 containers from 374 to 427
###  |   |- and carried Demand 330,  118.0 containers from 374 to 427
###  |
###  |- Vessel 17 has the path [145, 268, 404, -4]
###  |  145 (GBFXT Out@302) - 268 (TRAMB In@576/Out@603) - 404 (INNSA In@738/Out@754) - -4 (DUMMY_END Ziel-Service 81)
###  |
###  |- Vessel 18 has the path [148, 222, 273, 406, -4]
###  |  148 (GBFXT Out@470) - 222 (NLRTM In@500/Out@512) - 273 (TRZMK In@785/Out@799) - 406 (INNSA In@1074/Out@1090) - -4 (DU
###  |  MMY_END Ziel-Service 81)
###  |
###  |
### Service 121 (SAE) is operated by 1 vessels from type 19 (PMax28)
###  |
###  |- Vessel 16 has the path [136, 315, 311, 301, -2]
###  |  136 (FRLEH Out@326) - 315 (USORF In@873/Out@881) - 311 (USMIA In@935/Out@943) - 301 (HNPCR In@998/Out@1011) - -2 (DUM
###  |  MY_END Ziel-Service 121)
###  |   |- and carried Demand 170,   10.0 containers from 311 to 301
###  |   |- and carried Demand 171,   75.0 containers from 315 to 301
###  |   |- and carried Demand 172,  114.0 containers from 315 to 301
###  |
###  |
### Service 177 (WCSA) is operated by 3 vessels from type 18 (PMax25)
###  |
###  |- Vessel  3 has the path [102, 358, 269, 236, 0]
###  |  102 (DEHAM Out@624) - 358 (TRAMB In@683/Out@731) - 269 (TRAMB In@744/Out@771) - 236 (PABLB In@1640/Out@1652) - 0 (DUM
###  |  MY_END Ziel-Service 177)
###  |
###  |- Vessel  4 has the path [103, 235, 0]
###  |  103 (DEHAM Out@792) - 235 (PABLB In@1472/Out@1484) - 0 (DUMMY_END Ziel-Service 177)
###  |
###  |- Vessel 14 has the path [105, 272, 234, 0]
###  |  105 (DKAAR Out@388) - 272 (TRZMK In@617/Out@631) - 234 (PABLB In@1304/Out@1316) - 0 (DUMMY_END Ziel-Service 177)
###  |
###  |
### Vessels not used in the solution: []
###  |-----------------------------------------------------------------------------------------------------------------------
###
#############################################################################################################################
+++++++++++++++++++++++++++++++++++++++++++++++++++++++++++++++++++++++++++++++++++++++++++++++++++++++++++++++++++++++++++++
+++
+++ The average objective is -28,205,196.4463 (-28205196.4463)
+++
+++++++++++++++++++++++++++++++++++++++++++++++++++++++++++++++++++++++++++++++++++++++++++++++++++++++++++++++++++++++++++++

real	59m55.527s
user	114m48.882s
sys	8m29.544s
	Freetype 2.4.12 environment removed
	Python 3.6.0 environment removed
	Gurobi 8.1.0 environment removed
