	Freetype 2.4.12 environment established
		library to render fonts
	Python 3.6.0 environment established
	Gurobi 8.1.0 environment established
Instance LSFRP: LSFDRP_2_4_0_1_fr.p
Instance LSFDP: LSFDRP_2_4_0_1_fd_00.p

*****************************************************************************************************************************
*** Solve LSFDRP_2_4_0_1_fd_00 with Gurobi
***
*** Graph info
*** |S|: 18
*** |S^E|: 0
*** |S^C|: 0
*** |V|: 458
*** |A|: 18883
*** |A^i|: 18832
*** |A^f|: 51
*** |M|: 382
*** |E|: 22

Changed value of parameter TimeLimit to 86400.0
   Prev: 1e+100  Min: 0.0  Max: 1e+100  Default: 1e+100
Changed value of parameter Threads to 4
   Prev: 0  Min: 0  Max: 1024  Default: 0
Optimize a model with 226517 rows, 7592833 columns and 26848534 nonzeros
Variable types: 7252870 continuous, 339963 integer (339963 binary)
Coefficient statistics:
  Matrix range     [1e+00, 4e+03]
  Objective range  [2e+00, 5e+06]
  Bounds range     [1e+00, 1e+00]
  RHS range        [1e+00, 4e+03]
Presolve removed 8264 rows and 1137 columns (presolve time = 6s) ...
Presolve removed 61141 rows and 3802478 columns (presolve time = 11s) ...
Presolve removed 97097 rows and 5101776 columns (presolve time = 15s) ...
Presolve removed 136799 rows and 6391538 columns (presolve time = 20s) ...
Presolve removed 163087 rows and 6877403 columns (presolve time = 25s) ...
Presolve removed 169398 rows and 6883297 columns (presolve time = 30s) ...
Presolve removed 170747 rows and 6888204 columns (presolve time = 35s) ...
Presolve removed 170842 rows and 6889560 columns (presolve time = 40s) ...
Warning: Failed to open log file 'gurobi.log'
Presolve removed 170851 rows and 6889560 columns (presolve time = 51s) ...
Presolve removed 170851 rows and 6889560 columns (presolve time = 341s) ...
Presolve removed 170851 rows and 7002426 columns (presolve time = 374s) ...
Presolve removed 193360 rows and 7307700 columns (presolve time = 375s) ...
Presolve removed 199749 rows and 7343116 columns (presolve time = 380s) ...
Presolve removed 202413 rows and 7351106 columns (presolve time = 388s) ...
Presolve removed 202492 rows and 7359835 columns (presolve time = 445s) ...
Presolve removed 202492 rows and 7359835 columns
Presolve time: 444.55s
Presolved: 24025 rows, 232998 columns, 1023319 nonzeros
Variable types: 97394 continuous, 135604 integer (135559 binary)

Deterministic concurrent LP optimizer: primal and dual simplex
Showing first log only...


Root simplex log...

Iteration    Objective       Primal Inf.    Dual Inf.      Time
       0   -4.7359751e+04   6.200000e+01   1.912296e+09    450s
   11948   -2.3329716e+07   0.000000e+00   3.944312e+09    451s
   25377   -8.0204615e+06   0.000000e+00   1.305389e+11    455s
   37683   -2.8134114e+06   0.000000e+00   8.405981e+11    460s
   50438    1.1475539e+06   0.000000e+00   1.678311e+11    465s
   60512    2.9786882e+06   0.000000e+00   7.805317e+10    470s
   72087    6.1486869e+06   0.000000e+00   2.050470e+10    475s
   82439    6.8445115e+06   0.000000e+00   6.675293e+10    480s
   90570    7.2174827e+06   0.000000e+00   1.902971e+10    485s
  100072    7.6200872e+06   0.000000e+00   3.968815e+10    490s
  109459    7.9227731e+06   0.000000e+00   3.297072e+10    495s
  118186    8.2575106e+06   0.000000e+00   1.023089e+10    500s
  126729    8.6712201e+06   0.000000e+00   6.765779e+10    505s
  135311    9.0365997e+06   0.000000e+00   8.385557e+09    510s
  143126    9.2455098e+06   0.000000e+00   5.723895e+10    515s
  150757    9.3892226e+06   0.000000e+00   3.065195e+10    520s
  158792    9.6127210e+06   0.000000e+00   6.186335e+10    525s
  165979    9.7912450e+06   0.000000e+00   4.176858e+10    530s
  172780    9.9576202e+06   0.000000e+00   2.470771e+10    535s
  179172    1.0072046e+07   0.000000e+00   3.048886e+09    540s
  186414    1.0275241e+07   0.000000e+00   3.993440e+10    545s
  193644    1.0432361e+07   0.000000e+00   6.185305e+09    550s
  199999    1.0500792e+07   0.000000e+00   7.697269e+09    555s
Concurrent spin time: 0.00s

Solved with dual simplex

Root relaxation: objective 1.111719e+07, 72362 iterations, 110.70 seconds
Total elapsed time = 596.08s

    Nodes    |    Current Node    |     Objective Bounds      |     Work
 Expl Unexpl |  Obj  Depth IntInf | Incumbent    BestBd   Gap | It/Node Time

     0     0 1.0920e+07    0  436          - 1.0920e+07      -     -  613s
H    0     0                    -5231841.163 1.0920e+07   309%     -  614s
H    0     0                    -3856025.720 1.0920e+07   383%     -  705s
     0     0 1.0721e+07    0  491 -3856025.7 1.0721e+07   378%     -  809s
     0     0 1.0711e+07    0  499 -3856025.7 1.0711e+07   378%     -  840s
     0     0 1.0710e+07    0  515 -3856025.7 1.0710e+07   378%     -  849s
     0     0 1.0710e+07    0  502 -3856025.7 1.0710e+07   378%     -  855s
     0     0 1.0621e+07    0  500 -3856025.7 1.0621e+07   375%     -  866s
     0     0 1.0621e+07    0  499 -3856025.7 1.0621e+07   375%     -  867s
     0     0 1.0377e+07    0  535 -3856025.7 1.0377e+07   369%     -  971s
H    0     0                    -2533264.647 1.0377e+07   510%     - 1049s
     0     0 1.0369e+07    0  551 -2533264.6 1.0369e+07   509%     - 1059s
     0     0 1.0367e+07    0  577 -2533264.6 1.0367e+07   509%     - 1065s
     0     0 1.0365e+07    0  574 -2533264.6 1.0365e+07   509%     - 1069s
     0     0 1.0364e+07    0  577 -2533264.6 1.0364e+07   509%     - 1072s
     0     0 1.0363e+07    0  573 -2533264.6 1.0363e+07   509%     - 1075s
     0     0 1.0363e+07    0  574 -2533264.6 1.0363e+07   509%     - 1076s
     0     0 1.0363e+07    0  575 -2533264.6 1.0363e+07   509%     - 1077s
     0     0 1.0363e+07    0  572 -2533264.6 1.0363e+07   509%     - 1078s
     0     0 9593071.91    0  526 -2533264.6 9593071.91   479%     - 1137s
     0     0 9590518.81    0  514 -2533264.6 9590518.81   479%     - 1143s
     0     0 9587834.51    0  541 -2533264.6 9587834.51   478%     - 1149s
     0     0 9587704.87    0  538 -2533264.6 9587704.87   478%     - 1150s
     0     0 9571456.90    0  568 -2533264.6 9571456.90   478%     - 1206s
     0     0 9570560.78    0  561 -2533264.6 9570560.78   478%     - 1211s
     0     0 9569652.25    0  560 -2533264.6 9569652.25   478%     - 1214s
     0     0 9569488.53    0  571 -2533264.6 9569488.53   478%     - 1215s
     0     0 9556692.47    0  571 -2533264.6 9556692.47   477%     - 1275s
     0     0 9553171.19    0  572 -2533264.6 9553171.19   477%     - 1282s
     0     0 9552303.65    0  567 -2533264.6 9552303.65   477%     - 1285s
     0     0 9552254.46    0  571 -2533264.6 9552254.46   477%     - 1287s
     0     0 9539341.12    0  572 -2533264.6 9539341.12   477%     - 1330s
     0     0 9538382.96    0  623 -2533264.6 9538382.96   477%     - 1336s
     0     0 9536952.57    0  597 -2533264.6 9536952.57   476%     - 1340s
     0     0 9536801.46    0  602 -2533264.6 9536801.46   476%     - 1342s
     0     0 9499278.64    0  595 -2533264.6 9499278.64   475%     - 1390s
H    0     0                    -2533264.645 9499278.64   475%     - 1408s
     0     0 9496092.06    0  640 -2533264.6 9496092.06   475%     - 1414s
     0     0 9495866.49    0  644 -2533264.6 9495866.49   475%     - 1416s
     0     0 9495783.95    0  615 -2533264.6 9495783.95   475%     - 1419s
     0     0 9442136.32    0  608 -2533264.6 9442136.32   473%     - 1462s
     0     0 9434275.68    0  612 -2533264.6 9434275.68   472%     - 1471s
     0     0 9434071.28    0  600 -2533264.6 9434071.28   472%     - 1474s
     0     0 9274040.47    0  588 -2533264.6 9274040.47   466%     - 1532s
     0     0 9268941.92    0  623 -2533264.6 9268941.92   466%     - 1558s
     0     0 9267339.11    0  636 -2533264.6 9267339.11   466%     - 1563s
     0     0 9266787.30    0  621 -2533264.6 9266787.30   466%     - 1569s
     0     0 9266387.77    0  627 -2533264.6 9266387.77   466%     - 1572s
     0     0 9266373.08    0  628 -2533264.6 9266373.08   466%     - 1573s
     0     0 8915129.59    0  592 -2533264.6 8915129.59   452%     - 1692s
     0     0 8912284.58    0  599 -2533264.6 8912284.58   452%     - 1751s
     0     0 8912073.62    0  591 -2533264.6 8912073.62   452%     - 1753s
     0     0 8897231.66    0  584 -2533264.6 8897231.66   451%     - 1781s
     0     0 8891371.33    0  588 -2533264.6 8891371.33   451%     - 1789s
     0     0 8890240.29    0  596 -2533264.6 8890240.29   451%     - 1793s
     0     0 8890236.51    0  560 -2533264.6 8890236.51   451%     - 1793s
     0     0 8796863.08    0  589 -2533264.6 8796863.08   447%     - 1837s
     0     0 8794615.29    0  619 -2533264.6 8794615.29   447%     - 1841s
     0     0 8793983.05    0  642 -2533264.6 8793983.05   447%     - 1845s
     0     0 8793726.56    0  636 -2533264.6 8793726.56   447%     - 1847s
     0     0 8782613.28    0  604 -2533264.6 8782613.28   447%     - 1869s
     0     0 8780353.36    0  629 -2533264.6 8780353.36   447%     - 1875s
     0     0 8773157.28    0  606 -2533264.6 8773157.28   446%     - 1879s
     0     0 8771666.06    0  627 -2533264.6 8771666.06   446%     - 1883s
     0     0 8771095.39    0  627 -2533264.6 8771095.39   446%     - 1886s
     0     0 8771029.09    0  633 -2533264.6 8771029.09   446%     - 1887s
     0     0 8770436.67    0  642 -2533264.6 8770436.67   446%     - 1898s
     0     0 8769991.47    0  652 -2533264.6 8769991.47   446%     - 1901s
     0     0 8769898.19    0  649 -2533264.6 8769898.19   446%     - 1902s
     0     0 8769767.10    0  650 -2533264.6 8769767.10   446%     - 1913s
     0     0 8769682.74    0  645 -2533264.6 8769682.74   446%     - 1915s
     0     0 8769638.33    0  648 -2533264.6 8769638.33   446%     - 1926s
     0     0 8769638.33    0  646 -2533264.6 8769638.33   446%     - 2069s
H    0     0                    -1729970.966 8769638.33   607%     - 2270s
     0     2 8769638.33    0  646 -1729971.0 8769638.33   607%     - 2297s
     1     4 8767853.93    1  635 -1729971.0 8767853.93   607%   879 2447s
     3     8 8737984.68    2  592 -1729971.0 8737984.68   605%  4962 2640s
     7    12 7661782.32    3  613 -1729971.0 8654666.95   600% 36107 3786s
    11    16 6144311.68    3  500 -1729971.0 7661782.32   543% 38775 3957s
    15    19 7655310.74    4  597 -1729971.0 7661782.32   543% 31998 4093s
    19    20 7198960.43    4  524 -1729971.0 7655269.99   543% 31700 4583s
    23    23 7652548.88    5  599 -1729971.0 7655224.31   543% 26885 4792s
H   29    30                    -1699771.966 7655224.31   550% 22919 5205s
H   30    31                    -1544056.758 7655224.31   596% 22342 5205s
    33    32 7637216.31    8  607 -1544056.8 7655224.31   596% 23191 5857s
    40    41 7634033.97   10  587 -1544056.8 7655224.31   596% 23660 6277s
    46    48 7622069.64   12  570 -1544056.8 7655224.31   596% 24063 6579s
    50    50 7614837.73   13  562 -1544056.8 7655224.31   596% 23808 6854s
    56    58 7614810.83   14  549 -1544056.8 7655224.31   596% 22756 7630s
H   65    65                    -1544056.757 7655224.31   596% 22892 8340s
    71    72 7601477.86   18  565 -1544056.8 7655224.31   596% 22797 9016s
    81    83 7572613.79   21  564 -1544056.8 7655224.31   596% 23766 10844s
    85    87 7422402.04   21  513 -1544056.8 7655224.31   596% 25593 11149s
    95    97 7571770.62   22  524 -1544056.8 7655224.31   596% 23919 11451s
H  101   102                    -1516502.665 7655224.31   605% 22850 11451s
   111   110 7542961.38   26  534 -1516502.7 7655224.31   605% 21451 12004s
   113   112 5450388.50   26  447 -1516502.7 7655224.31   605% 21387 12005s
   130   131 7508801.31   28  489 -1516502.7 7655224.31   605% 19554 12542s
H  151   146                    -922470.3956 7655224.31   930% 17433 12542s
   153   156 7503904.56   30  492 -922470.40 7655224.31   930% 17380 12885s
   172   171 7490915.31   32  516 -922470.40 7655224.31   930% 16096 13846s
H  180   173                    -919872.0260 7655224.31   932% 15921 13847s
   194   195 7446408.28   33  490 -919872.03 7655224.31   932% 15202 14567s
   217   218 7434182.97   35  499 -919872.03 7655224.31   932% 14269 15675s
H  229   229                    -919872.0243 7655224.31   932% 14216 15675s
   237   238 7411171.96   37  503 -919872.02 7655224.31   932% 13866 17938s
   278   280 7205459.51   42  445 -919872.02 7655224.31   932% 12888 19053s
   305   304 7146742.15   47  453 -919872.02 7655224.31   932% 12446 19988s
   344   346 5748205.86   47  450 -919872.02 7655224.31   932% 12011 21536s
H  383   383                    -916009.5001 7655224.31   936% 11362 22928s
   428   430 6768517.46   49  446 -916009.50 7655224.31   936% 10749 23409s
   477   480 6713881.53   53  414 -916009.50 7655224.31   936%  9927 24020s
H  504   495                    -868274.4650 7655224.31   982%  9485 24020s
H  509   495                    -692668.5570 7655224.31  1205%  9393 24020s
   533   533 6506500.83   67  437 -692668.56 7655224.31  1205%  9138 24525s
H  582   561                    -692668.5567 7655224.31  1205%  8667 24525s
   588   588 5792656.00   81  349 -692668.56 7655224.31  1205%  8594 25008s
   660   662 5672561.47   93  317 -692668.56 7655224.31  1205%  7889 25436s
H  748   731                    -692668.5566 7655224.31  1205%  7146 25436s
   764   765 5510297.32  102  318 -692668.56 7655224.31  1205%  7001 25826s
H  775   765                    -692668.5564 7655224.31  1205%  6917 25826s
H  873   861                    -692668.5563 7655224.31  1205%  6285 25826s
   901   895 4914552.52  130  331 -692668.56 7655224.31  1205%  6110 26551s
  1008   994 4335025.71  143  323 -692668.56 7655224.31  1205%  5654 27327s
  1187  1148 162792.858  190  245 -692668.56 7655224.31  1205%  4968 27759s
  1310  1254 2362758.89  201  251 -692668.56 7655224.31  1205%  4641 28135s
  1449  1384 2200005.73  205  273 -692668.56 7651794.81  1205%  4283 28451s
  1678  1574 7307490.12    6  522 -692668.56 7651794.81  1205%  3775 28743s
H 1744  1625                    -692668.5532 7651794.81  1205%  3740 28747s
  1745  1626 5413657.90   30  646 -692668.55 7651794.81  1205%  3738 29021s
  1747  1627 5175452.46   20  382 -692668.55 7651794.81  1205%  3734 29232s
  1748  1628 1224300.95  247  421 -692668.55 6669409.08  1063%  3732 29370s
  1749  1629 4110630.16  181  467 -692668.55 6610398.61  1054%  3730 29419s
  1750  1629 970048.728  334  440 -692668.55 6573138.03  1049%  3727 29454s
  1751  1630 3832140.38  149  464 -692668.55 6565329.93  1048%  3725 29468s
  1752  1631 982969.620  329  471 -692668.55 6556853.94  1047%  3723 29476s
  1753  1631 -295944.63  326  475 -692668.55 6553296.99  1046%  3721 29500s
  1754  1632 1687726.31  207  508 -692668.55 6423839.94  1027%  3719 29610s
  1755  1633 5030609.65   41  500 -692668.55 6396540.78  1023%  3717 29635s
  1756  1633 5600133.41   14  508 -692668.55 6359411.39  1018%  3715 29661s
  1757  1634 6180156.85    6  501 -692668.55 6335101.00  1015%  3713 29686s
  1758  1635 4178186.37  102  524 -692668.55 6320784.32  1013%  3710 29693s
  1759  1635 895707.393  371  562 -692668.55 6293556.75  1009%  3708 29707s
  1760  1636 1304484.55  233  547 -692668.55 6288868.74  1008%  3706 29735s
  1761  1637 -82858.257  449  540 -692668.55 6251377.02  1003%  3704 29878s
  1762  1637 1798625.23  177  584 -692668.55 6235526.14  1000%  3702 29919s
  1763  1638 -170643.94  465  591 -692668.55 6224867.99   999%  3700 29930s
  1764  1639 960593.265  336  586 -692668.55 6209927.70   997%  3698 29941s
  1765  1639 4287158.91   20  596 -692668.55 6206287.84   996%  3696 29967s
  1766  1640 3595772.61   37  577 -692668.55 6194193.76   994%  3694 30030s
  1767  1641 -136038.62  351  651 -692668.55 6185318.04   993%  3692 30045s
  1768  1641 3132062.21  208  623 -692668.55 6180880.80   992%  3689 30077s
  1769  1642 -142680.65  452  638 -692668.55 6172159.63   991%  3687 30139s
H 1769  1559                    -692668.5526 6172159.63   991%  3687 30161s
  1771  1560 225942.990  207  562 -692668.55 6156825.78   989%  3683 30180s
  1772  1561 6071865.83   32  623 -692668.55 6154113.98   988%  3681 30215s
  1773  1562 1216807.90  256  639 -692668.55 6141545.80   987%  3679 30400s
  1774  1562 -293408.22  296  639 -692668.55 6141545.80   987%  3677 30418s
  1775  1563 6141545.80   71  639 -692668.55 6141545.80   987%  3675 30593s
  1776  1567 6138375.79   15  629 -692668.55 6139531.32   986%  3802 31160s
  1778  1570 6138114.16   16  617 -692668.55 6138114.16   986%  3804 31732s
  1782  1573 6133391.81   17  598 -692668.55 6137986.30   986%  3834 32635s
  1786  1575 5750952.54   17  583 -692668.55 6133289.96   985%  3887 33250s
  1790  1578 6132348.97   18  596 -692668.55 6132348.97   985%  3925 33542s
  1794  1581 6068934.16   18  551 -692668.55 6132330.37   985%  3945 34033s
  1798  1585 6087476.90   19  590 -692668.55 6132330.37   985%  3983 34251s
  1804  1585 5991068.43   19  595 -692668.55 6087476.90   979%  4009 34529s
  1810  1587 6087371.11   20  581 -692668.55 6087371.11   979%  4016 34936s
  1816  1589 6083442.98   21  572 -692668.55 6083442.98   978%  4054 35268s
  1826  1598 6079101.07   22  570 -692668.55 6079101.07   978%  4084 35484s
  1835  1602 6038841.41   23  559 -692668.55 6068926.10   976%  4093 35671s
  1844  1611 6032474.27   24  574 -692668.55 6068926.10   976%  4106 35940s
  1852  1615 6012441.77   25  577 -692668.55 6068926.10   976%  4132 36212s
  1861  1624 6011335.16   26  565 -692668.55 6068926.10   976%  4161 36441s
  1874  1627 5977800.74   27  587 -692668.55 6068926.10   976%  4193 36606s
  1882  1637 5898350.24   27  468 -692668.55 6068926.10   976%  4209 36830s
  1892  1641 5969066.25   29  567 -692668.55 6068926.10   976%  4234 37025s
  1904  1648 5964439.33   31  540 -692668.55 6068926.10   976%  4250 37593s
  1914  1660 5961404.46   32  531 -692668.55 6068926.10   976%  4316 37981s
  1928  1664 5960548.02   34  520 -692668.55 6068926.10   976%  4372 38353s
  1948  1680 5950609.78   36  539 -692668.55 6068926.10   976%  4398 38655s
  1961  1686 5862636.96   37  440 -692668.55 6068926.10   976%  4427 39342s
  1976  1700 5895699.24   39  493 -692668.55 6068926.10   976%  4511 39635s
  1996  1710 5277688.82   40  483 -692668.55 6068926.10   976%  4552 40021s
  2017  1725 5638843.13   40  477 -692668.55 6068926.10   976%  4561 40360s
  2047  1746 4433114.43   42  441 -692668.55 6068926.10   976%  4577 40711s
  2078  1767 5632754.33   43  503 -692668.55 6068926.10   976%  4563 41012s
H 2080  1689                    -659551.0568 6068926.10  1020%  4566 41012s
  2104  1702 5509185.66   44  490 -659551.06 6068926.10  1020%  4566 41362s
H 2137  1637                    -659551.0548 6068926.10  1020%  4551 41362s
  2139  1654 5494274.68   45  449 -659551.05 6068926.10  1020%  4549 41701s
  2177  1681 5415210.24   47  484 -659551.05 6068926.10  1020%  4539 42043s
H 2196  1622                    -659551.0546 6068926.10  1020%  4547 42043s
  2210  1628 5405502.61   49  474 -659551.05 6068926.10  1020%  4538 42366s
  2257  1663 3842853.34   53  426 -659551.05 6068926.10  1020%  4506 43268s
H 2295  1601                    -654792.5374 6068926.10  1027%  4540 43268s
  2302  1625 5321245.77   54  463 -654792.54 6068926.10  1027%  4530 43623s
H 2349  1572                    -654792.5372 6068926.10  1027%  4504 43623s
  2356  1594 5272849.31   59  439 -654792.54 6068926.10  1027%  4496 43991s
  2413  1630 5072129.73   62  444 -654792.54 6068926.10  1027%  4463 44391s
  2481  1666 5109040.08   67  424 -654792.54 6068926.10  1027%  4424 44831s
H 2545  1619                    -654792.5367 6068926.10  1027%  4389 44831s
  2557  1640 5067922.24   71  422 -654792.54 6068926.10  1027%  4373 45227s
  2634  1679 4924793.21   74  440 -654792.54 6068926.10  1027%  4320 45643s
H 2636  1620                    -654792.5244 6068926.10  1027%  4318 45643s
H 2708  1600                    -642754.3067 6068926.10  1044%  4274 45873s
  2752  1634 4839228.76   83  483 -642754.31 6068926.10  1044%  4272 46173s
H 2778  1584                    -642754.3066 6068926.10  1044%  4263 46173s
  2804  1609 4780212.95   88  389 -642754.31 6068926.10  1044%  4276 46455s
H 2819  1559                    -642754.3053 6068926.10  1044%  4277 46455s
  2863  1599 4613374.86   90  317 -642754.31 6068926.10  1044%  4272 46744s
  2935  1647 4732622.15   95  433 -642754.31 6068926.10  1044%  4249 47162s
  2994  1683 4561709.85  100  407 -642754.31 6068926.10  1044%  4240 47492s
  3083  1740 4492047.39  106  379 -642754.31 6068926.10  1044%  4215 47804s
  3227  1824 4369277.08  113  382 -642754.31 6068926.10  1044%  4135 48079s
  3402  1902 3579809.40  119  330 -642754.31 6068926.10  1044%  4011 48768s
  3488  1912 4182305.53  127  311 -642754.31 6068926.10  1044%  4015 49115s
  3533  1944 4151660.62  133  328 -642754.31 6068926.10  1044%  4039 49487s
  3620  1988 4135108.85  139  334 -642754.31 6068926.10  1044%  4034 50347s
  3740  2016 4079698.99  145  359 -642754.31 6068926.10  1044%  4010 50806s
  3837  2065 1040346.60  152  280 -642754.31 6068926.10  1044%  3994 51406s
H 3873  2039                    -633022.0738 6068926.10  1059%  4021 51406s
  3935  2080 3970664.27  162  343 -633022.07 6068926.10  1059%  3968 51782s
  4030  2148 3874696.56  169  350 -633022.07 6068926.10  1059%  3927 52218s
  4181  2234 3863025.15  178  361 -633022.07 6068926.10  1059%  3855 52690s
  4328  2315 3834268.21  189  379 -633022.07 6068926.10  1059%  3806 53142s
  4479  2431 789788.710  213  326 -633022.07 6068926.10  1059%  3763 53587s
  4793  2663 47489.9018  278  275 -633022.07 6068926.10  1059%  3611 54112s
  5159  2859 -350357.34  350  286 -633022.07 6052012.27  1056%  3429 55046s
  5353  2956 5605550.33   21  532 -633022.07 6051820.81  1056%  3376 55509s
H 5379  2963                    -630292.1314 6051820.81  1060%  3382 55509s
  5427  3011 5495585.65   30  540 -630292.13 6051820.81  1060%  3396 56212s
H 5455  3013                    -630292.1313 6051820.81  1060%  3416 56212s
H 5632  3214                    -630292.1312 6051820.81  1060%  3356 56955s
  5882  3383 3894952.82   49  505 -630292.13 6051820.81  1060%  3284 57977s
H 6023  3503                    -628263.5616 6051820.81  1063%  3244 57977s
  6193  3650 1701142.49  113  392 -628263.56 6051820.81  1063%  3215 58563s
H 6337  3738                    -519935.7312 6051820.81  1264%  3175 58564s
  6354  3746 913611.144  240  300 -519935.73 5897995.11  1234%  3194 59156s
  6663  4039 5376096.87   21  583 -519935.73 5897995.11  1234%  3124 59872s
H 6683  4056                    -519935.7310 5897995.11  1234%  3128 59872s
  6992  4357 4471967.85   41  444 -519935.73 5897995.11  1234%  3035 60488s
H 7137  4498                    -519935.7309 5897995.11  1234%  2996 60488s
  7302  4638 2027048.61   59  434 -519935.73 5897350.12  1234%  2952 61266s
H 7525  4819                    -489736.7304 5897350.12  1304%  2894 61266s
  7779  5027 5767305.03   30  557 -489736.73 5897350.12  1304%  2809 62223s
H 7785  4989                    -454652.5696 5895265.28  1397%  2838 62223s
  7855  5037 5489158.31   34  468 -454652.57 5894436.72  1396%  2845 62867s
  7896  5075 5049107.86   38  482 -454652.57 5894436.72  1396%  2881 63557s
  8021  5196 3822806.20   42  486 -454652.57 5894436.72  1396%  2895 64294s
  8386  5549     cutoff  164      -454652.57 5894323.09  1396%  2836 65025s
  8639  5763 5384995.44   34  487 -454652.57 5894323.09  1396%  2811 65814s
  9056  6151 2729223.28   97  348 -454652.57 5874275.19  1392%  2743 66679s
  9444  6492 5811913.19   30  592 -454652.57 5874275.19  1392%  2688 67783s
H 9454  6499                    -454652.5521 5874275.19  1392%  2697 67783s
  9570  6589 2444221.33   33  491 -454652.55 5874275.19  1392%  2716 68567s
H 9586  6604                    -454652.5520 5874275.19  1392%  2728 68567s
H 9720  6734                    -454652.5519 5874275.19  1392%  2710 68567s
  9828  6839 1367985.31   41  359 -454652.55 5862234.86  1389%  2697 69925s
 10171  7130 4810985.48   26  463 -454652.55 5862234.86  1389%  2657 71220s
 10397  7338 2649148.89   98  646 -454652.55 5862234.86  1389%  2640 71456s
 10399  7339 3872315.94   35  395 -454652.55 5862234.86  1389%  2639 71622s
 10400  7340 894352.076  271  443 -454652.55 5862234.86  1389%  2639 71798s
 10401  7341 1397902.97  266  439 -454652.55 5862234.86  1389%  2639 71894s
 10402  7341 1440316.80  151  512 -454652.55 5862234.86  1389%  2638 72007s
 10403  7342 1420373.12  154  506 -454652.55 5862234.86  1389%  2638 72088s
 10404  7343 53339.1021  349  527 -454652.55 5862234.86  1389%  2638 72144s
 10405  7343 501162.113  235  544 -454652.55 5862234.86  1389%  2637 72202s
 10406  7344 148251.695  116  578 -454652.55 5862234.86  1389%  2637 72235s
 10407  7345 922013.258  292  578 -454652.55 5862234.86  1389%  2637 72247s
 10408  7345 4847532.69   37  571 -454652.55 5862234.86  1389%  2637 72261s
 10409  7346 4522684.67   54  569 -454652.55 5862234.86  1389%  2636 72275s
 10410  7347 34087.4350  170  524 -454652.55 5796496.23  1375%  2636 72443s
H10410  6979                    -454652.5518 5796496.23  1375%  2636 72515s
 10412  6980 1764592.30  292  525 -454652.55 5749228.58  1365%  2636 72541s
 10413  6981 617535.475  185  520 -454652.55 5747421.19  1364%  2635 72551s
 10414  6981 3741.23973  185  527 -454652.55 5738499.39  1362%  2635 72574s
 10415  6982 4431398.90   99  530 -454652.55 5734717.86  1361%  2635 72586s
 10416  6983 1884410.68  104  593 -454652.55 5725315.72  1359%  2635 72603s
 10417  6983 5221629.26   47  592 -454652.55 5718889.71  1358%  2634 72610s
 10418  6984 4644628.43   47  599 -454652.55 5713021.00  1357%  2634 72615s
 10419  6985 57114.2699  441  603 -454652.55 5712160.64  1356%  2634 72623s
 10420  6985 581879.153  146  576 -454652.55 5704425.59  1355%  2634 72645s
 10421  6986 120139.072  161  615 -454652.55 5699365.55  1354%  2633 72672s
 10422  6987 2796955.19  119  627 -454652.55 5692352.95  1352%  2633 72694s
 10423  6987 983052.609   85  630 -454652.55 5690878.24  1352%  2633 72707s
 10424  6988 430576.122  269  577 -454652.55 5595564.52  1331%  2633 72756s
 10425  6989 921827.772  272  581 -454652.55 5591525.38  1330%  2632 72768s
 10426  6989 3729408.05  134  576 -454652.55 5581710.10  1328%  2632 72784s
 10427  6990 1409214.23  156  583 -454652.55 5576591.88  1327%  2632 72796s
 10428  6991 250232.978  204  586 -454652.55 5572867.61  1326%  2632 72814s
 10429  6991 581879.153  146  598 -454652.55 5570107.08  1325%  2631 72827s
 10430  6992 814802.972  322  613 -454652.55 5566469.01  1324%  2631 72936s
 10431  6993 584409.843  195  613 -454652.55 5566469.01  1324%  2631 72941s
 10432  6993 998128.552  221  613 -454652.55 5566469.01  1324%  2631 73125s
 10433  6997 5555698.99   26  611 -454652.55 5555698.99  1322%  2653 73601s
 10435  7000 5547979.88   27  616 -454652.55 5547979.88  1320%  2653 74113s
 10439  7003 5529775.80   28  560 -454652.55 5547974.34  1320%  2659 74461s
 10443  7006 5476858.75   28  596 -454652.55 5528948.15  1316%  2662 74742s
 10447  7008 5523833.63   29  545 -454652.55 5527207.71  1316%  2666 75324s
 10451  7011 3555502.35   29  507 -454652.55 5523820.53  1315%  2682 75524s
 10455  7016 5509897.69   30  521 -454652.55 5523799.58  1315%  2685 75700s
 10461  7016 5486251.59   30  541 -454652.55 5509897.69  1312%  2690 75812s
 10465  7014 5509884.60   31  518 -454652.55 5509884.60  1312%  2690 76002s
 10471  7018 5491501.23   32  471 -454652.55 5509884.60  1312%  2697 76379s
 10477  7025 5452341.41   32  503 -454652.55 5509884.60  1312%  2706 76530s
 10485  7029 5437625.19   33  444 -454652.55 5509884.60  1312%  2712 76698s
 10493  7035 5488319.17   34  467 -454652.55 5509884.60  1312%  2714 76913s
 10503  7042 5476005.87   35  506 -454652.55 5509884.60  1312%  2720 77142s
 10513  7049 5474013.17   36  498 -454652.55 5509884.60  1312%  2724 77275s
 10521  7053 5473395.80   37  498 -454652.55 5509884.60  1312%  2730 77377s
 10532  7062 5464831.16   38  493 -454652.55 5509884.60  1312%  2732 77535s
 10543  7065 4979904.10   39  433 -454652.55 5509884.60  1312%  2738 77654s
 10555  7078 4998984.64   40  458 -454652.55 5509884.60  1312%  2741 77822s
 10565  7083 5443684.53   41  505 -454652.55 5509884.60  1312%  2745 77967s
 10576  7091 5423408.54   42  481 -454652.55 5509884.60  1312%  2748 78111s
 10588  7099 5413971.66   43  499 -454652.55 5509884.60  1312%  2751 78242s
 10602  7107 4432813.03   44  460 -454652.55 5509884.60  1312%  2756 78429s
 10621  7120 5379068.17   46  513 -454652.55 5509884.60  1312%  2760 78857s
 10639  7131 3865379.79   47  387 -454652.55 5509884.60  1312%  2770 79001s
 10658  7145 4028139.07   48  375 -454652.55 5509884.60  1312%  2775 79139s
 10670  7154 5293738.40   49  471 -454652.55 5509884.60  1312%  2778 79301s
 10686  7165 3797619.80   50  393 -454652.55 5509884.60  1312%  2785 79493s
 10701  7172 5254451.55   52  481 -454652.55 5509884.60  1312%  2790 79707s
 10728  7192 5236481.34   54  434 -454652.55 5509884.60  1312%  2795 79911s
 10754  7211 5228663.80   56  412 -454652.55 5509884.60  1312%  2799 80096s
 10785  7226 5198093.14   59  429 -454652.55 5509884.60  1312%  2805 80268s
 10809  7243 5196552.60   60  426 -454652.55 5509884.60  1312%  2808 80476s
 10846  7267 5182428.82   63  438 -454652.55 5509884.60  1312%  2813 80729s
 10871  7284 5080522.46   65  448 -454652.55 5509884.60  1312%  2821 80947s
 10917  7312 5041082.88   68  392 -454652.55 5509884.60  1312%  2825 81157s
 10955  7335 4950830.69   71  395 -454652.55 5509884.60  1312%  2832 81408s
 11012  7359 4953979.52   74  408 -454652.55 5509884.60  1312%  2836 81635s
 11079  7388 4933522.29   77  431 -454652.55 5509884.60  1312%  2836 81864s
 11141  7399 4928682.47   80  413 -454652.55 5509884.60  1312%  2837 82150s
 11205  7431 4640710.25   82  401 -454652.55 5509884.60  1312%  2840 82390s
 11250  7446 4833657.02   86  357 -454652.55 5509884.60  1312%  2845 82684s
 11317  7460 4792011.78   92  355 -454652.55 5509884.60  1312%  2846 82922s
 11400  7493 4746982.98   97  320 -454652.55 5509884.60  1312%  2842 83532s
 11446  7523 4672143.72  103  345 -454652.55 5509884.60  1312%  2851 84001s
 11482  7539 3078161.70  111  265 -454652.55 5509884.60  1312%  2864 84282s
 11520  7560 4541219.68  120  374 -454652.55 5509884.60  1312%  2872 84653s
 11574  7602 4047956.76  130  272 -454652.55 5509884.60  1312%  2881 85301s
 11627  7625 4335940.66  137  307 -454652.55 5509884.60  1312%  2886 85733s
 11719  7696 4263450.10  146  311 -454652.55 5509884.60  1312%  2883 86257s
 11816  7755 4158740.91  156  298 -454652.55 5509884.60  1312%  2879 86400s

Cutting planes:
  Gomory: 22
  Cover: 1
  Implied bound: 5
  Projected implied bound: 17
  Clique: 9
  MIR: 50
  Flow cover: 288
  Zero half: 4

Explored 11903 nodes (34324006 simplex iterations) in 86400.56 seconds
Thread count was 4 (of 16 available processors)

Solution count 10: -454653 -454653 -454653 ... -628264

Time limit reached
Best objective -4.546525515706e+05, best bound 5.509884603892e+06, gap 1311.8891%

***
***  |- Calculation finished, timelimit reached 86,400.67 (86400.67) sec.))
***  |-----------------------------------------------------------------------------------------------------------------------
***
*****************************************************************************************************************************
#############################################################################################################################
###
### Results
###
### The objective of the solution is -454,652.5516 (-454652.5516) and is feasible with a Gap of 13.1189
###
### Service 7 (ME3) is operated by 6 vessels from type 30 (PMax35)
###  |- Vessel  9 has the path [1, 274, 199, 290, 200, 112, 284, 45, 368, 331, -3]
###  |  1 (BEANR Out@66.0) - 274 (ESALG In@160.0/Out@179.0) - 199 (MAPTM In@207.0/Out@228.0) - 290 (MAPTM In@211.0/Out@230.0)
###  |   - 200 (MAPTM In@238.0/Out@259.0) - 112 (ESALG In@284.0/Out@296.0) - 284 (GWOXB In@463.0/Out@542.0) - 45 (CMDLA In@76
###  |  5.0/Out@811.0) - 368 (TRMER In@1083.0/Out@1127.0) - 331 (AEJEA In@1530.0/Out@1563.0) - -3 (DUMMY_END Ziel-Service 7)
###  |   |- and carried Demand   7,  161.0 containers from 199 to  45
###  |   |- and carried Demand   8,  580.0 containers from 199 to 112
###  |   |- and carried Demand  45,  161.0 containers from 200 to  45
###  |   |- and carried Demand  46,  580.0 containers from 200 to 112
###  |   |- and carried Demand 117,  580.0 containers from 199 to 112
###  |   |- and carried Demand 131,  580.0 containers from 200 to 112
###  |   |- and carried Demand 144,  161.0 containers from 290 to  45
###  |   |- and carried Demand 145,  580.0 containers from 290 to 112
###  |- Vessel 10 has the path [2, 364, 325, -3]
###  |  2 (BEANR Out@234.0) - 364 (TRMER In@411.0/Out@455.0) - 325 (AEJEA In@690.0/Out@723.0) - -3 (DUMMY_END Ziel-Service 7)
###  |- Vessel 11 has the path [5, 365, 327, -3]
###  |  5 (BEANR Out@402.0) - 365 (TRMER In@579.0/Out@623.0) - 327 (AEJEA In@858.0/Out@891.0) - -3 (DUMMY_END Ziel-Service 7)
###  |- Vessel 12 has the path [8, 367, 330, -3]
###  |  8 (BEANR Out@570.0) - 367 (TRMER In@915.0/Out@959.0) - 330 (AEJEA In@1362.0/Out@1395.0) - -3 (DUMMY_END Ziel-Service 
###  |  7)
###  |- Vessel 17 has the path [145, 338, 339, 329, -3]
###  |  145 (GBFXT Out@302.0) - 338 (EGPSD In@867.0/Out@886.0) - 339 (EGPSD In@957.0/Out@973.0) - 329 (AEJEA In@1194.0/Out@12
###  |  27.0) - -3 (DUMMY_END Ziel-Service 7)
###  |   |- and carried Demand 206,  467.0 containers from 338 to 329
###  |   |- and carried Demand 210,  467.0 containers from 339 to 329
###  |- Vessel 18 has the path [148, 366, 328, -3]
###  |  148 (GBFXT Out@470.0) - 366 (TRMER In@747.0/Out@791.0) - 328 (AEJEA In@1026.0/Out@1059.0) - -3 (DUMMY_END Ziel-Servic
###  |  e 7)
###  |
### Service 24 (WAF7) is operated by 2 vessels from type 18 (PMax25)
###  |- Vessel  2 has the path [101, 277, -1]
###  |  101 (DEHAM Out@456.0) - 277 (ESALG In@664.0/Out@683.0) - -1 (DUMMY_END Ziel-Service 24)
###  |- Vessel 13 has the path [104, 291, 202, 114, 276, -1]
###  |  104 (DKAAR Out@220.0) - 291 (MAPTM In@379.0/Out@398.0) - 202 (MAPTM In@406.0/Out@427.0) - 114 (ESALG In@452.0/Out@464
###  |  .0) - 276 (ESALG In@496.0/Out@515.0) - -1 (DUMMY_END Ziel-Service 24)
###  |   |- and carried Demand  52,  484.0 containers from 202 to 114
###  |   |- and carried Demand  53,   18.0 containers from 202 to 114
###  |   |- and carried Demand 134,  484.0 containers from 202 to 114
###  |   |- and carried Demand 135,   18.0 containers from 202 to 114
###  |   |- and carried Demand 140,  484.0 containers from 291 to 114
###  |   |- and carried Demand 141,   18.0 containers from 291 to 114
###  |
### Service 81 (MECL1) is operated by 6 vessels from type 19 (PMax28)
###  |- Vessel  5 has the path [218, 347, 344, 324, 229, 405, -4]
###  |  218 (NLRTM Out@92.0) - 347 (INPAV In@467.0/Out@494.0) - 344 (INNSA In@522.0/Out@546.0) - 324 (AEJEA In@617.0/Out@642.
###  |  0) - 229 (OMSLL In@721.0/Out@736.0) - 405 (INNSA In@906.0/Out@922.0) - -4 (DUMMY_END Ziel-Service 81)
###  |   |- and carried Demand 209,  280.0 containers from 344 to 324
###  |- Vessel  6 has the path [219, 272, 372, 425, 231, 375, 428, 408, -4]
###  |  219 (NLRTM Out@260.0) - 272 (TRZMK In@617.0/Out@631.0) - 372 (AEJEA In@731.0/Out@755.0) - 425 (PKBQM In@812.0/Out@842
###  |  .0) - 231 (OMSLL In@1132.0/Out@1145.0) - 375 (AEJEA In@1235.0/Out@1259.0) - 428 (PKBQM In@1316.0/Out@1346.0) - 408 (I
###  |  NNSA In@1410.0/Out@1426.0) - -4 (DUMMY_END Ziel-Service 81)
###  |   |- and carried Demand 306,   31.0 containers from 428 to 408
###  |   |- and carried Demand 307,   37.0 containers from 375 to 408
###  |   |- and carried Demand 308,  211.0 containers from 375 to 408
###  |   |- and carried Demand 309,  176.0 containers from 375 to 428
###  |   |- and carried Demand 362,  244.0 containers from 425 to 408
###  |   |- and carried Demand 363,   67.0 containers from 425 to 408
###  |   |- and carried Demand 365,  118.0 containers from 372 to 408
###  |   |- and carried Demand 366,  133.0 containers from 372 to 425
###  |   |- and carried Demand 367,   61.0 containers from 372 to 425
###  |   |- and carried Demand 368,   15.0 containers from 372 to 408
###  |   |- and carried Demand 369,  267.0 containers from 372 to 408
###  |   |- and carried Demand 370,    1.0 containers from 372 to 408
###  |- Vessel  7 has the path [221, 137, 203, 115, 269, 373, 426, 354, 376, 429, 409, -4]
###  |  221 (NLRTM Out@428.0) - 137 (FRLEH In@447.0/Out@463.0) - 203 (MAPTM In@543.0/Out@564.0) - 115 (ESALG In@589.0/Out@601
###  |  .0) - 269 (TRAMB In@744.0/Out@771.0) - 373 (AEJEA In@899.0/Out@923.0) - 426 (PKBQM In@980.0/Out@1010.0) - 354 (OMSLL 
###  |  In@1300.0/Out@1313.0) - 376 (AEJEA In@1403.0/Out@1427.0) - 429 (PKBQM In@1484.0/Out@1514.0) - 409 (INNSA In@1578.0/Ou
###  |  t@1594.0) - -4 (DUMMY_END Ziel-Service 81)
###  |   |- and carried Demand  25,   68.0 containers from 221 to 115
###  |   |- and carried Demand  26,    6.0 containers from 221 to 137
###  |   |- and carried Demand  29,   60.0 containers from 203 to 115
###  |   |- and carried Demand  30,   11.0 containers from 203 to 115
###  |   |- and carried Demand 123,   68.0 containers from 221 to 115
###  |   |- and carried Demand 126,   60.0 containers from 203 to 115
###  |   |- and carried Demand 127,   11.0 containers from 203 to 115
###  |   |- and carried Demand 289,   34.0 containers from 429 to 409
###  |   |- and carried Demand 290,   84.0 containers from 376 to 429
###  |   |- and carried Demand 291,   50.0 containers from 376 to 429
###  |   |- and carried Demand 342,  254.0 containers from 426 to 409
###  |   |- and carried Demand 343,    1.0 containers from 426 to 409
###  |   |- and carried Demand 344,  135.0 containers from 426 to 409
###  |   |- and carried Demand 347,   75.0 containers from 373 to 409
###  |   |- and carried Demand 348,  200.0 containers from 373 to 426
###  |   |- and carried Demand 349,   24.0 containers from 373 to 426
###  |   |- and carried Demand 350,   26.0 containers from 373 to 409
###  |   |- and carried Demand 351,  144.0 containers from 373 to 409
###  |   |- and carried Demand 352,    1.0 containers from 373 to 409
###  |- Vessel  8 has the path [223, 267, 406, -4]
###  |  223 (NLRTM Out@596.0) - 267 (TRALI In@836.0/Out@854.0) - 406 (INNSA In@1074.0/Out@1090.0) - -4 (DUMMY_END Ziel-Servic
###  |  e 81)
###  |- Vessel 15 has the path [134, 275, 201, 371, 424, 230, 374, 427, 407, -4]
###  |  134 (FRLEH Out@158.0) - 275 (ESALG In@328.0/Out@347.0) - 201 (MAPTM In@375.0/Out@396.0) - 371 (AEJEA In@563.0/Out@587
###  |  .0) - 424 (PKBQM In@644.0/Out@674.0) - 230 (OMSLL In@889.0/Out@904.0) - 374 (AEJEA In@1067.0/Out@1091.0) - 427 (PKBQM
###  |   In@1148.0/Out@1178.0) - 407 (INNSA In@1242.0/Out@1258.0) - -4 (DUMMY_END Ziel-Service 81)
###  |   |- and carried Demand 329,   86.0 containers from 374 to 427
###  |   |- and carried Demand 330,  118.0 containers from 374 to 427
###  |   |- and carried Demand 372,  237.0 containers from 424 to 407
###  |   |- and carried Demand 373,    2.0 containers from 424 to 407
###  |   |- and carried Demand 374,  146.0 containers from 424 to 407
###  |   |- and carried Demand 375,   97.0 containers from 424 to 407
###  |   |- and carried Demand 379,  156.0 containers from 371 to 424
###  |   |- and carried Demand 380,   45.0 containers from 371 to 424
###  |   |- and carried Demand 381,   16.0 containers from 371 to 407
###  |   |- and carried Demand 382,  264.0 containers from 371 to 407
###  |- Vessel 16 has the path [136, 268, 404, -4]
###  |  136 (FRLEH Out@326.0) - 268 (TRAMB In@576.0/Out@603.0) - 404 (INNSA In@738.0/Out@754.0) - -4 (DUMMY_END Ziel-Service 
###  |  81)
###  |
### Service 121 (SAE) is operated by 1 vessels from type 18 (PMax25)
###  |- Vessel 14 has the path [105, 301, -2]
###  |  105 (DKAAR Out@388.0) - 301 (HNPCR In@998.0/Out@1011.0) - -2 (DUMMY_END Ziel-Service 121)
###  |
### Service 177 (WCSA) is operated by 3 vessels from type 18 (PMax25)
###  |- Vessel  1 has the path [100, 266, 234, 0]
###  |  100 (DEHAM Out@288.0) - 266 (TRALI In@668.0/Out@686.0) - 234 (PABLB In@1304.0/Out@1316.0) - 0 (DUMMY_END Ziel-Service
###  |   177)
###  |- Vessel  3 has the path [102, 358, 273, 235, 0]
###  |  102 (DEHAM Out@624.0) - 358 (TRAMB In@683.0/Out@731.0) - 273 (TRZMK In@785.0/Out@799.0) - 235 (PABLB In@1472.0/Out@14
###  |  84.0) - 0 (DUMMY_END Ziel-Service 177)
###  |- Vessel  4 has the path [103, 236, 0]
###  |  103 (DEHAM Out@792.0) - 236 (PABLB In@1640.0/Out@1652.0) - 0 (DUMMY_END Ziel-Service 177)
###  |
### Vessels not used in the solution: []
###  |-----------------------------------------------------------------------------------------------------------------------
###
#############################################################################################################################

### Detialed variable overview

### All variables with value greater zero:
rho[7,30] = 1
rho[81,19] = 1
rho[177,18] = 1
rho[24,18] = 1
rho[121,18] = 1
eta[7,30,1] = 1
eta[7,30,2] = 1
eta[7,30,3] = 1
eta[7,30,4] = 1
eta[7,30,5] = 1
eta[7,30,6] = 1
eta[81,19,1] = 1
eta[81,19,2] = 1
eta[81,19,3] = 1
eta[81,19,4] = 1
eta[81,19,5] = 1
eta[81,19,6] = 1
eta[177,18,1] = 1
eta[177,18,2] = 1
eta[177,18,3] = 1
eta[24,18,1] = 1
eta[24,18,2] = 1
eta[121,18,1] = 1
y[1,234,0] = 1
y[1,100,266] = 1
y[1,266,234] = 1
y[2,101,277] = 1
y[2,277,-1] = 1
y[3,102,358] = 1
y[3,358,273] = 1
y[3,235,0] = 1
y[3,273,235] = 1
y[4,103,236] = 1
y[4,236,0] = 1
y[5,324,229] = 1
y[5,405,-4] = 1
y[5,347,344] = 1
y[5,218,347] = 1
y[5,229,405] = 1
y[5,344,324] = 1
y[6,372,425] = 1
y[6,425,231] = 1
y[6,375,428] = 1
y[6,219,272] = 1
y[6,231,375] = 1
y[6,428,408] = 1
y[6,408,-4] = 1
y[6,272,372] = 1
y[7,354,376] = 1
y[7,115,269] = 1
y[7,426,354] = 1
y[7,269,373] = 1
y[7,137,203] = 1
y[7,373,426] = 1
y[7,221,137] = 1
y[7,203,115] = 1
y[7,376,429] = 1
y[7,409,-4] = 1
y[7,429,409] = 1
y[8,406,-4] = 1
y[8,267,406] = 1
y[8,223,267] = 1
y[9,200,112] = 1
y[9,274,199] = 1
y[9,290,200] = 1
y[9,1,274] = 1
y[9,199,290] = 1
y[9,368,331] = 1
y[9,331,-3] = 1
y[9,45,368] = 1
y[9,284,45] = 1
y[9,112,284] = 1
y[10,2,364] = 1
y[10,364,325] = 1
y[10,325,-3] = 1
y[11,365,327] = 1
y[11,327,-3] = 1
y[11,5,365] = 1
y[12,367,330] = 1
y[12,8,367] = 1
y[12,330,-3] = 1
y[13,104,291] = 1
y[13,291,202] = 1
y[13,276,-1] = 1
y[13,114,276] = 0.999999
y[13,202,114] = 0.999999
y[14,301,-2] = 1
y[14,105,301] = 1
y[15,275,201] = 1
y[15,407,-4] = 1
y[15,134,275] = 1
y[15,424,230] = 1
y[15,230,374] = 1
y[15,427,407] = 1
y[15,374,427] = 1
y[15,201,371] = 1
y[15,371,424] = 1
y[16,404,-4] = 1
y[16,136,268] = 1
y[16,268,404] = 1
y[17,329,-3] = 1
y[17,145,338] = 1
y[17,339,329] = 1
y[17,338,339] = 1
y[18,148,366] = 1
y[18,328,-3] = 1
y[18,366,328] = 1
xD[7,200,112] = 161
xD[7,290,200] = 161
xD[7,199,290] = 161
xD[7,284,45] = 161
xD[7,112,284] = 161
xD[8,200,112] = 580
xD[8,290,200] = 580
xD[8,199,290] = 580
xD[25,137,203] = 68
xD[25,221,137] = 68
xD[25,203,115] = 68
xD[26,221,137] = 6
xD[29,203,115] = 60
xD[30,203,115] = 11
xD[45,200,112] = 161
xD[45,284,45] = 161
xD[45,112,284] = 161
xD[46,200,112] = 580
xD[52,202,114] = 484
xD[53,202,114] = 18
xD[117,200,112] = 580
xD[117,290,200] = 580
xD[117,199,290] = 580
xD[123,137,203] = 68
xD[123,221,137] = 68
xD[123,203,115] = 68
xD[126,203,115] = 60
xD[127,203,115] = 11
xD[131,200,112] = 580
xD[134,202,114] = 484
xD[135,202,114] = 18
xD[140,291,202] = 484
xD[140,202,114] = 483.999
xD[141,291,202] = 18
xD[141,202,114] = 18
xD[144,200,112] = 161
xD[144,290,200] = 161
xD[144,284,45] = 161
xD[144,112,284] = 161
xD[145,200,112] = 580
xD[145,290,200] = 580
xD[206,339,329] = 467
xD[206,338,339] = 467
xD[209,344,324] = 280
xD[210,339,329] = 467
xD[289,429,409] = 34
xD[290,376,429] = 84
xD[291,376,429] = 50
xD[306,428,408] = 31
xD[307,375,428] = 37
xD[307,428,408] = 37
xD[308,375,428] = 211
xD[308,428,408] = 211
xD[309,375,428] = 176
xD[329,374,427] = 86
xD[330,374,427] = 118
xD[342,354,376] = 254
xD[342,426,354] = 254
xD[342,376,429] = 254
xD[342,429,409] = 254
xD[343,354,376] = 1
xD[343,426,354] = 1
xD[343,376,429] = 1
xD[343,429,409] = 1
xD[344,354,376] = 135
xD[344,426,354] = 135
xD[344,376,429] = 135
xD[344,429,409] = 135
xD[347,354,376] = 75
xD[347,426,354] = 75
xD[347,373,426] = 75
xD[347,376,429] = 75
xD[347,429,409] = 75
xD[348,373,426] = 200
xD[349,373,426] = 24
xD[350,354,376] = 26
xD[350,426,354] = 26
xD[350,373,426] = 26
xD[350,376,429] = 26
xD[350,429,409] = 26
xD[351,354,376] = 144
xD[351,426,354] = 144
xD[351,373,426] = 144
xD[351,376,429] = 144
xD[351,429,409] = 144
xD[352,354,376] = 1
xD[352,426,354] = 1
xD[352,373,426] = 1
xD[352,376,429] = 1
xD[352,429,409] = 1
xD[362,425,231] = 244
xD[362,375,428] = 244
xD[362,231,375] = 244
xD[362,428,408] = 244
xD[363,425,231] = 67
xD[363,375,428] = 67
xD[363,231,375] = 67
xD[363,428,408] = 67
xD[365,372,425] = 118
xD[365,425,231] = 118
xD[365,375,428] = 118
xD[365,231,375] = 118
xD[365,428,408] = 118
xD[366,372,425] = 133
xD[367,372,425] = 61
xD[368,372,425] = 15
xD[368,425,231] = 15
xD[368,375,428] = 15
xD[368,231,375] = 15
xD[368,428,408] = 15
xD[369,372,425] = 267
xD[369,425,231] = 267
xD[369,375,428] = 267
xD[369,231,375] = 267
xD[369,428,408] = 267
xD[370,372,425] = 1
xD[370,425,231] = 1
xD[370,375,428] = 1
xD[370,231,375] = 1
xD[370,428,408] = 1
xD[372,424,230] = 237
xD[372,230,374] = 237
xD[372,427,407] = 237
xD[372,374,427] = 237
xD[373,424,230] = 2
xD[373,230,374] = 2
xD[373,427,407] = 2
xD[373,374,427] = 2
xD[374,424,230] = 146
xD[374,230,374] = 146
xD[374,427,407] = 146
xD[374,374,427] = 146
xD[375,424,230] = 97
xD[375,230,374] = 97
xD[375,427,407] = 97
xD[375,374,427] = 97
xD[379,371,424] = 156
xD[380,371,424] = 45
xD[381,424,230] = 16
xD[381,230,374] = 16
xD[381,427,407] = 16
xD[381,374,427] = 16
xD[381,371,424] = 16
xD[382,424,230] = 264
xD[382,230,374] = 264
xD[382,427,407] = 264
xD[382,374,427] = 264
xD[382,371,424] = 264
zE[45] = 765
zE[112] = 284
zE[114] = 452
zE[115] = 589
zE[137] = 447
zE[199] = 207
zE[200] = 238
zE[201] = 375
zE[202] = 406
zE[203] = 543
zE[229] = 721
zE[230] = 889
zE[231] = 1132
zE[234] = 1304
zE[235] = 1472
zE[236] = 1640
zE[240] = 3051.41
zE[266] = 668
zE[267] = 836
zE[268] = 576
zE[269] = 744
zE[272] = 617
zE[273] = 785
zE[274] = 160
zE[275] = 328
zE[276] = 496
zE[277] = 664
zE[284] = 463
zE[290] = 211
zE[291] = 379
zE[301] = 998
zE[324] = 617
zE[325] = 690
zE[327] = 858
zE[328] = 1026
zE[329] = 1194
zE[330] = 1362
zE[331] = 1530
zE[338] = 867
zE[339] = 957
zE[344] = 522
zE[347] = 467
zE[354] = 1300
zE[358] = 683
zE[364] = 411
zE[365] = 579
zE[366] = 747
zE[367] = 915
zE[368] = 1083
zE[371] = 563
zE[372] = 731
zE[373] = 899
zE[374] = 1067
zE[375] = 1235
zE[376] = 1403
zE[404] = 738
zE[405] = 906
zE[406] = 1074
zE[407] = 1242
zE[408] = 1410
zE[409] = 1578
zE[424] = 644
zE[425] = 812
zE[426] = 980
zE[427] = 1148
zE[428] = 1316
zE[429] = 1484
zX[1] = 66
zX[2] = 234
zX[5] = 402
zX[8] = 570
zX[45] = 811
zX[100] = 288
zX[101] = 456
zX[102] = 624
zX[103] = 792
zX[104] = 220
zX[105] = 388
zX[112] = 296
zX[114] = 464
zX[115] = 601
zX[134] = 158
zX[136] = 326
zX[137] = 463
zX[145] = 302
zX[148] = 470
zX[199] = 228
zX[200] = 259
zX[201] = 396
zX[202] = 427
zX[203] = 564
zX[218] = 92
zX[219] = 260
zX[221] = 428
zX[223] = 596
zX[229] = 736
zX[230] = 904
zX[231] = 1145
zX[234] = 1316
zX[235] = 1484
zX[236] = 1652
zX[240] = 3051.41
zX[266] = 686
zX[267] = 854
zX[268] = 603
zX[269] = 771
zX[272] = 631
zX[273] = 799
zX[274] = 179
zX[275] = 347
zX[276] = 515
zX[277] = 683
zX[284] = 542
zX[290] = 230
zX[291] = 398
zX[301] = 1011
zX[324] = 642
zX[325] = 723
zX[327] = 891
zX[328] = 1059
zX[329] = 1227
zX[330] = 1395
zX[331] = 1563
zX[338] = 886
zX[339] = 973
zX[344] = 546
zX[347] = 494
zX[354] = 1313
zX[358] = 731
zX[364] = 455
zX[365] = 623
zX[366] = 791
zX[367] = 959
zX[368] = 1127
zX[371] = 587
zX[372] = 755
zX[373] = 923
zX[374] = 1091
zX[375] = 1259
zX[376] = 1427
zX[404] = 754
zX[405] = 922
zX[406] = 1090
zX[407] = 1258
zX[408] = 1426
zX[409] = 1594
zX[424] = 674
zX[425] = 842
zX[426] = 1010
zX[427] = 1178
zX[428] = 1346
zX[429] = 1514
phi[1] = 1028
phi[2] = 227
phi[3] = 860
phi[4] = 860
phi[5] = 830
phi[6] = 1166
phi[7] = 1166
phi[8] = 494
phi[9] = 1497
phi[10] = 489
phi[11] = 489
phi[12] = 825
phi[13] = 295
phi[14] = 623
phi[15] = 1100
phi[16] = 428
phi[17] = 925
phi[18] = 589

### All variables with value smaller zero:

### End

real	1450m38.548s
user	5309m49.043s
sys	436m32.464s
	Freetype 2.4.12 environment removed
	Python 3.6.0 environment removed
	Gurobi 8.1.0 environment removed
