### Additional Information to the goal services
# Basic costs on route 24: 14764408.977040898
# Direct costs (not staggered):
# For goal service 24:
# n_min: 2
# n_max: 4
# lowest costs of the goal service 24 with configuration (24, 18, 3) at 0.0
# (24, 18, 1): 14673051.3702626
# (24, 18, 2): 8079020.607079573
# (24, 18, 3): 0.0
# (24, 18, 4): 607617.3599999994
# (24, 19, 1): 22661403.611628402
# (24, 19, 2): 13195407.083011217
# (24, 19, 3): 6903374.214606635
# (24, 19, 4): 7571716.854606643
# (24, 30, 1): 22200882.836695243
# (24, 30, 2): 14118453.226876684
# (24, 30, 3): 6524780.491409361
# (24, 30, 4): 7253900.491409361
# -------------------------------------------
