### Additional Information to the goal services
# Basic costs on route 24: 24766105.38084282
# Direct costs (not staggered):
# For goal service 24:
# n_min: 2
# n_max: 4
# lowest costs of the goal service 24 with configuration (24, 18, 3) at 0.0
# (24, 18, 1): 24612860.363021128
# (24, 18, 2): 13551905.53445606
# (24, 18, 3): 0.0
# (24, 18, 4): 1019229.1199999899
# (24, 19, 1): 38012677.02595728
# (24, 19, 2): 22134231.236018777
# (24, 19, 3): 11579853.521275632
# (24, 19, 4): 12700944.401275627
# (24, 30, 1): 37240190.564779125
# (24, 30, 2): 23682566.703147963
# (24, 30, 3): 10944793.082364082
# (24, 30, 4): 12167833.082364067
# -------------------------------------------
