	Freetype 2.4.12 environment established
		library to render fonts
	Python 3.6.0 environment established
	Gurobi 8.1.0 environment established
Instance LSFRP: LSFDRP_3_1_1_0_fr.p
Instance LSFDP: LSFDRP_3_1_1_0_fd_00.p

*****************************************************************************************************************************
*** Solve LSFDRP_3_1_1_0_fd_00 with Gurobi
***
*** Graph info
*** |S|: 24
*** |S^E|: 0
*** |S^C|: 6
*** |V|: 406
*** |A|: 12976
*** |A^i|: 12829
*** |A^f|: 147
*** |M|: 296
*** |E|: 28

Changed value of parameter TimeLimit to 86400.0
   Prev: 1e+100  Min: 0.0  Max: 1e+100  Default: 1e+100
Changed value of parameter Threads to 4
   Prev: 0  Min: 0  Max: 1024  Default: 0
Optimize a model with 168743 rows, 4182642 columns and 15336469 nonzeros
Variable types: 3871194 continuous, 311448 integer (311448 binary)
Coefficient statistics:
  Matrix range     [1e+00, 5e+03]
  Objective range  [2e+00, 6e+06]
  Bounds range     [1e+00, 1e+00]
  RHS range        [1e+00, 5e+03]
Presolve removed 39360 rows and 1366919 columns (presolve time = 6s) ...
Presolve removed 71080 rows and 2490769 columns (presolve time = 10s) ...
Presolve removed 73799 rows and 2560000 columns (presolve time = 16s) ...
Presolve removed 77878 rows and 2577510 columns (presolve time = 20s) ...
Presolve removed 80144 rows and 2641277 columns (presolve time = 25s) ...
Presolve removed 80949 rows and 2642082 columns (presolve time = 31s) ...
Presolve removed 80956 rows and 2642971 columns (presolve time = 35s) ...
Warning: Failed to open log file 'gurobi.log'
Presolve removed 80982 rows and 2642971 columns (presolve time = 40s) ...
Presolve removed 80982 rows and 2890954 columns (presolve time = 700s) ...
Presolve removed 96930 rows and 2891013 columns (presolve time = 700s) ...
Presolve removed 136384 rows and 3914030 columns (presolve time = 705s) ...
Presolve removed 137359 rows and 3926869 columns (presolve time = 712s) ...
Presolve removed 137359 rows and 3927825 columns (presolve time = 746s) ...
Presolve removed 137333 rows and 3927799 columns
Presolve time: 746.23s
Presolved: 31410 rows, 254843 columns, 1024483 nonzeros
Variable types: 229414 continuous, 25429 integer (24841 binary)

Deterministic concurrent LP optimizer: primal and dual simplex
Showing first log only...


Root simplex log...

Iteration    Objective       Primal Inf.    Dual Inf.      Time
       0   -8.5247056e+02   3.700000e+01   5.383959e+08    751s
   10212   -6.7255025e+06   0.000000e+00   7.201232e+09    753s
   12756   -3.8835695e+06   0.000000e+00   2.187129e+09    755s
   18000   -3.3369700e+06   0.000000e+00   3.099766e+09    760s
   23316   -1.3193969e+06   0.000000e+00   3.969626e+10    765s
   28547   -7.6944442e+05   0.000000e+00   2.031966e+10    770s
   34181   -5.8067232e+05   0.000000e+00   4.226104e+08    775s
   38860   -5.5837393e+05   0.000000e+00   3.608080e+09    780s
   43324   -2.5230783e+03   0.000000e+00   4.151112e+08    785s
   47578    4.6125237e+04   0.000000e+00   1.061914e+09    790s
   51212    2.0064363e+05   0.000000e+00   5.014632e+08    795s
   54838    2.0192105e+05   0.000000e+00   4.535560e+09    800s
   58453    2.0360740e+05   0.000000e+00   4.593258e+09    805s
   62184    2.0546799e+05   0.000000e+00   1.218461e+09    810s
   65802    2.7252366e+05   0.000000e+00   8.436173e+09    815s
   69746    5.5844798e+05   0.000000e+00   5.855526e+08    820s
   73367    5.5991921e+05   0.000000e+00   2.255235e+09    825s
   76881    5.6234367e+05   0.000000e+00   2.205865e+09    830s
   80713    1.0687021e+06   0.000000e+00   5.039514e+08    835s
   84556    1.0778788e+06   0.000000e+00   7.948621e+08    840s
   88064    1.0965835e+06   0.000000e+00   3.724787e+08    845s
   91251    1.0971069e+06   0.000000e+00   7.137961e+08    850s
   94974    1.1039374e+06   0.000000e+00   5.001334e+09    855s
   98278    1.1391947e+06   0.000000e+00   4.916276e+08    860s
  101802    1.1397772e+06   0.000000e+00   3.662532e+08    865s
  104783    1.1804817e+06   0.000000e+00   3.025539e+08    870s
  107979    1.2236097e+06   0.000000e+00   4.400371e+08    875s
  111068    1.2267476e+06   0.000000e+00   1.081487e+09    880s
  114368    1.2469985e+06   0.000000e+00   6.711646e+08    885s
  117662    1.2564183e+06   0.000000e+00   3.472189e+08    890s
  121281    1.3633906e+06   0.000000e+00   1.139330e+09    895s
  124465    1.3641665e+06   0.000000e+00   7.774326e+08    900s
  127653    1.3700645e+06   0.000000e+00   5.616343e+08    905s
  130850    1.3706872e+06   0.000000e+00   1.093507e+09    910s
  134052    1.3725480e+06   0.000000e+00   8.819227e+08    915s
  137353    1.4167624e+06   0.000000e+00   3.464068e+08    920s
  140544    1.4390703e+06   0.000000e+00   2.963755e+08    925s
  143739    1.4396634e+06   0.000000e+00   3.103103e+09    930s
  146930    1.4400743e+06   0.000000e+00   2.142742e+09    935s
  149807    1.4401300e+06   0.000000e+00   4.206028e+08    940s
  152900    1.4402764e+06   0.000000e+00   3.944102e+08    945s
  156090    1.4419611e+06   0.000000e+00   5.689091e+08    950s
  159063    1.4420627e+06   0.000000e+00   7.482355e+10    955s
  162145    1.4690493e+06   0.000000e+00   8.168686e+09    960s
  165223    1.4711098e+06   0.000000e+00   2.752578e+08    965s
  168212    1.4716152e+06   0.000000e+00   2.583785e+08    970s
  171299    1.4811166e+06   0.000000e+00   3.892248e+09    975s
  174389    1.4980278e+06   0.000000e+00   1.756708e+09    980s
  177582    1.5171599e+06   0.000000e+00   5.601780e+09    985s
  180783    1.6838273e+06   0.000000e+00   2.567779e+08    990s
  183762    1.6865532e+06   0.000000e+00   6.159327e+08    995s
  187061    1.7282615e+06   0.000000e+00   7.903504e+08   1000s
  190146    1.7310169e+06   0.000000e+00   2.200856e+08   1005s
  193120    1.7315903e+06   0.000000e+00   1.316130e+09   1010s
  195986    1.7317606e+06   0.000000e+00   7.946243e+08   1015s
  198858    1.7318604e+06   0.000000e+00   2.889773e+08   1020s
  201737    1.7321726e+06   0.000000e+00   4.708892e+08   1025s
  204403    1.7421918e+06   0.000000e+00   1.726012e+08   1030s
  207076    1.7462209e+06   0.000000e+00   6.412371e+08   1035s
  210066    1.7535234e+06   0.000000e+00   2.071053e+10   1040s
  212941    1.7580610e+06   0.000000e+00   1.760161e+08   1045s
  215814    1.7581539e+06   0.000000e+00   1.780009e+08   1050s
  218469    1.7585739e+06   0.000000e+00   7.446970e+08   1055s
  221017    1.7630847e+06   0.000000e+00   1.151433e+09   1060s
  223892    1.7722953e+06   0.000000e+00   3.474699e+09   1065s
  226875    1.7836132e+06   0.000000e+00   2.725452e+08   1070s
  229853    1.7878959e+06   0.000000e+00   1.995819e+10   1075s
  232619    1.7882495e+06   0.000000e+00   1.009301e+08   1080s
  235487    1.8043172e+06   0.000000e+00   4.268251e+08   1085s
  238368    1.8044947e+06   0.000000e+00   2.681602e+10   1090s
  241027    1.8046550e+06   0.000000e+00   7.391538e+08   1095s
  243791    1.8047052e+06   0.000000e+00   7.147510e+08   1100s
  246561    1.8048203e+06   0.000000e+00   2.681794e+08   1105s
  249435    1.8053717e+06   0.000000e+00   1.959506e+08   1110s
  252312    1.8054814e+06   0.000000e+00   1.122074e+09   1115s
  255188    1.8055194e+06   0.000000e+00   2.229307e+08   1120s
  257650    1.8055329e+06   0.000000e+00   1.766784e+08   1125s
  260209    1.8055491e+06   0.000000e+00   2.046245e+08   1130s
  262873    1.8055798e+06   0.000000e+00   3.103519e+08   1135s
  265534    1.8166717e+06   0.000000e+00   1.901876e+08   1140s
  268094    1.8166885e+06   0.000000e+00   2.870782e+08   1145s
  270649    1.8167050e+06   0.000000e+00   9.713464e+07   1150s
  273211    1.8171556e+06   0.000000e+00   3.532410e+08   1155s
  275783    1.8171741e+06   0.000000e+00   4.866450e+08   1160s
  278450    1.8304336e+06   0.000000e+00   7.764390e+07   1165s
  281429    1.8387216e+06   0.000000e+00   1.410858e+09   1170s
  284312    1.8522450e+06   0.000000e+00   3.882927e+08   1175s
  287293    1.8564165e+06   0.000000e+00   6.266451e+07   1180s
  290187    1.8564573e+06   0.000000e+00   1.429502e+08   1185s
  292964    1.8577086e+06   0.000000e+00   4.411983e+08   1190s
  295845    1.8580039e+06   0.000000e+00   6.344170e+08   1195s
  298610    1.8619975e+06   0.000000e+00   3.697221e+09   1200s
  301696    1.8689917e+06   0.000000e+00   4.111333e+08   1205s
  304688    1.8721643e+06   0.000000e+00   4.802088e+08   1210s
  307667    1.8723382e+06   0.000000e+00   5.839338e+08   1215s
  310328    1.8723532e+06   0.000000e+00   1.963815e+08   1220s
  313098    1.8723853e+06   0.000000e+00   5.308204e+08   1225s
  315968    1.8725460e+06   0.000000e+00   1.729233e+09   1230s
  318730    1.8726499e+06   0.000000e+00   7.932927e+08   1235s
  321175    1.8727082e+06   0.000000e+00   2.551409e+08   1240s
  324048    1.8727975e+06   0.000000e+00   4.911079e+08   1245s
  326919    1.8728491e+06   0.000000e+00   7.220974e+07   1250s
  329799    1.8728682e+06   0.000000e+00   2.007012e+08   1255s
  332575    1.8728822e+06   0.000000e+00   2.949227e+08   1260s
  335247    1.8728942e+06   0.000000e+00   6.423750e+07   1265s
  337919    1.8729051e+06   0.000000e+00   5.500297e+07   1270s
  340686    1.8729187e+06   0.000000e+00   1.447305e+08   1275s
  343458    1.8729285e+06   0.000000e+00   1.399671e+08   1280s
  346339    1.8747778e+06   0.000000e+00   4.920697e+08   1285s
  349121    1.8764114e+06   0.000000e+00   1.559220e+08   1290s
  351894    1.8764652e+06   0.000000e+00   9.652346e+07   1295s
  354557    1.8764979e+06   0.000000e+00   1.047134e+08   1300s
  357224    1.8765178e+06   0.000000e+00   6.711538e+07   1305s
  359886    1.8765544e+06   0.000000e+00   1.670535e+08   1310s
  362661    1.8805378e+06   0.000000e+00   1.081762e+08   1315s
  365328    1.8807296e+06   0.000000e+00   2.170349e+08   1320s
  368100    1.8812772e+06   0.000000e+00   1.920222e+08   1325s
  370870    1.8813033e+06   0.000000e+00   9.523318e+07   1330s
  373414    1.8833108e+06   0.000000e+00   9.891212e+07   1335s
  376189    1.8833499e+06   0.000000e+00   6.095282e+07   1340s
  378645    1.8834246e+06   0.000000e+00   5.939885e+07   1345s
  381311    1.8836142e+06   0.000000e+00   7.596888e+07   1350s
  384194    1.8999528e+06   0.000000e+00   6.689939e+10   1355s
  387070    1.9038332e+06   0.000000e+00   2.906257e+08   1360s
  390049    1.9070856e+06   0.000000e+00   3.038189e+08   1365s
  393129    1.9154967e+06   0.000000e+00   2.725857e+08   1370s
  395891    1.9155909e+06   0.000000e+00   3.209928e+08   1375s
  398664    1.9165283e+06   0.000000e+00   2.129285e+08   1380s
  401429    1.9167208e+06   0.000000e+00   1.490047e+08   1385s
  403984    1.9167386e+06   0.000000e+00   3.645197e+08   1390s
  406749    1.9168798e+06   0.000000e+00   8.919043e+07   1395s
  409531    1.9168905e+06   0.000000e+00   8.959865e+07   1400s
  412190    1.9169007e+06   0.000000e+00   1.511488e+08   1405s
  414849    1.9169076e+06   0.000000e+00   4.773564e+07   1410s
  417399    1.9169249e+06   0.000000e+00   2.121958e+08   1415s
  420061    1.9169313e+06   0.000000e+00   2.626229e+08   1420s
  422614    1.9169403e+06   0.000000e+00   1.099396e+08   1425s
  425277    1.9169494e+06   0.000000e+00   2.204802e+08   1430s
  427847    1.9169575e+06   0.000000e+00   1.202611e+08   1435s
  430512    1.9169685e+06   0.000000e+00   3.710161e+07   1440s
  433183    1.9169818e+06   0.000000e+00   4.961056e+07   1445s
  435744    1.9169876e+06   0.000000e+00   5.824214e+07   1450s
  438296    1.9169934e+06   0.000000e+00   7.777285e+07   1455s
  440634    1.9170023e+06   0.000000e+00   7.445688e+07   1460s
  443192    1.9170083e+06   0.000000e+00   4.810626e+08   1465s
  445746    1.9170256e+06   0.000000e+00   3.784688e+07   1470s
  448189    1.9170367e+06   0.000000e+00   4.561870e+07   1475s
  450747    1.9198825e+06   0.000000e+00   2.134145e+07   1480s
  453307    1.9198868e+06   0.000000e+00   1.119652e+08   1485s
  455883    1.9198926e+06   0.000000e+00   3.089953e+08   1490s
  458227    1.9198956e+06   0.000000e+00   1.133965e+08   1495s
  460580    1.9199040e+06   0.000000e+00   6.001049e+07   1500s
  463034    1.9203235e+06   0.000000e+00   3.356312e+08   1505s
  465498    1.9203404e+06   0.000000e+00   2.446933e+07   1510s
  467836    1.9203474e+06   0.000000e+00   3.634276e+07   1515s
  470285    1.9203513e+06   0.000000e+00   5.758951e+07   1520s
  472740    1.9203810e+06   0.000000e+00   1.375822e+08   1525s
  475207    1.9203855e+06   0.000000e+00   1.484302e+08   1530s
  477767    1.9206502e+06   0.000000e+00   2.627315e+08   1535s
  480321    1.9211969e+06   0.000000e+00   5.138447e+07   1540s
  482776    1.9212167e+06   0.000000e+00   2.215596e+08   1545s
  485339    1.9212264e+06   0.000000e+00   1.650901e+08   1550s
  487790    1.9212367e+06   0.000000e+00   2.248204e+08   1555s
  490236    1.9212400e+06   0.000000e+00   3.834952e+07   1560s
  492578    1.9212508e+06   0.000000e+00   1.215033e+08   1565s
  495126    1.9269682e+06   0.000000e+00   5.435374e+07   1570s
  497681    1.9271446e+06   0.000000e+00   2.128558e+07   1575s
  500024    1.9271648e+06   0.000000e+00   4.676932e+07   1580s
  502583    1.9271685e+06   0.000000e+00   2.863084e+07   1585s
  504827    1.9271707e+06   0.000000e+00   6.143390e+07   1590s
  507282    1.9271736e+06   0.000000e+00   1.866870e+07   1595s
  509730    1.9272565e+06   0.000000e+00   1.275903e+07   1600s
  512181    1.9293955e+06   0.000000e+00   1.577819e+09   1605s
  514842    1.9297358e+06   0.000000e+00   1.170677e+09   1610s
  517503    1.9298682e+06   0.000000e+00   1.148873e+08   1615s
  520179    1.9298790e+06   0.000000e+00   6.926207e+07   1620s
  522737    1.9298851e+06   0.000000e+00   4.769313e+07   1625s
  525400    1.9298906e+06   0.000000e+00   8.358074e+07   1630s
  528084    1.9298956e+06   0.000000e+00   4.395580e+07   1635s
  530541    1.9298987e+06   0.000000e+00   1.842032e+07   1640s
  533010    1.9299015e+06   0.000000e+00   3.452166e+07   1645s
  535457    1.9299048e+06   0.000000e+00   4.008785e+08   1650s
  537919    1.9299076e+06   0.000000e+00   6.326973e+07   1655s
  540260    1.9299173e+06   0.000000e+00   3.934418e+07   1660s
  542600    1.9299528e+06   0.000000e+00   5.096573e+07   1665s
  545062    1.9300536e+06   0.000000e+00   5.228114e+07   1670s
  547509    1.9300571e+06   0.000000e+00   2.651850e+07   1675s
  549849    1.9300593e+06   0.000000e+00   8.465436e+07   1680s
  552192    1.9300625e+06   0.000000e+00   1.625167e+07   1685s
  554541    1.9300801e+06   0.000000e+00   3.777611e+07   1690s
  556905    1.9300815e+06   0.000000e+00   1.626537e+08   1695s
  559261    1.9300833e+06   0.000000e+00   1.788439e+07   1700s
  561604    1.9300843e+06   0.000000e+00   3.225630e+07   1705s
  563740    1.9300851e+06   0.000000e+00   1.104143e+07   1710s
  566090    1.9300865e+06   0.000000e+00   9.333630e+06   1715s
  568449    1.9300876e+06   0.000000e+00   5.282552e+07   1720s
  570702    1.9300885e+06   0.000000e+00   8.079683e+06   1725s
  572953    1.9300895e+06   0.000000e+00   9.167772e+06   1730s
  575191    1.9303549e+06   0.000000e+00   8.135531e+09   1735s
  577538    1.9303900e+06   0.000000e+00   1.464401e+07   1740s
  579778    1.9303922e+06   0.000000e+00   2.753217e+07   1745s
  582133    1.9304001e+06   0.000000e+00   3.928461e+07   1750s
  584492    1.9310485e+06   0.000000e+00   3.644023e+07   1755s
  586954    1.9310598e+06   0.000000e+00   2.076353e+07   1760s
  589411    1.9310620e+06   0.000000e+00   3.643548e+07   1765s
  591975    1.9310648e+06   0.000000e+00   1.180145e+07   1770s
  594649    1.9312410e+06   0.000000e+00   1.822422e+07   1775s
  597100    1.9312435e+06   0.000000e+00   2.412586e+07   1780s
  599559    1.9312450e+06   0.000000e+00   2.562578e+07   1785s
  602024    1.9312463e+06   0.000000e+00   1.979584e+07   1790s
  604483    1.9312479e+06   0.000000e+00   3.478043e+07   1795s
  607062    1.9312492e+06   0.000000e+00   2.310542e+07   1800s
  609525    1.9312503e+06   0.000000e+00   3.564166e+07   1805s
  611875    1.9312512e+06   0.000000e+00   1.411860e+07   1810s
  614446    1.9312565e+06   0.000000e+00   2.239919e+06   1815s
  616920    1.9312647e+06   0.000000e+00   8.098774e+06   1820s
  619490    1.9312655e+06   0.000000e+00   6.163789e+06   1825s
  621960    1.9312662e+06   0.000000e+00   2.168254e+07   1830s
  624425    1.9312670e+06   0.000000e+00   1.072088e+07   1835s
  626884    1.9312676e+06   0.000000e+00   7.451575e+06   1840s
  629347    1.9312682e+06   0.000000e+00   2.334787e+07   1845s
  631810    1.9312686e+06   0.000000e+00   2.368858e+06   1850s
  634273    1.9312723e+06   0.000000e+00   3.562481e+06   1855s
  636831    1.9312728e+06   0.000000e+00   1.654722e+07   1860s
  639392    1.9314179e+06   0.000000e+00   2.428579e+08   1865s
  642066    1.9314230e+06   0.000000e+00   1.276016e+08   1870s
  644839    1.9314299e+06   0.000000e+00   8.545274e+07   1875s
  647626    1.9314335e+06   0.000000e+00   4.445965e+07   1880s
  650182    1.9314379e+06   0.000000e+00   1.737650e+07   1885s
  652746    1.9314392e+06   0.000000e+00   1.482521e+07   1890s
  655409    1.9339762e+06   0.000000e+00   1.119796e+08   1895s
  658187    1.9340394e+06   0.000000e+00   3.198881e+07   1900s
  660752    1.9340459e+06   0.000000e+00   9.704122e+07   1905s
  663417    1.9340496e+06   0.000000e+00   4.932916e+07   1910s
  666088    1.9340522e+06   0.000000e+00   3.482257e+07   1915s
  668779    1.9340552e+06   0.000000e+00   6.025256e+07   1920s
  671246    1.9340571e+06   0.000000e+00   2.948200e+07   1925s
  674015    1.9344454e+06   0.000000e+00   9.993216e+07   1930s
  676678    1.9344543e+06   0.000000e+00   2.748492e+08   1935s
  679450    1.9344600e+06   0.000000e+00   1.868207e+07   1940s
  682009    1.9345262e+06   0.000000e+00   1.655913e+08   1945s
  684572    1.9345305e+06   0.000000e+00   3.142925e+07   1950s
  687129    1.9345333e+06   0.000000e+00   3.462955e+07   1955s
  689680    1.9345373e+06   0.000000e+00   4.896695e+07   1960s
  692128    1.9345516e+06   0.000000e+00   8.250471e+08   1965s
  694794    1.9346083e+06   0.000000e+00   1.391567e+08   1970s
  697556    1.9346531e+06   0.000000e+00   1.847750e+07   1975s
  700213    1.9346563e+06   0.000000e+00   1.436728e+07   1980s
  702774    1.9346584e+06   0.000000e+00   4.735362e+06   1985s
  705329    1.9346592e+06   0.000000e+00   1.177253e+07   1990s
  707990    1.9346675e+06   0.000000e+00   1.412630e+07   1995s
  710655    1.9346868e+06   0.000000e+00   6.063540e+06   2000s
  713208    1.9346882e+06   0.000000e+00   7.515015e+06   2005s
  715668    1.9346886e+06   0.000000e+00   9.029553e+06   2010s
  718234    1.9346890e+06   0.000000e+00   8.176732e+06   2015s
  720699    1.9346893e+06   0.000000e+00   1.029020e+06   2020s
  723161    1.9346902e+06   0.000000e+00   9.409169e+05   2025s
  725726    1.9346906e+06   0.000000e+00   6.704171e+06   2030s
  728189    1.9347311e+06   0.000000e+00   5.893855e+06   2035s
  730747    1.9347314e+06   0.000000e+00   1.171781e+06   2040s
  733211    1.9347315e+06   0.000000e+00   1.228754e+06   2045s
  735668    1.9347317e+06   0.000000e+00   6.207129e+05   2050s
  738127    1.9347318e+06   0.000000e+00   6.735747e+05   2055s
  740607    1.9347318e+06   0.000000e+00   4.889014e+05   2060s
  743087    1.9347318e+06   0.000000e+00   4.250265e+04   2065s
  745539    1.9347319e+06   0.000000e+00   1.455583e+03   2070s
  746312    1.8416235e+06   0.000000e+00   0.000000e+00   2074s
  747082    1.8416369e+06   0.000000e+00   2.698075e+07   2075s
  749635    1.8416455e+06   0.000000e+00   1.318220e+07   2080s
  752181    1.8416482e+06   0.000000e+00   1.708533e+07   2085s
  754734    1.8416499e+06   0.000000e+00   1.498069e+07   2090s
  757285    1.8416510e+06   0.000000e+00   1.766659e+07   2095s
  759866    1.8416517e+06   0.000000e+00   6.701459e+06   2100s
  762523    1.8416519e+06   0.000000e+00   3.159869e+05   2105s
  764883    1.8416520e+06   0.000000e+00   3.195570e+04   2110s
  765769    1.8416235e+06   0.000000e+00   0.000000e+00   2112s
Extra 19457 simplex iterations after uncrush
Concurrent spin time: 154.42s

Solved with primal simplex

Root relaxation: objective 1.841623e+06, 765769 iterations, 1517.49 seconds
Total elapsed time = 2316.76s

    Nodes    |    Current Node    |     Objective Bounds      |     Work
 Expl Unexpl |  Obj  Depth IntInf | Incumbent    BestBd   Gap | It/Node Time

     0     0 1782927.78    0  196          - 1782927.78      -     - 2334s
H    0     0                    -2290527.545 1782927.78   178%     - 2335s
H    0     0                    -2077184.919 1782927.78   186%     - 2499s
     0     0 1535620.71    0  204 -2077184.9 1535620.71   174%     - 6981s
H    0     0                    -1451393.187 1535620.71   206%     - 6982s
H    0     0                    -1427313.181 1535620.71   208%     - 7699s
     0     0 1534571.24    0  183 -1427313.2 1534571.24   208%     - 13416s
     0     0 1534571.24    0  183 -1427313.2 1534571.24   208%     - 13417s
     0     0 1447128.00    0  204 -1427313.2 1447128.00   201%     - 13835s
H    0     0                    -1293475.455 1447128.00   212%     - 13836s
H    0     0                    -1261801.454 1447128.00   215%     - 15679s
     0     0 1446821.43    0  206 -1261801.5 1446821.43   215%     - 15702s
     0     0 1445617.85    0  203 -1261801.5 1445617.85   215%     - 15740s
     0     0 1445317.76    0  211 -1261801.5 1445317.76   215%     - 15759s
     0     0 1445289.33    0  209 -1261801.5 1445289.33   215%     - 15762s
     0     0 1437142.49    0  218 -1261801.5 1437142.49   214%     - 15844s
     0     0 1435083.60    0  223 -1261801.5 1435083.60   214%     - 15860s
     0     0 1434890.01    0  230 -1261801.5 1434890.01   214%     - 15867s
     0     0 1422966.94    0  224 -1261801.5 1422966.94   213%     - 15897s
     0     0 1420101.24    0  219 -1261801.5 1420101.24   213%     - 15938s
     0     0 1419548.66    0  223 -1261801.5 1419548.66   213%     - 15941s
     0     0 1419548.66    0  223 -1261801.5 1419548.66   213%     - 15941s
     0     0 1400460.06    0  250 -1261801.5 1400460.06   211%     - 17445s
     0     0 1398255.13    0  221 -1261801.5 1398255.13   211%     - 17504s
     0     0 1397516.18    0  226 -1261801.5 1397516.18   211%     - 17552s
     0     0 1397059.62    0  223 -1261801.5 1397059.62   211%     - 18283s
     0     0 1396947.63    0  224 -1261801.5 1396947.63   211%     - 18305s
     0     0 1396541.68    0  244 -1261801.5 1396541.68   211%     - 18326s
     0     0 1396521.50    0  217 -1261801.5 1396521.50   211%     - 18335s
     0     0 1393249.79    0  219 -1261801.5 1393249.79   210%     - 21227s
     0     0 1392442.98    0  236 -1261801.5 1392442.98   210%     - 21242s
     0     0 1392442.98    0  239 -1261801.5 1392442.98   210%     - 21244s
     0     0 1391836.06    0  241 -1261801.5 1391836.06   210%     - 21285s
     0     0 1391667.74    0  261 -1261801.5 1391667.74   210%     - 21326s
     0     0 1391441.80    0  267 -1261801.5 1391441.80   210%     - 21346s
     0     0 1390886.30    0  273 -1261801.5 1390886.30   210%     - 21407s
     0     0 1390883.59    0  274 -1261801.5 1390883.59   210%     - 21409s
     0     0 1390464.44    0  279 -1261801.5 1390464.44   210%     - 21425s
     0     0 1390397.62    0  273 -1261801.5 1390397.62   210%     - 21432s
     0     0 1390237.28    0  275 -1261801.5 1390237.28   210%     - 21439s
     0     0 1389885.63    0  262 -1261801.5 1389885.63   210%     - 21468s
     0     0 1389880.06    0  272 -1261801.5 1389880.06   210%     - 21471s
     0     0 1389825.14    0  286 -1261801.5 1389825.14   210%     - 21483s
     0     0 1389813.04    0  287 -1261801.5 1389813.04   210%     - 21490s
     0     0 1389716.41    0  280 -1261801.5 1389716.41   210%     - 21502s
     0     0 1389704.18    0  273 -1261801.5 1389704.18   210%     - 21506s
     0     0 1388889.85    0  287 -1261801.5 1388889.85   210%     - 21553s
     0     0 1388889.03    0  298 -1261801.5 1388889.03   210%     - 21555s
     0     0 1387169.46    0  296 -1261801.5 1387169.46   210%     - 21589s
     0     0 1386777.99    0  289 -1261801.5 1386777.99   210%     - 21605s
     0     0 1386774.32    0  287 -1261801.5 1386774.32   210%     - 21610s
     0     0 1384903.81    0  290 -1261801.5 1384903.81   210%     - 21678s
     0     0 1384799.28    0  295 -1261801.5 1384799.28   210%     - 21685s
     0     0 1384745.72    0  295 -1261801.5 1384745.72   210%     - 21696s
     0     0 1384738.08    0  291 -1261801.5 1384738.08   210%     - 21698s
     0     0 1384435.35    0  301 -1261801.5 1384435.35   210%     - 21727s
     0     0 1382822.71    0  293 -1261801.5 1382822.71   210%     - 21784s
     0     0 1382742.86    0  292 -1261801.5 1382742.86   210%     - 21822s
     0     0 1382737.93    0  291 -1261801.5 1382737.93   210%     - 21828s
     0     0 1382682.33    0  292 -1261801.5 1382682.33   210%     - 21841s
     0     0 1382638.25    0  302 -1261801.5 1382638.25   210%     - 24113s
     0     0 1382251.03    0  296 -1261801.5 1382251.03   210%     - 24151s
     0     0 1382035.99    0  297 -1261801.5 1382035.99   210%     - 24230s
     0     0 1381911.62    0  290 -1261801.5 1381911.62   210%     - 24269s
     0     0 1381875.85    0  291 -1261801.5 1381875.85   210%     - 24273s
     0     0 1381730.62    0  295 -1261801.5 1381730.62   210%     - 24316s
     0     0 1381730.62    0  296 -1261801.5 1381730.62   210%     - 24317s
     0     0 1381698.92    0  296 -1261801.5 1381698.92   210%     - 24347s
H    0     0                    -1236512.906 1381698.92   212%     - 24348s
     0     0 1381443.65    0  274 -1236512.9 1381443.65   212%     - 24361s
     0     0 1381405.99    0  286 -1236512.9 1381405.99   212%     - 24384s
     0     0 1381239.68    0  289 -1236512.9 1381239.68   212%     - 24426s
     0     0 1328603.37    0  254 -1236512.9 1328603.37   207%     - 29922s
     0     0 1327628.05    0  258 -1236512.9 1327628.05   207%     - 30025s
     0     0 1327608.85    0  250 -1236512.9 1327608.85   207%     - 31940s
     0     0 1327329.66    0  251 -1236512.9 1327329.66   207%     - 35739s
     0     0 1327188.67    0  264 -1236512.9 1327188.67   207%     - 36203s
     0     0 1327188.67    0  269 -1236512.9 1327188.67   207%     - 36204s
     0     0 1326801.54    0  274 -1236512.9 1326801.54   207%     - 39778s
     0     0 1326744.22    0  272 -1236512.9 1326744.22   207%     - 39852s
     0     0 1326734.49    0  273 -1236512.9 1326734.49   207%     - 39863s
     0     0 1326559.72    0  292 -1236512.9 1326559.72   207%     - 39915s
     0     0 1326559.72    0  289 -1236512.9 1326559.72   207%     - 40001s
H    0     0                    -1117255.799 1326559.72   219%     - 43704s
H    0     0                    -1117255.795 1326559.72   219%     - 44908s
     0     0 1197432.20    0   76 -1117255.8 1197432.20   207%     - 45277s
H    0     0                    -1033454.999 1197432.20   216%     - 45279s
H    0     0                    -1033454.987 1197432.20   216%     - 45279s
     0     0 1070974.73    0  108 -1033455.0 1070974.73   204%     - 45356s
     0     0     cutoff    0      -1033455.0 -1033455.0  0.00%     - 45367s

Explored 1 nodes (5160966 simplex iterations) in 45367.87 seconds
Thread count was 4 (of 16 available processors)

Solution count 10: -1.03345e+06 -1.03345e+06 -1.11726e+06 ... -1.45139e+06
No other solutions better than -1.03345e+06

Optimal solution found (tolerance 1.00e-04)
Warning: max constraint violation (1.0220e-06) exceeds tolerance
Warning: max bound violation (1.0742e-06) exceeds tolerance
Best objective -1.033454987443e+06, best bound -1.033454987443e+06, gap 0.0000%

***
***  |- Calculation finished, took 45,367.94 (45367.94) sec.
***  |-----------------------------------------------------------------------------------------------------------------------
***
*****************************************************************************************************************************
#############################################################################################################################
###
### Results
###
### The objective of the solution is -1,033,454.9874 (-1033454.9874) and is feasible with a Gap of 0.0
###
### Service 24 (WAF7) is operated by 3 vessels from type 18 (PMax25)
###  |- Vessel  1 has the path [131, 401, 263, 149, 388, -1]
###  |  131 (DEHAM Out@288.0) - 401 (MAPTM In@379.0/Out@398.0) - 263 (MAPTM In@406.0/Out@427.0) - 149 (ESALG In@452.0/Out@464
###  |  .0) - 388 (ESALG In@832.0/Out@851.0) - -1 (DUMMY_END Ziel-Service 24)
###  |   |- and carried Demand  66,  484.0 containers from 263 to 149
###  |   |- and carried Demand  67,   18.0 containers from 263 to 149
###  |   |- and carried Demand 272,  214.0 containers from 263 to 388
###  |   |- and carried Demand 273,   10.0 containers from 263 to 388
###  |   |- and carried Demand 274,  484.0 containers from 263 to 149
###  |   |- and carried Demand 275,   18.0 containers from 263 to 149
###  |   |- and carried Demand 285,  214.0 containers from 401 to 388
###  |   |- and carried Demand 286,   10.0 containers from 401 to 388
###  |   |- and carried Demand 287,  484.0 containers from 401 to 149
###  |   |- and carried Demand 288,   18.0 containers from 401 to 149
###  |- Vessel  2 has the path [132, 387, -1]
###  |  132 (DEHAM Out@456.0) - 387 (ESALG In@664.0/Out@683.0) - -1 (DUMMY_END Ziel-Service 24)
###  |- Vessel 13 has the path [135, 385, 262, 148, 386, -1]
###  |  135 (DKAAR Out@220.0) - 385 (ESALG In@328.0/Out@347.0) - 262 (MAPTM In@375.0/Out@396.0) - 148 (ESALG In@421.0/Out@433
###  |  .0) - 386 (ESALG In@496.0/Out@515.0) - -1 (DUMMY_END Ziel-Service 24)
###  |   |- and carried Demand  20,  484.0 containers from 262 to 148
###  |   |- and carried Demand  21,   18.0 containers from 262 to 148
###  |   |- and carried Demand 261,  484.0 containers from 262 to 148
###  |   |- and carried Demand 262,   18.0 containers from 262 to 148
###  |
### Service 177 (WCSA) is operated by 3 vessels from type 18 (PMax25)
###  |- Vessel  3 has the path [133, 58, 63, 305, 0]
###  |  133 (DEHAM Out@624.0) - 58 (CLLQN In@1240.0/Out@1258.0) - 63 (CLSAI In@1288.0/Out@1304.0) - 305 (PABLB In@1640.0/Out@
###  |  1652.0) - 0 (DUMMY_END Ziel-Service 177)
###  |   |- and carried Demand 218,  194.0 containers from  58 to 305
###  |   |- and carried Demand 219,   20.0 containers from  58 to 305
###  |   |- and carried Demand 221,    5.0 containers from  58 to 305
###  |- Vessel  4 has the path [134, 302, 0]
###  |  134 (DEHAM Out@792.0) - 302 (PABLB In@1304.0/Out@1316.0) - 0 (DUMMY_END Ziel-Service 177)
###  |- Vessel 14 has the path [136, 57, 62, 324, 303, 0]
###  |  136 (DKAAR Out@388.0) - 57 (CLLQN In@1072.0/Out@1090.0) - 62 (CLSAI In@1120.0/Out@1136.0) - 324 (PECLL In@1278.24/Out
###  |  @1327.83) - 303 (PABLB In@1472.0/Out@1484.0) - 0 (DUMMY_END Ziel-Service 177)
###  |   |- and carried Demand 239,  540.0 containers from  57 to 303
###  |   |- and carried Demand 240,   69.0 containers from  57 to 303
###  |   |- and carried Demand 241,  138.0 containers from  57 to 303
###  |
### Vessels not used in the solution: [5, 6, 7, 8, 9, 10, 11, 12, 15, 16, 17, 18, 19, 20, 21, 22, 23, 24]
###  |-----------------------------------------------------------------------------------------------------------------------
###
#############################################################################################################################

### Detialed variable overview

### All variables with value greater zero:
rho[24,18] = 1
rho[177,18] = 1
eta[24,18,1] = 1
eta[24,18,2] = 1
eta[24,18,3] = 1
eta[177,18,1] = 1
eta[177,18,2] = 1
eta[177,18,3] = 1
y[1,401,263] = 1
y[1,263,149] = 1
y[1,149,388] = 1
y[1,131,401] = 1
y[1,388,-1] = 1
y[2,387,-1] = 1
y[2,132,387] = 1
y[3,63,305] = 1
y[3,305,0] = 1
y[3,58,63] = 1
y[3,133,58] = 1
y[4,302,0] = 1
y[4,134,302] = 1
y[13,386,-1] = 1
y[13,148,386] = 1
y[13,385,262] = 1
y[13,135,385] = 1
y[13,262,148] = 1
y[14,324,303] = 1
y[14,62,324] = 1
y[14,57,62] = 1
y[14,303,0] = 1
y[14,136,57] = 1
xD[20,262,148] = 484
xD[21,262,148] = 18
xD[66,263,149] = 484
xD[67,263,149] = 18
xD[218,63,305] = 194
xD[218,58,63] = 194
xD[219,63,305] = 20
xD[219,58,63] = 20
xD[221,63,305] = 5
xD[221,58,63] = 5
xD[239,324,303] = 540
xD[239,62,324] = 540
xD[239,57,62] = 540
xD[240,324,303] = 69
xD[240,62,324] = 69
xD[240,57,62] = 69
xD[241,324,303] = 138
xD[241,62,324] = 138
xD[241,57,62] = 138
xD[261,262,148] = 484
xD[262,262,148] = 18
xD[272,263,149] = 214
xD[272,149,388] = 214
xD[273,263,149] = 10
xD[273,149,388] = 10
xD[274,263,149] = 484
xD[275,263,149] = 18
xD[285,401,263] = 214
xD[285,263,149] = 214
xD[285,149,388] = 214
xD[286,401,263] = 10
xD[286,263,149] = 10
xD[286,149,388] = 10
xD[287,401,263] = 484
xD[287,263,149] = 484
xD[288,401,263] = 18
xD[288,263,149] = 18
zE[57] = 1072
zE[58] = 1240
zE[62] = 1120
zE[63] = 1288
zE[148] = 421
zE[149] = 452
zE[262] = 375
zE[263] = 406
zE[302] = 1304
zE[303] = 1472
zE[305] = 1640
zE[324] = 1278.24
zE[385] = 328
zE[386] = 496
zE[387] = 664
zE[388] = 832
zE[401] = 379
zX[57] = 1090
zX[58] = 1258
zX[62] = 1136
zX[63] = 1304
zX[131] = 288
zX[132] = 456
zX[133] = 624
zX[134] = 792
zX[135] = 220
zX[136] = 388
zX[148] = 433
zX[149] = 464
zX[262] = 396
zX[263] = 427
zX[302] = 1316
zX[303] = 1484
zX[305] = 1652
zX[324] = 1327.83
zX[385] = 347
zX[386] = 515
zX[387] = 683
zX[388] = 851
zX[401] = 398
w[14,(324,303)] = 144.166
w[14,(62,324)] = 142.243
phi[1] = 563
phi[2] = 227
phi[3] = 1028
phi[4] = 524
phi[13] = 295
phi[14] = 1096

### All variables with value smaller zero:

### End

real	761m13.316s
user	2036m54.226s
sys	338m46.715s
	Freetype 2.4.12 environment removed
	Python 3.6.0 environment removed
	Gurobi 8.1.0 environment removed
