	Freetype 2.4.12 environment established
		library to render fonts
	Python 3.6.0 environment established
	Gurobi 8.1.0 environment established
Instance LSFRP: LSFDRP_2_2_0_0_fr.p
Instance LSFDP: LSFDRP_2_2_0_0_fd_00.p

*****************************************************************************************************************************
*** Solve LSFDRP_2_2_0_0_fd_00 with Gurobi
***
*** Graph info
*** |S|: 18
*** |S^E|: 0
*** |S^C|: 0
*** |V|: 321
*** |A|: 9520
*** |A^i|: 9469
*** |A^f|: 51
*** |M|: 193
*** |E|: 22

Changed value of parameter TimeLimit to 86400.0
   Prev: 1e+100  Min: 0.0  Max: 1e+100  Default: 1e+100
Changed value of parameter Threads to 4
   Prev: 0  Min: 0  Max: 1024  Default: 0
Optimize a model with 91415 rows, 2029347 columns and 7453790 nonzeros
Variable types: 1857954 continuous, 171393 integer (171393 binary)
Coefficient statistics:
  Matrix range     [1e+00, 4e+03]
  Objective range  [2e+00, 5e+06]
  Bounds range     [1e+00, 1e+00]
  RHS range        [1e+00, 4e+03]
Presolve removed 49203 rows and 1563027 columns (presolve time = 5s) ...
Presolve removed 63133 rows and 1733357 columns (presolve time = 10s) ...
Warning: Failed to open log file 'gurobi.log'
Presolve removed 63140 rows and 1733376 columns (presolve time = 84s) ...
Presolve removed 63140 rows and 1848725 columns (presolve time = 91s) ...
Presolve removed 81211 rows and 1972821 columns (presolve time = 102s) ...
Presolve removed 81211 rows and 1972821 columns
Presolve time: 101.57s
Presolved: 10204 rows, 56526 columns, 316890 nonzeros
Variable types: 34751 continuous, 21775 integer (21740 binary)

Deterministic concurrent LP optimizer: primal and dual simplex
Showing first log only...


Root simplex log...

Iteration    Objective       Primal Inf.    Dual Inf.      Time
       0   -1.2780175e+04   1.140000e+02   1.222999e+09    103s
   14984    2.0184452e+06   0.000000e+00   1.856885e+08    105s
Concurrent spin time: 0.52s

Solved with dual simplex

Root relaxation: objective 3.360753e+06, 11578 iterations, 2.93 seconds

    Nodes    |    Current Node    |     Objective Bounds      |     Work
 Expl Unexpl |  Obj  Depth IntInf | Incumbent    BestBd   Gap | It/Node Time

     0     0 3310794.62    0  101          - 3310794.62      -     -  106s
H    0     0                    -1919144.088 3310794.62   273%     -  106s
H    0     0                    117417.09277 3310794.62  2720%     -  114s
H    0     0                    375066.42960 3310794.62   783%     -  118s
     0     0 3080699.43    0   95 375066.430 3080699.43   721%     -  119s
H    0     0                    375066.44933 3080699.43   721%     -  121s
     0     0 3080104.29    0   95 375066.449 3080104.29   721%     -  121s
     0     0 3080104.29    0   95 375066.449 3080104.29   721%     -  121s
     0     0 2904956.46    0   92 375066.449 2904956.46   675%     -  125s
     0     0 2903479.50    0   92 375066.449 2903479.50   674%     -  129s
     0     0 2903119.76    0   94 375066.449 2903119.76   674%     -  129s
     0     0 2902657.56    0   99 375066.449 2902657.56   674%     -  129s
     0     0 2902613.05    0  102 375066.449 2902613.05   674%     -  129s
     0     0 2795773.32    0   76 375066.449 2795773.32   645%     -  132s
     0     0 2795773.32    0   72 375066.449 2795773.32   645%     -  137s
     0     0 2795773.32    0   94 375066.449 2795773.32   645%     -  139s
     0     0 2795773.32    0   66 375066.449 2795773.32   645%     -  140s
     0     0 2795773.32    0   66 375066.449 2795773.32   645%     -  141s
     0     0 2795773.32    0   66 375066.449 2795773.32   645%     -  141s
     0     0 2795773.32    0   76 375066.449 2795773.32   645%     -  141s
     0     0 2794796.65    0   68 375066.449 2794796.65   645%     -  141s
     0     0 2794796.65    0   68 375066.449 2794796.65   645%     -  141s
     0     0 2794796.65    0   68 375066.449 2794796.65   645%     -  142s
     0     0 2792940.09    0   70 375066.449 2792940.09   645%     -  142s
     0     0 2792940.09    0   70 375066.449 2792940.09   645%     -  142s
     0     0 2792923.10    0   69 375066.449 2792923.10   645%     -  142s
     0     0 2306545.74    0   87 375066.449 2306545.74   515%     -  143s
     0     0 2306323.75    0   87 375066.449 2306323.75   515%     -  143s
     0     0 2305853.21    0   82 375066.449 2305853.21   515%     -  144s
     0     0 2305853.21    0   71 375066.449 2305853.21   515%     -  146s
     0     0 2305853.21    0   86 375066.449 2305853.21   515%     -  149s
     0     0 2305853.21    0   67 375066.449 2305853.21   515%     -  151s
     0     0 2305853.21    0   76 375066.449 2305853.21   515%     -  151s
     0     0 2305853.21    0   68 375066.449 2305853.21   515%     -  151s
     0     0 2305853.21    0   83 375066.449 2305853.21   515%     -  151s
     0     0 2305853.21    0   80 375066.449 2305853.21   515%     -  151s
     0     0 2305853.21    0   90 375066.449 2305853.21   515%     -  152s
     0     0 2303977.28    0   83 375066.449 2303977.28   514%     -  152s
     0     0 2303829.27    0   85 375066.449 2303829.27   514%     -  153s
     0     0 2303829.27    0   85 375066.449 2303829.27   514%     -  153s
     0     0 2302960.58    0   73 375066.449 2302960.58   514%     -  153s
     0     0 2302960.58    0   73 375066.449 2302960.58   514%     -  153s
     0     0 2300367.36    0   77 375066.449 2300367.36   513%     -  153s
     0     0 2300339.95    0   77 375066.449 2300339.95   513%     -  154s
     0     0 2299115.00    0   87 375066.449 2299115.00   513%     -  154s
     0     0 2298983.41    0   87 375066.449 2298983.41   513%     -  154s
     0     0 2298521.81    0   89 375066.449 2298521.81   513%     -  155s
     0     0 2298521.81    0   89 375066.449 2298521.81   513%     -  155s
     0     0 2298318.07    0   89 375066.449 2298318.07   513%     -  155s
     0     0 2298318.07    0   89 375066.449 2298318.07   513%     -  157s
     0     2 2298318.07    0   89 375066.449 2298318.07   513%     -  160s
     3     8 1883194.83    2   98 375066.449 2262957.60   503%  2494  168s
     7    12 1825475.69    3  115 375066.449 2217513.82   491%  2310  171s
    19    21 1653648.05    6   50 375066.449 2207487.33   489%  1337  176s
H   29    30                    540299.75101 2207487.33   309%  1242  187s
    45    45 1401833.37   12   54 540299.751 2207487.33   309%  1063  191s
    61    59 1373175.20   18   54 540299.751 2207487.33   309%  1028  196s
    70    68 1121708.99   22   38 540299.751 2207487.33   309%   984  200s
    90    78 1182164.04    5   98 540299.751 2197998.54   307%   982  205s
   125    94 1089421.55    7   74 540299.751 2197998.54   307%   881  210s
   179   110 663374.140   19   50 540299.751 2139717.16   296%   738  215s
   211   123 1872136.92    8   70 540299.751 2132320.88   295%   751  220s
   278   154 1193928.20   25   62 540299.751 2132320.88   295%   662  225s
   298   170 1154416.33   30   51 540299.751 2132320.88   295%   639  230s
H  300   170                    540300.36376 2132320.88   295%   636  230s
   411   222 1873403.78   10   61 540300.364 2029138.17   276%   531  240s
   449   238 1009481.11   19   63 540300.364 1968045.73   264%   550  245s
   550   289 1560030.45   16   87 540300.364 1968045.73   264%   529  251s
   616   320 1078307.18   12   53 540300.364 1893573.56   250%   528  255s
   715   356 1506607.27   15  101 540300.364 1873890.07   247%   507  263s
H  718   356                    540300.36640 1873437.15   247%   519  263s
   751   375 1063098.74   17   88 540300.366 1873437.15   247%   513  265s
   850   422 1678965.28    5   90 540300.366 1858869.96   244%   499  272s
H  865   426                    540300.36789 1858869.96   244%   497  272s
   868   421 1604124.26    7   94 540300.368 1858869.96   244%   501  276s
   997   469 1144972.12   18   68 540300.368 1858869.96   244%   487  281s
  1032   496 774319.538   22   69 540300.368 1839261.08   240%   492  286s
  1135   539 1291131.31   21   82 540300.368 1803669.95   234%   491  295s
H 1158   552                    540300.36860 1800072.66   233%   486  295s
H 1170   555                    540300.37012 1800072.66   233%   486  295s
H 1171   555                    540300.43319 1800072.66   233%   486  295s
  1226   581 1130823.33   13   87 540300.433 1798428.42   233%   494  302s
  1275   598 1581286.57   14   93 540300.433 1798428.42   233%   498  305s
  1406   653 952888.122   18   57 540300.433 1778257.93   229%   497  312s
  1503   691 1365416.39   17  111 540300.433 1752772.52   224%   489  316s
  1579   725 869005.108   16   50 540300.433 1748372.69   224%   484  321s
H 1711   779                    540300.43382 1743378.23   223%   472  325s
  1815   804 1232481.06   23   75 540300.434 1728235.47   220%   464  330s
  2031   890 852519.740    7   53 540300.434 1704301.00   215%   451  339s
  2198   980 719334.160   10   76 540300.434 1691943.07   213%   436  353s
H 2199   931                    540300.43397 1691943.07   213%   436  356s
H 2199   885                    540300.43417 1691943.07   213%   436  357s
  2201   886 1169702.26   46  100 540300.434 1691943.07   213%   436  360s
  2203   887 972442.351   56   99 540300.434 1691943.07   213%   435  366s
  2210   892 1548725.82   15  137 540300.434 1691943.07   213%   434  379s
  2211   893 902227.976   50  133 540300.434 1691943.07   213%   434  384s
  2213   894 1020791.63   13  161 540300.434 1691943.07   213%   433  385s
H 2217   852                    540300.43598 1691943.07   213%   433  387s
  2225   857 726564.220   16  134 540300.436 1691943.07   213%   431  393s
  2227   858 1585951.98   20  134 540300.436 1691943.07   213%   431  397s
  2230   861 1483987.80   28   65 540300.436 1691943.07   213%   446  402s
  2232   863 1137957.17   31  117 540300.436 1691943.07   213%   445  411s
  2237   866 1184479.28   42  126 540300.436 1691943.07   213%   444  415s
H 2240   824                    540300.43867 1677510.87   210%   444  425s
  2245   827 1172393.09   14  155 540300.439 1665452.04   208%   443  430s
  2247   829 1291293.46   17  166 540300.439 1663714.86   208%   442  435s
  2249   833 1582068.33   26  111 540300.439 1620067.30   200%   460  449s
  2251   834 1576850.55   27  120 540300.439 1576850.55   192%   460  453s
  2255   837 1527326.96   28  114 540300.439 1574955.24   191%   460  463s
  2259   838 1514507.71   29  125 540300.439 1572851.40   191%   460  471s
  2263   839 864956.646   29   97 540300.439 1559973.75   189%   463  476s
  2267   842 1496925.52   30  112 540300.439 1555403.95   188%   465  480s
  2283   844 1219127.67   31  105 540300.439 1536621.91   184%   470  488s
  2297   848     cutoff   32      540300.439 1516850.66   181%   471  491s
  2315   846 1417568.89   34  116 540300.439 1516850.66   181%   471  496s
H 2316   806                    540300.43873 1516850.66   181%   471  496s
  2325   809     cutoff   34      540300.439 1516850.66   181%   472  500s
  2353   822 1369992.23   37   87 540300.439 1516850.66   181%   478  507s
  2372   829 1281642.70   39   76 540300.439 1516850.66   181%   482  511s
  2394   834 1187260.43   40   75 540300.439 1516850.66   181%   481  515s
  2433   837 1102999.80   44   62 540300.439 1516850.66   181%   482  524s
  2441   844 1165061.08   45   60 540300.439 1463704.58   171%   487  526s
  2470   841 1057720.03   48   53 540300.439 1463704.58   171%   492  531s
  2483   845     cutoff   48      540300.439 1463704.58   171%   492  535s
  2520   851 1000878.86   52   58 540300.439 1462823.64   171%   496  540s
  2549   851     cutoff   56      540300.439 1456199.43   170%   496  548s
  2566   854 1400293.37   33  113 540300.439 1456199.43   170%   497  552s
  2599   860 1295192.61   36   98 540300.439 1456199.43   170%   498  555s
  2669   866     cutoff   42      540300.439 1444762.81   167%   499  561s
  2732   875 1217613.75   41  105 540300.439 1429616.24   165%   504  567s
  2760   895     cutoff   45      540300.439 1429616.24   165%   506  570s
  2798   889     cutoff   53      540300.439 1417606.30   162%   506  576s
  2856   906 1095829.82   34   88 540300.439 1412032.62   161%   507  581s
  2947   931 1202190.87   40  113 540300.439 1405355.24   160%   511  588s
  2981   937 1048666.61   48   91 540300.439 1391554.07   158%   514  594s
H 3021   906                    540300.46061 1391554.07   158%   512  594s
  3026   909 1220915.32   39  122 540300.461 1391554.07   158%   513  597s
  3076   923 907256.185   44   82 540300.461 1379436.83   155%   515  602s
  3122   929 703604.468   40  106 540300.461 1379436.83   155%   523  606s
  3184   923 703510.147   41  105 540300.461 1379436.83   155%   522  612s
  3216   914 983630.795   45  127 540300.461 1366053.29   153%   525  617s
  3278   918 1277976.93   42   79 540300.461 1366053.29   153%   529  622s
  3353   932 1065477.12   56   85 540300.461 1349153.78   150%   529  629s
  3412   941     cutoff   35      540300.461 1347259.96   149%   533  635s
  3418   939 835495.620   36   98 540300.461 1338619.56   148%   536  640s
  3482   947 1048311.31   41  113 540300.461 1332018.74   147%   539  646s
  3583   958 626343.288   39  101 540300.461 1329787.65   146%   537  652s
  3680   966     cutoff   53      540300.461 1322679.76   145%   536  658s
  3771   967 878062.812   43   90 540300.461 1318434.06   144%   537  664s
  3939  1003 1252361.29   39  116 540300.461 1309684.57   142%   531  670s
  4001  1015 1017595.27   47  130 540300.461 1309322.81   142%   534  676s
  4121  1044     cutoff   44      540300.461 1304020.45   141%   533  683s
  4202  1066     cutoff   41      540300.461 1301954.37   141%   538  689s
  4239  1059 1098224.73   43   71 540300.461 1301577.44   141%   540  696s
  4381  1097 1139928.94   43  112 540300.461 1292945.32   139%   538  703s
  4490  1105 659187.014   42  102 540300.461 1288341.80   138%   541  710s
  4600  1148 860200.825   43   88 540300.461 1278651.12   137%   546  718s
  4687  1183 1038695.08   51  107 540300.461 1276029.93   136%   548  726s
  4822  1244     cutoff   49      540300.461 1271347.42   135%   550  735s
  4921  1263 968465.304   42   86 540300.461 1259552.84   133%   549  743s
  5040  1321 877413.005   35   68 540300.461 1258433.74   133%   551  752s
H 5169  1380                    540300.46088 1244313.16   130%   555  761s
  5268  1415 1098282.20   42  122 540300.461 1243076.12   130%   554  771s
  5474  1508 1207820.67   45  120 540300.461 1230421.11   128%   551  781s
  5627  1565     cutoff   46      540300.461 1222875.84   126%   553  791s
  5769  1623 1101770.56   50  100 540300.461 1217478.47   125%   558  802s
  5972  1656 1067517.48   40  127 540300.461 1213109.61   125%   557  813s
  6150  1717 841035.851   46   77 540300.461 1204448.48   123%   555  824s
  6390  1786 888116.208   36   76 540300.461 1196785.43   122%   552  835s
  6595  1835 874156.004   48   87 540300.461 1186283.02   120%   553  848s
  6771  1887     cutoff   47      540300.461 1182566.70   119%   554  861s
  6920  1913     cutoff   39      540300.461 1178414.98   118%   556  874s
  7177  1976 789527.218   41   84 540300.461 1173275.37   117%   557  888s
  7441  2011 1085333.30   47   96 540300.461 1164213.89   115%   555  902s
  7750  2092 1044145.93   49  119 540300.461 1160458.86   115%   553  916s
H 7944  2150                    540300.71769 1160458.86   115%   549  916s
  7999  2145 1039812.73   46   68 540300.718 1144663.61   112%   547  931s
  8326  2209 969857.625   49   77 540300.718 1139583.29   111%   546  947s
  8691  2284 678698.047   51   73 540300.718 1130996.30   109%   543  963s
  9150  2408     cutoff   62      540300.718 1117739.35   107%   536  979s
  9565  2509 908694.548   48  112 540300.718 1107289.11   105%   532  997s
  9888  2522 738382.827   53   75 540300.718 1100778.07   104%   531 1015s
 10297  2546 729597.817   43  103 540300.718 1089515.30   102%   528 1042s
 10704  2588     cutoff   40      540300.718 1075983.84  99.1%   525 1061s
 11121  2627     cutoff   43      540300.718 1067888.12  97.6%   523 1080s
 11574  2668 956714.166   42   66 540300.718 1058469.15  95.9%   518 1097s
 12018  2698 953038.610   48   80 540300.718 1047452.21  93.9%   514 1117s
 12369  2691 623169.452   45   63 540300.718 1038890.52  92.3%   512 1134s
 12789  2708     cutoff   44      540300.718 1028045.50  90.3%   508 1149s
 13250  2752     cutoff   38      540300.718 1018538.60  88.5%   502 1165s
 13607  2727     cutoff   51      540300.718 1008593.30  86.7%   499 1181s
 14029  2757 705950.965   53   98 540300.718 1000464.26  85.2%   494 1196s
 14387  2744     cutoff   50      540300.718 992804.347  83.8%   490 1211s
 14767  2734     cutoff   40      540300.718 984401.819  82.2%   486 1223s
 15125  2732     cutoff   54      540300.718 978139.816  81.0%   482 1235s
 15495  2716     cutoff   49      540300.718 971109.106  79.7%   478 1246s
 15824  2715     cutoff   43      540300.718 965502.936  78.7%   475 1258s
 16127  2700     cutoff   50      540300.718 957785.316  77.3%   472 1270s
 16521  2700 867391.245   36  115 540300.718 950896.073  76.0%   467 1282s
 16832  2682 735043.030   52   70 540300.718 944889.897  74.9%   463 1290s
 17103  2652 866882.521   38   72 540300.718 937965.941  73.6%   460 1298s
 17441  2640 790112.283   43   75 540300.718 930735.199  72.3%   456 1306s
 17698  2583     cutoff   44      540300.718 923217.875  70.9%   453 1312s
 17953  2541 645983.656   41  115 540300.718 917052.263  69.7%   451 1320s
 18280  2524     cutoff   46      540300.718 910658.566  68.5%   447 1328s
 18618  2491 629055.368   31   69 540300.718 904187.099  67.3%   443 1332s
 18844  2437 741569.992   46   51 540300.718 897412.568  66.1%   440 1336s
 19063  2385 646697.375   40   95 540300.718 891590.716  65.0%   437 1343s
 19306  2323     cutoff   74      540300.718 884863.978  63.8%   435 1350s
 19624  2298 675523.783   44   88 540300.718 877909.982  62.5%   432 1355s
 19818  2233     cutoff   50      540300.718 872772.438  61.5%   430 1361s
 20134  2222     cutoff   49      540300.718 866048.742  60.3%   426 1365s
 20601  2177 602981.094   41   78 540300.718 853317.999  57.9%   420 1386s
 20692  2090 776772.052   47   93 540300.718 851441.833  57.6%   419 1393s
 20911  2031 554518.403   41   67 540300.718 843126.526  56.0%   417 1398s
 21166  1978 694431.363   42   93 540300.718 836916.859  54.9%   414 1401s
 21562  1843     cutoff   52      540300.718 823377.650  52.4%   410 1407s
 21766  1779 767521.310   47   58 540300.718 817517.046  51.3%   407 1411s
 21930  1698     cutoff   51      540300.718 810855.928  50.1%   406 1415s
 22332  1576     cutoff   47      540300.718 795608.791  47.3%   401 1422s
 22710  1433 775915.211   44   63 540300.718 781907.085  44.7%   397 1428s
 22902  1372     cutoff   46      540300.718 774802.355  43.4%   395 1430s
 23411  1157     cutoff   75      540300.718 752672.422  39.3%   389 1437s
 23766  1025 632094.566   45   58 540300.718 738620.546  36.7%   385 1441s
 24183   790     cutoff   41      540300.718 716854.782  32.7%   381 1445s
 24665   556 586601.648   36   37 540300.718 692791.408  28.2%   375 1450s
 25375    58 562832.103   38   69 540300.718 614601.475  13.8%   367 1455s

Cutting planes:
  Gomory: 13
  Cover: 3
  Implied bound: 22
  Projected implied bound: 17
  Clique: 6
  MIR: 66
  Flow cover: 224
  Zero half: 1

Explored 25545 nodes (9362559 simplex iterations) in 1458.69 seconds
Thread count was 4 (of 16 available processors)

Solution count 10: 540301 540300 540300 ... 540300
No other solutions better than 540301

Optimal solution found (tolerance 1.00e-04)
Warning: max constraint violation (1.6833e-04) exceeds tolerance
Best objective 5.403007176940e+05, best bound 5.403007176940e+05, gap 0.0000%

***
***  |- Calculation finished, took 1,458.72 (1458.72) sec.
***  |-----------------------------------------------------------------------------------------------------------------------
***
*****************************************************************************************************************************
#############################################################################################################################
###
### Results
###
### The objective of the solution is 540,300.7177 (540300.7177) and is feasible with a Gap of 0.0
###
### Service 24 (WAF7) is operated by 3 vessels from type 18 (PMax25)
###  |- Vessel  1 has the path [100, 276, -1]
###  |  100 (DEHAM Out@288.0) - 276 (ESALG In@496.0/Out@515.0) - -1 (DUMMY_END Ziel-Service 24)
###  |- Vessel  2 has the path [101, 277, -1]
###  |  101 (DEHAM Out@456.0) - 277 (ESALG In@664.0/Out@683.0) - -1 (DUMMY_END Ziel-Service 24)
###  |- Vessel 13 has the path [104, 275, 201, 291, 202, 114, 278, -1]
###  |  104 (DKAAR Out@220.0) - 275 (ESALG In@328.0/Out@347.0) - 201 (MAPTM In@375.0/Out@396.0) - 291 (MAPTM In@379.0/Out@398
###  |  .0) - 202 (MAPTM In@406.0/Out@427.0) - 114 (ESALG In@452.0/Out@464.0) - 278 (ESALG In@832.0/Out@851.0) - -1 (DUMMY_EN
###  |  D Ziel-Service 24)
###  |   |- and carried Demand  17,  312.0 containers from 201 to 114
###  |   |- and carried Demand  18,   18.0 containers from 201 to 114
###  |   |- and carried Demand  52,  484.0 containers from 202 to 114
###  |   |- and carried Demand  53,   18.0 containers from 202 to 114
###  |   |- and carried Demand 119,  214.0 containers from 201 to 278
###  |   |- and carried Demand 120,   10.0 containers from 201 to 278
###  |   |- and carried Demand 121,  484.0 containers from 201 to 114
###  |   |- and carried Demand 122,   18.0 containers from 201 to 114
###  |   |- and carried Demand 132,  214.0 containers from 202 to 278
###  |   |- and carried Demand 133,   10.0 containers from 202 to 278
###  |   |- and carried Demand 134,  484.0 containers from 202 to 114
###  |   |- and carried Demand 135,   18.0 containers from 202 to 114
###  |   |- and carried Demand 138,  214.0 containers from 291 to 278
###  |   |- and carried Demand 139,   10.0 containers from 291 to 278
###  |   |- and carried Demand 141,   18.0 containers from 291 to 114
###  |
### Service 121 (SAE) is operated by 2 vessels from type 30 (PMax35)
###  |- Vessel  9 has the path [1, 274, 199, 290, 200, 112, 284, 45, 302, -2]
###  |  1 (BEANR Out@66.0) - 274 (ESALG In@160.0/Out@179.0) - 199 (MAPTM In@207.0/Out@228.0) - 290 (MAPTM In@211.0/Out@230.0)
###  |   - 200 (MAPTM In@238.0/Out@259.0) - 112 (ESALG In@284.0/Out@296.0) - 284 (GWOXB In@463.0/Out@542.0) - 45 (CMDLA In@76
###  |  5.0/Out@811.0) - 302 (HNPCR In@1166.0/Out@1179.0) - -2 (DUMMY_END Ziel-Service 121)
###  |   |- and carried Demand   7,  161.0 containers from 199 to  45
###  |   |- and carried Demand   8,  580.0 containers from 199 to 112
###  |   |- and carried Demand  45,  161.0 containers from 200 to  45
###  |   |- and carried Demand  46,  580.0 containers from 200 to 112
###  |   |- and carried Demand 117,  580.0 containers from 199 to 112
###  |   |- and carried Demand 131,  580.0 containers from 200 to 112
###  |   |- and carried Demand 144,  161.0 containers from 290 to  45
###  |   |- and carried Demand 145,  580.0 containers from 290 to 112
###  |- Vessel 18 has the path [148, 315, 311, 301, -2]
###  |  148 (GBFXT Out@470.0) - 315 (USORF In@873.0/Out@881.0) - 311 (USMIA In@935.0/Out@943.0) - 301 (HNPCR In@998.0/Out@101
###  |  1.0) - -2 (DUMMY_END Ziel-Service 121)
###  |   |- and carried Demand 170,   10.0 containers from 311 to 301
###  |   |- and carried Demand 171,   75.0 containers from 315 to 301
###  |   |- and carried Demand 172,  114.0 containers from 315 to 301
###  |
### Service 177 (WCSA) is operated by 3 vessels from type 18 (PMax25)
###  |- Vessel  3 has the path [102, 234, 0]
###  |  102 (DEHAM Out@624.0) - 234 (PABLB In@1304.0/Out@1316.0) - 0 (DUMMY_END Ziel-Service 177)
###  |- Vessel  4 has the path [103, 235, 0]
###  |  103 (DEHAM Out@792.0) - 235 (PABLB In@1472.0/Out@1484.0) - 0 (DUMMY_END Ziel-Service 177)
###  |- Vessel 14 has the path [105, 36, 240, 236, 0]
###  |  105 (DKAAR Out@388.0) - 36 (CLLQN In@1240.0/Out@1258.0) - 240 (PECLL In@1435.24/Out@1437.24) - 236 (PABLB In@1640.0/O
###  |  ut@1652.0) - 0 (DUMMY_END Ziel-Service 177)
###  |   |- and carried Demand  80,  194.0 containers from  36 to 236
###  |   |- and carried Demand  81,   20.0 containers from  36 to 236
###  |   |- and carried Demand  83,    5.0 containers from  36 to 236
###  |
### Vessels not used in the solution: [5, 6, 7, 8, 10, 11, 12, 15, 16, 17]
###  |-----------------------------------------------------------------------------------------------------------------------
###
#############################################################################################################################

### Detialed variable overview

### All variables with value greater zero:
rho[24,18] = 1
rho[177,18] = 1
rho[121,30] = 1
eta[24,18,1] = 1
eta[24,18,2] = 1
eta[24,18,3] = 1
eta[177,18,1] = 1
eta[177,18,2] = 1
eta[177,18,3] = 1
eta[121,30,1] = 1
eta[121,30,2] = 1
y[1,276,-1] = 1
y[1,100,276] = 1
y[2,101,277] = 1
y[2,277,-1] = 1
y[3,234,0] = 1
y[3,102,234] = 1
y[4,235,0] = 1
y[4,103,235] = 1
y[9,200,112] = 1
y[9,274,199] = 1
y[9,290,200] = 1
y[9,1,274] = 1
y[9,45,302] = 1
y[9,199,290] = 1
y[9,302,-2] = 1
y[9,284,45] = 0.999999
y[9,112,284] = 0.999999
y[13,104,275] = 0.999999
y[13,275,201] = 0.999999
y[13,291,202] = 1
y[13,114,278] = 1
y[13,202,114] = 1
y[13,278,-1] = 1
y[13,201,291] = 0.999999
y[14,240,236] = 1
y[14,105,36] = 1
y[14,36,240] = 1
y[14,236,0] = 1
y[18,301,-2] = 1
y[18,148,315] = 1
y[18,315,311] = 1
y[18,311,301] = 1
xD[7,200,112] = 161
xD[7,290,200] = 161
xD[7,199,290] = 161
xD[7,284,45] = 161
xD[7,112,284] = 161
xD[8,200,112] = 580
xD[8,290,200] = 580
xD[8,199,290] = 580
xD[17,291,202] = 312
xD[17,202,114] = 312
xD[17,201,291] = 312
xD[18,291,202] = 18
xD[18,202,114] = 18
xD[18,201,291] = 18
xD[45,200,112] = 161
xD[45,284,45] = 161
xD[45,112,284] = 161
xD[46,200,112] = 580
xD[52,202,114] = 484
xD[53,202,114] = 18
xD[80,240,236] = 194
xD[80,36,240] = 194
xD[81,240,236] = 20
xD[81,36,240] = 20
xD[83,240,236] = 5
xD[83,36,240] = 5
xD[117,200,112] = 580
xD[117,290,200] = 580
xD[117,199,290] = 580
xD[119,291,202] = 214
xD[119,114,278] = 214
xD[119,202,114] = 214
xD[119,201,291] = 214
xD[120,291,202] = 10
xD[120,114,278] = 10
xD[120,202,114] = 10
xD[120,201,291] = 10
xD[121,291,202] = 483.999
xD[121,202,114] = 483.999
xD[121,201,291] = 483.999
xD[122,291,202] = 18
xD[122,202,114] = 18
xD[122,201,291] = 18
xD[131,200,112] = 580
xD[132,114,278] = 214
xD[132,202,114] = 214
xD[133,114,278] = 10
xD[133,202,114] = 10
xD[134,202,114] = 484
xD[135,202,114] = 18
xD[138,291,202] = 214
xD[138,114,278] = 214
xD[138,202,114] = 214
xD[139,291,202] = 10
xD[139,114,278] = 10
xD[139,202,114] = 10
xD[141,291,202] = 18
xD[141,202,114] = 18
xD[144,200,112] = 161
xD[144,290,200] = 161
xD[144,284,45] = 161
xD[144,112,284] = 161
xD[145,200,112] = 580
xD[145,290,200] = 580
xD[170,311,301] = 10
xD[171,315,311] = 75
xD[171,311,301] = 75
xD[172,315,311] = 114
xD[172,311,301] = 114
zE[36] = 1240
zE[45] = 765
zE[112] = 284
zE[114] = 452
zE[199] = 207
zE[200] = 238
zE[201] = 375
zE[202] = 406
zE[234] = 1304
zE[235] = 1472
zE[236] = 1640
zE[240] = 1435.24
zE[274] = 160
zE[275] = 328
zE[276] = 496
zE[277] = 664
zE[278] = 832
zE[284] = 463
zE[290] = 211
zE[291] = 379
zE[301] = 998
zE[302] = 1166
zE[311] = 935
zE[315] = 873
zX[1] = 66
zX[36] = 1258
zX[45] = 811
zX[100] = 288
zX[101] = 456
zX[102] = 624
zX[103] = 792
zX[104] = 220
zX[105] = 388
zX[112] = 296
zX[114] = 464
zX[148] = 470
zX[199] = 228
zX[200] = 259
zX[201] = 396
zX[202] = 427
zX[234] = 1316
zX[235] = 1484
zX[236] = 1652
zX[240] = 1437.24
zX[274] = 179
zX[275] = 347
zX[276] = 515
zX[277] = 683
zX[278] = 851
zX[284] = 542
zX[290] = 230
zX[291] = 398
zX[301] = 1011
zX[302] = 1179
zX[311] = 943
zX[315] = 881
w[14,(240,236)] = 144.166
w[14,(36,240)] = 161.145
phi[1] = 227
phi[2] = 227
phi[3] = 692
phi[4] = 692
phi[9] = 1113
phi[13] = 631
phi[14] = 1264
phi[18] = 541

### All variables with value smaller zero:

### End

real	26m30.990s
user	93m14.054s
sys	4m47.162s
	Freetype 2.4.12 environment removed
	Python 3.6.0 environment removed
	Gurobi 8.1.0 environment removed
