	Freetype 2.4.12 environment established
		library to render fonts
	Python 3.6.0 environment established
	Gurobi 8.1.0 environment established
Instance LSFRP: LSFDRP_3_3_1_0_fr.p
Instance LSFDP: LSFDRP_3_3_1_0_fd_16.p

*****************************************************************************************************************************
*** Solve LSFDRP_3_3_1_0_fd_16 with Gurobi
***
*** Graph info
*** |S|: 24
*** |S^E|: 0
*** |S^C|: 6
*** |V|: 482
*** |A|: 22408
*** |A^i|: 22261
*** |A^f|: 147
*** |M|: 380
*** |E|: 28

Changed value of parameter TimeLimit to 86400.0
   Prev: 1e+100  Min: 0.0  Max: 1e+100  Default: 1e+100
Changed value of parameter Threads to 4
   Prev: 0  Min: 0  Max: 1024  Default: 0
Optimize a model with 253050 rows, 9102183 columns and 32933900 nonzeros
Variable types: 8564334 continuous, 537849 integer (537849 binary)
Coefficient statistics:
  Matrix range     [1e+00, 5e+03]
  Objective range  [2e+00, 2e+07]
  Bounds range     [1e+00, 1e+00]
  RHS range        [1e+00, 5e+03]
Presolve removed 10951 rows and 1418 columns (presolve time = 8s) ...
Presolve removed 35293 rows and 1990867 columns (presolve time = 12s) ...
Presolve removed 68243 rows and 4471484 columns (presolve time = 16s) ...
Presolve removed 83493 rows and 5220104 columns (presolve time = 20s) ...
Presolve removed 92519 rows and 5726498 columns (presolve time = 25s) ...
Presolve removed 96631 rows and 5821764 columns (presolve time = 34s) ...
Presolve removed 96631 rows and 5825910 columns (presolve time = 35s) ...
Presolve removed 102477 rows and 5848354 columns (presolve time = 45s) ...
Presolve removed 102909 rows and 5848354 columns (presolve time = 50s) ...
Presolve removed 105402 rows and 5874425 columns (presolve time = 55s) ...
Presolve removed 105402 rows and 5874425 columns (presolve time = 62s) ...
Presolve removed 106443 rows and 5875874 columns (presolve time = 67s) ...
Presolve removed 106444 rows and 5875874 columns (presolve time = 71s) ...
Presolve removed 106444 rows and 5875874 columns (presolve time = 78s) ...
Presolve removed 106444 rows and 5876466 columns (presolve time = 80s) ...
Presolve removed 106450 rows and 5876627 columns (presolve time = 85s) ...
Warning: Failed to open log file 'gurobi.log'
Presolve removed 106482 rows and 5876627 columns (presolve time = 101s) ...
Presolve removed 106482 rows and 6076286 columns (presolve time = 2257s) ...
Presolve removed 162244 rows and 7995430 columns (presolve time = 2260s) ...
Presolve removed 175532 rows and 8154332 columns (presolve time = 2267s) ...
Presolve removed 175549 rows and 8154332 columns (presolve time = 2271s) ...
Presolve removed 175577 rows and 8155310 columns (presolve time = 2275s) ...
Presolve removed 175723 rows and 8155456 columns (presolve time = 2280s) ...
Presolve removed 178585 rows and 8187810 columns (presolve time = 2294s) ...
Presolve removed 178623 rows and 8187845 columns (presolve time = 3073s) ...
Presolve removed 178591 rows and 8187813 columns
Presolve time: 3072.70s
Presolved: 74459 rows, 914370 columns, 5843164 nonzeros
Variable types: 574873 continuous, 339497 integer (339434 binary)

Deterministic concurrent LP optimizer: primal simplex, dual simplex, and barrier
Showing barrier log only...

Presolve removed 417 rows and 787 columns
Presolved: 74042 rows, 913583 columns, 5822241 nonzeros

Root barrier log...

Ordering time: 0.00s

Barrier statistics:
 Dense cols : 106
 AA' NZ     : 6.304e+06
 Factor NZ  : 1.406e+08 (roughly 1.5 GBytes of memory)
 Factor Ops : 8.657e+11 (roughly 60 seconds per iteration)
 Threads    : 1

                  Objective                Residual
Iter       Primal          Dual         Primal    Dual     Compl     Time
   0  -3.59932986e+15  1.70961299e+16  1.04e+09 1.80e+06  1.76e+12  3172s
   1  -2.14627852e+15  1.67581282e+16  6.19e+08 9.79e+06  1.07e+12  3230s
   2  -1.27914342e+15  1.60132406e+16  3.69e+08 4.53e+06  6.35e+11  3289s
   3  -7.47843967e+14  1.52893579e+16  2.16e+08 3.01e+06  3.79e+11  3344s
   4  -3.93913893e+14  1.38472162e+16  1.14e+08 1.82e+06  2.06e+11  3399s
   5  -1.42057645e+14  1.01873976e+16  4.07e+07 4.34e+05  7.65e+10  3456s
   6  -2.21177947e+13  5.29483733e+15  6.26e+06 5.37e+04  1.38e+10  3514s
   7  -2.80394393e+12  1.67803508e+15  7.93e+05 1.74e-06  2.22e+09  3573s
   8  -1.15125939e+12  3.56361672e+14  3.26e+05 1.07e-06  6.48e+08  3630s
   9  -2.66461398e+11  8.07516618e+13  7.53e+04 4.46e-07  1.42e+08  3686s
  10  -1.78253224e+11  5.61765123e+13  5.03e+04 4.23e-07  9.51e+07  3741s
  11  -4.82682067e+10  1.95553045e+13  1.36e+04 7.29e-07  2.83e+07  3800s
  12  -1.53365792e+10  8.37112175e+12  4.27e+03 5.96e-07  1.01e+07  3857s
  13  -8.30817532e+09  5.88497110e+12  2.29e+03 4.17e-07  6.15e+06  3917s
  14  -4.04739377e+09  2.97304239e+12  1.10e+03 3.04e-07  3.02e+06  3974s
  15  -1.47015029e+09  1.93832749e+12  3.78e+02 4.82e-07  1.56e+06  4032s
  16  -7.20285472e+08  1.23998068e+12  1.71e+02 4.55e-07  9.02e+05  4088s
  17  -4.55842537e+08  6.67125049e+11  1.00e+02 4.15e-07  4.92e+05  4145s
  18  -2.42787225e+08  3.73523706e+11  4.42e+01 5.65e-07  2.59e+05  4204s
  19  -1.74095945e+08  2.65352723e+11  2.74e+01 4.07e-07  1.78e+05  4262s
  20  -1.33021163e+08  2.07827332e+11  1.85e+01 4.28e-07  1.36e+05  4316s
  21  -9.88866404e+07  1.62750052e+11  1.17e+01 2.87e-07  1.03e+05  4370s
  22  -7.92666802e+07  1.25633407e+11  8.19e+00 2.26e-07  7.89e+04  4423s
  23  -7.23430771e+07  1.03689380e+11  7.03e+00 1.96e-07  6.55e+04  4477s
  24  -5.53209289e+07  7.14455682e+10  4.14e+00 2.03e-07  4.42e+04  4535s
  25  -3.96412348e+07  4.10324171e+10  1.49e+00 1.55e-07  2.45e+04  4592s
  26  -3.23810531e+07  1.91887227e+10  6.49e-01 2.20e-07  1.13e+04  4646s
  27  -2.98881330e+07  1.20927690e+10  4.26e-01 2.12e-07  7.15e+03  4701s
  28  -2.82599356e+07  7.81498169e+09  3.14e-01 2.48e-07  4.66e+03  4757s
  29  -2.68983106e+07  5.65286937e+09  2.45e-01 1.81e-07  3.39e+03  4813s
  30  -2.52540742e+07  4.15976885e+09  1.72e-01 1.56e-07  2.48e+03  4867s
  31  -2.30245565e+07  2.81142890e+09  1.06e-01 1.54e-07  1.66e+03  4922s
  32  -2.15584979e+07  2.03350064e+09  8.31e-02 1.70e-07  1.21e+03  4976s
  33  -1.89442414e+07  1.32571820e+09  5.44e-02 1.59e-07  7.95e+02  5029s
  34  -1.56053734e+07  8.79749024e+08  3.91e-02 1.71e-07  5.32e+02  5086s
  35  -1.19974449e+07  5.84841452e+08  2.60e-02 1.92e-07  3.54e+02  5141s
  36  -9.48916447e+06  3.75172337e+08  2.02e-02 1.47e-07  2.33e+02  5198s
  37  -5.97590429e+06  2.27536658e+08  1.20e-02 1.39e-07  1.41e+02  5254s
  38  -2.42386270e+06  1.81661644e+08  6.63e-03 1.36e-07  1.08e+02  5309s
  39  -8.64939711e+05  1.64430516e+08  5.57e-03 1.95e-07  9.63e+01  5364s
  40   3.83306783e+05  1.17431507e+08  4.57e-03 1.47e-07  6.90e+01  5421s
  41   2.28432487e+06  9.94593276e+07  3.26e-03 1.72e-07  5.66e+01  5476s
  42   3.31598870e+06  9.26001849e+07  2.79e-03 1.77e-07  5.18e+01  5529s
  43   4.26305659e+06  6.26722373e+07  2.20e-03 1.73e-07  3.43e+01  5587s
  44   6.00561706e+06  4.86060496e+07  1.35e-03 1.63e-07  2.47e+01  5643s
  45   6.81334258e+06  4.05952436e+07  1.05e-03 1.69e-07  1.96e+01  5701s
  46   7.33334562e+06  3.58746510e+07  8.72e-04 1.85e-07  1.65e+01  5754s
  47   7.77906041e+06  3.18393699e+07  7.70e-04 1.80e-07  1.40e+01  5811s
  48   8.26912312e+06  2.85568988e+07  6.18e-04 1.73e-07  1.18e+01  5866s
  49   8.46439588e+06  2.70812896e+07  5.71e-04 2.11e-07  1.08e+01  5919s
  50   8.73795604e+06  2.52189576e+07  5.09e-04 2.39e-07  9.57e+00  5974s
  51   9.12227616e+06  2.38268581e+07  4.38e-04 1.86e-07  8.51e+00  6030s
  52   9.21095612e+06  2.28489447e+07  4.07e-04 1.83e-07  7.90e+00  6084s
  53   9.60976913e+06  2.12988569e+07  3.22e-04 2.17e-07  6.74e+00  6138s
  54   9.83793511e+06  1.97752693e+07  2.76e-04 2.03e-07  5.73e+00  6192s
  55   1.01477752e+07  1.87216502e+07  2.20e-04 2.10e-07  4.92e+00  6248s
  56   1.02408920e+07  1.84206994e+07  2.09e-04 2.39e-07  4.70e+00  6301s
  57   1.04734828e+07  1.78485711e+07  1.87e-04 2.50e-07  4.23e+00  6355s
  58   1.07171879e+07  1.72397718e+07  1.64e-04 2.19e-07  3.74e+00  6408s
  59   1.10064935e+07  1.67351296e+07  1.37e-04 2.15e-07  3.28e+00  6463s
  60   1.12643710e+07  1.63207779e+07  1.14e-04 2.18e-07  2.88e+00  6520s
  61   1.15499009e+07  1.56748922e+07  9.04e-05 2.95e-07  2.35e+00  6575s
  62   1.16569913e+07  1.52242396e+07  8.17e-05 2.09e-07  2.04e+00  6630s
  63   1.20565102e+07  1.46005494e+07  5.26e-05 2.30e-07  1.45e+00  6686s
  64   1.23460978e+07  1.38441656e+07  3.22e-05 2.30e-07  8.56e-01  6739s
  65   1.25346800e+07  1.35787558e+07  1.91e-05 2.36e-07  5.93e-01  6794s
  66   1.26555539e+07  1.33330192e+07  1.10e-05 2.08e-07  3.83e-01  6849s
  67   1.27400130e+07  1.30975171e+07  5.40e-06 2.63e-07  2.02e-01  6905s
  68   1.27622020e+07  1.30121848e+07  3.98e-06 3.75e-07  1.41e-01  6960s
  69   1.27830519e+07  1.29307852e+07  2.66e-06 2.77e-07  8.40e-02  7016s
  70   1.28001080e+07  1.28605643e+07  1.49e-06 2.97e-07  3.52e-02  7072s
  71   1.28123398e+07  1.28480622e+07  1.05e-06 3.38e-07  2.06e-02  7125s
  72   1.28218157e+07  1.28285485e+07  6.64e-07 4.05e-07  3.97e-03  7187s
  73   1.28245171e+07  1.28250239e+07  5.80e-07 5.16e-07  3.14e-04  7246s
  74   1.28248466e+07  1.28249544e+07  1.26e-07 3.98e-07  6.70e-05  7303s
  75   1.28248736e+07  1.28249490e+07  4.64e-07 3.93e-07  4.71e-05  7358s
  76   1.28249187e+07  1.28249394e+07  1.37e-06 3.73e-07  1.30e-05  7412s
  77   1.28249297e+07  1.28249369e+07  1.12e-05 4.14e-07  4.59e-06  7468s
  78   1.28249298e+07  1.28249369e+07  1.18e-05 5.33e-07  4.55e-06  7523s
  79   1.28249302e+07  1.28249369e+07  1.10e-05 1.03e-06  4.29e-06  7577s
  80   1.28249278e+07  1.28249369e+07  1.34e-05 1.06e-06  4.28e-06  7630s
  81   1.28249282e+07  1.28249370e+07  3.07e-05 1.22e-06  3.92e-06  7684s
  82   1.28249283e+07  1.28249370e+07  3.00e-05 1.30e-06  3.88e-06  7738s
  83   1.28249338e+07  1.28249367e+07  2.01e-05 5.31e-07  1.26e-06  7793s
  84   1.28249340e+07  1.28249366e+07  1.56e-05 5.53e-07  1.21e-06  7847s
  85   1.28249339e+07  1.28249366e+07  1.72e-05 9.29e-07  1.21e-06  7900s
  86   1.28249339e+07  1.28249366e+07  1.63e-05 9.81e-07  1.20e-06  7954s
  87   1.28249339e+07  1.28249366e+07  1.75e-05 1.24e-06  1.21e-06  8008s
  88   1.28249339e+07  1.28249367e+07  1.74e-05 1.30e-06  1.22e-06  8061s
  89   1.28249418e+07  1.28249367e+07  2.96e-05 1.42e-06  1.22e-06  8116s
  90   1.28249418e+07  1.28249367e+07  2.96e-05 1.63e-06  1.22e-06  8169s
  91   1.28249418e+07  1.28249367e+07  3.40e-05 1.74e-06  1.22e-06  8223s
  92   1.28249418e+07  1.28249367e+07  3.39e-05 1.88e-06  1.22e-06  8277s
  93   1.28249417e+07  1.28249367e+07  3.37e-05 1.99e-06  1.22e-06  8330s

Barrier performed 93 iterations in 8330.43 seconds
Sub-optimal termination - objective 1.28248466e+07


Root crossover log...

   71186 DPushes remaining with DInf 0.0000000e+00              8331s
     342 DPushes remaining with DInf 0.0000000e+00              8335s
      61 DPushes remaining with DInf 0.0000000e+00              8340s
       0 DPushes remaining with DInf 1.9561486e-07              8342s

    3341 PPushes remaining with PInf 3.0777302e-01              8342s
       0 PPushes remaining with PInf 1.2137162e+00              8342s

  Push phase complete: Pinf 1.2137162e+00, Dinf 9.2591289e+10   8342s


Root simplex log...

Iteration    Objective       Primal Inf.    Dual Inf.      Time
   62154    1.2824828e+07   0.000000e+00   9.259129e+10   8342s
   62867    1.2824886e+07   0.000000e+00   1.054746e+09   8345s
   63991    1.2824901e+07   0.000000e+00   1.334361e+10   8351s
   65056    1.2824955e+07   0.000000e+00   8.808202e+09   8356s
   66475    1.2825001e+07   0.000000e+00   4.315027e+10   8360s
   68056    1.2825073e+07   0.000000e+00   6.587322e+08   8365s
   69616    1.2825109e+07   0.000000e+00   1.060150e+10   8371s
   70858    1.2825121e+07   0.000000e+00   1.471471e+09   8375s
   72435    1.2825152e+07   0.000000e+00   2.451530e+09   8380s
   73712    1.2825174e+07   0.000000e+00   4.294631e+10   8385s
   74842    1.2825201e+07   0.000000e+00   1.180655e+09   8390s
   76303    1.2825219e+07   0.000000e+00   2.050557e+09   8395s
   77951    1.2825248e+07   0.000000e+00   7.210793e+08   8400s
   79217    1.2825264e+07   0.000000e+00   8.669310e+08   8405s
   80605    1.2825276e+07   0.000000e+00   3.847855e+09   8410s
   81912    1.2825285e+07   0.000000e+00   8.454385e+09   8415s
   83593    1.2825304e+07   0.000000e+00   1.147490e+09   8420s
   85130    1.2825313e+07   0.000000e+00   1.225900e+09   8425s
   86259    1.2825319e+07   0.000000e+00   1.304508e+09   8430s
   87515    1.2825336e+07   0.000000e+00   3.975924e+08   8435s
   88763    1.2825369e+07   0.000000e+00   9.211581e+08   8441s
   90082    1.2825395e+07   0.000000e+00   1.802944e+10   8445s
   91577    1.2825428e+07   0.000000e+00   2.098818e+09   8450s
   93160    1.2825451e+07   0.000000e+00   4.719145e+08   8455s
   94413    1.2825466e+07   0.000000e+00   3.463434e+08   8460s
   95820    1.2825479e+07   0.000000e+00   3.908652e+09   8465s
   97391    1.2825491e+07   0.000000e+00   6.039472e+08   8470s
   98655    1.2825512e+07   0.000000e+00   3.209895e+08   8475s
  100259    1.2825545e+07   0.000000e+00   1.689409e+08   8480s
  101669    1.2825555e+07   0.000000e+00   7.458553e+10   8485s
  102917    1.2825565e+07   0.000000e+00   1.410824e+09   8490s
  104477    1.2825573e+07   0.000000e+00   1.367698e+09   8495s
  105881    1.2825583e+07   0.000000e+00   2.841597e+08   8500s
  107441    1.2825606e+07   0.000000e+00   1.088338e+09   8505s
  108888    1.2825633e+07   0.000000e+00   3.394169e+09   8510s
  110450    1.2825660e+07   0.000000e+00   5.374534e+08   8516s
  111856    1.2825676e+07   0.000000e+00   6.245232e+08   8520s
  113441    1.2825692e+07   0.000000e+00   2.171766e+08   8525s
  114852    1.2825711e+07   0.000000e+00   3.387912e+08   8530s
  116256    1.2825716e+07   0.000000e+00   2.573951e+08   8535s
  117660    1.2825721e+07   0.000000e+00   1.853903e+08   8540s
  119220    1.2825732e+07   0.000000e+00   7.378902e+08   8546s
  120312    1.2825742e+07   0.000000e+00   2.567256e+08   8550s
  121716    1.2825747e+07   0.000000e+00   1.051066e+09   8555s
  123120    1.2825755e+07   0.000000e+00   1.174421e+09   8561s
  124368    1.2825764e+07   0.000000e+00   2.431834e+08   8565s
  125772    1.2825768e+07   0.000000e+00   2.242959e+08   8570s
  127332    1.2825796e+07   0.000000e+00   6.524099e+08   8575s
  128746    1.2825814e+07   0.000000e+00   6.298271e+08   8580s
  130306    1.2825826e+07   0.000000e+00   4.503809e+08   8586s
  131554    1.2825831e+07   0.000000e+00   5.129151e+08   8590s
  132958    1.2825848e+07   0.000000e+00   5.382452e+08   8596s
  134213    1.2825864e+07   0.000000e+00   2.306495e+10   8600s
  135461    1.2825872e+07   0.000000e+00   2.598512e+08   8605s
  136709    1.2825884e+07   0.000000e+00   6.728111e+08   8610s
  137957    1.2825907e+07   0.000000e+00   2.038730e+08   8615s
  139205    1.2825914e+07   0.000000e+00   2.631648e+08   8620s
  140609    1.2825947e+07   0.000000e+00   5.050187e+08   8625s
  141857    1.2825963e+07   0.000000e+00   6.799387e+08   8630s
  143261    1.2825978e+07   0.000000e+00   4.128205e+10   8635s
  144509    1.2825982e+07   0.000000e+00   1.972673e+08   8640s
  145601    1.2825983e+07   0.000000e+00   2.502480e+11   8645s
  147005    1.2826009e+07   0.000000e+00   2.746670e+09   8650s
  148253    1.2826014e+07   0.000000e+00   2.547977e+09   8655s
  149345    1.2826017e+07   0.000000e+00   3.269709e+08   8660s
  150749    1.2826024e+07   0.000000e+00   4.022833e+08   8665s
  152153    1.2826027e+07   0.000000e+00   7.670090e+10   8670s
  153557    1.2826031e+07   0.000000e+00   4.120570e+08   8675s
  154805    1.2826037e+07   0.000000e+00   4.591031e+09   8680s
  156053    1.2826047e+07   0.000000e+00   2.611746e+09   8685s
  157301    1.2826062e+07   0.000000e+00   5.032677e+08   8690s
  158705    1.2826074e+07   0.000000e+00   1.547228e+09   8695s
  159953    1.2826078e+07   0.000000e+00   2.776600e+08   8700s
  161357    1.2826088e+07   0.000000e+00   4.104731e+08   8705s
  162605    1.2826100e+07   0.000000e+00   8.264823e+08   8711s
  163697    1.2826107e+07   0.000000e+00   7.278589e+08   8715s
  164945    1.2826123e+07   0.000000e+00   2.084190e+09   8720s
  166193    1.2826127e+07   0.000000e+00   1.164265e+10   8725s
  167285    1.2826130e+07   0.000000e+00   5.917357e+08   8730s
  168533    1.2826136e+07   0.000000e+00   4.207434e+08   8735s
  169625    1.2826144e+07   0.000000e+00   4.997686e+09   8740s
  170873    1.2826153e+07   0.000000e+00   4.033255e+08   8745s
  172121    1.2826159e+07   0.000000e+00   1.349640e+10   8750s
  173213    1.2826162e+07   0.000000e+00   3.730358e+10   8755s
  174305    1.2826165e+07   0.000000e+00   2.261951e+08   8761s
  175397    1.2826168e+07   0.000000e+00   3.205599e+08   8765s
  176645    1.2826203e+07   0.000000e+00   1.655094e+09   8770s
  177737    1.2826207e+07   0.000000e+00   3.731628e+08   8775s
  179141    1.2826213e+07   0.000000e+00   1.684734e+08   8781s
  180389    1.2826217e+07   0.000000e+00   2.421967e+08   8786s
  181481    1.2826222e+07   0.000000e+00   3.170085e+08   8791s
  182573    1.2826229e+07   0.000000e+00   1.409795e+09   8795s
  183821    1.2826233e+07   0.000000e+00   1.445549e+08   8800s
  184913    1.2826243e+07   0.000000e+00   5.979688e+08   8805s
  186161    1.2826250e+07   0.000000e+00   3.626406e+08   8810s
  187409    1.2826251e+07   0.000000e+00   7.319190e+08   8816s
  188501    1.2826254e+07   0.000000e+00   4.842106e+10   8820s
  189749    1.2826257e+07   0.000000e+00   3.120789e+08   8825s
  191309    1.2826272e+07   0.000000e+00   7.466439e+08   8831s
  192401    1.2826282e+07   0.000000e+00   4.723291e+08   8835s
  193805    1.2826287e+07   0.000000e+00   5.136580e+09   8841s
  194741    1.2826293e+07   0.000000e+00   1.144600e+09   8845s
  196145    1.2826300e+07   0.000000e+00   3.283007e+08   8851s
  197393    1.2826307e+07   0.000000e+00   8.428597e+08   8855s
  198485    1.2826311e+07   0.000000e+00   6.179208e+08   8860s
  199577    1.2826313e+07   0.000000e+00   5.650488e+09   8865s
  200981    1.2826319e+07   0.000000e+00   2.031387e+08   8871s
  202229    1.2826332e+07   0.000000e+00   2.589082e+09   8876s
  203477    1.2826357e+07   0.000000e+00   2.172384e+09   8881s
  204569    1.2826361e+07   0.000000e+00   2.864382e+08   8885s
  205661    1.2826363e+07   0.000000e+00   1.550219e+08   8890s
  206753    1.2826366e+07   0.000000e+00   2.894694e+09   8895s
  208001    1.2826369e+07   0.000000e+00   8.522585e+08   8901s
  209093    1.2826373e+07   0.000000e+00   5.259092e+09   8906s
  210029    1.2826375e+07   0.000000e+00   2.263688e+10   8910s
  211277    1.2826377e+07   0.000000e+00   1.602470e+08   8916s
  212525    1.2826385e+07   0.000000e+00   6.653540e+10   8920s
  213617    1.2826389e+07   0.000000e+00   8.029859e+08   8925s
  214553    1.2826392e+07   0.000000e+00   3.816484e+08   8931s
  215645    1.2826397e+07   0.000000e+00   3.154532e+10   8935s
  216737    1.2826400e+07   0.000000e+00   9.367976e+08   8941s
  217829    1.2826401e+07   0.000000e+00   3.086685e+08   8945s
  219233    1.2826407e+07   0.000000e+00   3.445472e+08   8950s
  220325    1.2826409e+07   0.000000e+00   1.839795e+09   8955s
  221573    1.2826411e+07   0.000000e+00   1.582205e+09   8961s
  222821    1.2826412e+07   0.000000e+00   6.209688e+08   8965s
  223913    1.2826414e+07   0.000000e+00   3.166893e+08   8970s
  225005    1.2826429e+07   0.000000e+00   5.868863e+08   8975s
  226253    1.2826430e+07   0.000000e+00   1.159950e+09   8980s
  227345    1.2826433e+07   0.000000e+00   2.940634e+08   8985s
  228593    1.2826438e+07   0.000000e+00   8.631308e+09   8990s
  229841    1.2826451e+07   0.000000e+00   3.557434e+09   8995s
  230933    1.2826453e+07   0.000000e+00   2.805833e+08   9000s
  232181    1.2826457e+07   0.000000e+00   2.810944e+08   9005s
  233429    1.2826461e+07   0.000000e+00   5.126513e+09   9010s
  234521    1.2826500e+07   0.000000e+00   1.296867e+08   9016s
  235613    1.2826503e+07   0.000000e+00   2.887379e+08   9020s
  236705    1.2826531e+07   0.000000e+00   2.390322e+08   9025s
  237797    1.2826534e+07   0.000000e+00   6.524737e+08   9030s
  238889    1.2826536e+07   0.000000e+00   1.545587e+09   9035s
  239981    1.2826539e+07   0.000000e+00   1.720745e+09   9040s
  241073    1.2826541e+07   0.000000e+00   2.851503e+08   9045s
  242165    1.2826546e+07   0.000000e+00   1.997613e+08   9050s
  243413    1.2826548e+07   0.000000e+00   2.268968e+08   9056s
  244349    1.2826551e+07   0.000000e+00   2.019592e+08   9060s
  245441    1.2826551e+07   0.000000e+00   1.276557e+08   9065s
  246533    1.2826555e+07   0.000000e+00   6.420293e+08   9071s
  247469    1.2826556e+07   0.000000e+00   8.550548e+08   9076s
  248405    1.2826557e+07   0.000000e+00   9.818373e+08   9080s
  249497    1.2826562e+07   0.000000e+00   1.107943e+09   9085s
  250589    1.2826563e+07   0.000000e+00   1.597651e+08   9090s
  251681    1.2826566e+07   0.000000e+00   1.404235e+09   9095s
  252929    1.2826569e+07   0.000000e+00   1.008937e+08   9101s
  254021    1.2826571e+07   0.000000e+00   2.014011e+08   9106s
  255113    1.2826573e+07   0.000000e+00   1.028246e+08   9111s
  256049    1.2826573e+07   0.000000e+00   2.390840e+09   9115s
  257297    1.2826579e+07   0.000000e+00   9.414419e+08   9121s
  258233    1.2826583e+07   0.000000e+00   2.905879e+09   9125s
  259325    1.2826584e+07   0.000000e+00   1.848869e+08   9130s
  260417    1.2826585e+07   0.000000e+00   3.172959e+11   9135s
  261509    1.2826586e+07   0.000000e+00   4.765184e+10   9140s
  262601    1.2826588e+07   0.000000e+00   1.320951e+09   9145s
  263693    1.2826589e+07   0.000000e+00   1.967842e+09   9150s
  264785    1.2826590e+07   0.000000e+00   5.291063e+08   9155s
  265877    1.2826606e+07   0.000000e+00   3.508369e+09   9160s
  266813    1.2826608e+07   0.000000e+00   9.145857e+08   9165s
  267905    1.2826610e+07   0.000000e+00   2.195800e+08   9170s
  268997    1.2826611e+07   0.000000e+00   4.618839e+11   9175s
  270089    1.2826614e+07   0.000000e+00   9.463389e+08   9181s
  271025    1.2826621e+07   0.000000e+00   4.469231e+08   9185s
  272273    1.2826625e+07   0.000000e+00   3.136038e+08   9191s
  273365    1.2826630e+07   0.000000e+00   1.766532e+08   9195s
  274457    1.2826631e+07   0.000000e+00   2.477611e+10   9201s
  275393    1.2826632e+07   0.000000e+00   3.126449e+08   9206s
  276329    1.2826632e+07   0.000000e+00   3.576078e+08   9210s
  277421    1.2826634e+07   0.000000e+00   3.864533e+08   9216s
  278357    1.2826640e+07   0.000000e+00   6.627204e+08   9220s
  279449    1.2826642e+07   0.000000e+00   5.076217e+08   9225s
  280541    1.2826643e+07   0.000000e+00   2.834180e+09   9231s
  281477    1.2826645e+07   0.000000e+00   7.655057e+08   9236s
  282569    1.2826656e+07   0.000000e+00   3.757908e+08   9240s
  283661    1.2826658e+07   0.000000e+00   1.161380e+08   9246s
  284597    1.2826660e+07   0.000000e+00   6.485616e+07   9250s
  285689    1.2826662e+07   0.000000e+00   6.648844e+07   9255s
  286625    1.2826668e+07   0.000000e+00   6.794679e+08   9260s
  287717    1.2826671e+07   0.000000e+00   2.565941e+13   9265s
  288653    1.2826673e+07   0.000000e+00   2.116370e+09   9271s
  289589    1.2826673e+07   0.000000e+00   4.017559e+08   9276s
  290525    1.2826675e+07   0.000000e+00   7.364138e+08   9281s
  291461    1.2826677e+07   0.000000e+00   1.056922e+08   9286s
  292397    1.2826678e+07   0.000000e+00   6.531042e+07   9291s
  293333    1.2826682e+07   0.000000e+00   2.371784e+08   9295s
  294269    1.2826683e+07   0.000000e+00   1.499107e+08   9300s
  295361    1.2826685e+07   0.000000e+00   8.187864e+08   9305s
  296297    1.2826686e+07   0.000000e+00   2.131251e+08   9310s
  297389    1.2826688e+07   0.000000e+00   2.052234e+10   9315s
  298325    1.2826689e+07   0.000000e+00   1.074298e+08   9320s
  299261    1.2826691e+07   0.000000e+00   1.390615e+08   9325s
  300197    1.2826691e+07   0.000000e+00   8.758344e+07   9330s
  301289    1.2826699e+07   0.000000e+00   1.154796e+09   9335s
  302381    1.2826701e+07   0.000000e+00   4.092006e+08   9341s
  303317    1.2826702e+07   0.000000e+00   1.070200e+08   9345s
  304253    1.2826704e+07   0.000000e+00   2.414561e+08   9350s
  305345    1.2826711e+07   0.000000e+00   1.877763e+09   9356s
  306281    1.2826721e+07   0.000000e+00   2.060815e+08   9360s
  307217    1.2826722e+07   0.000000e+00   1.273601e+08   9365s
  308309    1.2826727e+07   0.000000e+00   4.250439e+08   9370s
  309245    1.2826744e+07   0.000000e+00   2.777837e+08   9375s
  310181    1.2826747e+07   0.000000e+00   1.938613e+08   9380s
  311273    1.2826749e+07   0.000000e+00   1.968188e+08   9386s
  312209    1.2826750e+07   0.000000e+00   1.159702e+08   9391s
  313145    1.2826751e+07   0.000000e+00   1.819497e+08   9395s
  314081    1.2826751e+07   0.000000e+00   4.635322e+08   9400s
  315173    1.2826753e+07   0.000000e+00   2.450855e+09   9406s
  316109    1.2826754e+07   0.000000e+00   1.704126e+08   9411s
  317045    1.2826757e+07   0.000000e+00   1.728695e+09   9415s
  317981    1.2826759e+07   0.000000e+00   9.537205e+09   9420s
  318917    1.2826762e+07   0.000000e+00   1.475500e+08   9425s
  319853    1.2826762e+07   0.000000e+00   1.192502e+08   9430s
  320945    1.2826765e+07   0.000000e+00   1.478929e+09   9435s
  321881    1.2826766e+07   0.000000e+00   1.279935e+08   9441s
  322661    1.2826767e+07   0.000000e+00   5.160184e+08   9445s
  323597    1.2826767e+07   0.000000e+00   4.583052e+08   9451s
  324533    1.2826769e+07   0.000000e+00   1.665264e+12   9455s
  325469    1.2826772e+07   0.000000e+00   1.516186e+08   9461s
  326405    1.2826773e+07   0.000000e+00   1.839992e+08   9466s
  327341    1.2826774e+07   0.000000e+00   5.524924e+07   9470s
  328433    1.2826780e+07   0.000000e+00   2.379055e+08   9476s
  329369    1.2826781e+07   0.000000e+00   1.180242e+09   9481s
  330305    1.2826782e+07   0.000000e+00   1.519537e+08   9486s
  331241    1.2826782e+07   0.000000e+00   5.008281e+07   9491s
  332177    1.2826784e+07   0.000000e+00   2.060208e+08   9495s
  333113    1.2826784e+07   0.000000e+00   9.415431e+07   9501s
  334049    1.2826790e+07   0.000000e+00   7.347703e+09   9505s
  334985    1.2826793e+07   0.000000e+00   2.643104e+08   9510s
  336077    1.2826795e+07   0.000000e+00   1.229140e+08   9516s
  337013    1.2826797e+07   0.000000e+00   9.152059e+07   9521s
  337949    1.2826801e+07   0.000000e+00   5.066892e+07   9525s
  339041    1.2826804e+07   0.000000e+00   1.005634e+08   9531s
  339977    1.2826804e+07   0.000000e+00   2.363723e+08   9535s
  340913    1.2826805e+07   0.000000e+00   4.791006e+08   9540s
  341849    1.2826805e+07   0.000000e+00   1.098183e+08   9545s
  342785    1.2826807e+07   0.000000e+00   1.852821e+08   9550s
  343721    1.2826808e+07   0.000000e+00   1.128493e+08   9555s
  344657    1.2826809e+07   0.000000e+00   2.807712e+09   9561s
  345437    1.2826809e+07   0.000000e+00   1.848240e+08   9565s
  346373    1.2826809e+07   0.000000e+00   7.777630e+08   9571s
  347153    1.2826810e+07   0.000000e+00   5.560930e+07   9576s
  347933    1.2826810e+07   0.000000e+00   1.393967e+08   9580s
  348869    1.2826811e+07   0.000000e+00   5.733289e+08   9586s
  349649    1.2826812e+07   0.000000e+00   6.563727e+07   9590s
  350585    1.2826813e+07   0.000000e+00   1.124594e+08   9595s
  351365    1.2826814e+07   0.000000e+00   1.310860e+08   9600s
  352145    1.2826814e+07   0.000000e+00   9.205489e+07   9605s
  353081    1.2826815e+07   0.000000e+00   3.571281e+08   9611s
  354017    1.2826817e+07   0.000000e+00   1.866672e+08   9616s
  354797    1.2826818e+07   0.000000e+00   9.140546e+07   9620s
  355733    1.2826819e+07   0.000000e+00   1.054045e+08   9626s
  356513    1.2826819e+07   0.000000e+00   6.116386e+07   9630s
  357449    1.2826820e+07   0.000000e+00   2.471252e+08   9635s
  358541    1.2826831e+07   0.000000e+00   1.499064e+08   9640s
  359477    1.2826832e+07   0.000000e+00   2.876526e+08   9645s
  360257    1.2826832e+07   0.000000e+00   2.533346e+08   9651s
  361193    1.2826833e+07   0.000000e+00   4.260084e+08   9656s
  361973    1.2826834e+07   0.000000e+00   2.557353e+08   9660s
  362909    1.2826835e+07   0.000000e+00   2.437823e+08   9666s
  363845    1.2826835e+07   0.000000e+00   2.094435e+08   9671s
  364625    1.2826835e+07   0.000000e+00   1.406266e+08   9675s
  365561    1.2826836e+07   0.000000e+00   8.866271e+07   9681s
  366341    1.2826836e+07   0.000000e+00   3.802661e+08   9685s
  367277    1.2826838e+07   0.000000e+00   1.468779e+08   9691s
  368057    1.2826838e+07   0.000000e+00   6.543205e+07   9695s
  369149    1.2826840e+07   0.000000e+00   9.871250e+07   9701s
  370085    1.2826840e+07   0.000000e+00   2.468792e+08   9706s
  371021    1.2826841e+07   0.000000e+00   9.016285e+07   9711s
  371957    1.2826841e+07   0.000000e+00   3.555900e+09   9716s
  372893    1.2826844e+07   0.000000e+00   5.818559e+08   9720s
  373985    1.2826845e+07   0.000000e+00   7.080303e+07   9726s
  374765    1.2826845e+07   0.000000e+00   3.689439e+08   9730s
  375701    1.2826846e+07   0.000000e+00   1.283972e+08   9735s
  376637    1.2826846e+07   0.000000e+00   2.422260e+08   9741s
  377417    1.2826846e+07   0.000000e+00   1.410657e+08   9745s
  378353    1.2826847e+07   0.000000e+00   1.358515e+09   9750s
  379289    1.2826847e+07   0.000000e+00   4.233787e+07   9756s
  380236    1.2826849e+07   0.000000e+00   5.237445e+07   9760s
  381328    1.2826853e+07   0.000000e+00   2.836116e+12   9765s
  382264    1.2826854e+07   0.000000e+00   1.452472e+08   9771s
  383044    1.2826855e+07   0.000000e+00   7.934837e+08   9775s
  383980    1.2826855e+07   0.000000e+00   3.302647e+07   9780s
  385072    1.2826857e+07   0.000000e+00   7.052562e+07   9786s
  386008    1.2826862e+07   0.000000e+00   7.144359e+07   9791s
  386944    1.2826863e+07   0.000000e+00   4.279845e+08   9796s
  387724    1.2826865e+07   0.000000e+00   5.684505e+07   9800s
  388660    1.2826866e+07   0.000000e+00   9.698120e+07   9805s
  389596    1.2826867e+07   0.000000e+00   9.123782e+07   9810s
  390532    1.2826868e+07   0.000000e+00   7.368861e+07   9815s
  391468    1.2826869e+07   0.000000e+00   1.732733e+08   9820s
  392404    1.2826869e+07   0.000000e+00   1.357585e+08   9825s
  393340    1.2826870e+07   0.000000e+00   9.430511e+07   9830s
  394276    1.2826870e+07   0.000000e+00   3.937581e+07   9836s
  395056    1.2826870e+07   0.000000e+00   4.477129e+07   9840s
  396148    1.2826872e+07   0.000000e+00   1.068862e+08   9846s
  397084    1.2826872e+07   0.000000e+00   9.788137e+07   9851s
  398020    1.2826873e+07   0.000000e+00   8.099202e+07   9856s
  398800    1.2826873e+07   0.000000e+00   9.884497e+07   9860s
  399892    1.2826875e+07   0.000000e+00   2.746964e+08   9866s
  400828    1.2826875e+07   0.000000e+00   5.806832e+07   9871s
  401608    1.2826876e+07   0.000000e+00   1.570238e+08   9875s
  402700    1.2826877e+07   0.000000e+00   5.960505e+08   9881s
  403480    1.2826878e+07   0.000000e+00   2.004824e+08   9885s
  404416    1.2826878e+07   0.000000e+00   7.219883e+07   9890s
  405508    1.2826879e+07   0.000000e+00   5.475095e+08   9896s
  406444    1.2826880e+07   0.000000e+00   2.517466e+08   9900s
  407380    1.2826880e+07   0.000000e+00   6.284029e+08   9906s
  408316    1.2826882e+07   0.000000e+00   6.275604e+07   9910s
  409408    1.2826883e+07   0.000000e+00   5.144496e+08   9915s
  410344    1.2826883e+07   0.000000e+00   8.552983e+09   9920s
  411280    1.2826883e+07   0.000000e+00   1.383487e+08   9925s
  412216    1.2826884e+07   0.000000e+00   8.514090e+07   9930s
  413152    1.2826886e+07   0.000000e+00   8.292927e+11   9936s
  413932    1.2826888e+07   0.000000e+00   1.139860e+08   9940s
  415024    1.2826889e+07   0.000000e+00   1.045343e+08   9945s
  415804    1.2826890e+07   0.000000e+00   2.881454e+08   9950s
  416740    1.2826890e+07   0.000000e+00   1.773355e+08   9955s
  417520    1.2826891e+07   0.000000e+00   1.994040e+08   9960s
  418612    1.2826895e+07   0.000000e+00   2.511908e+09   9966s
  419548    1.2826911e+07   0.000000e+00   2.220508e+09   9970s
  420484    1.2826911e+07   0.000000e+00   1.280726e+08   9976s
  421420    1.2826912e+07   0.000000e+00   5.081720e+07   9980s
  422512    1.2826913e+07   0.000000e+00   6.108942e+07   9985s
  423448    1.2826913e+07   0.000000e+00   2.299532e+08   9990s
  424384    1.2826914e+07   0.000000e+00   3.262831e+08   9995s
  425320    1.2826914e+07   0.000000e+00   3.148229e+08  10000s
  426256    1.2826915e+07   0.000000e+00   3.224491e+09  10005s
  427192    1.2826916e+07   0.000000e+00   4.241946e+08  10010s
  428128    1.2826917e+07   0.000000e+00   8.399776e+07  10015s
  429220    1.2826918e+07   0.000000e+00   1.280185e+08  10021s
  430156    1.2826918e+07   0.000000e+00   2.322786e+08  10025s
  431092    1.2826919e+07   0.000000e+00   4.792207e+07  10031s
  432028    1.2826919e+07   0.000000e+00   4.634794e+08  10036s
  432964    1.2826920e+07   0.000000e+00   2.769382e+08  10041s
  433900    1.2826920e+07   0.000000e+00   1.150427e+08  10045s
  434836    1.2826921e+07   0.000000e+00   7.967155e+07  10051s
  435616    1.2826921e+07   0.000000e+00   3.970505e+07  10055s
  436708    1.2826921e+07   0.000000e+00   1.147266e+08  10061s
  437488    1.2826922e+07   0.000000e+00   3.694688e+07  10065s
  438424    1.2826922e+07   0.000000e+00   8.129064e+07  10071s
  439360    1.2826922e+07   0.000000e+00   4.841091e+07  10076s
  440140    1.2826923e+07   0.000000e+00   8.502718e+07  10080s
  441076    1.2826923e+07   0.000000e+00   3.814341e+07  10085s
  442012    1.2826924e+07   0.000000e+00   4.207239e+07  10091s
  442948    1.2826924e+07   0.000000e+00   2.311577e+08  10096s
  443728    1.2826924e+07   0.000000e+00   7.676297e+07  10100s
  444820    1.2826925e+07   0.000000e+00   7.490304e+07  10106s
  445756    1.2826925e+07   0.000000e+00   4.975409e+08  10111s
  446536    1.2826925e+07   0.000000e+00   3.415285e+07  10115s
  447472    1.2826926e+07   0.000000e+00   2.657921e+07  10120s
  448408    1.2826926e+07   0.000000e+00   1.143046e+08  10125s
  449344    1.2826928e+07   0.000000e+00   1.102528e+08  10130s
  450280    1.2826928e+07   0.000000e+00   8.154739e+07  10135s
  451372    1.2826928e+07   0.000000e+00   1.156692e+08  10141s
  452308    1.2826929e+07   0.000000e+00   8.148581e+07  10146s
  453244    1.2826929e+07   0.000000e+00   6.457354e+07  10151s
  454180    1.2826929e+07   0.000000e+00   5.322655e+07  10155s
  454960    1.2826929e+07   0.000000e+00   2.845658e+08  10160s
  456052    1.2826930e+07   0.000000e+00   6.176152e+07  10166s
  456832    1.2826930e+07   0.000000e+00   6.727217e+07  10170s
  457924    1.2826930e+07   0.000000e+00   4.738985e+07  10176s
  458860    1.2826930e+07   0.000000e+00   4.358873e+08  10181s
  459796    1.2826931e+07   0.000000e+00   8.535897e+07  10185s
  460732    1.2826931e+07   0.000000e+00   2.251893e+08  10190s
  461668    1.2826931e+07   0.000000e+00   5.906408e+07  10195s
  462604    1.2826931e+07   0.000000e+00   6.795896e+07  10200s
  463540    1.2826932e+07   0.000000e+00   1.009488e+08  10205s
  464632    1.2826932e+07   0.000000e+00   7.444235e+07  10211s
  465412    1.2826932e+07   0.000000e+00   9.932974e+07  10215s
  466504    1.2826932e+07   0.000000e+00   2.412566e+07  10221s
  467440    1.2826932e+07   0.000000e+00   2.419141e+08  10226s
  468220    1.2826933e+07   0.000000e+00   3.382609e+07  10230s
  469312    1.2826933e+07   0.000000e+00   9.484743e+07  10235s
  470248    1.2826933e+07   0.000000e+00   2.902088e+07  10241s
  471028    1.2826934e+07   0.000000e+00   1.018361e+08  10245s
  471964    1.2826934e+07   0.000000e+00   4.148795e+07  10250s
  472900    1.2826934e+07   0.000000e+00   6.635523e+07  10256s
  473680    1.2826934e+07   0.000000e+00   3.761333e+07  10260s
  474616    1.2826935e+07   0.000000e+00   4.275829e+07  10265s
  475396    1.2826935e+07   0.000000e+00   7.477027e+07  10270s
  476332    1.2826935e+07   0.000000e+00   5.741968e+07  10276s
  476956    1.2826935e+07   0.000000e+00   5.644531e+07  10280s
  477892    1.2826935e+07   0.000000e+00   5.322062e+07  10286s
  478672    1.2826936e+07   0.000000e+00   2.466466e+08  10290s
  479452    1.2826936e+07   0.000000e+00   4.445069e+07  10295s
  480388    1.2826936e+07   0.000000e+00   8.122920e+07  10300s
  481324    1.2826936e+07   0.000000e+00   4.247240e+07  10306s
  482104    1.2826936e+07   0.000000e+00   2.109874e+07  10310s
  483040    1.2826937e+07   0.000000e+00   4.040490e+07  10316s
  483820    1.2826937e+07   0.000000e+00   2.037613e+07  10320s
  484756    1.2826937e+07   0.000000e+00   3.607803e+07  10326s
  485536    1.2826938e+07   0.000000e+00   9.633239e+07  10330s
  486472    1.2826938e+07   0.000000e+00   3.070678e+07  10335s
  487408    1.2826939e+07   0.000000e+00   7.891822e+07  10340s
  488344    1.2826939e+07   0.000000e+00   2.305725e+07  10345s
  489280    1.2826939e+07   0.000000e+00   8.340679e+07  10350s
  490216    1.2826940e+07   0.000000e+00   9.907094e+07  10355s
  491152    1.2826940e+07   0.000000e+00   3.927950e+07  10360s
  492088    1.2826940e+07   0.000000e+00   9.207771e+07  10365s
  493024    1.2826940e+07   0.000000e+00   4.311019e+07  10370s
  493960    1.2826940e+07   0.000000e+00   4.724516e+07  10376s
  494740    1.2826940e+07   0.000000e+00   1.625697e+09  10380s
  495676    1.2826941e+07   0.000000e+00   2.589140e+07  10385s
  496768    1.2826941e+07   0.000000e+00   3.838776e+07  10391s
  497704    1.2826941e+07   0.000000e+00   2.571050e+08  10396s
  498640    1.2826941e+07   0.000000e+00   4.996945e+07  10400s
  499576    1.2826941e+07   0.000000e+00   3.887457e+07  10405s
  500512    1.2826942e+07   0.000000e+00   5.518256e+07  10410s
  501448    1.2826942e+07   0.000000e+00   1.714505e+08  10415s
  502540    1.2826942e+07   0.000000e+00   2.713701e+07  10421s
  503476    1.2826943e+07   0.000000e+00   1.618513e+08  10426s
  504412    1.2826945e+07   0.000000e+00   2.903963e+07  10430s
  505348    1.2826945e+07   0.000000e+00   5.761880e+07  10435s
  506284    1.2826945e+07   0.000000e+00   7.412129e+07  10440s
  507220    1.2826945e+07   0.000000e+00   2.757999e+07  10446s
  508156    1.2826946e+07   0.000000e+00   3.217440e+07  10450s
  509092    1.2826946e+07   0.000000e+00   5.485128e+07  10456s
  510028    1.2826946e+07   0.000000e+00   4.805661e+07  10460s
  510964    1.2826947e+07   0.000000e+00   3.052191e+07  10465s
  511900    1.2826947e+07   0.000000e+00   8.172615e+07  10470s
  512836    1.2826948e+07   0.000000e+00   3.377540e+07  10475s
  513772    1.2826948e+07   0.000000e+00   6.030525e+07  10480s
  514708    1.2826948e+07   0.000000e+00   4.099418e+08  10486s
  515644    1.2826948e+07   0.000000e+00   7.769280e+07  10491s
  516424    1.2826948e+07   0.000000e+00   1.836223e+08  10495s
  517360    1.2826949e+07   0.000000e+00   3.075124e+07  10501s
  518296    1.2826949e+07   0.000000e+00   2.633342e+08  10505s
  519232    1.2826949e+07   0.000000e+00   1.464214e+07  10510s
  520168    1.2826950e+07   0.000000e+00   1.700515e+08  10515s
  521104    1.2826950e+07   0.000000e+00   1.648516e+07  10520s
  522196    1.2826950e+07   0.000000e+00   2.851625e+07  10525s
  523132    1.2826950e+07   0.000000e+00   5.459237e+07  10530s
  524068    1.2826950e+07   0.000000e+00   1.648593e+07  10536s
  525004    1.2826950e+07   0.000000e+00   7.191844e+07  10540s
  525940    1.2826951e+07   0.000000e+00   1.770455e+08  10545s
  526876    1.2826951e+07   0.000000e+00   8.496416e+07  10550s
  527812    1.2826951e+07   0.000000e+00   2.079644e+07  10556s
  528748    1.2826951e+07   0.000000e+00   1.827481e+07  10561s
  529528    1.2826951e+07   0.000000e+00   4.095268e+07  10565s
  530464    1.2826952e+07   0.000000e+00   4.325222e+07  10571s
  531244    1.2826952e+07   0.000000e+00   2.296314e+07  10575s
  532180    1.2826952e+07   0.000000e+00   3.232129e+07  10580s
  532960    1.2826952e+07   0.000000e+00   6.684362e+07  10585s
  534052    1.2826953e+07   0.000000e+00   1.306456e+08  10591s
  534988    1.2826953e+07   0.000000e+00   4.007024e+08  10596s
  535768    1.2826953e+07   0.000000e+00   4.998380e+07  10600s
  536548    1.2826953e+07   0.000000e+00   2.210707e+07  10605s
  537484    1.2826953e+07   0.000000e+00   3.284923e+08  10611s
  538264    1.2826953e+07   0.000000e+00   5.100871e+07  10616s
  539044    1.2826954e+07   0.000000e+00   1.135189e+08  10620s
  539824    1.2826954e+07   0.000000e+00   1.329773e+08  10625s
  540760    1.2826954e+07   0.000000e+00   2.780948e+07  10631s
  541540    1.2826954e+07   0.000000e+00   1.697007e+08  10635s
  542320    1.2826954e+07   0.000000e+00   2.024451e+07  10640s
  543100    1.2826954e+07   0.000000e+00   7.546768e+06  10645s
  544192    1.2826954e+07   0.000000e+00   1.726947e+07  10651s
  544972    1.2826955e+07   0.000000e+00   2.009459e+07  10655s
  545908    1.2826955e+07   0.000000e+00   7.770802e+07  10660s
  546844    1.2826955e+07   0.000000e+00   5.628057e+07  10666s
  547624    1.2826955e+07   0.000000e+00   9.821960e+06  10670s
  548560    1.2826955e+07   0.000000e+00   7.185825e+08  10676s
  549340    1.2826955e+07   0.000000e+00   3.068271e+07  10681s
  550276    1.2826955e+07   0.000000e+00   3.346424e+07  10686s
  551212    1.2826956e+07   0.000000e+00   3.593467e+07  10691s
  551992    1.2826956e+07   0.000000e+00   3.540893e+07  10695s
  553084    1.2826956e+07   0.000000e+00   1.075287e+07  10701s
  553864    1.2826956e+07   0.000000e+00   3.390956e+07  10705s
  554800    1.2826956e+07   0.000000e+00   3.791117e+07  10711s
  555580    1.2826956e+07   0.000000e+00   1.946273e+07  10715s
  556516    1.2826956e+07   0.000000e+00   1.404097e+07  10721s
  557296    1.2826956e+07   0.000000e+00   1.615577e+07  10725s
  558232    1.2826956e+07   0.000000e+00   4.258293e+07  10731s
  559012    1.2826957e+07   0.000000e+00   2.194597e+07  10735s
  559948    1.2826957e+07   0.000000e+00   1.861144e+07  10741s
  560884    1.2826957e+07   0.000000e+00   1.356948e+07  10746s
  561664    1.2826957e+07   0.000000e+00   1.800032e+08  10750s
  562600    1.2826957e+07   0.000000e+00   2.119013e+07  10755s
  563536    1.2826957e+07   0.000000e+00   2.643126e+07  10760s
  564472    1.2826957e+07   0.000000e+00   3.336551e+07  10766s
  565252    1.2826958e+07   0.000000e+00   1.612375e+08  10770s
  566188    1.2826958e+07   0.000000e+00   2.565593e+07  10776s
  566968    1.2826958e+07   0.000000e+00   1.485760e+07  10780s
  567904    1.2826958e+07   0.000000e+00   1.283158e+07  10786s
  568684    1.2826958e+07   0.000000e+00   3.205713e+07  10790s
  569620    1.2826958e+07   0.000000e+00   2.090757e+07  10796s
  570400    1.2826958e+07   0.000000e+00   4.860619e+07  10800s
  571180    1.2826958e+07   0.000000e+00   1.941669e+07  10805s
  572116    1.2826958e+07   0.000000e+00   1.309136e+07  10811s
  572896    1.2826958e+07   0.000000e+00   1.213657e+07  10815s
  573832    1.2826958e+07   0.000000e+00   1.340315e+07  10821s
  574612    1.2826958e+07   0.000000e+00   1.311917e+07  10825s
  575548    1.2826958e+07   0.000000e+00   1.381136e+08  10830s
  576484    1.2826958e+07   0.000000e+00   1.062507e+07  10836s
  577264    1.2826959e+07   0.000000e+00   1.166966e+07  10840s
  578200    1.2826959e+07   0.000000e+00   4.935272e+07  10846s
  578980    1.2826959e+07   0.000000e+00   1.439839e+07  10851s
  579760    1.2826959e+07   0.000000e+00   9.890704e+06  10855s
  580696    1.2826959e+07   0.000000e+00   3.768336e+07  10861s
  581476    1.2826959e+07   0.000000e+00   3.022585e+07  10865s
  582412    1.2826959e+07   0.000000e+00   1.119520e+07  10871s
  583348    1.2826959e+07   0.000000e+00   2.110106e+07  10876s
  584284    1.2826959e+07   0.000000e+00   2.436925e+07  10881s
  585064    1.2826959e+07   0.000000e+00   4.434345e+07  10885s
  585844    1.2826959e+07   0.000000e+00   5.063256e+07  10890s
  586624    1.2826959e+07   0.000000e+00   3.307793e+07  10895s
  587560    1.2826960e+07   0.000000e+00   1.989038e+07  10901s
  588340    1.2826960e+07   0.000000e+00   5.235729e+07  10906s
  589120    1.2826960e+07   0.000000e+00   1.203419e+07  10910s
  590056    1.2826960e+07   0.000000e+00   2.179430e+07  10916s
  590680    1.2826960e+07   0.000000e+00   1.383588e+07  10920s
  591616    1.2826961e+07   0.000000e+00   1.564968e+07  10926s
  592396    1.2826961e+07   0.000000e+00   2.954600e+07  10930s
  593332    1.2826961e+07   0.000000e+00   7.557578e+08  10935s
  594268    1.2826962e+07   0.000000e+00   1.067029e+08  10941s
  595204    1.2826963e+07   0.000000e+00   2.787537e+07  10946s
  595984    1.2826963e+07   0.000000e+00   2.376873e+07  10950s
  596920    1.2826963e+07   0.000000e+00   1.823420e+07  10955s
  597856    1.2826963e+07   0.000000e+00   5.400160e+06  10961s
  598636    1.2826963e+07   0.000000e+00   2.425936e+08  10966s
  599416    1.2826963e+07   0.000000e+00   4.263535e+07  10970s
  600352    1.2826963e+07   0.000000e+00   6.258597e+06  10976s
  601132    1.2826963e+07   0.000000e+00   1.111192e+07  10980s
  602068    1.2826963e+07   0.000000e+00   2.448844e+08  10986s
  602848    1.2826963e+07   0.000000e+00   9.775085e+06  10990s
  603784    1.2826964e+07   0.000000e+00   5.889718e+07  10996s
  604564    1.2826966e+07   0.000000e+00   2.754742e+08  11000s
  605500    1.2826966e+07   0.000000e+00   3.032561e+07  11005s
  606436    1.2826966e+07   0.000000e+00   9.533698e+07  11010s
  607372    1.2826968e+07   0.000000e+00   7.194108e+06  11016s
  608308    1.2826968e+07   0.000000e+00   5.819828e+06  11020s
  609244    1.2826968e+07   0.000000e+00   3.325837e+07  11026s
  610024    1.2826968e+07   0.000000e+00   2.879898e+07  11030s
  610960    1.2826968e+07   0.000000e+00   6.970552e+06  11036s
  611740    1.2826968e+07   0.000000e+00   2.782354e+07  11040s
  612676    1.2826968e+07   0.000000e+00   7.988271e+06  11045s
  613612    1.2826968e+07   0.000000e+00   1.583552e+07  11050s
  614392    1.2826968e+07   0.000000e+00   2.245301e+07  11055s
  615328    1.2826968e+07   0.000000e+00   2.719249e+07  11061s
  616108    1.2826969e+07   0.000000e+00   3.022953e+07  11065s
  616888    1.2826969e+07   0.000000e+00   4.573810e+07  11070s
  617824    1.2826969e+07   0.000000e+00   8.081481e+06  11075s
  618604    1.2826969e+07   0.000000e+00   7.499619e+07  11080s
  619540    1.2826969e+07   0.000000e+00   1.199445e+07  11086s
  620320    1.2826969e+07   0.000000e+00   4.471391e+07  11090s
  621256    1.2826969e+07   0.000000e+00   6.124368e+07  11095s
  622036    1.2826969e+07   0.000000e+00   6.201407e+07  11100s
  622972    1.2826969e+07   0.000000e+00   1.295503e+07  11106s
  623752    1.2826969e+07   0.000000e+00   1.400663e+07  11110s
  624688    1.2826969e+07   0.000000e+00   1.685876e+07  11115s
  625468    1.2826969e+07   0.000000e+00   8.546011e+06  11120s
  626404    1.2826969e+07   0.000000e+00   1.224344e+08  11126s
  627184    1.2826969e+07   0.000000e+00   5.774198e+06  11131s
  627964    1.2826969e+07   0.000000e+00   5.448143e+06  11135s
  628744    1.2826969e+07   0.000000e+00   2.109241e+07  11140s
  629524    1.2826969e+07   0.000000e+00   1.244153e+07  11145s
  630460    1.2826969e+07   0.000000e+00   7.264354e+06  11151s
  631240    1.2826970e+07   0.000000e+00   4.300525e+07  11155s
  632176    1.2826970e+07   0.000000e+00   5.173495e+06  11160s
  633112    1.2826970e+07   0.000000e+00   2.084811e+07  11165s
  634048    1.2826970e+07   0.000000e+00   1.857406e+07  11171s
  634828    1.2826970e+07   0.000000e+00   4.247189e+06  11176s
  635452    1.2826970e+07   0.000000e+00   8.797411e+06  11180s
  636388    1.2826970e+07   0.000000e+00   9.189355e+06  11186s
  637168    1.2826970e+07   0.000000e+00   5.707963e+06  11190s
  638104    1.2826970e+07   0.000000e+00   3.148312e+06  11196s
  638728    1.2826970e+07   0.000000e+00   1.770067e+08  11200s
  639664    1.2826970e+07   0.000000e+00   1.491276e+07  11205s
  640600    1.2826970e+07   0.000000e+00   6.204951e+06  11211s
  641380    1.2826971e+07   0.000000e+00   5.775616e+06  11215s
  642316    1.2826971e+07   0.000000e+00   2.860554e+07  11221s
  643096    1.2826971e+07   0.000000e+00   2.714481e+07  11225s
  643876    1.2826971e+07   0.000000e+00   2.743147e+06  11230s
  644656    1.2826971e+07   0.000000e+00   1.533722e+07  11235s
  645592    1.2826971e+07   0.000000e+00   5.576007e+06  11241s
  646372    1.2826971e+07   0.000000e+00   4.699490e+06  11246s
  647152    1.2826971e+07   0.000000e+00   8.714966e+06  11251s
  648088    1.2826971e+07   0.000000e+00   1.796174e+07  11256s
  648868    1.2826971e+07   0.000000e+00   9.037261e+06  11260s
  649648    1.2826971e+07   0.000000e+00   1.563348e+07  11265s
  650584    1.2826971e+07   0.000000e+00   1.041732e+07  11270s
  651364    1.2826971e+07   0.000000e+00   2.477042e+10  11275s
  652300    1.2826971e+07   0.000000e+00   7.851296e+06  11280s
  653236    1.2826971e+07   0.000000e+00   2.119836e+07  11286s
  654016    1.2826971e+07   0.000000e+00   2.610110e+06  11290s
  654952    1.2826972e+07   0.000000e+00   2.155691e+07  11296s
  655732    1.2826972e+07   0.000000e+00   2.311427e+06  11300s
  656668    1.2826972e+07   0.000000e+00   3.808401e+06  11306s
  657448    1.2826972e+07   0.000000e+00   3.893421e+06  11310s
  658384    1.2826972e+07   0.000000e+00   6.295777e+06  11316s
  659164    1.2826972e+07   0.000000e+00   1.331596e+07  11320s
  660100    1.2826972e+07   0.000000e+00   7.085438e+06  11325s
  661036    1.2826972e+07   0.000000e+00   3.867637e+06  11331s
  661816    1.2826972e+07   0.000000e+00   3.306889e+06  11335s
  662752    1.2826972e+07   0.000000e+00   4.025229e+06  11341s
  663532    1.2826972e+07   0.000000e+00   4.165952e+06  11345s
  664468    1.2826972e+07   0.000000e+00   5.201034e+06  11350s
  665404    1.2826972e+07   0.000000e+00   5.837547e+06  11356s
  666184    1.2826972e+07   0.000000e+00   2.138108e+06  11360s
  666964    1.2826972e+07   0.000000e+00   6.752031e+06  11365s
  667900    1.2826972e+07   0.000000e+00   1.633272e+07  11370s
  668836    1.2826972e+07   0.000000e+00   5.171303e+06  11376s
  669616    1.2826972e+07   0.000000e+00   1.917408e+06  11380s
  670552    1.2826972e+07   0.000000e+00   6.244977e+06  11386s
  671332    1.2826972e+07   0.000000e+00   2.866190e+06  11390s
  672268    1.2826972e+07   0.000000e+00   1.806434e+07  11395s
  673048    1.2826972e+07   0.000000e+00   5.927742e+06  11400s
  673984    1.2826972e+07   0.000000e+00   2.537205e+06  11406s
  674764    1.2826972e+07   0.000000e+00   1.888228e+06  11411s
  675544    1.2826972e+07   0.000000e+00   6.906919e+06  11415s
  676480    1.2826972e+07   0.000000e+00   1.420979e+06  11421s
  677260    1.2826972e+07   0.000000e+00   6.007158e+06  11425s
  678040    1.2826972e+07   0.000000e+00   2.865418e+06  11431s
  678820    1.2826972e+07   0.000000e+00   1.658782e+06  11436s
  679600    1.2826972e+07   0.000000e+00   6.486419e+06  11441s
  680224    1.2826972e+07   0.000000e+00   7.874280e+06  11445s
  681004    1.2826972e+07   0.000000e+00   9.988331e+06  11451s
  681784    1.2826972e+07   0.000000e+00   4.966034e+06  11455s
  682564    1.2826972e+07   0.000000e+00   1.176341e+06  11460s
  683500    1.2826972e+07   0.000000e+00   2.242169e+06  11466s
  684280    1.2826972e+07   0.000000e+00   2.068785e+06  11471s
  685060    1.2826972e+07   0.000000e+00   2.125271e+06  11476s
  685840    1.2826973e+07   0.000000e+00   1.929152e+06  11480s
  686776    1.2826973e+07   0.000000e+00   1.699998e+06  11486s
  687556    1.2826973e+07   0.000000e+00   2.776019e+06  11491s
  688336    1.2826973e+07   0.000000e+00   1.064653e+06  11495s
  689272    1.2826973e+07   0.000000e+00   2.941406e+06  11501s
  690052    1.2826973e+07   0.000000e+00   1.701475e+06  11506s
  690832    1.2826973e+07   0.000000e+00   1.155072e+06  11510s
  691768    1.2826973e+07   0.000000e+00   2.639741e+06  11516s
  692548    1.2826973e+07   0.000000e+00   1.959330e+06  11520s
  693328    1.2826973e+07   0.000000e+00   3.251566e+06  11525s
  694264    1.2826973e+07   0.000000e+00   3.914253e+06  11531s
  695044    1.2826973e+07   0.000000e+00   2.852634e+06  11535s
  695980    1.2826973e+07   0.000000e+00   7.298399e+06  11541s
  696760    1.2826973e+07   0.000000e+00   7.732894e+06  11545s
  697696    1.2826973e+07   0.000000e+00   2.757272e+06  11550s
  698632    1.2826973e+07   0.000000e+00   4.673051e+06  11556s
  699412    1.2826973e+07   0.000000e+00   1.933762e+06  11560s
  700348    1.2826973e+07   0.000000e+00   2.176790e+06  11566s
  701128    1.2826973e+07   0.000000e+00   5.770450e+05  11571s
  701908    1.2826973e+07   0.000000e+00   1.929814e+06  11575s
  702688    1.2826973e+07   0.000000e+00   2.521431e+06  11580s
  703624    1.2826973e+07   0.000000e+00   3.984948e+06  11586s
  704404    1.2826973e+07   0.000000e+00   1.095792e+07  11590s
  705340    1.2826973e+07   0.000000e+00   7.141824e+05  11596s
  706120    1.2826973e+07   0.000000e+00   1.004413e+06  11600s
  706900    1.2826973e+07   0.000000e+00   7.730167e+05  11605s
  707836    1.2826973e+07   0.000000e+00   1.057433e+06  11611s
  708616    1.2826973e+07   0.000000e+00   1.178350e+06  11615s
  709396    1.2826973e+07   0.000000e+00   4.873025e+06  11620s
  710332    1.2826973e+07   0.000000e+00   1.425829e+06  11626s
  711112    1.2826973e+07   0.000000e+00   7.380439e+06  11630s
  712048    1.2826973e+07   0.000000e+00   2.290760e+07  11636s
  712828    1.2826973e+07   0.000000e+00   3.940173e+06  11640s
  713764    1.2826973e+07   0.000000e+00   4.154020e+06  11646s
  714544    1.2826973e+07   0.000000e+00   1.230603e+06  11651s
  715324    1.2826973e+07   0.000000e+00   1.659799e+06  11656s
  716104    1.2826973e+07   0.000000e+00   1.088548e+06  11661s
  716884    1.2826974e+07   0.000000e+00   6.290582e+05  11666s
  717664    1.2826974e+07   0.000000e+00   2.233524e+06  11670s
  718600    1.2826974e+07   0.000000e+00   2.778215e+06  11676s
  719380    1.2826974e+07   0.000000e+00   9.086058e+05  11681s
  720160    1.2826974e+07   0.000000e+00   8.546821e+05  11686s
  720940    1.2826974e+07   0.000000e+00   3.382771e+06  11691s
  721564    1.2826974e+07   0.000000e+00   7.904868e+05  11695s
  722344    1.2826974e+07   0.000000e+00   1.496986e+06  11700s
  723124    1.2826974e+07   0.000000e+00   3.059189e+06  11706s
  723904    1.2826974e+07   0.000000e+00   4.624729e+05  11710s
  724684    1.2826974e+07   0.000000e+00   8.815059e+05  11715s
  725620    1.2826974e+07   0.000000e+00   3.545924e+05  11721s
  726400    1.2826974e+07   0.000000e+00   4.786984e+05  11726s
  727180    1.2826974e+07   0.000000e+00   1.668169e+05  11731s
  727960    1.2826974e+07   0.000000e+00   4.105820e+05  11735s
  728740    1.2826974e+07   0.000000e+00   5.174858e+05  11740s
  729676    1.2826974e+07   0.000000e+00   1.713574e+06  11746s
  730456    1.2826974e+07   0.000000e+00   1.949016e+05  11751s
  731236    1.2826974e+07   0.000000e+00   4.978949e+05  11755s
  732172    1.2826974e+07   0.000000e+00   1.075601e+06  11761s
  732952    1.2826974e+07   0.000000e+00   8.845756e+05  11765s
  733732    1.2826974e+07   0.000000e+00   1.021194e+06  11770s
  734668    1.2826974e+07   0.000000e+00   6.070904e+05  11776s
  735448    1.2826974e+07   0.000000e+00   3.849240e+05  11780s
  736384    1.2826974e+07   0.000000e+00   1.349321e+05  11786s
  737164    1.2826974e+07   0.000000e+00   1.937357e+05  11790s
  737944    1.2826974e+07   0.000000e+00   1.150551e+05  11795s
  738880    1.2826974e+07   0.000000e+00   5.030027e+05  11801s
  739660    1.2826974e+07   0.000000e+00   1.023568e+05  11805s
  740596    1.2826974e+07   0.000000e+00   1.610198e+05  11811s
  741376    1.2826974e+07   0.000000e+00   1.034070e+06  11815s
  742312    1.2826974e+07   0.000000e+00   1.306161e+05  11821s
  743092    1.2826974e+07   0.000000e+00   1.344166e+05  11825s
  743876    1.2826974e+07   0.000000e+00   2.255774e+05  11834s
  744036    1.2826974e+07   0.000000e+00   2.113148e+05  11838s
  744186    1.2826974e+07   0.000000e+00   3.217775e+05  11842s
  744346    1.2826974e+07   0.000000e+00   1.534334e+06  11847s
  744506    1.2826974e+07   0.000000e+00   7.089233e+05  11851s
  744666    1.2826974e+07   0.000000e+00   2.823826e+05  11855s
  744986    1.2826974e+07   0.000000e+00   2.955919e+05  11864s
  745146    1.2826974e+07   0.000000e+00   1.585852e+05  11868s
  745306    1.2826974e+07   0.000000e+00   3.212867e+05  11872s
  745456    1.2826974e+07   0.000000e+00   2.110126e+05  11876s
  745606    1.2826974e+07   0.000000e+00   4.385072e+05  11880s
  745776    1.2826974e+07   0.000000e+00   1.249319e+05  11885s
  746106    1.2826974e+07   0.000000e+00   5.114502e+05  11894s
  746266    1.2826974e+07   0.000000e+00   3.958369e+05  11899s
  746416    1.2826974e+07   0.000000e+00   1.397051e+06  11903s
  746576    1.2826974e+07   0.000000e+00   8.529603e+05  11907s
  746726    1.2826974e+07   0.000000e+00   5.925458e+05  11911s
  746886    1.2826974e+07   0.000000e+00   4.433755e+05  11915s
  747196    1.2826974e+07   0.000000e+00   2.977653e+05  11924s
  747346    1.2826974e+07   0.000000e+00   1.314970e+05  11928s
  747506    1.2826974e+07   0.000000e+00   3.438765e+05  11933s
  747666    1.2826974e+07   0.000000e+00   1.099278e+05  11937s
  747836    1.2826974e+07   0.000000e+00   6.994603e+05  11941s
  748006    1.2826974e+07   0.000000e+00   1.338802e+05  11946s
  748166    1.2826974e+07   0.000000e+00   1.275677e+05  11950s
  748496    1.2826974e+07   0.000000e+00   4.351223e+05  11959s
  748656    1.2826974e+07   0.000000e+00   1.363054e+05  11963s
  748816    1.2826974e+07   0.000000e+00   1.023166e+05  11967s
  748976    1.2826974e+07   0.000000e+00   2.303647e+05  11972s
  749136    1.2826974e+07   0.000000e+00   8.180167e+04  11977s
  749296    1.2826974e+07   0.000000e+00   3.175132e+05  11981s
  749456    1.2826974e+07   0.000000e+00   2.393455e+05  11986s
  749616    1.2826974e+07   0.000000e+00   2.006992e+05  11990s
  749936    1.2826974e+07   0.000000e+00   1.071272e+05  11999s
  750096    1.2826974e+07   0.000000e+00   8.160774e+04  12003s
  750266    1.2826974e+07   0.000000e+00   7.102300e+04  12008s
  750426    1.2826974e+07   0.000000e+00   1.552117e+05  12012s
  750586    1.2826974e+07   0.000000e+00   5.436499e+04  12016s
  750746    1.2826974e+07   0.000000e+00   1.050045e+05  12021s
  751066    1.2826974e+07   0.000000e+00   5.132107e+05  12029s
  751226    1.2826974e+07   0.000000e+00   1.727072e+05  12034s
  751376    1.2826974e+07   0.000000e+00   1.776522e+05  12038s
  751536    1.2826974e+07   0.000000e+00   1.713521e+05  12042s
  751696    1.2826974e+07   0.000000e+00   1.399683e+05  12046s
  751856    1.2826974e+07   0.000000e+00   1.911317e+05  12051s
  752156    1.2826974e+07   0.000000e+00   1.399604e+05  12059s
  752306    1.2826974e+07   0.000000e+00   1.308336e+05  12063s
  752466    1.2826974e+07   0.000000e+00   1.025383e+05  12067s
  752626    1.2826974e+07   0.000000e+00   2.035485e+05  12071s
  752796    1.2826974e+07   0.000000e+00   6.020940e+04  12076s
  752956    1.2826974e+07   0.000000e+00   4.383439e+05  12080s
  753266    1.2826974e+07   0.000000e+00   1.733599e+05  12089s
  753416    1.2826974e+07   0.000000e+00   1.152556e+06  12093s
  753566    1.2826974e+07   0.000000e+00   1.990373e+05  12097s
  753726    1.2826974e+07   0.000000e+00   5.772862e+05  12101s
  753886    1.2826974e+07   0.000000e+00   1.435168e+05  12106s
  754216    1.2826974e+07   0.000000e+00   1.510298e+05  12114s
  754376    1.2826974e+07   0.000000e+00   5.821326e+05  12119s
  754536    1.2826974e+07   0.000000e+00   1.759141e+05  12123s
  754676    1.2826974e+07   0.000000e+00   5.777085e+04  12127s
  754826    1.2826974e+07   0.000000e+00   1.268976e+05  12131s
  755126    1.2826974e+07   0.000000e+00   8.947118e+04  12139s
  755286    1.2826974e+07   0.000000e+00   5.624787e+04  12143s
  755446    1.2826974e+07   0.000000e+00   7.529259e+04  12148s
  755606    1.2826974e+07   0.000000e+00   1.613606e+05  12152s
  755766    1.2826974e+07   0.000000e+00   1.540369e+06  12156s
  755926    1.2826974e+07   0.000000e+00   1.518972e+05  12161s
  756086    1.2826974e+07   0.000000e+00   8.990725e+05  12165s
  756396    1.2826974e+07   0.000000e+00   1.613298e+05  12173s
  756536    1.2826974e+07   0.000000e+00   1.503251e+05  12177s
  756696    1.2826974e+07   0.000000e+00   5.619208e+04  12182s
  756846    1.2826974e+07   0.000000e+00   1.046365e+05  12186s
  756996    1.2826974e+07   0.000000e+00   7.860015e+04  12190s
  757306    1.2826974e+07   0.000000e+00   8.220210e+04  12198s
  757466    1.2826974e+07   0.000000e+00   1.535981e+05  12203s
  757616    1.2826974e+07   0.000000e+00   7.675372e+04  12207s
  757776    1.2826974e+07   0.000000e+00   8.062638e+04  12211s
  757936    1.2826974e+07   0.000000e+00   3.448669e+04  12215s
  758246    1.2826974e+07   0.000000e+00   1.301312e+05  12223s
  758396    1.2826974e+07   0.000000e+00   5.538022e+04  12227s
  758556    1.2826974e+07   0.000000e+00   6.508279e+04  12231s
  758716    1.2826974e+07   0.000000e+00   2.284442e+05  12236s
  758876    1.2826974e+07   0.000000e+00   3.585387e+05  12240s
  759196    1.2826974e+07   0.000000e+00   1.165436e+05  12249s
  759356    1.2826974e+07   0.000000e+00   7.869190e+04  12253s
  759516    1.2826974e+07   0.000000e+00   8.695066e+04  12257s
  759676    1.2826974e+07   0.000000e+00   2.890930e+04  12262s
  759836    1.2826974e+07   0.000000e+00   1.854904e+05  12266s
  759996    1.2826974e+07   0.000000e+00   2.070168e+05  12270s
  760326    1.2826974e+07   0.000000e+00   2.802932e+05  12279s
  760486    1.2826974e+07   0.000000e+00   7.453044e+05  12283s
  760646    1.2826974e+07   0.000000e+00   7.399175e+04  12288s
  760806    1.2826974e+07   0.000000e+00   2.027014e+05  12292s
  760956    1.2826974e+07   0.000000e+00   9.718420e+04  12296s
  761116    1.2826974e+07   0.000000e+00   1.744259e+05  12300s
  761446    1.2826974e+07   0.000000e+00   8.085894e+04  12309s
  761606    1.2826974e+07   0.000000e+00   3.505821e+04  12313s
  761766    1.2826974e+07   0.000000e+00   6.059190e+04  12318s
  761946    1.2826974e+07   0.000000e+00   1.658577e+05  12322s
  762116    1.2826974e+07   0.000000e+00   4.130801e+04  12327s
  762276    1.2826974e+07   0.000000e+00   2.054953e+04  12331s
  762446    1.2826974e+07   0.000000e+00   3.709072e+04  12336s
  762616    1.2826974e+07   0.000000e+00   3.873063e+04  12340s
  762936    1.2826974e+07   0.000000e+00   4.305129e+04  12349s
  763096    1.2826974e+07   0.000000e+00   4.359354e+04  12353s
  763256    1.2826974e+07   0.000000e+00   3.951428e+04  12357s
  763416    1.2826974e+07   0.000000e+00   2.584414e+04  12362s
  763576    1.2826974e+07   0.000000e+00   1.540125e+05  12366s
  763736    1.2826974e+07   0.000000e+00   2.974930e+04  12371s
  764056    1.2826974e+07   0.000000e+00   2.919328e+03  12379s
  764173    1.2824966e+07   1.056811e+00   0.000000e+00  12383s
  764303    1.2824966e+07   2.855979e+02   0.000000e+00  12389s
  764443    1.2824966e+07   3.338222e+01   0.000000e+00  12394s
  764543    1.2824966e+07   6.845520e+01   0.000000e+00  12397s
  764683    1.2824966e+07   9.889739e+00   0.000000e+00  12404s
  764823    1.2824966e+07   9.189133e+00   0.000000e+00  12408s
  764923    1.2824966e+07   3.111034e+01   0.000000e+00  12412s
  765053    1.2824966e+07   1.440333e+01   0.000000e+00  12417s
  765183    1.2824966e+07   3.867479e+01   0.000000e+00  12422s
  765313    1.2824966e+07   2.462735e+01   0.000000e+00  12428s
  765433    1.2824966e+07   3.485664e+01   0.000000e+00  12432s
  765563    1.2824965e+07   3.018823e+01   0.000000e+00  12437s
  765703    1.2824965e+07   3.425053e+01   0.000000e+00  12442s
  765843    1.2824965e+07   2.133276e+01   0.000000e+00  12447s
  765943    1.2824965e+07   6.281077e+01   0.000000e+00  12451s
  766183    1.2824965e+07   2.507533e+02   0.000000e+00  12458s
  766283    1.2824965e+07   1.438233e+02   0.000000e+00  12461s
  766483    1.2824965e+07   1.326598e+02   0.000000e+00  12468s
  766583    1.2824965e+07   8.942031e+01   0.000000e+00  12471s
  766783    1.2824964e+07   3.793833e+02   0.000000e+00  12478s
  766883    1.2824964e+07   5.508728e+01   0.000000e+00  12481s
  767113    1.2824964e+07   5.187784e+01   0.000000e+00  12488s
  767213    1.2824964e+07   9.526911e+01   0.000000e+00  12492s
  767333    1.2824964e+07   7.227343e+02   0.000000e+00  12496s
  767583    1.2824964e+07   1.099230e+03   0.000000e+00  12504s
  767713    1.2824963e+07   4.306113e+02   0.000000e+00  12509s
  767833    1.2824963e+07   1.583313e+03   0.000000e+00  12513s
  767953    1.2824963e+07   2.648855e+02   0.000000e+00  12518s
  768073    1.2824963e+07   2.676468e+02   0.000000e+00  12522s
  768203    1.2824963e+07   1.350799e+03   0.000000e+00  12527s
  768323    1.2824962e+07   1.445000e+02   0.000000e+00  12531s
  768443    1.2824962e+07   1.374657e+02   0.000000e+00  12535s
  768573    1.2824962e+07   1.414474e+02   0.000000e+00  12540s
  768813    1.2824962e+07   6.819671e+01   0.000000e+00  12549s
  768943    1.2824962e+07   4.234785e+02   0.000000e+00  12554s
  769063    1.2824962e+07   2.328305e+03   0.000000e+00  12559s
  769183    1.2824962e+07   3.260379e+02   0.000000e+00  12563s
  769323    1.2824962e+07   1.395970e+03   0.000000e+00  12568s
  769453    1.2824962e+07   1.424250e+02   0.000000e+00  12573s
  769583    1.2824962e+07   1.477147e+02   0.000000e+00  12577s
  769683    1.2824962e+07   9.297011e+02   0.000000e+00  12581s
  769813    1.2824962e+07   8.011112e+01   0.000000e+00  12585s
  770013    1.2824962e+07   4.116329e+02   0.000000e+00  12592s
  770113    1.2824962e+07   8.965721e+01   0.000000e+00  12596s
  770353    1.2824962e+07   1.729051e+02   0.000000e+00  12604s
  770473    1.2824961e+07   1.444582e+02   0.000000e+00  12609s
  770593    1.2824961e+07   4.705035e+02   0.000000e+00  12613s
  770693    1.2824961e+07   1.461691e+02   0.000000e+00  12617s
  770823    1.2824961e+07   6.164516e+00   0.000000e+00  12622s
  771023    1.2824961e+07   4.127189e+01   0.000000e+00  12628s
  771153    1.2824961e+07   8.430361e+01   0.000000e+00  12632s
  771253    1.2824961e+07   7.672819e+01   0.000000e+00  12636s
  771373    1.2824961e+07   8.998882e+01   0.000000e+00  12640s
  771613    1.2824961e+07   2.955150e+02   0.000000e+00  12649s
  771733    1.2824960e+07   1.566440e+03   0.000000e+00  12653s
  771863    1.2824960e+07   5.877579e+02   0.000000e+00  12658s
  771963    1.2824960e+07   7.548175e+04   0.000000e+00  12661s
  772093    1.2824959e+07   6.142103e+04   0.000000e+00  12666s
  772233    1.2824959e+07   2.496681e+03   0.000000e+00  12671s
  772473    1.2824958e+07   5.368759e+04   0.000000e+00  12679s
  772593    1.2824958e+07   5.241366e+04   0.000000e+00  12683s
  772713    1.2824958e+07   4.017353e+04   0.000000e+00  12688s
  772843    1.2824957e+07   4.859804e+04   0.000000e+00  12692s
  772983    1.2824956e+07   4.423450e+04   0.000000e+00  12698s
  773083    1.2824956e+07   4.929086e+00   0.000000e+00  12701s
  773203    1.2824955e+07   4.361679e+04   0.000000e+00  12706s
  773323    1.2824954e+07   6.889320e+04   0.000000e+00  12710s
  773563    1.2824952e+07   6.866356e+04   0.000000e+00  12719s
  773683    1.2824952e+07   9.117441e+04   0.000000e+00  12724s
  773783    1.2824952e+07   4.494805e+04   0.000000e+00  12727s
  773913    1.2824951e+07   6.037087e+04   0.000000e+00  12732s
  774043    1.2824951e+07   2.198351e+04   0.000000e+00  12737s
  774163    1.2824949e+07   9.303087e+03   0.000000e+00  12741s
  774283    1.2824949e+07   1.850683e+04   0.000000e+00  12747s
  774423    1.2824949e+07   1.834076e+04   0.000000e+00  12753s
  774563    1.2824949e+07   7.359035e+03   0.000000e+00  12759s
  774663    1.2824949e+07   7.930231e+03   0.000000e+00  12764s
  774793    1.2824949e+07   7.107137e+03   0.000000e+00  12770s
  775013    1.2824948e+07   9.766135e+03   0.000000e+00  12779s
  775113    1.2824948e+07   9.710261e+03   0.000000e+00  12783s
  775243    1.2824948e+07   1.084852e+04   0.000000e+00  12788s
  775383    1.2824948e+07   1.255997e+04   0.000000e+00  12793s
  775523    1.2824948e+07   1.056322e+04   0.000000e+00  12798s
  775623    1.2824948e+07   9.739354e+03   0.000000e+00  12802s
  775723    1.2824948e+07   9.702376e+03   0.000000e+00  12806s
  775853    1.2824947e+07   1.008153e+04   0.000000e+00  12811s
  775983    1.2824947e+07   2.302920e+03   0.000000e+00  12815s
  776203    1.2824946e+07   2.225240e+03   0.000000e+00  12823s
  776323    1.2824946e+07   2.691355e+03   0.000000e+00  12828s
  776443    1.2824946e+07   2.228320e+03   0.000000e+00  12832s
  776563    1.2824946e+07   2.862437e+03   0.000000e+00  12836s
  776683    1.2824946e+07   2.662547e+03   0.000000e+00  12841s
  776803    1.2824946e+07   2.701620e+03   0.000000e+00  12845s
  777043    1.2824946e+07   2.845388e+03   0.000000e+00  12854s
  777163    1.2824946e+07   2.684296e+03   0.000000e+00  12859s
  777293    1.2824945e+07   2.098334e+04   0.000000e+00  12864s
  777413    1.2824944e+07   2.325525e+04   0.000000e+00  12868s
  777543    1.2824943e+07   8.344529e+03   0.000000e+00  12873s
  777663    1.2824943e+07   6.438350e+03   0.000000e+00  12878s
  777793    1.2824942e+07   5.946711e+03   0.000000e+00  12883s
  777893    1.2824942e+07   5.396556e+03   0.000000e+00  12886s
  777993    1.2824942e+07   5.265839e+03   0.000000e+00  12890s
  778123    1.2824941e+07   7.950785e+03   0.000000e+00  12895s
  778353    1.2824941e+07   4.910933e+03   0.000000e+00  12904s
  778493    1.2824941e+07   6.468991e+03   0.000000e+00  12909s
  778593    1.2824941e+07   7.706709e+03   0.000000e+00  12913s
  778723    1.2824940e+07   6.593842e+03   0.000000e+00  12918s
  778853    1.2824940e+07   7.275888e+03   0.000000e+00  12923s
  778973    1.2824939e+07   7.125247e+03   0.000000e+00  12927s
  779103    1.2824939e+07   5.774203e+03   0.000000e+00  12932s
  779203    1.2824939e+07   5.844033e+03   0.000000e+00  12936s
  779403    1.2824939e+07   6.105586e+03   0.000000e+00  12943s
  779543    1.2824939e+07   6.272335e+03   0.000000e+00  12949s
  779673    1.2824938e+07   1.003394e+04   0.000000e+00  12953s
  779803    1.2824938e+07   5.884509e+03   0.000000e+00  12958s
  779903    1.2824938e+07   5.468672e+00   0.000000e+00  12962s
  780003    1.2824938e+07   3.882135e+00   0.000000e+00  12965s
  780203    1.2824938e+07   2.012484e+00   0.000000e+00  12972s
  780313    1.2824938e+07   2.101087e+00   0.000000e+00  12976s
  780513    1.2824938e+07   6.077287e+00   0.000000e+00  12983s
  780613    1.2824938e+07   6.449702e+00   0.000000e+00  12986s
  780813    1.2824938e+07   1.115232e+00   0.000000e+00  12993s
  780913    1.2824938e+07   6.443281e-01   0.000000e+00  12997s
  781013    1.2824938e+07   4.251999e-01   0.000000e+00  13000s
  781213    1.2824938e+07   4.921242e+00   0.000000e+00  13007s
  781313    1.2824938e+07   3.587515e+00   0.000000e+00  13011s
  781513    1.2824938e+07   1.202429e+00   0.000000e+00  13017s
  781613    1.2824938e+07   9.124111e+00   0.000000e+00  13021s
  781813    1.2824938e+07   7.722423e-01   0.000000e+00  13028s
  781913    1.2824938e+07   1.260842e+00   0.000000e+00  13031s
  782113    1.2824938e+07   1.194439e+00   0.000000e+00  13038s
  782213    1.2824938e+07   1.347502e+00   0.000000e+00  13041s
  782413    1.2824938e+07   1.288978e+00   0.000000e+00  13049s
  782513    1.2824938e+07   8.888668e-01   0.000000e+00  13052s
  782613    1.2824938e+07   8.156687e-01   0.000000e+00  13056s
  782813    1.2824938e+07   8.469961e-01   0.000000e+00  13063s
  782913    1.2824938e+07   5.777996e-01   0.000000e+00  13066s
  783113    1.2824938e+07   9.112018e-01   0.000000e+00  13073s
  783213    1.2824938e+07   1.752129e+00   0.000000e+00  13076s
  783413    1.2824938e+07   1.199378e+00   0.000000e+00  13083s
  783513    1.2824938e+07   7.681915e-01   0.000000e+00  13086s
  783713    1.2824938e+07   1.256881e+00   0.000000e+00  13093s
  783813    1.2824938e+07   2.726258e+00   0.000000e+00  13096s
  784013    1.2824938e+07   1.273596e+00   0.000000e+00  13103s
  784113    1.2824938e+07   1.371626e+00   0.000000e+00  13106s
  784313    1.2824938e+07   1.398814e+00   0.000000e+00  13113s
  784413    1.2824938e+07   1.902804e+00   0.000000e+00  13116s
  784613    1.2824938e+07   9.364914e-01   0.000000e+00  13123s
  784733    1.2824938e+07   1.811218e+00   0.000000e+00  13127s
  784833    1.2824938e+07   1.221175e+00   0.000000e+00  13130s
  785033    1.2824938e+07   1.490496e+00   0.000000e+00  13137s
  785133    1.2824938e+07   1.699894e+00   0.000000e+00  13140s
  785333    1.2824938e+07   4.761172e+00   0.000000e+00  13147s
  785433    1.2824938e+07   1.593729e+00   0.000000e+00  13150s
  785633    1.2824938e+07   2.090765e+00   0.000000e+00  13157s
  785733    1.2824938e+07   1.312085e+00   0.000000e+00  13160s
  785933    1.2824938e+07   2.212761e+00   0.000000e+00  13167s
  786033    1.2824938e+07   1.258626e+00   0.000000e+00  13170s
  786233    1.2824938e+07   5.384173e+00   0.000000e+00  13177s
  786343    1.2824938e+07   2.150387e+00   0.000000e+00  13180s
  786553    1.2824938e+07   1.260093e+00   0.000000e+00  13187s
  786653    1.2824938e+07   1.798618e+00   0.000000e+00  13191s
  786853    1.2824938e+07   1.861740e+00   0.000000e+00  13197s
  786953    1.2824938e+07   3.251271e+00   0.000000e+00  13201s
  787153    1.2824938e+07   1.238119e+00   0.000000e+00  13207s
  787253    1.2824938e+07   1.784966e+00   0.000000e+00  13211s
  787463    1.2824938e+07   1.001423e+00   0.000000e+00  13218s
  787563    1.2824938e+07   1.775039e+00   0.000000e+00  13221s
  787763    1.2824938e+07   2.192636e+00   0.000000e+00  13228s
  787863    1.2824937e+07   1.643686e+02   0.000000e+00  13231s
  788063    1.2824937e+07   1.320895e+00   0.000000e+00  13238s
  788163    1.2824937e+07   2.499393e+00   0.000000e+00  13241s
  788263    1.2824937e+07   1.659344e+00   0.000000e+00  13245s
  788463    1.2824937e+07   1.128084e+00   0.000000e+00  13252s
  788673    1.2824937e+07   1.019778e+00   0.000000e+00  13258s
  788783    1.2824937e+07   2.989675e+00   0.000000e+00  13261s
  788983    1.2824937e+07   1.439322e+00   0.000000e+00  13267s
  789083    1.2824937e+07   1.987932e+00   0.000000e+00  13270s
  789293    1.2824937e+07   2.176738e+00   0.000000e+00  13277s
  789393    1.2824937e+07   2.703762e+00   0.000000e+00  13281s
  789593    1.2824937e+07   2.740895e+00   0.000000e+00  13287s
  789693    1.2824937e+07   1.817497e+00   0.000000e+00  13291s
  789893    1.2824937e+07   1.715970e+00   0.000000e+00  13297s
  790003    1.2824937e+07   1.248448e+00   0.000000e+00  13300s
  790203    1.2824937e+07   2.434556e+00   0.000000e+00  13306s
  790403    1.2824937e+07   5.501733e+00   0.000000e+00  13313s
  790503    1.2824937e+07   5.259723e+00   0.000000e+00  13316s
  790703    1.2824937e+07   1.367967e+00   0.000000e+00  13322s
  790803    1.2824937e+07   1.636683e+00   0.000000e+00  13325s
  791003    1.2824937e+07   1.476519e+00   0.000000e+00  13331s
  791203    1.2824937e+07   3.019724e+00   0.000000e+00  13338s
  791313    1.2824937e+07   3.212504e+00   0.000000e+00  13341s
  791523    1.2824937e+07   3.849543e+00   0.000000e+00  13348s
  791623    1.2824937e+07   6.901266e+00   0.000000e+00  13351s
  791823    1.2824937e+07   3.884181e+00   0.000000e+00  13358s
  791923    1.2824937e+07   2.673088e+00   0.000000e+00  13361s
  792123    1.2824937e+07   2.141886e+00   0.000000e+00  13367s
  792223    1.2824937e+07   2.823853e+00   0.000000e+00  13371s
  792423    1.2824937e+07   6.606052e+00   0.000000e+00  13378s
  792523    1.2824937e+07   5.313318e+00   0.000000e+00  13381s
  792623    1.2824937e+07   7.434399e+00   0.000000e+00  13385s
  792823    1.2824937e+07   5.831136e+01   0.000000e+00  13394s
  792933    1.2824937e+07   1.880628e+01   0.000000e+00  13397s
  793053    1.2824937e+07   5.500134e+01   0.000000e+00  13401s
  793263    1.2824937e+07   2.849830e+00   0.000000e+00  13407s
  793383    1.2824937e+07   9.160164e+00   0.000000e+00  13411s
  793583    1.2824937e+07   1.593464e+01   0.000000e+00  13417s
  793693    1.2824937e+07   1.157159e+01   0.000000e+00  13420s
  793893    1.2824937e+07   1.421196e+01   0.000000e+00  13426s
  794093    1.2824937e+07   2.458165e+01   0.000000e+00  13433s
  794213    1.2824937e+07   1.599316e+01   0.000000e+00  13436s
  794423    1.2824937e+07   4.996691e+01   0.000000e+00  13443s
  794523    1.2824937e+07   3.855866e+01   0.000000e+00  13446s
  794723    1.2824937e+07   1.354925e+01   0.000000e+00  13452s
  794823    1.2824937e+07   1.345606e+01   0.000000e+00  13457s
  794923    1.2824937e+07   4.801308e+00   0.000000e+00  13461s
  795023    1.2824937e+07   8.517705e+00   0.000000e+00  13466s
  795233    1.2824937e+07   8.673305e+00   0.000000e+00  13472s
  795333    1.2824937e+07   5.450192e+00   0.000000e+00  13477s
  795543    1.2824937e+07   8.855106e+00   0.000000e+00  13483s
  795643    1.2824937e+07   4.300700e+01   0.000000e+00  13486s
  795843    1.2824937e+07   4.545998e+01   0.000000e+00  13492s
  795953    1.2824937e+07   2.019432e+00   0.000000e+00  13495s
  796153    1.2824937e+07   4.350762e+01   0.000000e+00  13504s
  796253    1.2824937e+07   2.626292e+01   0.000000e+00  13507s
  796453    1.2824937e+07   9.364183e+01   0.000000e+00  13512s
  796553    1.2824937e+07   8.745134e+01   0.000000e+00  13516s
  796753    1.2824937e+07   8.523931e+00   0.000000e+00  13522s
  796973    1.2824937e+07   2.298512e+01   0.000000e+00  13528s
  797073    1.2824937e+07   1.912113e+01   0.000000e+00  13532s
  797273    1.2824937e+07   1.384859e+01   0.000000e+00  13538s
  797383    1.2824937e+07   1.159587e+01   0.000000e+00  13542s
  797493    1.2824937e+07   4.114661e+01   0.000000e+00  13545s
  797723    1.2824937e+07   2.585644e+00   0.000000e+00  13553s
  797833    1.2824937e+07   3.577754e+00   0.000000e+00  13556s
  798043    1.2824937e+07   1.687812e+00   0.000000e+00  13562s
  798253    1.2824937e+07   1.931376e+01   0.000000e+00  13568s
  798353    1.2824937e+07   2.876152e+01   0.000000e+00  13571s
  798553    1.2824937e+07   3.804301e+01   0.000000e+00  13577s
  798753    1.2824937e+07   4.827067e+01   0.000000e+00  13583s
  798853    1.2824937e+07   2.098868e+01   0.000000e+00  13587s
  799053    1.2824937e+07   3.215442e+01   0.000000e+00  13593s
  799153    1.2824937e+07   7.236639e+00   0.000000e+00  13597s
  799353    1.2824937e+07   2.244573e+01   0.000000e+00  13603s
  799453    1.2824937e+07   6.227176e+01   0.000000e+00  13607s
  799553    1.2824937e+07   9.447808e+00   0.000000e+00  13610s
  799753    1.2824937e+07   1.059777e+01   0.000000e+00  13617s
  799853    1.2824937e+07   4.894973e+00   0.000000e+00  13621s
  800053    1.2824937e+07   6.409314e+01   0.000000e+00  13627s
  800153    1.2824937e+07   5.753691e+01   0.000000e+00  13631s
  800353    1.2824937e+07   7.065714e+00   0.000000e+00  13638s
  800453    1.2824937e+07   2.181122e+00   0.000000e+00  13641s
  800663    1.2824937e+07   1.191562e+01   0.000000e+00  13648s
  800783    1.2824937e+07   9.690544e+00   0.000000e+00  13652s
  800883    1.2824937e+07   1.481513e+01   0.000000e+00  13655s
  801083    1.2824937e+07   8.575623e+00   0.000000e+00  13662s
  801193    1.2824937e+07   3.634810e+00   0.000000e+00  13666s
  801403    1.2824937e+07   4.393747e+00   0.000000e+00  13673s
  801503    1.2824937e+07   4.012478e+00   0.000000e+00  13676s
  801703    1.2824937e+07   5.036362e+01   0.000000e+00  13683s
  801803    1.2824937e+07   1.624352e+01   0.000000e+00  13687s
  801903    1.2824937e+07   3.508150e+01   0.000000e+00  13690s
  802103    1.2824937e+07   1.089154e+01   0.000000e+00  13697s
  802203    1.2824937e+07   1.409766e+02   0.000000e+00  13700s
  802423    1.2824937e+07   1.760611e+01   0.000000e+00  13707s
  802543    1.2824937e+07   3.367248e+00   0.000000e+00  13711s
  802743    1.2824937e+07   6.213800e+00   0.000000e+00  13717s
  802843    1.2824937e+07   4.301069e+02   0.000000e+00  13721s
  803053    1.2824937e+07   1.554455e+02   0.000000e+00  13727s
  803153    1.2824937e+07   1.101884e+01   0.000000e+00  13730s
  803353    1.2824937e+07   6.124815e+00   0.000000e+00  13737s
  803453    1.2824937e+07   2.319782e+00   0.000000e+00  13741s
  803653    1.2824937e+07   1.625461e+00   0.000000e+00  13748s
  803753    1.2824937e+07   2.478426e+00   0.000000e+00  13752s
  803853    1.2824937e+07   3.294610e+00   0.000000e+00  13755s
  804053    1.2824937e+07   6.021051e+00   0.000000e+00  13762s
  804153    1.2824937e+07   1.387469e+00   0.000000e+00  13766s
  804353    1.2824937e+07   3.368959e+00   0.000000e+00  13773s
  804453    1.2824937e+07   7.563871e+00   0.000000e+00  13776s
  804553    1.2824937e+07   2.187691e+00   0.000000e+00  13780s
  804753    1.2824937e+07   8.485820e-01   0.000000e+00  13787s
  804853    1.2824937e+07   5.518819e-01   0.000000e+00  13791s
  805053    1.2824937e+07   4.463673e-01   0.000000e+00  13798s
  805153    1.2824937e+07   4.211912e-01   0.000000e+00  13801s
  805353    1.2824937e+07   2.514164e-01   0.000000e+00  13808s
  805453    1.2824937e+07   3.754697e-01   0.000000e+00  13812s
  805553    1.2824937e+07   1.195809e+00   0.000000e+00  13815s
  805753    1.2824937e+07   7.860146e-01   0.000000e+00  13822s
  805853    1.2824937e+07   6.725715e-01   0.000000e+00  13826s
  806053    1.2824937e+07   4.785764e-01   0.000000e+00  13833s
  806153    1.2824937e+07   3.030645e-01   0.000000e+00  13837s
  806253    1.2824937e+07   2.391277e-01   0.000000e+00  13840s
  806453    1.2824937e+07   5.493821e-01   0.000000e+00  13847s
  806553    1.2824937e+07   9.433505e-01   0.000000e+00  13851s
  806753    1.2824937e+07   2.522656e-01   0.000000e+00  13858s
  806853    1.2824937e+07   2.118156e-01   0.000000e+00  13861s
  807053    1.2824937e+07   4.008363e+00   0.000000e+00  13868s
  807153    1.2824937e+07   4.363465e+00   0.000000e+00  13872s
  807253    1.2824937e+07   2.772881e+00   0.000000e+00  13875s
  807453    1.2824937e+07   6.299116e-01   0.000000e+00  13883s
  807553    1.2824937e+07   2.244905e-01   0.000000e+00  13886s
  807753    1.2824937e+07   8.544666e+00   0.000000e+00  13893s
  807853    1.2824937e+07   1.826145e-01   0.000000e+00  13897s
  808063    1.2824937e+07   3.073432e-01   0.000000e+00  13904s
  808163    1.2824937e+07   1.941445e-01   0.000000e+00  13907s
  808263    1.2824937e+07   9.360437e-02   0.000000e+00  13911s
  808463    1.2824937e+07   4.068502e-01   0.000000e+00  13918s
  808563    1.2824937e+07   9.696765e-02   0.000000e+00  13921s
  808763    1.2824937e+07   1.592498e-01   0.000000e+00  13928s
  808863    1.2824937e+07   1.775234e-01   0.000000e+00  13932s
  808983    1.2824937e+07   3.075130e-01   0.000000e+00  13936s
  809193    1.2824937e+07   1.561729e-01   0.000000e+00  13943s
  809293    1.2824937e+07   1.318154e-01   0.000000e+00  13947s
  809309    1.2824937e+07   0.000000e+00   0.000000e+00  13948s
  809309    1.2824937e+07   0.000000e+00   0.000000e+00  13949s
Concurrent spin time: 63.58s

Solved with barrier

Root relaxation: objective 1.282494e+07, 809309 iterations, 10926.42 seconds
Total elapsed time = 14019.09s
Total elapsed time = 14020.60s

    Nodes    |    Current Node    |     Objective Bounds      |     Work
 Expl Unexpl |  Obj  Depth IntInf | Incumbent    BestBd   Gap | It/Node Time

     0     0 1.2825e+07    0  540          - 1.2825e+07      -     - 14056s
     0     0          -    0               - 1.2825e+07      -     - 86400s

Cutting planes:
  Cover: 1
  Implied bound: 10
  Clique: 97
  MIR: 14
  Flow cover: 33
  Zero half: 7

Explored 1 nodes (810556 simplex iterations) in 86400.05 seconds
Thread count was 4 (of 16 available processors)

Solution count 0

Time limit reached
Best objective -, best bound 1.282493656910e+07, gap -
Traceback (most recent call last):
  File "lsfdrp_mathmodel.py", line 605, in <module>
    solve_lsifdp(instance, data)
  File "lsfdrp_mathmodel.py", line 465, in solve_lsifdp
    if var.x > 0.1:
  File "var.pxi", line 76, in gurobipy.Var.__getattr__
  File "var.pxi", line 142, in gurobipy.Var.getAttr
AttributeError: b"Unable to retrieve attribute 'x'"

real	1452m6.167s
user	4932m25.835s
sys	835m35.627s
	Freetype 2.4.12 environment removed
	Python 3.6.0 environment removed
	Gurobi 8.1.0 environment removed
