### Additional Information to the goal services
# Basic costs on route 7: 27848287.603018716
# Direct costs (not staggered):
# For goal service 7:
# n_min: 3
# n_max: 6
# lowest costs of the goal service 7 with configuration (7, 19, 6) at 0.0
# (7, 18, 1): 16594317.371444255
# (7, 18, 2): 16907926.331444256
# (7, 18, 3): 15246836.642318644
# (7, 18, 4): 10894391.202318639
# (7, 18, 5): 6541945.762318641
# (7, 18, 6): 2189500.3223186433
# (7, 19, 1): 17167770.64535687
# (7, 19, 2): 17512721.68535687
# (7, 19, 3): 14528049.382989712
# (7, 19, 4): 8736260.407149717
# (7, 19, 5): 2944471.431309711
# (7, 19, 6): 0.0
# (7, 30, 1): 18324152.697940588
# (7, 30, 2): 18700472.697940588
# (7, 30, 3): 17543230.60879056
# (7, 30, 4): 11522264.333942562
# (7, 30, 5): 5501298.059094556
# (7, 30, 6): 1269431.6351135187
# -------------------------------------------
