### Additional Information to the goal services
# Basic costs on route 7: 80063826.85867879
# Direct costs (not staggered):
# For goal service 7:
# n_min: 3
# n_max: 6
# lowest costs of the goal service 7 with configuration (7, 19, 6) at 0.0
# (7, 18, 1): 47708662.44290225
# (7, 18, 2): 48610288.20290224
# (7, 18, 3): 43834655.34666608
# (7, 18, 4): 31321374.706666112
# (7, 18, 5): 18808094.066666096
# (7, 18, 6): 6294813.426666096
# (7, 19, 1): 49357340.605400994
# (7, 19, 2): 50349074.845401004
# (7, 19, 3): 41768141.97609544
# (7, 19, 4): 25116748.670555457
# (7, 19, 5): 8465355.365015432
# (7, 19, 6): 0.0
# (7, 30, 1): 52681939.00657922
# (7, 30, 2): 53763859.00657922
# (7, 30, 3): 50436788.0002729
# (7, 30, 4): 33126509.960084856
# (7, 30, 5): 15816231.91989687
# (7, 30, 6): 3649615.9509513974
# -------------------------------------------
