	Freetype 2.4.12 environment established
		library to render fonts
	Python 3.6.0 environment established
	Gurobi 8.1.0 environment established
Instance LSFRP: LSFDRP_4_3_0_1_fr.p
Instance LSFDP: LSFDRP_4_3_0_1_fd_40.p

*****************************************************************************************************************************
*** Solve LSFDRP_4_3_0_1_fd_40 with Gurobi
***
*** Graph info
*** |S|: 18
*** |S^E|: 0
*** |S^C|: 0
*** |V|: 347
*** |A|: 8382
*** |A^i|: 8382
*** |A^f|: 0
*** |M|: 343
*** |E|: 0

Changed value of parameter TimeLimit to 86400.0
   Prev: 1e+100  Min: 0.0  Max: 1e+100  Default: 1e+100
Changed value of parameter Threads to 4
   Prev: 0  Min: 0  Max: 1024  Default: 0
Optimize a model with 143610 rows, 3043383 columns and 10828029 nonzeros
Variable types: 2892486 continuous, 150897 integer (150897 binary)
Coefficient statistics:
  Matrix range     [1e+00, 4e+03]
  Objective range  [4e+01, 2e+08]
  Bounds range     [1e+00, 1e+00]
  RHS range        [1e+00, 6e+00]
Presolve removed 115902 rows and 2829804 columns (presolve time = 5s) ...
Warning: Failed to open log file 'gurobi.log'
Presolve removed 136084 rows and 2912737 columns (presolve time = 12s) ...
Presolve removed 136084 rows and 2918453 columns (presolve time = 54s) ...
Presolve removed 136195 rows and 2918555 columns (presolve time = 55s) ...
Presolve removed 136198 rows and 2918662 columns (presolve time = 61s) ...
Presolve removed 136198 rows and 2918662 columns
Presolve time: 60.67s
Presolved: 7412 rows, 124721 columns, 428446 nonzeros
Variable types: 4833 continuous, 119888 integer (119851 binary)

Root simplex log...

Iteration    Objective       Primal Inf.    Dual Inf.      Time
       0    9.3104177e+09   1.380824e+06   0.000000e+00     62s
   16994    1.3903619e+07   1.769617e+05   0.000000e+00     65s
   23951    9.1095956e+06   9.728145e+04   0.000000e+00     70s
   28958    7.7219841e+06   3.594204e+04   0.000000e+00     75s
   33898    6.6996352e+06   9.656010e+04   0.000000e+00     80s
   37906    5.4073849e+06   0.000000e+00   0.000000e+00     85s

Root relaxation: objective 5.407385e+06, 37906 iterations, 22.49 seconds

    Nodes    |    Current Node    |     Objective Bounds      |     Work
 Expl Unexpl |  Obj  Depth IntInf | Incumbent    BestBd   Gap | It/Node Time

     0     0 5407384.87    0  170          - 5407384.87      -     -   87s
H    0     0                    -2018500.505 5407384.87   368%     -   88s
H    0     0                    826603.16342 5407384.87   554%     -  110s
     0     0 3494370.60    0  149 826603.163 3494370.60   323%     -  115s
     0     0 3494370.60    0  137 826603.163 3494370.60   323%     -  125s
     0     0 3339443.86    0  144 826603.163 3339443.86   304%     -  129s
     0     0 3306108.07    0  133 826603.163 3306108.07   300%     -  130s
     0     0 3306090.06    0  133 826603.163 3306090.06   300%     -  130s
     0     0 3113797.80    0   87 826603.163 3113797.80   277%     -  130s
     0     0 3113797.80    0  127 826603.163 3113797.80   277%     -  133s
H    0     0                    994364.68061 3113797.80   213%     -  135s
     0     0 3113797.80    0  174 994364.681 3113797.80   213%     -  135s
     0     0 3113797.80    0   79 994364.681 3113797.80   213%     -  136s
     0     0 3113797.80    0  126 994364.681 3113797.80   213%     -  136s
     0     0 3109381.74    0  104 994364.681 3109381.74   213%     -  136s
     0     0 3108824.52    0  133 994364.681 3108824.52   213%     -  136s
     0     0 3100359.20    0  132 994364.681 3100359.20   212%     -  137s
     0     0 3099282.91    0  133 994364.681 3099282.91   212%     -  137s
     0     0 3098613.08    0  135 994364.681 3098613.08   212%     -  137s
     0     0 3098477.54    0  138 994364.681 3098477.54   212%     -  137s
     0     0 3098369.40    0  139 994364.681 3098369.40   212%     -  137s
     0     0 3097529.58    0  152 994364.681 3097529.58   212%     -  137s
     0     0 3094877.98    0  153 994364.681 3094877.98   211%     -  137s
     0     0 3094616.09    0  154 994364.681 3094616.09   211%     -  137s
     0     0 3094497.18    0  155 994364.681 3094497.18   211%     -  137s
     0     0 3094497.18    0  155 994364.681 3094497.18   211%     -  137s
     0     0 3093272.57    0  155 994364.681 3093272.57   211%     -  138s
     0     0 3093091.11    0  147 994364.681 3093091.11   211%     -  138s
     0     0 3092851.94    0  146 994364.681 3092851.94   211%     -  138s
     0     0 3092386.08    0  144 994364.681 3092386.08   211%     -  138s
     0     0 3092374.46    0  144 994364.681 3092374.46   211%     -  138s
     0     0 3092292.79    0  146 994364.681 3092292.79   211%     -  138s
     0     0 3092253.42    0  148 994364.681 3092253.42   211%     -  138s
     0     0 3091950.55    0  147 994364.681 3091950.55   211%     -  138s
     0     0 3091479.48    0  149 994364.681 3091479.48   211%     -  138s
     0     0 3091479.46    0  150 994364.681 3091479.46   211%     -  138s
     0     0 3091375.51    0  149 994364.681 3091375.51   211%     -  138s
     0     0 3091321.04    0  149 994364.681 3091321.04   211%     -  138s
     0     0 3091041.37    0  150 994364.681 3091041.37   211%     -  139s
     0     0 3091041.37    0  147 994364.681 3091041.37   211%     -  140s
     0     0 3091041.37    0  138 994364.681 3091041.37   211%     -  143s
     0     0 3091041.37    0  172 994364.681 3091041.37   211%     -  146s
     0     0 3091041.37    0  166 994364.681 3091041.37   211%     -  146s
     0     0 3091041.37    0  164 994364.681 3091041.37   211%     -  146s
     0     0 3091041.37    0  165 994364.681 3091041.37   211%     -  146s
     0     0 3091041.37    0  167 994364.681 3091041.37   211%     -  146s
     0     0 3091041.37    0   91 994364.681 3091041.37   211%     -  146s
     0     0 3091041.37    0  141 994364.681 3091041.37   211%     -  147s
     0     0 3091041.37    0  137 994364.681 3091041.37   211%     -  147s
     0     0 3091041.37    0  153 994364.681 3091041.37   211%     -  147s
     0     0 3091041.37    0  158 994364.681 3091041.37   211%     -  147s
     0     0 3091041.37    0  159 994364.681 3091041.37   211%     -  147s
     0     0 3091041.37    0  148 994364.681 3091041.37   211%     -  147s
     0     0 3091041.37    0  152 994364.681 3091041.37   211%     -  147s
     0     0 3091041.37    0  151 994364.681 3091041.37   211%     -  147s
     0     0 3090501.20    0  148 994364.681 3090501.20   211%     -  147s
     0     0 3090474.36    0  150 994364.681 3090474.36   211%     -  147s
     0     0 3090366.20    0  162 994364.681 3090366.20   211%     -  147s
     0     0 3090363.38    0  161 994364.681 3090363.38   211%     -  147s
     0     0 3090129.05    0  167 994364.681 3090129.05   211%     -  147s
     0     0 3088562.03    0  179 994364.681 3088562.03   211%     -  148s
     0     0 3088547.06    0  177 994364.681 3088547.06   211%     -  148s
     0     0 3087913.62    0  167 994364.681 3087913.62   211%     -  148s
     0     0 3087766.42    0  162 994364.681 3087766.42   211%     -  148s
     0     0 3087181.94    0  162 994364.681 3087181.94   210%     -  148s
     0     0 3087177.64    0  161 994364.681 3087177.64   210%     -  148s
     0     0 3086185.47    0  180 994364.681 3086185.47   210%     -  148s
     0     0 3086185.47    0  177 994364.681 3086185.47   210%     -  150s
     0     2 3086185.47    0  176 994364.681 3086185.47   210%     -  151s
    11    15 2424149.78    3  126 994364.681 3054251.66   207%  1203  156s
H   29    25                    1079769.2129 2730462.02   153%   834  159s
    32    30 2560871.77    6  129 1079769.21 2730462.02   153%   888  160s
   119    95 2367037.22   24   95 1079769.21 2730462.02   153%   465  165s
   225   173 2391260.52    9   66 1079769.21 2695119.26   150%   421  170s
   312   240 1428470.73   32   30 1079769.21 2695119.26   150%   372  175s
   495   317 2590533.93    8   89 1079769.21 2633267.96   144%   349  180s
   868   524 2078929.07   18  120 1079769.21 2596310.29   140%   264  185s
  1066   625 1499893.14   39  149 1079769.21 2570422.75   138%   248  200s
  1069   627 2152007.76    5  162 1079769.21 2570422.75   138%   248  205s
  1084   637 2008192.27   32  153 1079769.21 2570422.75   138%   244  210s
  1118   660 2338492.98   11  168 1079769.21 2570422.75   138%   237  215s
  1152   682 1392983.80   30  194 1079769.21 2570422.75   138%   230  221s
  1157   687 2290369.14   13  126 1079769.21 2570422.75   138%   257  225s
  1163   691 2041156.44   32  147 1079769.21 2570422.75   138%   255  230s
  1189   709 2008387.78   23  183 1079769.21 2570422.75   138%   250  236s
  1192   714 2570422.75   25  170 1079769.21 2570422.75   138%   272  244s
  1194   717 2562663.08   26  155 1079769.21 2570422.75   138%   276  251s
  1206   725 2456255.67   28  145 1079769.21 2570422.75   138%   287  255s
  1219   729 2340064.00   29   85 1079769.21 2534111.56   135%   302  260s
  1256   737 1881729.81   34   90 1079769.21 2428147.13   125%   317  265s
  1368   750 1699680.37   43   80 1079769.21 2428147.13   125%   311  270s
  1502   764 1479693.75   31   87 1079769.21 2382311.71   121%   318  277s
H 1515   727                    1079769.2882 2382311.71   121%   317  277s
  1568   732 2218105.83   33  143 1079769.29 2316383.07   115%   319  280s
  1765   756 1641781.30   43   46 1079769.29 2282795.19   111%   311  285s
  1907   762 1271421.47   36   99 1079769.29 2186819.03   103%   318  290s
H 2085   748                    1079769.2892 2161347.69   100%   313  293s
H 2094   717                    1079769.2899 2161347.69   100%   313  293s
  2095   712     cutoff   42      1079769.29 2154728.98   100%   313  295s
H 2214   683                    1079769.2920 2142175.04  98.4%   307  296s
  2406   714 1341247.64   50  134 1079769.29 2107382.14  95.2%   303  300s
  2637   727 1352528.59   59   64 1079769.29 2081746.97  92.8%   300  306s
  2889   756 2012760.37   33  146 1079769.29 2067140.03  91.4%   297  310s
H 3119   835                    1079769.2922 2042774.33  89.2%   291  314s
H 3171   856                    1079769.2939 2034540.66  88.4%   291  314s
  3199   859 1686037.42   40   35 1079769.29 2028393.39  87.9%   291  316s
  3581   984 1649435.27   41  105 1079769.29 1992303.54  84.5%   286  321s
  3688  1010 1488136.82   38   98 1079769.29 1988877.50  84.2%   287  325s
  4101  1124 1846477.72   39   43 1079769.29 1960471.41  81.6%   278  331s
  4381  1191     cutoff   51      1079769.29 1933054.94  79.0%   275  336s
  4699  1259 1412617.86   42   87 1079769.29 1913444.66  77.2%   273  341s
  5087  1365 1563470.42   39  176 1079769.29 1895736.58  75.6%   268  346s
  5408  1439 1666252.83   40   89 1079769.29 1881950.50  74.3%   265  352s
  5610  1490 1705662.16   37   66 1079769.29 1869494.10  73.1%   265  355s
  5980  1597     cutoff   40      1079769.29 1863857.30  72.6%   263  362s
  6327  1684 1421852.67   39   49 1079769.29 1853912.33  71.7%   258  366s
  7016  1848 1763951.59   39  115 1079769.29 1829985.31  69.5%   252  373s
  7126  1837 1757516.40   40   99 1079769.29 1829219.17  69.4%   252  377s
  7521  1950     cutoff   43      1079769.29 1815359.82  68.1%   248  381s
  7916  2054 1183063.91   51   46 1079769.29 1807134.20  67.4%   245  386s
  8198  2125 1084191.50   35   80 1079769.29 1794323.42  66.2%   245  390s
  8864  2241 1133128.32   41   88 1079769.29 1773315.32  64.2%   243  399s
  9192  2305 1371348.65   38   98 1079769.29 1766259.64  63.6%   241  404s
  9552  2351 1441544.28   35   77 1079769.29 1757849.80  62.8%   239  409s
 10079  2465 infeasible   57      1079769.29 1747710.91  61.9%   235  414s
 10401  2489 1568961.57   42   68 1079769.29 1742383.46  61.4%   233  424s
 10867  2573 1097678.36   61  126 1079769.29 1732836.08  60.5%   232  429s
 11446  2657     cutoff   37      1079769.29 1721196.82  59.4%   228  434s
 12018  2763 1304331.81   42  121 1079769.29 1713146.78  58.7%   225  439s
 12515  2867     cutoff   45      1079769.29 1695879.91  57.1%   224  444s
 13035  2909 1178738.89   47   34 1079769.29 1691096.00  56.6%   223  449s
 13663  3013 1240521.49   42   88 1079769.29 1671971.94  54.8%   220  463s
 14169  3067 1611124.33   35   67 1079769.29 1663024.50  54.0%   218  468s
 14753  3172 1527218.91   50   20 1079769.29 1652935.15  53.1%   216  473s
 15216  3238 1357338.51   40   19 1079769.29 1649854.76  52.8%   215  478s
 15807  3320     cutoff   44      1079769.29 1637131.98  51.6%   212  483s
 16190  3404 1424857.55   49   76 1079769.29 1629648.70  50.9%   212  489s
 16226  3333 1374289.80   51   74 1079769.29 1628187.92  50.8%   212  493s
 16766  3397 1462155.88   39   86 1079769.29 1618050.66  49.9%   211  498s
 17247  3446     cutoff   37      1079769.29 1610757.71  49.2%   209  503s
 17731  3467     cutoff   48      1079769.29 1604151.19  48.6%   209  507s
 18197  3491 1598560.65   41   40 1079769.29 1598560.65  48.0%   207  512s
 18725  3513     cutoff   41      1079769.29 1598560.65  48.0%   206  516s
 19194  3511 1381707.45   46   85 1079769.29 1578626.22  46.2%   204  520s
 19723  3538     cutoff   40      1079769.29 1570263.24  45.4%   203  525s
 20637  3625     cutoff   50      1079769.29 1556467.19  44.1%   201  779s
 20761  3552     cutoff   47      1079769.29 1555610.53  44.1%   201  784s
 21283  3629 1397653.96   47   46 1079769.29 1547970.00  43.4%   200  788s
 21682  3654     cutoff   43      1079769.29 1542332.73  42.8%   200  792s
 22006  3659 1138230.55   54   53 1079769.29 1536724.86  42.3%   200  796s
 22391  3690 1211045.85   41   70 1079769.29 1531199.35  41.8%   200  800s
 23088  3682     cutoff   47      1079769.29 1517478.62  40.5%   201  808s
 23359  3647     cutoff   38      1079769.29 1515397.29  40.3%   201  812s
 23769  3644     cutoff   43      1079769.29 1508398.41  39.7%   201  815s
 24307  3674 1363220.18   48  110 1079769.29 1501345.97  39.0%   201  823s
 24617  3630 1122180.89   47   95 1079769.29 1498707.46  38.8%   201  827s
 24965  3647 1213111.80   48   38 1079769.29 1492974.49  38.3%   201  832s
 25307  3658 1406389.81   40   32 1079769.29 1486869.66  37.7%   202  836s
 25552  3620 1392533.63   41  132 1079769.29 1483484.29  37.4%   202  840s
 26178  3575     cutoff   47      1079769.29 1473012.55  36.4%   202  848s
 26462  3541     cutoff   48      1079769.29 1466421.91  35.8%   202  852s
 26776  3499 1139056.77   48  117 1079769.29 1460807.91  35.3%   202  856s
 27098  3486     cutoff   55      1079769.29 1455049.45  34.8%   202  860s
 27730  3447     cutoff   45      1079769.29 1443291.43  33.7%   202  869s
 28018  3400     cutoff   48      1079769.29 1439714.84  33.3%   203  873s
 28413  3394 1173296.81   48   78 1079769.29 1434010.53  32.8%   202  877s
 28724  3345     cutoff   42      1079769.29 1430969.46  32.5%   203  881s
 29360  3262     cutoff   44      1079769.29 1419516.65  31.5%   203  888s
 29658  3213 1095413.50   42  102 1079769.29 1413902.11  30.9%   203  891s
 29940  3193     cutoff   50      1079769.29 1407956.57  30.4%   202  895s
 30627  3141 1336905.91   37   53 1079769.29 1396891.99  29.4%   202  904s
 30924  3115 1132211.75   57  137 1079769.29 1394081.31  29.1%   202  908s
 31232  3054 1132656.20   49   69 1079769.29 1387554.21  28.5%   203  912s
 31565  3018     cutoff   44      1079769.29 1382066.22  28.0%   202  915s
 32136  2914 1225035.20   43  128 1079769.29 1372099.66  27.1%   202  922s
 32443  2887 1319841.48   42   82 1079769.29 1366169.60  26.5%   202  926s
 32736  2832     cutoff   41      1079769.29 1362489.15  26.2%   202  930s
 33367  2756     cutoff   41      1079769.29 1354193.54  25.4%   202  939s
 33707  2735     cutoff   44      1079769.29 1350857.34  25.1%   202  943s
 33938  2664     cutoff   53      1079769.29 1345816.12  24.6%   202  946s
 34174  2601     cutoff   51      1079769.29 1338996.81  24.0%   201  950s
 34824  2521 1247700.65   37   39 1079769.29 1327980.19  23.0%   201  958s
 35126  2460     cutoff   44      1079769.29 1324084.93  22.6%   201  960s
 35714  2339     cutoff   37      1079769.29 1313323.00  21.6%   200  967s
 36214  2203     cutoff   45      1079769.29 1303997.82  20.8%   199  972s
 36465  2141     cutoff   47      1079769.29 1298249.73  20.2%   199  975s
 36995  2011 1164576.90   42   62 1079769.29 1288573.74  19.3%   199  981s
 37534  1897 1227545.66   47   48 1079769.29 1277320.56  18.3%   198  986s
 37975  1760 1108133.37   41   69 1079769.29 1267684.17  17.4%   197  991s
 38477  1613     cutoff   45      1079769.29 1256943.41  16.4%   197  995s
 38900  1477 1118925.88   48   40 1079769.29 1248225.75  15.6%   196 1001s
 39509  1250     cutoff   49      1079769.29 1232787.14  14.2%   196 1006s
 39894  1089     cutoff   39      1079769.29 1223086.18  13.3%   195 1010s
 40275   955 1171384.79   48  113 1079769.29 1218279.96  12.8%   194 1015s
 40938   639     cutoff   51      1079769.29 1189650.15  10.2%   193 1020s
 41612   235     cutoff   37      1079769.29 1152178.02  6.71%   191 1025s

Cutting planes:
  Gomory: 72
  Implied bound: 65
  Projected implied bound: 12
  MIR: 97
  Flow cover: 491
  Zero half: 1

Explored 41988 nodes (8073226 simplex iterations) in 1030.62 seconds
Thread count was 4 (of 16 available processors)

Solution count 10: 1.07977e+06 1.07977e+06 1.07977e+06 ... -2.0185e+06

Optimal solution found (tolerance 1.00e-04)
Best objective 1.079769212879e+06, best bound 1.079769293909e+06, gap 0.0000%

***
***  |- Calculation finished, took 1,030.67 (1030.67) sec.
***  |-----------------------------------------------------------------------------------------------------------------------
***
*****************************************************************************************************************************
#############################################################################################################################
###
### Results
###
### The objective of the solution is 1,079,769.2129 (1079769.2129) and is feasible with a Gap of 0.0
###
### Service 81 (MECL1) is operated by 6 vessels from type 30 (PMax35)
###  |- Vessel  9 has the path [9, 332, 326, 342, 333, 324, 4, 294, 284, 7, 298, 196, 0]
###  |  9 (BEANR Out@344.0) - 332 (USEWR In@608.0/Out@618.0) - 326 (USCHS In@656.0/Out@666.0) - 342 (USORF In@691.0/Out@704.0
###  |  ) - 333 (USEWR In@728.0/Out@744.0) - 324 (TRZMK In@1063.0/Out@1077.0) - 4 (AEJEA In@1177.0/Out@1201.0) - 294 (PKBQM I
###  |  n@1258.0/Out@1288.0) - 284 (OMSLL In@1410.0/Out@1423.0) - 7 (AEJEA In@1681.0/Out@1705.0) - 298 (PKBQM In@1762.0/Out@1
###  |  792.0) - 196 (INNSA In@1856.0/Out@1872.0) - 0 (DUMMY_END Ziel-Service 81)
###  |   |- and carried Demand 237,   34.0 containers from 298 to 196
###  |   |- and carried Demand 238,   84.0 containers from   7 to 298
###  |   |- and carried Demand 239,   50.0 containers from   7 to 298
###  |   |- and carried Demand 297,  254.0 containers from 294 to 196
###  |   |- and carried Demand 298,    1.0 containers from 294 to 196
###  |   |- and carried Demand 299,  135.0 containers from 294 to 196
###  |   |- and carried Demand 302,   75.0 containers from   4 to 196
###  |   |- and carried Demand 303,  200.0 containers from   4 to 294
###  |   |- and carried Demand 304,   24.0 containers from   4 to 294
###  |   |- and carried Demand 305,   26.0 containers from   4 to 196
###  |   |- and carried Demand 306,  144.0 containers from   4 to 196
###  |   |- and carried Demand 307,    1.0 containers from   4 to 196
###  |   |- and carried Demand 309,  339.0 containers from 342 to   4
###  |   |- and carried Demand 310,  115.0 containers from 342 to   4
###  |   |- and carried Demand 311,    3.0 containers from 342 to 284
###  |   |- and carried Demand 312,    2.0 containers from 342 to 294
###  |   |- and carried Demand 313,  194.0 containers from 326 to   4
###  |   |- and carried Demand 314,   49.0 containers from 326 to   4
###  |   |- and carried Demand 315,   40.0 containers from 326 to 294
###  |   |- and carried Demand 318,  842.0 containers from 332 to   4
###  |   |- and carried Demand 319,   99.0 containers from 332 to   4
###  |   |- and carried Demand 320,  123.0 containers from 332 to 294
###  |   |- and carried Demand 321,    1.0 containers from 332 to 294
###  |- Vessel 10 has the path [10, 316, 190, 0]
###  |  10 (BEANR Out@512.0) - 316 (TRAMB In@854.0/Out@881.0) - 190 (INNSA In@1016.0/Out@1032.0) - 0 (DUMMY_END Ziel-Service 
###  |  81)
###  |- Vessel 11 has the path [13, 313, 191, 0]
###  |  13 (BEANR Out@680.0) - 313 (TRALI In@946.0/Out@964.0) - 191 (INNSA In@1184.0/Out@1200.0) - 0 (DUMMY_END Ziel-Service 
###  |  81)
###  |- Vessel 12 has the path [16, 314, 192, 0]
###  |  16 (BEANR Out@848.0) - 314 (TRALI In@1114.0/Out@1132.0) - 192 (INNSA In@1352.0/Out@1368.0) - 0 (DUMMY_END Ziel-Servic
###  |  e 81)
###  |- Vessel 17 has the path [158, 2, 291, 292, 293, 283, 5, 295, 194, 195, 0]
###  |  158 (GBFXT Out@580.0) - 2 (AEJEA In@841.0/Out@865.0) - 291 (PKBQM In@922.0/Out@952.0) - 292 (PKBQM In@992.0/Out@1020.
###  |  0) - 293 (PKBQM In@1090.0/Out@1120.0) - 283 (OMSLL In@1167.0/Out@1182.0) - 5 (AEJEA In@1345.0/Out@1369.0) - 295 (PKBQ
###  |  M In@1426.0/Out@1456.0) - 194 (INNSA In@1590.0/Out@1622.0) - 195 (INNSA In@1688.0/Out@1704.0) - 0 (DUMMY_END Ziel-Ser
###  |  vice 81)
###  |   |- and carried Demand 120,  237.0 containers from 292 to 194
###  |   |- and carried Demand 121,    2.0 containers from 292 to 194
###  |   |- and carried Demand 123,   97.0 containers from 292 to 194
###  |   |- and carried Demand 283,  153.0 containers from   5 to 195
###  |   |- and carried Demand 284,   86.0 containers from   5 to 295
###  |   |- and carried Demand 285,  118.0 containers from   5 to 295
###  |   |- and carried Demand 323,  244.0 containers from 293 to 195
###  |   |- and carried Demand 324,   67.0 containers from 293 to 195
###  |   |- and carried Demand 333,  237.0 containers from 291 to 194
###  |   |- and carried Demand 334,    2.0 containers from 291 to 194
###  |   |- and carried Demand 336,   97.0 containers from 291 to 194
###  |   |- and carried Demand 338,  704.0 containers from   2 to 195
###  |   |- and carried Demand 339,    8.0 containers from   2 to 195
###  |   |- and carried Demand 340,  156.0 containers from   2 to 291
###  |   |- and carried Demand 341,   45.0 containers from   2 to 291
###  |   |- and carried Demand 342,   16.0 containers from   2 to 194
###  |   |- and carried Demand 343,  264.0 containers from   2 to 194
###  |- Vessel 18 has the path [161, 321, 193, 0]
###  |  161 (GBFXT Out@748.0) - 321 (TRGEM In@1087.0/Out@1095.0) - 193 (INNSA In@1520.0/Out@1536.0) - 0 (DUMMY_END Ziel-Servi
###  |  ce 81)
###  |
### Vessels not used in the solution: [1, 2, 3, 4, 5, 6, 7, 8, 13, 14, 15, 16]
###  |-----------------------------------------------------------------------------------------------------------------------
###
#############################################################################################################################

### Detialed variable overview

### All variables with value greater zero:
rho[81,30] = 1
eta[81,30,1] = 1
eta[81,30,2] = 1
eta[81,30,3] = 1
eta[81,30,4] = 1
eta[81,30,5] = 1
eta[81,30,6] = 1
y[9,4,294] = 1
y[9,332,326] = 1
y[9,294,284] = 1
y[9,284,7] = 1
y[9,342,333] = 1
y[9,9,332] = 1
y[9,324,4] = 1
y[9,7,298] = 1
y[9,196,0] = 1
y[9,333,324] = 1
y[9,298,196] = 1
y[9,326,342] = 1
y[10,190,0] = 1
y[10,316,190] = 1
y[10,10,316] = 1
y[11,313,191] = 1
y[11,191,0] = 1
y[11,13,313] = 1
y[12,192,0] = 1
y[12,314,192] = 1
y[12,16,314] = 1
y[17,283,5] = 1
y[17,293,283] = 1
y[17,195,0] = 1
y[17,5,295] = 1
y[17,292,293] = 1
y[17,194,195] = 1
y[17,291,292] = 1
y[17,295,194] = 1
y[17,2,291] = 1
y[17,158,2] = 1
y[18,161,321] = 1
y[18,193,0] = 1
y[18,321,193] = 1
xD[120,283,5] = 237
xD[120,293,283] = 237
xD[120,5,295] = 237
xD[120,292,293] = 237
xD[120,295,194] = 237
xD[121,283,5] = 2
xD[121,293,283] = 2
xD[121,5,295] = 2
xD[121,292,293] = 2
xD[121,295,194] = 2
xD[123,283,5] = 97
xD[123,293,283] = 97
xD[123,5,295] = 97
xD[123,292,293] = 97
xD[123,295,194] = 97
xD[237,298,196] = 34
xD[238,7,298] = 84
xD[239,7,298] = 50
xD[283,5,295] = 153
xD[283,194,195] = 153
xD[283,295,194] = 153
xD[284,5,295] = 86
xD[285,5,295] = 118
xD[297,294,284] = 254
xD[297,284,7] = 254
xD[297,7,298] = 254
xD[297,298,196] = 254
xD[298,294,284] = 1
xD[298,284,7] = 1
xD[298,7,298] = 1
xD[298,298,196] = 1
xD[299,294,284] = 135
xD[299,284,7] = 135
xD[299,7,298] = 135
xD[299,298,196] = 135
xD[302,4,294] = 75
xD[302,294,284] = 75
xD[302,284,7] = 75
xD[302,7,298] = 75
xD[302,298,196] = 75
xD[303,4,294] = 200
xD[304,4,294] = 24
xD[305,4,294] = 26
xD[305,294,284] = 26
xD[305,284,7] = 26
xD[305,7,298] = 26
xD[305,298,196] = 26
xD[306,4,294] = 144
xD[306,294,284] = 144
xD[306,284,7] = 144
xD[306,7,298] = 144
xD[306,298,196] = 144
xD[307,4,294] = 1
xD[307,294,284] = 1
xD[307,284,7] = 1
xD[307,7,298] = 1
xD[307,298,196] = 1
xD[309,342,333] = 339
xD[309,324,4] = 339
xD[309,333,324] = 339
xD[310,342,333] = 115
xD[310,324,4] = 115
xD[310,333,324] = 115
xD[311,4,294] = 3
xD[311,294,284] = 3
xD[311,342,333] = 3
xD[311,324,4] = 3
xD[311,333,324] = 3
xD[312,4,294] = 2
xD[312,342,333] = 2
xD[312,324,4] = 2
xD[312,333,324] = 2
xD[313,342,333] = 194
xD[313,324,4] = 194
xD[313,333,324] = 194
xD[313,326,342] = 194
xD[314,342,333] = 49
xD[314,324,4] = 49
xD[314,333,324] = 49
xD[314,326,342] = 49
xD[315,4,294] = 40
xD[315,342,333] = 40
xD[315,324,4] = 40
xD[315,333,324] = 40
xD[315,326,342] = 40
xD[318,332,326] = 842
xD[318,342,333] = 842
xD[318,324,4] = 842
xD[318,333,324] = 842
xD[318,326,342] = 842
xD[319,332,326] = 99
xD[319,342,333] = 99
xD[319,324,4] = 99
xD[319,333,324] = 99
xD[319,326,342] = 99
xD[320,4,294] = 123
xD[320,332,326] = 123
xD[320,342,333] = 123
xD[320,324,4] = 123
xD[320,333,324] = 123
xD[320,326,342] = 123
xD[321,4,294] = 1
xD[321,332,326] = 1
xD[321,342,333] = 1
xD[321,324,4] = 1
xD[321,333,324] = 1
xD[321,326,342] = 1
xD[323,283,5] = 244
xD[323,293,283] = 244
xD[323,5,295] = 244
xD[323,194,195] = 244
xD[323,295,194] = 244
xD[324,283,5] = 67
xD[324,293,283] = 67
xD[324,5,295] = 67
xD[324,194,195] = 67
xD[324,295,194] = 67
xD[333,283,5] = 237
xD[333,293,283] = 237
xD[333,5,295] = 237
xD[333,292,293] = 237
xD[333,291,292] = 237
xD[333,295,194] = 237
xD[334,283,5] = 2
xD[334,293,283] = 2
xD[334,5,295] = 2
xD[334,292,293] = 2
xD[334,291,292] = 2
xD[334,295,194] = 2
xD[336,283,5] = 97
xD[336,293,283] = 97
xD[336,5,295] = 97
xD[336,292,293] = 97
xD[336,291,292] = 97
xD[336,295,194] = 97
xD[338,283,5] = 704
xD[338,293,283] = 704
xD[338,5,295] = 704
xD[338,292,293] = 704
xD[338,194,195] = 704
xD[338,291,292] = 704
xD[338,295,194] = 704
xD[338,2,291] = 704
xD[339,283,5] = 8
xD[339,293,283] = 8
xD[339,5,295] = 8
xD[339,292,293] = 8
xD[339,194,195] = 8
xD[339,291,292] = 8
xD[339,295,194] = 8
xD[339,2,291] = 8
xD[340,2,291] = 156
xD[341,2,291] = 45
xD[342,283,5] = 16
xD[342,293,283] = 16
xD[342,5,295] = 16
xD[342,292,293] = 16
xD[342,291,292] = 16
xD[342,295,194] = 16
xD[342,2,291] = 16
xD[343,283,5] = 264
xD[343,293,283] = 264
xD[343,5,295] = 264
xD[343,292,293] = 264
xD[343,291,292] = 264
xD[343,295,194] = 264
xD[343,2,291] = 264
zE[2] = 841
zE[4] = 1177
zE[5] = 1345
zE[7] = 1681
zE[190] = 1016
zE[191] = 1184
zE[192] = 1352
zE[193] = 1520
zE[194] = 1590
zE[195] = 1688
zE[196] = 1856
zE[283] = 1167
zE[284] = 1410
zE[291] = 922
zE[292] = 992
zE[293] = 1090
zE[294] = 1258
zE[295] = 1426
zE[298] = 1762
zE[313] = 946
zE[314] = 1114
zE[316] = 854
zE[321] = 1087
zE[324] = 1063
zE[326] = 656
zE[332] = 608
zE[333] = 728
zE[342] = 691
zX[2] = 865
zX[4] = 1201
zX[5] = 1369
zX[7] = 1705
zX[9] = 344
zX[10] = 512
zX[13] = 680
zX[16] = 848
zX[158] = 580
zX[161] = 748
zX[190] = 1032
zX[191] = 1200
zX[192] = 1368
zX[193] = 1536
zX[194] = 1622
zX[195] = 1704
zX[196] = 1872
zX[283] = 1182
zX[284] = 1423
zX[291] = 952
zX[292] = 1020
zX[293] = 1120
zX[294] = 1288
zX[295] = 1456
zX[298] = 1792
zX[313] = 964
zX[314] = 1132
zX[316] = 881
zX[321] = 1095
zX[324] = 1077
zX[326] = 666
zX[332] = 618
zX[333] = 744
zX[342] = 704
phi[9] = 1528
phi[10] = 520
phi[11] = 520
phi[12] = 520
phi[17] = 1124
phi[18] = 788

### All variables with value smaller zero:

### End

real	20m22.709s
user	64m20.278s
sys	4m55.162s
	Freetype 2.4.12 environment removed
	Python 3.6.0 environment removed
	Gurobi 8.1.0 environment removed
