	Freetype 2.4.12 environment established
		library to render fonts
	Python 3.6.0 environment established
	Gurobi 8.1.0 environment established
Instance LSFRP: LSFDRP_4_3_0_1_fr.p
Instance LSFDP: LSFDRP_4_3_0_1_fd_19.p

*****************************************************************************************************************************
*** Solve LSFDRP_4_3_0_1_fd_19 with Gurobi
***
*** Graph info
*** |S|: 18
*** |S^E|: 0
*** |S^C|: 0
*** |V|: 347
*** |A|: 8382
*** |A^i|: 8382
*** |A^f|: 0
*** |M|: 343
*** |E|: 0

Changed value of parameter TimeLimit to 86400.0
   Prev: 1e+100  Min: 0.0  Max: 1e+100  Default: 1e+100
Changed value of parameter Threads to 4
   Prev: 0  Min: 0  Max: 1024  Default: 0
Optimize a model with 143610 rows, 3043383 columns and 10828029 nonzeros
Variable types: 2892486 continuous, 150897 integer (150897 binary)
Coefficient statistics:
  Matrix range     [1e+00, 4e+03]
  Objective range  [4e+01, 1e+08]
  Bounds range     [1e+00, 1e+00]
  RHS range        [1e+00, 6e+00]
Presolve removed 132531 rows and 2904022 columns (presolve time = 5s) ...
Warning: Failed to open log file 'gurobi.log'
Presolve removed 136084 rows and 2912737 columns (presolve time = 12s) ...
Presolve removed 136084 rows and 2918453 columns (presolve time = 49s) ...
Presolve removed 136197 rows and 2918662 columns (presolve time = 50s) ...
Presolve removed 136198 rows and 2918662 columns
Presolve time: 54.95s
Presolved: 7412 rows, 124721 columns, 428446 nonzeros
Variable types: 4833 continuous, 119888 integer (119851 binary)

Root simplex log...

Iteration    Objective       Primal Inf.    Dual Inf.      Time
       0    9.3104177e+09   1.380824e+06   0.000000e+00     56s
   19175    1.0516291e+07   1.183543e+05   0.000000e+00     60s
   26019    8.0524647e+06   4.382303e+04   0.000000e+00     65s
   31990    5.7992942e+06   6.497231e+05   0.000000e+00     70s
   34940    5.4073849e+06   0.000000e+00   0.000000e+00     73s

Root relaxation: objective 5.407385e+06, 34940 iterations, 16.62 seconds

    Nodes    |    Current Node    |     Objective Bounds      |     Work
 Expl Unexpl |  Obj  Depth IntInf | Incumbent    BestBd   Gap | It/Node Time

     0     0 5407384.87    0  172          - 5407384.87      -     -   75s
H    0     0                    -1427013.505 5407384.87   479%     -   76s
H    0     0                    248400.18505 5407384.87  2077%     -   92s
     0     0 5205699.57    0  175 248400.185 5205699.57  1996%     -   94s
     0     0 5205699.57    0  147 248400.185 5205699.57  1996%     -  103s
H    0     0                    826603.16341 5205699.57   530%     -  108s
     0     0 5175437.61    0  162 826603.163 5175437.61   526%     -  109s
     0     0 5174038.74    0  161 826603.163 5174038.74   526%     -  109s
     0     0 4851797.86    0  170 826603.163 4851797.86   487%     -  110s
     0     0 4849309.66    0  174 826603.163 4849309.66   487%     -  110s
     0     0 4849262.00    0  177 826603.163 4849262.00   487%     -  110s
     0     0 4735448.14    0  155 826603.163 4735448.14   473%     -  112s
     0     0 4730677.84    0  179 826603.163 4730677.84   472%     -  112s
     0     0 4730458.47    0  174 826603.163 4730458.47   472%     -  112s
     0     0 4728998.09    0  183 826603.163 4728998.09   472%     -  112s
     0     0 4728054.51    0  185 826603.163 4728054.51   472%     -  112s
     0     0 4728054.51    0  185 826603.163 4728054.51   472%     -  112s
     0     0 4684262.04    0  186 826603.163 4684262.04   467%     -  113s
     0     0 3222222.53    0  139 826603.163 3222222.53   290%     -  114s
     0     0 3222010.49    0  140 826603.163 3222010.49   290%     -  114s
     0     0 3220735.82    0  139 826603.163 3220735.82   290%     -  114s
     0     0 3220733.35    0  139 826603.163 3220733.35   290%     -  114s
     0     0 3217389.81    0  154 826603.163 3217389.81   289%     -  115s
     0     0 3217389.81    0  131 826603.163 3217389.81   289%     -  118s
H    0     0                    864882.26522 3217389.81   272%     -  120s
     0     0 3217389.81    0  162 864882.265 3217389.81   272%     -  120s
     0     0 3217389.81    0  133 864882.265 3217389.81   272%     -  121s
     0     0 3202884.03    0  157 864882.265 3202884.03   270%     -  121s
     0     0 3202713.42    0  161 864882.265 3202713.42   270%     -  121s
     0     0 3202493.17    0  161 864882.265 3202493.17   270%     -  121s
     0     0 3202464.19    0  161 864882.265 3202464.19   270%     -  121s
     0     0 3202287.48    0  162 864882.265 3202287.48   270%     -  121s
     0     0 3202281.80    0  162 864882.265 3202281.80   270%     -  121s
     0     0 3202015.64    0  163 864882.265 3202015.64   270%     -  121s
     0     0 3201797.32    0  164 864882.265 3201797.32   270%     -  121s
     0     0 3192958.94    0  164 864882.265 3192958.94   269%     -  122s
     0     0 3192595.26    0  166 864882.265 3192595.26   269%     -  122s
     0     0 3192565.74    0  166 864882.265 3192565.74   269%     -  122s
     0     0 3190410.67    0  170 864882.265 3190410.67   269%     -  122s
     0     0 3189434.90    0  161 864882.265 3189434.90   269%     -  122s
     0     0 3187966.43    0  161 864882.265 3187966.43   269%     -  122s
     0     0 3187965.81    0  161 864882.265 3187965.81   269%     -  122s
     0     0 3187712.91    0  160 864882.265 3187712.91   269%     -  122s
     0     0 3187620.45    0  162 864882.265 3187620.45   269%     -  122s
     0     0 3187364.52    0  162 864882.265 3187364.52   269%     -  122s
     0     0 3187104.32    0  160 864882.265 3187104.32   269%     -  123s
     0     0 3186990.64    0  165 864882.265 3186990.64   268%     -  123s
     0     0 3186333.75    0  163 864882.265 3186333.75   268%     -  123s
     0     0 3186254.05    0  162 864882.265 3186254.05   268%     -  123s
     0     0 3186254.05    0  162 864882.265 3186254.05   268%     -  123s
     0     0 3186241.82    0  162 864882.265 3186241.82   268%     -  123s
     0     0 3186173.85    0  165 864882.265 3186173.85   268%     -  123s
     0     0 3185237.48    0  169 864882.265 3185237.48   268%     -  123s
     0     0 3185220.30    0  169 864882.265 3185220.30   268%     -  123s
     0     0 3184993.59    0  167 864882.265 3184993.59   268%     -  123s
     0     0 3184918.15    0  167 864882.265 3184918.15   268%     -  123s
     0     0 3184916.64    0  167 864882.265 3184916.64   268%     -  123s
     0     0 3184914.71    0  167 864882.265 3184914.71   268%     -  123s
     0     0 3184907.64    0  170 864882.265 3184907.64   268%     -  123s
     0     0 3184904.03    0  166 864882.265 3184904.03   268%     -  124s
     0     0 3184903.87    0  169 864882.265 3184903.87   268%     -  124s
     0     0 3182957.33    0  180 864882.265 3182957.33   268%     -  124s
     0     0 3182924.23    0  182 864882.265 3182924.23   268%     -  124s
     0     0 3182914.79    0  183 864882.265 3182914.79   268%     -  124s
     0     0 3182898.22    0  182 864882.265 3182898.22   268%     -  124s
     0     0 3182868.01    0  179 864882.265 3182868.01   268%     -  124s
     0     0 3182868.01    0  179 864882.265 3182868.01   268%     -  127s
     0     2 3182868.01    0  177 864882.265 3182868.01   268%     -  128s
     1     4 3097916.42    1  152 864882.265 3122058.54   261%  1212  130s
    15    18 2933354.69    5  110 864882.265 3090471.70   257%   629  136s
H   30    27                    992124.33929 3090471.70   212%   557  143s
    44    44 2846480.91   11   81 992124.339 3090471.70   212%   432  145s
   137   103 2886458.53    4  117 992124.339 2982660.29   201%   376  151s
   288   180 2981551.56    5  101 992124.339 2981551.56   201%   300  159s
   341   199 2615005.88    8  101 992124.339 2975008.68   200%   283  160s
   541   285 2445825.86    6  137 992124.339 2895291.12   192%   265  165s
   718   378 2021895.45   18   85 992124.339 2835227.85   186%   292  171s
  1004   518 1794637.66   29  128 992124.339 2745891.75   177%   280  176s
H 1132   604                    994364.68063 2742063.12   176%   262  176s
  1133   605 1452382.28   16  175 994364.681 2742063.12   176%   262  192s
  1135   606 1540324.70   15  126 994364.681 2742063.12   176%   262  195s
  1154   619 1427069.49   17  171 994364.681 2742063.12   176%   257  200s
  1167   628 1008764.64   13  198 994364.681 2742063.12   176%   254  205s
  1170   633 2742063.12   13  152 994364.681 2742063.12   176%   276  214s
  1172   636 2742063.12   14  135 994364.681 2742063.12   176%   276  222s
  1180   641 2614019.83   15  133 994364.681 2742063.12   176%   281  225s
  1198   646 2556616.78   17  134 994364.681 2742063.12   176%   293  231s
  1232   662 1726182.40   22   93 994364.681 2680014.38   170%   298  235s
  1295   672 1469964.57   33   76 994364.681 2680014.38   170%   311  241s
H 1316   645                    1079769.2129 2680014.38   148%   308  241s
  1383   648 2325234.77   20   84 1079769.21 2662258.94   147%   311  245s
  1559   694 1199965.06   26   31 1079769.21 2636663.28   144%   311  250s
  1754   723 1597734.70   25  113 1079769.21 2528191.39   134%   310  255s
  1987   739 2025440.13   24   97 1079769.21 2500161.22   132%   302  260s
  2253   731 1593954.18   24   86 1079769.21 2404675.35   123%   302  265s
  2398   729     cutoff   23      1079769.21 2361048.04   119%   303  270s
  2726   715 2044424.82   23  109 1079769.21 2279136.63   111%   300  276s
  3071   764 1864075.18   30   46 1079769.21 2232965.38   107%   292  281s
  3504   954     cutoff   53      1079769.21 2185006.16   102%   281  286s
  3858  1067 2007769.18   28   93 1079769.21 2153971.40  99.5%   273  291s
  4017  1105 1110922.73   22   74 1079769.21 2142205.53  98.4%   272  295s
  4574  1192 1378275.31   34   25 1079769.21 2061700.31  90.9%   268  302s
  4979  1286 1333947.15   32   70 1079769.21 2032540.30  88.2%   260  307s
  5368  1387 1780941.72   24   56 1079769.21 2014080.10  86.5%   256  313s
  5503  1394 1654293.76   20  122 1079769.21 1996070.09  84.9%   255  316s
  5946  1446     cutoff   27      1079769.21 1960441.65  81.6%   252  322s
  6232  1506 1669124.97   48   37 1079769.21 1945237.45  80.2%   248  326s
  6840  1639 1422413.47   46   25 1079769.21 1919001.93  77.7%   240  333s
H 6990  1667                    1079769.2141 1916803.52  77.5%   238  333s
H 7093  1688                    1079769.2143 1905513.29  76.5%   236  337s
  7402  1754 1286756.69   33   70 1079769.21 1893291.05  75.3%   232  340s
  7864  1865     cutoff   31      1079769.21 1868826.50  73.1%   228  347s
  8022  1865     cutoff   32      1079769.21 1857610.91  72.0%   227  351s
  8885  2005 1828142.23   28  127 1079769.21 1828142.23  69.3%   222  359s
  9240  2041 1619565.65   39  121 1079769.21 1818051.46  68.4%   221  363s
  9757  2137     cutoff   27      1079769.21 1787962.29  65.6%   219  368s
 10313  2175 1454686.52   33  111 1079769.21 1772469.79  64.2%   217  375s
 11401  2341     cutoff   30      1079769.21 1728003.23  60.0%   212  384s
 11874  2395 1695800.41   32   23 1079769.21 1707798.79  58.2%   210  389s
 12560  2520 1381112.65   34   46 1079769.21 1690117.85  56.5%   207  393s
 13152  2599 1151281.43   24   69 1079769.21 1678501.27  55.5%   203  397s
 13749  2647 1295773.89   30   38 1079769.21 1664681.73  54.2%   201  401s
 14258  2668     cutoff   25      1079769.21 1651602.39  53.0%   199  406s
 15353  2787     cutoff   31      1079769.21 1626238.17  50.6%   194  412s
 15824  2788     cutoff   35      1079769.21 1615606.14  49.6%   193  416s
 16922  2885     cutoff   28      1079769.21 1587616.05  47.0%   189  423s
 17432  2896 1163045.40   24   46 1079769.21 1577078.94  46.1%   189  426s
 18433  2903 1352600.03   22   70 1079769.21 1559121.33  44.4%   185  432s
 19388  2926     cutoff   38      1079769.21 1542319.63  42.8%   183  437s
 19791  2925 1418947.74   36   37 1079769.21 1534648.50  42.1%   182  440s
 20264  2926 1457876.44   32   42 1079769.21 1524050.85  41.1%   181  447s
 20746  2958     cutoff   29      1079769.21 1516724.07  40.5%   180  735s
 21409  2986 1293452.01   41   71 1079769.21 1509176.44  39.8%   179  740s
 21814  2945 1362163.60   27   96 1079769.21 1501737.28  39.1%   179  746s
 22183  2926 1201987.31   33   32 1079769.21 1493047.47  38.3%   181  752s
 22395  2886     cutoff   29      1079769.21 1488297.07  37.8%   181  755s
 22929  2854 1393426.92   32  166 1079769.21 1475057.15  36.6%   182  761s
 23375  2816 1332168.82   46   63 1079769.21 1463260.84  35.5%   183  767s
 23629  2797 1213608.52   33   59 1079769.21 1459153.14  35.1%   184  770s
 24144  2717 1249707.53   33   50 1079769.21 1446105.09  33.9%   185  776s
 24667  2621     cutoff   34      1079769.21 1431855.94  32.6%   185  781s
 25329  2550 1102562.16   29   37 1079769.21 1416359.67  31.2%   185  787s
 25634  2513 1289520.09   23   56 1079769.21 1407179.99  30.3%   185  790s
 26114  2405 1241140.41   34   73 1079769.21 1394387.00  29.1%   185  795s
 26659  2323     cutoff   43      1079769.21 1385062.39  28.3%   186  801s
 27264  2251     cutoff   30      1079769.21 1369738.23  26.9%   186  807s
 27502  2218     cutoff   24      1079769.21 1365172.66  26.4%   186  844s
 27667  2150 1254335.88   22   61 1079769.21 1362963.45  26.2%   186  847s
 27987  2103     cutoff   35      1079769.21 1355758.57  25.6%   185  850s
 28541  1997 1268056.42   27  107 1079769.21 1342485.15  24.3%   186  856s
 29063  1873 1279613.51   31   78 1079769.21 1330837.71  23.3%   185  861s
 29599  1762 1233284.77   24   40 1079769.21 1319259.58  22.2%   185  866s
 30055  1635     cutoff   43      1079769.21 1304131.31  20.8%   184  870s
 30581  1512 1143110.91   42   62 1079769.21 1291367.78  19.6%   184  875s
 31345  1334     cutoff   32      1079769.21 1272527.74  17.9%   182  881s
 31933  1114 1237856.41   46   71 1079769.21 1253958.36  16.1%   182  885s
 32787   725     cutoff   27      1079769.21 1219500.97  12.9%   180  891s
 33656   239     cutoff   49      1079769.21 1167165.80  8.09%   178  895s

Cutting planes:
  Gomory: 57
  Implied bound: 22
  Projected implied bound: 2
  MIR: 54
  Flow cover: 177
  Zero half: 2

Explored 34070 nodes (6102154 simplex iterations) in 900.08 seconds
Thread count was 4 (of 16 available processors)

Solution count 9: 1.07977e+06 1.07977e+06 1.07977e+06 ... -1.42701e+06

Optimal solution found (tolerance 1.00e-04)
Best objective 1.079769212879e+06, best bound 1.079769214252e+06, gap 0.0000%

***
***  |- Calculation finished, took 900.13 (900.13) sec.
***  |-----------------------------------------------------------------------------------------------------------------------
***
*****************************************************************************************************************************
#############################################################################################################################
###
### Results
###
### The objective of the solution is 1,079,769.2129 (1079769.2129) and is feasible with a Gap of 0.0
###
### Service 81 (MECL1) is operated by 6 vessels from type 30 (PMax35)
###  |- Vessel  9 has the path [9, 332, 326, 342, 333, 324, 4, 294, 284, 7, 298, 196, 0]
###  |  9 (BEANR Out@344.0) - 332 (USEWR In@608.0/Out@618.0) - 326 (USCHS In@656.0/Out@666.0) - 342 (USORF In@691.0/Out@704.0
###  |  ) - 333 (USEWR In@728.0/Out@744.0) - 324 (TRZMK In@1063.0/Out@1077.0) - 4 (AEJEA In@1177.0/Out@1201.0) - 294 (PKBQM I
###  |  n@1258.0/Out@1288.0) - 284 (OMSLL In@1410.0/Out@1423.0) - 7 (AEJEA In@1681.0/Out@1705.0) - 298 (PKBQM In@1762.0/Out@1
###  |  792.0) - 196 (INNSA In@1856.0/Out@1872.0) - 0 (DUMMY_END Ziel-Service 81)
###  |   |- and carried Demand 237,   34.0 containers from 298 to 196
###  |   |- and carried Demand 238,   84.0 containers from   7 to 298
###  |   |- and carried Demand 239,   50.0 containers from   7 to 298
###  |   |- and carried Demand 297,  254.0 containers from 294 to 196
###  |   |- and carried Demand 298,    1.0 containers from 294 to 196
###  |   |- and carried Demand 299,  135.0 containers from 294 to 196
###  |   |- and carried Demand 302,   75.0 containers from   4 to 196
###  |   |- and carried Demand 303,  200.0 containers from   4 to 294
###  |   |- and carried Demand 304,   24.0 containers from   4 to 294
###  |   |- and carried Demand 305,   26.0 containers from   4 to 196
###  |   |- and carried Demand 306,  144.0 containers from   4 to 196
###  |   |- and carried Demand 307,    1.0 containers from   4 to 196
###  |   |- and carried Demand 309,  339.0 containers from 342 to   4
###  |   |- and carried Demand 310,  115.0 containers from 342 to   4
###  |   |- and carried Demand 311,    3.0 containers from 342 to 284
###  |   |- and carried Demand 312,    2.0 containers from 342 to 294
###  |   |- and carried Demand 313,  194.0 containers from 326 to   4
###  |   |- and carried Demand 314,   49.0 containers from 326 to   4
###  |   |- and carried Demand 315,   40.0 containers from 326 to 294
###  |   |- and carried Demand 318,  842.0 containers from 332 to   4
###  |   |- and carried Demand 319,   99.0 containers from 332 to   4
###  |   |- and carried Demand 320,  123.0 containers from 332 to 294
###  |   |- and carried Demand 321,    1.0 containers from 332 to 294
###  |- Vessel 10 has the path [10, 316, 190, 0]
###  |  10 (BEANR Out@512.0) - 316 (TRAMB In@854.0/Out@881.0) - 190 (INNSA In@1016.0/Out@1032.0) - 0 (DUMMY_END Ziel-Service 
###  |  81)
###  |- Vessel 11 has the path [13, 313, 191, 0]
###  |  13 (BEANR Out@680.0) - 313 (TRALI In@946.0/Out@964.0) - 191 (INNSA In@1184.0/Out@1200.0) - 0 (DUMMY_END Ziel-Service 
###  |  81)
###  |- Vessel 12 has the path [16, 314, 192, 0]
###  |  16 (BEANR Out@848.0) - 314 (TRALI In@1114.0/Out@1132.0) - 192 (INNSA In@1352.0/Out@1368.0) - 0 (DUMMY_END Ziel-Servic
###  |  e 81)
###  |- Vessel 17 has the path [158, 2, 291, 292, 293, 283, 5, 295, 194, 195, 0]
###  |  158 (GBFXT Out@580.0) - 2 (AEJEA In@841.0/Out@865.0) - 291 (PKBQM In@922.0/Out@952.0) - 292 (PKBQM In@992.0/Out@1020.
###  |  0) - 293 (PKBQM In@1090.0/Out@1120.0) - 283 (OMSLL In@1167.0/Out@1182.0) - 5 (AEJEA In@1345.0/Out@1369.0) - 295 (PKBQ
###  |  M In@1426.0/Out@1456.0) - 194 (INNSA In@1590.0/Out@1622.0) - 195 (INNSA In@1688.0/Out@1704.0) - 0 (DUMMY_END Ziel-Ser
###  |  vice 81)
###  |   |- and carried Demand 120,  237.0 containers from 292 to 194
###  |   |- and carried Demand 121,    2.0 containers from 292 to 194
###  |   |- and carried Demand 123,   97.0 containers from 292 to 194
###  |   |- and carried Demand 283,  153.0 containers from   5 to 195
###  |   |- and carried Demand 284,   86.0 containers from   5 to 295
###  |   |- and carried Demand 285,  118.0 containers from   5 to 295
###  |   |- and carried Demand 323,  244.0 containers from 293 to 195
###  |   |- and carried Demand 324,   67.0 containers from 293 to 195
###  |   |- and carried Demand 333,  237.0 containers from 291 to 194
###  |   |- and carried Demand 334,    2.0 containers from 291 to 194
###  |   |- and carried Demand 336,   97.0 containers from 291 to 194
###  |   |- and carried Demand 338,  704.0 containers from   2 to 195
###  |   |- and carried Demand 339,    8.0 containers from   2 to 195
###  |   |- and carried Demand 340,  156.0 containers from   2 to 291
###  |   |- and carried Demand 341,   45.0 containers from   2 to 291
###  |   |- and carried Demand 342,   16.0 containers from   2 to 194
###  |   |- and carried Demand 343,  264.0 containers from   2 to 194
###  |- Vessel 18 has the path [161, 321, 193, 0]
###  |  161 (GBFXT Out@748.0) - 321 (TRGEM In@1087.0/Out@1095.0) - 193 (INNSA In@1520.0/Out@1536.0) - 0 (DUMMY_END Ziel-Servi
###  |  ce 81)
###  |
### Vessels not used in the solution: [1, 2, 3, 4, 5, 6, 7, 8, 13, 14, 15, 16]
###  |-----------------------------------------------------------------------------------------------------------------------
###
#############################################################################################################################

### Detialed variable overview

### All variables with value greater zero:
rho[81,30] = 1
eta[81,30,1] = 1
eta[81,30,2] = 1
eta[81,30,3] = 1
eta[81,30,4] = 1
eta[81,30,5] = 1
eta[81,30,6] = 1
y[9,4,294] = 1
y[9,332,326] = 1
y[9,294,284] = 1
y[9,284,7] = 1
y[9,342,333] = 1
y[9,9,332] = 1
y[9,324,4] = 1
y[9,7,298] = 1
y[9,196,0] = 1
y[9,333,324] = 1
y[9,298,196] = 1
y[9,326,342] = 1
y[10,190,0] = 1
y[10,316,190] = 1
y[10,10,316] = 1
y[11,313,191] = 1
y[11,191,0] = 1
y[11,13,313] = 1
y[12,192,0] = 1
y[12,314,192] = 1
y[12,16,314] = 1
y[17,283,5] = 1
y[17,293,283] = 1
y[17,195,0] = 1
y[17,5,295] = 1
y[17,292,293] = 1
y[17,194,195] = 1
y[17,291,292] = 1
y[17,295,194] = 1
y[17,2,291] = 1
y[17,158,2] = 1
y[18,161,321] = 1
y[18,193,0] = 1
y[18,321,193] = 1
xD[120,283,5] = 237
xD[120,293,283] = 237
xD[120,5,295] = 237
xD[120,292,293] = 237
xD[120,295,194] = 237
xD[121,283,5] = 2
xD[121,293,283] = 2
xD[121,5,295] = 2
xD[121,292,293] = 2
xD[121,295,194] = 2
xD[123,283,5] = 97
xD[123,293,283] = 97
xD[123,5,295] = 97
xD[123,292,293] = 97
xD[123,295,194] = 97
xD[237,298,196] = 34
xD[238,7,298] = 84
xD[239,7,298] = 50
xD[283,5,295] = 153
xD[283,194,195] = 153
xD[283,295,194] = 153
xD[284,5,295] = 86
xD[285,5,295] = 118
xD[297,294,284] = 254
xD[297,284,7] = 254
xD[297,7,298] = 254
xD[297,298,196] = 254
xD[298,294,284] = 1
xD[298,284,7] = 1
xD[298,7,298] = 1
xD[298,298,196] = 1
xD[299,294,284] = 135
xD[299,284,7] = 135
xD[299,7,298] = 135
xD[299,298,196] = 135
xD[302,4,294] = 75
xD[302,294,284] = 75
xD[302,284,7] = 75
xD[302,7,298] = 75
xD[302,298,196] = 75
xD[303,4,294] = 200
xD[304,4,294] = 24
xD[305,4,294] = 26
xD[305,294,284] = 26
xD[305,284,7] = 26
xD[305,7,298] = 26
xD[305,298,196] = 26
xD[306,4,294] = 144
xD[306,294,284] = 144
xD[306,284,7] = 144
xD[306,7,298] = 144
xD[306,298,196] = 144
xD[307,4,294] = 1
xD[307,294,284] = 1
xD[307,284,7] = 1
xD[307,7,298] = 1
xD[307,298,196] = 1
xD[309,342,333] = 339
xD[309,324,4] = 339
xD[309,333,324] = 339
xD[310,342,333] = 115
xD[310,324,4] = 115
xD[310,333,324] = 115
xD[311,4,294] = 3
xD[311,294,284] = 3
xD[311,342,333] = 3
xD[311,324,4] = 3
xD[311,333,324] = 3
xD[312,4,294] = 2
xD[312,342,333] = 2
xD[312,324,4] = 2
xD[312,333,324] = 2
xD[313,342,333] = 194
xD[313,324,4] = 194
xD[313,333,324] = 194
xD[313,326,342] = 194
xD[314,342,333] = 49
xD[314,324,4] = 49
xD[314,333,324] = 49
xD[314,326,342] = 49
xD[315,4,294] = 40
xD[315,342,333] = 40
xD[315,324,4] = 40
xD[315,333,324] = 40
xD[315,326,342] = 40
xD[318,332,326] = 842
xD[318,342,333] = 842
xD[318,324,4] = 842
xD[318,333,324] = 842
xD[318,326,342] = 842
xD[319,332,326] = 99
xD[319,342,333] = 99
xD[319,324,4] = 99
xD[319,333,324] = 99
xD[319,326,342] = 99
xD[320,4,294] = 123
xD[320,332,326] = 123
xD[320,342,333] = 123
xD[320,324,4] = 123
xD[320,333,324] = 123
xD[320,326,342] = 123
xD[321,4,294] = 1
xD[321,332,326] = 1
xD[321,342,333] = 1
xD[321,324,4] = 1
xD[321,333,324] = 1
xD[321,326,342] = 1
xD[323,283,5] = 244
xD[323,293,283] = 244
xD[323,5,295] = 244
xD[323,194,195] = 244
xD[323,295,194] = 244
xD[324,283,5] = 67
xD[324,293,283] = 67
xD[324,5,295] = 67
xD[324,194,195] = 67
xD[324,295,194] = 67
xD[333,283,5] = 237
xD[333,293,283] = 237
xD[333,5,295] = 237
xD[333,292,293] = 237
xD[333,291,292] = 237
xD[333,295,194] = 237
xD[334,283,5] = 2
xD[334,293,283] = 2
xD[334,5,295] = 2
xD[334,292,293] = 2
xD[334,291,292] = 2
xD[334,295,194] = 2
xD[336,283,5] = 97
xD[336,293,283] = 97
xD[336,5,295] = 97
xD[336,292,293] = 97
xD[336,291,292] = 97
xD[336,295,194] = 97
xD[338,283,5] = 704
xD[338,293,283] = 704
xD[338,5,295] = 704
xD[338,292,293] = 704
xD[338,194,195] = 704
xD[338,291,292] = 704
xD[338,295,194] = 704
xD[338,2,291] = 704
xD[339,283,5] = 8
xD[339,293,283] = 8
xD[339,5,295] = 8
xD[339,292,293] = 8
xD[339,194,195] = 8
xD[339,291,292] = 8
xD[339,295,194] = 8
xD[339,2,291] = 8
xD[340,2,291] = 156
xD[341,2,291] = 45
xD[342,283,5] = 16
xD[342,293,283] = 16
xD[342,5,295] = 16
xD[342,292,293] = 16
xD[342,291,292] = 16
xD[342,295,194] = 16
xD[342,2,291] = 16
xD[343,283,5] = 264
xD[343,293,283] = 264
xD[343,5,295] = 264
xD[343,292,293] = 264
xD[343,291,292] = 264
xD[343,295,194] = 264
xD[343,2,291] = 264
zE[2] = 841
zE[4] = 1177
zE[5] = 1345
zE[7] = 1681
zE[190] = 1016
zE[191] = 1184
zE[192] = 1352
zE[193] = 1520
zE[194] = 1590
zE[195] = 1688
zE[196] = 1856
zE[283] = 1167
zE[284] = 1410
zE[291] = 922
zE[292] = 992
zE[293] = 1090
zE[294] = 1258
zE[295] = 1426
zE[298] = 1762
zE[313] = 946
zE[314] = 1114
zE[316] = 854
zE[321] = 1087
zE[324] = 1063
zE[326] = 656
zE[332] = 608
zE[333] = 728
zE[342] = 691
zX[2] = 865
zX[4] = 1201
zX[5] = 1369
zX[7] = 1705
zX[9] = 344
zX[10] = 512
zX[13] = 680
zX[16] = 848
zX[158] = 580
zX[161] = 748
zX[190] = 1032
zX[191] = 1200
zX[192] = 1368
zX[193] = 1536
zX[194] = 1622
zX[195] = 1704
zX[196] = 1872
zX[283] = 1182
zX[284] = 1423
zX[291] = 952
zX[292] = 1020
zX[293] = 1120
zX[294] = 1288
zX[295] = 1456
zX[298] = 1792
zX[313] = 964
zX[314] = 1132
zX[316] = 881
zX[321] = 1095
zX[324] = 1077
zX[326] = 666
zX[332] = 618
zX[333] = 744
zX[342] = 704
phi[9] = 1528
phi[10] = 520
phi[11] = 520
phi[12] = 520
phi[17] = 1124
phi[18] = 788

### All variables with value smaller zero:

### End

real	18m13.875s
user	55m59.939s
sys	5m8.748s
	Freetype 2.4.12 environment removed
	Python 3.6.0 environment removed
	Gurobi 8.1.0 environment removed
