	Freetype 2.4.12 environment established
		library to render fonts
	Python 3.6.0 environment established
	Gurobi 8.1.0 environment established
Instance LSFRP: LSFDRP_4_3_0_1_fr.p
Instance LSFDP: LSFDRP_4_3_0_1_fd_13.p

*****************************************************************************************************************************
*** Solve LSFDRP_4_3_0_1_fd_13 with Gurobi
***
*** Graph info
*** |S|: 18
*** |S^E|: 0
*** |S^C|: 0
*** |V|: 347
*** |A|: 8382
*** |A^i|: 8382
*** |A^f|: 0
*** |M|: 343
*** |E|: 0

Changed value of parameter TimeLimit to 86400.0
   Prev: 1e+100  Min: 0.0  Max: 1e+100  Default: 1e+100
Changed value of parameter Threads to 4
   Prev: 0  Min: 0  Max: 1024  Default: 0
Optimize a model with 143610 rows, 3043383 columns and 10828029 nonzeros
Variable types: 2892486 continuous, 150897 integer (150897 binary)
Coefficient statistics:
  Matrix range     [1e+00, 4e+03]
  Objective range  [4e+01, 8e+07]
  Bounds range     [1e+00, 1e+00]
  RHS range        [1e+00, 6e+00]
Presolve removed 134597 rows and 2909771 columns (presolve time = 5s) ...
Warning: Failed to open log file 'gurobi.log'
Presolve removed 136084 rows and 2912737 columns (presolve time = 11s) ...
Presolve removed 136084 rows and 2918453 columns (presolve time = 49s) ...
Presolve removed 136197 rows and 2918662 columns (presolve time = 50s) ...
Presolve removed 136198 rows and 2918662 columns
Presolve time: 54.90s
Presolved: 7412 rows, 124721 columns, 428446 nonzeros
Variable types: 4833 continuous, 119888 integer (119851 binary)

Root simplex log...

Iteration    Objective       Primal Inf.    Dual Inf.      Time
       0    9.3104177e+09   1.380824e+06   0.000000e+00     57s
   19168    1.0663206e+07   1.730506e+05   0.000000e+00     60s
   25579    8.2873968e+06   3.086824e+04   0.000000e+00     65s
   30136    7.2089302e+06   9.852804e+04   0.000000e+00     70s
   35016    5.4149557e+06   6.268796e+03   0.000000e+00     75s
   35717    5.4073849e+06   0.000000e+00   0.000000e+00     76s

Root relaxation: objective 5.407385e+06, 35717 iterations, 19.74 seconds

    Nodes    |    Current Node    |     Objective Bounds      |     Work
 Expl Unexpl |  Obj  Depth IntInf | Incumbent    BestBd   Gap | It/Node Time

     0     0 5407384.87    0  183          - 5407384.87      -     -   78s
H    0     0                    -620660.2625 5407384.87   971%     -   79s
H    0     0                    932943.06538 5407384.87   480%     -  125s
     0     0 5125367.45    0  168 932943.065 5125367.45   449%     -  128s
     0     0 5125367.45    0  147 932943.065 5125367.45   449%     -  137s
     0     0 3318033.03    0  130 932943.065 3318033.03   256%     -  146s
     0     0 3318033.03    0  129 932943.065 3318033.03   256%     -  149s
     0     0 3318033.03    0  159 932943.065 3318033.03   256%     -  152s
     0     0 3318033.03    0  158 932943.065 3318033.03   256%     -  152s
     0     0 3302604.05    0  129 932943.065 3302604.05   254%     -  152s
     0     0 3301722.55    0  131 932943.065 3301722.55   254%     -  152s
     0     0 3298426.36    0  131 932943.065 3298426.36   254%     -  153s
     0     0 3298361.13    0  131 932943.065 3298361.13   254%     -  153s
     0     0 3110585.70    0   91 932943.065 3110585.70   233%     -  153s
     0     0 2884733.97    0  159 932943.065 2884733.97   209%     -  154s
     0     0 2884733.97    0  166 932943.065 2884733.97   209%     -  154s
     0     0 2883970.41    0  167 932943.065 2883970.41   209%     -  154s
     0     0 2883970.41    0  135 932943.065 2883970.41   209%     -  156s
     0     0 2883970.41    0  154 932943.065 2883970.41   209%     -  159s
     0     0 2883970.41    0  163 932943.065 2883970.41   209%     -  159s
     0     0 2883970.41    0  151 932943.065 2883970.41   209%     -  159s
     0     0 2883693.82    0  157 932943.065 2883693.82   209%     -  160s
     0     0 2883589.90    0  157 932943.065 2883589.90   209%     -  160s
     0     0 2878408.69    0  159 932943.065 2878408.69   209%     -  160s
     0     0 2878337.16    0  168 932943.065 2878337.16   209%     -  160s
     0     0 2878225.88    0  172 932943.065 2878225.88   209%     -  160s
     0     0 2878165.95    0  172 932943.065 2878165.95   209%     -  160s
     0     0 2877133.95    0  162 932943.065 2877133.95   208%     -  160s
     0     0 2877133.95    0  162 932943.065 2877133.95   208%     -  160s
     0     0 2873578.59    0  158 932943.065 2873578.59   208%     -  161s
     0     0 2873459.51    0  159 932943.065 2873459.51   208%     -  161s
     0     0 2873459.51    0  159 932943.065 2873459.51   208%     -  161s
     0     0 2873459.51    0  154 932943.065 2873459.51   208%     -  163s
     0     2 2873459.51    0  154 932943.065 2873459.51   208%     -  164s
     1     5 2625741.21    1  144 932943.065 2872205.70   208%  1555  166s
    15    20 2497735.96    4  153 932943.065 2770709.48   197%   961  171s
    52    48 2243144.28   12   58 932943.065 2770709.48   197%   617  175s
   104    79 2098091.19   21   58 932943.065 2744005.98   194%   417  180s
   328   178 2367103.05    4  135 932943.065 2497735.96   168%   277  185s
   450   233 1360638.20   15  130 932943.065 2471051.44   165%   289  190s
   776   408 1460814.68   10   38 932943.065 2342582.87   151%   271  195s
  1160   561 1813846.38   11  108 932943.065 2307837.31   147%   243  200s
H 1489   714                    969000.27816 2288812.97   136%   232  203s
H 1499   715                    983980.53389 2288812.97   133%   232  204s
  1611   767 2070406.37   17   27 983980.534 2277261.47   131%   229  205s
  1955   881 1301692.45   20   26 983980.534 2241735.28   128%   231  210s
  2092   947 1914980.24   10  168 983980.534 2225078.47   126%   228  224s
H 2093   900                    1054404.8105 2225078.47   111%   227  227s
  2099   904 1988404.19   13  175 1054404.81 2225078.47   111%   227  230s
  2108   910 1746665.64   24  194 1054404.81 2225078.47   111%   226  235s
  2109   913 2225078.47   16  172 1054404.81 2225078.47   111%   236  241s
  2111   915 2225078.47   17  159 1054404.81 2225078.47   111%   237  247s
  2115   917 2225078.47   18  150 1054404.81 2225078.47   111%   237  250s
  2138   920 2160044.88   21   69 1054404.81 2225078.47   111%   240  255s
H 2171   879                    1079769.2129 2225078.47   106%   241  257s
  2232   883 1674373.56   29   35 1079769.21 2225078.47   106%   243  260s
  2297   876 2225078.47   26  166 1079769.21 2225078.47   106%   242  265s
  2411   878 1446980.74   41  166 1079769.21 2225078.47   106%   247  270s
  2590   885 2004522.50   32   54 1079769.21 2225078.47   106%   253  275s
  2921   900 1913934.67   28  137 1079769.21 2225078.47   106%   248  280s
  3255   928 2109032.32   22   89 1079769.21 2225078.47   106%   249  285s
  3533   961 1768079.03   45   45 1079769.21 2207436.40   104%   248  290s
  3863   980 1639604.16   48   68 1079769.21 2148540.58  99.0%   245  296s
  4149  1019 1965000.90   30   35 1079769.21 2129239.41  97.2%   243  300s
  4561  1041 1627338.60   30   99 1079769.21 2100657.73  94.5%   241  305s
  5032  1106 1508289.70   31   64 1079769.21 2060636.56  90.8%   239  310s
  5307  1182 1089464.20   32   53 1079769.21 2033656.60  88.3%   238  315s
  5922  1361 1268723.22   30  137 1079769.21 1990934.01  84.4%   233  322s
  6231  1422 1157637.67   31  135 1079769.21 1960745.66  81.6%   231  327s
  6724  1502 1315898.90   55   50 1079769.21 1944106.39  80.0%   227  332s
  6913  1535 1898794.07   28   70 1079769.21 1937195.44  79.4%   226  335s
  7439  1664 1751392.10   26  143 1079769.21 1921483.58  78.0%   223  341s
  7770  1759 1271443.70   48   59 1079769.21 1917913.55  77.6%   220  345s
  8505  1921 1509018.59   42   52 1079769.21 1890342.86  75.1%   217  352s
  8759  1926 1275855.38   37   70 1079769.21 1875071.28  73.7%   217  360s
  9603  2080 1396994.19   40  111 1079769.21 1851258.61  71.4%   212  367s
  9950  2120 1517607.50   41   55 1079769.21 1833109.13  69.8%   211  371s
 10444  2237 1519637.35   38   21 1079769.21 1815983.08  68.2%   209  380s
 10922  2346 1595952.39   34   53 1079769.21 1800007.69  66.7%   208  385s
 11916  2513 1377930.72   28   26 1079769.21 1772860.81  64.2%   207  393s
 12535  2652 1609709.90   42   34 1079769.21 1753995.40  62.4%   204  397s
 12831  2651     cutoff   51      1079769.21 1747067.55  61.8%   203  402s
 13389  2738 1329277.49   34   25 1079769.21 1729047.90  60.1%   202  406s
 13860  2789 1325453.12   56   76 1079769.21 1720259.96  59.3%   202  411s
 14308  2823 1500458.19   36   19 1079769.21 1709221.33  58.3%   200  415s
 15549  3073     cutoff   33      1079769.21 1695324.38  57.0%   196  424s
 15635  3035 1250583.30   37   41 1079769.21 1674872.58  55.1%   196  440s
H15737  3035                    1079769.2875 1674872.58  55.1%   195  440s
 16553  3143 1379920.17   49   43 1079769.29 1664938.12  54.2%   193  449s
 17077  3178     cutoff   44      1079769.29 1646623.19  52.5%   192  452s
 17564  3213 1605780.60   29   48 1079769.29 1635047.61  51.4%   190  456s
 18591  3310 1399836.46   36   45 1079769.29 1615084.82  49.6%   187  462s
 19013  3344 1429547.52   28   55 1079769.29 1606237.83  48.8%   186  466s
 19937  3342 1560428.63   29   29 1079769.29 1581798.22  46.5%   184  472s
 20361  3382 1153345.96   59   24 1079769.29 1571178.00  45.5%   183  475s
 20836  3419     cutoff   52      1079769.29 1566821.71  45.1%   181  735s
 21680  3478 1361294.50   34   61 1079769.29 1549203.43  43.5%   180  741s
 22449  3523 1486072.29   46   81 1079769.29 1536737.19  42.3%   180  747s
 22870  3512 1234618.07   33   36 1079769.29 1529676.36  41.7%   180  752s
 23236  3534     cutoff   34      1079769.29 1520282.60  40.8%   180  755s
 23643  3527     cutoff   35      1079769.29 1513254.76  40.1%   181  761s
 24268  3536 infeasible   38      1079769.29 1504025.63  39.3%   181  767s
 24513  3480     cutoff   28      1079769.29 1496181.01  38.6%   181  770s
 25101  3425     cutoff   40      1079769.29 1482273.33  37.3%   182  776s
 25762  3407 1343514.80   38   91 1079769.29 1468508.56  36.0%   182  782s
 26077  3405 1090355.61   35   35 1079769.29 1463137.46  35.5%   182  785s
 26763  3365     cutoff   36      1079769.29 1452159.79  34.5%   182  791s
 27300  3283 1352094.90   30  156 1079769.29 1439044.73  33.3%   182  797s
 27617  3247 1330827.64   35   70 1079769.29 1432135.50  32.6%   183  800s
 28206  3216     cutoff   37      1079769.29 1422966.34  31.8%   183  806s
 28739  3120 1181677.45   47   15 1079769.29 1410058.06  30.6%   183  812s
 29253  3007     cutoff   30      1079769.29 1400040.98  29.7%   184  816s
 29876  2923     cutoff   46      1079769.29 1389014.85  28.6%   183  822s
 30168  2889 1382559.95   34   46 1079769.29 1383803.78  28.2%   183  825s
 30591  2769     cutoff   41      1079769.29 1375243.44  27.4%   183  830s
 31159  2684     cutoff   32      1079769.29 1363340.82  26.3%   182  835s
 31754  2602 1295544.14   53   39 1079769.29 1353081.48  25.3%   182  841s
 32276  2497     cutoff   29      1079769.29 1344020.82  24.5%   182  845s
 32929  2295     cutoff   52      1079769.29 1329678.48  23.1%   181  850s
 33380  2172     cutoff   70      1079769.29 1319553.30  22.2%   181  855s
 34206  2013 1225694.03   39   47 1079769.29 1303778.21  20.7%   180  861s
 34673  1878     cutoff   41      1079769.29 1292906.85  19.7%   179  865s
 35345  1686     cutoff   62      1079769.29 1276593.60  18.2%   178  871s
 36058  1485 1147235.76   48   23 1079769.29 1261896.14  16.9%   177  876s
 36708  1183     cutoff   65      1079769.29 1239283.88  14.8%   176  880s
 37562   810     cutoff   44      1079769.29 1212062.39  12.3%   175  885s
 38410   325     cutoff   57      1079769.29 1164398.58  7.84%   173  890s

Cutting planes:
  Gomory: 61
  Implied bound: 5
  Projected implied bound: 1
  MIR: 31
  Flow cover: 161
  Zero half: 1

Explored 38928 nodes (6754840 simplex iterations) in 895.51 seconds
Thread count was 4 (of 16 available processors)

Solution count 7: 1.07977e+06 1.07977e+06 1.0544e+06 ... -620660

Optimal solution found (tolerance 1.00e-04)
Best objective 1.079769212879e+06, best bound 1.079769287495e+06, gap 0.0000%

***
***  |- Calculation finished, took 895.61 (895.61) sec.
***  |-----------------------------------------------------------------------------------------------------------------------
***
*****************************************************************************************************************************
#############################################################################################################################
###
### Results
###
### The objective of the solution is 1,079,769.2129 (1079769.2129) and is feasible with a Gap of 0.0
###
### Service 81 (MECL1) is operated by 6 vessels from type 30 (PMax35)
###  |- Vessel  9 has the path [9, 332, 326, 342, 333, 324, 4, 294, 284, 7, 298, 196, 0]
###  |  9 (BEANR Out@344.0) - 332 (USEWR In@608.0/Out@618.0) - 326 (USCHS In@656.0/Out@666.0) - 342 (USORF In@691.0/Out@704.0
###  |  ) - 333 (USEWR In@728.0/Out@744.0) - 324 (TRZMK In@1063.0/Out@1077.0) - 4 (AEJEA In@1177.0/Out@1201.0) - 294 (PKBQM I
###  |  n@1258.0/Out@1288.0) - 284 (OMSLL In@1410.0/Out@1423.0) - 7 (AEJEA In@1681.0/Out@1705.0) - 298 (PKBQM In@1762.0/Out@1
###  |  792.0) - 196 (INNSA In@1856.0/Out@1872.0) - 0 (DUMMY_END Ziel-Service 81)
###  |   |- and carried Demand 237,   34.0 containers from 298 to 196
###  |   |- and carried Demand 238,   84.0 containers from   7 to 298
###  |   |- and carried Demand 239,   50.0 containers from   7 to 298
###  |   |- and carried Demand 297,  254.0 containers from 294 to 196
###  |   |- and carried Demand 298,    1.0 containers from 294 to 196
###  |   |- and carried Demand 299,  135.0 containers from 294 to 196
###  |   |- and carried Demand 302,   75.0 containers from   4 to 196
###  |   |- and carried Demand 303,  200.0 containers from   4 to 294
###  |   |- and carried Demand 304,   24.0 containers from   4 to 294
###  |   |- and carried Demand 305,   26.0 containers from   4 to 196
###  |   |- and carried Demand 306,  144.0 containers from   4 to 196
###  |   |- and carried Demand 307,    1.0 containers from   4 to 196
###  |   |- and carried Demand 309,  339.0 containers from 342 to   4
###  |   |- and carried Demand 310,  115.0 containers from 342 to   4
###  |   |- and carried Demand 311,    3.0 containers from 342 to 284
###  |   |- and carried Demand 312,    2.0 containers from 342 to 294
###  |   |- and carried Demand 313,  194.0 containers from 326 to   4
###  |   |- and carried Demand 314,   49.0 containers from 326 to   4
###  |   |- and carried Demand 315,   40.0 containers from 326 to 294
###  |   |- and carried Demand 318,  842.0 containers from 332 to   4
###  |   |- and carried Demand 319,   99.0 containers from 332 to   4
###  |   |- and carried Demand 320,  123.0 containers from 332 to 294
###  |   |- and carried Demand 321,    1.0 containers from 332 to 294
###  |- Vessel 10 has the path [10, 316, 190, 0]
###  |  10 (BEANR Out@512.0) - 316 (TRAMB In@854.0/Out@881.0) - 190 (INNSA In@1016.0/Out@1032.0) - 0 (DUMMY_END Ziel-Service 
###  |  81)
###  |- Vessel 11 has the path [13, 313, 191, 0]
###  |  13 (BEANR Out@680.0) - 313 (TRALI In@946.0/Out@964.0) - 191 (INNSA In@1184.0/Out@1200.0) - 0 (DUMMY_END Ziel-Service 
###  |  81)
###  |- Vessel 12 has the path [16, 314, 192, 0]
###  |  16 (BEANR Out@848.0) - 314 (TRALI In@1114.0/Out@1132.0) - 192 (INNSA In@1352.0/Out@1368.0) - 0 (DUMMY_END Ziel-Servic
###  |  e 81)
###  |- Vessel 17 has the path [158, 2, 291, 292, 293, 283, 5, 295, 194, 195, 0]
###  |  158 (GBFXT Out@580.0) - 2 (AEJEA In@841.0/Out@865.0) - 291 (PKBQM In@922.0/Out@952.0) - 292 (PKBQM In@992.0/Out@1020.
###  |  0) - 293 (PKBQM In@1090.0/Out@1120.0) - 283 (OMSLL In@1167.0/Out@1182.0) - 5 (AEJEA In@1345.0/Out@1369.0) - 295 (PKBQ
###  |  M In@1426.0/Out@1456.0) - 194 (INNSA In@1590.0/Out@1622.0) - 195 (INNSA In@1688.0/Out@1704.0) - 0 (DUMMY_END Ziel-Ser
###  |  vice 81)
###  |   |- and carried Demand 120,  237.0 containers from 292 to 194
###  |   |- and carried Demand 121,    2.0 containers from 292 to 194
###  |   |- and carried Demand 123,   97.0 containers from 292 to 194
###  |   |- and carried Demand 283,  153.0 containers from   5 to 195
###  |   |- and carried Demand 284,   86.0 containers from   5 to 295
###  |   |- and carried Demand 285,  118.0 containers from   5 to 295
###  |   |- and carried Demand 323,  244.0 containers from 293 to 195
###  |   |- and carried Demand 324,   67.0 containers from 293 to 195
###  |   |- and carried Demand 333,  237.0 containers from 291 to 194
###  |   |- and carried Demand 334,    2.0 containers from 291 to 194
###  |   |- and carried Demand 336,   97.0 containers from 291 to 194
###  |   |- and carried Demand 338,  704.0 containers from   2 to 195
###  |   |- and carried Demand 339,    8.0 containers from   2 to 195
###  |   |- and carried Demand 340,  156.0 containers from   2 to 291
###  |   |- and carried Demand 341,   45.0 containers from   2 to 291
###  |   |- and carried Demand 342,   16.0 containers from   2 to 194
###  |   |- and carried Demand 343,  264.0 containers from   2 to 194
###  |- Vessel 18 has the path [161, 321, 193, 0]
###  |  161 (GBFXT Out@748.0) - 321 (TRGEM In@1087.0/Out@1095.0) - 193 (INNSA In@1520.0/Out@1536.0) - 0 (DUMMY_END Ziel-Servi
###  |  ce 81)
###  |
### Vessels not used in the solution: [1, 2, 3, 4, 5, 6, 7, 8, 13, 14, 15, 16]
###  |-----------------------------------------------------------------------------------------------------------------------
###
#############################################################################################################################

### Detialed variable overview

### All variables with value greater zero:
rho[81,30] = 1
eta[81,30,1] = 1
eta[81,30,2] = 1
eta[81,30,3] = 1
eta[81,30,4] = 1
eta[81,30,5] = 1
eta[81,30,6] = 1
y[9,4,294] = 1
y[9,332,326] = 1
y[9,294,284] = 1
y[9,284,7] = 1
y[9,342,333] = 1
y[9,9,332] = 1
y[9,324,4] = 1
y[9,7,298] = 1
y[9,196,0] = 1
y[9,333,324] = 1
y[9,298,196] = 1
y[9,326,342] = 1
y[10,190,0] = 1
y[10,316,190] = 1
y[10,10,316] = 1
y[11,313,191] = 1
y[11,191,0] = 1
y[11,13,313] = 1
y[12,192,0] = 1
y[12,314,192] = 1
y[12,16,314] = 1
y[17,283,5] = 1
y[17,293,283] = 1
y[17,195,0] = 1
y[17,5,295] = 1
y[17,292,293] = 1
y[17,194,195] = 1
y[17,291,292] = 1
y[17,295,194] = 1
y[17,2,291] = 1
y[17,158,2] = 1
y[18,161,321] = 1
y[18,193,0] = 1
y[18,321,193] = 1
xD[120,283,5] = 237
xD[120,293,283] = 237
xD[120,5,295] = 237
xD[120,292,293] = 237
xD[120,295,194] = 237
xD[121,283,5] = 2
xD[121,293,283] = 2
xD[121,5,295] = 2
xD[121,292,293] = 2
xD[121,295,194] = 2
xD[123,283,5] = 97
xD[123,293,283] = 97
xD[123,5,295] = 97
xD[123,292,293] = 97
xD[123,295,194] = 97
xD[237,298,196] = 34
xD[238,7,298] = 84
xD[239,7,298] = 50
xD[283,5,295] = 153
xD[283,194,195] = 153
xD[283,295,194] = 153
xD[284,5,295] = 86
xD[285,5,295] = 118
xD[297,294,284] = 254
xD[297,284,7] = 254
xD[297,7,298] = 254
xD[297,298,196] = 254
xD[298,294,284] = 1
xD[298,284,7] = 1
xD[298,7,298] = 1
xD[298,298,196] = 1
xD[299,294,284] = 135
xD[299,284,7] = 135
xD[299,7,298] = 135
xD[299,298,196] = 135
xD[302,4,294] = 75
xD[302,294,284] = 75
xD[302,284,7] = 75
xD[302,7,298] = 75
xD[302,298,196] = 75
xD[303,4,294] = 200
xD[304,4,294] = 24
xD[305,4,294] = 26
xD[305,294,284] = 26
xD[305,284,7] = 26
xD[305,7,298] = 26
xD[305,298,196] = 26
xD[306,4,294] = 144
xD[306,294,284] = 144
xD[306,284,7] = 144
xD[306,7,298] = 144
xD[306,298,196] = 144
xD[307,4,294] = 1
xD[307,294,284] = 1
xD[307,284,7] = 1
xD[307,7,298] = 1
xD[307,298,196] = 1
xD[309,342,333] = 339
xD[309,324,4] = 339
xD[309,333,324] = 339
xD[310,342,333] = 115
xD[310,324,4] = 115
xD[310,333,324] = 115
xD[311,4,294] = 3
xD[311,294,284] = 3
xD[311,342,333] = 3
xD[311,324,4] = 3
xD[311,333,324] = 3
xD[312,4,294] = 2
xD[312,342,333] = 2
xD[312,324,4] = 2
xD[312,333,324] = 2
xD[313,342,333] = 194
xD[313,324,4] = 194
xD[313,333,324] = 194
xD[313,326,342] = 194
xD[314,342,333] = 49
xD[314,324,4] = 49
xD[314,333,324] = 49
xD[314,326,342] = 49
xD[315,4,294] = 40
xD[315,342,333] = 40
xD[315,324,4] = 40
xD[315,333,324] = 40
xD[315,326,342] = 40
xD[318,332,326] = 842
xD[318,342,333] = 842
xD[318,324,4] = 842
xD[318,333,324] = 842
xD[318,326,342] = 842
xD[319,332,326] = 99
xD[319,342,333] = 99
xD[319,324,4] = 99
xD[319,333,324] = 99
xD[319,326,342] = 99
xD[320,4,294] = 123
xD[320,332,326] = 123
xD[320,342,333] = 123
xD[320,324,4] = 123
xD[320,333,324] = 123
xD[320,326,342] = 123
xD[321,4,294] = 1
xD[321,332,326] = 1
xD[321,342,333] = 1
xD[321,324,4] = 1
xD[321,333,324] = 1
xD[321,326,342] = 1
xD[323,283,5] = 244
xD[323,293,283] = 244
xD[323,5,295] = 244
xD[323,194,195] = 244
xD[323,295,194] = 244
xD[324,283,5] = 67
xD[324,293,283] = 67
xD[324,5,295] = 67
xD[324,194,195] = 67
xD[324,295,194] = 67
xD[333,283,5] = 237
xD[333,293,283] = 237
xD[333,5,295] = 237
xD[333,292,293] = 237
xD[333,291,292] = 237
xD[333,295,194] = 237
xD[334,283,5] = 2
xD[334,293,283] = 2
xD[334,5,295] = 2
xD[334,292,293] = 2
xD[334,291,292] = 2
xD[334,295,194] = 2
xD[336,283,5] = 97
xD[336,293,283] = 97
xD[336,5,295] = 97
xD[336,292,293] = 97
xD[336,291,292] = 97
xD[336,295,194] = 97
xD[338,283,5] = 704
xD[338,293,283] = 704
xD[338,5,295] = 704
xD[338,292,293] = 704
xD[338,194,195] = 704
xD[338,291,292] = 704
xD[338,295,194] = 704
xD[338,2,291] = 704
xD[339,283,5] = 8
xD[339,293,283] = 8
xD[339,5,295] = 8
xD[339,292,293] = 8
xD[339,194,195] = 8
xD[339,291,292] = 8
xD[339,295,194] = 8
xD[339,2,291] = 8
xD[340,2,291] = 156
xD[341,2,291] = 45
xD[342,283,5] = 16
xD[342,293,283] = 16
xD[342,5,295] = 16
xD[342,292,293] = 16
xD[342,291,292] = 16
xD[342,295,194] = 16
xD[342,2,291] = 16
xD[343,283,5] = 264
xD[343,293,283] = 264
xD[343,5,295] = 264
xD[343,292,293] = 264
xD[343,291,292] = 264
xD[343,295,194] = 264
xD[343,2,291] = 264
zE[2] = 841
zE[4] = 1177
zE[5] = 1345
zE[7] = 1681
zE[190] = 1016
zE[191] = 1184
zE[192] = 1352
zE[193] = 1520
zE[194] = 1590
zE[195] = 1688
zE[196] = 1856
zE[283] = 1167
zE[284] = 1410
zE[291] = 922
zE[292] = 992
zE[293] = 1090
zE[294] = 1258
zE[295] = 1426
zE[298] = 1762
zE[313] = 946
zE[314] = 1114
zE[316] = 854
zE[321] = 1087
zE[324] = 1063
zE[326] = 656
zE[332] = 608
zE[333] = 728
zE[342] = 691
zX[2] = 865
zX[4] = 1201
zX[5] = 1369
zX[7] = 1705
zX[9] = 344
zX[10] = 512
zX[13] = 680
zX[16] = 848
zX[158] = 580
zX[161] = 748
zX[190] = 1032
zX[191] = 1200
zX[192] = 1368
zX[193] = 1536
zX[194] = 1622
zX[195] = 1704
zX[196] = 1872
zX[283] = 1182
zX[284] = 1423
zX[291] = 952
zX[292] = 1020
zX[293] = 1120
zX[294] = 1288
zX[295] = 1456
zX[298] = 1792
zX[313] = 964
zX[314] = 1132
zX[316] = 881
zX[321] = 1095
zX[324] = 1077
zX[326] = 666
zX[332] = 618
zX[333] = 744
zX[342] = 704
phi[9] = 1528
phi[10] = 520
phi[11] = 520
phi[12] = 520
phi[17] = 1124
phi[18] = 788

### All variables with value smaller zero:

### End

real	18m2.287s
user	54m50.331s
sys	4m46.415s
	Freetype 2.4.12 environment removed
	Python 3.6.0 environment removed
	Gurobi 8.1.0 environment removed
