	Freetype 2.4.12 environment established
		library to render fonts
	Python 3.6.0 environment established
	Gurobi 8.1.0 environment established
Instance LSFRP: LSFDRP_4_3_0_1_fr.p
Instance LSFDP: LSFDRP_4_3_0_1_fd_46.p

*****************************************************************************************************************************
*** Solve LSFDRP_4_3_0_1_fd_46 with Gurobi
***
*** Graph info
*** |S|: 18
*** |S^E|: 0
*** |S^C|: 0
*** |V|: 347
*** |A|: 8382
*** |A^i|: 8382
*** |A^f|: 0
*** |M|: 343
*** |E|: 0

Changed value of parameter TimeLimit to 86400.0
   Prev: 1e+100  Min: 0.0  Max: 1e+100  Default: 1e+100
Changed value of parameter Threads to 4
   Prev: 0  Min: 0  Max: 1024  Default: 0
Optimize a model with 143610 rows, 3043383 columns and 10828029 nonzeros
Variable types: 2892486 continuous, 150897 integer (150897 binary)
Coefficient statistics:
  Matrix range     [1e+00, 4e+03]
  Objective range  [4e+01, 3e+08]
  Bounds range     [1e+00, 1e+00]
  RHS range        [1e+00, 6e+00]
Presolve removed 131730 rows and 2901777 columns (presolve time = 5s) ...
Warning: Failed to open log file 'gurobi.log'
Presolve removed 136084 rows and 2912737 columns (presolve time = 12s) ...
Presolve removed 136084 rows and 2918453 columns (presolve time = 51s) ...
Presolve removed 136198 rows and 2918662 columns (presolve time = 55s) ...
Presolve removed 136198 rows and 2918662 columns
Presolve time: 57.48s
Presolved: 7412 rows, 124721 columns, 428446 nonzeros
Variable types: 4833 continuous, 119888 integer (119851 binary)

Root simplex log...

Iteration    Objective       Primal Inf.    Dual Inf.      Time
       0    9.3104177e+09   1.380824e+06   0.000000e+00     59s
   11184    3.2667082e+07   4.936223e+04   0.000000e+00     60s
   21989    9.5573411e+06   1.885406e+05   0.000000e+00     65s
   27416    8.0109498e+06   4.538769e+05   0.000000e+00     70s
   32335    6.6994281e+06   1.708604e+05   0.000000e+00     75s
   36236    5.4073849e+06   0.000000e+00   0.000000e+00     80s

Root relaxation: objective 5.407385e+06, 36236 iterations, 21.17 seconds

    Nodes    |    Current Node    |     Objective Bounds      |     Work
 Expl Unexpl |  Obj  Depth IntInf | Incumbent    BestBd   Gap | It/Node Time

     0     0 5407384.87    0  170          - 5407384.87      -     -   82s
H    0     0                    -566805.3650 5407384.87  1054%     -   83s
H    0     0                    826603.16344 5407384.87   554%     -  102s
H    0     0                    994364.68058 5407384.87   444%     -  103s
     0     0 3492806.72    0  154 994364.681 3492806.72   251%     -  106s
     0     0 3492806.72    0  137 994364.681 3492806.72   251%     -  117s
     0     0 3368532.74    0  158 994364.681 3368532.74   239%     -  120s
     0     0 3360636.02    0  160 994364.681 3360636.02   238%     -  121s
     0     0 3355963.32    0  174 994364.681 3355963.32   237%     -  121s
     0     0 3355639.88    0  169 994364.681 3355639.88   237%     -  121s
     0     0 3354638.12    0  172 994364.681 3354638.12   237%     -  122s
     0     0 3350988.41    0  167 994364.681 3350988.41   237%     -  122s
     0     0 3350988.41    0  167 994364.681 3350988.41   237%     -  122s
     0     0 3349612.05    0  170 994364.681 3349612.05   237%     -  122s
     0     0 3349151.59    0  173 994364.681 3349151.59   237%     -  123s
     0     0 3347041.09    0  174 994364.681 3347041.09   237%     -  123s
     0     0 3346777.42    0  172 994364.681 3346777.42   237%     -  123s
     0     0 3346651.49    0  173 994364.681 3346651.49   237%     -  123s
     0     0 3346651.49    0  173 994364.681 3346651.49   237%     -  123s
     0     0 3343880.35    0  152 994364.681 3343880.35   236%     -  123s
     0     0 3343760.13    0  165 994364.681 3343760.13   236%     -  123s
     0     0 3343760.13    0  165 994364.681 3343760.13   236%     -  123s
     0     0 3337990.78    0  171 994364.681 3337990.78   236%     -  124s
     0     0 3337672.29    0  179 994364.681 3337672.29   236%     -  124s
     0     0 3337625.09    0  181 994364.681 3337625.09   236%     -  124s
     0     0 3337625.09    0  182 994364.681 3337625.09   236%     -  124s
     0     0 3337625.09    0  181 994364.681 3337625.09   236%     -  124s
     0     0 3337625.09    0  180 994364.681 3337625.09   236%     -  124s
     0     0 3337599.44    0  180 994364.681 3337599.44   236%     -  124s
     0     0 3337599.44    0  176 994364.681 3337599.44   236%     -  128s
     0     0 3337599.44    0  131 994364.681 3337599.44   236%     -  132s
     0     0 3337599.44    0  156 994364.681 3337599.44   236%     -  135s
     0     0 3337599.44    0  157 994364.681 3337599.44   236%     -  135s
     0     0 3298298.36    0  172 994364.681 3298298.36   232%     -  135s
     0     0 3296819.88    0  180 994364.681 3296819.88   232%     -  136s
     0     0 3296171.19    0  186 994364.681 3296171.19   231%     -  136s
     0     0 3295504.03    0  187 994364.681 3295504.03   231%     -  136s
     0     0 3288165.25    0  186 994364.681 3288165.25   231%     -  136s
     0     0 3287861.77    0  187 994364.681 3287861.77   231%     -  136s
     0     0 3286152.94    0  190 994364.681 3286152.94   230%     -  136s
     0     0 3285919.24    0  189 994364.681 3285919.24   230%     -  136s
     0     0 3285909.50    0  193 994364.681 3285909.50   230%     -  136s
     0     0 3097093.41    0  178 994364.681 3097093.41   211%     -  137s
     0     0 3097001.60    0  188 994364.681 3097001.60   211%     -  137s
     0     0 3096644.94    0  181 994364.681 3096644.94   211%     -  137s
     0     0 3096376.74    0  182 994364.681 3096376.74   211%     -  137s
     0     0 3096371.97    0  182 994364.681 3096371.97   211%     -  137s
     0     0 3094061.50    0  192 994364.681 3094061.50   211%     -  137s
     0     0 3093306.58    0  195 994364.681 3093306.58   211%     -  137s
     0     0 3093137.18    0  197 994364.681 3093137.18   211%     -  137s
     0     0 3093137.18    0  197 994364.681 3093137.18   211%     -  137s
     0     0 3092157.82    0  203 994364.681 3092157.82   211%     -  137s
     0     0 3091894.09    0  200 994364.681 3091894.09   211%     -  138s
     0     0 3091257.78    0  203 994364.681 3091257.78   211%     -  138s
     0     0 3090678.50    0  205 994364.681 3090678.50   211%     -  138s
     0     0 3090600.96    0  207 994364.681 3090600.96   211%     -  138s
     0     0 3090387.32    0  209 994364.681 3090387.32   211%     -  138s
     0     0 3088900.91    0  210 994364.681 3088900.91   211%     -  138s
     0     0 3088867.37    0  206 994364.681 3088867.37   211%     -  138s
     0     0 3088183.74    0  207 994364.681 3088183.74   211%     -  138s
     0     0 3086552.87    0  203 994364.681 3086552.87   210%     -  138s
     0     0 3086149.26    0  206 994364.681 3086149.26   210%     -  139s
     0     0 3086087.87    0  211 994364.681 3086087.87   210%     -  139s
     0     0 3085197.96    0  209 994364.681 3085197.96   210%     -  139s
     0     0 3085195.69    0  209 994364.681 3085195.69   210%     -  139s
     0     0 3079008.15    0  201 994364.681 3079008.15   210%     -  139s
     0     0 3078990.23    0  202 994364.681 3078990.23   210%     -  139s
     0     0 3077800.24    0  202 994364.681 3077800.24   210%     -  139s
     0     0 3077199.43    0  205 994364.681 3077199.43   209%     -  140s
     0     0 3077104.01    0  202 994364.681 3077104.01   209%     -  140s
     0     0 3076943.33    0  203 994364.681 3076943.33   209%     -  140s
     0     0 3076926.99    0  205 994364.681 3076926.99   209%     -  140s
     0     0 3076901.29    0  208 994364.681 3076901.29   209%     -  140s
     0     0 3076901.29    0  208 994364.681 3076901.29   209%     -  143s
     0     0 3076901.29    0  127 994364.681 3076901.29   209%     -  146s
     0     0 3076901.29    0  163 994364.681 3076901.29   209%     -  149s
     0     0 3076901.29    0  161 994364.681 3076901.29   209%     -  149s
     0     0 3076901.29    0  127 994364.681 3076901.29   209%     -  150s
     0     0 3076901.29    0  151 994364.681 3076901.29   209%     -  150s
     0     0 3076901.29    0  161 994364.681 3076901.29   209%     -  150s
     0     0 3076901.29    0  145 994364.681 3076901.29   209%     -  150s
     0     0 3076901.29    0  161 994364.681 3076901.29   209%     -  150s
     0     0 3076901.29    0  161 994364.681 3076901.29   209%     -  150s
     0     0 3076901.29    0  165 994364.681 3076901.29   209%     -  150s
     0     0 3076901.29    0  164 994364.681 3076901.29   209%     -  151s
     0     0 3076901.29    0  167 994364.681 3076901.29   209%     -  151s
     0     0 3076901.29    0  167 994364.681 3076901.29   209%     -  151s
     0     0 3076901.29    0  170 994364.681 3076901.29   209%     -  151s
     0     0 3075788.00    0  169 994364.681 3075788.00   209%     -  151s
     0     0 3075475.77    0  170 994364.681 3075475.77   209%     -  151s
     0     0 3075339.65    0  170 994364.681 3075339.65   209%     -  151s
     0     0 3075338.26    0  170 994364.681 3075338.26   209%     -  151s
     0     0 3075123.56    0  173 994364.681 3075123.56   209%     -  151s
     0     0 3074959.13    0  174 994364.681 3074959.13   209%     -  151s
     0     0 3074958.18    0  174 994364.681 3074958.18   209%     -  151s
     0     0 3074952.47    0  174 994364.681 3074952.47   209%     -  151s
     0     0 3074949.69    0  169 994364.681 3074949.69   209%     -  151s
     0     0 3074444.22    0  169 994364.681 3074444.22   209%     -  152s
     0     0 3074444.22    0  169 994364.681 3074444.22   209%     -  154s
     0     2 3074444.22    0  169 994364.681 3074444.22   209%     -  155s
     6     9 2729508.64    3   81 994364.681 3065734.80   208%  1064  161s
    27    22 2635309.52    7   79 994364.681 3055661.18   207%   655  166s
    67    44 2569368.30   11   74 994364.681 3055661.18   207%   498  170s
   106    72 2095983.60   18   75 994364.681 3055661.18   207%   596  176s
H  110    75                    1079769.2130 3055661.18   183%   583  176s
   184   126 1499457.50   29   62 1079769.21 3037690.73   181%   483  180s
   351   217 1961794.72   20   90 1079769.21 3037690.73   181%   375  185s
H  413   246                    1079769.2132 2964074.75   175%   350  188s
   448   265 2014140.14    8  109 1079769.21 2964074.75   175%   346  190s
   745   448     cutoff    6      1079769.21 2655767.29   146%   291  195s
  1060   609 1317531.76   22  154 1079769.21 2613725.08   142%   277  212s
  1062   610 1383078.08   25  137 1079769.21 2613725.08   142%   277  216s
  1078   621 2086808.06    8  171 1079769.21 2613725.08   142%   273  220s
  1110   642 1149976.36   27  206 1079769.21 2613725.08   142%   265  225s
  1137   663 2613725.08   11  172 1079769.21 2613725.08   142%   282  237s
  1139   667 2613725.08   12   96 1079769.21 2613725.08   142%   284  245s
  1155   675 1291913.00   14  130 1079769.21 2613725.08   142%   305  252s
  1165   675 2613725.08   15  103 1079769.21 2613725.08   142%   311  256s
  1181   685 2613725.08   17  134 1079769.21 2613725.08   142%   323  260s
  1212   702 2608333.39   19  156 1079769.21 2613725.08   142%   338  265s
  1287   705 1650182.34   23   59 1079769.21 2613725.08   142%   356  270s
  1390   717 1146601.35   33   56 1079769.21 2613725.08   142%   364  275s
  1537   733 1214910.78   24   95 1079769.21 2613725.08   142%   359  281s
  1642   753 2308292.65   20  149 1079769.21 2561694.51   137%   361  286s
  1727   797 1715389.29   27   91 1079769.21 2561694.51   137%   366  291s
  1846   815 1595586.80   31   99 1079769.21 2561694.51   137%   369  296s
  1985   829 2129391.32   24  120 1079769.21 2490491.03   131%   372  301s
  2141   845 1771907.10   31   98 1079769.21 2458765.14   128%   375  306s
  2256   862 2282899.56   24  120 1079769.21 2453051.12   127%   377  310s
  2407   891 1778144.72   34  106 1079769.21 2437595.12   126%   385  316s
  2547   914 2251697.42   15  182 1079769.21 2420067.31   124%   384  321s
  2701   935 1666252.78   44   70 1079769.21 2397669.68   122%   384  325s
  2882   949 1498163.24   27  136 1079769.21 2380782.04   120%   380  331s
H 2958   928                    1079769.2137 2373323.78   120%   379  333s
  3013   947 1996769.30   32   92 1079769.21 2369850.23   119%   380  336s
  3167  1020 1572973.59   31  130 1079769.21 2366829.37   119%   383  342s
  3241  1053 1808915.99   29  121 1079769.21 2361806.27   119%   386  345s
  3380  1108 1431958.28   31  136 1079769.21 2340896.62   117%   390  353s
  3473  1138 1254364.41   26  133 1079769.21 2334608.07   116%   392  356s
  3695  1232 2219502.60   32  141 1079769.21 2316260.04   115%   394  363s
  3828  1312 1617724.68   47  142 1079769.21 2311652.76   114%   395  368s
  3925  1341 1307279.95   69  162 1079769.21 2293519.31   112%   394  372s
H 3941  1341                    1079769.2156 2293519.31   112%   393  372s
  4074  1403 1246996.69   28   66 1079769.22 2290997.81   112%   394  376s
  4278  1504 1371645.63   30   72 1079769.22 2269654.87   110%   391  381s
  4429  1562 1477331.06   30  149 1079769.22 2265130.33   110%   394  386s
  4591  1602 2078181.13   20  144 1079769.22 2248798.18   108%   395  390s
  4797  1693 1478752.19   29   61 1079769.22 2237568.02   107%   393  396s
  4946  1710 2218050.18   29  193 1079769.22 2231927.83   107%   391  401s
  5129  1782 1728764.87   40   91 1079769.22 2221759.91   106%   392  406s
  5418  1892 2007331.70   25   77 1079769.22 2205927.81   104%   386  411s
  5584  1967 1697613.08   29  134 1079769.22 2200235.40   104%   386  416s
  5763  2036 1666590.62   41  133 1079769.22 2185414.07   102%   389  423s
  5827  2054 1551166.22   28   90 1079769.22 2182686.66   102%   390  429s
  6028  2095 1743764.88   31  113 1079769.22 2164803.99   100%   392  435s
  6289  2198     cutoff   23      1079769.22 2154703.66   100%   390  442s
  6518  2287 2062853.14   20  183 1079769.22 2145126.04  98.7%   388  449s
  6687  2341 1703481.48   28   75 1079769.22 2137852.84  98.0%   388  456s
  6973  2421 2004768.74   51  106 1079769.22 2127639.58  97.0%   387  463s
  7237  2494 1913528.44   33  107 1079769.22 2114777.39  95.9%   389  470s
  7566  2583 1256293.86   39  107 1079769.22 2105217.90  95.0%   388  478s
  7792  2651 1101828.09   35   96 1079769.22 2100014.19  94.5%   388  488s
  8115  2769 1835764.48   46  113 1079769.22 2096750.55  94.2%   384  496s
  8489  2912 1277220.63   47  126 1079769.22 2074766.60  92.1%   383  505s
  8908  3020 1468115.65   34   84 1079769.22 2066207.88  91.4%   377  514s
  9338  3189     cutoff   26      1079769.22 2049687.73  89.8%   375  523s
  9740  3326     cutoff   31      1079769.22 2039764.13  88.9%   376  533s
  9907  3381 2012314.01   33  168 1079769.22 2034312.54  88.4%   376  543s
 10374  3491 1262087.23   50  118 1079769.22 2027070.32  87.7%   375  556s
 10876  3673 1731715.85   24  132 1079769.22 2013480.88  86.5%   374  567s
 11262  3766 1309664.60   38  134 1079769.22 1995843.89  84.8%   374  577s
 11744  3863 1536981.09   31   62 1079769.22 1987665.62  84.1%   373  588s
 12178  3968 1265861.01   26   92 1079769.22 1970960.98  82.5%   374  600s
 12641  4047     cutoff   38      1079769.22 1955184.38  81.1%   374  612s
 13184  4166 1569603.13   32  143 1079769.22 1946062.19  80.2%   372  623s
 13755  4307 1485634.48   58  127 1079769.22 1931317.83  78.9%   369  634s
 14147  4383     cutoff   23      1079769.22 1919276.17  77.7%   368  645s
 14702  4520     cutoff   32      1079769.22 1911299.36  77.0%   366  655s
 15170  4604     cutoff   49      1079769.22 1898527.05  75.8%   364  665s
 15783  4731 1387657.22   42  107 1079769.22 1885310.47  74.6%   362  675s
 16243  4761     cutoff   42      1079769.22 1874017.53  73.6%   360  687s
 16887  4902 1351154.35   24  129 1079769.22 1859411.98  72.2%   357  696s
 17402  5080 1815387.85   43  156 1079769.22 1850253.89  71.4%   355  709s
 17445  5013 1786403.80   46  166 1079769.22 1848797.44  71.2%   355  718s
 17995  5063     cutoff   27      1079769.22 1839574.50  70.4%   353  727s
 18520  5094     cutoff   32      1079769.22 1825920.76  69.1%   352  736s
 18901  5115     cutoff   35      1079769.22 1820322.40  68.6%   353  746s
 19409  5155 1328399.58   22   30 1079769.22 1812243.03  67.8%   351  754s
 19952  5237     cutoff   47      1079769.22 1800620.53  66.8%   349  763s
 20490  5314 1099007.55   55   98 1079769.22 1789660.98  65.7%   347  772s
 20918  5327 1353730.43   44  110 1079769.22 1781783.95  65.0%   347 1021s
 21319  5374 1737027.34   26  135 1079769.22 1772589.52  64.2%   346 1030s
 21708  5399 1656229.83   16   92 1079769.22 1765200.27  63.5%   347 1043s
 21959  5381 1477940.75   45   59 1079769.22 1758687.60  62.9%   348 1054s
 22309  5401 1197663.12   33  118 1079769.22 1755430.51  62.6%   349 1065s
 22626  5386     cutoff   60      1079769.22 1746845.79  61.8%   350 1073s
 22885  5373 1654068.87   23   57 1079769.22 1738099.75  61.0%   352 1083s
 23208  5395 1373729.11   32  148 1079769.22 1731438.35  60.4%   353 1092s
 23435  5372     cutoff   33      1079769.22 1726817.12  59.9%   355 1100s
 23669  5371 1522512.26   26  101 1079769.22 1719137.51  59.2%   357 1109s
 23992  5374     cutoff   55      1079769.22 1712539.15  58.6%   358 1118s
 24264  5348     cutoff   52      1079769.22 1708303.26  58.2%   360 1127s
 24640  5359 1648331.40   27   32 1079769.22 1699979.41  57.4%   361 1136s
 24930  5343 1434887.68   33  149 1079769.22 1695024.74  57.0%   362 1145s
 25229  5314 1233655.20   34   76 1079769.22 1686648.02  56.2%   364 1154s
 25512  5331     cutoff   36      1079769.22 1683289.53  55.9%   365 1180s
 25767  5290     cutoff   31      1079769.22 1675298.12  55.2%   366 1191s
 26088  5292 1206599.75   24   95 1079769.22 1669708.26  54.6%   368 1200s
 26355  5277 1230704.11   43   96 1079769.22 1664717.13  54.2%   369 1210s
 26669  5263     cutoff   41      1079769.22 1659163.18  53.7%   370 1221s
 27003  5270     cutoff   36      1079769.22 1653068.60  53.1%   370 1230s
 27363  5247     cutoff   29      1079769.22 1645098.63  52.4%   371 1239s
 27590  5205     cutoff   26      1079769.22 1639668.80  51.9%   371 1248s
 27880  5189 1369225.26   30  140 1079769.22 1630643.33  51.0%   372 1259s
 28215  5155 1543264.86   22  158 1079769.22 1626258.64  50.6%   373 1269s
 28516  5144 1085819.21   38  117 1079769.22 1620088.33  50.0%   373 1278s
 28836  5131 1520580.93   43   86 1079769.22 1615019.04  49.6%   374 1287s
 29129  5099     cutoff   37      1079769.22 1609746.80  49.1%   375 1299s
 29402  5073     cutoff   32      1079769.22 1603232.68  48.5%   376 1310s
 29688  5028 1254749.69   36  119 1079769.22 1596781.41  47.9%   377 1320s
 30057  5011     cutoff   23      1079769.22 1591406.18  47.4%   378 1329s
 30346  4967     cutoff   41      1079769.22 1584818.85  46.8%   378 1338s
 30686  4946     cutoff   42      1079769.22 1578537.52  46.2%   378 1352s
 30922  4882     cutoff   33      1079769.22 1571497.20  45.5%   378 1359s
 31223  4849 infeasible   43      1079769.22 1564061.76  44.9%   378 1368s
 31546  4795 1416954.65   46  112 1079769.22 1556965.25  44.2%   378 1375s
 31847  4747     cutoff   34      1079769.22 1549264.68  43.5%   378 1384s
 32163  4711     cutoff   33      1079769.22 1543487.75  42.9%   378 1391s
 32422  4665     cutoff   42      1079769.22 1536977.18  42.3%   377 1400s
 32647  4607     cutoff   33      1079769.22 1532621.95  41.9%   378 1409s
 32938  4571     cutoff   29      1079769.22 1525577.12  41.3%   378 1418s
 33179  4503     cutoff   34      1079769.22 1521241.85  40.9%   379 1426s
 33509  4468     cutoff   24      1079769.22 1514053.24  40.2%   378 1436s
 33791  4414     cutoff   37      1079769.22 1510108.19  39.9%   378 1444s
 34191  4393 1497792.82   32   57 1079769.22 1503106.77  39.2%   378 1454s
 34495  4351     cutoff   26      1079769.22 1497844.37  38.7%   378 1466s
 34757  4294     cutoff   29      1079769.22 1493668.87  38.3%   377 1479s
 35029  4249     cutoff   36      1079769.22 1485587.75  37.6%   377 1488s
 35275  4186     cutoff   40      1079769.22 1482792.33  37.3%   378 1494s
 35523  4128 1118581.81   30  132 1079769.22 1475068.37  36.6%   378 1504s
 35793  4083 1449233.79   24   47 1079769.22 1470281.02  36.2%   378 1511s
 36083  4041     cutoff   31      1079769.22 1464461.62  35.6%   378 1521s
 36290  3969 1138543.31   30  135 1079769.22 1459620.48  35.2%   378 1530s
 36558  3914     cutoff   41      1079769.22 1454266.84  34.7%   379 1536s
 36818  3863     cutoff   29      1079769.22 1448755.10  34.2%   378 1543s
 37055  3797 1442699.90   37   96 1079769.22 1444578.98  33.8%   378 1551s
 37381  3746     cutoff   48      1079769.22 1439646.22  33.3%   378 1556s
 37645  3698 1264491.45   35   51 1079769.22 1435033.30  32.9%   377 1563s
 37932  3656     cutoff   36      1079769.22 1430206.28  32.5%   376 1570s
 38216  3608 1290169.84   46   48 1079769.22 1425107.40  32.0%   376 1578s
 38524  3560 1095291.59   46   85 1079769.22 1419575.88  31.5%   376 1586s
 38785  3493     cutoff   41      1079769.22 1415568.64  31.1%   375 1596s
 39029  3424 1099011.00   48  116 1079769.22 1410739.37  30.7%   375 1603s
 39358  3384     cutoff   50      1079769.22 1405739.38  30.2%   374 1607s
 39585  3322     cutoff   83      1079769.22 1400329.26  29.7%   373 1611s
 39806  3246     cutoff   25      1079769.22 1395251.78  29.2%   373 1617s
 40005  3172     cutoff   52      1079769.22 1389025.66  28.6%   372 1624s
 40301  3149 1143540.47   54   93 1079769.22 1383354.01  28.1%   372 1660s
 40710  3012 1137714.25   40   43 1079769.22 1376309.08  27.5%   370 1671s
 41016  2963 1206850.11   37   53 1079769.22 1369788.36  26.9%   370 1678s
 41271  2900 1289586.01   35   51 1079769.22 1363442.84  26.3%   369 1686s
 41521  2841     cutoff   51      1079769.22 1358392.18  25.8%   369 1692s
 41763  2774     cutoff   42      1079769.22 1353807.29  25.4%   368 1701s
 42194  2646     cutoff   50      1079769.22 1344953.29  24.6%   367 1709s
 42397  2579     cutoff   28      1079769.22 1339261.84  24.0%   366 1712s
 42608  2498 1185601.12   29   38 1079769.22 1334571.56  23.6%   366 1717s
 42841  2434 1244540.04   33   52 1079769.22 1329595.80  23.1%   365 1723s
 43057  2372     cutoff   32      1079769.22 1324332.81  22.6%   365 1727s
 43265  2293     cutoff   36      1079769.22 1319255.28  22.2%   364 1733s
 43452  2222     cutoff   33      1079769.22 1314680.79  21.8%   364 1736s
 43678  2149     cutoff   32      1079769.22 1308851.87  21.2%   363 1740s
 43898  2083 1293191.41   40   73 1079769.22 1304614.63  20.8%   362 1746s
 44116  2023     cutoff   40      1079769.22 1299291.02  20.3%   362 1750s
 44309  1952 infeasible   31      1079769.22 1293021.32  19.7%   361 1756s
 44561  1886     cutoff   30      1079769.22 1288248.77  19.3%   361 1761s
 44774  1807     cutoff   41      1079769.22 1282776.07  18.8%   360 1765s
 45214  1660 1191503.10   35   87 1079769.22 1273287.20  17.9%   359 1771s
 45552  1505     cutoff   24      1079769.22 1262110.99  16.9%   358 1777s
 45904  1359 1223321.04   38   38 1079769.22 1251276.45  15.9%   357 1782s
 46120  1279     cutoff   73      1079769.22 1245151.26  15.3%   356 1785s
 46480  1121     cutoff   34      1079769.22 1235164.37  14.4%   354 1790s
 46819   960     cutoff   42      1079769.22 1223454.94  13.3%   353 1795s
 47444   636     cutoff   54      1079769.22 1197632.68  10.9%   350 1800s
 47897   392     cutoff   41      1079769.22 1175103.86  8.83%   348 1805s

Cutting planes:
  Gomory: 78
  Cover: 1
  Implied bound: 57
  Projected implied bound: 4
  MIR: 132
  Flow cover: 504

Explored 48515 nodes (16835077 simplex iterations) in 1813.31 seconds
Thread count was 4 (of 16 available processors)

Solution count 8: 1.07977e+06 1.07977e+06 1.07977e+06 ... -566805

Optimal solution found (tolerance 1.00e-04)
Best objective 1.079769212879e+06, best bound 1.079769215567e+06, gap 0.0000%

***
***  |- Calculation finished, took 1,813.35 (1813.35) sec.
***  |-----------------------------------------------------------------------------------------------------------------------
***
*****************************************************************************************************************************
#############################################################################################################################
###
### Results
###
### The objective of the solution is 1,079,769.2129 (1079769.2129) and is feasible with a Gap of 0.0
###
### Service 81 (MECL1) is operated by 6 vessels from type 30 (PMax35)
###  |- Vessel  9 has the path [9, 332, 326, 342, 333, 324, 4, 294, 284, 7, 298, 196, 0]
###  |  9 (BEANR Out@344.0) - 332 (USEWR In@608.0/Out@618.0) - 326 (USCHS In@656.0/Out@666.0) - 342 (USORF In@691.0/Out@704.0
###  |  ) - 333 (USEWR In@728.0/Out@744.0) - 324 (TRZMK In@1063.0/Out@1077.0) - 4 (AEJEA In@1177.0/Out@1201.0) - 294 (PKBQM I
###  |  n@1258.0/Out@1288.0) - 284 (OMSLL In@1410.0/Out@1423.0) - 7 (AEJEA In@1681.0/Out@1705.0) - 298 (PKBQM In@1762.0/Out@1
###  |  792.0) - 196 (INNSA In@1856.0/Out@1872.0) - 0 (DUMMY_END Ziel-Service 81)
###  |   |- and carried Demand 237,   34.0 containers from 298 to 196
###  |   |- and carried Demand 238,   84.0 containers from   7 to 298
###  |   |- and carried Demand 239,   50.0 containers from   7 to 298
###  |   |- and carried Demand 297,  254.0 containers from 294 to 196
###  |   |- and carried Demand 298,    1.0 containers from 294 to 196
###  |   |- and carried Demand 299,  135.0 containers from 294 to 196
###  |   |- and carried Demand 302,   75.0 containers from   4 to 196
###  |   |- and carried Demand 303,  200.0 containers from   4 to 294
###  |   |- and carried Demand 304,   24.0 containers from   4 to 294
###  |   |- and carried Demand 305,   26.0 containers from   4 to 196
###  |   |- and carried Demand 306,  144.0 containers from   4 to 196
###  |   |- and carried Demand 307,    1.0 containers from   4 to 196
###  |   |- and carried Demand 309,  339.0 containers from 342 to   4
###  |   |- and carried Demand 310,  115.0 containers from 342 to   4
###  |   |- and carried Demand 311,    3.0 containers from 342 to 284
###  |   |- and carried Demand 312,    2.0 containers from 342 to 294
###  |   |- and carried Demand 313,  194.0 containers from 326 to   4
###  |   |- and carried Demand 314,   49.0 containers from 326 to   4
###  |   |- and carried Demand 315,   40.0 containers from 326 to 294
###  |   |- and carried Demand 318,  842.0 containers from 332 to   4
###  |   |- and carried Demand 319,   99.0 containers from 332 to   4
###  |   |- and carried Demand 320,  123.0 containers from 332 to 294
###  |   |- and carried Demand 321,    1.0 containers from 332 to 294
###  |- Vessel 10 has the path [10, 316, 190, 0]
###  |  10 (BEANR Out@512.0) - 316 (TRAMB In@854.0/Out@881.0) - 190 (INNSA In@1016.0/Out@1032.0) - 0 (DUMMY_END Ziel-Service 
###  |  81)
###  |- Vessel 11 has the path [13, 313, 191, 0]
###  |  13 (BEANR Out@680.0) - 313 (TRALI In@946.0/Out@964.0) - 191 (INNSA In@1184.0/Out@1200.0) - 0 (DUMMY_END Ziel-Service 
###  |  81)
###  |- Vessel 12 has the path [16, 314, 192, 0]
###  |  16 (BEANR Out@848.0) - 314 (TRALI In@1114.0/Out@1132.0) - 192 (INNSA In@1352.0/Out@1368.0) - 0 (DUMMY_END Ziel-Servic
###  |  e 81)
###  |- Vessel 17 has the path [158, 2, 291, 292, 293, 283, 5, 295, 194, 195, 0]
###  |  158 (GBFXT Out@580.0) - 2 (AEJEA In@841.0/Out@865.0) - 291 (PKBQM In@922.0/Out@952.0) - 292 (PKBQM In@992.0/Out@1020.
###  |  0) - 293 (PKBQM In@1090.0/Out@1120.0) - 283 (OMSLL In@1167.0/Out@1182.0) - 5 (AEJEA In@1345.0/Out@1369.0) - 295 (PKBQ
###  |  M In@1426.0/Out@1456.0) - 194 (INNSA In@1590.0/Out@1622.0) - 195 (INNSA In@1688.0/Out@1704.0) - 0 (DUMMY_END Ziel-Ser
###  |  vice 81)
###  |   |- and carried Demand 120,  237.0 containers from 292 to 194
###  |   |- and carried Demand 121,    2.0 containers from 292 to 194
###  |   |- and carried Demand 123,   97.0 containers from 292 to 194
###  |   |- and carried Demand 283,  153.0 containers from   5 to 195
###  |   |- and carried Demand 284,   86.0 containers from   5 to 295
###  |   |- and carried Demand 285,  118.0 containers from   5 to 295
###  |   |- and carried Demand 323,  244.0 containers from 293 to 195
###  |   |- and carried Demand 324,   67.0 containers from 293 to 195
###  |   |- and carried Demand 333,  237.0 containers from 291 to 194
###  |   |- and carried Demand 334,    2.0 containers from 291 to 194
###  |   |- and carried Demand 336,   97.0 containers from 291 to 194
###  |   |- and carried Demand 338,  704.0 containers from   2 to 195
###  |   |- and carried Demand 339,    8.0 containers from   2 to 195
###  |   |- and carried Demand 340,  156.0 containers from   2 to 291
###  |   |- and carried Demand 341,   45.0 containers from   2 to 291
###  |   |- and carried Demand 342,   16.0 containers from   2 to 194
###  |   |- and carried Demand 343,  264.0 containers from   2 to 194
###  |- Vessel 18 has the path [161, 321, 193, 0]
###  |  161 (GBFXT Out@748.0) - 321 (TRGEM In@1087.0/Out@1095.0) - 193 (INNSA In@1520.0/Out@1536.0) - 0 (DUMMY_END Ziel-Servi
###  |  ce 81)
###  |
### Vessels not used in the solution: [1, 2, 3, 4, 5, 6, 7, 8, 13, 14, 15, 16]
###  |-----------------------------------------------------------------------------------------------------------------------
###
#############################################################################################################################

### Detialed variable overview

### All variables with value greater zero:
rho[81,30] = 1
eta[81,30,1] = 1
eta[81,30,2] = 1
eta[81,30,3] = 1
eta[81,30,4] = 1
eta[81,30,5] = 1
eta[81,30,6] = 1
y[9,4,294] = 1
y[9,332,326] = 1
y[9,294,284] = 1
y[9,284,7] = 1
y[9,342,333] = 1
y[9,9,332] = 1
y[9,324,4] = 1
y[9,7,298] = 1
y[9,196,0] = 1
y[9,333,324] = 1
y[9,298,196] = 1
y[9,326,342] = 1
y[10,190,0] = 1
y[10,316,190] = 1
y[10,10,316] = 1
y[11,313,191] = 1
y[11,191,0] = 1
y[11,13,313] = 1
y[12,192,0] = 1
y[12,314,192] = 1
y[12,16,314] = 1
y[17,283,5] = 1
y[17,293,283] = 1
y[17,195,0] = 1
y[17,5,295] = 1
y[17,292,293] = 1
y[17,194,195] = 1
y[17,291,292] = 1
y[17,295,194] = 1
y[17,2,291] = 1
y[17,158,2] = 1
y[18,161,321] = 1
y[18,193,0] = 1
y[18,321,193] = 1
xD[120,283,5] = 237
xD[120,293,283] = 237
xD[120,5,295] = 237
xD[120,292,293] = 237
xD[120,295,194] = 237
xD[121,283,5] = 2
xD[121,293,283] = 2
xD[121,5,295] = 2
xD[121,292,293] = 2
xD[121,295,194] = 2
xD[123,283,5] = 97
xD[123,293,283] = 97
xD[123,5,295] = 97
xD[123,292,293] = 97
xD[123,295,194] = 97
xD[237,298,196] = 34
xD[238,7,298] = 84
xD[239,7,298] = 50
xD[283,5,295] = 153
xD[283,194,195] = 153
xD[283,295,194] = 153
xD[284,5,295] = 86
xD[285,5,295] = 118
xD[297,294,284] = 254
xD[297,284,7] = 254
xD[297,7,298] = 254
xD[297,298,196] = 254
xD[298,294,284] = 1
xD[298,284,7] = 1
xD[298,7,298] = 1
xD[298,298,196] = 1
xD[299,294,284] = 135
xD[299,284,7] = 135
xD[299,7,298] = 135
xD[299,298,196] = 135
xD[302,4,294] = 75
xD[302,294,284] = 75
xD[302,284,7] = 75
xD[302,7,298] = 75
xD[302,298,196] = 75
xD[303,4,294] = 200
xD[304,4,294] = 24
xD[305,4,294] = 26
xD[305,294,284] = 26
xD[305,284,7] = 26
xD[305,7,298] = 26
xD[305,298,196] = 26
xD[306,4,294] = 144
xD[306,294,284] = 144
xD[306,284,7] = 144
xD[306,7,298] = 144
xD[306,298,196] = 144
xD[307,4,294] = 1
xD[307,294,284] = 1
xD[307,284,7] = 1
xD[307,7,298] = 1
xD[307,298,196] = 1
xD[309,342,333] = 339
xD[309,324,4] = 339
xD[309,333,324] = 339
xD[310,342,333] = 115
xD[310,324,4] = 115
xD[310,333,324] = 115
xD[311,4,294] = 3
xD[311,294,284] = 3
xD[311,342,333] = 3
xD[311,324,4] = 3
xD[311,333,324] = 3
xD[312,4,294] = 2
xD[312,342,333] = 2
xD[312,324,4] = 2
xD[312,333,324] = 2
xD[313,342,333] = 194
xD[313,324,4] = 194
xD[313,333,324] = 194
xD[313,326,342] = 194
xD[314,342,333] = 49
xD[314,324,4] = 49
xD[314,333,324] = 49
xD[314,326,342] = 49
xD[315,4,294] = 40
xD[315,342,333] = 40
xD[315,324,4] = 40
xD[315,333,324] = 40
xD[315,326,342] = 40
xD[318,332,326] = 842
xD[318,342,333] = 842
xD[318,324,4] = 842
xD[318,333,324] = 842
xD[318,326,342] = 842
xD[319,332,326] = 99
xD[319,342,333] = 99
xD[319,324,4] = 99
xD[319,333,324] = 99
xD[319,326,342] = 99
xD[320,4,294] = 123
xD[320,332,326] = 123
xD[320,342,333] = 123
xD[320,324,4] = 123
xD[320,333,324] = 123
xD[320,326,342] = 123
xD[321,4,294] = 1
xD[321,332,326] = 1
xD[321,342,333] = 1
xD[321,324,4] = 1
xD[321,333,324] = 1
xD[321,326,342] = 1
xD[323,283,5] = 244
xD[323,293,283] = 244
xD[323,5,295] = 244
xD[323,194,195] = 244
xD[323,295,194] = 244
xD[324,283,5] = 67
xD[324,293,283] = 67
xD[324,5,295] = 67
xD[324,194,195] = 67
xD[324,295,194] = 67
xD[333,283,5] = 237
xD[333,293,283] = 237
xD[333,5,295] = 237
xD[333,292,293] = 237
xD[333,291,292] = 237
xD[333,295,194] = 237
xD[334,283,5] = 2
xD[334,293,283] = 2
xD[334,5,295] = 2
xD[334,292,293] = 2
xD[334,291,292] = 2
xD[334,295,194] = 2
xD[336,283,5] = 97
xD[336,293,283] = 97
xD[336,5,295] = 97
xD[336,292,293] = 97
xD[336,291,292] = 97
xD[336,295,194] = 97
xD[338,283,5] = 704
xD[338,293,283] = 704
xD[338,5,295] = 704
xD[338,292,293] = 704
xD[338,194,195] = 704
xD[338,291,292] = 704
xD[338,295,194] = 704
xD[338,2,291] = 704
xD[339,283,5] = 8
xD[339,293,283] = 8
xD[339,5,295] = 8
xD[339,292,293] = 8
xD[339,194,195] = 8
xD[339,291,292] = 8
xD[339,295,194] = 8
xD[339,2,291] = 8
xD[340,2,291] = 156
xD[341,2,291] = 45
xD[342,283,5] = 16
xD[342,293,283] = 16
xD[342,5,295] = 16
xD[342,292,293] = 16
xD[342,291,292] = 16
xD[342,295,194] = 16
xD[342,2,291] = 16
xD[343,283,5] = 264
xD[343,293,283] = 264
xD[343,5,295] = 264
xD[343,292,293] = 264
xD[343,291,292] = 264
xD[343,295,194] = 264
xD[343,2,291] = 264
zE[2] = 841
zE[4] = 1177
zE[5] = 1345
zE[7] = 1681
zE[190] = 1016
zE[191] = 1184
zE[192] = 1352
zE[193] = 1520
zE[194] = 1590
zE[195] = 1688
zE[196] = 1856
zE[283] = 1167
zE[284] = 1410
zE[291] = 922
zE[292] = 992
zE[293] = 1090
zE[294] = 1258
zE[295] = 1426
zE[298] = 1762
zE[313] = 946
zE[314] = 1114
zE[316] = 854
zE[321] = 1087
zE[324] = 1063
zE[326] = 656
zE[332] = 608
zE[333] = 728
zE[342] = 691
zX[2] = 865
zX[4] = 1201
zX[5] = 1369
zX[7] = 1705
zX[9] = 344
zX[10] = 512
zX[13] = 680
zX[16] = 848
zX[158] = 580
zX[161] = 748
zX[190] = 1032
zX[191] = 1200
zX[192] = 1368
zX[193] = 1536
zX[194] = 1622
zX[195] = 1704
zX[196] = 1872
zX[283] = 1182
zX[284] = 1423
zX[291] = 952
zX[292] = 1020
zX[293] = 1120
zX[294] = 1288
zX[295] = 1456
zX[298] = 1792
zX[313] = 964
zX[314] = 1132
zX[316] = 881
zX[321] = 1095
zX[324] = 1077
zX[326] = 666
zX[332] = 618
zX[333] = 744
zX[342] = 704
phi[9] = 1528
phi[10] = 520
phi[11] = 520
phi[12] = 520
phi[17] = 1124
phi[18] = 788

### All variables with value smaller zero:

### End

real	33m21.580s
user	114m34.142s
sys	7m5.426s
	Freetype 2.4.12 environment removed
	Python 3.6.0 environment removed
	Gurobi 8.1.0 environment removed
