	Freetype 2.4.12 environment established
		library to render fonts
	Python 3.6.0 environment established
	Gurobi 8.1.0 environment established
Instance LSFRP: LSFDRP_4_3_0_1_fr.p
Instance LSFDP: LSFDRP_4_3_0_1_fd_22.p

*****************************************************************************************************************************
*** Solve LSFDRP_4_3_0_1_fd_22 with Gurobi
***
*** Graph info
*** |S|: 18
*** |S^E|: 0
*** |S^C|: 0
*** |V|: 347
*** |A|: 8382
*** |A^i|: 8382
*** |A^f|: 0
*** |M|: 343
*** |E|: 0

Changed value of parameter TimeLimit to 86400.0
   Prev: 1e+100  Min: 0.0  Max: 1e+100  Default: 1e+100
Changed value of parameter Threads to 4
   Prev: 0  Min: 0  Max: 1024  Default: 0
Optimize a model with 143610 rows, 3043383 columns and 10828029 nonzeros
Variable types: 2892486 continuous, 150897 integer (150897 binary)
Coefficient statistics:
  Matrix range     [1e+00, 4e+03]
  Objective range  [4e+01, 1e+08]
  Bounds range     [1e+00, 1e+00]
  RHS range        [1e+00, 6e+00]
Presolve removed 133873 rows and 2908356 columns (presolve time = 5s) ...
Warning: Failed to open log file 'gurobi.log'
Presolve removed 136084 rows and 2912737 columns (presolve time = 11s) ...
Presolve removed 136084 rows and 2918453 columns (presolve time = 48s) ...
Presolve removed 136198 rows and 2918662 columns (presolve time = 52s) ...
Presolve removed 136198 rows and 2918662 columns
Presolve time: 53.84s
Presolved: 7412 rows, 124721 columns, 428446 nonzeros
Variable types: 4833 continuous, 119888 integer (119851 binary)

Root simplex log...

Iteration    Objective       Primal Inf.    Dual Inf.      Time
       0    9.3104177e+09   1.380824e+06   0.000000e+00     55s
   20909    1.0441090e+07   8.784307e+04   0.000000e+00     60s
   28072    7.8410823e+06   2.138453e+04   0.000000e+00     65s
   33728    5.5758963e+06   2.228682e+04   0.000000e+00     70s
   35567    5.4073849e+06   0.000000e+00   0.000000e+00     72s

Root relaxation: objective 5.407385e+06, 35567 iterations, 17.21 seconds

    Nodes    |    Current Node    |     Objective Bounds      |     Work
 Expl Unexpl |  Obj  Depth IntInf | Incumbent    BestBd   Gap | It/Node Time

     0     0 5407384.87    0  174          - 5407384.87      -     -   74s
H    0     0                    -596794.2625 5407384.87  1006%     -   75s
H    0     0                    601150.29305 5407384.87   800%     -  118s
     0     0 5096419.62    0  162 601150.293 5096419.62   748%     -  121s
     0     0 5096419.62    0  149 601150.293 5096419.62   748%     -  128s
     0     0 5078842.22    0  162 601150.293 5078842.22   745%     -  133s
     0     0 5070894.86    0  161 601150.293 5070894.86   744%     -  134s
     0     0 5070842.87    0  161 601150.293 5070842.87   744%     -  134s
     0     0 5029576.59    0  170 601150.293 5029576.59   737%     -  135s
     0     0 5028341.20    0  178 601150.293 5028341.20   736%     -  135s
     0     0 5028341.20    0  178 601150.293 5028341.20   736%     -  135s
     0     0 3484173.60    0  150 601150.293 3484173.60   480%     -  138s
     0     0 3471478.65    0  165 601150.293 3471478.65   477%     -  138s
     0     0 3470710.84    0  163 601150.293 3470710.84   477%     -  138s
     0     0 3470117.61    0  165 601150.293 3470117.61   477%     -  138s
     0     0 3458460.85    0  164 601150.293 3458460.85   475%     -  139s
     0     0 3458460.85    0  151 601150.293 3458460.85   475%     -  141s
H    0     0                    864882.26523 3458460.85   300%     -  144s
     0     0 3305956.53    0  147 864882.265 3305956.53   282%     -  145s
     0     0 3295648.70    0  152 864882.265 3295648.70   281%     -  146s
     0     0 3293288.33    0  162 864882.265 3293288.33   281%     -  146s
     0     0 3292414.06    0  162 864882.265 3292414.06   281%     -  146s
     0     0 3292395.32    0  161 864882.265 3292395.32   281%     -  146s
     0     0 3094686.61    0  160 864882.265 3094686.61   258%     -  147s
     0     0 3094686.61    0  128 864882.265 3094686.61   258%     -  149s
     0     0 3094686.61    0  141 864882.265 3094686.61   258%     -  152s
     0     0 3094686.61    0  130 864882.265 3094686.61   258%     -  152s
     0     0 3094686.61    0  130 864882.265 3094686.61   258%     -  152s
     0     0 3094630.78    0  112 864882.265 3094630.78   258%     -  152s
     0     0 3094498.54    0  105 864882.265 3094498.54   258%     -  152s
     0     0 3094496.47    0  105 864882.265 3094496.47   258%     -  152s
     0     0 3091540.39    0  155 864882.265 3091540.39   257%     -  153s
     0     0 3091214.45    0  137 864882.265 3091214.45   257%     -  153s
     0     0 3090943.31    0  137 864882.265 3090943.31   257%     -  153s
     0     0 3090923.97    0  137 864882.265 3090923.97   257%     -  153s
     0     0 3089147.90    0  141 864882.265 3089147.90   257%     -  153s
     0     0 3087335.23    0  148 864882.265 3087335.23   257%     -  153s
     0     0 3087098.10    0  151 864882.265 3087098.10   257%     -  153s
     0     0 3087098.10    0  151 864882.265 3087098.10   257%     -  153s
     0     0 3086982.11    0  143 864882.265 3086982.11   257%     -  153s
     0     0 3086972.44    0  143 864882.265 3086972.44   257%     -  153s
     0     0 3086603.46    0  144 864882.265 3086603.46   257%     -  153s
     0     0 3086545.87    0  140 864882.265 3086545.87   257%     -  153s
     0     0 3086527.31    0  143 864882.265 3086527.31   257%     -  153s
     0     0 3086525.67    0  141 864882.265 3086525.67   257%     -  154s
     0     0 3084224.12    0  144 864882.265 3084224.12   257%     -  154s
     0     0 3084192.77    0  144 864882.265 3084192.77   257%     -  154s
     0     0 3083907.96    0  145 864882.265 3083907.96   257%     -  154s
     0     0 3083632.77    0  162 864882.265 3083632.77   257%     -  154s
     0     0 3082868.75    0  157 864882.265 3082868.75   256%     -  154s
     0     0 3082858.11    0  161 864882.265 3082858.11   256%     -  154s
     0     0 3082015.31    0  147 864882.265 3082015.31   256%     -  154s
     0     0 3082012.24    0  147 864882.265 3082012.24   256%     -  154s
     0     0 3081597.06    0  160 864882.265 3081597.06   256%     -  154s
     0     0 3081568.97    0  167 864882.265 3081568.97   256%     -  154s
     0     0 3080206.40    0  164 864882.265 3080206.40   256%     -  155s
     0     0 3079031.44    0  171 864882.265 3079031.44   256%     -  155s
     0     0 3078985.11    0  171 864882.265 3078985.11   256%     -  155s
     0     0 3078697.65    0  168 864882.265 3078697.65   256%     -  155s
     0     0 3078687.49    0  166 864882.265 3078687.49   256%     -  155s
     0     0 3078671.42    0  167 864882.265 3078671.42   256%     -  155s
     0     0 3078667.14    0  169 864882.265 3078667.14   256%     -  155s
     0     0 3078667.14    0  169 864882.265 3078667.14   256%     -  155s
     0     0 3078667.14    0  169 864882.265 3078667.14   256%     -  157s
     0     2 3078667.14    0  169 864882.265 3078667.14   256%     -  157s
     7    12 2715366.85    3  115 864882.265 3036336.24   251%   998  161s
    29    29 2652212.18    6  126 864882.265 3022249.29   249%   692  166s
H   30    31                    994364.68060 3022249.29   204%   669  166s
    73    68 2324124.69   17   79 994364.681 3022249.29   204%   659  170s
   146   120     cutoff   26      994364.681 3022249.29   204%   522  175s
   409   266 2512377.16    6  109 994364.681 2771466.68   179%   315  180s
   730   425 2132918.71   11  115 994364.681 2592189.52   161%   273  185s
  1054   566 1701554.22   43  162 994364.681 2576173.22   159%   259  200s
  1058   569 1679835.72    9  149 994364.681 2576173.22   159%   258  205s
  1076   581 2282095.54    8  198 994364.681 2576173.22   159%   254  211s
  1079   586 2576173.22   14  130 994364.681 2576173.22   159%   273  218s
  1081   589 2576173.22   15   84 994364.681 2576173.22   159%   274  224s
  1085   591 2576173.22   16  143 994364.681 2576173.22   159%   277  226s
  1101   598 2576173.22   18   76 994364.681 2576173.22   159%   284  230s
  1131   607 1917778.03   22  128 994364.681 2576173.22   159%   298  235s
H 1176   590                    1079769.2129 2576173.22   139%   303  240s
  1320   622 2494348.98   19  152 1079769.21 2535178.59   135%   306  245s
  1645   656 2150553.49   21  116 1079769.21 2482567.06   130%   277  250s
  1920   698 1645456.57   40  116 1079769.21 2482567.06   130%   269  255s
  2113   706 2038055.33   32  128 1079769.21 2412683.13   123%   271  260s
  2584   803 1141107.65   41   45 1079769.21 2291807.44   112%   256  265s
  2917   871     cutoff   30      1079769.21 2236170.88   107%   248  270s
  3370  1068     cutoff   32      1079769.21 2161770.80   100%   245  275s
  3802  1177 1650370.25   32   46 1079769.21 2124902.31  96.8%   241  280s
  4211  1297 1956146.75   50  129 1079769.21 2093137.84  93.9%   238  285s
  4704  1518     cutoff   43      1079769.21 2062391.11  91.0%   235  291s
  5045  1610 2011535.47   18  118 1079769.21 2037870.73  88.7%   235  295s
  5314  1658 1748656.43   55  103 1079769.21 2021760.24  87.2%   233  300s
  5842  1784 1549751.43   40   78 1079769.21 1980333.58  83.4%   229  307s
H 5987  1827                    1079769.2149 1978436.01  83.2%   228  307s
  6107  1884 1547796.28   36   46 1079769.21 1966249.39  82.1%   228  310s
  6402  1951 1276583.46   35   89 1079769.21 1957108.90  81.3%   227  315s
  6962  2147 1134690.21   34   39 1079769.21 1936236.77  79.3%   222  321s
  7416  2193 1613070.15   39   81 1079769.21 1908332.84  76.7%   221  327s
  7766  2277 1177829.40   53  120 1079769.21 1900758.53  76.0%   220  331s
H 8172  2408                    1079769.3692 1878945.75  74.0%   217  335s
  8830  2557 1577395.09   34   87 1079769.37 1858054.98  72.1%   215  344s
  9007  2550     cutoff   27      1079769.37 1850213.40  71.4%   214  348s
H 9087  2562                    1079769.3699 1850213.40  71.4%   214  348s
H 9236  2599                    1079769.3705 1848914.79  71.2%   212  348s
  9476  2614 1282084.34   29  105 1079769.37 1834187.49  69.9%   211  352s
  9908  2655     cutoff   27      1079769.37 1819471.19  68.5%   211  356s
 10514  2734     cutoff   36      1079769.37 1800165.16  66.7%   208  363s
 11125  2831 1370442.87   39   23 1079769.37 1785522.55  65.4%   204  367s
 11732  2913 1373370.48   31   43 1079769.37 1764716.80  63.4%   201  371s
 12200  2928 1456205.48   44   66 1079769.37 1752013.67  62.3%   200  375s
 13228  3009     cutoff   38      1079769.37 1724880.30  59.7%   196  382s
 13743  3025     cutoff   41      1079769.37 1707241.65  58.1%   194  386s
 14220  3043 1174577.89   42   61 1079769.37 1702700.69  57.7%   193  390s
 15182  3077     cutoff   24      1079769.37 1670409.40  54.7%   189  396s
 16112  3145 1435745.25   39   24 1079769.37 1637361.59  51.6%   186  402s
 16584  3171 1521541.18   37   30 1079769.37 1627086.48  50.7%   185  425s
 17622  3278 1518740.04   37   36 1079769.37 1608073.50  48.9%   182  432s
 18594  3287 1538978.98   37   40 1079769.37 1592272.81  47.5%   179  437s
 19109  3304     cutoff   40      1079769.37 1575224.70  45.9%   178  440s
 20001  3318     cutoff   43      1079769.37 1557831.05  44.3%   175  445s
 21211  3285 1333887.81   34   29 1079769.37 1531982.68  41.9%   172  451s
 21980  3285 1395115.65   41   26 1079769.37 1515630.79  40.4%   171  456s
 22352  3358 1154505.98   37   47 1079769.37 1508283.60  39.7%   170  676s
H22361  3358                    1079769.3708 1508283.60  39.7%   170  676s
 22770  3279 1133228.06   36   62 1079769.37 1497944.39  38.7%   169  681s
 23368  3233 1330327.90   49   91 1079769.37 1487647.12  37.8%   169  686s
 23813  3205 1360399.18   44  139 1079769.37 1474360.42  36.5%   169  691s
 24379  3138     cutoff   38      1079769.37 1459855.15  35.2%   169  696s
 24997  3070     cutoff   30      1079769.37 1448552.21  34.2%   169  702s
 25345  3045     cutoff   44      1079769.37 1442323.27  33.6%   169  705s
 26170  2955     cutoff   50      1079769.37 1424145.52  31.9%   169  712s
 26632  2853 1377769.40   35   68 1079769.37 1413121.47  30.9%   169  717s
 27183  2790 1396277.21   37   37 1079769.37 1398332.24  29.5%   169  722s
 27451  2742     cutoff   31      1079769.37 1394488.73  29.1%   169  725s
 27977  2648     cutoff   42      1079769.37 1381701.52  28.0%   170  730s
 28799  2480     cutoff   34      1079769.37 1364071.62  26.3%   169  735s
 29598  2291 1347816.31   39   69 1079769.37 1347816.31  24.8%   169  741s
 30201  2197     cutoff   49      1079769.37 1335238.88  23.7%   168  745s
 30629  2078     cutoff   34      1079769.37 1323215.06  22.5%   168  750s
 31435  1900 1292357.30   34   54 1079769.37 1306447.85  21.0%   167  755s
 32216  1699     cutoff   41      1079769.37 1291187.83  19.6%   166  761s
 32943  1517     cutoff   41      1079769.37 1274522.74  18.0%   165  765s
 33835  1227     cutoff   34      1079769.37 1253494.86  16.1%   163  770s
 34874   770 1212310.82   39   42 1079769.37 1215249.49  12.5%   161  775s
 36175    40     cutoff   46      1079769.37 1132466.73  4.88%   158  780s

Cutting planes:
  Gomory: 49
  Implied bound: 18
  Projected implied bound: 1
  MIR: 49
  Flow cover: 148

Explored 36307 nodes (5829943 simplex iterations) in 784.37 seconds
Thread count was 4 (of 16 available processors)

Solution count 10: 1.07977e+06 1.07977e+06 1.07977e+06 ... -596794

Optimal solution found (tolerance 1.00e-04)
Best objective 1.079769212879e+06, best bound 1.079769370820e+06, gap 0.0000%

***
***  |- Calculation finished, took 784.41 (784.41) sec.
***  |-----------------------------------------------------------------------------------------------------------------------
***
*****************************************************************************************************************************
#############################################################################################################################
###
### Results
###
### The objective of the solution is 1,079,769.2129 (1079769.2129) and is feasible with a Gap of 0.0
###
### Service 81 (MECL1) is operated by 6 vessels from type 30 (PMax35)
###  |- Vessel  9 has the path [9, 332, 326, 342, 333, 324, 4, 294, 284, 7, 298, 196, 0]
###  |  9 (BEANR Out@344.0) - 332 (USEWR In@608.0/Out@618.0) - 326 (USCHS In@656.0/Out@666.0) - 342 (USORF In@691.0/Out@704.0
###  |  ) - 333 (USEWR In@728.0/Out@744.0) - 324 (TRZMK In@1063.0/Out@1077.0) - 4 (AEJEA In@1177.0/Out@1201.0) - 294 (PKBQM I
###  |  n@1258.0/Out@1288.0) - 284 (OMSLL In@1410.0/Out@1423.0) - 7 (AEJEA In@1681.0/Out@1705.0) - 298 (PKBQM In@1762.0/Out@1
###  |  792.0) - 196 (INNSA In@1856.0/Out@1872.0) - 0 (DUMMY_END Ziel-Service 81)
###  |   |- and carried Demand 237,   34.0 containers from 298 to 196
###  |   |- and carried Demand 238,   84.0 containers from   7 to 298
###  |   |- and carried Demand 239,   50.0 containers from   7 to 298
###  |   |- and carried Demand 297,  254.0 containers from 294 to 196
###  |   |- and carried Demand 298,    1.0 containers from 294 to 196
###  |   |- and carried Demand 299,  135.0 containers from 294 to 196
###  |   |- and carried Demand 302,   75.0 containers from   4 to 196
###  |   |- and carried Demand 303,  200.0 containers from   4 to 294
###  |   |- and carried Demand 304,   24.0 containers from   4 to 294
###  |   |- and carried Demand 305,   26.0 containers from   4 to 196
###  |   |- and carried Demand 306,  144.0 containers from   4 to 196
###  |   |- and carried Demand 307,    1.0 containers from   4 to 196
###  |   |- and carried Demand 309,  339.0 containers from 342 to   4
###  |   |- and carried Demand 310,  115.0 containers from 342 to   4
###  |   |- and carried Demand 311,    3.0 containers from 342 to 284
###  |   |- and carried Demand 312,    2.0 containers from 342 to 294
###  |   |- and carried Demand 313,  194.0 containers from 326 to   4
###  |   |- and carried Demand 314,   49.0 containers from 326 to   4
###  |   |- and carried Demand 315,   40.0 containers from 326 to 294
###  |   |- and carried Demand 318,  842.0 containers from 332 to   4
###  |   |- and carried Demand 319,   99.0 containers from 332 to   4
###  |   |- and carried Demand 320,  123.0 containers from 332 to 294
###  |   |- and carried Demand 321,    1.0 containers from 332 to 294
###  |- Vessel 10 has the path [10, 316, 190, 0]
###  |  10 (BEANR Out@512.0) - 316 (TRAMB In@854.0/Out@881.0) - 190 (INNSA In@1016.0/Out@1032.0) - 0 (DUMMY_END Ziel-Service 
###  |  81)
###  |- Vessel 11 has the path [13, 313, 191, 0]
###  |  13 (BEANR Out@680.0) - 313 (TRALI In@946.0/Out@964.0) - 191 (INNSA In@1184.0/Out@1200.0) - 0 (DUMMY_END Ziel-Service 
###  |  81)
###  |- Vessel 12 has the path [16, 314, 192, 0]
###  |  16 (BEANR Out@848.0) - 314 (TRALI In@1114.0/Out@1132.0) - 192 (INNSA In@1352.0/Out@1368.0) - 0 (DUMMY_END Ziel-Servic
###  |  e 81)
###  |- Vessel 17 has the path [158, 2, 291, 292, 293, 283, 5, 295, 194, 195, 0]
###  |  158 (GBFXT Out@580.0) - 2 (AEJEA In@841.0/Out@865.0) - 291 (PKBQM In@922.0/Out@952.0) - 292 (PKBQM In@992.0/Out@1020.
###  |  0) - 293 (PKBQM In@1090.0/Out@1120.0) - 283 (OMSLL In@1167.0/Out@1182.0) - 5 (AEJEA In@1345.0/Out@1369.0) - 295 (PKBQ
###  |  M In@1426.0/Out@1456.0) - 194 (INNSA In@1590.0/Out@1622.0) - 195 (INNSA In@1688.0/Out@1704.0) - 0 (DUMMY_END Ziel-Ser
###  |  vice 81)
###  |   |- and carried Demand 120,  237.0 containers from 292 to 194
###  |   |- and carried Demand 121,    2.0 containers from 292 to 194
###  |   |- and carried Demand 123,   97.0 containers from 292 to 194
###  |   |- and carried Demand 283,  153.0 containers from   5 to 195
###  |   |- and carried Demand 284,   86.0 containers from   5 to 295
###  |   |- and carried Demand 285,  118.0 containers from   5 to 295
###  |   |- and carried Demand 323,  244.0 containers from 293 to 195
###  |   |- and carried Demand 324,   67.0 containers from 293 to 195
###  |   |- and carried Demand 333,  237.0 containers from 291 to 194
###  |   |- and carried Demand 334,    2.0 containers from 291 to 194
###  |   |- and carried Demand 336,   97.0 containers from 291 to 194
###  |   |- and carried Demand 338,  704.0 containers from   2 to 195
###  |   |- and carried Demand 339,    8.0 containers from   2 to 195
###  |   |- and carried Demand 340,  156.0 containers from   2 to 291
###  |   |- and carried Demand 341,   45.0 containers from   2 to 291
###  |   |- and carried Demand 342,   16.0 containers from   2 to 194
###  |   |- and carried Demand 343,  264.0 containers from   2 to 194
###  |- Vessel 18 has the path [161, 321, 193, 0]
###  |  161 (GBFXT Out@748.0) - 321 (TRGEM In@1087.0/Out@1095.0) - 193 (INNSA In@1520.0/Out@1536.0) - 0 (DUMMY_END Ziel-Servi
###  |  ce 81)
###  |
### Vessels not used in the solution: [1, 2, 3, 4, 5, 6, 7, 8, 13, 14, 15, 16]
###  |-----------------------------------------------------------------------------------------------------------------------
###
#############################################################################################################################

### Detialed variable overview

### All variables with value greater zero:
rho[81,30] = 1
eta[81,30,1] = 1
eta[81,30,2] = 1
eta[81,30,3] = 1
eta[81,30,4] = 1
eta[81,30,5] = 1
eta[81,30,6] = 1
y[9,4,294] = 1
y[9,332,326] = 1
y[9,294,284] = 1
y[9,284,7] = 1
y[9,342,333] = 1
y[9,9,332] = 1
y[9,324,4] = 1
y[9,7,298] = 1
y[9,196,0] = 1
y[9,333,324] = 1
y[9,298,196] = 1
y[9,326,342] = 1
y[10,190,0] = 1
y[10,316,190] = 1
y[10,10,316] = 1
y[11,313,191] = 1
y[11,191,0] = 1
y[11,13,313] = 1
y[12,192,0] = 1
y[12,314,192] = 1
y[12,16,314] = 1
y[17,283,5] = 1
y[17,293,283] = 1
y[17,195,0] = 1
y[17,5,295] = 1
y[17,292,293] = 1
y[17,194,195] = 1
y[17,291,292] = 1
y[17,295,194] = 1
y[17,2,291] = 1
y[17,158,2] = 1
y[18,161,321] = 1
y[18,193,0] = 1
y[18,321,193] = 1
xD[120,283,5] = 237
xD[120,293,283] = 237
xD[120,5,295] = 237
xD[120,292,293] = 237
xD[120,295,194] = 237
xD[121,283,5] = 2
xD[121,293,283] = 2
xD[121,5,295] = 2
xD[121,292,293] = 2
xD[121,295,194] = 2
xD[123,283,5] = 97
xD[123,293,283] = 97
xD[123,5,295] = 97
xD[123,292,293] = 97
xD[123,295,194] = 97
xD[237,298,196] = 34
xD[238,7,298] = 84
xD[239,7,298] = 50
xD[283,5,295] = 153
xD[283,194,195] = 153
xD[283,295,194] = 153
xD[284,5,295] = 86
xD[285,5,295] = 118
xD[297,294,284] = 254
xD[297,284,7] = 254
xD[297,7,298] = 254
xD[297,298,196] = 254
xD[298,294,284] = 1
xD[298,284,7] = 1
xD[298,7,298] = 1
xD[298,298,196] = 1
xD[299,294,284] = 135
xD[299,284,7] = 135
xD[299,7,298] = 135
xD[299,298,196] = 135
xD[302,4,294] = 75
xD[302,294,284] = 75
xD[302,284,7] = 75
xD[302,7,298] = 75
xD[302,298,196] = 75
xD[303,4,294] = 200
xD[304,4,294] = 24
xD[305,4,294] = 26
xD[305,294,284] = 26
xD[305,284,7] = 26
xD[305,7,298] = 26
xD[305,298,196] = 26
xD[306,4,294] = 144
xD[306,294,284] = 144
xD[306,284,7] = 144
xD[306,7,298] = 144
xD[306,298,196] = 144
xD[307,4,294] = 1
xD[307,294,284] = 1
xD[307,284,7] = 1
xD[307,7,298] = 1
xD[307,298,196] = 1
xD[309,342,333] = 339
xD[309,324,4] = 339
xD[309,333,324] = 339
xD[310,342,333] = 115
xD[310,324,4] = 115
xD[310,333,324] = 115
xD[311,4,294] = 3
xD[311,294,284] = 3
xD[311,342,333] = 3
xD[311,324,4] = 3
xD[311,333,324] = 3
xD[312,4,294] = 2
xD[312,342,333] = 2
xD[312,324,4] = 2
xD[312,333,324] = 2
xD[313,342,333] = 194
xD[313,324,4] = 194
xD[313,333,324] = 194
xD[313,326,342] = 194
xD[314,342,333] = 49
xD[314,324,4] = 49
xD[314,333,324] = 49
xD[314,326,342] = 49
xD[315,4,294] = 40
xD[315,342,333] = 40
xD[315,324,4] = 40
xD[315,333,324] = 40
xD[315,326,342] = 40
xD[318,332,326] = 842
xD[318,342,333] = 842
xD[318,324,4] = 842
xD[318,333,324] = 842
xD[318,326,342] = 842
xD[319,332,326] = 99
xD[319,342,333] = 99
xD[319,324,4] = 99
xD[319,333,324] = 99
xD[319,326,342] = 99
xD[320,4,294] = 123
xD[320,332,326] = 123
xD[320,342,333] = 123
xD[320,324,4] = 123
xD[320,333,324] = 123
xD[320,326,342] = 123
xD[321,4,294] = 1
xD[321,332,326] = 1
xD[321,342,333] = 1
xD[321,324,4] = 1
xD[321,333,324] = 1
xD[321,326,342] = 1
xD[323,283,5] = 244
xD[323,293,283] = 244
xD[323,5,295] = 244
xD[323,194,195] = 244
xD[323,295,194] = 244
xD[324,283,5] = 67
xD[324,293,283] = 67
xD[324,5,295] = 67
xD[324,194,195] = 67
xD[324,295,194] = 67
xD[333,283,5] = 237
xD[333,293,283] = 237
xD[333,5,295] = 237
xD[333,292,293] = 237
xD[333,291,292] = 237
xD[333,295,194] = 237
xD[334,283,5] = 2
xD[334,293,283] = 2
xD[334,5,295] = 2
xD[334,292,293] = 2
xD[334,291,292] = 2
xD[334,295,194] = 2
xD[336,283,5] = 97
xD[336,293,283] = 97
xD[336,5,295] = 97
xD[336,292,293] = 97
xD[336,291,292] = 97
xD[336,295,194] = 97
xD[338,283,5] = 704
xD[338,293,283] = 704
xD[338,5,295] = 704
xD[338,292,293] = 704
xD[338,194,195] = 704
xD[338,291,292] = 704
xD[338,295,194] = 704
xD[338,2,291] = 704
xD[339,283,5] = 8
xD[339,293,283] = 8
xD[339,5,295] = 8
xD[339,292,293] = 8
xD[339,194,195] = 8
xD[339,291,292] = 8
xD[339,295,194] = 8
xD[339,2,291] = 8
xD[340,2,291] = 156
xD[341,2,291] = 45
xD[342,283,5] = 16
xD[342,293,283] = 16
xD[342,5,295] = 16
xD[342,292,293] = 16
xD[342,291,292] = 16
xD[342,295,194] = 16
xD[342,2,291] = 16
xD[343,283,5] = 264
xD[343,293,283] = 264
xD[343,5,295] = 264
xD[343,292,293] = 264
xD[343,291,292] = 264
xD[343,295,194] = 264
xD[343,2,291] = 264
zE[2] = 841
zE[4] = 1177
zE[5] = 1345
zE[7] = 1681
zE[190] = 1016
zE[191] = 1184
zE[192] = 1352
zE[193] = 1520
zE[194] = 1590
zE[195] = 1688
zE[196] = 1856
zE[283] = 1167
zE[284] = 1410
zE[291] = 922
zE[292] = 992
zE[293] = 1090
zE[294] = 1258
zE[295] = 1426
zE[298] = 1762
zE[313] = 946
zE[314] = 1114
zE[316] = 854
zE[321] = 1087
zE[324] = 1063
zE[326] = 656
zE[332] = 608
zE[333] = 728
zE[342] = 691
zX[2] = 865
zX[4] = 1201
zX[5] = 1369
zX[7] = 1705
zX[9] = 344
zX[10] = 512
zX[13] = 680
zX[16] = 848
zX[158] = 580
zX[161] = 748
zX[190] = 1032
zX[191] = 1200
zX[192] = 1368
zX[193] = 1536
zX[194] = 1622
zX[195] = 1704
zX[196] = 1872
zX[283] = 1182
zX[284] = 1423
zX[291] = 952
zX[292] = 1020
zX[293] = 1120
zX[294] = 1288
zX[295] = 1456
zX[298] = 1792
zX[313] = 964
zX[314] = 1132
zX[316] = 881
zX[321] = 1095
zX[324] = 1077
zX[326] = 666
zX[332] = 618
zX[333] = 744
zX[342] = 704
phi[9] = 1528
phi[10] = 520
phi[11] = 520
phi[12] = 520
phi[17] = 1124
phi[18] = 788

### All variables with value smaller zero:

### End

real	16m15.398s
user	48m14.361s
sys	4m11.454s
	Freetype 2.4.12 environment removed
	Python 3.6.0 environment removed
	Gurobi 8.1.0 environment removed
