### Additional Information to the goal services
# Basic costs on route 24: 19050850.292956
# Basic costs on route 177: -40902103.97596922
# Direct costs (not staggered):
# For goal service 24:
# n_min: 2
# n_max: 4
# lowest costs of the goal service 24 with configuration (24, 18, 3) at 0.0
# For goal service 177:
# n_min: 2
# n_max: 3
# lowest costs of the goal service 177 with configuration (177, 19, 3) at 0.0
# (24, 18, 1): 18932969.51001626
# (24, 18, 2): 10424542.718812354
# (24, 18, 3): 0.0
# (24, 18, 4): 784022.4000000134
# (24, 19, 1): 29240520.789197933
# (24, 19, 2): 17026331.720014464
# (24, 19, 3): 8907579.631750487
# (24, 19, 4): 9769957.231750503
# (24, 30, 1): 28646300.43444548
# (24, 30, 2): 18217359.002421524
# (24, 30, 3): 8419071.601818532
# (24, 30, 4): 9359871.601818532
# (177, 18, 1): 15630655.028508976
# (177, 18, 2): 11154561.19526323
# (177, 18, 3): 273447.5952632427
# (177, 19, 1): 21636052.12651594
# (177, 19, 2): 14479472.439599998
# (177, 19, 3): 0.0
# (177, 30, 1): 21255976.43664538
# (177, 30, 2): 16749132.716661997
# (177, 30, 3): 1696717.029541999
# -------------------------------------------
