### Additional Information to the goal services
# Basic costs on route 24: 20479664.064927712
# Basic costs on route 177: -43969761.77416691
# Direct costs (not staggered):
# For goal service 24:
# n_min: 2
# n_max: 4
# lowest costs of the goal service 24 with configuration (24, 18, 3) at 0.0
# For goal service 177:
# n_min: 2
# n_max: 3
# lowest costs of the goal service 177 with configuration (177, 19, 3) at 0.0
# (24, 18, 1): 20352942.223267473
# (24, 18, 2): 11206383.422723271
# (24, 18, 3): 0.0
# (24, 18, 4): 842824.0799999982
# (24, 19, 1): 31433559.848387755
# (24, 19, 2): 18303306.59901554
# (24, 19, 3): 9575648.104131773
# (24, 19, 4): 10502704.02413176
# (24, 30, 1): 30794772.967028886
# (24, 30, 2): 19583660.927603126
# (24, 30, 3): 9050501.97195492
# (24, 30, 4): 10061861.971954912
# (177, 18, 1): 16802954.15564716
# (177, 18, 2): 11991153.28490799
# (177, 18, 3): 293956.1649080068
# (177, 19, 1): 23258756.036004625
# (177, 19, 2): 15565432.872569993
# (177, 19, 3): 0.0
# (177, 30, 1): 22850174.66939377
# (177, 30, 2): 18005317.67041164
# (177, 30, 3): 1823970.806757629
# -------------------------------------------
