### Additional Information to the goal services
# Basic costs on route 24: 16193222.749012608
# Basic costs on route 177: -34766788.37957383
# Direct costs (not staggered):
# For goal service 24:
# n_min: 2
# n_max: 4
# lowest costs of the goal service 24 with configuration (24, 18, 3) at 0.0
# For goal service 177:
# n_min: 2
# n_max: 3
# lowest costs of the goal service 177 with configuration (177, 19, 3) at 0.0
# (24, 18, 1): 16093024.083513819
# (24, 18, 2): 8860861.310990497
# (24, 18, 3): 0.0
# (24, 18, 4): 666419.0399999991
# (24, 19, 1): 24854442.670818236
# (24, 19, 2): 14472381.962012291
# (24, 19, 3): 7571442.686987914
# (24, 19, 4): 8304463.646987915
# (24, 30, 1): 24349355.36927865
# (24, 30, 2): 15484755.152058288
# (24, 30, 3): 7156210.861545742
# (24, 30, 4): 7955890.861545742
# (177, 18, 1): 13286056.774232626
# (177, 18, 2): 9481377.015973747
# (177, 18, 3): 232430.45597375184
# (177, 19, 1): 18390644.307538547
# (177, 19, 2): 12307551.573660001
# (177, 19, 3): 0.0
# (177, 30, 1): 18067579.971148558
# (177, 30, 2): 14236762.809162691
# (177, 30, 3): 1442209.4751106873
# -------------------------------------------
