	OpenBLAS 0.2.6 environment established
		compiled with gcc for max. 16 cores
	Freetype 2.4.12 environment established
		library to render fonts
	Python 3.6.0 environment established
	Gurobi 8.1.0 environment established
Instance LSFRP: LSFDRP_4_3_6_1_fr.p
Instance LSFDP: LSFDRP_4_3_6_1_fd_31.p

*****************************************************************************************************************************
*** Solve LSFDRP_4_3_6_1_fd_31 with Gurobi
***
*** Graph info
*** |S|: 19
*** |S^E|: 0
*** |S^C|: 1
*** |V|: 348
*** |A|: 8709
*** |A^i|: 8382
*** |A^f|: 327
*** |M|: 343
*** |E|: 0

Changed value of parameter NumericFocus to 1
   Prev: 0  Min: 0  Max: 3  Default: 0
Changed value of parameter TimeLimit to 86400.0
   Prev: 1e+100  Min: 0.0  Max: 1e+100  Default: 1e+100
Changed value of parameter Threads to 4
   Prev: 0  Min: 0  Max: 1024  Default: 0
Optimize a model with 163606 rows, 3177009 columns and 11352648 nonzeros
Variable types: 3011517 continuous, 165492 integer (165492 binary)
Coefficient statistics:
  Matrix range     [1e+00, 5e+03]
  Objective range  [4e+01, 2e+08]
  Bounds range     [1e+00, 1e+00]
  RHS range        [1e+00, 5e+03]
Presolve removed 120467 rows and 2938601 columns (presolve time = 5s) ...
Presolve removed 135800 rows and 3001214 columns (presolve time = 10s) ...
Presolve removed 135800 rows and 3018020 columns (presolve time = 84s) ...
Presolve removed 137025 rows and 3018164 columns (presolve time = 85s) ...
Presolve removed 137755 rows and 3024853 columns (presolve time = 191s) ...
Presolve removed 137755 rows and 3024853 columns
Presolve time: 191.31s
Presolved: 25851 rows, 152156 columns, 1226880 nonzeros
Variable types: 11011 continuous, 141145 integer (141106 binary)

Deterministic concurrent LP optimizer: primal and dual simplex
Showing first log only...


Root simplex log...

Iteration    Objective       Primal Inf.    Dual Inf.      Time
       0   -0.0000000e+00   4.800000e+01   2.523604e+10    195s
    7413    6.9869387e+04   4.800482e+01   1.677129e+11    195s
   22316   -1.8741917e+08   0.000000e+00   8.295856e+12    200s
   39325   -5.4750792e+06   0.000000e+00   1.516768e+09    205s
   52228   -4.7595330e+06   0.000000e+00   3.148035e+11    210s
   64863   -2.7224574e+06   0.000000e+00   3.365210e+09    215s
   77514   -2.5365838e+06   0.000000e+00   4.871339e+10    220s
   88518   -2.3895582e+06   0.000000e+00   1.669630e+10    225s
  100505   -1.9047021e+06   0.000000e+00   9.126247e+09    230s
  113886   -7.5337016e+05   0.000000e+00   1.463451e+10    235s
  125332   -4.6101805e+05   0.000000e+00   2.410609e+10    240s
  135032   -3.2798737e+05   0.000000e+00   6.773155e+11    245s
  145702   -2.7555548e+04   0.000000e+00   1.019672e+12    250s
  154820    9.5109618e+05   0.000000e+00   1.808997e+11    255s
  164326    1.1203316e+06   0.000000e+00   5.449480e+10    260s
  173832    1.2772235e+06   0.000000e+00   4.573256e+10    265s
  183338    1.6723448e+06   0.000000e+00   2.328911e+10    270s
  192844    1.9564500e+06   0.000000e+00   1.058029e+10    275s
  203347    2.6077762e+06   0.000000e+00   2.039510e+10    280s
  213047    3.0821386e+06   0.000000e+00   2.812570e+10    285s
  222941    3.5751665e+06   0.000000e+00   9.182588e+10    290s
Concurrent spin time: 16.47s

Solved with dual simplex

Root relaxation: objective 7.286901e+06, 86850 iterations, 98.03 seconds

    Nodes    |    Current Node    |     Objective Bounds      |     Work
 Expl Unexpl |  Obj  Depth IntInf | Incumbent    BestBd   Gap | It/Node Time

     0     0 7130840.09    0  276          - 7130840.09      -     -  299s
H    0     0                    -1685841.444 7130840.09   523%     -  302s
H    0     0                    151177.40889 7130840.09  4617%     -  335s
     0     0 5079201.98    0  280 151177.409 5079201.98  3260%     -  344s
     0     0 5079201.98    0  256 151177.410 5079201.98  3260%     -  356s
H    0     0                    151177.41150 5079201.98  3260%     -  362s
     0     0 4813254.04    0  297 151177.412 4813254.04  3084%     -  364s
     0     0 4583366.26    0  300 151177.412 4583366.26  2932%     -  365s
     0     0 4578658.19    0  298 151177.412 4578658.19  2929%     -  365s
     0     0 4569595.81    0  306 151177.412 4569595.81  2923%     -  365s
     0     0 4564861.92    0  298 151177.412 4564861.92  2920%     -  366s
     0     0 4563514.87    0  297 151177.412 4563514.87  2919%     -  366s
     0     0 4532831.84    0  300 151177.412 4532831.84  2898%     -  366s
     0     0 4524922.25    0  307 151177.412 4524922.25  2893%     -  366s
     0     0 4378880.46    0  315 151177.412 4378880.46  2797%     -  368s
     0     0 4367483.16    0  333 151177.412 4367483.16  2789%     -  369s
     0     0 4362250.40    0  335 151177.412 4362250.40  2786%     -  369s
     0     0 4356510.20    0  342 151177.412 4356510.20  2782%     -  370s
     0     0 4353002.75    0  346 151177.412 4353002.75  2779%     -  370s
     0     0 4351777.38    0  340 151177.412 4351777.38  2779%     -  370s
     0     0 4351565.70    0  340 151177.412 4351565.70  2778%     -  370s
     0     0 4351564.87    0  340 151177.412 4351564.87  2778%     -  370s
     0     0 4344274.91    0  336 151177.412 4344274.91  2774%     -  370s
     0     0 4333207.76    0  343 151177.412 4333207.76  2766%     -  371s
     0     0 4328664.50    0  346 151177.412 4328664.50  2763%     -  371s
     0     0 4325333.04    0  347 151177.412 4325333.04  2761%     -  372s
     0     0 4321539.08    0  349 151177.412 4321539.08  2759%     -  372s
     0     0 4320839.09    0  353 151177.412 4320839.09  2758%     -  372s
     0     0 4320421.10    0  354 151177.412 4320421.10  2758%     -  372s
     0     0 4320135.91    0  355 151177.412 4320135.91  2758%     -  372s
     0     0 4320119.88    0  357 151177.412 4320119.88  2758%     -  373s
     0     0 4290653.19    0  372 151177.412 4290653.19  2738%     -  373s
     0     0 4289964.85    0  375 151177.412 4289964.85  2738%     -  374s
     0     0 4286090.71    0  369 151177.412 4286090.71  2735%     -  374s
     0     0 4284318.78    0  390 151177.412 4284318.78  2734%     -  374s
     0     0 4284180.21    0  383 151177.412 4284180.21  2734%     -  375s
     0     0 4280269.34    0  379 151177.412 4280269.34  2731%     -  375s
     0     0 4276841.23    0  390 151177.412 4276841.23  2729%     -  376s
     0     0 4275367.27    0  378 151177.412 4275367.27  2728%     -  376s
     0     0 4274458.59    0  400 151177.412 4274458.59  2727%     -  377s
     0     0 4271032.33    0  397 151177.412 4271032.33  2725%     -  377s
     0     0 4269827.87    0  394 151177.412 4269827.87  2724%     -  377s
     0     0 4269384.94    0  389 151177.412 4269384.94  2724%     -  377s
     0     0 4269229.82    0  391 151177.412 4269229.82  2724%     -  377s
     0     0 4267027.99    0  392 151177.412 4267027.99  2723%     -  378s
     0     0 4265818.11    0  403 151177.412 4265818.11  2722%     -  378s
     0     0 4264199.87    0  376 151177.412 4264199.87  2721%     -  379s
     0     0 4263673.53    0  392 151177.412 4263673.53  2720%     -  379s
     0     0 4263305.40    0  400 151177.412 4263305.40  2720%     -  379s
     0     0 4262876.58    0  393 151177.412 4262876.58  2720%     -  379s
     0     0 4262809.19    0  389 151177.412 4262809.19  2720%     -  380s
     0     0 4261348.99    0  398 151177.412 4261348.99  2719%     -  380s
     0     0 4259828.05    0  391 151177.412 4259828.05  2718%     -  381s
     0     0 4258957.63    0  394 151177.412 4258957.63  2717%     -  381s
     0     0 4257920.83    0  399 151177.412 4257920.83  2717%     -  381s
     0     0 4257738.54    0  400 151177.412 4257738.54  2716%     -  381s
     0     0 4255286.27    0  406 151177.412 4255286.27  2715%     -  382s
     0     0 4254235.62    0  407 151177.412 4254235.62  2714%     -  383s
     0     0 4254128.60    0  405 151177.412 4254128.60  2714%     -  383s
     0     0 4253092.66    0  415 151177.412 4253092.66  2713%     -  384s
     0     0 4251882.31    0  399 151177.412 4251882.31  2713%     -  384s
     0     0 4251445.36    0  411 151177.412 4251445.36  2712%     -  384s
     0     0 4251381.83    0  409 151177.412 4251381.83  2712%     -  384s
     0     0 4250234.18    0  404 151177.412 4250234.18  2711%     -  385s
     0     0 4250234.18    0  404 151177.412 4250234.18  2711%     -  398s
     0     0 4250234.18    0  253 151177.412 4250234.18  2711%     -  404s
     0     0 4250234.18    0  284 151177.412 4250234.18  2711%     -  408s
     0     0 4250234.18    0  298 151177.412 4250234.18  2711%     -  409s
     0     0 4250234.18    0  261 151177.412 4250234.18  2711%     -  409s
     0     0 4250234.18    0  267 151177.412 4250234.18  2711%     -  410s
     0     0 4250234.18    0  288 151177.412 4250234.18  2711%     -  410s
     0     0 4250234.18    0  268 151177.412 4250234.18  2711%     -  410s
     0     0 4250234.18    0  292 151177.412 4250234.18  2711%     -  410s
     0     0 4250234.18    0  303 151177.412 4250234.18  2711%     -  411s
     0     0 4242075.81    0  299 151177.412 4242075.81  2706%     -  411s
     0     0 4226897.26    0  274 151177.412 4226897.26  2696%     -  411s
     0     0 4221509.00    0  371 151177.412 4221509.00  2692%     -  412s
     0     0 4218772.88    0  366 151177.412 4218772.88  2691%     -  412s
     0     0 4215172.92    0  319 151177.412 4215172.92  2688%     -  412s
     0     0 4210137.05    0  294 151177.412 4210137.05  2685%     -  412s
     0     0 4207740.08    0  368 151177.412 4207740.08  2683%     -  413s
     0     0 4207081.02    0  388 151177.412 4207081.02  2683%     -  413s
     0     0 4206788.14    0  306 151177.412 4206788.14  2683%     -  413s
     0     0 4206759.09    0  306 151177.412 4206759.09  2683%     -  413s
     0     0 4203385.61    0  315 151177.412 4203385.61  2680%     -  414s
     0     0 4201648.17    0  315 151177.412 4201648.17  2679%     -  414s
     0     0 4201476.35    0  314 151177.412 4201476.35  2679%     -  415s
     0     0 4199959.54    0  306 151177.412 4199959.54  2678%     -  415s
     0     0 4197687.88    0  323 151177.412 4197687.88  2677%     -  415s
     0     0 4197524.89    0  318 151177.412 4197524.89  2677%     -  415s
     0     0 4192313.73    0  320 151177.412 4192313.73  2673%     -  416s
     0     0 4191759.84    0  320 151177.412 4191759.84  2673%     -  416s
     0     0 4191350.12    0  330 151177.412 4191350.12  2672%     -  416s
     0     0 4191191.18    0  341 151177.412 4191191.18  2672%     -  417s
     0     0 4190029.52    0  337 151177.412 4190029.52  2672%     -  417s
     0     0 4188752.85    0  343 151177.412 4188752.85  2671%     -  417s
     0     0 4188422.22    0  334 151177.412 4188422.22  2671%     -  417s
     0     0 4188163.54    0  338 151177.412 4188163.54  2670%     -  418s
     0     0 4188163.54    0  336 151177.412 4188163.54  2670%     -  424s
     0     0 4188163.54    0  240 151177.412 4188163.54  2670%     -  428s
H    0     0                    151177.41170 4188163.54  2670%     -  431s
     0     0 4188163.54    0  323 151177.412 4188163.54  2670%     -  431s
     0     0 4188163.54    0  263 151177.412 4188163.54  2670%     -  432s
     0     0 4188163.54    0  281 151177.412 4188163.54  2670%     -  433s
     0     0 4188163.54    0  356 151177.412 4188163.54  2670%     -  433s
     0     0 4188163.54    0  339 151177.412 4188163.54  2670%     -  433s
     0     0 4188163.54    0  362 151177.412 4188163.54  2670%     -  434s
     0     0 4188163.54    0  371 151177.412 4188163.54  2670%     -  434s
     0     0 4188163.54    0  369 151177.412 4188163.54  2670%     -  434s
     0     0 4172198.61    0  360 151177.412 4172198.61  2660%     -  435s
     0     0 4166804.02    0  364 151177.412 4166804.02  2656%     -  436s
     0     0 4155179.93    0  377 151177.412 4155179.93  2649%     -  436s
     0     0 4152840.02    0  377 151177.412 4152840.02  2647%     -  436s
     0     0 4152233.16    0  369 151177.412 4152233.16  2647%     -  437s
     0     0 4148720.47    0  376 151177.412 4148720.47  2644%     -  437s
     0     0 4144727.99    0  375 151177.412 4144727.99  2642%     -  437s
     0     0 4144162.32    0  377 151177.412 4144162.32  2641%     -  437s
     0     0 4144059.85    0  379 151177.412 4144059.85  2641%     -  437s
     0     0 4140746.54    0  390 151177.412 4140746.54  2639%     -  438s
     0     0 4138590.51    0  403 151177.412 4138590.51  2638%     -  438s
     0     0 4136400.56    0  396 151177.412 4136400.56  2636%     -  439s
     0     0 4133486.35    0  369 151177.412 4133486.35  2634%     -  439s
     0     0 4131773.21    0  368 151177.412 4131773.21  2633%     -  439s
     0     0 4130232.89    0  377 151177.412 4130232.89  2632%     -  439s
     0     0 4130173.68    0  378 151177.412 4130173.68  2632%     -  439s
     0     0 4128704.48    0  383 151177.412 4128704.48  2631%     -  440s
     0     0 4127278.67    0  400 151177.412 4127278.67  2630%     -  440s
     0     0 4126695.71    0  416 151177.412 4126695.71  2630%     -  440s
     0     0 4126283.59    0  403 151177.412 4126283.59  2629%     -  440s
     0     0 4123809.25    0  404 151177.412 4123809.25  2628%     -  441s
     0     0 4123040.92    0  396 151177.412 4123040.92  2627%     -  441s
     0     0 4122244.18    0  399 151177.412 4122244.18  2627%     -  441s
     0     0 4122135.75    0  402 151177.412 4122135.75  2627%     -  442s
     0     0 4119592.38    0  406 151177.412 4119592.38  2625%     -  442s
     0     0 4119198.95    0  417 151177.412 4119198.95  2625%     -  443s
     0     0 4118394.26    0  433 151177.412 4118394.26  2624%     -  443s
     0     0 4118394.26    0  430 151177.412 4118394.26  2624%     -  449s
     0     2 4118394.26    0  430 151177.412 4118394.26  2624%     -  454s
     1     4 4098709.29    1  412 151177.412 4098709.29  2611%   983  459s
     3     8 4091327.82    2  400 151177.412 4098110.14  2611%  2330  463s
     7    12 3980195.65    3  410 151177.412 4091325.44  2606%  2878  465s
    19    19 3862015.10    6  386 151177.412 4091325.44  2606%  2020  470s
    28    28 3796731.87    7  333 151177.412 4091325.44  2606%  1909  478s
    32    30 3795116.76    8  335 151177.412 4091325.44  2606%  1762  480s
    59    57 2031161.33   12  196 151177.412 4091325.44  2606%  1332  487s
H   62    58                    151177.41334 4091325.44  2606%  1301  487s
    82    73 2626727.37   16  147 151177.413 4091325.44  2606%  1149  490s
   129   116 1872980.37   27  157 151177.413 4091325.44  2606%   846  496s
   174   142 2467655.18   33  115 151177.413 4091325.44  2606%   690  500s
   245   189 2001995.17   49   66 151177.413 4091325.44  2606%   641  507s
   295   225 1561403.96   67   69 151177.413 4091325.44  2606%   596  516s
H  300   220                    303129.85144 4091325.44  1250%   591  516s
   390   270 3948313.59    6  311 303129.851 4011509.09  1223%   547  521s
   452   311 3449809.54   11  280 303129.851 4011509.09  1223%   528  526s
   483   333 2308858.23   24  199 303129.851 4011509.09  1223%   546  530s
   551   389 3756122.40    5  344 303129.851 3977882.28  1212%   529  535s
   652   448 3232185.73   16  250 303129.851 3977882.28  1212%   514  541s
   741   510 2726112.09   36  198 303129.851 3977882.28  1212%   493  545s
   918   638 1881385.23   80  138 303129.851 3768546.72  1143%   455  556s
  1002   692 807495.425    9  254 303129.851 3756277.29  1139%   469  562s
  1076   750 659912.855   27  280 303129.851 3756277.29  1139%   458  583s
H 1077   713                    303129.85699 3756277.29  1139%   457  587s
  1081   715 595650.488   25  345 303129.857 3756277.29  1139%   456  590s
  1089   721 2118705.77   13  385 303129.857 3756277.29  1139%   452  595s
  1106   732 2374082.96   20  333 303129.857 3756277.29  1139%   445  600s
  1126   745 3367079.79   18  359 303129.857 3756277.29  1139%   438  605s
  1135   751 2328531.26   10  348 303129.857 3756277.29  1139%   434  610s
  1147   759 2114614.07   21  325 303129.857 3756277.29  1139%   430  615s
  1150   761 2593216.23   16  349 303129.857 3756277.29  1139%   428  623s
  1152   763 1104220.14   69  349 303129.857 3756277.29  1139%   428  628s
  1153   766 3756277.29   10  332 303129.857 3756277.29  1139%   460  648s
H 1155   731                    303130.60794 3756277.29  1139%   465  671s
  1159   733 3756277.29   12  311 303130.608 3756277.29  1139%   470  675s
  1167   739 3756277.29   13  303 303130.608 3756277.29  1139%   485  682s
  1171   740 3546646.07   13  208 303130.608 3756277.29  1139%   493  685s
  1181   744 3194080.44   14  199 303130.608 3756277.29  1139%   504  692s
H 1183   707                    303130.80884 3756277.29  1139%   504  692s
H 1184   671                    390973.99291 3756277.29   861%   506  692s
  1185   671 3451941.17   15  247 390973.993 3756277.29   861%   511  695s
  1197   679 3756277.29   16  296 390973.993 3756277.29   861%   514  703s
  1204   681 3756277.29   17  368 390973.993 3756277.29   861%   520  705s
  1216   689 3756277.29   18  293 390973.993 3756277.29   861%   531  712s
  1237   695 3756277.29   19  365 390973.993 3756277.29   861%   541  717s
  1249   704 2396490.80   19  229 390973.993 3756277.29   861%   550  721s
  1275   712 3754654.98   21  368 390973.993 3756277.29   861%   557  727s
  1291   718 3713630.12   22  387 390973.993 3756277.29   861%   562  730s
  1320   730 3670249.77   23  357 390973.993 3707266.64   848%   575  738s
  1336   728 3668722.43   24  367 390973.993 3670654.36   839%   579  742s
  1341   733 3619730.43   25  254 390973.993 3665812.02   838%   584  745s
  1379   735 2253180.23   27  226 390973.993 3605203.95   822%   591  754s
H 1382   695                    482695.29953 3593958.82   645%   592  754s
  1383   695 3575400.51   28  287 482695.300 3575400.51   641%   593  757s
  1424   713 1508392.05   30  193 482695.300 3538861.68   633%   605  763s
  1450   721 3490475.14   31  332 482695.300 3536770.73   633%   603  765s
  1510   743 3429967.26   33  301 482695.300 3536499.64   633%   599  772s
  1529   751 3375456.21   34  308 482695.300 3536499.64   633%   606  775s
  1566   764 3342699.78   36  306 482695.300 3536499.64   633%   615  783s
  1588   772 3308067.64   37  284 482695.300 3536499.64   633%   623  786s
  1603   780 2364968.97   38  207 482695.300 3536499.64   633%   634  791s
  1630   776 3142305.89   40  228 482695.300 3536499.64   633%   642  795s
  1678   803 1808926.62   42  147 482695.300 3536499.64   633%   655  805s
H 1680   760                    592264.86206 3536499.64   497%   655  805s
  1752   787 2994816.63   46  221 592264.862 3536499.64   497%   657  814s
H 1780   758                    592264.86254 3536499.64   497%   669  821s
H 1790   728                    592264.86290 3536499.64   497%   676  821s
  1851   741 1093888.42   51  228 592264.863 3536499.64   497%   677  829s
  1937   754 2708784.16   52  230 592264.863 3536499.64   497%   660  835s
  2024   766     cutoff   57      592264.863 3457740.92   484%   667  845s
  2089   772 3211416.50   20  261 592264.863 3457735.40   484%   666  850s
  2147   800 2880433.29   25  255 592264.863 3457735.40   484%   666  855s
H 2163   764                    694740.86198 3457735.40   398%   664  855s
H 2210   747                    704484.26683 3457735.40   391%   664  860s
  2263   766 2490178.76   39  186 704484.267 3457735.40   391%   657  866s
  2328   787 1869109.50   50  101 704484.267 3312298.84   370%   651  872s
  2457   833 3026490.93   21  220 704484.267 3276045.01   365%   635  877s
  2535   858 1514823.31   46  178 704484.267 3270667.19   364%   634  883s
  2664   944 2329991.26   27  170 704484.267 3270667.19   364%   625  888s
  2726   973 1593304.50   31  158 704484.267 3270378.46   364%   629  899s
H 2754   973                    704484.26719 3270378.46   364%   629  899s
H 2826   869                    1096883.3873 3270378.46   198%   631  899s
  2827   877 3157610.59   36  264 1096883.39 3270378.46   198%   631  907s
  2891   914 2957348.22   40  313 1096883.39 3266218.90   198%   629  913s
  2983   949 1754290.65   57  141 1096883.39 3230910.61   195%   630  921s
  3127  1042 2988620.47   16  232 1096883.39 3208295.77   192%   622  928s
  3252  1104     cutoff   22      1096883.39 3208295.77   192%   619  936s
  3359  1175 1577154.41   28  165 1096883.39 3208295.77   192%   614  944s
  3435  1210 2368781.19   31  143 1096883.39 3163960.85   188%   615  952s
  3512  1253 1237682.32   48   65 1096883.39 3155330.89   188%   614  962s
  3631  1312 2569051.39   28  225 1096883.39 3132291.33   186%   610  970s
  3775  1409 2233761.80   48  230 1096883.39 3111108.16   184%   606  979s
  3896  1489 2816813.13   45  287 1096883.39 3109347.25   183%   602  989s
  4118  1622 1937744.19  100  163 1096883.39 3093124.68   182%   589  999s
  4280  1725 2210205.10   20  152 1096883.39 3079110.83   181%   586 1009s
  4380  1769 1792663.68   21  259 1096883.39 3074126.90   180%   587 1019s
  4518  1804     cutoff   16      1096883.39 3061040.61   179%   592 1031s
  4700  1907 1947301.43   25  191 1096883.39 3044078.95   178%   592 1043s
  4850  2001     cutoff   54      1096883.39 3041177.27   177%   594 1055s
  4953  2029 2839577.32   42  240 1096883.39 3038510.29   177%   598 1068s
  5088  2092 2172421.80   31  234 1096883.39 3028101.44   176%   604 1081s
  5265  2180 1850183.30   31  125 1096883.39 3025338.76   176%   608 1095s
H 5304  2204                    1096883.3877 3025338.76   176%   608 1095s
  5440  2294 2301407.02   41  172 1096883.39 3014019.15   175%   605 1108s
  5590  2354 infeasible   27      1096883.39 3010338.73   174%   614 1121s
  5766  2457 1558761.02   29  201 1096883.39 2991781.15   173%   615 1139s
  5975  2543 1855677.11   23  177 1096883.39 2980224.32   172%   614 1154s
H 6010  2562                    1096883.3915 2979413.48   172%   616 1154s
  6171  2660 2086179.43   29  170 1096883.39 2962479.03   170%   613 1169s
H 6348  2704                    1096883.5909 2951784.73   169%   613 1186s
  6514  2768 2844368.23   25  191 1096883.59 2943285.82   168%   616 1204s
  6826  2919 1267896.63   33  153 1096883.59 2924194.00   167%   612 1222s
H 6934  2916                    1134931.3978 2924194.00   158%   614 1222s
H 7068  2979                    1134931.3979 2903614.10   156%   615 1222s
  7078  3002 1293034.65   40  140 1134931.40 2903614.10   156%   615 1240s
  7376  3144     cutoff   25      1134931.40 2892425.18   155%   613 1259s
  7707  3278     cutoff   16      1134931.40 2871390.46   153%   613 1279s
H 7885  3387                    1134931.3986 2871390.46   153%   609 1279s
H 7997  3434                    1134931.3988 2867636.18   153%   610 1299s
  8415  3619 1896527.04   33  234 1134931.40 2839555.25   150%   606 1324s
  8859  3830     cutoff   56      1134931.40 2818455.95   148%   600 1347s
  9384  4056 2624308.69   31  134 1134931.40 2798633.18   147%   593 1370s
  9722  4245 2382064.96   45  165 1134931.40 2798633.18   147%   587 1392s
 10354  4592 2616761.23   20  276 1134931.40 2766678.16   144%   577 1422s
 10729  4771     cutoff   57      1134931.40 2758366.43   143%   578 1446s
 11098  4940 1666626.78   34   75 1134931.40 2743175.03   142%   580 1473s
 11645  5161 1454233.61   51  146 1134931.40 2730526.59   141%   575 1497s
 12024  5304 1394964.63   50  144 1134931.40 2716590.48   139%   574 1523s
 12442  5440 1884351.31   56  194 1134931.40 2698810.61   138%   576 1549s
 13060  5708 2104354.18   36  151 1134931.40 2680208.05   136%   571 1573s
 13524  5862 2403620.41   48  152 1134931.40 2658331.17   134%   573 1598s
 14225  6189     cutoff   37      1134931.40 2639566.46   133%   566 1620s
 14721  6369 1978847.90   54  327 1134931.40 2629938.04   132%   566 1644s
 15287  6559     cutoff   32      1134931.40 2619456.36   131%   563 1668s
 15849  6809     cutoff   21      1134931.40 2606474.57   130%   560 1691s
 16293  6972 1781275.79   33  144 1134931.40 2592346.93   128%   560 1713s
 16768  7131 1209662.52   63  193 1134931.40 2578943.91   127%   557 1735s
 17342  7316 infeasible   34      1134931.40 2560645.25   126%   555 1757s
 17991  7527 1773683.87   46   76 1134931.40 2543309.11   124%   550 1779s
 18486  7709 1791360.18   51  227 1134931.40 2529989.50   123%   546 1801s
 18965  7883 1719444.32   41  252 1134931.40 2514527.26   122%   545 1825s
 19299  7979 1493476.54   60  246 1134931.40 2507752.54   121%   546 1846s
 19730  8100 1831856.41   42   79 1134931.40 2499379.95   120%   545 1867s
 20232  8272     cutoff   65      1134931.40 2485213.15   119%   544 1888s
 20791  8432 1837012.37   41   81 1134931.40 2469873.99   118%   542 2212s
 21500  8705 2239274.11   32  133 1134931.40 2463822.23   117%   537 2236s
H21508  8580                    1194112.6717 2463822.23   106%   537 2236s
 21549  8558 1521319.54   43   77 1194112.67 2462596.00   106%   538 2260s
H21912  8668                    1196353.0130 2454218.89   105%   538 2281s
 22237  8773 1905159.97   37  124 1196353.01 2449241.98   105%   538 2300s
 22506  8870 1214839.41   40  145 1196353.01 2441862.66   104%   542 2321s
H22745  8926                    1196353.0134 2441183.96   104%   543 2321s
 22811  8970 1572387.39   52  101 1196353.01 2437524.95   104%   544 2342s
 23291  9147     cutoff   24      1196353.01 2428983.34   103%   543 2364s
 23584  9231 1853490.66   34   65 1196353.01 2421281.83   102%   545 2384s
 23775  9274 1912024.86   34  137 1196353.01 2417847.82   102%   548 2406s
 24076  9358     cutoff   31      1196353.01 2407793.60   101%   551 2427s
 24323  9462 2215070.50   45  185 1196353.01 2403598.98   101%   553 2449s
 24707  9605 1884564.74   58  220 1196353.01 2401474.91   101%   554 2470s
 25087  9714 infeasible   56      1196353.01 2388595.98   100%   554 2492s
 25327  9775     cutoff   28      1196353.01 2384406.89  99.3%   555 2515s
 25676  9856 1963417.93   38  275 1196353.01 2381705.27  99.1%   557 2536s
 26029  9958 1643630.85   48   76 1196353.01 2373119.75  98.4%   558 2557s
 26333 10028 1760051.55   16   90 1196353.01 2364812.92  97.7%   561 2579s
 26570 10082 1716140.04   32   59 1196353.01 2360924.96  97.3%   565 2600s
 26813 10147     cutoff   23      1196353.01 2355456.11  96.9%   569 2621s
H26867 10157                    1196353.0161 2354558.42  96.8%   570 2621s
 26889 10120 1824029.28   58  173 1196353.02 2353922.70  96.8%   571 2645s
 27170 10206 2112356.28   22  231 1196353.02 2351915.65  96.6%   574 2667s
 27414 10250 1927580.12   48  233 1196353.02 2346563.53  96.1%   578 2689s
 27634 10270 1444779.52   31   50 1196353.02 2341486.39  95.7%   583 2715s
 27989 10386 1900451.31   48  183 1196353.02 2334191.23  95.1%   585 2738s
 28260 10465 1645429.26   43  218 1196353.02 2332043.84  94.9%   589 2760s
 28568 10556     cutoff   46      1196353.02 2328279.44  94.6%   589 2784s
 28861 10623     cutoff   30      1196353.02 2322750.86  94.2%   592 2808s
 29201 10713 2220846.22   20  208 1196353.02 2316023.64  93.6%   594 2832s
 29552 10784 1523335.90   52  281 1196353.02 2312597.96  93.3%   594 2857s
 29999 10921 2087552.97   28   71 1196353.02 2306826.68  92.8%   595 2881s
 30320 10998 1383412.80   28  137 1196353.02 2302359.43  92.4%   597 2906s
 30649 11084 1502418.65   48  274 1196353.02 2298004.13  92.1%   598 2929s
 30962 11159 2143476.83   22  152 1196353.02 2293375.91  91.7%   600 2954s
 31314 11203 2082978.57   24  179 1196353.02 2288738.61  91.3%   602 2988s
 31839 11381     cutoff   36      1196353.02 2283859.76  90.9%   601 3012s
 32198 11474     cutoff   39      1196353.02 2273008.83  90.0%   603 3039s
 32608 11563 1378630.32   28  270 1196353.02 2267431.48  89.5%   603 3063s
 32922 11653     cutoff   21      1196353.02 2261993.52  89.1%   606 3087s
 33172 11711 1688115.08   36  119 1196353.02 2256720.31  88.6%   609 3112s
 33486 11784 1721466.73   29  159 1196353.02 2253320.64  88.3%   611 3136s
 33756 11823     cutoff   35      1196353.02 2251110.80  88.2%   614 3161s
 34262 11950 1890414.20   45   96 1196353.02 2246023.85  87.7%   613 3205s
 34742 12049 1291506.25   36   88 1196353.02 2238493.89  87.1%   614 3230s
 35302 12214 1735362.42   18   98 1196353.02 2234705.03  86.8%   613 3264s
 35596 12240 1943884.02   44  182 1196353.02 2230157.76  86.4%   612 3290s
 35979 12327     cutoff   21      1196353.02 2227176.27  86.2%   614 3320s
 36316 12389 1737292.23   30  170 1196353.02 2221625.39  85.7%   616 3362s
H36406 12409                    1196353.0671 2220961.90  85.6%   616 3362s
 36629 12475 1390474.30   51  156 1196353.07 2216077.09  85.2%   617 3390s
 37027 12563 1517066.60   37  158 1196353.07 2210718.20  84.8%   617 3414s
 37438 12653 1780701.89   53   72 1196353.07 2206937.31  84.5%   618 3440s
 37946 12807     cutoff   58      1196353.07 2202628.12  84.1%   617 3466s
H37985 12816                    1196353.0873 2202628.12  84.1%   618 3466s
H38179 12877                    1196353.0885 2202348.20  84.1%   618 3466s
 38247 12846     cutoff   37      1196353.09 2202032.96  84.1%   618 3491s
 38685 12945     cutoff   45      1196353.09 2196884.20  83.6%   619 3516s
 39086 12991     cutoff   34      1196353.09 2191114.39  83.1%   620 3540s
 39551 13074 1459317.73   35   83 1196353.09 2186645.16  82.8%   620 3565s
 39975 13151 infeasible   44      1196353.09 2179962.48  82.2%   621 3589s
 40366 13226 infeasible   35      1196353.09 2172878.91  81.6%   622 3613s
 40737 13293     cutoff   36      1196353.09 2169651.62  81.4%   623 3639s
 41104 13316     cutoff   29      1196353.09 2165088.95  81.0%   624 3663s
 41477 13356     cutoff   58      1196353.09 2160161.99  80.6%   626 3688s
H41523 13372                    1196353.1070 2160161.99  80.6%   626 3688s
 41814 13382 1360793.59   19  150 1196353.11 2156262.27  80.2%   627 3719s
 42272 13453     cutoff   41      1196353.11 2150269.13  79.7%   627 3757s
 42576 13482     cutoff   27      1196353.11 2148179.95  79.6%   628 3782s
 43083 13567 1338809.00   35  136 1196353.11 2141934.25  79.0%   628 3808s
 43419 13618 1593713.96   33  103 1196353.11 2138254.30  78.7%   628 3833s
 43779 13678 1869859.43   62  224 1196353.11 2134513.66  78.4%   629 3858s
 44096 13756 1837326.02   44  170 1196353.11 2133559.13  78.3%   631 3884s
 44424 13818 1442351.24   28   98 1196353.11 2129765.82  78.0%   632 3910s
 44975 13933 1871258.54   30   89 1196353.11 2124630.55  77.6%   631 3935s
 45406 13963 1256759.66   33   57 1196353.11 2118869.66  77.1%   631 3961s
 45890 14068 1362405.76   31  234 1196353.11 2115637.11  76.8%   631 3986s
 46309 14127     cutoff   92      1196353.11 2111924.46  76.5%   631 4013s
 46709 14159 1786200.71   43   74 1196353.11 2108561.83  76.2%   631 4036s
 47182 14256 1881220.28   29   80 1196353.11 2102835.13  75.8%   631 4073s
 47403 14289 1265529.26   40   64 1196353.11 2102242.34  75.7%   630 4097s
 47709 14328     cutoff   37      1196353.11 2099501.33  75.5%   630 4122s
 48151 14380 1358301.72   47   45 1196353.11 2095188.88  75.1%   631 4147s
 48557 14416 2080385.50   24  100 1196353.11 2089554.77  74.7%   631 4172s
 48988 14487 1371888.37   36  175 1196353.11 2085364.01  74.3%   632 4197s
 49422 14526 1484515.82   40  101 1196353.11 2081872.83  74.0%   632 4222s
 49897 14584 1469476.25   22  173 1196353.11 2078970.98  73.8%   632 4245s
 50232 14567 1613029.48   55  143 1196353.11 2075208.98  73.5%   634 4270s
 50677 14596 1919588.78   40   58 1196353.11 2069057.33  72.9%   634 4295s
 51022 14637 1935481.76   31   42 1196353.11 2067176.65  72.8%   636 4321s
 51357 14648 1387164.66   50  132 1196353.11 2064179.21  72.5%   636 4346s
 51865 14723     cutoff   30      1196353.11 2060175.78  72.2%   636 4371s
 52298 14776     cutoff   25      1196353.11 2055568.04  71.8%   636 4400s
 52703 14805 1460782.77   32  115 1196353.11 2052354.29  71.6%   637 4424s
 52997 14889 1363293.75   41   85 1196353.11 2051482.76  71.5%   636 4425s
 53212 14897     cutoff   32      1196353.11 2047391.42  71.1%   636 4449s
 53526 14948 1250306.64   51  181 1196353.11 2044582.95  70.9%   638 4473s
 53930 15005     cutoff   86      1196353.11 2042486.33  70.7%   638 4530s
 54405 15043 1442929.94   52  133 1196353.11 2036133.59  70.2%   637 4554s
H54770 15146                    1196353.1166 2036133.59  70.2%   637 4554s
 54840 15118 1255516.69   43  104 1196353.12 2033126.38  69.9%   637 4579s
H55120 15190                    1196353.1261 2032944.04  69.9%   637 4579s
 55173 15157 1618001.04   27  205 1196353.13 2030805.32  69.7%   637 4603s
 55559 15202     cutoff   53      1196353.13 2028162.11  69.5%   638 4633s
 56147 15348 1351800.11   63   67 1196353.13 2024845.28  69.3%   636 4657s
 56492 15360     cutoff   41      1196353.13 2019209.05  68.8%   637 4682s
 57022 15421     cutoff   38      1196353.13 2014897.48  68.4%   637 4705s
 57441 15467     cutoff   22      1196353.13 2011938.55  68.2%   637 4729s
 57957 15634 1849687.93   53  105 1196353.13 2009872.90  68.0%   637 4787s
 58286 15644 1664810.92   40   83 1196353.13 2006802.72  67.7%   636 4811s
 58723 15730     cutoff   27      1196353.13 2003599.55  67.5%   636 4835s
 59157 15798 1367293.91   75   59 1196353.13 1999824.81  67.2%   637 4858s
 59621 15868 1983875.65   35   42 1196353.13 1995890.82  66.8%   636 4882s
 60061 15976 1551625.08   52   63 1196353.13 1992114.02  66.5%   636 4907s
 60325 15983 1627738.84   38  185 1196353.13 1990205.87  66.4%   637 4930s
 60726 16000 1800140.51   49  110 1196353.13 1987019.52  66.1%   638 4955s
 61097 16044 1326509.48   35   97 1196353.13 1982981.15  65.8%   639 4981s
 61553 16146     cutoff   51      1196353.13 1982121.59  65.7%   639 5007s
 61819 16128 1369660.93   45  202 1196353.13 1980779.14  65.6%   640 5032s
 62248 16142 1638877.89   53  131 1196353.13 1976656.92  65.2%   641 5056s
 62801 16220 1785550.82   38  241 1196353.13 1970633.42  64.7%   640 5085s
 63257 16295 1309997.28   48  168 1196353.13 1968937.84  64.6%   640 5110s
 63758 16371 1635358.90   49  128 1196353.13 1966059.09  64.3%   639 5133s
 64302 16465     cutoff   56      1196353.13 1960973.91  63.9%   638 5155s
 64756 16502 1341416.13   33  131 1196353.13 1956971.57  63.6%   638 5177s
 65258 16577 1571725.64   27   62 1196353.13 1954895.51  63.4%   638 5200s
 65600 16564     cutoff   51      1196353.13 1950765.50  63.1%   639 5223s
 66058 16582     cutoff   32      1196353.13 1947215.75  62.8%   638 5244s
 66468 16590 1524074.36   27  200 1196353.13 1943628.56  62.5%   639 5266s
 66949 16646 1230065.06   58  233 1196353.13 1940483.46  62.2%   638 5289s
 67538 16771 1911674.64   28   60 1196353.13 1938148.19  62.0%   636 5317s
 67919 16830 1470648.72   54  204 1196353.13 1935410.99  61.8%   636 5342s
 68177 16817 1346154.17   59  156 1196353.13 1933430.11  61.6%   636 5363s
 68581 16836 1289178.17   44   80 1196353.13 1928664.19  61.2%   636 5384s
 69074 16899 1824067.32   35  195 1196353.13 1924784.97  60.9%   635 5405s
 69398 16908 1851434.85   50   68 1196353.13 1923278.48  60.8%   635 5433s
 69842 16905 1677362.59   33   62 1196353.13 1918387.37  60.4%   635 5453s
 70397 16985     cutoff   37      1196353.13 1914497.97  60.0%   634 5475s
 70850 17016 1602334.12   38   63 1196353.13 1911427.51  59.8%   633 5495s
 71219 17036 1393385.29   59  112 1196353.13 1908238.18  59.5%   634 5515s
 71680 17104     cutoff   48      1196353.13 1905782.47  59.3%   633 5536s
 72143 17163 1290286.96   53   98 1196353.13 1903838.55  59.1%   633 5558s
 72602 17194 1603932.08   59  138 1196353.13 1901279.84  58.9%   632 5578s
 72985 17258     cutoff   62      1196353.13 1899738.02  58.8%   632 5599s
 73409 17269 1725164.27   38  119 1196353.13 1895983.03  58.5%   632 5623s
 73864 17292 1373557.85   73   79 1196353.13 1892806.40  58.2%   632 5643s
 74287 17341 1877002.65   27  205 1196353.13 1890801.46  58.0%   631 5663s
 74662 17353     cutoff   39      1196353.13 1887334.06  57.8%   631 5683s
 75095 17409 1773786.19   53  130 1196353.13 1886346.40  57.7%   631 5704s
 75549 17452     cutoff   38      1196353.13 1881708.84  57.3%   630 5723s
 76009 17505 1428924.71   39   73 1196353.13 1878910.89  57.1%   630 5744s
 76502 17566 1446787.49   29  185 1196353.13 1875695.86  56.8%   629 5764s
 76947 17617     cutoff   58      1196353.13 1872194.71  56.5%   629 5787s
 77356 17690 1208546.02   29  141 1196353.13 1871005.33  56.4%   628 5806s
 77736 17703 1584273.56   40   72 1196353.13 1868669.85  56.2%   628 5826s
 78186 17751 1582622.38   36   86 1196353.13 1865544.47  55.9%   628 5846s
 78620 17784     cutoff   45      1196353.13 1862318.08  55.7%   628 5866s
 79022 17844 1449341.72   37  109 1196353.13 1860626.60  55.5%   628 5885s
 79327 17866 1677987.05   38   77 1196353.13 1858738.30  55.4%   628 5905s
 79794 17932 1651798.81   62  233 1196353.13 1856623.19  55.2%   627 5926s
 80288 18009 1499519.86   63  254 1196353.13 1854935.45  55.0%   627 5945s
 80688 18069 1417032.16   47   75 1196353.13 1851102.58  54.7%   626 5964s
 81117 18108 1703088.59   31  172 1196353.13 1849472.30  54.6%   626 5982s
 81566 18147     cutoff   40      1196353.13 1847197.29  54.4%   625 6001s
 81891 18121     cutoff   82      1196353.13 1844870.20  54.2%   625 6020s
 82253 18136 1296735.49   71  259 1196353.13 1842430.78  54.0%   625 6039s
 82636 18162 1269427.44   30   98 1196353.13 1840664.51  53.9%   625 6058s
 83115 18226     cutoff   43      1196353.13 1837807.80  53.6%   624 6077s
 83552 18282 1301336.52   53   58 1196353.13 1835562.93  53.4%   624 6095s
 84060 18302     cutoff   68      1196353.13 1833429.10  53.3%   623 6119s
 84422 18304     cutoff   26      1196353.13 1831406.58  53.1%   623 6138s
 84779 18320 1414258.35   51   85 1196353.13 1828817.36  52.9%   623 6156s
 85230 18412     cutoff   26      1196353.13 1826895.08  52.7%   622 6174s
 85507 18437 1265672.75   45   99 1196353.13 1825669.24  52.6%   622 6240s
 85750 18398 1321500.60   59   87 1196353.13 1823983.72  52.5%   622 6260s
 86148 18415     cutoff   29      1196353.13 1822113.88  52.3%   622 6281s
 86584 18477 1801809.52   24  200 1196353.13 1818113.19  52.0%   621 6300s
 86907 18492 1527151.01   40  133 1196353.13 1816937.21  51.9%   622 6319s
 87263 18487 1614331.52   27  164 1196353.13 1814188.96  51.6%   622 6338s
 87735 18547 1534343.03   23  208 1196353.13 1811561.89  51.4%   621 6358s
 88076 18550 1628205.23   29   98 1196353.13 1809577.25  51.3%   621 6378s
 88421 18541 infeasible   39      1196353.13 1808553.12  51.2%   622 6396s
 88933 18602 1806623.58   35   79 1196353.13 1806623.58  51.0%   621 6416s
 89253 18595 1768929.95   39   77 1196353.13 1805506.95  50.9%   621 6436s
 89748 18650     cutoff   21      1196353.13 1801214.84  50.6%   621 6454s
 90212 18732     cutoff   19      1196353.13 1798859.85  50.4%   620 6474s
 90439 18711 1650525.48   37  101 1196353.13 1798077.61  50.3%   620 6492s
 90865 18744 1581133.42   38   69 1196353.13 1796486.52  50.2%   620 6511s
 91244 18779 1398510.28   63   58 1196353.13 1794473.41  50.0%   620 6530s
 91668 18805     cutoff   50      1196353.13 1793071.27  49.9%   619 6549s
 92089 18785     cutoff   56      1196353.13 1789999.94  49.6%   619 6567s
 92430 18788 1211021.30   52  184 1196353.13 1787393.40  49.4%   618 6585s
 92808 18772 1255246.41   61   65 1196353.13 1785692.11  49.3%   618 6603s
 93183 18775 1607775.37   34  127 1196353.13 1783227.58  49.1%   618 6622s
 93618 18783 infeasible   52      1196353.13 1780735.78  48.8%   618 6640s
 94004 18815     cutoff   66      1196353.13 1779176.80  48.7%   617 6659s
 94285 18801     cutoff   57      1196353.13 1778062.99  48.6%   618 6682s
 94834 18839 1697776.34   54   67 1196353.13 1775252.86  48.4%   616 6701s
 95329 18893     cutoff   30      1196353.13 1772276.32  48.1%   616 6719s
 95680 18883 1242786.04   57   89 1196353.13 1770019.94  48.0%   616 6737s
 96124 18900     cutoff   53      1196353.13 1767185.09  47.7%   615 6756s
 96494 18891 1451518.99   47   82 1196353.13 1765281.15  47.6%   615 6775s
 96861 18910 1357618.61   47  180 1196353.13 1764014.34  47.4%   615 6793s
 97288 18950     cutoff   41      1196353.13 1762342.13  47.3%   615 6814s
 97721 19014 1510400.52   36   61 1196353.13 1760096.08  47.1%   614 6832s
 98067 19041 1754545.63   59   68 1196353.13 1758395.43  47.0%   614 6850s
 98472 19063 1437251.98   39   54 1196353.13 1756005.12  46.8%   614 6869s
 98962 19175 1206055.40   43  128 1196353.13 1754095.38  46.6%   613 6889s
 99365 19188 1409862.38   27  175 1196353.13 1751947.86  46.4%   613 6906s
 99810 19256 1341707.42   24  167 1196353.13 1750860.40  46.3%   612 6931s
 100120 19243 1441572.71   64  189 1196353.13 1750248.80  46.3%   612 6948s
 100508 19256     cutoff   31      1196353.13 1748164.65  46.1%   612 6968s
 101005 19286 1717376.24   31  113 1196353.13 1745381.85  45.9%   611 6986s
 101367 19276     cutoff   20      1196353.13 1743137.71  45.7%   611 7003s
 101797 19311 1678768.70   65   84 1196353.13 1741155.05  45.5%   610 7021s
 102184 19336     cutoff   32      1196353.13 1739485.91  45.4%   610 7038s
 102563 19343 1410512.97   46   61 1196353.13 1738001.57  45.3%   610 7056s
 103030 19353     cutoff   36      1196353.13 1735408.14  45.1%   609 7075s
 103433 19369 1351503.22   50  149 1196353.13 1733851.42  44.9%   609 7092s
 103777 19377 1554674.93   33   70 1196353.13 1731776.78  44.8%   609 7109s
 104164 19399     cutoff   37      1196353.13 1730034.67  44.6%   608 7126s
 104532 19387 1239877.40   30   75 1196353.13 1727910.00  44.4%   608 7144s
 104873 19380 1204803.91   38  113 1196353.13 1726101.87  44.3%   608 7162s
 105240 19412     cutoff   51      1196353.13 1723868.33  44.1%   608 7185s
 105593 19438     cutoff   85      1196353.13 1722156.06  44.0%   608 7204s
 105976 19421 1466472.15   47   39 1196353.13 1720353.00  43.8%   607 7222s
 106436 19475 1648567.70   58  135 1196353.13 1718877.90  43.7%   607 7239s
 106791 19463     cutoff   37      1196353.13 1716229.34  43.5%   607 7254s
 107232 19519     cutoff   26      1196353.13 1713910.83  43.3%   606 7272s
 107628 19504 1598470.90   73   85 1196353.13 1712445.77  43.1%   606 7289s
 108026 19522     cutoff   34      1196353.13 1710819.60  43.0%   605 7307s
 108372 19503     cutoff   55      1196353.13 1707966.26  42.8%   605 7324s
 108740 19490 1388990.42   48   61 1196353.13 1706065.14  42.6%   605 7342s
 109099 19483 1578379.65   58  183 1196353.13 1704059.99  42.4%   604 7359s
 109489 19456 1696289.95   35  108 1196353.13 1702150.29  42.3%   604 7371s
 109855 19466 1545770.08   34   46 1196353.13 1700081.43  42.1%   603 7387s
 110274 19494 1609541.99   28  280 1196353.13 1698711.52  42.0%   603 7403s
 110725 19514 1518011.25   60   50 1196353.13 1696479.81  41.8%   602 7419s
 111154 19559 1412892.62   36   80 1196353.13 1694593.17  41.6%   601 7435s
 111514 19595     cutoff   40      1196353.13 1693157.23  41.5%   601 7451s
 111843 19605 1552902.11   43  158 1196353.13 1692274.94  41.5%   601 7467s
 112235 19642 1465311.10   39   93 1196353.13 1690375.17  41.3%   601 7484s
 112566 19649     cutoff   56      1196353.13 1689272.09  41.2%   600 7500s
 112879 19635     cutoff   39      1196353.13 1687602.10  41.1%   600 7516s
 113342 19693     cutoff   35      1196353.13 1685434.50  40.9%   599 7533s
 113664 19667     cutoff   49      1196353.13 1684250.46  40.8%   599 7550s
 114014 19690 1235865.49   78   31 1196353.13 1682711.73  40.7%   599 7624s
 114293 19671 1621599.07   41   70 1196353.13 1682163.72  40.6%   598 7640s
 114695 19703 infeasible   51      1196353.13 1680799.12  40.5%   597 7656s
 115095 19717 1277382.06   43   40 1196353.13 1679195.43  40.4%   597 7672s
 115474 19731 1456899.24   50   86 1196353.13 1677512.53  40.2%   597 7694s
 115727 19693 1250724.96   44  124 1196353.13 1676633.65  40.1%   597 7710s
 116097 19685     cutoff   67      1196353.13 1674126.43  39.9%   597 7725s
 116391 19659 infeasible   35      1196353.13 1672686.19  39.8%   597 7743s
 116672 19608     cutoff   29      1196353.13 1670990.86  39.7%   597 7760s
 117057 19602     cutoff   31      1196353.13 1668903.52  39.5%   597 7775s
 117421 19580 1582606.22   28   59 1196353.13 1666972.10  39.3%   596 7792s
 117770 19573 1618652.94   53   70 1196353.13 1665504.33  39.2%   596 7806s
 118226 19610     cutoff   34      1196353.13 1663513.46  39.0%   595 7819s
 118615 19606 1424500.17   64   54 1196353.13 1662006.42  38.9%   595 7833s
 118991 19596 1269360.28   41  128 1196353.13 1660098.26  38.8%   594 7845s
 119422 19642     cutoff   38      1196353.13 1658191.05  38.6%   593 7862s
 119664 19589 1376092.45   46   77 1196353.13 1657774.60  38.6%   593 7875s
 120009 19565     cutoff   43      1196353.13 1655008.83  38.3%   593 7890s
 120286 19516     cutoff   64      1196353.13 1653642.21  38.2%   593 7906s
 120697 19530     cutoff   32      1196353.13 1652002.73  38.1%   592 7922s
 120937 19506     cutoff   48      1196353.13 1650952.08  38.0%   593 7937s
 121234 19479     cutoff   45      1196353.13 1649893.78  37.9%   593 7953s
 121498 19454 1374317.85   53  326 1196353.13 1648318.57  37.8%   593 7970s
 121810 19416 1536745.43   38   86 1196353.13 1647437.26  37.7%   593 7988s
 122214 19424 1260044.98   35   96 1196353.13 1645304.51  37.5%   593 8003s
 122563 19421 1417935.39   63  131 1196353.13 1643920.28  37.4%   592 8020s
 122988 19434     cutoff   62      1196353.13 1642453.46  37.3%   592 8036s
 123410 19442     cutoff   59      1196353.13 1640853.02  37.2%   591 8051s
 123852 19452     cutoff   49      1196353.13 1639560.72  37.0%   590 8066s
 124203 19436     cutoff   43      1196353.13 1638350.47  36.9%   590 8078s
 124481 19390     cutoff   35      1196353.13 1636126.94  36.8%   590 8091s
 124885 19389     cutoff   43      1196353.13 1634494.78  36.6%   589 8108s
 125129 19332 1207919.56   44   79 1196353.13 1633754.60  36.6%   589 8123s
 125539 19339 1598542.87   46   97 1196353.13 1631805.20  36.4%   588 8137s
 125965 19319     cutoff   45      1196353.13 1630282.53  36.3%   588 8151s
 126294 19271 1339395.82   38  127 1196353.13 1629259.55  36.2%   588 8167s
 126712 19305 1433014.11   27  216 1196353.13 1628043.50  36.1%   587 8186s
 127113 19323 1256281.28   53  148 1196353.13 1626600.18  36.0%   586 8201s
 127570 19355     cutoff   62      1196353.13 1625238.32  35.8%   586 8216s
 128038 19396 1623887.07   66  163 1196353.13 1623965.83  35.7%   585 8230s
 128312 19374 1241485.38   70  145 1196353.13 1623887.07  35.7%   585 8245s
 128677 19378 1600945.47   51   64 1196353.13 1621194.97  35.5%   584 8259s
 129116 19385 1367957.16   40  108 1196353.13 1620300.48  35.4%   584 8274s
 129427 19355     cutoff   74      1196353.13 1618296.01  35.3%   584 8289s
 129757 19366     cutoff   31      1196353.13 1617170.04  35.2%   583 8304s
 130063 19320     cutoff   67      1196353.13 1615861.94  35.1%   583 8318s
 130486 19326 1430412.59   46  107 1196353.13 1614464.30  34.9%   582 8332s
 130885 19327 1395742.76   28  114 1196353.13 1612846.07  34.8%   582 8342s
 131242 19288     cutoff   45      1196353.13 1611305.35  34.7%   581 8356s
 131710 19330 1490039.50   36   70 1196353.13 1609761.64  34.6%   581 8369s
 132153 19333 infeasible   38      1196353.13 1608837.24  34.5%   580 8383s
 132493 19330     cutoff   48      1196353.13 1607491.33  34.4%   580 8397s
 132886 19332     cutoff   79      1196353.13 1606125.71  34.3%   579 8408s
 133304 19364     cutoff   62      1196353.13 1604758.50  34.1%   578 8422s
 133673 19368     cutoff   61      1196353.13 1603862.30  34.1%   578 8435s
 134044 19392     cutoff   48      1196353.13 1602378.69  33.9%   578 8452s
 134251 19348     cutoff   72      1196353.13 1601845.06  33.9%   578 8465s
 134604 19365     cutoff   68      1196353.13 1600362.93  33.8%   577 8478s
 134916 19339 1346006.14   62   55 1196353.13 1599550.48  33.7%   577 8490s
 135237 19324     cutoff   36      1196353.13 1597947.16  33.6%   577 8503s
 135616 19320     cutoff   37      1196353.13 1596560.96  33.5%   576 8515s
 136003 19320     cutoff   62      1196353.13 1595127.84  33.3%   576 8529s
 136291 19269     cutoff   37      1196353.13 1593921.31  33.2%   576 8541s
 136633 19265 1204568.71   23  231 1196353.13 1592458.81  33.1%   576 8555s
 136905 19226     cutoff   32      1196353.13 1591629.32  33.0%   576 8568s
 137192 19184     cutoff   68      1196353.13 1590114.71  32.9%   576 8582s
 137658 19217 1524455.21   41   58 1196353.13 1588667.91  32.8%   575 8594s
 138010 19222     cutoff   34      1196353.13 1587481.68  32.7%   574 8607s
 138368 19210     cutoff   39      1196353.13 1586521.62  32.6%   574 8625s
 138771 19203 1490793.25   54   54 1196353.13 1584826.10  32.5%   573 8635s
 139080 19171     cutoff   40      1196353.13 1583714.69  32.4%   573 8648s
 139391 19145     cutoff   55      1196353.13 1582965.53  32.3%   573 8661s
 139742 19124     cutoff   50      1196353.13 1582102.43  32.2%   572 8673s
 140050 19120     cutoff   51      1196353.13 1580521.80  32.1%   572 8685s
 140446 19121     cutoff   67      1196353.13 1579438.32  32.0%   571 8698s
 140838 19117 1268212.09   53   74 1196353.13 1578050.59  31.9%   571 8715s
 141214 19116 1210606.02   46   48 1196353.13 1576573.40  31.8%   571 8727s
 141552 19079     cutoff   78      1196353.13 1575442.93  31.7%   570 8737s
 141792 19028     cutoff   29      1196353.13 1574191.44  31.6%   570 8746s
 142110 19012 1441587.75   30   85 1196353.13 1572737.62  31.5%   569 8759s
 142414 19009     cutoff   59      1196353.13 1571349.36  31.3%   569 8787s
 142641 18955     cutoff   39      1196353.13 1570676.03  31.3%   569 8800s
 142997 18974     cutoff   27      1196353.13 1569377.19  31.2%   569 8811s
 143348 18965 1513313.72   56   86 1196353.13 1568210.78  31.1%   568 8823s
 143679 18929     cutoff   30      1196353.13 1566775.98  31.0%   568 8836s
 143998 18912     cutoff   53      1196353.13 1565972.62  30.9%   568 8848s
 144368 18906 1384739.80   64   84 1196353.13 1564050.26  30.7%   567 8861s
 144744 18904     cutoff   30      1196353.13 1562882.84  30.6%   567 8874s
 145155 18905     cutoff   66      1196353.13 1561848.29  30.6%   566 8886s
 145518 18876 1202655.80   48   38 1196353.13 1560732.33  30.5%   566 8898s
 145915 18867 1540107.72   61   73 1196353.13 1559456.85  30.4%   565 8911s
 146177 18829 1362825.57   60   68 1196353.13 1558015.11  30.2%   565 8923s
 146499 18825 1303301.69   41  137 1196353.13 1557263.24  30.2%   565 8935s
 146853 18789 1545558.52   52   56 1196353.13 1555850.16  30.0%   564 8947s
 147115 18739     cutoff   35      1196353.13 1554653.33  29.9%   564 8959s
 147369 18684     cutoff   62      1196353.13 1553256.96  29.8%   564 8972s
 147703 18651     cutoff   51      1196353.13 1552431.15  29.8%   564 8981s
 148091 18631 1294497.60   38   70 1196353.13 1550982.16  29.6%   563 8994s
 148437 18614     cutoff   66      1196353.13 1549859.60  29.5%   563 9008s
 148753 18591     cutoff   40      1196353.13 1549261.36  29.5%   563 9020s
 149099 18561 1444243.52   57   56 1196353.13 1547741.19  29.4%   562 9032s
 149420 18641 1530459.04   66   52 1196353.13 1546650.40  29.3%   562 9101s
 149444 18557 1479735.40   72   29 1196353.13 1546511.04  29.3%   562 9113s
 149821 18560 1217021.01   72  127 1196353.13 1545657.25  29.2%   561 9125s
 150112 18519 1231975.72   82   93 1196353.13 1544044.56  29.1%   561 9138s
 150426 18471 1359723.98   67  198 1196353.13 1543158.43  29.0%   561 9149s
 150663 18416     cutoff   36      1196353.13 1541947.17  28.9%   561 9162s
 150880 18369     cutoff   38      1196353.13 1541136.95  28.8%   561 9174s
 151178 18341 1344652.97   33   88 1196353.13 1539735.45  28.7%   561 9183s
 151499 18308     cutoff   62      1196353.13 1538505.74  28.6%   560 9193s
 151812 18280 1396470.95   40   48 1196353.13 1537350.50  28.5%   560 9204s
 152096 18235 1297842.89   64   54 1196353.13 1536373.23  28.4%   559 9216s
 152395 18208     cutoff   70      1196353.13 1535517.94  28.3%   559 9229s
 152699 18183 1424447.40   37   73 1196353.13 1534823.22  28.3%   559 9242s
 152935 18153 1454503.26   61  133 1196353.13 1534299.87  28.2%   559 9255s
 153289 18132 1500418.60   39   50 1196353.13 1532719.84  28.1%   558 9268s
 153665 18125     cutoff   40      1196353.13 1531621.35  28.0%   558 9280s
 153920 18055 1492550.59   57   27 1196353.13 1530879.61  28.0%   558 9289s
 154268 18023 1512667.50   44   70 1196353.13 1529507.43  27.8%   557 9300s
 154618 18013 1455654.32   46   31 1196353.13 1528287.36  27.7%   557 9312s
 154889 17970 1332840.51   50  150 1196353.13 1527810.14  27.7%   557 9323s
 155189 17927     cutoff   59      1196353.13 1526092.96  27.6%   556 9332s
 155480 17887     cutoff   67      1196353.13 1525157.27  27.5%   556 9343s
 155803 17851 1430439.35   44   67 1196353.13 1524125.95  27.4%   556 9352s
 156213 17844 1510055.70   38  164 1196353.13 1522994.39  27.3%   555 9360s
 156521 17805     cutoff   65      1196353.13 1521732.96  27.2%   555 9371s
 156780 17770     cutoff   35      1196353.13 1520666.87  27.1%   554 9381s
 157070 17730 1371472.55   59   93 1196353.13 1519539.19  27.0%   554 9390s
 157359 17694 1370915.26   47   39 1196353.13 1518411.71  26.9%   554 9401s
 157623 17652     cutoff   22      1196353.13 1517779.06  26.9%   554 9409s
 157918 17595 1444707.58   36   47 1196353.13 1516234.41  26.7%   553 9419s
 158169 17557 1509790.21   57   49 1196353.13 1515304.22  26.7%   553 9445s
 158402 17512 1328130.35   62   91 1196353.13 1514712.12  26.6%   553 9456s
 158619 17452     cutoff   54      1196353.13 1513567.41  26.5%   553 9466s
 158886 17404 1474634.72   35   38 1196353.13 1512325.84  26.4%   553 9476s
 159152 17360     cutoff   72      1196353.13 1511093.20  26.3%   553 9483s
 159419 17304     cutoff   50      1196353.13 1510035.58  26.2%   552 9491s
 159675 17266     cutoff   56      1196353.13 1509149.21  26.1%   552 9502s
 159987 17235     cutoff   28      1196353.13 1508288.21  26.1%   552 9514s
 160326 17210 1449560.32   29   57 1196353.13 1507417.25  26.0%   551 9526s
 160574 17148     cutoff   63      1196353.13 1506516.02  25.9%   551 9535s
 160875 17117     cutoff   68      1196353.13 1505124.17  25.8%   551 9541s
 161090 17049     cutoff   36      1196353.13 1504272.64  25.7%   551 9552s
 161399 17015 1486715.76   61   74 1196353.13 1503012.22  25.6%   550 9564s
 161680 16966     cutoff   70      1196353.13 1502159.95  25.6%   550 9575s
 161933 16919 1473313.03   38  140 1196353.13 1501183.62  25.5%   550 9586s
 162260 16878 1256441.96   41  111 1196353.13 1500268.48  25.4%   550 9596s
 162625 16877     cutoff   34      1196353.13 1499419.24  25.3%   549 9606s
 162945 16817     cutoff   43      1196353.13 1498364.75  25.2%   549 9618s
 163232 16765 infeasible   68      1196353.13 1497450.37  25.2%   549 9628s
 163529 16715     cutoff   76      1196353.13 1496144.60  25.1%   548 9637s
 163825 16675     cutoff   46      1196353.13 1495122.20  25.0%   548 9648s
 164117 16625 1394649.57   44   65 1196353.13 1494211.44  24.9%   548 9658s
 164375 16593 1314834.21   41   61 1196353.13 1493046.66  24.8%   548 9669s
 164625 16566 1474179.14   32   49 1196353.13 1492342.67  24.7%   547 9679s
 164888 16526 1385454.87   29  120 1196353.13 1490909.77  24.6%   547 9688s
 165178 16487 1390800.73   52   49 1196353.13 1489717.11  24.5%   547 9700s
 165416 16437     cutoff   29      1196353.13 1489213.19  24.5%   547 9713s
 165686 16387 1466940.05   32   82 1196353.13 1487909.58  24.4%   547 9722s
 165957 16326     cutoff   62      1196353.13 1486870.42  24.3%   547 9730s
 166242 16290 1422047.13   72   46 1196353.13 1485766.23  24.2%   546 9737s
 166458 16222     cutoff   63      1196353.13 1484680.10  24.1%   546 9748s
 166761 16175 1303536.47   51  104 1196353.13 1483633.22  24.0%   546 9757s
 166984 16112     cutoff   50      1196353.13 1482429.79  23.9%   546 9769s
 167286 16086 1457442.65   34   42 1196353.13 1481617.08  23.8%   546 9777s
 167568 16040     cutoff   40      1196353.13 1480580.54  23.8%   545 9789s
 167816 15982     cutoff   29      1196353.13 1479467.79  23.7%   545 9800s
 168123 15939     cutoff   37      1196353.13 1478592.33  23.6%   545 9809s
 168463 15912     cutoff   45      1196353.13 1477357.17  23.5%   545 9816s
 168741 15907     cutoff   73      1196353.13 1476326.52  23.4%   544 9835s
 168901 15862 1427422.58   69   69 1196353.13 1476163.72  23.4%   544 9846s
 169181 15805     cutoff   31      1196353.13 1475008.24  23.3%   544 9858s
 169452 15758     cutoff   62      1196353.13 1473963.43  23.2%   544 9870s
 169696 15701 1462384.75   70   56 1196353.13 1472921.88  23.1%   544 9878s
 169969 15643 1281662.39   42   34 1196353.13 1472043.17  23.0%   543 9885s
 170201 15587     cutoff   81      1196353.13 1470989.75  23.0%   543 9895s
 170431 15514     cutoff   41      1196353.13 1470105.23  22.9%   543 9903s
 170754 15493 1370938.91   43   50 1196353.13 1469271.65  22.8%   543 9915s
 171028 15470 1458645.53   70  194 1196353.13 1468866.90  22.8%   542 9926s
 171259 15427     cutoff   54      1196353.13 1468217.76  22.7%   542 9938s
 171540 15368 1271662.08   48   68 1196353.13 1466784.46  22.6%   542 9949s
 171828 15330 1244773.16   32   87 1196353.13 1465759.39  22.5%   542 9959s
 172063 15279 1421252.35   33   70 1196353.13 1464763.35  22.4%   542 9971s
 172321 15229     cutoff   37      1196353.13 1463925.32  22.4%   542 9979s
 172568 15181 1357571.88   57   59 1196353.13 1463035.16  22.3%   541 9991s
 172858 15137 1409419.40   36   77 1196353.13 1462195.73  22.2%   541 10002s
 173184 15116     cutoff   42      1196353.13 1461247.27  22.1%   541 10010s
 173395 15065 1415980.91   45   89 1196353.13 1460424.26  22.1%   541 10020s
 173690 15037     cutoff   70      1196353.13 1459568.07  22.0%   541 10027s
 173898 14983     cutoff   50      1196353.13 1458711.43  21.9%   540 10039s
 174120 14941     cutoff   26      1196353.13 1457746.16  21.8%   540 10047s
 174438 14886     cutoff   73      1196353.13 1456844.12  21.8%   540 10057s
 174771 14865 1433868.70   55   82 1196353.13 1456006.32  21.7%   540 10068s
 174987 14799 1337916.06   47  104 1196353.13 1455478.52  21.7%   540 10079s
 175228 14748 1238819.50   44   77 1196353.13 1454119.45  21.5%   540 10092s
 175493 14689     cutoff   58      1196353.13 1453264.41  21.5%   540 10102s
 175821 14647     cutoff   56      1196353.13 1452360.85  21.4%   539 10110s
 176090 14589     cutoff   35      1196353.13 1451436.87  21.3%   539 10121s
 176378 14543 1260192.55   82  208 1196353.13 1450755.91  21.3%   539 10128s
 176652 14473 1441570.48   33   96 1196353.13 1449713.12  21.2%   539 10138s
 176882 14407 1396938.35   57   52 1196353.13 1448744.33  21.1%   539 10149s
 177183 14347     cutoff   39      1196353.13 1447913.01  21.0%   538 10157s
 177450 14289     cutoff   34      1196353.13 1447131.90  21.0%   538 10168s
 177680 14220 1360033.99   40   67 1196353.13 1446063.39  20.9%   538 10178s
 177923 14155     cutoff   42      1196353.13 1445091.03  20.8%   538 10186s
 178175 14089     cutoff   46      1196353.13 1444134.19  20.7%   538 10197s
 178469 14044     cutoff   75      1196353.13 1443433.30  20.7%   537 10206s
 178703 13986     cutoff   76      1196353.13 1442621.96  20.6%   537 10212s
 178968 13938 1360908.82   38  128 1196353.13 1441907.86  20.5%   537 10220s
 179186 13867 1421102.71   72   72 1196353.13 1441208.21  20.5%   537 10229s
 179457 13815 1421309.36   39   33 1196353.13 1440101.16  20.4%   536 10235s
 179704 13756     cutoff   46      1196353.13 1439045.48  20.3%   536 10242s
 179977 13753     cutoff   62      1196353.13 1438139.54  20.2%   536 10256s
 180123 13682     cutoff   32      1196353.13 1438090.49  20.2%   536 10265s
 180367 13615 1299953.34   41   32 1196353.13 1436926.91  20.1%   536 10272s
 180551 13546     cutoff   49      1196353.13 1435973.22  20.0%   535 10283s
 180790 13491 1292326.86   46  105 1196353.13 1434910.65  19.9%   535 10290s
 180979 13418     cutoff   56      1196353.13 1434022.40  19.9%   535 10298s
 181280 13378     cutoff   28      1196353.13 1433105.47  19.8%   535 10305s
 181510 13324 1368905.58   31   72 1196353.13 1432207.18  19.7%   535 10311s
 181750 13264     cutoff   55      1196353.13 1431228.89  19.6%   534 10320s
 181945 13198 1266425.74   40   50 1196353.13 1430329.57  19.6%   534 10328s
 182228 13147 1397108.41   56  106 1196353.13 1429402.02  19.5%   534 10339s
 182462 13088 1272125.05   36   96 1196353.13 1428923.34  19.4%   534 10345s
 182705 13035     cutoff   50      1196353.13 1427834.77  19.3%   534 10355s
 182979 12983     cutoff   64      1196353.13 1427085.15  19.3%   533 10362s
 183218 12927     cutoff   51      1196353.13 1426136.21  19.2%   533 10377s
 183457 12863     cutoff   42      1196353.13 1425321.93  19.1%   533 10385s
 183622 12793     cutoff   39      1196353.13 1424464.89  19.1%   533 10397s
 183846 12728     cutoff   44      1196353.13 1423794.92  19.0%   533 10404s
 184118 12676     cutoff   58      1196353.13 1422700.34  18.9%   533 10412s
 184352 12607 1224507.82   47   48 1196353.13 1421816.19  18.8%   533 10419s
 184590 12539     cutoff   37      1196353.13 1420977.74  18.8%   532 10426s
 184762 12460     cutoff   40      1196353.13 1419990.78  18.7%   532 10433s
 184939 12400     cutoff   54      1196353.13 1419057.99  18.6%   532 10440s
 185133 12323     cutoff   42      1196353.13 1418048.68  18.5%   532 10448s
 185362 12253     cutoff   65      1196353.13 1417321.89  18.5%   532 10454s
 185615 12190     cutoff   58      1196353.13 1416251.81  18.4%   532 10460s
 185836 12122     cutoff   66      1196353.13 1415234.99  18.3%   531 10466s
 186090 12062 1379336.68   33   69 1196353.13 1414279.22  18.2%   531 10473s
 186286 11989     cutoff   42      1196353.13 1413275.03  18.1%   531 10480s
 186520 11915     cutoff   30      1196353.13 1412394.14  18.1%   531 10485s
 186717 11857     cutoff   53      1196353.13 1411501.74  18.0%   531 10496s
 187041 11820 1309267.06   58   94 1196353.13 1410848.89  17.9%   530 10502s
 187257 11747     cutoff   67      1196353.13 1409841.95  17.8%   530 10511s
 187452 11676 1407176.44   36   29 1196353.13 1408871.24  17.8%   530 10518s
 187671 11611     cutoff   45      1196353.13 1407730.07  17.7%   530 10525s
 187890 11548 1383388.32   55   38 1196353.13 1406871.04  17.6%   530 10534s
 188089 11488     cutoff   39      1196353.13 1406027.78  17.5%   530 10545s
 188344 11445     cutoff   30      1196353.13 1405197.72  17.5%   529 10554s
 188620 11394 1397707.70   40   90 1196353.13 1404266.97  17.4%   529 10560s
 188896 11334 1370244.36   55   35 1196353.13 1403503.11  17.3%   529 10569s
 189124 11277     cutoff   43      1196353.13 1402475.53  17.2%   529 10574s
 189346 11207     cutoff   60      1196353.13 1401513.91  17.1%   528 10580s
 189560 11138     cutoff   59      1196353.13 1400580.14  17.1%   528 10587s
 189786 11074     cutoff   41      1196353.13 1399629.02  17.0%   528 10593s
 189982 11001     cutoff   31      1196353.13 1398791.59  16.9%   528 10601s
 190281 10985 infeasible   77      1196353.13 1397881.02  16.8%   527 10608s
 190469 10915     cutoff   52      1196353.13 1396886.99  16.8%   527 10614s
 190669 10849     cutoff   44      1196353.13 1395779.92  16.7%   527 10622s
 190903 10778     cutoff   87      1196353.13 1394754.64  16.6%   527 10628s
 191130 10714 1307362.57   45   38 1196353.13 1393652.92  16.5%   527 10638s
 191346 10642     cutoff   57      1196353.13 1392885.34  16.4%   527 10644s
 191555 10574 1371477.84   50   28 1196353.13 1392067.84  16.4%   526 10651s
 191802 10512 1345389.00   61   89 1196353.13 1391263.24  16.3%   526 10656s
 191993 10436 1303655.53   68   24 1196353.13 1390347.18  16.2%   526 10665s
 192218 10366     cutoff   35      1196353.13 1389323.71  16.1%   526 10673s
 192461 10312     cutoff   36      1196353.13 1388388.24  16.1%   526 10679s
 192670 10237 1318972.90   71   34 1196353.13 1387509.79  16.0%   525 10686s
 192880 10177     cutoff   59      1196353.13 1386553.57  15.9%   525 10692s
 193066 10104 1254997.75   66   67 1196353.13 1385585.86  15.8%   525 10700s
 193279 10027     cutoff   52      1196353.13 1384846.06  15.8%   525 10707s
 193495  9953     cutoff   43      1196353.13 1383985.21  15.7%   525 10713s
 193680  9884     cutoff   42      1196353.13 1383136.15  15.6%   525 10719s
 193827  9801 1315888.35   40   65 1196353.13 1382090.66  15.5%   525 10723s
 194048  9729     cutoff   53      1196353.13 1381230.24  15.5%   524 10731s
 194295  9661     cutoff   64      1196353.13 1380162.66  15.4%   524 10738s
 194455  9582     cutoff   55      1196353.13 1379292.81  15.3%   524 10745s
 194655  9510     cutoff   49      1196353.13 1378369.24  15.2%   524 10750s
 194872  9443     cutoff   34      1196353.13 1377402.61  15.1%   524 10755s
 195078  9378     cutoff   74      1196353.13 1376465.23  15.1%   523 10762s
 195280  9312 1221943.50   41  109 1196353.13 1375443.11  15.0%   523 10766s
 195445  9237 1349791.62   41  167 1196353.13 1374423.00  14.9%   523 10775s
 195629  9165     cutoff  121      1196353.13 1373409.77  14.8%   523 10782s
 195806  9097 infeasible   62      1196353.13 1372633.07  14.7%   523 10788s
 196040  9033     cutoff   51      1196353.13 1371887.29  14.7%   523 10798s
 196200  8950     cutoff   53      1196353.13 1371001.86  14.6%   523 10804s
 196404  8890 1343133.18   51   67 1196353.13 1370110.29  14.5%   522 10810s
 196644  8834     cutoff   49      1196353.13 1369276.59  14.5%   522 10817s
 196820  8758 infeasible   31      1196353.13 1368474.03  14.4%   522 10824s
 196966  8681     cutoff   40      1196353.13 1367504.81  14.3%   522 10832s
 197135  8602 1343256.60   34  170 1196353.13 1366373.25  14.2%   522 10840s
 197337  8531     cutoff   43      1196353.13 1365337.73  14.1%   522 10849s
 197525  8462 1363844.34   59   32 1196353.13 1364340.22  14.0%   522 10855s
 197732  8396 1360470.20   30   93 1196353.13 1363372.11  14.0%   521 10860s
 197911  8333 1280254.19   56  159 1196353.13 1362402.52  13.9%   521 10865s
 198114  8262 1281525.79   64   76 1196353.13 1361513.34  13.8%   521 10873s
 198323  8190     cutoff   39      1196353.13 1360738.05  13.7%   521 10880s
 198563  8127     cutoff   75      1196353.13 1359936.54  13.7%   521 10890s
 198756  8048 1333147.61   61   31 1196353.13 1359165.03  13.6%   521 10896s
 198955  7971     cutoff   33      1196353.13 1358176.83  13.5%   521 10902s
 199174  7905     cutoff   49      1196353.13 1357257.93  13.4%   520 10907s
 199399  7845 1330834.64   60   70 1196353.13 1356419.01  13.4%   520 10917s
 199621  7777 1218928.98   35   93 1196353.13 1355608.08  13.3%   520 10921s
 199797  7702     cutoff   54      1196353.13 1354647.06  13.2%   520 10929s
 199977  7628     cutoff   33      1196353.13 1353654.41  13.1%   520 10934s
 200133  7547     cutoff   26      1196353.13 1352727.74  13.1%   520 10938s
 200302  7477 1279802.89   61   45 1196353.13 1351594.32  13.0%   519 10943s
 200451  7397     cutoff   43      1196353.13 1350514.58  12.9%   519 10948s
 200674  7329 infeasible   64      1196353.13 1349691.08  12.8%   519 10952s
 200869  7256     cutoff   63      1196353.13 1348705.07  12.7%   519 10958s
 201072  7189 infeasible   44      1196353.13 1347757.53  12.7%   519 10963s
 201202  7108     cutoff   36      1196353.13 1346657.14  12.6%   519 10967s
 201390  7033 infeasible   61      1196353.13 1345699.66  12.5%   519 10973s
 201603  6955     cutoff   41      1196353.13 1344817.61  12.4%   518 10976s
 201758  6884     cutoff   37      1196353.13 1343987.42  12.3%   518 10983s
 201915  6803     cutoff   41      1196353.13 1342951.88  12.3%   518 10991s
 202050  6721     cutoff   47      1196353.13 1342054.04  12.2%   518 10995s
 202421  6580     cutoff   50      1196353.13 1340214.11  12.0%   518 11003s
 202634  6511     cutoff   60      1196353.13 1339221.04  11.9%   518 11009s
 202796  6435     cutoff   64      1196353.13 1338094.18  11.8%   517 11013s
 203003  6374     cutoff   46      1196353.13 1337277.01  11.8%   517 11018s
 203165  6298     cutoff   44      1196353.13 1336371.75  11.7%   517 11022s
 203318  6220     cutoff   58      1196353.13 1335440.16  11.6%   517 11027s
 203489  6145 1210872.54   47   77 1196353.13 1334453.97  11.5%   517 11032s
 203686  6071 infeasible   45      1196353.13 1333568.35  11.5%   517 11038s
 203846  5994     cutoff   48      1196353.13 1332413.63  11.4%   516 11043s
 203992  5914     cutoff   41      1196353.13 1331106.67  11.3%   516 11049s
 204168  5840 1312095.43   43   76 1196353.13 1330117.92  11.2%   516 11053s
 204313  5760     cutoff   40      1196353.13 1328961.63  11.1%   516 11058s
 204475  5692 1324147.17   60   33 1196353.13 1327868.77  11.0%   516 11062s
 204624  5625     cutoff   60      1196353.13 1326796.51  10.9%   516 11075s
 204796  5550 1231284.19   49  137 1196353.13 1326543.05  10.9%   516 11080s
 204982  5473 1252738.38   50   30 1196353.13 1324837.55  10.7%   515 11087s
 205136  5395     cutoff   72      1196353.13 1323727.04  10.6%   515 11092s
 205318  5319     cutoff   33      1196353.13 1322588.87  10.6%   515 11097s
 205499  5238     cutoff   74      1196353.13 1321569.01  10.5%   515 11100s
 205656  5164     cutoff   55      1196353.13 1320347.51  10.4%   515 11106s
 205803  5084     cutoff   51      1196353.13 1319220.14  10.3%   515 11110s
 206104  4932     cutoff   70      1196353.13 1317040.20  10.1%   515 11118s
 206279  4855     cutoff   39      1196353.13 1315927.31  10.0%   514 11121s
 206432  4775     cutoff   70      1196353.13 1314713.78  9.89%   514 11125s
 206711  4608     cutoff   35      1196353.13 1312424.59  9.70%   514 11134s
 206883  4531     cutoff   67      1196353.13 1311253.05  9.60%   514 11139s
 207066  4455     cutoff   40      1196353.13 1309987.18  9.50%   514 11143s
 207246  4375     cutoff   33      1196353.13 1308885.08  9.41%   513 11146s
 207380  4292     cutoff   37      1196353.13 1307662.81  9.30%   513 11150s
 207536  4220 1208017.47   54   17 1196353.13 1306393.37  9.20%   513 11160s
 207824  4058     cutoff   42      1196353.13 1303957.44  8.99%   513 11167s
 207968  3976 1240034.19   57   67 1196353.13 1303011.61  8.92%   513 11170s
 208129  3896     cutoff   72      1196353.13 1301973.63  8.83%   513 11176s
 208408  3735 infeasible   53      1196353.13 1299780.17  8.65%   513 11184s
 208550  3653     cutoff   50      1196353.13 1298443.76  8.53%   512 11189s
 208722  3571     cutoff   26      1196353.13 1297256.23  8.43%   512 11193s
 208865  3488     cutoff   30      1196353.13 1296259.24  8.35%   512 11200s
 209019  3410     cutoff   55      1196353.13 1294986.24  8.24%   512 11205s
 209255  3247     cutoff   47      1196353.13 1292244.12  8.02%   512 11212s
 209378  3163     cutoff   39      1196353.13 1290947.21  7.91%   512 11217s
 209678  3003     cutoff   33      1196353.13 1288041.86  7.66%   512 11223s
 209825  2922     cutoff   58      1196353.13 1286851.48  7.56%   512 11226s
 209983  2842     cutoff   38      1196353.13 1285745.04  7.47%   511 11232s
 210131  2761     cutoff   54      1196353.13 1284299.71  7.35%   511 11236s
 210258  2680     cutoff   47      1196353.13 1282784.23  7.22%   511 11241s
 210391  2605     cutoff   39      1196353.13 1281414.36  7.11%   511 11251s
 210662  2437     cutoff   66      1196353.13 1278572.77  6.87%   511 11257s
 210780  2355     cutoff   36      1196353.13 1277178.59  6.76%   511 11263s
 210914  2271     cutoff   33      1196353.13 1275526.17  6.62%   511 11268s
 211046  2194 1254126.56   53   37 1196353.13 1274233.36  6.51%   511 11271s
 211196  2113     cutoff   46      1196353.13 1272813.82  6.39%   510 11275s
 211476  1952 1259152.55   54   48 1196353.13 1269704.16  6.13%   510 11282s
 211602  1869 1228306.96   37   42 1196353.13 1268057.20  5.99%   510 11285s
 211837  1704     cutoff   29      1196353.13 1264568.07  5.70%   510 11293s
 211989  1624     cutoff   62      1196353.13 1262763.77  5.55%   510 11296s
 212099  1542 infeasible   69      1196353.13 1260762.75  5.38%   510 11300s
 212344  1383     cutoff   17      1196353.13 1257132.00  5.08%   510 11307s
 212563  1215 infeasible   47      1196353.13 1253317.22  4.76%   509 11312s
 212692  1133 infeasible   68      1196353.13 1250987.61  4.57%   509 11315s
 212902   965 infeasible   64      1196353.13 1246738.10  4.21%   509 11321s
 213018   881     cutoff   59      1196353.13 1244747.37  4.05%   509 11327s
 213146   799     cutoff   40      1196353.13 1242429.75  3.85%   509 11330s
 213340   631 infeasible   58      1196353.13 1236950.87  3.39%   509 11335s
 213581   465     cutoff   51      1196353.13 1231258.84  2.92%   508 11343s
 213691   385     cutoff   44      1196353.13 1227313.22  2.59%   508 11346s
 213803   301     cutoff   68      1196353.13 1223527.69  2.27%   508 11350s
 213996   133     cutoff   30      1196353.13 1214116.61  1.48%   508 11355s
 214082    49 infeasible   48      1196353.13 1208479.21  1.01%   508 11360s

Cutting planes:
  Gomory: 66
  Cover: 9
  Implied bound: 262
  Projected implied bound: 65
  MIR: 123
  Flow cover: 1291
  Inf proof: 1
  Zero half: 2

Explored 214220 nodes (108997187 simplex iterations) in 11366.68 seconds
Thread count was 4 (of 16 available processors)

Solution count 10: 1.19635e+06 1.19635e+06 1.19635e+06 ... 1.19411e+06

Optimal solution found (tolerance 1.00e-04)
Best objective 1.196353011822e+06, best bound 1.196353126074e+06, gap 0.0000%

***
***  |- Calculation finished, took 11,366.73 (11366.73) sec.
***  |-----------------------------------------------------------------------------------------------------------------------
***
*****************************************************************************************************************************
#############################################################################################################################
###
### Results
###
### The objective of the solution is 1,196,353.0118 (1196353.0118) and is feasible with a Gap of 0.0
###
### Service 81 (MECL1) is operated by 6 vessels from type 30 (PMax35)
###  |- Vessel  9 has the path [9, 332, 326, 342, 333, 324, 4, 294, 284, 7, 298, 196, 0]
###  |  9 (BEANR Out@344.0) - 332 (USEWR In@608.0/Out@618.0) - 326 (USCHS In@656.0/Out@666.0) - 342 (USORF In@691.0/Out@704.0
###  |  ) - 333 (USEWR In@728.0/Out@744.0) - 324 (TRZMK In@1063.0/Out@1077.0) - 4 (AEJEA In@1177.0/Out@1201.0) - 294 (PKBQM I
###  |  n@1258.0/Out@1288.0) - 284 (OMSLL In@1410.0/Out@1423.0) - 7 (AEJEA In@1681.0/Out@1705.0) - 298 (PKBQM In@1762.0/Out@1
###  |  792.0) - 196 (INNSA In@1856.0/Out@1872.0) - 0 (DUMMY_END Ziel-Service 81)
###  |   |- and carried Demand 237,   34.0 containers from 298 to 196
###  |   |- and carried Demand 238,   84.0 containers from   7 to 298
###  |   |- and carried Demand 239,   50.0 containers from   7 to 298
###  |   |- and carried Demand 297,  254.0 containers from 294 to 196
###  |   |- and carried Demand 298,    1.0 containers from 294 to 196
###  |   |- and carried Demand 299,  135.0 containers from 294 to 196
###  |   |- and carried Demand 302,   75.0 containers from   4 to 196
###  |   |- and carried Demand 303,  200.0 containers from   4 to 294
###  |   |- and carried Demand 304,   24.0 containers from   4 to 294
###  |   |- and carried Demand 305,   26.0 containers from   4 to 196
###  |   |- and carried Demand 306,  144.0 containers from   4 to 196
###  |   |- and carried Demand 307,    1.0 containers from   4 to 196
###  |   |- and carried Demand 309,  339.0 containers from 342 to   4
###  |   |- and carried Demand 310,  115.0 containers from 342 to   4
###  |   |- and carried Demand 311,    3.0 containers from 342 to 284
###  |   |- and carried Demand 312,    2.0 containers from 342 to 294
###  |   |- and carried Demand 313,  194.0 containers from 326 to   4
###  |   |- and carried Demand 314,   49.0 containers from 326 to   4
###  |   |- and carried Demand 315,   40.0 containers from 326 to 294
###  |   |- and carried Demand 318,  842.0 containers from 332 to   4
###  |   |- and carried Demand 319,   99.0 containers from 332 to   4
###  |   |- and carried Demand 320,  123.0 containers from 332 to 294
###  |   |- and carried Demand 321,    1.0 containers from 332 to 294
###  |- Vessel 10 has the path [10, 316, 190, 0]
###  |  10 (BEANR Out@512.0) - 316 (TRAMB In@854.0/Out@881.0) - 190 (INNSA In@1016.0/Out@1032.0) - 0 (DUMMY_END Ziel-Service 
###  |  81)
###  |- Vessel 11 has the path [13, 313, 192, 0]
###  |  13 (BEANR Out@680.0) - 313 (TRALI In@946.0/Out@964.0) - 192 (INNSA In@1352.0/Out@1368.0) - 0 (DUMMY_END Ziel-Service 
###  |  81)
###  |- Vessel 12 has the path [16, 314, 5, 295, 193, 0]
###  |  16 (BEANR Out@848.0) - 314 (TRALI In@1114.0/Out@1132.0) - 5 (AEJEA In@1345.0/Out@1369.0) - 295 (PKBQM In@1426.0/Out@1
###  |  456.0) - 193 (INNSA In@1520.0/Out@1536.0) - 0 (DUMMY_END Ziel-Service 81)
###  |   |- and carried Demand 284,   86.0 containers from   5 to 295
###  |   |- and carried Demand 285,  118.0 containers from   5 to 295
###  |- Vessel 17 has the path [158, 270, 323, 191, 0]
###  |  158 (GBFXT Out@580.0) - 270 (NLRTM In@610.0/Out@622.0) - 323 (TRZMK In@895.0/Out@909.0) - 191 (INNSA In@1184.0/Out@12
###  |  00.0) - 0 (DUMMY_END Ziel-Service 81)
###  |- Vessel 23 has the path [347, 92, 63, 178, 2, 291, 292, 293, 194, 195, 0]
###  |  347 (JPYOK Out@51.27) - 92 (CNXMN In@180.0/Out@202.0) - 63 (CNNSA In@229.0/Out@239.0) - 178 (HKHKG In@276.0/Out@292.0
###  |  ) - 2 (AEJEA In@841.0/Out@865.0) - 291 (PKBQM In@922.0/Out@952.0) - 292 (PKBQM In@992.0/Out@1020.0) - 293 (PKBQM In@1
###  |  090.0/Out@1120.0) - 194 (INNSA In@1590.0/Out@1622.0) - 195 (INNSA In@1688.0/Out@1704.0) - 0 (DUMMY_END Ziel-Service 8
###  |  1)
###  |   |- and carried Demand 120,  237.0 containers from 292 to 194
###  |   |- and carried Demand 121,    2.0 containers from 292 to 194
###  |   |- and carried Demand 123,   97.0 containers from 292 to 194
###  |   |- and carried Demand 173,  412.0 containers from  92 to 178
###  |   |- and carried Demand 174,    2.0 containers from  92 to 178
###  |   |- and carried Demand 323,  244.0 containers from 293 to 195
###  |   |- and carried Demand 324,   67.0 containers from 293 to 195
###  |   |- and carried Demand 333,  237.0 containers from 291 to 194
###  |   |- and carried Demand 334,    2.0 containers from 291 to 194
###  |   |- and carried Demand 336,   97.0 containers from 291 to 194
###  |   |- and carried Demand 338,  704.0 containers from   2 to 195
###  |   |- and carried Demand 339,    8.0 containers from   2 to 195
###  |   |- and carried Demand 340,  156.0 containers from   2 to 291
###  |   |- and carried Demand 341,   45.0 containers from   2 to 291
###  |   |- and carried Demand 342,   16.0 containers from   2 to 194
###  |   |- and carried Demand 343,  264.0 containers from   2 to 194
###  |
### Vessels not used in the solution: [1, 2, 3, 4, 5, 6, 7, 8, 13, 14, 15, 16, 18]
###  |-----------------------------------------------------------------------------------------------------------------------
###
#############################################################################################################################

### Detialed variable overview

### All variables with value greater zero:
rho[81,30] = 1
eta[81,30,1] = 1
eta[81,30,2] = 1
eta[81,30,3] = 1
eta[81,30,4] = 1
eta[81,30,5] = 1
eta[81,30,6] = 1
y[9,4,294] = 1
y[9,332,326] = 1
y[9,294,284] = 1
y[9,284,7] = 1
y[9,342,333] = 1
y[9,9,332] = 1
y[9,324,4] = 1
y[9,7,298] = 1
y[9,196,0] = 1
y[9,333,324] = 1
y[9,298,196] = 1
y[9,326,342] = 1
y[10,190,0] = 1
y[10,316,190] = 1
y[10,10,316] = 1
y[11,192,0] = 1
y[11,313,192] = 1
y[11,13,313] = 1
y[12,5,295] = 1
y[12,193,0] = 1
y[12,16,314] = 1
y[12,295,193] = 1
y[12,314,5] = 1
y[17,270,323] = 1
y[17,158,270] = 1
y[17,191,0] = 1
y[17,323,191] = 1
y[23,293,194] = 1
y[23,347,92] = 1
y[23,195,0] = 1
y[23,292,293] = 1
y[23,194,195] = 1
y[23,63,178] = 1
y[23,291,292] = 1
y[23,178,2] = 1
y[23,92,63] = 1
y[23,2,291] = 1
xD[120,293,194] = 237
xD[120,292,293] = 237
xD[121,293,194] = 2
xD[121,292,293] = 2
xD[123,293,194] = 97
xD[123,292,293] = 97
xD[173,63,178] = 412
xD[173,92,63] = 412
xD[174,63,178] = 2
xD[174,92,63] = 2
xD[237,298,196] = 34
xD[238,7,298] = 84
xD[239,7,298] = 50
xD[284,5,295] = 86
xD[285,5,295] = 118
xD[297,294,284] = 254
xD[297,284,7] = 254
xD[297,7,298] = 254
xD[297,298,196] = 254
xD[298,294,284] = 1
xD[298,284,7] = 1
xD[298,7,298] = 1
xD[298,298,196] = 1
xD[299,294,284] = 135
xD[299,284,7] = 135
xD[299,7,298] = 135
xD[299,298,196] = 135
xD[302,4,294] = 75
xD[302,294,284] = 75
xD[302,284,7] = 75
xD[302,7,298] = 75
xD[302,298,196] = 75
xD[303,4,294] = 200
xD[304,4,294] = 24
xD[305,4,294] = 26
xD[305,294,284] = 26
xD[305,284,7] = 26
xD[305,7,298] = 26
xD[305,298,196] = 26
xD[306,4,294] = 144
xD[306,294,284] = 144
xD[306,284,7] = 144
xD[306,7,298] = 144
xD[306,298,196] = 144
xD[307,4,294] = 1
xD[307,294,284] = 1
xD[307,284,7] = 1
xD[307,7,298] = 1
xD[307,298,196] = 1
xD[309,342,333] = 339
xD[309,324,4] = 339
xD[309,333,324] = 339
xD[310,342,333] = 115
xD[310,324,4] = 115
xD[310,333,324] = 115
xD[311,4,294] = 3
xD[311,294,284] = 3
xD[311,342,333] = 3
xD[311,324,4] = 3
xD[311,333,324] = 3
xD[312,4,294] = 2
xD[312,342,333] = 2
xD[312,324,4] = 2
xD[312,333,324] = 2
xD[313,342,333] = 194
xD[313,324,4] = 194
xD[313,333,324] = 194
xD[313,326,342] = 194
xD[314,342,333] = 49
xD[314,324,4] = 49
xD[314,333,324] = 49
xD[314,326,342] = 49
xD[315,4,294] = 40
xD[315,342,333] = 40
xD[315,324,4] = 40
xD[315,333,324] = 40
xD[315,326,342] = 40
xD[318,332,326] = 842
xD[318,342,333] = 842
xD[318,324,4] = 842
xD[318,333,324] = 842
xD[318,326,342] = 842
xD[319,332,326] = 99
xD[319,342,333] = 99
xD[319,324,4] = 99
xD[319,333,324] = 99
xD[319,326,342] = 99
xD[320,4,294] = 123
xD[320,332,326] = 123
xD[320,342,333] = 123
xD[320,324,4] = 123
xD[320,333,324] = 123
xD[320,326,342] = 123
xD[321,4,294] = 1
xD[321,332,326] = 1
xD[321,342,333] = 1
xD[321,324,4] = 1
xD[321,333,324] = 1
xD[321,326,342] = 1
xD[323,293,194] = 244
xD[323,194,195] = 244
xD[324,293,194] = 67
xD[324,194,195] = 67
xD[333,293,194] = 237
xD[333,292,293] = 237
xD[333,291,292] = 237
xD[334,293,194] = 2
xD[334,292,293] = 2
xD[334,291,292] = 2
xD[336,293,194] = 97
xD[336,292,293] = 97
xD[336,291,292] = 97
xD[338,293,194] = 704
xD[338,292,293] = 704
xD[338,194,195] = 704
xD[338,291,292] = 704
xD[338,2,291] = 704
xD[339,293,194] = 8
xD[339,292,293] = 8
xD[339,194,195] = 8
xD[339,291,292] = 8
xD[339,2,291] = 8
xD[340,2,291] = 156
xD[341,2,291] = 45
xD[342,293,194] = 16
xD[342,292,293] = 16
xD[342,291,292] = 16
xD[342,2,291] = 16
xD[343,293,194] = 264
xD[343,292,293] = 264
xD[343,291,292] = 264
xD[343,2,291] = 264
zE[2] = 841
zE[4] = 1177
zE[5] = 1345
zE[7] = 1681
zE[63] = 229
zE[92] = 180
zE[178] = 276
zE[190] = 1016
zE[191] = 1184
zE[192] = 1352
zE[193] = 1520
zE[194] = 1590
zE[195] = 1688
zE[196] = 1856
zE[270] = 610
zE[284] = 1410
zE[291] = 922
zE[292] = 992
zE[293] = 1090
zE[294] = 1258
zE[295] = 1426
zE[298] = 1762
zE[313] = 946
zE[314] = 1114
zE[316] = 854
zE[323] = 895
zE[324] = 1063
zE[326] = 656
zE[332] = 608
zE[333] = 728
zE[342] = 691
zX[2] = 865
zX[4] = 1201
zX[5] = 1369
zX[7] = 1705
zX[9] = 344
zX[10] = 512
zX[13] = 680
zX[16] = 848
zX[63] = 239
zX[92] = 202
zX[158] = 580
zX[178] = 292
zX[190] = 1032
zX[191] = 1200
zX[192] = 1368
zX[193] = 1536
zX[194] = 1622
zX[195] = 1704
zX[196] = 1872
zX[270] = 622
zX[284] = 1423
zX[291] = 952
zX[292] = 1020
zX[293] = 1120
zX[294] = 1288
zX[295] = 1456
zX[298] = 1792
zX[313] = 964
zX[314] = 1132
zX[316] = 881
zX[323] = 909
zX[324] = 1077
zX[326] = 666
zX[332] = 618
zX[333] = 744
zX[342] = 704
zX[347] = 51.2735
w[23,(347,92)] = 128.726
phi[9] = 1528
phi[10] = 520
phi[11] = 688
phi[12] = 688
phi[17] = 620
phi[23] = 1652.73

### All variables with value smaller zero:

### End

real	192m39.549s
user	728m55.473s
sys	28m37.196s
	OpenBLAS 0.2.6 environment removed
	Freetype 2.4.12 environment removed
	Python 3.6.0 environment removed
	Gurobi 8.1.0 environment removed
