	OpenBLAS 0.2.6 environment established
		compiled with gcc for max. 16 cores
	Freetype 2.4.12 environment established
		library to render fonts
	Python 3.6.0 environment established
	Gurobi 8.1.0 environment established
Instance LSFRP: LSFDRP_4_3_6_1_fr.p
Instance LSFDP: LSFDRP_4_3_6_1_fd_25.p

*****************************************************************************************************************************
*** Solve LSFDRP_4_3_6_1_fd_25 with Gurobi
***
*** Graph info
*** |S|: 19
*** |S^E|: 0
*** |S^C|: 1
*** |V|: 348
*** |A|: 8709
*** |A^i|: 8382
*** |A^f|: 327
*** |M|: 343
*** |E|: 0

Changed value of parameter NumericFocus to 1
   Prev: 0  Min: 0  Max: 3  Default: 0
Changed value of parameter TimeLimit to 86400.0
   Prev: 1e+100  Min: 0.0  Max: 1e+100  Default: 1e+100
Changed value of parameter Threads to 4
   Prev: 0  Min: 0  Max: 1024  Default: 0
Optimize a model with 163606 rows, 3177009 columns and 11352648 nonzeros
Variable types: 3011517 continuous, 165492 integer (165492 binary)
Coefficient statistics:
  Matrix range     [1e+00, 5e+03]
  Objective range  [4e+01, 2e+08]
  Bounds range     [1e+00, 1e+00]
  RHS range        [1e+00, 5e+03]
Presolve removed 75566 rows and 2450955 columns (presolve time = 5s) ...
Presolve removed 135647 rows and 3001012 columns (presolve time = 10s) ...
Presolve removed 135800 rows and 3001291 columns (presolve time = 15s) ...
Presolve removed 135800 rows and 3018020 columns (presolve time = 98s) ...
Presolve removed 137035 rows and 3018174 columns (presolve time = 100s) ...
Presolve removed 137755 rows and 3024853 columns (presolve time = 210s) ...
Presolve removed 137755 rows and 3024853 columns
Presolve time: 209.54s
Presolved: 25851 rows, 152156 columns, 1226880 nonzeros
Variable types: 11011 continuous, 141145 integer (141106 binary)

Deterministic concurrent LP optimizer: primal and dual simplex
Showing first log only...


Root simplex log...

Iteration    Objective       Primal Inf.    Dual Inf.      Time
       0   -0.0000000e+00   4.800000e+01   2.523606e+10    214s
   10586   -1.5470380e+08   4.995780e+00   2.410418e+10    215s
   23727   -1.5251680e+08   0.000000e+00   8.252855e+12    220s
   36475   -5.8398966e+06   0.000000e+00   1.832130e+10    225s
   52148   -5.6878213e+06   0.000000e+00   6.785980e+10    230s
   63409   -5.1977961e+06   0.000000e+00   2.337639e+10    235s
   75672   -4.3717442e+06   0.000000e+00   1.068468e+10    240s
   88064   -3.2712750e+06   0.000000e+00   6.845576e+10    245s
  101388   -2.4692867e+06   0.000000e+00   4.185946e+10    250s
  112660   -2.1878587e+06   0.000000e+00   8.954448e+08    255s
  124216   -1.6032827e+06   0.000000e+00   5.747595e+09    260s
  135643   -6.1956847e+05   0.000000e+00   4.451228e+09    265s
  148190   -9.3581947e+04   0.000000e+00   4.685420e+11    270s
  159442    2.1821306e+05   0.000000e+00   1.154623e+11    275s
  168754    5.9103467e+05   0.000000e+00   2.108273e+10    280s
  178842    9.2343937e+05   0.000000e+00   1.071941e+10    285s
  191258    1.1774376e+06   0.000000e+00   1.884142e+10    290s
  200958    1.6248088e+06   0.000000e+00   4.398906e+11    295s
  209106    1.9855056e+06   0.000000e+00   3.424994e+10    300s
  217642    2.1838304e+06   0.000000e+00   2.537064e+10    305s
  226178    2.3846938e+06   0.000000e+00   1.228951e+10    310s
  235490    2.7251162e+06   0.000000e+00   2.090323e+11    315s
Concurrent spin time: 17.12s

Solved with dual simplex

Root relaxation: objective 7.513701e+06, 81871 iterations, 103.73 seconds

    Nodes    |    Current Node    |     Objective Bounds      |     Work
 Expl Unexpl |  Obj  Depth IntInf | Incumbent    BestBd   Gap | It/Node Time

     0     0 7357640.09    0  277          - 7357640.09      -     -  324s
H    0     0                    -1482907.444 7357640.09   596%     -  327s
H    0     0                    680698.23447 7357640.09   981%     -  391s
     0     0 5471708.66    0  262 680698.234 5471708.66   704%     -  401s
     0     0 5471708.66    0  247 680698.236 5471708.66   704%     -  408s
     0     0 5149869.40    0  285 680698.236 5149869.40   657%     -  413s
     0     0 4838672.05    0  294 680698.236 4838672.05   611%     -  414s
     0     0 4802700.38    0  312 680698.236 4802700.38   606%     -  415s
     0     0 4798411.70    0  312 680698.236 4798411.70   605%     -  415s
     0     0 4793028.72    0  309 680698.236 4793028.72   604%     -  415s
     0     0 4793028.69    0  309 680698.236 4793028.69   604%     -  415s
     0     0 4755328.75    0  318 680698.236 4755328.75   599%     -  417s
     0     0 4752346.20    0  330 680698.236 4752346.20   598%     -  417s
     0     0 4738143.33    0  326 680698.236 4738143.33   596%     -  418s
     0     0 4737513.00    0  323 680698.236 4737513.00   596%     -  418s
     0     0 4712618.88    0  341 680698.236 4712618.88   592%     -  418s
     0     0 4711021.47    0  339 680698.236 4711021.47   592%     -  418s
     0     0 4709948.34    0  343 680698.236 4709948.34   592%     -  419s
     0     0 4709466.43    0  341 680698.236 4709466.43   592%     -  419s
     0     0 4709466.43    0  341 680698.236 4709466.43   592%     -  419s
     0     0 4702118.48    0  349 680698.236 4702118.48   591%     -  419s
     0     0 4695094.90    0  346 680698.236 4695094.90   590%     -  420s
     0     0 4692942.60    0  339 680698.236 4692942.60   589%     -  420s
     0     0 4692621.77    0  344 680698.236 4692621.77   589%     -  420s
     0     0 4692325.07    0  349 680698.236 4692325.07   589%     -  420s
     0     0 4691352.87    0  354 680698.236 4691352.87   589%     -  420s
     0     0 4691316.44    0  354 680698.236 4691316.44   589%     -  420s
     0     0 4687982.77    0  361 680698.236 4687982.77   589%     -  421s
     0     0 4684996.44    0  371 680698.236 4684996.44   588%     -  422s
     0     0 4683149.58    0  368 680698.236 4683149.58   588%     -  422s
     0     0 4679810.64    0  357 680698.236 4679810.64   588%     -  422s
     0     0 4678829.61    0  372 680698.236 4678829.61   587%     -  422s
     0     0 4678671.26    0  371 680698.236 4678671.26   587%     -  422s
     0     0 4676450.60    0  381 680698.236 4676450.60   587%     -  423s
     0     0 4674896.80    0  387 680698.236 4674896.80   587%     -  423s
     0     0 4668649.35    0  389 680698.236 4668649.35   586%     -  424s
     0     0 4667787.76    0  392 680698.236 4667787.76   586%     -  424s
     0     0 4667619.57    0  392 680698.236 4667619.57   586%     -  424s
     0     0 4665300.29    0  395 680698.236 4665300.29   585%     -  424s
     0     0 4654571.45    0  384 680698.236 4654571.45   584%     -  425s
     0     0 4653289.32    0  392 680698.236 4653289.32   584%     -  425s
     0     0 4652575.12    0  360 680698.236 4652575.12   584%     -  426s
     0     0 4652524.96    0  364 680698.236 4652524.96   583%     -  426s
     0     0 4649119.54    0  361 680698.236 4649119.54   583%     -  426s
     0     0 4646284.89    0  398 680698.236 4646284.89   583%     -  427s
     0     0 4645990.51    0  401 680698.236 4645990.51   583%     -  427s
     0     0 4645005.23    0  387 680698.236 4645005.23   582%     -  427s
     0     0 4644714.60    0  386 680698.236 4644714.60   582%     -  427s
     0     0 4644640.38    0  394 680698.236 4644640.38   582%     -  427s
     0     0 4643443.56    0  396 680698.236 4643443.56   582%     -  428s
     0     0 4642959.99    0  394 680698.236 4642959.99   582%     -  428s
     0     0 4642759.14    0  388 680698.236 4642759.14   582%     -  428s
     0     0 4642217.63    0  397 680698.236 4642217.63   582%     -  429s
     0     0 4642070.12    0  393 680698.236 4642070.12   582%     -  429s
     0     0 4641209.48    0  394 680698.236 4641209.48   582%     -  430s
     0     0 4641209.48    0  393 680698.236 4641209.48   582%     -  438s
     0     0 4641209.48    0  252 680698.236 4641209.48   582%     -  444s
     0     0 4641209.48    0  275 680698.236 4641209.48   582%     -  449s
     0     0 4610970.85    0  305 680698.236 4610970.85   577%     -  451s
     0     0 4593123.43    0  310 680698.236 4593123.43   575%     -  451s
     0     0 4581052.41    0  331 680698.236 4581052.41   573%     -  452s
     0     0 4568534.48    0  351 680698.236 4568534.48   571%     -  452s
     0     0 4546586.32    0  355 680698.236 4546586.32   568%     -  452s
     0     0 4543568.25    0  348 680698.236 4543568.25   567%     -  452s
     0     0 4540542.32    0  340 680698.236 4540542.32   567%     -  453s
     0     0 4536755.92    0  356 680698.236 4536755.92   566%     -  453s
     0     0 4533923.45    0  348 680698.236 4533923.45   566%     -  453s
     0     0 4532640.89    0  333 680698.236 4532640.89   566%     -  453s
     0     0 4485842.56    0  298 680698.236 4485842.56   559%     -  454s
     0     0 4474658.21    0  304 680698.236 4474658.21   557%     -  454s
     0     0 4469481.04    0  330 680698.236 4469481.04   557%     -  454s
     0     0 4468940.24    0  333 680698.236 4468940.24   557%     -  454s
     0     0 4466336.22    0  341 680698.236 4466336.22   556%     -  454s
     0     0 4465995.10    0  318 680698.236 4465995.10   556%     -  454s
     0     0 4465426.54    0  317 680698.236 4465426.54   556%     -  454s
     0     0 4465405.61    0  319 680698.236 4465405.61   556%     -  454s
     0     0 4418332.50    0  356 680698.236 4418332.50   549%     -  456s
     0     0 4414084.76    0  303 680698.236 4414084.76   548%     -  457s
     0     0 4412670.74    0  309 680698.236 4412670.74   548%     -  457s
     0     0 4411892.26    0  317 680698.236 4411892.26   548%     -  457s
     0     0 4411393.04    0  327 680698.236 4411393.04   548%     -  457s
     0     0 4411100.23    0  322 680698.236 4411100.23   548%     -  457s
     0     0 4404087.78    0  330 680698.236 4404087.78   547%     -  458s
     0     0 4403529.66    0  315 680698.236 4403529.66   547%     -  458s
     0     0 4402532.92    0  316 680698.236 4402532.92   547%     -  458s
     0     0 4401459.44    0  328 680698.236 4401459.44   547%     -  459s
     0     0 4400626.99    0  374 680698.236 4400626.99   546%     -  459s
     0     0 4400469.46    0  377 680698.236 4400469.46   546%     -  459s
     0     0 4395087.36    0  337 680698.236 4395087.36   546%     -  459s
     0     0 4394870.46    0  341 680698.236 4394870.46   546%     -  459s
     0     0 4389282.80    0  323 680698.236 4389282.80   545%     -  460s
     0     0 4386886.31    0  326 680698.236 4386886.31   544%     -  460s
     0     0 4386113.14    0  330 680698.236 4386113.14   544%     -  460s
     0     0 4385632.96    0  335 680698.236 4385632.96   544%     -  460s
     0     0 4385234.26    0  346 680698.236 4385234.26   544%     -  461s
     0     0 4385093.00    0  347 680698.236 4385093.00   544%     -  461s
     0     0 4383696.93    0  380 680698.236 4383696.93   544%     -  461s
     0     0 4383239.12    0  384 680698.236 4383239.12   544%     -  462s
     0     0 4382671.95    0  384 680698.236 4382671.95   544%     -  462s
     0     0 4382494.28    0  390 680698.236 4382494.28   544%     -  462s
     0     0 4381411.14    0  389 680698.236 4381411.14   544%     -  462s
     0     0 4381385.35    0  383 680698.236 4381385.35   544%     -  463s
     0     0 4381308.22    0  379 680698.236 4381308.22   544%     -  463s
     0     0 4381308.22    0  379 680698.236 4381308.22   544%     -  469s
     0     2 4381308.22    0  379 680698.236 4381308.22   544%     -  472s
     1     5 4349804.86    1  310 680698.236 4349804.86   539%   453  477s
     3     8 4320073.21    2  300 680698.236 4327747.09   536%  2057  481s
    23    26 4265465.09    7  299 680698.236 4317893.26   534%  1052  485s
    29    29 4262769.83    8  309 680698.236 4317893.26   534%   901  491s
H   30    30                    680698.23722 4317893.26   534%   871  491s
H   32    32                    680698.26487 4317893.26   534%   916  491s
    49    50 4086617.18   11  362 680698.265 4317893.26   534%   879  496s
    68    63 4074293.78   13  360 680698.265 4317893.26   534%   870  500s
   114    94 3620410.50   18  302 680698.265 4317893.26   534%   723  507s
   155   119 3862364.50   21  149 680698.265 4317893.26   534%   662  510s
   205   142 3753135.05   28  125 680698.265 4317893.26   534%   582  515s
H  281   179                    1303584.2214 4317893.26   231%   514  521s
   355   227 3098944.77   65   80 1303584.22 4317893.26   231%   456  526s
   390   251 2877745.00   73   63 1303584.22 4317893.26   231%   442  531s
   533   335 3815328.05    4  227 1303584.22 4151529.52   218%   384  537s
   556   345 1695324.95    8  193 1303584.22 4102451.20   215%   407  540s
   581   362     cutoff    6      1303584.22 4079244.34   213%   430  545s
   629   400 3517536.53    7  223 1303584.22 4079244.34   213%   448  552s
   635   399     cutoff    7      1303584.22 4079244.34   213%   470  555s
   680   424 3283018.94   10  175 1303584.22 4079244.34   213%   495  562s
   719   446 2998036.05   13  222 1303584.22 4056598.80   211%   502  565s
   772   475 2318683.90   16  199 1303584.22 4056598.80   211%   511  570s
   998   622 3483843.48   16  257 1303584.22 3957669.45   204%   459  577s
  1017   629 3351964.67   18  129 1303584.22 3957669.45   204%   454  580s
  1050   650 1538888.34   89  262 1303584.22 3957669.45   204%   467  605s
  1052   651 1644799.85   16  243 1303584.22 3957669.45   204%   466  610s
  1061   657 1412747.84   40  290 1303584.22 3957669.45   204%   462  615s
  1085   673 1325683.75   80  338 1303584.22 3957669.45   204%   452  620s
  1103   685 1768130.96   26  340 1303584.22 3957669.45   204%   444  625s
  1115   693 1546121.00   47  348 1303584.22 3957669.45   204%   440  630s
  1128   702 3623915.52   18  360 1303584.22 3957669.45   204%   435  635s
  1144   713 1932096.30   66  386 1303584.22 3957669.45   204%   429  640s
  1148   715 2863719.05   21  366 1303584.22 3957669.45   204%   427  649s
  1150   717 1538888.34   89  365 1303584.22 3957669.45   204%   426  655s
  1151   720 3896033.40   12  296 1303584.22 3957669.45   204%   469  676s
  1153   723 3794024.69   13  302 1303584.22 3863410.99   196%   472  700s
  1165   731 3745294.44   15  281 1303584.22 3762366.27   189%   487  705s
  1173   733 3581585.39   16  199 1303584.22 3745253.85   187%   500  710s
H 1177   697                    1323683.3873 3745253.85   183%   501  714s
  1181   691 3456570.86   17  203 1323683.39 3745253.85   183%   508  715s
  1199   701 3251679.37   19  108 1323683.39 3745253.85   183%   518  720s
  1206   706 3178547.76   20  104 1323683.39 3745253.85   183%   524  725s
  1236   712 2776516.65   24   90 1323683.39 3745253.85   183%   542  734s
  1249   713 2664469.16   26  148 1323683.39 3745253.85   183%   547  735s
  1272   725 1653978.81   30  159 1323683.39 3745253.85   183%   552  741s
  1300   736 2924801.88   34   93 1323683.39 3745253.85   183%   561  745s
  1358   745 2329214.42   42  116 1323683.39 3745253.85   183%   574  752s
  1395   743 2290079.76   47   94 1323683.39 3745253.85   183%   580  756s
  1467   731 3416447.51   18  244 1323683.39 3745147.24   183%   583  760s
  1524   724 3036548.96   24  109 1323683.39 3720458.04   181%   581  765s
  1598   742 2490687.49   44  131 1323683.39 3697098.32   179%   573  770s
  1714   750 2527689.52   21  194 1323683.39 3697098.32   179%   559  775s
  1801   759 1900267.50   19  194 1323683.39 3550482.88   168%   555  781s
  1892   797 2873001.10   25  252 1323683.39 3543237.02   168%   549  786s
  1922   807 2679128.31   28  246 1323683.39 3543237.02   168%   549  790s
  1984   834 2051827.64   38  164 1323683.39 3543237.02   168%   548  798s
  2038   848 1451396.98   50  118 1323683.39 3412454.14   158%   548  800s
  2152   882 1765446.53   24  141 1323683.39 3410095.45   158%   551  808s
  2234   906 2342885.80   21  215 1323683.39 3389709.43   156%   548  811s
H 2255   879                    1323683.3878 3389709.43   156%   551  811s
  2390   918 2025467.95   19  206 1323683.39 3340054.31   152%   543  817s
  2467   933 2914616.41   22  215 1323683.39 3329403.33   152%   543  821s
  2557   953 3043440.42   19  196 1323683.39 3329403.33   152%   542  826s
  2625   959     cutoff   26      1323683.39 3329403.33   152%   540  830s
  2750   985 2532707.48   34  252 1323683.39 3293449.28   149%   548  838s
  2824  1015 2231584.65   47  204 1323683.39 3293449.28   149%   550  842s
  2919  1049 1884838.58   77  142 1323683.39 3240464.74   145%   547  847s
  3005  1079 2491722.94   27  262 1323683.39 3215007.24   143%   551  853s
H 3016  1057                    1323683.3889 3215007.24   143%   552  853s
  3021  1059 2384400.57   32  300 1323683.39 3209917.69   142%   553  857s
  3105  1104 2850315.49   22  146 1323683.39 3205476.78   142%   555  862s
  3214  1178 2611102.80   20  257 1323683.39 3193824.62   141%   555  867s
  3298  1228 2162423.21   34  186 1323683.39 3185977.77   141%   558  873s
  3359  1258     cutoff   24      1323683.39 3185977.77   141%   567  879s
  3393  1254 2844634.65   30  234 1323683.39 3185977.77   141%   570  885s
  3505  1326     cutoff   54      1323683.39 3159552.89   139%   571  891s
  3584  1345 1833277.42   29  142 1323683.39 3140383.95   137%   578  899s
  3652  1371 1840576.18   35   64 1323683.39 3117976.27   136%   580  909s
H 3685  1391                    1323683.3894 3117976.27   136%   580  909s
  3686  1383 2397213.62   29  197 1323683.39 3108895.69   135%   580  916s
  3783  1421 2051121.23   25  243 1323683.39 3106321.86   135%   586  923s
  3848  1425 1694286.06   40  251 1323683.39 3106321.86   135%   592  931s
  3971  1475 1565859.64   30  181 1323683.39 3065300.71   132%   595  938s
  4084  1512 1980399.67   29  196 1323683.39 3056003.61   131%   596  946s
  4221  1547 1695173.11   39  289 1323683.39 3035356.80   129%   597  954s
  4370  1590 1816480.83   29   97 1323683.39 3025629.86   129%   596  962s
  4506  1638 infeasible   37      1323683.39 3011458.10   128%   598  972s
  4647  1689 1530217.36   45  194 1323683.39 2999398.44   127%   599  981s
  4881  1794 1865804.46   46  198 1323683.39 2985370.78   126%   593  993s
  5039  1849 1452988.68   40  145 1323683.39 2971443.11   124%   600 1003s
  5253  1939     cutoff   43      1323683.39 2949043.32   123%   599 1012s
  5366  1964 2253837.83   25  278 1323683.39 2932107.84   122%   604 1022s
  5500  2000 1994017.53   26  212 1323683.39 2912641.79   120%   610 1032s
  5708  2093 1363828.24   60  130 1323683.39 2896209.96   119%   613 1044s
  5851  2128 1607996.05   41  272 1323683.39 2874301.47   117%   622 1057s
  6018  2192 1368695.02   68  120 1323683.39 2869044.31   117%   622 1068s
  6214  2247 2150763.32   32   87 1323683.39 2858010.33   116%   626 1080s
  6329  2270 2238415.72   30   53 1323683.39 2848939.39   115%   630 1095s
  6554  2356     cutoff   32      1323683.39 2846464.54   115%   626 1109s
  6886  2519 1624985.52   32  268 1323683.39 2835518.96   114%   622 1123s
  7153  2618 1543160.54   31  143 1323683.39 2807673.85   112%   620 1137s
  7356  2678 1360090.29   30  146 1323683.39 2795154.37   111%   625 1151s
  7492  2730 1701206.23   26  166 1323683.39 2778747.06   110%   624 1166s
  7739  2781 2281149.94   26  171 1323683.39 2764515.99   109%   630 1182s
  8003  2862 2639713.86   24  272 1323683.39 2747034.00   108%   635 1198s
  8261  2917 2189460.37   31   95 1323683.39 2735353.98   107%   642 1215s
  8696  3038 1669688.74   26  203 1323683.39 2710718.79   105%   641 1233s
  9119  3201 1920084.06   55  155 1323683.39 2687396.89   103%   639 1251s
  9404  3256 1861530.92   42  175 1323683.39 2666540.22   101%   642 1269s
  9689  3341 1892660.43   31  129 1323683.39 2644899.42   100%   648 1288s
 10084  3471 infeasible   37      1323683.39 2631144.93  98.8%   649 1308s
 10521  3591     cutoff   34      1323683.39 2610237.16  97.2%   652 1339s
H10739  3613                    1353328.0811 2610237.16  92.9%   647 1339s
 10861  3628 2404103.22   37  109 1353328.08 2584110.48  90.9%   647 1361s
 11343  3735 1739791.73   28  191 1353328.08 2552610.54  88.6%   647 1383s
*11399  3664              28    1403053.8443 2552610.54  81.9%   647 1383s
 11870  3786     cutoff   43      1403053.84 2529205.52  80.3%   647 1414s
 12420  3870     cutoff   35      1403053.84 2525377.87  80.0%   642 1435s
 12848  3939 1669643.24   31  170 1403053.84 2475125.71  76.4%   644 1456s
 13349  4034 1614960.23   34  172 1403053.84 2453492.51  74.9%   644 1477s
 13698  4075     cutoff   28      1403053.84 2441336.35  74.0%   648 1509s
H13771  4040                    1423153.0130 2441336.35  71.5%   650 1509s
 14047  4117     cutoff   35      1423153.01 2425042.38  70.4%   652 1531s
H14274  4186                    1423153.0134 2423115.20  70.3%   652 1531s
 14421  4148 2317972.70   34  149 1423153.01 2406842.74  69.1%   653 1552s
 14887  4229 2031572.30   70  115 1423153.01 2387782.52  67.8%   652 1574s
 15383  4347     cutoff   64      1423153.01 2381733.96  67.4%   652 1595s
 15944  4462 2270865.70   39  217 1423153.01 2348193.41  65.0%   649 1616s
 16336  4545 1489857.81   38  199 1423153.01 2340472.39  64.5%   650 1639s
 16787  4617     cutoff   34      1423153.01 2328950.18  63.6%   652 1660s
 17303  4732 2184193.22   29  265 1423153.01 2309299.69  62.3%   645 1680s
 17815  4830 1992354.17   50   69 1423153.01 2299048.09  61.5%   645 1699s
 18397  4917 1946330.84   35   80 1423153.01 2289666.77  60.9%   641 1719s
 18986  5071     cutoff   28      1423153.01 2276747.11  60.0%   638 1738s
 19561  5200 1679270.39   50   48 1423153.01 2266487.25  59.3%   635 1782s
 20059  5314 1814000.27   41   52 1423153.01 2254407.81  58.4%   632 1800s
 20364  5341 1856532.10   55  125 1423153.01 2246001.89  57.8%   632 1820s
 20858  5444 1621483.22   28  274 1423153.01 2238581.49  57.3%   631 2220s
 21413  5524 2000938.62   49   83 1423153.01 2228065.76  56.6%   630 2240s
 21939  5677     cutoff   31      1423153.01 2219169.59  55.9%   628 2258s
 22389  5742 1737607.98   61   83 1423153.01 2211948.81  55.4%   629 2277s
 22876  5849 2052966.53   38  115 1423153.01 2204033.47  54.9%   629 2296s
 23174  5884 2185409.88   45  106 1423153.01 2197339.96  54.4%   631 2315s
 23567  5944 1874725.68   36  150 1423153.01 2190707.35  53.9%   633 2333s
 23956  6045 1895256.04   65   89 1423153.01 2182630.87  53.4%   633 2350s
 24429  6177 1550305.23   47  232 1423153.01 2177242.63  53.0%   632 2371s
 24888  6244     cutoff   40      1423153.01 2171630.60  52.6%   632 2388s
 25328  6329 1582431.62   40   62 1423153.01 2165652.59  52.2%   632 2405s
 25741  6414 2133912.30   23  132 1423153.01 2158697.53  51.7%   633 2425s
 26127  6484     cutoff   53      1423153.01 2154560.02  51.4%   634 2443s
 26418  6527 2094987.44   38   89 1423153.01 2151085.28  51.1%   637 2464s
 26870  6631 1509700.13   31  108 1423153.01 2145025.39  50.7%   637 2481s
 27242  6744     cutoff   27      1423153.01 2140699.58  50.4%   639 2501s
 27291  6711     cutoff   27      1423153.01 2139616.14  50.3%   639 2519s
 27641  6719 1797336.95   38  210 1423153.01 2134506.05  50.0%   642 2539s
 28043  6817     cutoff   36      1423153.01 2130465.64  49.7%   642 2557s
 28483  6918 1443642.25   44  200 1423153.01 2125607.41  49.4%   643 2578s
 28872  7051 1682482.21   43  112 1423153.01 2123277.58  49.2%   643 2595s
 29172  7116     cutoff   48      1423153.01 2119191.06  48.9%   644 2613s
 29545  7157     cutoff   42      1423153.01 2113762.35  48.5%   647 2631s
 29863  7178 1686511.55   66  102 1423153.01 2110750.49  48.3%   650 2648s
 30203  7187 1871249.61   41  104 1423153.01 2105541.43  47.9%   651 2667s
 30596  7249 2047216.32   36  115 1423153.01 2101512.50  47.7%   652 2685s
 31003  7326 1566894.13   41   99 1423153.01 2096306.34  47.3%   653 2704s
 31402  7421 1530040.47   34   95 1423153.01 2092866.36  47.1%   653 2726s
 31788  7439 1613762.08   68  153 1423153.01 2088584.84  46.8%   654 2745s
 32231  7474     cutoff   49      1423153.01 2083573.24  46.4%   654 2763s
 32701  7544     cutoff   48      1423153.01 2077144.26  46.0%   654 2781s
 33160  7671     cutoff   25      1423153.01 2071567.77  45.6%   654 2799s
 33595  7768 1560263.56   81  141 1423153.01 2067940.95  45.3%   654 2817s
 34035  7845     cutoff   51      1423153.01 2061799.52  44.9%   654 2834s
 34414  7897     cutoff   44      1423153.01 2057836.67  44.6%   655 2883s
H34633  7946                    1423153.0517 2057535.53  44.6%   656 2883s
 34635  7923     cutoff   64      1423153.05 2057535.53  44.6%   656 2902s
 34762  7876 1556035.10   20  252 1423153.05 2057335.18  44.6%   656 2921s
 35225  7929     cutoff   67      1423153.05 2049294.99  44.0%   657 2938s
 35622  7960     cutoff   52      1423153.05 2043985.38  43.6%   658 2958s
 35980  7970 1514516.35   61  194 1423153.05 2042139.77  43.5%   658 2976s
 36423  8005     cutoff   59      1423153.05 2034337.51  42.9%   658 2995s
 36869  8116 1692645.36   65  118 1423153.05 2031874.95  42.8%   658 3015s
 37023  8104 1896395.04   33  185 1423153.05 2030596.99  42.7%   658 3036s
 37415  8138 1926429.22   39  138 1423153.05 2025525.08  42.3%   659 3054s
 37804  8191 1477851.24   40   72 1423153.05 2022236.83  42.1%   660 3071s
 38154  8203     cutoff   45      1423153.05 2019780.94  41.9%   661 3091s
 38620  8291     cutoff   58      1423153.05 2015310.21  41.6%   660 3109s
 39017  8334 1889644.51   54   46 1423153.05 2009373.59  41.2%   660 3127s
 39365  8350 1689235.79   78  194 1423153.05 2005598.52  40.9%   661 3144s
 39446  8365 1966711.13   46   67 1423153.05 2005000.30  40.9%   662 3145s
 39800  8383     cutoff   48      1423153.05 2000193.94  40.5%   662 3162s
 40276  8431 1776298.73   81  198 1423153.05 1996458.20  40.3%   662 3179s
 40590  8397     cutoff   58      1423153.05 1991394.85  39.9%   664 3198s
 41098  8449 1746981.01   32  160 1423153.05 1988832.01  39.7%   664 3215s
 41424  8430 1854548.21   50   60 1423153.05 1982312.13  39.3%   666 3232s
 41829  8470     cutoff   67      1423153.05 1977555.27  39.0%   666 3255s
 42235  8466     cutoff   30      1423153.05 1973513.23  38.7%   667 3272s
 42641  8461     cutoff   61      1423153.05 1970279.47  38.4%   668 3295s
 43040  8502     cutoff   39      1423153.05 1965360.83  38.1%   668 3312s
 43415  8517     cutoff   56      1423153.05 1962733.37  37.9%   668 3329s
 43780  8501 1956501.68   60  114 1423153.05 1956501.68  37.5%   669 3347s
 44246  8558 1434768.59   51   96 1423153.05 1954745.63  37.4%   669 3366s
 44701  8619 1544622.09   57   82 1423153.05 1949758.90  37.0%   668 3383s
 45105  8661     cutoff   68      1423153.05 1945525.77  36.7%   667 3401s
 45523  8666 1732305.23   69   87 1423153.05 1942865.96  36.5%   667 3418s
 45950  8671 1566268.02   43  108 1423153.05 1939154.77  36.3%   668 3435s
 46349  8691     cutoff   59      1423153.05 1934658.30  35.9%   668 3453s
 46794  8759     cutoff   53      1423153.05 1930926.38  35.7%   667 3470s
 47253  8807 1530526.65   33  109 1423153.05 1928224.64  35.5%   667 3487s
 47718  8863 1749562.91   38   93 1423153.05 1924509.07  35.2%   666 3504s
 48095  8872     cutoff   57      1423153.05 1921954.23  35.0%   667 3520s
 48460  8880     cutoff   50      1423153.05 1919983.40  34.9%   666 3537s
 48868  8890 1623651.29   52  106 1423153.05 1916817.17  34.7%   666 3554s
 49429  8961     cutoff   37      1423153.05 1912624.73  34.4%   664 3568s
 49749  8957 1850533.98   57   46 1423153.05 1907926.50  34.1%   664 3584s
 50226  9033 1513463.86   49   62 1423153.05 1904735.04  33.8%   663 3599s
 50319  9047     cutoff   45      1423153.05 1904666.16  33.8%   663 3600s
 50571  9035     cutoff   67      1423153.05 1903007.27  33.7%   663 3614s
 51017  9069 1839998.30   55   56 1423153.05 1898762.91  33.4%   663 3629s
 51408  9075 1825251.99   44  150 1423153.05 1896361.32  33.3%   663 3645s
 51806  9096     cutoff   59      1423153.05 1891802.10  32.9%   663 3661s
 52241  9099 1828667.94   51   69 1423153.05 1888556.10  32.7%   662 3680s
 52679  9111 1832225.64   64  129 1423153.05 1885789.70  32.5%   662 3695s
 53029  9120 1577914.28   70  103 1423153.05 1883713.24  32.4%   662 3710s
 53438  9148 1652608.46   50   54 1423153.05 1880715.25  32.2%   662 3725s
 53865  9167     cutoff   29      1423153.05 1877099.73  31.9%   662 3740s
 54163  9174 1585898.50   53   68 1423153.05 1875220.56  31.8%   663 3756s
 54485  9192     cutoff   60      1423153.05 1873008.25  31.6%   664 3772s
 54794  9200     cutoff   52      1423153.05 1870304.11  31.4%   664 3787s
 55272  9256 1511895.38   37   50 1423153.05 1866386.01  31.1%   664 3801s
 55591  9249     cutoff   64      1423153.05 1862651.38  30.9%   663 3816s
 55906  9248     cutoff   51      1423153.05 1860033.42  30.7%   664 3831s
 56318  9279     cutoff   61      1423153.05 1859486.31  30.7%   664 3846s
 56733  9282 1799207.78   49   78 1423153.05 1855442.63  30.4%   663 3861s
 57115  9295     cutoff   41      1423153.05 1852319.90  30.2%   663 3875s
 57436  9288     cutoff   47      1423153.05 1848469.51  29.9%   663 3890s
 57744  9284     cutoff   64      1423153.05 1846794.57  29.8%   664 3904s
 58185  9350     cutoff   56      1423153.05 1844022.86  29.6%   663 3926s
 58519  9334     cutoff   50      1423153.05 1841378.88  29.4%   663 3938s
 58782  9298 1713171.89   72   58 1423153.05 1837487.59  29.1%   663 3951s
 59164  9282     cutoff   36      1423153.05 1835220.61  29.0%   663 3969s
 59486  9266     cutoff   82      1423153.05 1832853.99  28.8%   663 3983s
 59826  9242 1809474.85   48   75 1423153.05 1830481.18  28.6%   662 3999s
 60215  9259     cutoff   45      1423153.05 1826974.38  28.4%   662 4014s
 60588  9273 1812431.45   53   95 1423153.05 1824638.24  28.2%   661 4028s
 60962  9269 1734621.41   34  114 1423153.05 1821976.59  28.0%   661 4040s
 61385  9320 1662504.32   39   46 1423153.05 1818871.74  27.8%   660 4054s
 61839  9418 1613191.16   40  123 1423153.05 1815933.00  27.6%   659 4134s
 62180  9385     cutoff   58      1423153.05 1814066.57  27.5%   659 4149s
 62512  9382     cutoff   59      1423153.05 1810806.38  27.2%   658 4168s
 62935  9408 1749841.26   47  118 1423153.05 1809044.86  27.1%   658 4182s
 63308  9423     cutoff   59      1423153.05 1805564.19  26.9%   657 4195s
 63611  9402     cutoff   55      1423153.05 1803052.44  26.7%   658 4210s
 63963  9408 1567530.08   45   75 1423153.05 1801058.46  26.6%   658 4224s
 64242  9369     cutoff   40      1423153.05 1798595.98  26.4%   658 4239s
 64622  9350     cutoff   28      1423153.05 1796112.80  26.2%   658 4251s
 65000  9353 1777620.21   46   74 1423153.05 1793457.51  26.0%   657 4261s
 65251  9304     cutoff   52      1423153.05 1790543.95  25.8%   658 4273s
 65621  9323     cutoff   56      1423153.05 1788355.35  25.7%   657 4287s
 65985  9324 1785024.11   47  118 1423153.05 1786164.36  25.5%   657 4302s
 66447  9387 1579458.45   46   50 1423153.05 1784863.86  25.4%   655 4315s
 66783  9367     cutoff   37      1423153.05 1782350.57  25.2%   655 4329s
 67158  9380 1712774.18   46   65 1423153.05 1780034.13  25.1%   654 4345s
 67502  9369 1498319.86   65  235 1423153.05 1777832.97  24.9%   654 4359s
 67838  9345     cutoff   57      1423153.05 1775085.62  24.7%   655 4374s
 68161  9368 1717568.77   48   83 1423153.05 1772766.37  24.6%   655 4395s
 68533  9365 1626633.93   39  196 1423153.05 1771117.30  24.5%   654 4407s
 68850  9352 1608543.68   29  153 1423153.05 1769024.18  24.3%   654 4419s
 69139  9304 1644897.56   49   82 1423153.05 1766635.24  24.1%   654 4430s
 69449  9254     cutoff   59      1423153.05 1764420.72  24.0%   654 4438s
 69698  9192 1510375.58   66  113 1423153.05 1762127.42  23.8%   654 4450s
 70017  9182     cutoff   37      1423153.05 1760321.89  23.7%   653 4460s
 70310  9146 1558768.93   53   93 1423153.05 1758099.02  23.5%   653 4474s
 70642  9138     cutoff   45      1423153.05 1756359.01  23.4%   653 4487s
 70950  9104     cutoff   32      1423153.05 1754021.52  23.2%   653 4500s
 71314  9076 1435338.94   43  116 1423153.05 1751910.81  23.1%   652 4512s
 71676  9045     cutoff   41      1423153.05 1749920.04  23.0%   652 4522s
 72020  9030 1668138.68   58   88 1423153.05 1747662.67  22.8%   651 4534s
 72394  9043     cutoff   46      1423153.05 1745454.32  22.6%   650 4547s
 72677  9008 1479573.90   37   67 1423153.05 1743993.51  22.5%   651 4559s
 72942  8990     cutoff   53      1423153.05 1742323.77  22.4%   651 4571s
 73239  8944 1642142.46   56   30 1423153.05 1740054.17  22.3%   651 4582s
 73533  8906     cutoff   77      1423153.05 1738082.07  22.1%   651 4591s
 73876  8904 1727157.90   42  158 1423153.05 1736346.10  22.0%   650 4602s
 74180  8860 1691389.28   64  154 1423153.05 1734336.04  21.9%   650 4613s
 74507  8855     cutoff   55      1423153.05 1732310.52  21.7%   649 4622s
 74704  8784     cutoff   57      1423153.05 1730503.48  21.6%   650 4634s
 74964  8742 1621748.00   53  134 1423153.05 1728157.22  21.4%   649 4647s
 75220  8689     cutoff   37      1423153.05 1726390.13  21.3%   649 4656s
 75555  8659     cutoff   68      1423153.05 1724746.26  21.2%   649 4669s
 75912  8658     cutoff   49      1423153.05 1723012.76  21.1%   648 4680s
 76230  8635     cutoff   47      1423153.05 1721087.61  20.9%   648 4692s
 76494  8647 1610970.13   50   80 1423153.05 1718792.37  20.8%   648 4712s
 76611  8565     cutoff   57      1423153.05 1718687.53  20.8%   648 4725s
 76937  8545     cutoff   46      1423153.05 1715898.56  20.6%   648 4736s
 77287  8522 1656160.85   62  137 1423153.05 1715109.70  20.5%   647 4748s
 77583  8499 1684875.67   65  135 1423153.05 1712054.86  20.3%   647 4760s
 77875  8470 1617136.01   60   58 1423153.05 1710459.15  20.2%   647 4771s
 78180  8429 1563353.33   38  102 1423153.05 1708498.92  20.1%   647 4783s
 78519  8405     cutoff   31      1423153.05 1706462.01  19.9%   646 4796s
 78826  8382 1652582.68   40   38 1423153.05 1704646.09  19.8%   646 4809s
 79066  8312 1677943.70   42   55 1423153.05 1702882.94  19.7%   647 4819s
 79418  8312     cutoff   61      1423153.05 1701133.25  19.5%   646 4830s
 79747  8290 1521836.85   70   65 1423153.05 1699349.99  19.4%   646 4842s
 80048  8233     cutoff   68      1423153.05 1697453.90  19.3%   645 4850s
 80285  8166     cutoff   49      1423153.05 1695813.78  19.2%   645 4860s
 80510  8116 1673959.21   46  148 1423153.05 1693932.29  19.0%   645 4872s
 80880  8129     cutoff   41      1423153.05 1692426.69  18.9%   645 4880s
 81101  8061     cutoff   56      1423153.05 1690353.02  18.8%   645 4891s
 81442  8036     cutoff   51      1423153.05 1688741.10  18.7%   644 4903s
 81695  7999 1623117.06   30  134 1423153.05 1686905.20  18.5%   644 4914s
 81956  7955 1632089.53   46   60 1423153.05 1685363.06  18.4%   644 4924s
 82243  7926 1462855.15   52   85 1423153.05 1683845.25  18.3%   644 4934s
 82547  7896     cutoff   37      1423153.05 1682235.30  18.2%   644 4943s
 82764  7834 1649036.18   66  149 1423153.05 1680693.87  18.1%   644 4952s
 83012  7790     cutoff   58      1423153.05 1679034.10  18.0%   643 4961s
 83306  7757 1622562.48   43   98 1423153.05 1677408.26  17.9%   643 4970s
 83567  7712     cutoff   42      1423153.05 1675639.85  17.7%   643 4981s
 83955  7737 1656391.57   62   98 1423153.05 1673509.27  17.6%   642 4995s
 84305  7722     cutoff   51      1423153.05 1672242.02  17.5%   642 5004s
 84401  7747     cutoff   50      1423153.05 1672206.61  17.5%   641 5005s
 84634  7698 1666944.04   41  140 1423153.05 1670408.89  17.4%   641 5013s
 84924  7666 1612678.13   56   82 1423153.05 1668467.67  17.2%   641 5024s
 85253  7637     cutoff   54      1423153.05 1666610.47  17.1%   640 5032s
 85510  7577     cutoff   78      1423153.05 1664915.80  17.0%   640 5041s
 85777  7521 1440455.64   61   54 1423153.05 1663181.32  16.9%   640 5050s
 86023  7459 1610895.32   34   64 1423153.05 1661521.02  16.7%   640 5059s
 86292  7406     cutoff   60      1423153.05 1659962.66  16.6%   639 5066s
 86594  7359     cutoff   55      1423153.05 1658167.60  16.5%   639 5076s
 86915  7331 1651665.79   47  130 1423153.05 1656461.62  16.4%   638 5086s
 87174  7282 1552465.82   64   54 1423153.05 1654654.51  16.3%   638 5096s
 87440  7244 1650049.49   47   87 1423153.05 1653103.03  16.2%   638 5103s
 87693  7188     cutoff   48      1423153.05 1651663.69  16.1%   637 5111s
 87920  7120     cutoff   33      1423153.05 1650068.62  15.9%   637 5123s
 88256  7098     cutoff   58      1423153.05 1648944.58  15.9%   636 5130s
 88492  7036 1621593.08   58   62 1423153.05 1647324.37  15.8%   636 5139s
 88784  6998     cutoff   57      1423153.05 1645588.76  15.6%   636 5150s
 88984  6935     cutoff   39      1423153.05 1645346.38  15.6%   635 5157s
 89264  6880 1548831.79   63   60 1423153.05 1643000.17  15.4%   635 5167s
 89512  6819     cutoff   39      1423153.05 1641512.29  15.3%   635 5174s
 89759  6754 1575911.79   58   82 1423153.05 1639512.88  15.2%   634 5186s
 90066  6704     cutoff   38      1423153.05 1637552.17  15.1%   634 5194s
 90270  6628     cutoff   54      1423153.05 1635977.98  15.0%   634 5201s
 90524  6593     cutoff   42      1423153.05 1634489.09  14.8%   634 5208s
 90760  6536 1627285.08   47   65 1423153.05 1632890.28  14.7%   633 5215s
 91015  6485     cutoff   44      1423153.05 1631179.09  14.6%   633 5223s
 91225  6419 1582426.42   46   51 1423153.05 1629772.62  14.5%   633 5231s
 91512  6468 1444311.32   51  172 1423153.05 1628314.81  14.4%   632 5254s
 91530  6385     cutoff   52      1423153.05 1628234.56  14.4%   632 5261s
 91787  6329 1427501.30   46   43 1423153.05 1626469.20  14.3%   632 5267s
 92054  6275 1559991.99   79  102 1423153.05 1624985.51  14.2%   631 5273s
 92288  6228     cutoff   59      1423153.05 1623182.03  14.1%   631 5282s
 92602  6194     cutoff   56      1423153.05 1621642.50  13.9%   630 5288s
 92800  6130     cutoff   31      1423153.05 1620275.96  13.9%   630 5294s
 93025  6064     cutoff   61      1423153.05 1618757.03  13.7%   630 5300s
 93266  6008     cutoff   60      1423153.05 1616948.40  13.6%   629 5310s
 93545  5968 1429680.60   47  117 1423153.05 1615306.08  13.5%   629 5316s
 93727  5900 1450589.07   50   87 1423153.05 1613888.38  13.4%   629 5322s
 93952  5845     cutoff   70      1423153.05 1612470.99  13.3%   628 5329s
 94155  5778     cutoff   67      1423153.05 1610941.04  13.2%   628 5334s
 94368  5755     cutoff   48      1423153.05 1609455.81  13.1%   628 5422s
 94500  5682     cutoff   68      1423153.05 1609294.22  13.1%   628 5429s
 94704  5617 1592545.73   51   51 1423153.05 1607233.37  12.9%   628 5436s
 94914  5551 1586163.29   66  108 1423153.05 1605514.29  12.8%   627 5444s
 95138  5488 1430529.14   41  254 1423153.05 1603976.03  12.7%   627 5451s
 95352  5422     cutoff   48      1423153.05 1602406.29  12.6%   627 5458s
 95623  5374     cutoff   63      1423153.05 1600741.72  12.5%   627 5464s
 95825  5298 1510613.34   61   48 1423153.05 1599384.18  12.4%   626 5472s
 96066  5250     cutoff   30      1423153.05 1597915.24  12.3%   626 5477s
 96265  5174     cutoff   98      1423153.05 1596495.18  12.2%   626 5484s
 96451  5096     cutoff   73      1423153.05 1595021.35  12.1%   626 5494s
 96661  5031     cutoff   63      1423153.05 1593491.72  12.0%   625 5502s
 96914  4979     cutoff   51      1423153.05 1591950.43  11.9%   625 5510s
 97165  4913     cutoff   47      1423153.05 1590434.46  11.8%   625 5516s
 97366  4844 1557303.07   54   48 1423153.05 1588960.81  11.7%   624 5521s
 97574  4780     cutoff   52      1423153.05 1587404.84  11.5%   624 5528s
 97778  4711 infeasible   76      1423153.05 1585685.78  11.4%   624 5534s
 98066  4661 1503617.57   51  109 1423153.05 1584205.71  11.3%   623 5539s
 98265  4589 1491320.64   68   65 1423153.05 1582755.62  11.2%   623 5544s
 98456  4520     cutoff   44      1423153.05 1581465.31  11.1%   623 5550s
 98643  4447     cutoff   52      1423153.05 1579899.05  11.0%   622 5555s
 98786  4365     cutoff   95      1423153.05 1578085.64  10.9%   622 5561s
 99008  4296 1447928.82   52   54 1423153.05 1576470.15  10.8%   622 5565s
 99180  4224 1535245.81   36  120 1423153.05 1574896.10  10.7%   622 5571s
 99416  4175     cutoff   74      1423153.05 1572950.48  10.5%   621 5575s
 99751  4019 1499912.24   48  114 1423153.05 1569394.34  10.3%   621 5585s
 99976  3955     cutoff   37      1423153.05 1567623.71  10.2%   620 5591s
 100126  3886     cutoff   53      1423153.05 1565987.24  10.0%   620 5595s
 100320  3812     cutoff   97      1423153.05 1564341.24  9.92%   620 5606s
 100518  3750     cutoff   36      1423153.05 1563075.29  9.83%   620 5610s
 100715  3680     cutoff   37      1423153.05 1561487.98  9.72%   619 5615s
 101063  3531     cutoff   48      1423153.05 1558537.63  9.51%   619 5624s
 101227  3452     cutoff   50      1423153.05 1557018.08  9.41%   619 5628s
 101426  3378 1536417.49   49   60 1423153.05 1555236.32  9.28%   618 5633s
 101600  3304 1537769.77   55  133 1423153.05 1553299.46  9.14%   618 5639s
 101821  3233 1535764.55   70   69 1423153.05 1551403.66  9.01%   618 5644s
 102044  3166     cutoff   52      1423153.05 1549677.24  8.89%   617 5648s
 102237  3090 infeasible   64      1423153.05 1547799.75  8.76%   617 5652s
 102382  3008     cutoff   41      1423153.05 1546071.72  8.64%   616 5657s
 102562  2935     cutoff   60      1423153.05 1544264.14  8.51%   616 5662s
 102742  2858 1511913.78   48  180 1423153.05 1542521.29  8.39%   616 5667s
 102906  2782     cutoff   77      1423153.05 1540608.98  8.25%   616 5672s
 103099  2702 1429684.90   44   73 1423153.05 1539146.64  8.15%   615 5677s
 103234  2623 infeasible   69      1423153.05 1537471.12  8.03%   615 5681s
 103512  2464     cutoff   40      1423153.05 1533884.65  7.78%   615 5690s
 103665  2380     cutoff   54      1423153.05 1532057.63  7.65%   615 5695s
 104046  2223 infeasible   65      1423153.05 1527955.86  7.36%   614 5702s
 104177  2142     cutoff   51      1423153.05 1526274.50  7.25%   613 5707s
 104313  2061     cutoff   40      1423153.05 1524457.03  7.12%   613 5711s
 104597  1901     cutoff   50      1423153.05 1520327.17  6.83%   613 5718s
 104721  1818 1503769.97   43  102 1423153.05 1518173.91  6.68%   613 5721s
 104876  1741     cutoff   56      1423153.05 1515622.75  6.50%   612 5726s
 105232  1593 1497571.04   55   87 1423153.05 1511018.77  6.17%   612 5734s
 105380  1515 infeasible   72      1423153.05 1508792.73  6.02%   611 5737s
 105508  1433 infeasible   58      1423153.05 1505668.81  5.80%   611 5741s
 105657  1354     cutoff   52      1423153.05 1503099.75  5.62%   611 5748s
 105782  1270     cutoff   58      1423153.05 1500867.00  5.46%   611 5752s
 105945  1192     cutoff   59      1423153.05 1498026.76  5.26%   610 5756s
 106231  1027     cutoff   51      1423153.05 1492563.13  4.88%   610 5762s
 106499   862     cutoff   56      1423153.05 1486575.88  4.46%   609 5769s
 106621   780 infeasible   57      1423153.05 1483110.07  4.21%   609 5772s
 106854   614     cutoff   59      1423153.05 1477067.59  3.79%   609 5776s
 107062   447 1467519.96   53   84 1423153.05 1469353.15  3.25%   608 5782s
 107269   279 infeasible   46      1423153.05 1459909.17  2.58%   608 5788s
 107377   195 infeasible   70      1423153.05 1453634.08  2.14%   608 5793s
 107489   111     cutoff   38      1423153.05 1448640.88  1.79%   608 5796s
 107676     0     cutoff   62      1423153.05 1428529.65  0.38%   608 5800s

Cutting planes:
  Gomory: 72
  Cover: 3
  Implied bound: 108
  Projected implied bound: 47
  MIR: 96
  Flow cover: 1104
  Zero half: 1

Explored 107703 nodes (65606583 simplex iterations) in 5804.98 seconds
Thread count was 4 (of 16 available processors)

Solution count 10: 1.42315e+06 1.42315e+06 1.42315e+06 ... 1.30358e+06

Optimal solution found (tolerance 1.00e-04)
Best objective 1.423153011822e+06, best bound 1.423153051725e+06, gap 0.0000%

***
***  |- Calculation finished, took 5,805.02 (5805.02) sec.
***  |-----------------------------------------------------------------------------------------------------------------------
***
*****************************************************************************************************************************
#############################################################################################################################
###
### Results
###
### The objective of the solution is 1,423,153.0118 (1423153.0118) and is feasible with a Gap of 0.0
###
### Service 81 (MECL1) is operated by 6 vessels from type 30 (PMax35)
###  |- Vessel  9 has the path [9, 332, 326, 342, 333, 324, 4, 294, 284, 7, 298, 196, 0]
###  |  9 (BEANR Out@344.0) - 332 (USEWR In@608.0/Out@618.0) - 326 (USCHS In@656.0/Out@666.0) - 342 (USORF In@691.0/Out@704.0
###  |  ) - 333 (USEWR In@728.0/Out@744.0) - 324 (TRZMK In@1063.0/Out@1077.0) - 4 (AEJEA In@1177.0/Out@1201.0) - 294 (PKBQM I
###  |  n@1258.0/Out@1288.0) - 284 (OMSLL In@1410.0/Out@1423.0) - 7 (AEJEA In@1681.0/Out@1705.0) - 298 (PKBQM In@1762.0/Out@1
###  |  792.0) - 196 (INNSA In@1856.0/Out@1872.0) - 0 (DUMMY_END Ziel-Service 81)
###  |   |- and carried Demand 237,   34.0 containers from 298 to 196
###  |   |- and carried Demand 238,   84.0 containers from   7 to 298
###  |   |- and carried Demand 239,   50.0 containers from   7 to 298
###  |   |- and carried Demand 297,  254.0 containers from 294 to 196
###  |   |- and carried Demand 298,    1.0 containers from 294 to 196
###  |   |- and carried Demand 299,  135.0 containers from 294 to 196
###  |   |- and carried Demand 302,   75.0 containers from   4 to 196
###  |   |- and carried Demand 303,  200.0 containers from   4 to 294
###  |   |- and carried Demand 304,   24.0 containers from   4 to 294
###  |   |- and carried Demand 305,   26.0 containers from   4 to 196
###  |   |- and carried Demand 306,  144.0 containers from   4 to 196
###  |   |- and carried Demand 307,    1.0 containers from   4 to 196
###  |   |- and carried Demand 309,  339.0 containers from 342 to   4
###  |   |- and carried Demand 310,  115.0 containers from 342 to   4
###  |   |- and carried Demand 311,    3.0 containers from 342 to 284
###  |   |- and carried Demand 312,    2.0 containers from 342 to 294
###  |   |- and carried Demand 313,  194.0 containers from 326 to   4
###  |   |- and carried Demand 314,   49.0 containers from 326 to   4
###  |   |- and carried Demand 315,   40.0 containers from 326 to 294
###  |   |- and carried Demand 318,  842.0 containers from 332 to   4
###  |   |- and carried Demand 319,   99.0 containers from 332 to   4
###  |   |- and carried Demand 320,  123.0 containers from 332 to 294
###  |   |- and carried Demand 321,    1.0 containers from 332 to 294
###  |- Vessel 10 has the path [10, 316, 190, 0]
###  |  10 (BEANR Out@512.0) - 316 (TRAMB In@854.0/Out@881.0) - 190 (INNSA In@1016.0/Out@1032.0) - 0 (DUMMY_END Ziel-Service 
###  |  81)
###  |- Vessel 11 has the path [13, 313, 192, 0]
###  |  13 (BEANR Out@680.0) - 313 (TRALI In@946.0/Out@964.0) - 192 (INNSA In@1352.0/Out@1368.0) - 0 (DUMMY_END Ziel-Service 
###  |  81)
###  |- Vessel 12 has the path [16, 314, 5, 295, 193, 0]
###  |  16 (BEANR Out@848.0) - 314 (TRALI In@1114.0/Out@1132.0) - 5 (AEJEA In@1345.0/Out@1369.0) - 295 (PKBQM In@1426.0/Out@1
###  |  456.0) - 193 (INNSA In@1520.0/Out@1536.0) - 0 (DUMMY_END Ziel-Service 81)
###  |   |- and carried Demand 284,   86.0 containers from   5 to 295
###  |   |- and carried Demand 285,  118.0 containers from   5 to 295
###  |- Vessel 17 has the path [158, 270, 323, 191, 0]
###  |  158 (GBFXT Out@580.0) - 270 (NLRTM In@610.0/Out@622.0) - 323 (TRZMK In@895.0/Out@909.0) - 191 (INNSA In@1184.0/Out@12
###  |  00.0) - 0 (DUMMY_END Ziel-Service 81)
###  |- Vessel 23 has the path [347, 92, 63, 178, 2, 291, 292, 293, 194, 195, 0]
###  |  347 (JPYOK Out@51.27) - 92 (CNXMN In@180.0/Out@202.0) - 63 (CNNSA In@229.0/Out@239.0) - 178 (HKHKG In@276.0/Out@292.0
###  |  ) - 2 (AEJEA In@841.0/Out@865.0) - 291 (PKBQM In@922.0/Out@952.0) - 292 (PKBQM In@992.0/Out@1020.0) - 293 (PKBQM In@1
###  |  090.0/Out@1120.0) - 194 (INNSA In@1590.0/Out@1622.0) - 195 (INNSA In@1688.0/Out@1704.0) - 0 (DUMMY_END Ziel-Service 8
###  |  1)
###  |   |- and carried Demand 120,  237.0 containers from 292 to 194
###  |   |- and carried Demand 121,    2.0 containers from 292 to 194
###  |   |- and carried Demand 123,   97.0 containers from 292 to 194
###  |   |- and carried Demand 173,  412.0 containers from  92 to 178
###  |   |- and carried Demand 174,    2.0 containers from  92 to 178
###  |   |- and carried Demand 323,  244.0 containers from 293 to 195
###  |   |- and carried Demand 324,   67.0 containers from 293 to 195
###  |   |- and carried Demand 333,  237.0 containers from 291 to 194
###  |   |- and carried Demand 334,    2.0 containers from 291 to 194
###  |   |- and carried Demand 336,   97.0 containers from 291 to 194
###  |   |- and carried Demand 338,  704.0 containers from   2 to 195
###  |   |- and carried Demand 339,    8.0 containers from   2 to 195
###  |   |- and carried Demand 340,  156.0 containers from   2 to 291
###  |   |- and carried Demand 341,   45.0 containers from   2 to 291
###  |   |- and carried Demand 342,   16.0 containers from   2 to 194
###  |   |- and carried Demand 343,  264.0 containers from   2 to 194
###  |
### Vessels not used in the solution: [1, 2, 3, 4, 5, 6, 7, 8, 13, 14, 15, 16, 18]
###  |-----------------------------------------------------------------------------------------------------------------------
###
#############################################################################################################################

### Detialed variable overview

### All variables with value greater zero:
rho[81,30] = 1
eta[81,30,1] = 1
eta[81,30,2] = 1
eta[81,30,3] = 1
eta[81,30,4] = 1
eta[81,30,5] = 1
eta[81,30,6] = 1
y[9,4,294] = 1
y[9,332,326] = 1
y[9,294,284] = 1
y[9,284,7] = 1
y[9,342,333] = 1
y[9,9,332] = 1
y[9,324,4] = 1
y[9,7,298] = 1
y[9,196,0] = 1
y[9,333,324] = 1
y[9,298,196] = 1
y[9,326,342] = 1
y[10,190,0] = 1
y[10,316,190] = 1
y[10,10,316] = 1
y[11,192,0] = 1
y[11,313,192] = 1
y[11,13,313] = 1
y[12,5,295] = 1
y[12,193,0] = 1
y[12,16,314] = 1
y[12,295,193] = 1
y[12,314,5] = 1
y[17,270,323] = 1
y[17,158,270] = 1
y[17,191,0] = 1
y[17,323,191] = 1
y[23,293,194] = 1
y[23,347,92] = 1
y[23,195,0] = 1
y[23,292,293] = 1
y[23,194,195] = 1
y[23,63,178] = 1
y[23,291,292] = 1
y[23,178,2] = 1
y[23,92,63] = 1
y[23,2,291] = 1
xD[120,293,194] = 237
xD[120,292,293] = 237
xD[121,293,194] = 2
xD[121,292,293] = 2
xD[123,293,194] = 97
xD[123,292,293] = 97
xD[173,63,178] = 412
xD[173,92,63] = 412
xD[174,63,178] = 2
xD[174,92,63] = 2
xD[237,298,196] = 34
xD[238,7,298] = 84
xD[239,7,298] = 50
xD[284,5,295] = 86
xD[285,5,295] = 118
xD[297,294,284] = 254
xD[297,284,7] = 254
xD[297,7,298] = 254
xD[297,298,196] = 254
xD[298,294,284] = 1
xD[298,284,7] = 1
xD[298,7,298] = 1
xD[298,298,196] = 1
xD[299,294,284] = 135
xD[299,284,7] = 135
xD[299,7,298] = 135
xD[299,298,196] = 135
xD[302,4,294] = 75
xD[302,294,284] = 75
xD[302,284,7] = 75
xD[302,7,298] = 75
xD[302,298,196] = 75
xD[303,4,294] = 200
xD[304,4,294] = 24
xD[305,4,294] = 26
xD[305,294,284] = 26
xD[305,284,7] = 26
xD[305,7,298] = 26
xD[305,298,196] = 26
xD[306,4,294] = 144
xD[306,294,284] = 144
xD[306,284,7] = 144
xD[306,7,298] = 144
xD[306,298,196] = 144
xD[307,4,294] = 1
xD[307,294,284] = 1
xD[307,284,7] = 1
xD[307,7,298] = 1
xD[307,298,196] = 1
xD[309,342,333] = 339
xD[309,324,4] = 339
xD[309,333,324] = 339
xD[310,342,333] = 115
xD[310,324,4] = 115
xD[310,333,324] = 115
xD[311,4,294] = 3
xD[311,294,284] = 3
xD[311,342,333] = 3
xD[311,324,4] = 3
xD[311,333,324] = 3
xD[312,4,294] = 2
xD[312,342,333] = 2
xD[312,324,4] = 2
xD[312,333,324] = 2
xD[313,342,333] = 194
xD[313,324,4] = 194
xD[313,333,324] = 194
xD[313,326,342] = 194
xD[314,342,333] = 49
xD[314,324,4] = 49
xD[314,333,324] = 49
xD[314,326,342] = 49
xD[315,4,294] = 40
xD[315,342,333] = 40
xD[315,324,4] = 40
xD[315,333,324] = 40
xD[315,326,342] = 40
xD[318,332,326] = 842
xD[318,342,333] = 842
xD[318,324,4] = 842
xD[318,333,324] = 842
xD[318,326,342] = 842
xD[319,332,326] = 99
xD[319,342,333] = 99
xD[319,324,4] = 99
xD[319,333,324] = 99
xD[319,326,342] = 99
xD[320,4,294] = 123
xD[320,332,326] = 123
xD[320,342,333] = 123
xD[320,324,4] = 123
xD[320,333,324] = 123
xD[320,326,342] = 123
xD[321,4,294] = 1
xD[321,332,326] = 1
xD[321,342,333] = 1
xD[321,324,4] = 1
xD[321,333,324] = 1
xD[321,326,342] = 1
xD[323,293,194] = 244
xD[323,194,195] = 244
xD[324,293,194] = 67
xD[324,194,195] = 67
xD[333,293,194] = 237
xD[333,292,293] = 237
xD[333,291,292] = 237
xD[334,293,194] = 2
xD[334,292,293] = 2
xD[334,291,292] = 2
xD[336,293,194] = 97
xD[336,292,293] = 97
xD[336,291,292] = 97
xD[338,293,194] = 704
xD[338,292,293] = 704
xD[338,194,195] = 704
xD[338,291,292] = 704
xD[338,2,291] = 704
xD[339,293,194] = 8
xD[339,292,293] = 8
xD[339,194,195] = 8
xD[339,291,292] = 8
xD[339,2,291] = 8
xD[340,2,291] = 156
xD[341,2,291] = 45
xD[342,293,194] = 16
xD[342,292,293] = 16
xD[342,291,292] = 16
xD[342,2,291] = 16
xD[343,293,194] = 264
xD[343,292,293] = 264
xD[343,291,292] = 264
xD[343,2,291] = 264
zE[2] = 841
zE[4] = 1177
zE[5] = 1345
zE[7] = 1681
zE[63] = 229
zE[92] = 180
zE[178] = 276
zE[190] = 1016
zE[191] = 1184
zE[192] = 1352
zE[193] = 1520
zE[194] = 1590
zE[195] = 1688
zE[196] = 1856
zE[270] = 610
zE[284] = 1410
zE[291] = 922
zE[292] = 992
zE[293] = 1090
zE[294] = 1258
zE[295] = 1426
zE[298] = 1762
zE[313] = 946
zE[314] = 1114
zE[316] = 854
zE[323] = 895
zE[324] = 1063
zE[326] = 656
zE[332] = 608
zE[333] = 728
zE[342] = 691
zX[2] = 865
zX[4] = 1201
zX[5] = 1369
zX[7] = 1705
zX[9] = 344
zX[10] = 512
zX[13] = 680
zX[16] = 848
zX[63] = 239
zX[92] = 202
zX[158] = 580
zX[178] = 292
zX[190] = 1032
zX[191] = 1200
zX[192] = 1368
zX[193] = 1536
zX[194] = 1622
zX[195] = 1704
zX[196] = 1872
zX[270] = 622
zX[284] = 1423
zX[291] = 952
zX[292] = 1020
zX[293] = 1120
zX[294] = 1288
zX[295] = 1456
zX[298] = 1792
zX[313] = 964
zX[314] = 1132
zX[316] = 881
zX[323] = 909
zX[324] = 1077
zX[326] = 666
zX[332] = 618
zX[333] = 744
zX[342] = 704
zX[347] = 51.2735
w[23,(347,92)] = 128.726
phi[9] = 1528
phi[10] = 520
phi[11] = 688
phi[12] = 688
phi[17] = 620
phi[23] = 1652.73

### All variables with value smaller zero:

### End

real	100m41.512s
user	368m33.006s
sys	18m7.852s
	OpenBLAS 0.2.6 environment removed
	Freetype 2.4.12 environment removed
	Python 3.6.0 environment removed
	Gurobi 8.1.0 environment removed
