	OpenBLAS 0.2.6 environment established
		compiled with gcc for max. 16 cores
	Freetype 2.4.12 environment established
		library to render fonts
	Python 3.6.0 environment established
	Gurobi 8.1.0 environment established
Instance LSFRP: LSFDRP_4_3_6_1_fr.p
Instance LSFDP: LSFDRP_4_3_6_1_fd_46.p

*****************************************************************************************************************************
*** Solve LSFDRP_4_3_6_1_fd_46 with Gurobi
***
*** Graph info
*** |S|: 19
*** |S^E|: 0
*** |S^C|: 1
*** |V|: 348
*** |A|: 8709
*** |A^i|: 8382
*** |A^f|: 327
*** |M|: 343
*** |E|: 0

Changed value of parameter NumericFocus to 1
   Prev: 0  Min: 0  Max: 3  Default: 0
Changed value of parameter TimeLimit to 86400.0
   Prev: 1e+100  Min: 0.0  Max: 1e+100  Default: 1e+100
Changed value of parameter Threads to 4
   Prev: 0  Min: 0  Max: 1024  Default: 0
Optimize a model with 163606 rows, 3177009 columns and 11352648 nonzeros
Variable types: 3011517 continuous, 165492 integer (165492 binary)
Coefficient statistics:
  Matrix range     [1e+00, 5e+03]
  Objective range  [4e+01, 3e+08]
  Bounds range     [1e+00, 1e+00]
  RHS range        [1e+00, 5e+03]
Presolve removed 108944 rows and 2865978 columns (presolve time = 5s) ...
Presolve removed 135800 rows and 3001214 columns (presolve time = 10s) ...
Presolve removed 135800 rows and 3018020 columns (presolve time = 84s) ...
Presolve removed 137025 rows and 3018164 columns (presolve time = 85s) ...
Presolve removed 137755 rows and 3024853 columns (presolve time = 187s) ...
Presolve removed 137755 rows and 3024853 columns
Presolve time: 186.73s
Presolved: 25851 rows, 152156 columns, 1226880 nonzeros
Variable types: 11011 continuous, 141145 integer (141106 binary)

Deterministic concurrent LP optimizer: primal and dual simplex
Showing first log only...


Root simplex log...

Iteration    Objective       Primal Inf.    Dual Inf.      Time
       0   -0.0000000e+00   4.800000e+01   2.523597e+10    191s
   17947   -1.4165130e+08   0.000000e+00   1.670400e+12    195s
   35032   -4.8547702e+06   0.000000e+00   3.518676e+10    200s
   51243   -2.6420353e+06   0.000000e+00   1.360440e+10    205s
   65639   -2.4695053e+06   0.000000e+00   1.412128e+10    210s
   80337   -1.0830367e+06   0.000000e+00   8.046994e+10    215s
   94904   -5.9430710e+05   0.000000e+00   1.517570e+10    220s
  108561    3.0885986e+05   0.000000e+00   2.750008e+10    225s
  122543    6.2830636e+05   0.000000e+00   1.473277e+11    230s
  135820    9.2754555e+05   0.000000e+00   3.904493e+10    235s
  146102    1.2102827e+06   0.000000e+00   1.830432e+09    240s
  155608    1.3232275e+06   0.000000e+00   3.708138e+10    245s
  164920    1.6378386e+06   0.000000e+00   1.070862e+12    250s
  174038    1.9412032e+06   0.000000e+00   7.007017e+09    255s
Concurrent spin time: 3.55s

Solved with dual simplex

Root relaxation: objective 6.719901e+06, 69569 iterations, 68.57 seconds

    Nodes    |    Current Node    |     Objective Bounds      |     Work
 Expl Unexpl |  Obj  Depth IntInf | Incumbent    BestBd   Gap | It/Node Time

     0     0 6563840.09    0  274          - 6563840.09      -     -  265s
H    0     0                    -3080633.110 6563840.09   313%     -  268s
H    0     0                    -563766.1806 6563840.09  1264%     -  334s
     0     0 4679425.93    0  262 -563766.18 4679425.93   930%     -  342s
     0     0 4679425.93    0  258 -563766.18 4679425.93   930%     -  353s
     0     0 4295981.04    0  282 -563766.18 4295981.04   862%     -  361s
     0     0 4160646.23    0  296 -563766.18 4160646.23   838%     -  361s
     0     0 4118600.09    0  294 -563766.18 4118600.09   831%     -  362s
     0     0 4116143.66    0  294 -563766.18 4116143.66   830%     -  362s
     0     0 4106464.76    0  304 -563766.18 4106464.76   828%     -  362s
     0     0 4106146.58    0  310 -563766.18 4106146.58   828%     -  363s
     0     0 4104440.61    0  310 -563766.18 4104440.61   828%     -  363s
     0     0 4104347.72    0  310 -563766.18 4104347.72   828%     -  363s
     0     0 3998883.28    0  296 -563766.18 3998883.28   809%     -  364s
     0     0 3995874.76    0  308 -563766.18 3995874.76   809%     -  364s
     0     0 3995831.52    0  310 -563766.18 3995831.52   809%     -  364s
     0     0 3906017.66    0  343 -563766.18 3906017.66   793%     -  367s
     0     0 3887933.09    0  335 -563766.18 3887933.09   790%     -  367s
     0     0 3884036.30    0  342 -563766.18 3884036.30   789%     -  368s
     0     0 3883661.98    0  338 -563766.18 3883661.98   789%     -  368s
     0     0 3882494.39    0  345 -563766.18 3882494.39   789%     -  368s
     0     0 3882470.73    0  347 -563766.18 3882470.73   789%     -  368s
     0     0 3854558.47    0  349 -563766.18 3854558.47   784%     -  369s
     0     0 3842380.26    0  359 -563766.18 3842380.26   782%     -  370s
     0     0 3834166.06    0  358 -563766.18 3834166.06   780%     -  370s
     0     0 3833612.30    0  360 -563766.18 3833612.30   780%     -  370s
     0     0 3832047.25    0  361 -563766.18 3832047.25   780%     -  370s
     0     0 3832028.79    0  363 -563766.18 3832028.79   780%     -  370s
     0     0 3828648.49    0  309 -563766.18 3828648.49   779%     -  371s
     0     0 3826168.98    0  316 -563766.18 3826168.98   779%     -  372s
     0     0 3825395.05    0  322 -563766.18 3825395.05   779%     -  372s
     0     0 3824939.64    0  327 -563766.18 3824939.64   778%     -  372s
     0     0 3823519.67    0  327 -563766.18 3823519.67   778%     -  372s
     0     0 3823104.52    0  322 -563766.18 3823104.52   778%     -  372s
     0     0 3823034.76    0  329 -563766.18 3823034.76   778%     -  372s
     0     0 3821082.70    0  316 -563766.18 3821082.70   778%     -  373s
     0     0 3818559.27    0  382 -563766.18 3818559.27   777%     -  374s
     0     0 3817027.99    0  367 -563766.18 3817027.99   777%     -  374s
     0     0 3815295.28    0  375 -563766.18 3815295.28   777%     -  374s
     0     0 3814995.73    0  385 -563766.18 3814995.73   777%     -  374s
     0     0 3814783.08    0  376 -563766.18 3814783.08   777%     -  375s
     0     0 3812945.71    0  330 -563766.18 3812945.71   776%     -  375s
     0     0 3810494.60    0  326 -563766.18 3810494.60   776%     -  376s
     0     0 3810175.74    0  331 -563766.18 3810175.74   776%     -  376s
     0     0 3809594.24    0  340 -563766.18 3809594.24   776%     -  376s
     0     0 3809241.96    0  337 -563766.18 3809241.96   776%     -  376s
     0     0 3809191.01    0  343 -563766.18 3809191.01   776%     -  376s
     0     0 3804548.71    0  341 -563766.18 3804548.71   775%     -  377s
     0     0 3803100.31    0  393 -563766.18 3803100.31   775%     -  378s
     0     0 3802946.65    0  391 -563766.18 3802946.65   775%     -  378s
     0     0 3802408.60    0  392 -563766.18 3802408.60   774%     -  378s
H    0     0                    -367470.6235 3802408.60  1135%     -  379s
     0     0 3802056.73    0  387 -367470.62 3802056.73  1135%     -  379s
     0     0 3801632.99    0  392 -367470.62 3801632.99  1135%     -  379s
     0     0 3800840.08    0  330 -367470.62 3800840.08  1134%     -  379s
     0     0 3799714.28    0  396 -367470.62 3799714.28  1134%     -  379s
     0     0 3798998.79    0  411 -367470.62 3798998.79  1134%     -  380s
     0     0 3790660.15    0  341 -367470.62 3790660.15  1132%     -  380s
     0     0 3789049.32    0  395 -367470.62 3789049.32  1131%     -  380s
     0     0 3788620.36    0  395 -367470.62 3788620.36  1131%     -  381s
     0     0 3788186.92    0  357 -367470.62 3788186.92  1131%     -  381s
     0     0 3787742.03    0  355 -367470.62 3787742.03  1131%     -  381s
     0     0 3787615.24    0  363 -367470.62 3787615.24  1131%     -  381s
     0     0 3787330.59    0  345 -367470.62 3787330.59  1131%     -  381s
     0     0 3784681.77    0  333 -367470.62 3784681.77  1130%     -  382s
     0     0 3783947.96    0  336 -367470.62 3783947.96  1130%     -  382s
     0     0 3783565.41    0  336 -367470.62 3783565.41  1130%     -  382s
     0     0 3783339.28    0  392 -367470.62 3783339.28  1130%     -  383s
     0     0 3782999.54    0  381 -367470.62 3782999.54  1129%     -  383s
     0     0 3781931.44    0  398 -367470.62 3781931.44  1129%     -  384s
     0     0 3780471.71    0  330 -367470.62 3780471.71  1129%     -  384s
     0     0 3778736.56    0  391 -367470.62 3778736.56  1128%     -  384s
     0     0 3778588.28    0  390 -367470.62 3778588.28  1128%     -  384s
     0     0 3777593.02    0  391 -367470.62 3777593.02  1128%     -  385s
     0     0 3772389.60    0  353 -367470.62 3772389.60  1127%     -  386s
     0     0 3770938.63    0  400 -367470.62 3770938.63  1126%     -  386s
     0     0 3761721.82    0  344 -367470.62 3761721.82  1124%     -  386s
     0     0 3758852.20    0  361 -367470.62 3758852.20  1123%     -  387s
     0     0 3758117.74    0  355 -367470.62 3758117.74  1123%     -  387s
     0     0 3757040.32    0  358 -367470.62 3757040.32  1122%     -  387s
     0     0 3756392.38    0  353 -367470.62 3756392.38  1122%     -  387s
     0     0 3756326.65    0  358 -367470.62 3756326.65  1122%     -  388s
     0     0 3755345.02    0  400 -367470.62 3755345.02  1122%     -  388s
     0     0 3755345.02    0  257 -367470.62 3755345.02  1122%     -  391s
H    0     0                    -15369.21864 3755345.02      -     -  394s
H    0     0                    92609.930279 3755345.02  3955%     -  395s
     0     0 3755345.02    0  239 92609.9303 3755345.02  3955%     -  395s
     0     0 3755345.02    0  304 92609.9303 3755345.02  3955%     -  396s
     0     0 3755345.02    0  302 92609.9303 3755345.02  3955%     -  396s
     0     0 3755345.02    0  269 92609.9303 3755345.02  3955%     -  396s
     0     0 3755345.02    0  276 92609.9303 3755345.02  3955%     -  397s
     0     0 3755345.02    0  294 92609.9303 3755345.02  3955%     -  397s
     0     0 3755345.02    0  298 92609.9303 3755345.02  3955%     -  397s
     0     0 3755345.02    0  291 92609.9303 3755345.02  3955%     -  398s
     0     0 3755345.02    0  301 92609.9303 3755345.02  3955%     -  398s
     0     0 3747473.70    0  311 92609.9303 3747473.70  3947%     -  398s
     0     0 3739562.48    0  303 92609.9303 3739562.48  3938%     -  398s
     0     0 3736592.45    0  304 92609.9303 3736592.45  3935%     -  399s
     0     0 3731120.78    0  302 92609.9303 3731120.78  3929%     -  399s
     0     0 3730757.20    0  304 92609.9303 3730757.20  3928%     -  399s
     0     0 3725155.78    0  323 92609.9303 3725155.78  3922%     -  399s
     0     0 3724553.92    0  324 92609.9303 3724553.92  3922%     -  399s
     0     0 3724175.22    0  327 92609.9303 3724175.22  3921%     -  399s
     0     0 3720627.91    0  326 92609.9303 3720627.91  3918%     -  400s
     0     0 3720418.08    0  320 92609.9303 3720418.08  3917%     -  400s
     0     0 3718385.38    0  320 92609.9303 3718385.38  3915%     -  400s
     0     0 3717385.44    0  331 92609.9303 3717385.44  3914%     -  400s
     0     0 3717342.14    0  326 92609.9303 3717342.14  3914%     -  400s
     0     0 3713188.15    0  335 92609.9303 3713188.15  3909%     -  401s
     0     0 3711908.08    0  350 92609.9303 3711908.08  3908%     -  401s
     0     0 3711297.97    0  344 92609.9303 3711297.97  3907%     -  401s
     0     0 3709533.76    0  343 92609.9303 3709533.76  3906%     -  402s
     0     0 3708482.62    0  350 92609.9303 3708482.62  3904%     -  402s
     0     0 3707560.35    0  344 92609.9303 3707560.35  3903%     -  402s
     0     0 3707525.03    0  346 92609.9303 3707525.03  3903%     -  402s
     0     0 3705213.15    0  350 92609.9303 3705213.15  3901%     -  402s
     0     0 3702734.05    0  400 92609.9303 3702734.05  3898%     -  403s
     0     0 3702324.33    0  359 92609.9303 3702324.33  3898%     -  403s
     0     0 3702103.63    0  358 92609.9303 3702103.63  3898%     -  403s
     0     0 3701215.21    0  358 92609.9303 3701215.21  3897%     -  403s
     0     0 3701041.34    0  364 92609.9303 3701041.34  3896%     -  404s
     0     0 3698347.44    0  372 92609.9303 3698347.44  3893%     -  404s
     0     0 3697004.38    0  367 92609.9303 3697004.38  3892%     -  405s
     0     0 3696687.95    0  377 92609.9303 3696687.95  3892%     -  405s
     0     0 3695833.57    0  376 92609.9303 3695833.57  3891%     -  405s
     0     0 3695833.57    0  374 92609.9303 3695833.57  3891%     -  412s
H    0     0                    102353.33382 3695833.57  3511%     -  418s
     0     2 3695833.57    0  373 102353.334 3695833.57  3511%     -  419s
     1     4 3658640.65    1  364 102353.334 3661258.34  3477%   824  423s
     3     8 3503429.64    2  319 102353.334 3658614.25  3474%  1507  426s
    15    19 3375580.99    4  206 102353.334 3436814.67  3258%  1051  430s
    32    33 3330905.28    8  224 102353.334 3436814.67  3258%   940  435s
    65    65 3157274.75   13  182 102353.334 3436814.67  3258%   797  440s
   104    97 3006095.47   18  157 102353.334 3436814.67  3258%   637  449s
H  105    92                    714383.76077 3436814.67   381%   631  449s
   127   106 2543389.45   20  138 714383.761 3436814.67   381%   608  450s
   190   146 2490151.91    4  153 714383.761 3435482.11   381%   536  456s
   198   152 2447969.97    5  212 714383.761 3402729.20   376%   548  461s
H  210   152                    826603.16455 3402729.20   312%   527  461s
   270   198 1540875.49   26  150 826603.165 3402729.20   312%   462  465s
   411   281 2067172.11    6  137 826603.165 3344564.34   305%   398  471s
   492   345 1801285.28   15  155 826603.165 3344564.34   305%   395  475s
   552   374 1169466.21   25  133 826603.165 3324581.74   302%   387  480s
   717   465 1634080.96   15   84 826603.165 3324581.74   302%   363  485s
   832   537 2265164.03   14  183 826603.165 3269598.59   296%   366  491s
   939   593 1468993.27   31  165 826603.165 3230661.02   291%   362  495s
H 1055   625                    826603.16647 3230661.02   291%   363  498s
  1056   626 1756725.56   21  262 826603.166 3230661.02   291%   363  520s
H 1057   595                    826603.17010 3230661.02   291%   362  526s
  1061   597 2448442.67    7  326 826603.170 3230661.02   291%   361  530s
  1084   613 1373209.47   28  367 826603.170 3230661.02   291%   353  535s
  1101   624 1214212.50   33  353 826603.170 3230661.02   291%   348  540s
  1129   643 1454277.62   38  385 826603.170 3230661.02   291%   339  545s
  1146   654 1822414.86   32  390 826603.170 3230661.02   291%   334  550s
  1161   664 2448442.67    7  375 826603.170 3230661.02   291%   330  555s
  1178   675 1798600.71   21  399 826603.170 3230661.02   291%   325  560s
  1190   683 1578558.85   74  400 826603.170 3230661.02   291%   322  565s
  1212   698 2424770.61   16  420 826603.170 3230661.02   291%   316  570s
  1214   699 2165491.24   24  415 826603.170 3230661.02   291%   316  578s
H 1215   662                    826603.17081 3230661.02   291%   315  582s
  1216   663 1288238.04   18  410 826603.171 3230661.02   291%   315  585s
  1217   666 3230661.02   10  359 826603.171 3230661.02   291%   360  613s
  1219   668 3230661.02   11  408 826603.171 3230661.02   291%   365  627s
  1223   670 3230661.02   12  380 826603.171 3230661.02   291%   371  632s
  1227   673 3230661.02   13  275 826603.171 3230661.02   291%   376  636s
  1235   677 3230661.02   14  343 826603.171 3230661.02   291%   388  640s
  1244   679 3230661.02   15  316 826603.171 3230661.02   291%   399  650s
  1261   691 3230661.02   16  242 826603.171 3230661.02   291%   410  655s
  1273   694 2641606.29   17  241 826603.171 3230661.02   291%   422  661s
  1288   701 3046037.58   18  212 826603.171 3230661.02   291%   434  665s
  1318   712 2979434.78   21  196 826603.171 3230661.02   291%   451  671s
  1349   721 2971802.30   23  197 826603.171 3230661.02   291%   454  675s
  1370   731 1151376.03   24  175 826603.171 3230661.02   291%   454  680s
  1444   748 2932233.13   28  189 826603.171 3230661.02   291%   447  685s
  1508   754 2866787.90   31  204 826603.171 3230661.02   291%   449  690s
  1559   757 1953935.31   36  145 826603.171 3222813.53   290%   450  695s
  1669   761 1341291.98   53  122 826603.171 3199339.06   287%   441  701s
  1752   776 2634741.02   21  229 826603.171 3199339.06   287%   433  706s
  1847   803 2009714.31   37   86 826603.171 3199339.06   287%   424  711s
  1895   819 1979646.93   64  106 826603.171 3199339.06   287%   419  716s
  1945   830 1922752.20   93  111 826603.171 3199339.06   287%   419  720s
  2058   862 2806215.43   22  253 826603.171 3050232.56   269%   412  726s
  2139   874 2050760.55   35  282 826603.171 3050232.56   269%   414  732s
  2169   886 1921635.97   48  295 826603.171 3050232.56   269%   419  735s
  2251   910 1460256.12   95  183 826603.171 2975771.00   260%   423  742s
  2291   929 1934995.89   20  162 826603.171 2975771.00   260%   427  746s
  2329   945 1720740.85   44  107 826603.171 2975771.00   260%   427  750s
  2388   973 1423224.53   69  116 826603.171 2950204.70   257%   426  755s
  2530  1005 1044434.38   18  213 826603.171 2935426.69   255%   421  767s
  2591  1017 1100931.93   22  207 826603.171 2933713.14   255%   426  770s
  2629  1017 2641451.14   21  252 826603.171 2933713.14   255%   433  775s
  2761  1078 2450363.39   22  192 826603.171 2866903.86   247%   437  783s
  2843  1100 1792617.33   28  185 826603.171 2832435.40   243%   436  788s
  2954  1134 1939740.75   26  199 826603.171 2832435.40   243%   434  794s
  2974  1145 1669243.61   31  190 826603.171 2832435.40   243%   439  799s
  2994  1145 1420624.21   43  106 826603.171 2816848.31   241%   440  803s
  3084  1170 2049700.85   27  155 826603.171 2804813.11   239%   443  808s
  3194  1199 2061372.54   23  153 826603.171 2787683.04   237%   443  813s
  3291  1249 1989432.66   27  211 826603.171 2782724.00   237%   446  819s
  3432  1301 2010434.35   23  185 826603.171 2739137.97   231%   445  824s
  3523  1357 1821459.18   32  236 826603.171 2714849.83   228%   449  830s
  3669  1439 1564968.84   26  174 826603.171 2702533.33   227%   447  835s
  3765  1491 1270189.94   27  237 826603.171 2694648.46   226%   448  842s
  3875  1542 2239234.71   26  201 826603.171 2694648.46   226%   451  849s
  3880  1543 2149542.83   25  182 826603.171 2694648.46   226%   452  855s
  3964  1574 1664491.51   30  181 826603.171 2660131.37   222%   457  862s
  4075  1629 2200806.69   23  262 826603.171 2653144.22   221%   461  870s
  4130  1659 1704470.54   27  174 826603.171 2646954.99   220%   462  877s
  4288  1754 1847473.24   26  186 826603.171 2636809.15   219%   460  884s
  4396  1780 1481120.34   29  193 826603.171 2624795.92   218%   462  893s
  4607  1913 2035093.68   23   75 826603.171 2609239.65   216%   459  901s
  4660  1948 2065834.33   24  161 826603.171 2604181.51   215%   462  911s
  4753  1992 2171394.88   30   77 826603.171 2589002.22   213%   467  919s
  4982  2099 1920158.72   25  225 826603.171 2556383.52   209%   460  928s
  5085  2145 2261650.91   22  227 826603.171 2540086.00   207%   467  937s
  5327  2300 999530.914   26  123 826603.171 2531073.92   206%   462  946s
  5450  2330     cutoff   31      826603.171 2524335.15   205%   464  955s
  5729  2469 1291663.34   28  271 826603.171 2505206.57   203%   460  964s
  5991  2595 1504834.01   30  225 826603.171 2484319.98   201%   457  974s
  6263  2737 1549805.28   32  113 826603.171 2471040.91   199%   454  985s
  6454  2855 1541423.42   24  178 826603.171 2453161.36   197%   455  996s
  6685  2988 1656111.62   28  107 826603.171 2424990.71   193%   452 1008s
H 6997  3159                    864882.26638 2414753.05   179%   447 1021s
  7277  3304 1313080.65   41  207 864882.266 2397798.12   177%   443 1034s
  7600  3418 2001291.18   24  158 864882.266 2376308.67   175%   443 1046s
  7936  3594 1598394.71   39  153 864882.266 2367540.45   174%   441 1058s
H 7989  3295                    1079769.2140 2363696.79   119%   443 1058s
  8089  3316 2095000.11   30  109 1079769.21 2354389.53   118%   443 1072s
  8459  3552 1244217.93   37  213 1079769.21 2336039.23   116%   441 1087s
H 8636  3642                    1079769.2172 2331274.07   116%   444 1087s
  8659  3638 2022782.11   15  213 1079769.22 2316817.26   115%   446 1102s
  8789  3659 1968054.90   22  177 1079769.22 2307237.02   114%   447 1119s
  9060  3765     cutoff   39      1079769.22 2301302.66   113%   447 1133s
  9319  3842 2053835.78   21  219 1079769.22 2289143.72   112%   454 1150s
  9589  3911 1849892.52   55   95 1079769.22 2271601.94   110%   456 1167s
  9928  3999 1491509.07   43   86 1079769.22 2259589.18   109%   457 1186s
 10197  4072     cutoff   18      1079769.22 2244674.14   108%   463 1209s
 10454  4160 2084207.04   25  257 1079769.22 2232991.22   107%   464 1235s
 10844  4293     cutoff   18      1079769.22 2214442.92   105%   466 1253s
 11412  4536 1992475.43   47  185 1079769.22 2199136.72   104%   462 1272s
 11944  4710 1739787.12   38   77 1079769.22 2186526.57   102%   460 1290s
 12461  4966 1551746.07   42  147 1079769.22 2174783.63   101%   459 1307s
 12905  5114 1482719.36   38  165 1079769.22 2152515.09  99.3%   459 1326s
 13397  5295     cutoff   37      1079769.22 2145291.96  98.7%   459 1344s
 13804  5462 1151480.97   23   72 1079769.22 2131825.74  97.4%   458 1365s
 14218  5601 1169846.61   32  231 1079769.22 2125533.11  96.9%   459 1386s
 14586  5691 1350456.97   26  194 1079769.22 2106628.63  95.1%   456 1406s
 15029  5815 1628761.39   36  139 1079769.22 2096524.46  94.2%   459 1426s
 15460  5924     cutoff   40      1079769.22 2083764.12  93.0%   462 1447s
 15924  6005 1788315.54   28   73 1079769.22 2068905.43  91.6%   460 1466s
 16283  6029 1620165.96   34   57 1079769.22 2063651.19  91.1%   461 1486s
 16629  6029 infeasible   32      1079769.22 2047486.92  89.6%   464 1508s
 17044  6088 1665473.65   45   95 1079769.22 2035116.40  88.5%   466 1528s
 17496  6145 1245324.99   36  107 1079769.22 2023754.84  87.4%   467 1548s
 17873  6152 2001343.56   33   53 1079769.22 2007717.83  85.9%   470 1568s
 18333  6256 1416244.56   41  240 1079769.22 1998906.50  85.1%   470 1587s
 18689  6276 1399754.88   22  207 1079769.22 1987480.75  84.1%   471 1608s
 19161  6334 1147600.06   39  178 1079769.22 1979713.33  83.3%   471 1626s
 19684  6427 1287278.31   25  130 1079769.22 1965951.25  82.1%   470 1645s
 20079  6458 1261380.71   50   45 1079769.22 1963739.00  81.9%   472 1664s
 20340  6424 infeasible   25      1079769.22 1948849.17  80.5%   473 1682s
 20891  6523     cutoff   29      1079769.22 1932249.24  79.0%   472 2048s
 21240  6545     cutoff   51      1079769.22 1921339.66  77.9%   474 2065s
 21604  6633 1528750.27   40   80 1079769.22 1916599.26  77.5%   474 2090s
H21627  6636                    1079769.2180 1916280.25  77.5%   474 2090s
 21685  6591 1479708.10   36  140 1079769.22 1913861.59  77.2%   475 2109s
 21973  6620     cutoff   73      1079769.22 1906387.97  76.6%   477 2131s
 22267  6651 infeasible   30      1079769.22 1900697.97  76.0%   479 2152s
 22587  6714     cutoff   58      1079769.22 1891258.59  75.2%   482 2177s
 22700  6680 1350672.85   20   71 1079769.22 1887912.87  74.8%   484 2197s
 23023  6688 1418375.52   32  170 1079769.22 1882126.12  74.3%   486 2217s
 23421  6730     cutoff   23      1079769.22 1877192.08  73.9%   488 2237s
 23799  6764     cutoff   64      1079769.22 1865471.60  72.8%   490 2255s
 24138  6778 1094404.15   27  152 1079769.22 1860079.81  72.3%   491 2276s
 24519  6828     cutoff   28      1079769.22 1851223.14  71.4%   493 2297s
 24808  6837 1085659.14   23   99 1079769.22 1843558.82  70.7%   496 2317s
 25118  6881 1670916.77   32  222 1079769.22 1835601.20  70.0%   498 2337s
 25494  6970 1531633.32   29  138 1079769.22 1829315.38  69.4%   500 2358s
 25807  7042 1147106.28   30  187 1079769.22 1824085.58  68.9%   502 2380s
 26187  7155     cutoff   26      1079769.22 1819241.00  68.5%   503 2399s
 26388  7144 1452429.64   35  247 1079769.22 1815371.99  68.1%   504 2421s
 26675  7141 1187118.19   35   69 1079769.22 1808873.68  67.5%   508 2442s
 27156  7185 1529565.24   36  114 1079769.22 1801220.68  66.8%   507 2462s
 27474  7213 1738550.12   48  206 1079769.22 1796808.95  66.4%   509 2498s
 27786  7245 1322133.32   34  172 1079769.22 1791613.96  65.9%   510 2518s
 28128  7286     cutoff   21      1079769.22 1786763.96  65.5%   511 2541s
 28588  7321 1684802.61   37  172 1079769.22 1779904.05  64.8%   511 2561s
 28963  7333 1183519.74   48  109 1079769.22 1772926.66  64.2%   512 2581s
 29434  7416     cutoff   31      1079769.22 1765182.78  63.5%   512 2620s
 29733  7411 1116764.77   36   89 1079769.22 1759071.72  62.9%   513 2642s
 30152  7430 1700189.30   99   62 1079769.22 1755324.52  62.6%   514 2664s
 30635  7492     cutoff   53      1079769.22 1748307.24  61.9%   514 2686s
 31027  7548 1209518.59   36  197 1079769.22 1744624.69  61.6%   515 2709s
 31325  7549 1194805.28   28  246 1079769.22 1739336.82  61.1%   515 2736s
 31780  7613 1313132.58   22  252 1079769.22 1732687.73  60.5%   516 2755s
 32152  7656 1340736.23   40  134 1079769.22 1724932.71  59.8%   517 2777s
 32383  7658 1270058.99   31  233 1079769.22 1724047.62  59.7%   519 2825s
 32678  7670     cutoff   33      1079769.22 1720273.02  59.3%   519 2847s
 33127  7667 1534118.23   62   90 1079769.22 1714594.11  58.8%   519 2866s
 33552  7700 1575241.35   32  105 1079769.22 1709742.08  58.3%   519 2887s
 34030  7699 1488674.71   34  119 1079769.22 1704508.28  57.9%   519 2908s
 34481  7726     cutoff   53      1079769.22 1698265.98  57.3%   518 2926s
 34877  7705     cutoff   68      1079769.22 1695028.41  57.0%   518 2949s
 35355  7760 1619846.19   43   67 1079769.22 1688168.62  56.3%   517 2971s
 35760  7772 1444034.53   26  203 1079769.22 1685033.39  56.1%   517 2990s
 36273  7847     cutoff   26      1079769.22 1677904.80  55.4%   516 3010s
 36667  7864 1141581.03   44   88 1079769.22 1672255.16  54.9%   517 3031s
 37078  7856     cutoff   51      1079769.22 1666863.20  54.4%   518 3051s
 37491  7887     cutoff   34      1079769.22 1662360.01  54.0%   517 3070s
 37922  7889 1610820.38   24  110 1079769.22 1656816.32  53.4%   517 3089s
 38518  7971     cutoff   44      1079769.22 1652275.89  53.0%   516 3109s
 38925  7962 1387872.23   38   30 1079769.22 1647996.20  52.6%   516 3126s
 39379  8002 1558360.87   15  194 1079769.22 1644114.62  52.3%   515 3143s
 39789  7984 1587306.82   41  173 1079769.22 1640195.46  51.9%   515 3159s
 40261  8006     cutoff   48      1079769.22 1634452.92  51.4%   514 3178s
 40759  8075 1262649.09   27  103 1079769.22 1629835.87  50.9%   513 3198s
 41063  8046     cutoff   48      1079769.22 1625925.06  50.6%   514 3216s
 41475  8075     cutoff   38      1079769.22 1621388.68  50.2%   513 3235s
 41892  8068     cutoff   44      1079769.22 1618212.07  49.9%   512 3255s
 42359  8075     cutoff   43      1079769.22 1612003.55  49.3%   511 3271s
 42774  8093 1349670.84   42  189 1079769.22 1607104.95  48.8%   510 3288s
 43190  8091     cutoff   30      1079769.22 1603195.88  48.5%   509 3307s
 43596  8099     cutoff   41      1079769.22 1600224.15  48.2%   509 3326s
 44004  8150 1309114.62   42   48 1079769.22 1596650.37  47.9%   509 3343s
 44419  8139 1163697.91   37  156 1079769.22 1592810.83  47.5%   508 3357s
 44944  8216     cutoff   34      1079769.22 1587479.71  47.0%   506 3375s
 45388  8225 1108278.51   70   66 1079769.22 1584812.39  46.8%   506 3392s
 45859  8248 1314627.20   22  213 1079769.22 1580171.57  46.3%   505 3410s
 46164  8195     cutoff   42      1079769.22 1577203.68  46.1%   505 3425s
 46642  8186     cutoff   37      1079769.22 1572510.78  45.6%   504 3440s
 46972  8138     cutoff   21      1079769.22 1568143.06  45.2%   504 3453s
 47352  8142     cutoff   22      1079769.22 1563752.39  44.8%   504 3468s
 47658  8112 1447658.21   21  214 1079769.22 1561509.89  44.6%   504 3484s
 48105  8118     cutoff   30      1079769.22 1559115.44  44.4%   503 3501s
 48549  8133 1516899.89   31   59 1079769.22 1553005.87  43.8%   502 3516s
 48979  8164 1467490.55   38   48 1079769.22 1550962.92  43.6%   502 3533s
 49333  8128     cutoff   48      1079769.22 1546126.52  43.2%   501 3549s
 49738  8148 1382226.46   29   51 1079769.22 1542341.61  42.8%   500 3565s
 50062  8111     cutoff   72      1079769.22 1540872.05  42.7%   501 3580s
 50436  8109     cutoff   58      1079769.22 1536522.00  42.3%   501 3598s
 50747  8088     cutoff   42      1079769.22 1533737.53  42.0%   501 3612s
 51135  8096     cutoff   69      1079769.22 1530618.72  41.8%   500 3625s
 51435  8071     cutoff   37      1079769.22 1529422.80  41.6%   500 3637s
 51809  8051     cutoff   69      1079769.22 1523702.41  41.1%   499 3649s
 52129  8023 1443928.71   36   51 1079769.22 1520151.33  40.8%   499 3666s
 52504  8032     cutoff   38      1079769.22 1517148.77  40.5%   498 3681s
 52816  8009     cutoff   46      1079769.22 1513509.44  40.2%   498 3695s
 53224  7985     cutoff   52      1079769.22 1509636.53  39.8%   497 3708s
 53601  7974     cutoff   23      1079769.22 1506965.88  39.6%   497 3723s
 53948  7940 1412416.15   75   77 1079769.22 1504142.85  39.3%   497 3737s
 54305  7905 1196030.03   31   56 1079769.22 1500760.56  39.0%   496 3747s
 54600  7867     cutoff   53      1079769.22 1497105.05  38.7%   496 3760s
 54922  7816 1323420.97   43   49 1079769.22 1494123.72  38.4%   495 3773s
 55244  7782 1432982.16   29  165 1079769.22 1491055.20  38.1%   495 3787s
 55583  7738     cutoff   30      1079769.22 1487968.68  37.8%   494 3800s
 55964  7718 1174815.32   38  104 1079769.22 1484503.82  37.5%   493 3858s
 56258  7675     cutoff   33      1079769.22 1482083.64  37.3%   493 3870s
 56524  7613 1468110.50   33   88 1079769.22 1478908.26  37.0%   493 3886s
 56876  7592 1101558.40   35   39 1079769.22 1475529.70  36.7%   493 3900s
 57114  7534     cutoff   34      1079769.22 1472440.95  36.4%   493 3914s
 57460  7516     cutoff   75      1079769.22 1469057.10  36.1%   493 3925s
 57820  7487     cutoff   52      1079769.22 1465404.45  35.7%   492 3940s
 58093  7446     cutoff   59      1079769.22 1462719.10  35.5%   492 3953s
 58483  7459 1202945.77   45  151 1079769.22 1459539.50  35.2%   491 3969s
 58745  7405     cutoff   42      1079769.22 1456943.51  34.9%   491 3984s
 59116  7403     cutoff   43      1079769.22 1454100.32  34.7%   490 3996s
 59410  7348 1406216.39   35   94 1079769.22 1451463.62  34.4%   491 4009s
 59660  7284     cutoff   73      1079769.22 1447982.45  34.1%   491 4017s
 59963  7251 1114370.65   84  138 1079769.22 1444991.19  33.8%   490 4030s
 60311  7225     cutoff   49      1079769.22 1441867.86  33.5%   489 4039s
 60583  7188 1373726.25   30  151 1079769.22 1438628.37  33.2%   489 4051s
 60872  7133 1244756.21   42   55 1079769.22 1436450.40  33.0%   489 4062s
 61196  7100     cutoff   29      1079769.22 1432953.04  32.7%   489 4071s
 61437  7046     cutoff   42      1079769.22 1429940.46  32.4%   489 4083s
 61784  7026 1357356.55   39  165 1079769.22 1426957.80  32.2%   488 4092s
 62108  6990 1097363.28   47   60 1079769.22 1424213.26  31.9%   487 4106s
 62448  6964 infeasible   53      1079769.22 1421344.85  31.6%   486 4117s
 62694  6911 1232249.75   46   39 1079769.22 1418785.18  31.4%   486 4133s
 62970  6856     cutoff   34      1079769.22 1416626.13  31.2%   486 4141s
 63211  6801     cutoff   46      1079769.22 1413279.27  30.9%   486 4150s
 63486  6754 1376454.10   35   78 1079769.22 1410782.75  30.7%   486 4162s
 63894  6760 1239405.80   59  182 1079769.22 1408516.58  30.4%   485 4172s
 64291  6753     cutoff   76      1079769.22 1406087.44  30.2%   484 4181s
 64581  6717     cutoff   35      1079769.22 1403981.00  30.0%   483 4195s
 64842  6657     cutoff   54      1079769.22 1401959.23  29.8%   483 4202s
 65034  6585     cutoff   51      1079769.22 1399006.60  29.6%   483 4210s
 65296  6518 1161490.93   35   85 1079769.22 1396175.35  29.3%   482 4220s
 65626  6489 infeasible   40      1079769.22 1393520.56  29.1%   482 4231s
 65934  6464     cutoff   32      1079769.22 1390614.06  28.8%   481 4242s
 66245  6405     cutoff   31      1079769.22 1387661.76  28.5%   481 4248s
 66486  6358     cutoff   41      1079769.22 1384704.84  28.2%   480 4256s
 66732  6296     cutoff   33      1079769.22 1382612.46  28.0%   480 4267s
 66985  6244 1291689.35   29   79 1079769.22 1380117.00  27.8%   480 4275s
 67319  6211     cutoff   37      1079769.22 1379262.70  27.7%   479 4281s
 67572  6161     cutoff   16      1079769.22 1374701.66  27.3%   478 4300s
 67810  6098     cutoff   43      1079769.22 1372431.96  27.1%   478 4308s
 68107  6044     cutoff   44      1079769.22 1369735.94  26.9%   478 4315s
 68395  5984     cutoff   32      1079769.22 1367342.12  26.6%   477 4323s
 68611  5909 1092225.66   42   72 1079769.22 1364704.12  26.4%   477 4331s
 68865  5870 1323232.68   42   90 1079769.22 1362197.40  26.2%   477 4341s
 69119  5816     cutoff   28      1079769.22 1359489.21  25.9%   476 4351s
 69431  5786     cutoff   42      1079769.22 1356898.83  25.7%   476 4359s
 69705  5745     cutoff   33      1079769.22 1355197.19  25.5%   475 4366s
 69997  5701     cutoff   22      1079769.22 1352404.47  25.2%   474 4375s
 70254  5641     cutoff   30      1079769.22 1349980.04  25.0%   474 4381s
 70526  5582 1342651.16   39   53 1079769.22 1347486.25  24.8%   473 4388s
 70786  5553     cutoff   48      1079769.22 1345384.95  24.6%   473 4408s
 70997  5496     cutoff   47      1079769.22 1343446.74  24.4%   473 4416s
 71280  5450     cutoff   35      1079769.22 1341180.05  24.2%   472 4422s
 71534  5383 1186235.02   37   56 1079769.22 1338791.19  24.0%   471 4434s
 71821  5342     cutoff   38      1079769.22 1336587.19  23.8%   471 4440s
 72037  5273 1334177.80   51   81 1079769.22 1334325.49  23.6%   471 4448s
 72319  5221     cutoff   46      1079769.22 1331471.09  23.3%   470 4456s
 72578  5165     cutoff   27      1079769.22 1329260.15  23.1%   470 4464s
 72830  5115 1325727.03   47   27 1079769.22 1326695.19  22.9%   469 4476s
 73061  5058     cutoff   35      1079769.22 1324938.57  22.7%   469 4482s
 73267  5003     cutoff   69      1079769.22 1322623.20  22.5%   469 4488s
 73471  4929     cutoff   36      1079769.22 1320307.48  22.3%   468 4495s
 73714  4861 1278951.50   28   34 1079769.22 1317952.41  22.1%   468 4500s
 73947  4791     cutoff   41      1079769.22 1315864.13  21.9%   467 4511s
 74168  4729     cutoff   48      1079769.22 1313472.88  21.6%   467 4524s
 74437  4655     cutoff   49      1079769.22 1310879.41  21.4%   467 4532s
 74632  4587 infeasible   52      1079769.22 1308671.99  21.2%   467 4540s
 74851  4515 infeasible   27      1079769.22 1306409.01  21.0%   467 4547s
 75110  4466     cutoff   46      1079769.22 1304188.60  20.8%   466 4555s
 75353  4407     cutoff   25      1079769.22 1301979.93  20.6%   466 4562s
 75547  4342     cutoff   35      1079769.22 1299262.84  20.3%   466 4568s
 75745  4274 1121349.06   39   40 1079769.22 1296656.67  20.1%   465 4573s
 75920  4201     cutoff   60      1079769.22 1294281.08  19.9%   465 4581s
 76132  4143     cutoff   34      1079769.22 1292265.67  19.7%   465 4587s
 76330  4076 1094006.71   32  151 1079769.22 1289582.51  19.4%   464 4592s
 76483  4002     cutoff   52      1079769.22 1287445.58  19.2%   464 4599s
 76680  3938     cutoff   40      1079769.22 1285152.80  19.0%   464 4653s
 76778  3858     cutoff   52      1079769.22 1284267.74  18.9%   464 4659s
 76948  3789 1181363.06   37   74 1079769.22 1280599.64  18.6%   464 4664s
 77146  3723     cutoff   45      1079769.22 1277940.93  18.4%   464 4668s
 77320  3646 1234169.50   36  133 1079769.22 1275209.39  18.1%   464 4676s
 77537  3572     cutoff   40      1079769.22 1272687.98  17.9%   463 4682s
 77719  3505 1164690.40   50  101 1079769.22 1269942.83  17.6%   463 4687s
 77868  3422     cutoff   38      1079769.22 1267389.29  17.4%   463 4690s
 78054  3352     cutoff   45      1079769.22 1264487.82  17.1%   463 4696s
 78318  3300     cutoff   38      1079769.22 1262103.39  16.9%   463 4701s
 78509  3225 1220241.06   38   92 1079769.22 1259332.05  16.6%   462 4707s
 78709  3148     cutoff   36      1079769.22 1256782.44  16.4%   462 4712s
 78874  3065     cutoff   45      1079769.22 1254775.96  16.2%   462 4718s
 79078  2997 1131201.14   40   51 1079769.22 1252397.96  16.0%   461 4723s
 79251  2921     cutoff   49      1079769.22 1249934.17  15.8%   461 4727s
 79469  2856     cutoff   49      1079769.22 1247507.59  15.5%   461 4732s
 79638  2775     cutoff   32      1079769.22 1245081.64  15.3%   460 4742s
 79831  2700     cutoff   62      1079769.22 1242457.72  15.1%   460 4750s
 79960  2616     cutoff   51      1079769.22 1239647.02  14.8%   460 4755s
 80159  2548 1216212.53   33   99 1079769.22 1236932.27  14.6%   460 4761s
 80369  2475 1124747.02   52   38 1079769.22 1234585.44  14.3%   460 4766s
 80524  2397     cutoff   51      1079769.22 1232063.33  14.1%   459 4771s
 80683  2320     cutoff   41      1079769.22 1229920.14  13.9%   459 4783s
H80739  2322                    1079769.3177 1229861.47  13.9%   459 4783s
 80904  2286 1142889.25   26  205 1079769.32 1227265.93  13.7%   459 4803s
 80978  2223 1142814.30   27  205 1079769.32 1227196.93  13.7%   458 4818s
 81139  2148     cutoff   28      1079769.32 1226751.98  13.6%   458 4821s
 81274  2070 infeasible   45      1079769.32 1220415.90  13.0%   458 4825s
 81604  1915     cutoff   38      1079769.32 1213621.57  12.4%   457 4833s
 81755  1839 1210539.83   55  123 1079769.32 1210556.09  12.1%   457 4837s
 81878  1755     cutoff   63      1079769.32 1206886.39  11.8%   457 4842s
 82031  1683     cutoff   35      1079769.32 1203177.25  11.4%   457 4845s
 82305  1519     cutoff   42      1079769.32 1197503.85  10.9%   456 4852s
 82456  1443     cutoff   37      1079769.32 1194035.36  10.6%   456 4857s
 82562  1359     cutoff   32      1079769.32 1190588.85  10.3%   456 4860s
 82872  1202     cutoff   52      1079769.32 1183367.61  9.59%   455 4867s
 83005  1120     cutoff   80      1079769.32 1180253.48  9.31%   455 4872s
 83164  1041     cutoff   34      1079769.32 1176104.21  8.92%   455 4876s
 83427   875 1168983.13   33  136 1079769.32 1168983.13  8.26%   454 4884s
 83552   791     cutoff  107      1079769.32 1165279.46  7.92%   454 4887s
 83776   623 1117368.98   36  122 1079769.32 1156234.49  7.08%   454 4894s
 83891   539 1091823.12   28   59 1079769.32 1151679.43  6.66%   454 4897s
 84000   471     cutoff   66      1079769.32 1145643.67  6.10%   454 4924s
 84076   386     cutoff   44      1079769.32 1142964.04  5.85%   454 4927s
 84185   303     cutoff   31      1079769.32 1133478.02  4.97%   454 4931s
 84386   135 infeasible   52      1079769.32 1113766.03  3.15%   453 4938s
 84477    51 infeasible   39      1079769.32 1103609.20  2.21%   453 4941s

Cutting planes:
  Gomory: 65
  Cover: 3
  Implied bound: 107
  Projected implied bound: 75
  MIR: 138
  Flow cover: 1201
  Zero half: 3

Explored 84623 nodes (38504839 simplex iterations) in 4947.78 seconds
Thread count was 4 (of 16 available processors)

Solution count 10: 1.07977e+06 1.07977e+06 1.07977e+06 ... 714384

Optimal solution found (tolerance 1.00e-04)
Best objective 1.079769212879e+06, best bound 1.079769317727e+06, gap 0.0000%

***
***  |- Calculation finished, took 4,947.82 (4947.82) sec.
***  |-----------------------------------------------------------------------------------------------------------------------
***
*****************************************************************************************************************************
#############################################################################################################################
###
### Results
###
### The objective of the solution is 1,079,769.2129 (1079769.2129) and is feasible with a Gap of 0.0
###
### Service 81 (MECL1) is operated by 6 vessels from type 30 (PMax35)
###  |- Vessel  9 has the path [9, 332, 326, 342, 333, 324, 4, 294, 284, 7, 298, 196, 0]
###  |  9 (BEANR Out@344.0) - 332 (USEWR In@608.0/Out@618.0) - 326 (USCHS In@656.0/Out@666.0) - 342 (USORF In@691.0/Out@704.0
###  |  ) - 333 (USEWR In@728.0/Out@744.0) - 324 (TRZMK In@1063.0/Out@1077.0) - 4 (AEJEA In@1177.0/Out@1201.0) - 294 (PKBQM I
###  |  n@1258.0/Out@1288.0) - 284 (OMSLL In@1410.0/Out@1423.0) - 7 (AEJEA In@1681.0/Out@1705.0) - 298 (PKBQM In@1762.0/Out@1
###  |  792.0) - 196 (INNSA In@1856.0/Out@1872.0) - 0 (DUMMY_END Ziel-Service 81)
###  |   |- and carried Demand 237,   34.0 containers from 298 to 196
###  |   |- and carried Demand 238,   84.0 containers from   7 to 298
###  |   |- and carried Demand 239,   50.0 containers from   7 to 298
###  |   |- and carried Demand 297,  254.0 containers from 294 to 196
###  |   |- and carried Demand 298,    1.0 containers from 294 to 196
###  |   |- and carried Demand 299,  135.0 containers from 294 to 196
###  |   |- and carried Demand 302,   75.0 containers from   4 to 196
###  |   |- and carried Demand 303,  200.0 containers from   4 to 294
###  |   |- and carried Demand 304,   24.0 containers from   4 to 294
###  |   |- and carried Demand 305,   26.0 containers from   4 to 196
###  |   |- and carried Demand 306,  144.0 containers from   4 to 196
###  |   |- and carried Demand 307,    1.0 containers from   4 to 196
###  |   |- and carried Demand 309,  339.0 containers from 342 to   4
###  |   |- and carried Demand 310,  115.0 containers from 342 to   4
###  |   |- and carried Demand 311,    3.0 containers from 342 to 284
###  |   |- and carried Demand 312,    2.0 containers from 342 to 294
###  |   |- and carried Demand 313,  194.0 containers from 326 to   4
###  |   |- and carried Demand 314,   49.0 containers from 326 to   4
###  |   |- and carried Demand 315,   40.0 containers from 326 to 294
###  |   |- and carried Demand 318,  842.0 containers from 332 to   4
###  |   |- and carried Demand 319,   99.0 containers from 332 to   4
###  |   |- and carried Demand 320,  123.0 containers from 332 to 294
###  |   |- and carried Demand 321,    1.0 containers from 332 to 294
###  |- Vessel 10 has the path [10, 316, 190, 0]
###  |  10 (BEANR Out@512.0) - 316 (TRAMB In@854.0/Out@881.0) - 190 (INNSA In@1016.0/Out@1032.0) - 0 (DUMMY_END Ziel-Service 
###  |  81)
###  |- Vessel 11 has the path [13, 313, 191, 0]
###  |  13 (BEANR Out@680.0) - 313 (TRALI In@946.0/Out@964.0) - 191 (INNSA In@1184.0/Out@1200.0) - 0 (DUMMY_END Ziel-Service 
###  |  81)
###  |- Vessel 12 has the path [16, 314, 192, 0]
###  |  16 (BEANR Out@848.0) - 314 (TRALI In@1114.0/Out@1132.0) - 192 (INNSA In@1352.0/Out@1368.0) - 0 (DUMMY_END Ziel-Servic
###  |  e 81)
###  |- Vessel 17 has the path [158, 2, 291, 292, 293, 283, 5, 295, 194, 195, 0]
###  |  158 (GBFXT Out@580.0) - 2 (AEJEA In@841.0/Out@865.0) - 291 (PKBQM In@922.0/Out@952.0) - 292 (PKBQM In@992.0/Out@1020.
###  |  0) - 293 (PKBQM In@1090.0/Out@1120.0) - 283 (OMSLL In@1167.0/Out@1182.0) - 5 (AEJEA In@1345.0/Out@1369.0) - 295 (PKBQ
###  |  M In@1426.0/Out@1456.0) - 194 (INNSA In@1590.0/Out@1622.0) - 195 (INNSA In@1688.0/Out@1704.0) - 0 (DUMMY_END Ziel-Ser
###  |  vice 81)
###  |   |- and carried Demand 120,  237.0 containers from 292 to 194
###  |   |- and carried Demand 121,    2.0 containers from 292 to 194
###  |   |- and carried Demand 123,   97.0 containers from 292 to 194
###  |   |- and carried Demand 283,  153.0 containers from   5 to 195
###  |   |- and carried Demand 284,   86.0 containers from   5 to 295
###  |   |- and carried Demand 285,  118.0 containers from   5 to 295
###  |   |- and carried Demand 323,  244.0 containers from 293 to 195
###  |   |- and carried Demand 324,   67.0 containers from 293 to 195
###  |   |- and carried Demand 333,  237.0 containers from 291 to 194
###  |   |- and carried Demand 334,    2.0 containers from 291 to 194
###  |   |- and carried Demand 336,   97.0 containers from 291 to 194
###  |   |- and carried Demand 338,  704.0 containers from   2 to 195
###  |   |- and carried Demand 339,    8.0 containers from   2 to 195
###  |   |- and carried Demand 340,  156.0 containers from   2 to 291
###  |   |- and carried Demand 341,   45.0 containers from   2 to 291
###  |   |- and carried Demand 342,   16.0 containers from   2 to 194
###  |   |- and carried Demand 343,  264.0 containers from   2 to 194
###  |- Vessel 18 has the path [161, 321, 193, 0]
###  |  161 (GBFXT Out@748.0) - 321 (TRGEM In@1087.0/Out@1095.0) - 193 (INNSA In@1520.0/Out@1536.0) - 0 (DUMMY_END Ziel-Servi
###  |  ce 81)
###  |
### Vessels not used in the solution: [1, 2, 3, 4, 5, 6, 7, 8, 13, 14, 15, 16, 23]
###  |-----------------------------------------------------------------------------------------------------------------------
###
#############################################################################################################################

### Detialed variable overview

### All variables with value greater zero:
rho[81,30] = 1
eta[81,30,1] = 1
eta[81,30,2] = 1
eta[81,30,3] = 1
eta[81,30,4] = 1
eta[81,30,5] = 1
eta[81,30,6] = 1
y[9,4,294] = 1
y[9,332,326] = 1
y[9,294,284] = 1
y[9,284,7] = 1
y[9,342,333] = 1
y[9,9,332] = 1
y[9,324,4] = 1
y[9,7,298] = 1
y[9,196,0] = 1
y[9,333,324] = 1
y[9,298,196] = 1
y[9,326,342] = 1
y[10,190,0] = 1
y[10,316,190] = 1
y[10,10,316] = 1
y[11,313,191] = 1
y[11,191,0] = 1
y[11,13,313] = 1
y[12,192,0] = 1
y[12,314,192] = 1
y[12,16,314] = 1
y[17,283,5] = 1
y[17,293,283] = 1
y[17,195,0] = 1
y[17,5,295] = 1
y[17,292,293] = 1
y[17,194,195] = 1
y[17,291,292] = 1
y[17,295,194] = 1
y[17,2,291] = 1
y[17,158,2] = 1
y[18,161,321] = 1
y[18,193,0] = 1
y[18,321,193] = 1
xD[120,283,5] = 237
xD[120,293,283] = 237
xD[120,5,295] = 237
xD[120,292,293] = 237
xD[120,295,194] = 237
xD[121,283,5] = 2
xD[121,293,283] = 2
xD[121,5,295] = 2
xD[121,292,293] = 2
xD[121,295,194] = 2
xD[123,283,5] = 97
xD[123,293,283] = 97
xD[123,5,295] = 97
xD[123,292,293] = 97
xD[123,295,194] = 97
xD[237,298,196] = 34
xD[238,7,298] = 84
xD[239,7,298] = 50
xD[283,5,295] = 153
xD[283,194,195] = 153
xD[283,295,194] = 153
xD[284,5,295] = 86
xD[285,5,295] = 118
xD[297,294,284] = 254
xD[297,284,7] = 254
xD[297,7,298] = 254
xD[297,298,196] = 254
xD[298,294,284] = 1
xD[298,284,7] = 1
xD[298,7,298] = 1
xD[298,298,196] = 1
xD[299,294,284] = 135
xD[299,284,7] = 135
xD[299,7,298] = 135
xD[299,298,196] = 135
xD[302,4,294] = 75
xD[302,294,284] = 75
xD[302,284,7] = 75
xD[302,7,298] = 75
xD[302,298,196] = 75
xD[303,4,294] = 200
xD[304,4,294] = 24
xD[305,4,294] = 26
xD[305,294,284] = 26
xD[305,284,7] = 26
xD[305,7,298] = 26
xD[305,298,196] = 26
xD[306,4,294] = 144
xD[306,294,284] = 144
xD[306,284,7] = 144
xD[306,7,298] = 144
xD[306,298,196] = 144
xD[307,4,294] = 1
xD[307,294,284] = 1
xD[307,284,7] = 1
xD[307,7,298] = 1
xD[307,298,196] = 1
xD[309,342,333] = 339
xD[309,324,4] = 339
xD[309,333,324] = 339
xD[310,342,333] = 115
xD[310,324,4] = 115
xD[310,333,324] = 115
xD[311,4,294] = 3
xD[311,294,284] = 3
xD[311,342,333] = 3
xD[311,324,4] = 3
xD[311,333,324] = 3
xD[312,4,294] = 2
xD[312,342,333] = 2
xD[312,324,4] = 2
xD[312,333,324] = 2
xD[313,342,333] = 194
xD[313,324,4] = 194
xD[313,333,324] = 194
xD[313,326,342] = 194
xD[314,342,333] = 49
xD[314,324,4] = 49
xD[314,333,324] = 49
xD[314,326,342] = 49
xD[315,4,294] = 40
xD[315,342,333] = 40
xD[315,324,4] = 40
xD[315,333,324] = 40
xD[315,326,342] = 40
xD[318,332,326] = 842
xD[318,342,333] = 842
xD[318,324,4] = 842
xD[318,333,324] = 842
xD[318,326,342] = 842
xD[319,332,326] = 99
xD[319,342,333] = 99
xD[319,324,4] = 99
xD[319,333,324] = 99
xD[319,326,342] = 99
xD[320,4,294] = 123
xD[320,332,326] = 123
xD[320,342,333] = 123
xD[320,324,4] = 123
xD[320,333,324] = 123
xD[320,326,342] = 123
xD[321,4,294] = 1
xD[321,332,326] = 1
xD[321,342,333] = 1
xD[321,324,4] = 1
xD[321,333,324] = 1
xD[321,326,342] = 1
xD[323,283,5] = 244
xD[323,293,283] = 244
xD[323,5,295] = 244
xD[323,194,195] = 244
xD[323,295,194] = 244
xD[324,283,5] = 67
xD[324,293,283] = 67
xD[324,5,295] = 67
xD[324,194,195] = 67
xD[324,295,194] = 67
xD[333,283,5] = 237
xD[333,293,283] = 237
xD[333,5,295] = 237
xD[333,292,293] = 237
xD[333,291,292] = 237
xD[333,295,194] = 237
xD[334,283,5] = 2
xD[334,293,283] = 2
xD[334,5,295] = 2
xD[334,292,293] = 2
xD[334,291,292] = 2
xD[334,295,194] = 2
xD[336,283,5] = 97
xD[336,293,283] = 97
xD[336,5,295] = 97
xD[336,292,293] = 97
xD[336,291,292] = 97
xD[336,295,194] = 97
xD[338,283,5] = 704
xD[338,293,283] = 704
xD[338,5,295] = 704
xD[338,292,293] = 704
xD[338,194,195] = 704
xD[338,291,292] = 704
xD[338,295,194] = 704
xD[338,2,291] = 704
xD[339,283,5] = 8
xD[339,293,283] = 8
xD[339,5,295] = 8
xD[339,292,293] = 8
xD[339,194,195] = 8
xD[339,291,292] = 8
xD[339,295,194] = 8
xD[339,2,291] = 8
xD[340,2,291] = 156
xD[341,2,291] = 45
xD[342,283,5] = 16
xD[342,293,283] = 16
xD[342,5,295] = 16
xD[342,292,293] = 16
xD[342,291,292] = 16
xD[342,295,194] = 16
xD[342,2,291] = 16
xD[343,283,5] = 264
xD[343,293,283] = 264
xD[343,5,295] = 264
xD[343,292,293] = 264
xD[343,291,292] = 264
xD[343,295,194] = 264
xD[343,2,291] = 264
zE[2] = 841
zE[4] = 1177
zE[5] = 1345
zE[7] = 1681
zE[190] = 1016
zE[191] = 1184
zE[192] = 1352
zE[193] = 1520
zE[194] = 1590
zE[195] = 1688
zE[196] = 1856
zE[283] = 1167
zE[284] = 1410
zE[291] = 922
zE[292] = 992
zE[293] = 1090
zE[294] = 1258
zE[295] = 1426
zE[298] = 1762
zE[313] = 946
zE[314] = 1114
zE[316] = 854
zE[321] = 1087
zE[324] = 1063
zE[326] = 656
zE[332] = 608
zE[333] = 728
zE[342] = 691
zX[2] = 865
zX[4] = 1201
zX[5] = 1369
zX[7] = 1705
zX[9] = 344
zX[10] = 512
zX[13] = 680
zX[16] = 848
zX[158] = 580
zX[161] = 748
zX[190] = 1032
zX[191] = 1200
zX[192] = 1368
zX[193] = 1536
zX[194] = 1622
zX[195] = 1704
zX[196] = 1872
zX[283] = 1182
zX[284] = 1423
zX[291] = 952
zX[292] = 1020
zX[293] = 1120
zX[294] = 1288
zX[295] = 1456
zX[298] = 1792
zX[313] = 964
zX[314] = 1132
zX[316] = 881
zX[321] = 1095
zX[324] = 1077
zX[326] = 666
zX[332] = 618
zX[333] = 744
zX[342] = 704
phi[9] = 1528
phi[10] = 520
phi[11] = 520
phi[12] = 520
phi[17] = 1124
phi[18] = 788

### All variables with value smaller zero:

### End

real	86m5.262s
user	312m54.496s
sys	16m59.568s
	OpenBLAS 0.2.6 environment removed
	Freetype 2.4.12 environment removed
	Python 3.6.0 environment removed
	Gurobi 8.1.0 environment removed
