	OpenBLAS 0.2.6 environment established
		compiled with gcc for max. 16 cores
	Freetype 2.4.12 environment established
		library to render fonts
	Python 3.6.0 environment established
	Gurobi 8.1.0 environment established
Instance LSFRP: LSFDRP_4_3_6_1_fr.p
Instance LSFDP: LSFDRP_4_3_6_1_fd_40.p

*****************************************************************************************************************************
*** Solve LSFDRP_4_3_6_1_fd_40 with Gurobi
***
*** Graph info
*** |S|: 19
*** |S^E|: 0
*** |S^C|: 1
*** |V|: 348
*** |A|: 8709
*** |A^i|: 8382
*** |A^f|: 327
*** |M|: 343
*** |E|: 0

Changed value of parameter NumericFocus to 1
   Prev: 0  Min: 0  Max: 3  Default: 0
Changed value of parameter TimeLimit to 86400.0
   Prev: 1e+100  Min: 0.0  Max: 1e+100  Default: 1e+100
Changed value of parameter Threads to 4
   Prev: 0  Min: 0  Max: 1024  Default: 0
Optimize a model with 163606 rows, 3177009 columns and 11352648 nonzeros
Variable types: 3011517 continuous, 165492 integer (165492 binary)
Coefficient statistics:
  Matrix range     [1e+00, 5e+03]
  Objective range  [4e+01, 2e+08]
  Bounds range     [1e+00, 1e+00]
  RHS range        [1e+00, 5e+03]
Presolve removed 75566 rows and 2450955 columns (presolve time = 5s) ...
Presolve removed 135710 rows and 3001122 columns (presolve time = 10s) ...
Presolve removed 135800 rows and 3001291 columns (presolve time = 15s) ...
Presolve removed 135800 rows and 3018020 columns (presolve time = 89s) ...
Presolve removed 137025 rows and 3018164 columns (presolve time = 90s) ...
Presolve removed 137755 rows and 3024853 columns (presolve time = 199s) ...
Presolve removed 137755 rows and 3024853 columns
Presolve time: 198.84s
Presolved: 25851 rows, 152156 columns, 1226880 nonzeros
Variable types: 11011 continuous, 141145 integer (141106 binary)

Deterministic concurrent LP optimizer: primal and dual simplex
Showing first log only...


Root simplex log...

Iteration    Objective       Primal Inf.    Dual Inf.      Time
       0   -0.0000000e+00   4.800000e+01   2.523600e+10    203s
   11980   -2.4268367e+08   3.326496e+00   3.557934e+09    205s
   24775   -5.5686625e+06   0.000000e+00   5.237395e+10    210s
   41825   -4.9699139e+06   0.000000e+00   1.767767e+12    215s
   54798   -4.5209196e+06   0.000000e+00   9.849174e+09    220s
   66604   -3.4175513e+06   0.000000e+00   1.268841e+11    225s
   79460   -2.2578752e+06   0.000000e+00   1.084536e+10    230s
   91670   -1.5169240e+06   0.000000e+00   3.711514e+09    235s
  104017   -8.6789532e+05   0.000000e+00   2.126277e+09    240s
  114582   -4.3238622e+05   0.000000e+00   4.114952e+10    245s
  126910    5.3585324e+05   0.000000e+00   8.086920e+09    250s
  137310    1.5689506e+06   0.000000e+00   4.083190e+09    255s
  146794    1.7810821e+06   0.000000e+00   8.927876e+09    260s
  156688    2.0144597e+06   0.000000e+00   2.425165e+11    265s
  165418    2.6743198e+06   0.000000e+00   1.286933e+11    270s
  173566    3.1111056e+06   0.000000e+00   6.078572e+10    275s
  181326    3.2923679e+06   0.000000e+00   5.187691e+13    280s
  188698    3.7194617e+06   0.000000e+00   6.140089e+10    285s
  197040    3.8610540e+06   0.000000e+00   5.315127e+11    290s
  205188    4.2106577e+06   0.000000e+00   5.960162e+10    295s
  212366    4.4123380e+06   0.000000e+00   1.782342e+11    300s
  220320    4.6116410e+06   0.000000e+00   4.587103e+11    305s
Concurrent spin time: 35.01s

Solved with dual simplex

Root relaxation: objective 6.946701e+06, 80272 iterations, 104.45 seconds

    Nodes    |    Current Node    |     Objective Bounds      |     Work
 Expl Unexpl |  Obj  Depth IntInf | Incumbent    BestBd   Gap | It/Node Time

     0     0 6790640.09    0  276          - 6790640.09      -     -  313s
H    0     0                    -2520920.535 6790640.09   369%     -  316s
H    0     0                    -563766.1816 6790640.09  1305%     -  357s
     0     0 4904738.81    0  267 -563766.18 4904738.81   970%     -  367s
     0     0 4904738.81    0  242 -563766.18 4904738.81   970%     -  375s
H    0     0                    -563766.1763 4904738.81   970%     -  380s
H    0     0                    -299333.7886 4904738.81  1739%     -  380s
     0     0 4477669.17    0  307 -299333.79 4477669.17  1596%     -  381s
     0     0 4375368.70    0  301 -299333.79 4375368.70  1562%     -  382s
     0     0 4353871.46    0  308 -299333.79 4353871.46  1555%     -  382s
     0     0 4350397.47    0  312 -299333.79 4350397.47  1553%     -  383s
     0     0 4346743.76    0  291 -299333.79 4346743.76  1552%     -  383s
     0     0 4345424.37    0  310 -299333.79 4345424.37  1552%     -  383s
     0     0 4322063.42    0  299 -299333.79 4322063.42  1544%     -  383s
     0     0 4320305.22    0  299 -299333.79 4320305.22  1543%     -  383s
     0     0 4319683.64    0  300 -299333.79 4319683.64  1543%     -  383s
     0     0 4319680.04    0  300 -299333.79 4319680.04  1543%     -  383s
     0     0 4249060.49    0  306 -299333.79 4249060.49  1520%     -  385s
     0     0 4161783.23    0  354 -299333.79 4161783.23  1490%     -  385s
     0     0 4154257.00    0  330 -299333.79 4154257.00  1488%     -  386s
     0     0 4145956.05    0  343 -299333.79 4145956.05  1485%     -  386s
     0     0 4145115.70    0  340 -299333.79 4145115.70  1485%     -  386s
     0     0 4141772.21    0  339 -299333.79 4141772.21  1484%     -  386s
     0     0 4140691.22    0  340 -299333.79 4140691.22  1483%     -  386s
     0     0 4140135.49    0  337 -299333.79 4140135.49  1483%     -  386s
     0     0 4139428.78    0  339 -299333.79 4139428.78  1483%     -  386s
     0     0 4139428.78    0  339 -299333.79 4139428.78  1483%     -  386s
     0     0 4107548.21    0  340 -299333.79 4107548.21  1472%     -  387s
     0     0 4087991.46    0  360 -299333.79 4087991.46  1466%     -  387s
     0     0 4085516.47    0  359 -299333.79 4085516.47  1465%     -  387s
     0     0 4079468.24    0  364 -299333.79 4079468.24  1463%     -  388s
     0     0 4079013.45    0  364 -299333.79 4079013.45  1463%     -  388s
     0     0 4078976.12    0  364 -299333.79 4078976.12  1463%     -  388s
     0     0 4070399.34    0  375 -299333.79 4070399.34  1460%     -  388s
     0     0 4067153.64    0  382 -299333.79 4067153.64  1459%     -  389s
     0     0 4064621.60    0  384 -299333.79 4064621.60  1458%     -  389s
     0     0 4064279.85    0  380 -299333.79 4064279.85  1458%     -  389s
     0     0 4063767.53    0  394 -299333.79 4063767.53  1458%     -  389s
     0     0 4063302.74    0  391 -299333.79 4063302.74  1457%     -  389s
     0     0 4058951.96    0  386 -299333.79 4058951.96  1456%     -  389s
     0     0 4057563.32    0  388 -299333.79 4057563.32  1456%     -  390s
     0     0 4057322.46    0  392 -299333.79 4057322.46  1455%     -  390s
     0     0 4057243.83    0  392 -299333.79 4057243.83  1455%     -  390s
     0     0 4054273.33    0  390 -299333.79 4054273.33  1454%     -  391s
     0     0 4052449.36    0  399 -299333.79 4052449.36  1454%     -  391s
     0     0 4051231.56    0  404 -299333.79 4051231.56  1453%     -  391s
     0     0 4050498.83    0  403 -299333.79 4050498.83  1453%     -  391s
     0     0 4050272.23    0  406 -299333.79 4050272.23  1453%     -  391s
     0     0 4048694.09    0  395 -299333.79 4048694.09  1453%     -  392s
     0     0 4048318.56    0  403 -299333.79 4048318.56  1452%     -  393s
     0     0 4047092.07    0  406 -299333.79 4047092.07  1452%     -  393s
     0     0 4042952.74    0  400 -299333.79 4042952.74  1451%     -  393s
     0     0 4042751.13    0  408 -299333.79 4042751.13  1451%     -  393s
     0     0 4036834.18    0  400 -299333.79 4036834.18  1449%     -  394s
     0     0 4036003.20    0  400 -299333.79 4036003.20  1448%     -  394s
     0     0 4034611.03    0  402 -299333.79 4034611.03  1448%     -  394s
     0     0 4034489.11    0  402 -299333.79 4034489.11  1448%     -  395s
     0     0 4031889.14    0  408 -299333.79 4031889.14  1447%     -  395s
     0     0 4030705.51    0  407 -299333.79 4030705.51  1447%     -  395s
     0     0 4030630.51    0  417 -299333.79 4030630.51  1447%     -  396s
     0     0 4028796.53    0  413 -299333.79 4028796.53  1446%     -  396s
     0     0 4027918.66    0  404 -299333.79 4027918.66  1446%     -  397s
     0     0 4027852.96    0  409 -299333.79 4027852.96  1446%     -  397s
     0     0 4025038.47    0  408 -299333.79 4025038.47  1445%     -  398s
     0     0 4025007.80    0  404 -299333.79 4025007.80  1445%     -  398s
     0     0 4024677.41    0  404 -299333.79 4024677.41  1445%     -  399s
     0     0 4024616.78    0  398 -299333.79 4024616.78  1445%     -  399s
     0     0 4024461.09    0  414 -299333.79 4024461.09  1444%     -  400s
     0     0 4024461.09    0  412 -299333.79 4024461.09  1444%     -  411s
H    0     0                    -189022.5900 4024461.09  2229%     -  414s
     0     0 4024461.09    0  254 -189022.59 4024461.09  2229%     -  416s
H    0     0                    -189022.5876 4024461.09  2229%     -  417s
     0     0 4024461.09    0  256 -189022.59 4024461.09  2229%     -  418s
     0     0 4024461.09    0  273 -189022.59 4024461.09  2229%     -  419s
     0     0 4024461.09    0  269 -189022.59 4024461.09  2229%     -  419s
     0     0 4024461.09    0  273 -189022.59 4024461.09  2229%     -  419s
     0     0 4024461.09    0  283 -189022.59 4024461.09  2229%     -  419s
     0     0 4024461.09    0  300 -189022.59 4024461.09  2229%     -  420s
     0     0 4024461.09    0  292 -189022.59 4024461.09  2229%     -  420s
     0     0 4024461.09    0  287 -189022.59 4024461.09  2229%     -  420s
     0     0 4017629.94    0  282 -189022.59 4017629.94  2225%     -  420s
     0     0 4009597.25    0  299 -189022.59 4009597.25  2221%     -  420s
     0     0 4009225.07    0  299 -189022.59 4009225.07  2221%     -  420s
     0     0 4003168.69    0  301 -189022.59 4003168.69  2218%     -  421s
     0     0 4002022.92    0  309 -189022.59 4002022.92  2217%     -  421s
     0     0 4001720.48    0  300 -189022.59 4001720.48  2217%     -  421s
     0     0 4001625.42    0  301 -189022.59 4001625.42  2217%     -  421s
     0     0 4000667.03    0  303 -189022.59 4000667.03  2217%     -  421s
     0     0 4000565.62    0  304 -189022.59 4000565.62  2216%     -  421s
     0     0 4000548.99    0  302 -189022.59 4000548.99  2216%     -  421s
     0     0 3990981.67    0  346 -189022.59 3990981.67  2211%     -  422s
     0     0 3987931.15    0  350 -189022.59 3987931.15  2210%     -  422s
     0     0 3982262.10    0  349 -189022.59 3982262.10  2207%     -  422s
     0     0 3981885.01    0  350 -189022.59 3981885.01  2207%     -  423s
     0     0 3981437.64    0  351 -189022.59 3981437.64  2206%     -  423s
     0     0 3981145.80    0  359 -189022.59 3981145.80  2206%     -  423s
     0     0 3981145.14    0  359 -189022.59 3981145.14  2206%     -  423s
     0     0 3975377.96    0  344 -189022.59 3975377.96  2203%     -  423s
     0     0 3974562.91    0  345 -189022.59 3974562.91  2203%     -  424s
     0     0 3973951.94    0  355 -189022.59 3973951.94  2202%     -  424s
     0     0 3972973.56    0  346 -189022.59 3972973.56  2202%     -  424s
     0     0 3972793.68    0  348 -189022.59 3972793.68  2202%     -  424s
     0     0 3968961.08    0  334 -189022.59 3968961.08  2200%     -  424s
     0     0 3968580.07    0  334 -189022.59 3968580.07  2200%     -  424s
     0     0 3968036.78    0  352 -189022.59 3968036.78  2199%     -  425s
     0     0 3967857.85    0  351 -189022.59 3967857.85  2199%     -  425s
     0     0 3964434.32    0  356 -189022.59 3964434.32  2197%     -  425s
     0     0 3963241.12    0  361 -189022.59 3963241.12  2197%     -  425s
     0     0 3962486.72    0  362 -189022.59 3962486.72  2196%     -  425s
     0     0 3962357.41    0  358 -189022.59 3962357.41  2196%     -  425s
     0     0 3961717.45    0  364 -189022.59 3961717.45  2196%     -  426s
     0     0 3961534.88    0  360 -189022.59 3961534.88  2196%     -  426s
     0     0 3959332.15    0  360 -189022.59 3959332.15  2195%     -  426s
     0     0 3959332.15    0  360 -189022.59 3959332.15  2195%     -  431s
     0     2 3959332.15    0  355 -189022.59 3959332.15  2195%     -  434s
     1     4 3937552.54    1  357 -189022.59 3937552.54  2183%   845  437s
     3     8 3905967.57    2  359 -189022.59 3921863.35  2175%  1911  440s
    23    24 3820076.58    7  323 -189022.59 3897209.33  2162%  1008  445s
    32    33 3762732.97    8  267 -189022.59 3897209.33  2162%   852  450s
    61    59 3256057.13   12  207 -189022.59 3897209.33  2162%   845  455s
H   62    59                    -189022.5872 3897209.33  2162%   831  455s
   116   103 2830399.11   23  191 -189022.59 3897209.33  2162%   663  460s
   206   158     cutoff   37      -189022.59 3859862.12  2142%   487  466s
   233   168 3807211.20    6  266 -189022.59 3819920.46  2121%   507  470s
H  234   162                    -37070.14854 3819920.46      -   504  470s
   253   179 3137593.51   10  158 -37070.149 3819920.46      -   527  475s
   296   201 2902117.04   12  143 -37070.149 3819920.46      -   514  483s
H  300   173                    579449.36455 3819920.46   559%   510  483s
   312   183 2850028.13   16  165 579449.365 3819920.46   559%   525  486s
H  316   188                    579449.36538 3819920.46   559%   522  486s
   355   223 2723045.44   20  103 579449.365 3819920.46   559%   533  490s
   460   308 2179649.00   27   99 579449.365 3819920.46   559%   509  495s
   570   394 1806509.80   48  119 579449.365 3713486.85   541%   484  500s
   706   478 2112860.14   18  154 579449.365 3440590.80   494%   467  506s
   875   583 2011288.51   15  190 579449.365 3402937.00   487%   452  511s
   991   660     cutoff   11      579449.365 3381338.36   484%   443  516s
  1063   702 853823.864   17  267 579449.365 3381338.36   484%   431  538s
H 1064   667                    579449.36846 3381338.36   484%   430  541s
  1068   669 1796174.79   24  278 579449.368 3381338.36   484%   429  545s
  1090   684 834999.782   60  315 579449.368 3381338.36   484%   420  550s
  1113   699 1423369.12   24  320 579449.368 3381338.36   484%   411  556s
  1124   707 2547179.04   23  344 579449.368 3381338.36   484%   407  564s
  1125   707 868543.178   19  343 579449.368 3381338.36   484%   407  565s
  1127   712 3381338.36   15  322 579449.368 3381338.36   484%   434  584s
  1129   713 3381338.36   16  332 579449.368 3381338.36   484%   438  601s
  1133   716 3381338.36   17  326 579449.368 3381338.36   484%   442  605s
  1141   721 3239010.94   18  265 579449.368 3381338.36   484%   452  610s
  1154   730 3365281.92   20  305 579449.368 3381338.36   484%   462  616s
  1164   731 3356797.01   21  306 579449.368 3356797.01   479%   472  622s
  1176   738 3030273.73   22  237 579449.368 3343479.83   477%   485  627s
  1183   734 2911416.26   23  194 579449.368 3343479.83   477%   489  630s
  1216   757 2851969.44   27  122 579449.368 3343479.83   477%   501  637s
  1238   768 2834440.80   30  123 579449.368 3343479.83   477%   504  640s
  1279   787 2540682.38   36  200 579449.368 3343479.83   477%   515  646s
  1331   812 2513391.70   44  169 579449.368 3343479.83   477%   526  651s
  1384   818 1189400.12   54   69 579449.368 3343047.52   477%   525  655s
  1442   828 3226890.90   28  309 579449.368 3343047.52   477%   523  660s
  1552   860 2952767.18   32  228 579449.368 3343047.52   477%   508  666s
  1597   870 2454046.75   35  148 579449.368 3343047.52   477%   513  670s
  1624   881     cutoff   39      579449.368 3343047.52   477%   525  675s
  1671   899 1510568.74   58  167 579449.368 3343047.52   477%   529  682s
  1705   912 1411781.49   66  170 579449.368 3343047.52   477%   531  685s
  1789   919 659274.790   99  118 579449.368 3343047.52   477%   525  691s
  1803   923 1549443.28   20  131 579449.368 3188294.27   450%   534  697s
  1810   914 1540470.03   21  125 579449.368 3172819.41   448%   536  700s
  1895   942 2039749.09   35  252 579449.368 3172819.41   448%   538  706s
  1966   962 597512.175   44  195 579449.368 3130465.81   440%   544  712s
  2006   963 1447503.96   29  134 579449.368 3130465.81   440%   543  718s
  2082   976 1335883.72   30  113 579449.368 3066549.48   429%   533  721s
  2135   983     cutoff   33      579449.368 3066076.76   429%   536  725s
  2273  1025 1847490.18   31  126 579449.368 2927098.49   405%   535  733s
  2333  1017 1697929.20   24  115 579449.368 2907174.54   402%   539  738s
  2514  1080 1811513.43   32  131 579449.368 2888578.62   399%   517  742s
  2599  1088 2545143.04   36   80 579449.368 2888578.62   399%   516  746s
H 2696  1072                    714383.76057 2888578.62   304%   511  750s
  2792  1102 929395.983   44  117 714383.761 2842959.76   298%   503  755s
H 3017  1034                    862641.92503 2823830.16   227%   495  759s
  3019  1076 2672069.15   23  109 862641.925 2823830.16   227%   495  764s
  3154  1161 2703325.09   19  187 862641.925 2792568.76   224%   490  768s
H 3245  1211                    864882.26671 2792568.76   223%   491  773s
H 3370  1295                    864882.26729 2785952.65   222%   485  779s
  3471  1318 1503320.17   32  128 864882.267 2775985.84   221%   484  784s
  3558  1359 2197697.91   28  241 864882.267 2763857.53   220%   484  792s
  3684  1427     cutoff   28      864882.267 2752346.00   218%   483  799s
H 3690  1427                    864882.26741 2752346.00   218%   484  799s
  3716  1449 1712582.54   23  108 864882.267 2752346.00   218%   485  805s
  3818  1482 2064801.64   31  131 864882.267 2752346.00   218%   485  813s
  3932  1549     cutoff   49      864882.267 2726626.79   215%   483  819s
H 3941  1402                    1079769.2141 2726626.79   153%   482  819s
H 4042  1447                    1079769.2143 2715866.47   152%   481  819s
  4046  1451     cutoff   28      1079769.21 2704538.82   150%   481  826s
  4149  1497 1480271.34   33  249 1079769.21 2698297.86   150%   481  833s
  4217  1526 1971170.51   22  223 1079769.21 2696467.47   150%   482  841s
  4386  1633     cutoff   46      1079769.21 2681577.51   148%   481  847s
H 4422  1633                    1079769.2152 2681577.51   148%   481  847s
  4486  1666     cutoff   52      1079769.22 2661578.82   146%   487  855s
  4578  1703 2007583.56   34  181 1079769.22 2647659.79   145%   488  863s
  4749  1781 1839771.90   30  130 1079769.22 2599426.72   141%   490  872s
  4921  1858 2377508.85   23  175 1079769.22 2588889.70   140%   489  882s
  5091  1933 2088115.30   41  149 1079769.22 2559465.44   137%   489  891s
  5241  2007 1797702.89   40  134 1079769.22 2529769.54   134%   489  901s
  5489  2100 1474282.94   36  211 1079769.22 2509469.37   132%   487  910s
  5752  2201 1725937.36   34   96 1079769.22 2481692.99   130%   482  921s
H 5871  2239                    1079769.3137 2479820.51   130%   482  921s
  5905  2269 1818884.14   26  183 1079769.31 2461879.74   128%   484  931s
  6124  2348 2361238.86   40  101 1079769.31 2432010.70   125%   485  945s
  6435  2500 2287800.06   38  128 1079769.31 2420163.24   124%   481  955s
  6620  2554     cutoff   29      1079769.31 2417424.02   124%   481  966s
  7009  2737 1190384.50   44   81 1079769.31 2403637.83   123%   474  977s
  7211  2802 1931912.22   34  271 1079769.31 2390360.99   121%   475  989s
  7392  2878 infeasible   47      1079769.31 2387678.43   121%   477 1000s
  7692  2968 1359721.07   45   62 1079769.31 2370961.13   120%   477 1012s
  7960  3011 1760291.57   33  181 1079769.31 2359500.23   119%   476 1025s
  8203  3082     cutoff   43      1079769.31 2352621.84   118%   476 1039s
  8542  3177 2122281.76   26  135 1079769.31 2336517.27   116%   475 1052s
  8800  3261 1489542.30   32   78 1079769.31 2317308.54   115%   478 1069s
  9036  3309 1227566.22   40  117 1079769.31 2301938.54   113%   478 1085s
  9487  3468 1208231.74   52   46 1079769.31 2287799.98   112%   472 1101s
  9882  3579 1853965.44   24  141 1079769.31 2271973.41   110%   473 1118s
 10246  3660 1574236.10   28  109 1079769.31 2253621.18   109%   474 1141s
 10811  3805 1687826.84   51   58 1079769.31 2239120.06   107%   469 1159s
 11312  3938 2095881.33   31  159 1079769.31 2229505.33   106%   465 1175s
 11846  4064 1366191.77   35  114 1079769.31 2209603.69   105%   464 1193s
 12452  4227 2091301.04   30  245 1079769.31 2194986.61   103%   462 1209s
 12970  4339 2122143.53   47  105 1079769.31 2176685.89   102%   458 1226s
 13450  4459 1807728.94   58   67 1079769.31 2164189.88   100%   460 1244s
 13826  4512 1081821.71   32  111 1079769.31 2155998.91   100%   459 1260s
 14344  4612 1106389.75   66   42 1079769.31 2150692.22  99.2%   458 1278s
 14861  4701     cutoff   52      1079769.31 2120431.91  96.4%   456 1294s
 15361  4832 1378536.07   32  142 1079769.31 2109729.86  95.4%   455 1310s
 15767  4901 1478897.84   40  163 1079769.31 2095826.87  94.1%   456 1329s
 16233  4986 1538008.12   47  160 1079769.31 2084094.66  93.0%   455 1346s
 16765  5049 1228641.86   44  109 1079769.31 2071291.82  91.8%   454 1362s
 17281  5118 1293674.02   48   79 1079769.31 2054206.32  90.2%   454 1377s
 17735  5200 1941812.01   26  199 1079769.31 2044127.62  89.3%   454 1392s
 18171  5240     cutoff   37      1079769.31 2032542.05  88.2%   454 1406s
 18546  5305     cutoff   40      1079769.31 2019301.99  87.0%   457 1422s
 18951  5390 1335300.49   52   55 1079769.31 2013056.18  86.4%   458 1442s
 19030  5346 1967486.97   69   60 1079769.31 2010182.69  86.2%   458 1457s
 19448  5438     cutoff   34      1079769.31 1999988.55  85.2%   458 1473s
 19806  5507 1476260.41   49  168 1079769.31 1992523.96  84.5%   457 1489s
 20374  5567 1645683.28   38  148 1079769.31 1979276.79  83.3%   455 1504s
 20872  5644 1356808.38   32  134 1079769.31 1968289.45  82.3%   455 1825s
 21262  5695 1777992.99   51   52 1079769.31 1960029.54  81.5%   454 1843s
 21557  5723     cutoff   41      1079769.31 1949119.47  80.5%   457 1858s
 21837  5739 1622343.16   42   43 1079769.31 1941057.79  79.8%   459 1874s
 22137  5784     cutoff   36      1079769.31 1930996.06  78.8%   462 1890s
 22459  5829 1630808.37   36   66 1079769.31 1923119.75  78.1%   464 1906s
 22668  5820 1535772.36   45  122 1079769.31 1917629.45  77.6%   469 1921s
 23005  5852 infeasible   35      1079769.31 1907534.61  76.7%   470 1936s
 23348  5911 1120809.56   37  231 1079769.31 1901249.14  76.1%   472 1950s
 23728  5982 1279190.69   44  135 1079769.31 1892160.87  75.2%   474 1966s
 24024  5992 1524593.53   26  137 1079769.31 1884987.01  74.6%   476 1982s
 24387  6040 1198160.55   39  181 1079769.31 1879154.09  74.0%   477 1999s
 24695  6062 infeasible   39      1079769.31 1871418.69  73.3%   479 2015s
 25083  6131     cutoff   51      1079769.31 1861310.62  72.4%   480 2030s
 25408  6166 1676966.37   39   97 1079769.31 1856246.73  71.9%   482 2048s
 25628  6171 1151027.15   68  119 1079769.31 1849678.54  71.3%   485 2066s
 25934  6194 1550444.28   49   63 1079769.31 1843358.38  70.7%   488 2084s
 26209  6174 infeasible   44      1079769.31 1837192.24  70.1%   489 2101s
 26643  6245 1686743.88   42  106 1079769.31 1825131.98  69.0%   490 2117s
 27038  6319 1172355.25   55   72 1079769.31 1821546.86  68.7%   490 2134s
 27427  6365     cutoff   41      1079769.31 1814264.03  68.0%   491 2187s
 27818  6425 1232291.20   69  170 1079769.31 1808277.70  67.5%   491 2204s
 28271  6484 1279250.01   47   82 1079769.31 1800394.69  66.7%   491 2222s
 28590  6504 1327550.25   24  266 1079769.31 1795798.57  66.3%   493 2240s
 28940  6519 1421090.51   41  204 1079769.31 1789472.20  65.7%   495 2258s
 29326  6530 1436706.57   33  196 1079769.31 1783080.29  65.1%   496 2276s
 29782  6610     cutoff   47      1079769.31 1777650.87  64.6%   496 2295s
 30125  6635 1507395.47   46   85 1079769.31 1770132.16  63.9%   498 2314s
 30602  6730 1238781.43   38   48 1079769.31 1765556.77  63.5%   498 2331s
 30941  6750     cutoff   46      1079769.31 1760812.89  63.1%   500 2348s
 31321  6805     cutoff   48      1079769.31 1755336.75  62.6%   501 2374s
 31763  6898 1267651.69   42  205 1079769.31 1748262.74  61.9%   501 2391s
 32103  6934 1284807.03   48  128 1079769.31 1741894.31  61.3%   502 2410s
 32449  6951 1418435.16   28  143 1079769.31 1736526.75  60.8%   502 2428s
 32883  7010     cutoff   39      1079769.31 1730868.37  60.3%   502 2445s
 33306  7080 1263004.24   43  269 1079769.31 1723958.55  59.7%   503 2464s
 33701  7104 1670238.77   57   35 1079769.31 1718462.48  59.2%   504 2482s
 34099  7124 infeasible   31      1079769.31 1712305.47  58.6%   504 2499s
 34524  7195 1193668.70   54   41 1079769.31 1707306.87  58.1%   503 2518s
 35037  7264 1605320.90   35   74 1079769.31 1700522.53  57.5%   502 2535s
 35542  7361     cutoff   74      1079769.31 1693627.45  56.9%   502 2551s
 35924  7398 1402598.88   43   70 1079769.31 1688706.17  56.4%   502 2569s
 36325  7470 1485263.06   39  198 1079769.31 1683330.68  55.9%   502 2616s
 36562  7448 1475144.75   68   77 1079769.31 1679616.33  55.6%   504 2634s
 36991  7463     cutoff   83      1079769.31 1674848.81  55.1%   504 2650s
 37457  7515     cutoff   30      1079769.31 1667375.80  54.4%   503 2665s
 37884  7541 1399227.01   28  201 1079769.31 1660982.14  53.8%   503 2681s
 38219  7543 1605363.22   63  100 1079769.31 1656445.29  53.4%   504 2698s
 38503  7509 1167360.65   43  207 1079769.31 1651981.02  53.0%   506 2714s
 38970  7573 1166561.24   56  135 1079769.31 1646232.12  52.5%   506 2731s
 39357  7581 1415682.56   47   66 1079769.31 1643624.13  52.2%   505 2748s
 39878  7640 1539704.05   39   44 1079769.31 1636171.92  51.5%   504 2763s
 40311  7633     cutoff   71      1079769.31 1630178.89  51.0%   504 2779s
 40731  7637     cutoff   47      1079769.31 1625071.96  50.5%   503 2792s
 41135  7652     cutoff   74      1079769.31 1620063.57  50.0%   502 2807s
 41622  7676 1348809.99   68   70 1079769.31 1614868.73  49.6%   502 2828s
 42024  7679 1248611.98   49  132 1079769.31 1610351.53  49.1%   501 2845s
 42511  7699 1477562.84   45   49 1079769.31 1604665.10  48.6%   500 2862s
 42901  7678 1309735.72   47   61 1079769.31 1600731.64  48.2%   500 2879s
 43214  7661 1433309.58   38   58 1079769.31 1598041.40  48.0%   499 2895s
 43529  7615 1527200.73   55   21 1079769.31 1594127.59  47.6%   500 2912s
 43983  7617 1453581.91   54   54 1079769.31 1586585.36  46.9%   499 2925s
 44304  7592 1248529.22   68   79 1079769.31 1581845.20  46.5%   499 2941s
 44689  7589 1260745.33   53   99 1079769.31 1578416.55  46.2%   499 2955s
 45034  7589     cutoff   52      1079769.31 1574817.66  45.8%   499 2969s
 45379  7552     cutoff   74      1079769.31 1569631.10  45.4%   499 2982s
 45721  7551     cutoff   67      1079769.31 1565285.50  45.0%   499 2997s
 46098  7551 1446093.68   58  107 1079769.31 1562207.21  44.7%   499 3015s
 46458  7526 1286225.84   32  103 1079769.31 1557617.89  44.3%   500 3026s
 46816  7516     cutoff   38      1079769.31 1553078.13  43.8%   499 3040s
 47172  7504     cutoff   53      1079769.31 1548794.46  43.4%   499 3054s
 47494  7464     cutoff   52      1079769.31 1545686.04  43.1%   499 3067s
 47812  7436     cutoff   62      1079769.31 1540425.04  42.7%   499 3081s
H48158  7477                    1079769.3158 1536329.84  42.3%   499 3131s
 48198  7421 1368247.67   48  195 1079769.32 1536177.35  42.3%   499 3147s
 48449  7388     cutoff   74      1079769.32 1533928.43  42.1%   500 3163s
 48767  7382 infeasible   43      1079769.32 1532370.90  41.9%   499 3179s
 48961  7331     cutoff   36      1079769.32 1529108.88  41.6%   499 3192s
 49348  7297 1399029.01   33   76 1079769.32 1523980.47  41.1%   499 3208s
 49697  7251 1323495.93   39  140 1079769.32 1520072.33  40.8%   500 3221s
 50033  7224 1494182.23   35   63 1079769.32 1516212.80  40.4%   501 3235s
 50367  7180 1365143.89   33   78 1079769.32 1512480.11  40.1%   500 3248s
 50622  7125 1265134.14   43  101 1079769.32 1508938.94  39.7%   501 3262s
 50973  7082 1151961.77   58  128 1079769.32 1508469.78  39.7%   501 3275s
 51381  7080 1448566.47   52   81 1079769.32 1501821.51  39.1%   500 3285s
 51727  7030     cutoff   41      1079769.32 1497509.41  38.7%   500 3297s
 52005  6991     cutoff   56      1079769.32 1494204.00  38.4%   499 3307s
 52366  6957 1358189.92   45  188 1079769.32 1491215.26  38.1%   499 3321s
 52678  6913 infeasible   33      1079769.32 1488270.94  37.8%   499 3334s
 53065  6897 1154690.72   50  123 1079769.32 1484261.23  37.5%   498 3345s
 53414  6859     cutoff   60      1079769.32 1480899.61  37.1%   497 3355s
 53748  6830     cutoff   41      1079769.32 1477588.94  36.8%   497 3367s
 54114  6807     cutoff   50      1079769.32 1474321.14  36.5%   496 3376s
 54433  6768     cutoff   41      1079769.32 1470729.61  36.2%   495 3389s
 54754  6741 1362165.36   43  107 1079769.32 1467867.04  35.9%   495 3402s
 55110  6719     cutoff   35      1079769.32 1464324.25  35.6%   495 3413s
 55458  6697     cutoff   61      1079769.32 1460673.57  35.3%   494 3425s
 55829  6666     cutoff   69      1079769.32 1456877.46  34.9%   493 3436s
 56164  6637 1219224.31   44   42 1079769.32 1454081.06  34.7%   493 3446s
 56413  6582     cutoff   62      1079769.32 1451110.53  34.4%   493 3454s
 56670  6523 1344491.81   70   95 1079769.32 1447841.29  34.1%   493 3465s
 56954  6466 1271831.26   49   70 1079769.32 1444309.65  33.8%   493 3477s
 57309  6432     cutoff   42      1079769.32 1440304.92  33.4%   492 3487s
 57677  6421     cutoff   73      1079769.32 1437336.24  33.1%   491 3497s
 58075  6392 1424502.18   40   75 1079769.32 1434136.67  32.8%   490 3505s
 58384  6351     cutoff   53      1079769.32 1431173.76  32.5%   490 3514s
 58688  6307 1401351.37   47   87 1079769.32 1428473.26  32.3%   489 3524s
 59001  6274 1378967.10   52  117 1079769.32 1425763.00  32.0%   489 3534s
 59287  6229     cutoff   40      1079769.32 1422419.34  31.7%   488 3545s
 59555  6188 1410769.34   52  120 1079769.32 1419604.54  31.5%   489 3554s
 59841  6135 1365685.85   38   36 1079769.32 1417011.98  31.2%   488 3565s
 60134  6078 1287488.51   36   52 1079769.32 1414371.64  31.0%   488 3574s
 60403  6023     cutoff   59      1079769.32 1410843.94  30.7%   488 3583s
 60640  5958     cutoff   73      1079769.32 1408027.73  30.4%   488 3593s
 60936  5910     cutoff   66      1079769.32 1404668.41  30.1%   488 3602s
 61257  5873     cutoff   48      1079769.32 1402003.48  29.8%   487 3610s
 61517  5831     cutoff   61      1079769.32 1398994.07  29.6%   487 3621s
 61836  5785     cutoff   78      1079769.32 1396062.38  29.3%   487 3628s
 62058  5719 1392731.12   54  104 1079769.32 1392959.66  29.0%   486 3639s
 62392  5668     cutoff   75      1079769.32 1390636.50  28.8%   486 3651s
 62698  5625     cutoff   68      1079769.32 1388437.73  28.6%   486 3659s
 63012  5599 1264077.06   34   42 1079769.32 1386016.56  28.4%   486 3668s
 63262  5536     cutoff   55      1079769.32 1383123.35  28.1%   485 3679s
 63562  5488     cutoff   48      1079769.32 1380264.44  27.8%   485 3688s
 63809  5432     cutoff   28      1079769.32 1377842.53  27.6%   485 3696s
 64086  5369 1304860.11   36  174 1079769.32 1374753.33  27.3%   485 3706s
 64366  5317     cutoff   34      1079769.32 1371910.47  27.1%   485 3714s
 64580  5242     cutoff   27      1079769.32 1369179.45  26.8%   485 3723s
 64809  5188 1129314.31   37   65 1079769.32 1366815.25  26.6%   484 3732s
 65028  5116     cutoff   40      1079769.32 1364429.45  26.4%   484 3740s
 65225  5043 1261132.28   70  128 1079769.32 1361860.73  26.1%   485 3747s
 65474  5002     cutoff   48      1079769.32 1358947.03  25.9%   484 3755s
 65777  4967     cutoff   36      1079769.32 1356444.17  25.6%   483 3767s
 66009  4910     cutoff   42      1079769.32 1353706.47  25.4%   483 3774s
 66233  4835 1310615.57   54   90 1079769.32 1351126.11  25.1%   483 3780s
 66502  4780 1211812.25   57   71 1079769.32 1348192.81  24.9%   482 3787s
 66703  4714 1226070.21   45   40 1079769.32 1345106.17  24.6%   482 3794s
 66974  4644     cutoff   62      1079769.32 1342814.45  24.4%   482 3802s
 67174  4561 1232712.06   33   76 1079769.32 1340398.77  24.1%   482 3810s
 67428  4498 1161801.36   71   64 1079769.32 1337841.43  23.9%   482 3819s
 67630  4421 1299166.86   43   74 1079769.32 1335504.00  23.7%   482 3827s
 67866  4355     cutoff   63      1079769.32 1332936.15  23.4%   481 3836s
 68090  4284 1256526.04   59   82 1079769.32 1330357.96  23.2%   481 3843s
 68313  4209     cutoff   36      1079769.32 1327493.04  22.9%   481 3849s
 68484  4137     cutoff   47      1079769.32 1324902.57  22.7%   481 3853s
 68647  4056     cutoff   42      1079769.32 1322501.83  22.5%   481 3860s
 69058  3927     cutoff   24      1079769.32 1317401.72  22.0%   480 3870s
 69229  3847     cutoff   41      1079769.32 1314839.51  21.8%   480 3875s
 69411  3771 1272489.35   52   40 1079769.32 1311764.72  21.5%   480 3881s
 69626  3706 1129839.11   42  140 1079769.32 1309463.23  21.3%   480 3887s
 69855  3632     cutoff   55      1079769.32 1306640.13  21.0%   480 3894s
 70052  3553 1221593.98   38  159 1079769.32 1304226.84  20.8%   480 3899s
 70235  3476     cutoff   63      1079769.32 1301551.67  20.5%   479 3904s
 70417  3399     cutoff   44      1079769.32 1298575.83  20.3%   479 3911s
 70585  3321     cutoff   57      1079769.32 1295742.20  20.0%   479 3916s
 70813  3251 1134046.45   47   87 1079769.32 1292872.64  19.7%   478 3921s
 70997  3180     cutoff   51      1079769.32 1289292.72  19.4%   478 3928s
 71210  3107     cutoff   71      1079769.32 1286882.37  19.2%   478 3933s
 71376  3025 1106622.85   48   47 1079769.32 1284297.53  18.9%   478 3938s
 71553  2952     cutoff   63      1079769.32 1281841.14  18.7%   478 3944s
 71737  2875     cutoff   45      1079769.32 1279365.59  18.5%   478 3949s
 71958  2808 1167526.73   37   80 1079769.32 1277074.47  18.3%   477 3955s
 72323  2651     cutoff   77      1079769.32 1271482.14  17.8%   477 3963s
 72519  2574 1262337.27   50   82 1079769.32 1268348.87  17.5%   476 3967s
 72703  2508     cutoff   35      1079769.32 1264990.49  17.2%   476 3972s
 72836  2427 1214295.74   33   97 1079769.32 1262394.72  16.9%   476 3979s
 73028  2359     cutoff   56      1079769.32 1259178.48  16.6%   476 3982s
 73212  2282     cutoff   55      1079769.32 1256019.78  16.3%   476 3986s
 73343  2199     cutoff   45      1079769.32 1252755.06  16.0%   475 3990s
 73502  2118     cutoff   43      1079769.32 1249641.45  15.7%   475 3996s
 73689  2046     cutoff   45      1079769.32 1245893.33  15.4%   475 4000s
 73987  1886     cutoff   39      1079769.32 1239310.36  14.8%   475 4008s
 74159  1807     cutoff   63      1079769.32 1236306.47  14.5%   474 4013s
 74338  1727     cutoff   43      1079769.32 1232711.79  14.2%   474 4019s
 74501  1644     cutoff   41      1079769.32 1229644.75  13.9%   474 4026s
 74645  1560     cutoff   45      1079769.32 1225764.78  13.5%   474 4032s
 74776  1481     cutoff   53      1079769.32 1222693.29  13.2%   474 4037s
 74927  1398 1166479.77   51   49 1079769.32 1219248.82  12.9%   474 4041s
 75105  1320     cutoff   42      1079769.32 1215864.93  12.6%   473 4045s
 75359  1156     cutoff   41      1079769.32 1207795.86  11.9%   473 4053s
 75501  1077     cutoff   76      1079769.32 1202996.14  11.4%   473 4059s
 75637   995     cutoff   52      1079769.32 1197711.04  10.9%   473 4065s
 75776   912     cutoff   68      1079769.32 1193310.98  10.5%   472 4070s
 75908   830     cutoff   54      1079769.32 1188868.27  10.1%   472 4075s
 76214   668     cutoff   68      1079769.32 1179563.22  9.24%   472 4080s
 76455   500     cutoff   51      1079769.32 1166991.76  8.08%   471 4087s
 76563   419     cutoff   49      1079769.32 1159274.77  7.36%   471 4090s
 76804   252     cutoff   53      1079769.32 1143310.13  5.88%   471 4097s
 76922   169 1131174.01   62   43 1079769.32 1132561.79  4.89%   471 4100s
 77031    85     cutoff   50      1079769.32 1121047.63  3.82%   471 4105s

Cutting planes:
  Gomory: 75
  Cover: 5
  Implied bound: 101
  Projected implied bound: 35
  MIR: 101
  Flow cover: 902
  Zero half: 1

Explored 77212 nodes (36493274 simplex iterations) in 4113.24 seconds
Thread count was 4 (of 16 available processors)

Solution count 10: 1.07977e+06 1.07977e+06 1.07977e+06 ... 714384

Optimal solution found (tolerance 1.00e-04)
Best objective 1.079769212879e+06, best bound 1.079866337748e+06, gap 0.0090%

***
***  |- Calculation finished, took 4,113.29 (4113.29) sec.
***  |-----------------------------------------------------------------------------------------------------------------------
***
*****************************************************************************************************************************
#############################################################################################################################
###
### Results
###
### The objective of the solution is 1,079,769.2129 (1079769.2129) and is feasible with a Gap of 0.0001
###
### Service 81 (MECL1) is operated by 6 vessels from type 30 (PMax35)
###  |- Vessel  9 has the path [9, 332, 326, 342, 333, 324, 4, 294, 284, 7, 298, 196, 0]
###  |  9 (BEANR Out@344.0) - 332 (USEWR In@608.0/Out@618.0) - 326 (USCHS In@656.0/Out@666.0) - 342 (USORF In@691.0/Out@704.0
###  |  ) - 333 (USEWR In@728.0/Out@744.0) - 324 (TRZMK In@1063.0/Out@1077.0) - 4 (AEJEA In@1177.0/Out@1201.0) - 294 (PKBQM I
###  |  n@1258.0/Out@1288.0) - 284 (OMSLL In@1410.0/Out@1423.0) - 7 (AEJEA In@1681.0/Out@1705.0) - 298 (PKBQM In@1762.0/Out@1
###  |  792.0) - 196 (INNSA In@1856.0/Out@1872.0) - 0 (DUMMY_END Ziel-Service 81)
###  |   |- and carried Demand 237,   34.0 containers from 298 to 196
###  |   |- and carried Demand 238,   84.0 containers from   7 to 298
###  |   |- and carried Demand 239,   50.0 containers from   7 to 298
###  |   |- and carried Demand 297,  254.0 containers from 294 to 196
###  |   |- and carried Demand 298,    1.0 containers from 294 to 196
###  |   |- and carried Demand 299,  135.0 containers from 294 to 196
###  |   |- and carried Demand 302,   75.0 containers from   4 to 196
###  |   |- and carried Demand 303,  200.0 containers from   4 to 294
###  |   |- and carried Demand 304,   24.0 containers from   4 to 294
###  |   |- and carried Demand 305,   26.0 containers from   4 to 196
###  |   |- and carried Demand 306,  144.0 containers from   4 to 196
###  |   |- and carried Demand 307,    1.0 containers from   4 to 196
###  |   |- and carried Demand 309,  339.0 containers from 342 to   4
###  |   |- and carried Demand 310,  115.0 containers from 342 to   4
###  |   |- and carried Demand 311,    3.0 containers from 342 to 284
###  |   |- and carried Demand 312,    2.0 containers from 342 to 294
###  |   |- and carried Demand 313,  194.0 containers from 326 to   4
###  |   |- and carried Demand 314,   49.0 containers from 326 to   4
###  |   |- and carried Demand 315,   40.0 containers from 326 to 294
###  |   |- and carried Demand 318,  842.0 containers from 332 to   4
###  |   |- and carried Demand 319,   99.0 containers from 332 to   4
###  |   |- and carried Demand 320,  123.0 containers from 332 to 294
###  |   |- and carried Demand 321,    1.0 containers from 332 to 294
###  |- Vessel 10 has the path [10, 316, 190, 0]
###  |  10 (BEANR Out@512.0) - 316 (TRAMB In@854.0/Out@881.0) - 190 (INNSA In@1016.0/Out@1032.0) - 0 (DUMMY_END Ziel-Service 
###  |  81)
###  |- Vessel 11 has the path [13, 313, 191, 0]
###  |  13 (BEANR Out@680.0) - 313 (TRALI In@946.0/Out@964.0) - 191 (INNSA In@1184.0/Out@1200.0) - 0 (DUMMY_END Ziel-Service 
###  |  81)
###  |- Vessel 12 has the path [16, 314, 192, 0]
###  |  16 (BEANR Out@848.0) - 314 (TRALI In@1114.0/Out@1132.0) - 192 (INNSA In@1352.0/Out@1368.0) - 0 (DUMMY_END Ziel-Servic
###  |  e 81)
###  |- Vessel 17 has the path [158, 2, 291, 292, 293, 283, 5, 295, 194, 195, 0]
###  |  158 (GBFXT Out@580.0) - 2 (AEJEA In@841.0/Out@865.0) - 291 (PKBQM In@922.0/Out@952.0) - 292 (PKBQM In@992.0/Out@1020.
###  |  0) - 293 (PKBQM In@1090.0/Out@1120.0) - 283 (OMSLL In@1167.0/Out@1182.0) - 5 (AEJEA In@1345.0/Out@1369.0) - 295 (PKBQ
###  |  M In@1426.0/Out@1456.0) - 194 (INNSA In@1590.0/Out@1622.0) - 195 (INNSA In@1688.0/Out@1704.0) - 0 (DUMMY_END Ziel-Ser
###  |  vice 81)
###  |   |- and carried Demand 120,  237.0 containers from 292 to 194
###  |   |- and carried Demand 121,    2.0 containers from 292 to 194
###  |   |- and carried Demand 123,   97.0 containers from 292 to 194
###  |   |- and carried Demand 283,  153.0 containers from   5 to 195
###  |   |- and carried Demand 284,   86.0 containers from   5 to 295
###  |   |- and carried Demand 285,  118.0 containers from   5 to 295
###  |   |- and carried Demand 323,  244.0 containers from 293 to 195
###  |   |- and carried Demand 324,   67.0 containers from 293 to 195
###  |   |- and carried Demand 333,  237.0 containers from 291 to 194
###  |   |- and carried Demand 334,    2.0 containers from 291 to 194
###  |   |- and carried Demand 336,   97.0 containers from 291 to 194
###  |   |- and carried Demand 338,  704.0 containers from   2 to 195
###  |   |- and carried Demand 339,    8.0 containers from   2 to 195
###  |   |- and carried Demand 340,  156.0 containers from   2 to 291
###  |   |- and carried Demand 341,   45.0 containers from   2 to 291
###  |   |- and carried Demand 342,   16.0 containers from   2 to 194
###  |   |- and carried Demand 343,  264.0 containers from   2 to 194
###  |- Vessel 18 has the path [161, 321, 193, 0]
###  |  161 (GBFXT Out@748.0) - 321 (TRGEM In@1087.0/Out@1095.0) - 193 (INNSA In@1520.0/Out@1536.0) - 0 (DUMMY_END Ziel-Servi
###  |  ce 81)
###  |
### Vessels not used in the solution: [1, 2, 3, 4, 5, 6, 7, 8, 13, 14, 15, 16, 23]
###  |-----------------------------------------------------------------------------------------------------------------------
###
#############################################################################################################################

### Detialed variable overview

### All variables with value greater zero:
rho[81,30] = 1
eta[81,30,1] = 1
eta[81,30,2] = 1
eta[81,30,3] = 1
eta[81,30,4] = 1
eta[81,30,5] = 1
eta[81,30,6] = 1
y[9,4,294] = 1
y[9,332,326] = 1
y[9,294,284] = 1
y[9,284,7] = 1
y[9,342,333] = 1
y[9,9,332] = 1
y[9,324,4] = 1
y[9,7,298] = 1
y[9,196,0] = 1
y[9,333,324] = 1
y[9,298,196] = 1
y[9,326,342] = 1
y[10,190,0] = 1
y[10,316,190] = 1
y[10,10,316] = 1
y[11,313,191] = 1
y[11,191,0] = 1
y[11,13,313] = 1
y[12,192,0] = 1
y[12,314,192] = 1
y[12,16,314] = 1
y[17,283,5] = 1
y[17,293,283] = 1
y[17,195,0] = 1
y[17,5,295] = 1
y[17,292,293] = 1
y[17,194,195] = 1
y[17,291,292] = 1
y[17,295,194] = 1
y[17,2,291] = 1
y[17,158,2] = 1
y[18,161,321] = 1
y[18,193,0] = 1
y[18,321,193] = 1
xD[120,283,5] = 237
xD[120,293,283] = 237
xD[120,5,295] = 237
xD[120,292,293] = 237
xD[120,295,194] = 237
xD[121,283,5] = 2
xD[121,293,283] = 2
xD[121,5,295] = 2
xD[121,292,293] = 2
xD[121,295,194] = 2
xD[123,283,5] = 97
xD[123,293,283] = 97
xD[123,5,295] = 97
xD[123,292,293] = 97
xD[123,295,194] = 97
xD[237,298,196] = 34
xD[238,7,298] = 84
xD[239,7,298] = 50
xD[283,5,295] = 153
xD[283,194,195] = 153
xD[283,295,194] = 153
xD[284,5,295] = 86
xD[285,5,295] = 118
xD[297,294,284] = 254
xD[297,284,7] = 254
xD[297,7,298] = 254
xD[297,298,196] = 254
xD[298,294,284] = 1
xD[298,284,7] = 1
xD[298,7,298] = 1
xD[298,298,196] = 1
xD[299,294,284] = 135
xD[299,284,7] = 135
xD[299,7,298] = 135
xD[299,298,196] = 135
xD[302,4,294] = 75
xD[302,294,284] = 75
xD[302,284,7] = 75
xD[302,7,298] = 75
xD[302,298,196] = 75
xD[303,4,294] = 200
xD[304,4,294] = 24
xD[305,4,294] = 26
xD[305,294,284] = 26
xD[305,284,7] = 26
xD[305,7,298] = 26
xD[305,298,196] = 26
xD[306,4,294] = 144
xD[306,294,284] = 144
xD[306,284,7] = 144
xD[306,7,298] = 144
xD[306,298,196] = 144
xD[307,4,294] = 1
xD[307,294,284] = 1
xD[307,284,7] = 1
xD[307,7,298] = 1
xD[307,298,196] = 1
xD[309,342,333] = 339
xD[309,324,4] = 339
xD[309,333,324] = 339
xD[310,342,333] = 115
xD[310,324,4] = 115
xD[310,333,324] = 115
xD[311,4,294] = 3
xD[311,294,284] = 3
xD[311,342,333] = 3
xD[311,324,4] = 3
xD[311,333,324] = 3
xD[312,4,294] = 2
xD[312,342,333] = 2
xD[312,324,4] = 2
xD[312,333,324] = 2
xD[313,342,333] = 194
xD[313,324,4] = 194
xD[313,333,324] = 194
xD[313,326,342] = 194
xD[314,342,333] = 49
xD[314,324,4] = 49
xD[314,333,324] = 49
xD[314,326,342] = 49
xD[315,4,294] = 40
xD[315,342,333] = 40
xD[315,324,4] = 40
xD[315,333,324] = 40
xD[315,326,342] = 40
xD[318,332,326] = 842
xD[318,342,333] = 842
xD[318,324,4] = 842
xD[318,333,324] = 842
xD[318,326,342] = 842
xD[319,332,326] = 99
xD[319,342,333] = 99
xD[319,324,4] = 99
xD[319,333,324] = 99
xD[319,326,342] = 99
xD[320,4,294] = 123
xD[320,332,326] = 123
xD[320,342,333] = 123
xD[320,324,4] = 123
xD[320,333,324] = 123
xD[320,326,342] = 123
xD[321,4,294] = 1
xD[321,332,326] = 1
xD[321,342,333] = 1
xD[321,324,4] = 1
xD[321,333,324] = 1
xD[321,326,342] = 1
xD[323,283,5] = 244
xD[323,293,283] = 244
xD[323,5,295] = 244
xD[323,194,195] = 244
xD[323,295,194] = 244
xD[324,283,5] = 67
xD[324,293,283] = 67
xD[324,5,295] = 67
xD[324,194,195] = 67
xD[324,295,194] = 67
xD[333,283,5] = 237
xD[333,293,283] = 237
xD[333,5,295] = 237
xD[333,292,293] = 237
xD[333,291,292] = 237
xD[333,295,194] = 237
xD[334,283,5] = 2
xD[334,293,283] = 2
xD[334,5,295] = 2
xD[334,292,293] = 2
xD[334,291,292] = 2
xD[334,295,194] = 2
xD[336,283,5] = 97
xD[336,293,283] = 97
xD[336,5,295] = 97
xD[336,292,293] = 97
xD[336,291,292] = 97
xD[336,295,194] = 97
xD[338,283,5] = 704
xD[338,293,283] = 704
xD[338,5,295] = 704
xD[338,292,293] = 704
xD[338,194,195] = 704
xD[338,291,292] = 704
xD[338,295,194] = 704
xD[338,2,291] = 704
xD[339,283,5] = 8
xD[339,293,283] = 8
xD[339,5,295] = 8
xD[339,292,293] = 8
xD[339,194,195] = 8
xD[339,291,292] = 8
xD[339,295,194] = 8
xD[339,2,291] = 8
xD[340,2,291] = 156
xD[341,2,291] = 45
xD[342,283,5] = 16
xD[342,293,283] = 16
xD[342,5,295] = 16
xD[342,292,293] = 16
xD[342,291,292] = 16
xD[342,295,194] = 16
xD[342,2,291] = 16
xD[343,283,5] = 264
xD[343,293,283] = 264
xD[343,5,295] = 264
xD[343,292,293] = 264
xD[343,291,292] = 264
xD[343,295,194] = 264
xD[343,2,291] = 264
zE[2] = 841
zE[4] = 1177
zE[5] = 1345
zE[7] = 1681
zE[190] = 1016
zE[191] = 1184
zE[192] = 1352
zE[193] = 1520
zE[194] = 1590
zE[195] = 1688
zE[196] = 1856
zE[283] = 1167
zE[284] = 1410
zE[291] = 922
zE[292] = 992
zE[293] = 1090
zE[294] = 1258
zE[295] = 1426
zE[298] = 1762
zE[313] = 946
zE[314] = 1114
zE[316] = 854
zE[321] = 1087
zE[324] = 1063
zE[326] = 656
zE[332] = 608
zE[333] = 728
zE[342] = 691
zX[2] = 865
zX[4] = 1201
zX[5] = 1369
zX[7] = 1705
zX[9] = 344
zX[10] = 512
zX[13] = 680
zX[16] = 848
zX[158] = 580
zX[161] = 748
zX[190] = 1032
zX[191] = 1200
zX[192] = 1368
zX[193] = 1536
zX[194] = 1622
zX[195] = 1704
zX[196] = 1872
zX[283] = 1182
zX[284] = 1423
zX[291] = 952
zX[292] = 1020
zX[293] = 1120
zX[294] = 1288
zX[295] = 1456
zX[298] = 1792
zX[313] = 964
zX[314] = 1132
zX[316] = 881
zX[321] = 1095
zX[324] = 1077
zX[326] = 666
zX[332] = 618
zX[333] = 744
zX[342] = 704
phi[9] = 1528
phi[10] = 520
phi[11] = 520
phi[12] = 520
phi[17] = 1124
phi[18] = 788

### All variables with value smaller zero:

### End

real	72m28.707s
user	260m46.320s
sys	13m28.189s
	OpenBLAS 0.2.6 environment removed
	Freetype 2.4.12 environment removed
	Python 3.6.0 environment removed
	Gurobi 8.1.0 environment removed
