	OpenBLAS 0.2.6 environment established
		compiled with gcc for max. 16 cores
	Freetype 2.4.12 environment established
		library to render fonts
	Python 3.6.0 environment established
	Gurobi 8.1.0 environment established
Instance LSFRP: LSFDRP_4_3_6_1_fr.p
Instance LSFDP: LSFDRP_4_3_6_1_fd_37.p

*****************************************************************************************************************************
*** Solve LSFDRP_4_3_6_1_fd_37 with Gurobi
***
*** Graph info
*** |S|: 19
*** |S^E|: 0
*** |S^C|: 1
*** |V|: 348
*** |A|: 8709
*** |A^i|: 8382
*** |A^f|: 327
*** |M|: 343
*** |E|: 0

Changed value of parameter NumericFocus to 1
   Prev: 0  Min: 0  Max: 3  Default: 0
Changed value of parameter TimeLimit to 86400.0
   Prev: 1e+100  Min: 0.0  Max: 1e+100  Default: 1e+100
Changed value of parameter Threads to 4
   Prev: 0  Min: 0  Max: 1024  Default: 0
Optimize a model with 163606 rows, 3177009 columns and 11352648 nonzeros
Variable types: 3011517 continuous, 165492 integer (165492 binary)
Coefficient statistics:
  Matrix range     [1e+00, 5e+03]
  Objective range  [4e+01, 2e+08]
  Bounds range     [1e+00, 1e+00]
  RHS range        [1e+00, 5e+03]
Presolve removed 88329 rows and 2667857 columns (presolve time = 5s) ...
Presolve removed 135710 rows and 3001122 columns (presolve time = 10s) ...
Presolve removed 135800 rows and 3018020 columns (presolve time = 87s) ...
Presolve removed 137035 rows and 3018174 columns (presolve time = 92s) ...
Presolve removed 137755 rows and 3024853 columns (presolve time = 204s) ...
Presolve removed 137755 rows and 3024853 columns
Presolve time: 204.02s
Presolved: 25851 rows, 152156 columns, 1226880 nonzeros
Variable types: 11011 continuous, 141145 integer (141106 binary)

Deterministic concurrent LP optimizer: primal and dual simplex
Showing first log only...


Root simplex log...

Iteration    Objective       Primal Inf.    Dual Inf.      Time
       0   -0.0000000e+00   4.800000e+01   2.523601e+10    208s
   11786   -2.2503993e+08   3.328163e+00   3.198124e+10    210s
   23706   -6.2628381e+06   0.000000e+00   1.258239e+11    215s
   37877   -4.4015844e+06   0.000000e+00   2.837172e+09    220s
   51196   -4.0906613e+06   0.000000e+00   2.674191e+11    225s
   63265   -2.2462282e+06   0.000000e+00   9.242555e+10    230s
   76667   -1.0392920e+06   0.000000e+00   1.251978e+11    235s
   88413   -1.3014273e+05   0.000000e+00   5.674782e+10    240s
  101734    6.3437993e+05   0.000000e+00   1.351725e+11    245s
  113610    1.0965248e+06   0.000000e+00   3.666546e+10    250s
  124086    1.3566677e+06   0.000000e+00   3.523896e+10    255s
  131652    1.5121405e+06   0.000000e+00   4.434705e+11    260s
  140576    1.7231793e+06   0.000000e+00   2.000445e+13    265s
  148530    2.0860648e+06   0.000000e+00   8.274093e+09    270s
  155902    2.4819465e+06   0.000000e+00   1.420837e+10    275s
  163274    2.7021312e+06   0.000000e+00   1.743914e+10    280s
  170258    2.9470882e+06   0.000000e+00   1.806531e+10    285s
  177048    3.0710457e+06   0.000000e+00   8.230891e+09    290s
  183644    3.1427970e+06   0.000000e+00   1.189617e+12    295s
  190822    3.5877548e+06   0.000000e+00   5.059012e+12    300s
  197612    3.8673933e+06   0.000000e+00   1.833673e+10    305s
  204014    3.9620645e+06   0.000000e+00   1.115756e+11    310s
  210610    4.0851255e+06   0.000000e+00   4.386365e+11    315s
Concurrent spin time: 24.88s

Solved with dual simplex

Root relaxation: objective 7.060101e+06, 80080 iterations, 109.85 seconds

    Nodes    |    Current Node    |     Objective Bounds      |     Work
 Expl Unexpl |  Obj  Depth IntInf | Incumbent    BestBd   Gap | It/Node Time

     0     0 6904040.09    0  270          - 6904040.09      -     -  324s
H    0     0                    -1912641.444 6904040.09   461%     -  327s
H    0     0                    550089.21473 6904040.09  1155%     -  449s
     0     0 4931278.85    0  287 550089.215 4931278.85   796%     -  458s
     0     0 4931278.85    0  251 550089.216 4931278.85   796%     -  468s
     0     0 4810536.54    0  289 550089.216 4810536.54   775%     -  478s
     0     0 4594410.05    0  304 550089.216 4594410.05   735%     -  479s
     0     0 4548071.96    0  304 550089.216 4548071.96   727%     -  479s
     0     0 4494702.90    0  303 550089.216 4494702.90   717%     -  480s
     0     0 4488184.32    0  301 550089.216 4488184.32   716%     -  480s
     0     0 4487085.00    0  304 550089.216 4487085.00   716%     -  480s
     0     0 4487085.00    0  304 550089.216 4487085.00   716%     -  480s
     0     0 4380781.65    0  360 550089.216 4380781.65   696%     -  482s
     0     0 4366635.48    0  367 550089.216 4366635.48   694%     -  483s
     0     0 4356424.01    0  367 550089.216 4356424.01   692%     -  483s
     0     0 4356193.11    0  364 550089.216 4356193.11   692%     -  483s
     0     0 4355094.95    0  369 550089.216 4355094.95   692%     -  483s
     0     0 4353530.46    0  366 550089.216 4353530.46   691%     -  484s
     0     0 4353435.02    0  365 550089.216 4353435.02   691%     -  484s
     0     0 4325370.21    0  359 550089.216 4325370.21   686%     -  484s
     0     0 4315412.28    0  372 550089.216 4315412.28   684%     -  485s
     0     0 4311185.94    0  372 550089.216 4311185.94   684%     -  485s
     0     0 4310752.37    0  364 550089.216 4310752.37   684%     -  486s
     0     0 4310447.63    0  368 550089.216 4310447.63   684%     -  486s
     0     0 4310361.47    0  367 550089.216 4310361.47   684%     -  486s
     0     0 4287541.93    0  372 550089.216 4287541.93   679%     -  487s
     0     0 4287541.93    0  247 550089.216 4287541.93   679%     -  493s
     0     0 4287541.93    0  305 550089.216 4287541.93   679%     -  502s
     0     0 4287541.93    0  321 550089.216 4287541.93   679%     -  503s
     0     0 4279290.10    0  328 550089.216 4279290.10   678%     -  504s
     0     0 4226980.41    0  266 550089.216 4226980.41   668%     -  504s
     0     0 4223116.86    0  285 550089.216 4223116.86   668%     -  505s
     0     0 4201025.59    0  296 550089.216 4201025.59   664%     -  505s
     0     0 4145466.54    0  329 550089.216 4145466.54   654%     -  506s
     0     0 4143926.19    0  330 550089.216 4143926.19   653%     -  506s
     0     0 4143910.58    0  332 550089.216 4143910.58   653%     -  506s
     0     0 4126118.19    0  330 550089.216 4126118.19   650%     -  508s
     0     0 4123065.55    0  258 550089.216 4123065.55   650%     -  509s
     0     0 4120838.50    0  270 550089.216 4120838.50   649%     -  509s
     0     0 4120034.97    0  331 550089.216 4120034.97   649%     -  509s
     0     0 4119868.98    0  329 550089.216 4119868.98   649%     -  509s
     0     0 4114332.02    0  296 550089.216 4114332.02   648%     -  510s
     0     0 4107273.71    0  357 550089.216 4107273.71   647%     -  511s
     0     0 4105719.90    0  356 550089.216 4105719.90   646%     -  511s
     0     0 4104353.86    0  359 550089.216 4104353.86   646%     -  511s
     0     0 4100627.29    0  355 550089.216 4100627.29   645%     -  512s
     0     0 4099403.46    0  362 550089.216 4099403.46   645%     -  512s
     0     0 4098363.74    0  355 550089.216 4098363.74   645%     -  512s
     0     0 4098264.96    0  359 550089.216 4098264.96   645%     -  512s
     0     0 4091821.00    0  364 550089.216 4091821.00   644%     -  513s
     0     0 4090201.04    0  358 550089.216 4090201.04   644%     -  514s
     0     0 4090198.33    0  361 550089.216 4090198.33   644%     -  514s
     0     0 4089454.60    0  369 550089.216 4089454.60   643%     -  515s
     0     0 4088481.29    0  365 550089.216 4088481.29   643%     -  515s
     0     0 4088388.79    0  368 550089.216 4088388.79   643%     -  515s
     0     0 4087882.11    0  364 550089.216 4087882.11   643%     -  516s
     0     0 4087882.11    0  364 550089.216 4087882.11   643%     -  526s
     0     2 4087882.11    0  364 550089.216 4087882.11   643%     -  530s
     1     5 4083036.93    1  356 550089.216 4083036.93   642%   322  535s
     7     8 4056980.34    3  366 550089.216 4058706.50   638%  1863  542s
    15    16 4006795.12    5  341 550089.216 4056549.42   637%  1323  545s
    23    22 3995701.55    6  350 550089.216 4056549.42   637%  1162  550s
    30    23 3994539.40    7  355 550089.216 4056549.42   637%   919  567s
    41    38 2851486.17    8  225 550089.216 4056549.42   637%   928  574s
    49    43 3883081.19    9  355 550089.216 4056549.42   637%   830  575s
    86    71 3815711.56   14  288 550089.216 4056549.42   637%   585  580s
   114    96 3779108.60   15  355 550089.216 4056549.42   637%   504  585s
   145   120 3564093.11   18  326 550089.216 4056549.42   637%   491  590s
   181   144 3396344.71   20  288 550089.216 4056549.42   637%   454  596s
   195   150 3450620.04   21  251 550089.216 4056549.42   637%   465  618s
H  211   156                    550089.21809 4056549.42   637%   453  618s
   212   158 3324032.27   24  246 550089.218 4056549.42   637%   452  621s
   286   216 3018935.58   36  208 550089.218 4056549.42   637%   426  628s
   331   242 2886515.14   39  219 550089.218 4056549.42   637%   401  639s
H  339   239                    826603.16695 4056549.42   391%   401  639s
   355   251 2619212.61   45  232 826603.167 4056549.42   391%   403  641s
   370   253 2463691.59   49  173 826603.167 4056549.42   391%   417  645s
   488   307 3500591.73   10  201 826603.167 3922681.40   375%   383  654s
   503   310 1068601.22   11  153 826603.167 3922681.40   375%   404  657s
   518   319 1068557.30   12  154 826603.167 3922681.40   375%   411  660s
   581   366 2098083.63   15  132 826603.167 3869194.29   368%   412  666s
   652   410 3496965.06   10  218 826603.167 3849548.13   366%   415  671s
   765   486 1909350.91   26  129 826603.167 3848117.05   366%   387  677s
   842   536 1284944.16    7  221 826603.167 3848117.05   366%   380  680s
   903   575 3056596.50   11  246 826603.167 3765931.60   356%   389  687s
   951   610 2520163.33   13  229 826603.167 3765931.60   356%   396  690s
  1060   681 1071032.12   31  287 826603.167 3765931.60   356%   400  728s
H 1061   647                    826603.16917 3765931.60   356%   399  741s
H 1061   615                    826603.17010 3765931.60   356%   399  742s
  1063   616 2716362.11   14  294 826603.170 3765931.60   356%   399  745s
  1073   623 2302671.05   36  288 826603.170 3765931.60   356%   395  750s
  1087   632 2393618.95   55  303 826603.170 3765931.60   356%   390  755s
  1098   639 3375671.10   10  320 826603.170 3765931.60   356%   386  760s
  1107   645 3121752.68   10  367 826603.170 3765931.60   356%   383  765s
  1120   654 2093461.58   35  315 826603.170 3757420.28   355%   378  770s
  1133   663 2441171.19   27  279 826603.170 3753552.50   354%   374  775s
  1140   667 1620227.76   15  341 826603.170 3750187.66   354%   372  780s
  1149   673 1716003.96   24  354 826603.170 3749396.17   354%   369  785s
  1159   680 3313580.01   17  397 826603.170 3748770.90   354%   366  790s
  1168   686 1360928.33   21  407 826603.170 3747082.76   353%   363  795s
  1178   693 1880685.58   42  428 826603.170 3744356.40   353%   360  800s
  1187   699 2393618.95   55  426 826603.170 3743712.85   353%   357  816s
  1189   700 2961902.98   21  419 826603.170 3743712.85   353%   356  823s
  1192   703 2984402.83   17  258 826603.170 3743712.85   353%   401  831s
  1194   705 2371098.09   30  258 826603.170 3743712.85   353%   400  835s
  1198   707 3375671.10   10  321 826603.170 3721176.39   350%   399  840s
  1214   718 1396178.99   45  372 826603.170 3693312.58   347%   394  845s
  1223   724 2755857.16   48  335 826603.170 3656459.45   342%   391  850s
  1233   731 2441171.19   27  351 826603.170 3633813.77   340%   388  855s
  1244   738 1521179.24   36  349 826603.170 3631232.29   339%   384  860s
  1249   741 1716003.96   24  357 826603.170 3631139.84   339%   383  872s
  1251   743 3309147.50   25  354 826603.170 3631139.84   339%   382  878s
  1254   746 3512844.35   14  251 826603.170 3631139.84   339%   417  885s
  1257   748 3375671.10   16  243 826603.170 3631139.84   339%   416  890s
  1265   754 3631139.84   12  308 826603.170 3631139.84   339%   413  895s
  1287   768 2393618.95   55  340 826603.170 3630513.18   339%   406  900s
  1302   778 1512670.13   22  336 826603.170 3628847.82   339%   401  905s
  1313   786 1646364.21   45  337 826603.170 3627766.26   339%   398  916s
  1315   787 2308903.79   15  337 826603.170 3627766.26   339%   397  921s
  1316   790 3627029.68   33  338 826603.170 3627029.68   339%   426  947s
  1318   792 3616887.48   34  364 826603.170 3616887.48   338%   431  970s
  1321   795 3269559.44   35  312 826603.170 3614579.67   337%   436  975s
  1329   798 3097487.00   36  268 826603.170 3591356.20   334%   442  982s
  1337   802 1103824.16   37  223 826603.170 3591356.20   334%   453  987s
  1342   804 2927058.95   38  203 826603.170 3591356.20   334%   457  990s
  1359   807     cutoff   39      826603.170 3591356.20   334%   470  996s
  1374   816 1861750.30   40  186 826603.170 3591356.20   334%   475 1010s
  1401   826 2414860.19   42  190 826603.170 3591356.20   334%   481 1016s
  1475   851     cutoff   52      826603.170 3591356.20   334%   478 1020s
  1517   870 1352936.77   61  151 826603.170 3591356.20   334%   478 1025s
  1618   875 1012149.69   72   82 826603.170 3591356.20   334%   475 1030s
  1711   866 2863765.32   38  296 826603.170 3578187.94   333%   472 1036s
  1752   883 2612415.74   44  232 826603.170 3578187.94   333%   475 1042s
  1823   900 1927581.37   59  164 826603.170 3578187.94   333%   470 1046s
  1891   928 1606646.31   82  128 826603.170 3578187.94   333%   466 1053s
  1896   928 1602194.27   83  130 826603.170 3556186.47   330%   465 1055s
  1935   942 3234644.20   40  307 826603.170 3520568.18   326%   476 1062s
  1944   938 3376830.31   39  317 826603.170 3376830.31   309%   482 1065s
  1977   948     cutoff   40      826603.170 3376819.77   309%   494 1071s
  2015   962 2761457.22   47  214 826603.170 3376819.77   309%   500 1077s
  2045   976     cutoff   53      826603.170 3376819.77   309%   503 1080s
  2139   990 845471.340   71  144 826603.170 3376819.77   309%   504 1088s
  2178   990 2910203.12   41  210 826603.170 3368032.28   307%   504 1092s
  2226   997 2559423.12   55  179 826603.170 3368032.28   307%   506 1095s
  2388  1061 2260197.54   43  226 826603.170 3196789.60   287%   489 1102s
  2472  1083 866103.154   63  153 826603.170 3062177.42   270%   482 1105s
  2563  1129 2430407.65   44  189 826603.170 3062177.42   270%   476 1110s
  2788  1210 1955581.07   47  129 826603.170 3062177.42   270%   458 1118s
  2841  1201 1874468.42   49  153 826603.170 3062177.42   270%   460 1123s
  2936  1232 2648273.55   44  217 826603.170 3009320.33   264%   459 1130s
  3037  1249 1026257.64   45  152 826603.170 2965024.02   259%   463 1139s
  3127  1272 2222861.93   49  206 826603.170 2943268.62   256%   462 1144s
  3191  1283 1760767.34   56  178 826603.170 2943268.62   256%   464 1149s
  3294  1324 1199155.74   88  165 826603.170 2910203.12   252%   459 1154s
  3386  1350 2326784.02   48  224 826603.170 2891292.12   250%   459 1160s
  3453  1362 1203546.01   69  113 826603.170 2873860.78   248%   463 1165s
  3580  1406 1534174.59   63   93 826603.170 2841969.95   244%   462 1171s
  3721  1454 2548789.30   43  112 826603.170 2835976.78   243%   458 1177s
  3779  1485 2522825.59   44  103 826603.170 2835976.78   243%   456 1183s
  3899  1537 2430388.11   58  165 826603.170 2835976.78   243%   454 1190s
H 3941  1530                    864882.26591 2835976.78   228%   451 1190s
H 4077  1637                    864882.26636 2835976.78   228%   449 1190s
  4078  1662 2055990.63  121   99 864882.266 2835976.78   228%   449 1196s
  4250  1770 1372804.50   51  154 864882.266 2767219.54   220%   445 1202s
  4380  1830 1446123.07   50  137 864882.266 2757410.77   219%   448 1209s
  4457  1858 1557937.71   44  160 864882.266 2747653.43   218%   448 1216s
  4675  1983 1833042.24   48  223 864882.266 2743217.74   217%   443 1227s
H 4739  2000                    864882.26664 2743217.74   217%   444 1227s
  4814  2054 1919325.71   43  205 864882.267 2724178.19   215%   444 1234s
  4949  2128 1249923.06   60  191 864882.267 2696088.20   212%   446 1243s
  5112  2215 1697879.79   54   45 864882.267 2663058.10   208%   443 1252s
  5318  2316 1677360.05   49  135 864882.267 2661671.85   208%   442 1261s
  5528  2447 1246165.38   69   79 864882.267 2650389.33   206%   438 1269s
  5710  2539 1790464.67   75  221 864882.267 2637237.84   205%   440 1279s
H 5838  2404                    1079769.2137 2629616.92   144%   439 1279s
  5891  2411 1822733.78   44  203 1079769.21 2606471.13   141%   440 1289s
H 5949  2425                    1079769.2140 2606471.13   141%   439 1289s
H 5986  2440                    1079769.2144 2606471.13   141%   440 1289s
  6087  2483 2132231.05   42  217 1079769.21 2592409.18   140%   438 1300s
H 6337  2615                    1079769.2168 2579850.64   139%   434 1310s
  6683  2762 2019553.00   82  143 1079769.22 2552799.08   136%   427 1320s
H 6816  2814                    1079769.2171 2552719.32   136%   426 1320s
  6879  2838 2355964.02   62   68 1079769.22 2538560.82   135%   429 1331s
  7031  2902 infeasible   66      1079769.22 2529069.71   134%   432 1343s
  7216  2976     cutoff   45      1079769.22 2518789.91   133%   436 1355s
  7426  3050 1266387.31   64  124 1079769.22 2506449.00   132%   439 1366s
  7697  3160 1185507.31   55   79 1079769.22 2492900.16   131%   440 1379s
  8038  3307 1847544.00   50  246 1079769.22 2479773.26   130%   437 1393s
H 8176  3398                    1079769.2177 2477454.23   129%   436 1393s
  8349  3436 1260474.61   56  136 1079769.22 2461967.33   128%   436 1406s
  8763  3621 2015975.62   50  134 1079769.22 2449703.95   127%   434 1419s
  9158  3755 1849140.56   60   95 1079769.22 2432195.79   125%   433 1433s
  9517  3900 1888307.09   54  124 1079769.22 2421111.91   124%   430 1449s
  9830  4038 infeasible   57      1079769.22 2414416.18   124%   434 1464s
H 9832  4038                    1079769.3199 2414416.18   124%   434 1464s
  9961  4075 2100225.70   53  153 1079769.32 2404932.11   123%   436 1479s
 10431  4260 1659733.06   95  134 1079769.32 2399830.84   122%   433 1505s
 10796  4362 2101521.97   52  289 1079769.32 2375552.75   120%   433 1523s
 11196  4490 1913826.95   69   45 1079769.32 2366353.30   119%   432 1540s
 11768  4673 1606694.70   60  174 1079769.32 2348221.67   117%   430 1558s
 12283  4827 1602334.82   48  172 1079769.32 2327325.02   116%   427 1575s
 12708  5050 1985291.28   64  178 1079769.32 2320094.09   115%   428 1594s
 13017  5110 1247865.78   50   70 1079769.32 2314098.76   114%   430 1612s
 13380  5237 1563452.94   62  117 1079769.32 2303416.73   113%   432 1628s
 13776  5328 1541046.30   63   88 1079769.32 2288701.83   112%   436 1645s
 14263  5486     cutoff   50      1079769.32 2267048.73   110%   436 1661s
 14750  5635 1428557.64   48  224 1079769.32 2256506.13   109%   436 1679s
H14859  5686                    1079769.3204 2256506.13   109%   437 1679s
 15168  5801 1371696.45   52  123 1079769.32 2242459.26   108%   435 1695s
 15458  5860 1229356.01   53  147 1079769.32 2236808.73   107%   435 1712s
 15861  5956     cutoff   46      1079769.32 2228995.85   106%   438 1729s
 16455  6172 1412161.64   58  170 1079769.32 2216584.04   105%   435 1747s
 16976  6338 1490392.72   89  123 1079769.32 2202522.66   104%   432 1764s
 17354  6433 1620591.77   56  164 1079769.32 2190730.39   103%   433 1780s
 17834  6592 2164176.85   47  164 1079769.32 2180796.13   102%   433 1797s
 18158  6624 1701695.49   60  188 1079769.32 2170962.65   101%   435 1813s
 18714  6763 1475151.56   51  131 1079769.32 2165352.61   101%   433 1830s
 19193  6863 1595682.23   51  151 1079769.32 2150356.75  99.1%   433 1847s
 19614  6985 1867882.00   47  203 1079769.32 2143400.16  98.5%   432 1870s
 19888  7036 1102215.78   71   28 1079769.32 2140210.39  98.2%   432 1886s
 20363  7117 1154705.40   71   82 1079769.32 2128720.09  97.1%   433 1902s
 20824  7188 2066719.36   61  171 1079769.32 2125432.47  96.8%   434 2147s
 21370  7319 1707943.63   58  101 1079769.32 2118092.72  96.2%   433 2162s
 21813  7444 1719614.57   93  171 1079769.32 2107741.38  95.2%   433 2178s
 22204  7485 1269513.08   50   63 1079769.32 2095781.67  94.1%   434 2193s
 22655  7626 1134991.97   55  104 1079769.32 2088455.62  93.4%   435 2208s
 23072  7712 1223222.72   60   91 1079769.32 2075319.58  92.2%   436 2223s
 23317  7744 1347014.99   56  157 1079769.32 2071761.62  91.9%   438 2239s
 23676  7810 2037486.54   73   65 1079769.32 2066168.19  91.4%   439 2254s
 24113  7897     cutoff   73      1079769.32 2055373.17  90.4%   440 2269s
 24496  7995 1538815.46   49  163 1079769.32 2046760.48  89.6%   439 2285s
 25045  8143 1468147.86   48  192 1079769.32 2038571.95  88.8%   438 2300s
 25466  8244 1353730.22   61  185 1079769.32 2032450.48  88.2%   438 2315s
 25837  8307 1641204.59   62   77 1079769.32 2025584.43  87.6%   439 2330s
 26258  8405     cutoff   45      1079769.32 2017412.68  86.8%   439 2344s
 26574  8428 1346065.51   70  150 1079769.32 2012429.74  86.4%   441 2360s
 26991  8484     cutoff   50      1079769.32 2006921.91  85.9%   442 2375s
 27431  8585 1632474.16   71   92 1079769.32 2000755.07  85.3%   441 2391s
 27766  8678 1428654.67   61  199 1079769.32 1992361.23  84.5%   443 2409s
 27807  8655 1251694.21   54  186 1079769.32 1989477.44  84.3%   444 2424s
 28092  8688 1535538.17   52  183 1079769.32 1986550.82  84.0%   446 2439s
 28451  8738 1276103.90   62  204 1079769.32 1979972.03  83.4%   448 2479s
 28751  8787 1309909.55   50  241 1079769.32 1975233.66  82.9%   449 2494s
 29224  8872 1670489.89   63  126 1079769.32 1968615.14  82.3%   450 2510s
 29701  9015     cutoff   61      1079769.32 1961345.06  81.6%   449 2527s
 30091  9062 1133609.87   56   87 1079769.32 1954434.32  81.0%   450 2542s
 30481  9136     cutoff   56      1079769.32 1946126.73  80.2%   452 2558s
 30897  9242 1512330.20   63  158 1079769.32 1939264.51  79.6%   452 2574s
 31157  9292 1641815.45   46  176 1079769.32 1934432.01  79.2%   453 2600s
 31481  9346     cutoff   50      1079769.32 1927364.61  78.5%   455 2617s
 31961  9503 1465967.30   59  164 1079769.32 1920893.08  77.9%   455 2633s
 32376  9577     cutoff   50      1079769.32 1915579.48  77.4%   454 2648s
 32750  9608     cutoff   60      1079769.32 1910963.27  77.0%   455 2664s
 33151  9686     cutoff   58      1079769.32 1901104.63  76.1%   456 2680s
 33482  9718     cutoff   54      1079769.32 1896095.38  75.6%   457 2696s
 33927  9806 1134318.30   48  101 1079769.32 1891395.56  75.2%   457 2712s
 34448  9953 1405397.45   67   51 1079769.32 1887972.17  74.8%   456 2727s
 34882 10022     cutoff   77      1079769.32 1883117.48  74.4%   457 2742s
 35336 10090     cutoff   53      1079769.32 1876384.04  73.8%   457 2758s
 35785 10173 1343977.44   51  238 1079769.32 1871199.42  73.3%   456 2775s
 36170 10229 1527862.55   70  144 1079769.32 1867571.29  73.0%   458 2791s
 36649 10324 1851825.01   64   58 1079769.32 1862714.22  72.5%   457 2806s
 37078 10432 1434034.52   50  189 1079769.32 1856895.28  72.0%   457 2821s
 37506 10513 1281494.12   60   81 1079769.32 1853588.09  71.7%   458 2838s
 37915 10595 1557236.09   53  207 1079769.32 1847907.56  71.1%   459 2853s
 38399 10700 1299460.16   51  159 1079769.32 1845057.20  70.9%   458 2868s
 38828 10782 1427873.61   65  150 1079769.32 1840584.52  70.5%   459 2883s
 39249 10829 1330661.64   49  270 1079769.32 1834701.07  69.9%   459 2898s
 39817 10946 1499735.84   69  100 1079769.32 1828895.78  69.4%   457 2912s
 40277 11028 1611471.78   60  118 1079769.32 1825369.53  69.1%   457 2926s
 40729 11112 1190229.97   56   79 1079769.32 1821088.09  68.7%   457 2941s
 41044 11133 1317434.02   58  184 1079769.32 1818072.06  68.4%   457 2959s
 41479 11209 1425890.04   49   82 1079769.32 1814645.10  68.1%   457 2987s
 41909 11286 1552349.98   56   79 1079769.32 1811715.59  67.8%   457 3001s
 42367 11342 1692095.01   75  124 1079769.32 1808336.58  67.5%   456 3016s
 42905 11475     cutoff   65      1079769.32 1805503.30  67.2%   455 3030s
 43355 11512 infeasible   58      1079769.32 1801366.44  66.8%   455 3044s
 43926 11585 1525520.60   62  106 1079769.32 1795635.06  66.3%   454 3059s
 44441 11683 1715561.28   55   74 1079769.32 1791097.47  65.9%   453 3073s
 44880 11771 1457566.84   75   64 1079769.32 1787545.48  65.5%   453 3087s
 45281 11821 1595697.72   53  123 1079769.32 1784241.73  65.2%   453 3101s
 45811 11911 1242827.88   55  167 1079769.32 1780758.78  64.9%   452 3115s
 46189 11952 1241873.25   55  146 1079769.32 1775754.16  64.5%   452 3168s
 46587 11987 1744893.79   61   91 1079769.32 1773117.81  64.2%   451 3182s
 47102 12122     cutoff   52      1079769.32 1769647.74  63.9%   451 3196s
 47455 12159 1395111.19   50  201 1079769.32 1766745.53  63.6%   450 3210s
 47965 12282 1440038.76   51  198 1079769.32 1763100.57  63.3%   449 3224s
 48445 12382 1574342.91   59   61 1079769.32 1759929.37  63.0%   449 3238s
 48943 12476     cutoff   61      1079769.32 1755951.31  62.6%   448 3251s
 49401 12535 1579143.64   71  110 1079769.32 1753498.59  62.4%   448 3265s
 49885 12676     cutoff   76      1079769.32 1750484.57  62.1%   447 3279s
 50253 12710 1204249.65   77   68 1079769.32 1747676.57  61.9%   447 3292s
 50690 12790 1318889.54   63   51 1079769.32 1745130.52  61.6%   447 3305s
 51106 12858 1525375.63   59   59 1079769.32 1742914.85  61.4%   447 3318s
 51601 12940 1653467.77   60   81 1079769.32 1739941.75  61.1%   446 3331s
 51895 12950     cutoff   68      1079769.32 1737538.29  60.9%   446 3354s
 52410 13007 1731265.01   66   49 1079769.32 1735100.71  60.7%   445 3367s
 53038 13116 1112357.01   54  152 1079769.32 1730323.56  60.2%   444 3379s
 53520 13166     cutoff   80      1079769.32 1727235.82  60.0%   443 3391s
 53857 13161 1512930.07   63   55 1079769.32 1724273.27  59.7%   443 3404s
 54370 13241 1302902.50   50  175 1079769.32 1720352.12  59.3%   442 3416s
 54789 13331 1605162.30   69   53 1079769.32 1717292.32  59.0%   442 3432s
 55042 13380 1198349.66   52  175 1079769.32 1716692.39  59.0%   441 3444s
 55557 13443     cutoff   51      1079769.32 1712430.75  58.6%   440 3457s
 56053 13549 1275397.49   55   73 1079769.32 1710823.31  58.4%   439 3469s
 56461 13583 1437870.36   49  159 1079769.32 1707583.69  58.1%   438 3482s
 56846 13602 1558096.23   49  163 1079769.32 1705812.90  58.0%   438 3493s
 57303 13641 1489806.76   62  135 1079769.32 1703169.93  57.7%   438 3507s
 57696 13686     cutoff   76      1079769.32 1700895.09  57.5%   438 3519s
 58095 13719 1213398.22   47  146 1079769.32 1697628.34  57.2%   438 3531s
 58587 13779 1523234.12   55  162 1079769.32 1694187.57  56.9%   437 3543s
 59168 13903 1413657.68   61   92 1079769.32 1691516.54  56.7%   436 3555s
 59618 13970 1538358.48   58  125 1079769.32 1689863.02  56.5%   436 3566s
 60009 14002     cutoff   54      1079769.32 1687365.89  56.3%   436 3577s
 60468 14081     cutoff   58      1079769.32 1685092.31  56.1%   435 3589s
 60879 14161     cutoff   55      1079769.32 1682339.05  55.8%   435 3648s
 61179 14173 1214371.08   70   70 1079769.32 1680554.47  55.6%   435 3660s
 61653 14199 infeasible   57      1079769.32 1678997.81  55.5%   434 3671s
 62067 14242 1643737.72   76   85 1079769.32 1676072.37  55.2%   434 3684s
 62387 14270 1350677.83   58  151 1079769.32 1674668.09  55.1%   434 3708s
 62884 14346     cutoff   70      1079769.32 1672315.97  54.9%   433 3721s
 63350 14410 1274396.00   64   69 1079769.32 1669836.15  54.6%   433 3733s
 63749 14447 1505003.01   52  146 1079769.32 1667647.32  54.4%   433 3745s
 64169 14464 1604417.09   73   84 1079769.32 1665598.55  54.3%   433 3758s
 64749 14550 1407425.37   63  110 1079769.32 1661851.15  53.9%   431 3769s
 65182 14593 1469977.96   55  208 1079769.32 1659798.74  53.7%   431 3781s
 65574 14607 1228389.71   76  127 1079769.32 1657577.83  53.5%   431 3793s
 66096 14686     cutoff   40      1079769.32 1655346.14  53.3%   430 3804s
 66409 14664 1618840.53   70   96 1079769.32 1653646.86  53.1%   430 3817s
 66935 14772 1531487.63   60   65 1079769.32 1651097.68  52.9%   430 3828s
 67348 14782 1415700.24   48   98 1079769.32 1648128.01  52.6%   429 3839s
 67788 14846     cutoff   46      1079769.32 1645540.18  52.4%   429 3851s
 68064 14843 1284391.03   45  198 1079769.32 1644458.20  52.3%   429 3874s
 68427 14869     cutoff   48      1079769.32 1642793.92  52.1%   428 3886s
 68918 14925     cutoff  123      1079769.32 1640241.18  51.9%   427 3898s
 69389 15044 1265164.99   76   37 1079769.32 1638248.32  51.7%   427 3909s
 69828 15052 infeasible   82      1079769.32 1636556.29  51.6%   426 3921s
 70303 15124 1533107.85   52   96 1079769.32 1633344.98  51.3%   426 3932s
 70714 15163 1466322.79   57   56 1079769.32 1631750.20  51.1%   425 3943s
 71144 15169 1189517.96   75  136 1079769.32 1629782.91  50.9%   425 3954s
 71629 15203     cutoff   73      1079769.32 1626445.87  50.6%   424 3965s
 72056 15245 1368132.47   80   78 1079769.32 1624855.76  50.5%   424 3976s
 72541 15286 1340213.29   79  120 1079769.32 1622243.23  50.2%   423 3987s
 72970 15330 1222557.74   89   92 1079769.32 1620507.99  50.1%   423 4008s
 73456 15398 1104424.47   72   59 1079769.32 1617573.39  49.8%   422 4019s
 73842 15411 1354270.27   82   99 1079769.32 1616292.44  49.7%   422 4030s
 74197 15436 1550185.27   70  108 1079769.32 1614206.79  49.5%   422 4040s
 74668 15452     cutoff   67      1079769.32 1612557.32  49.3%   422 4050s
 75086 15488 1234131.17   67   76 1079769.32 1611167.69  49.2%   421 4063s
 75363 15487     cutoff   69      1079769.32 1609216.73  49.0%   422 4074s
 75771 15522 1432285.23   70   98 1079769.32 1607458.44  48.9%   421 4085s
 76229 15574 1583263.44   63  122 1079769.32 1605993.41  48.7%   421 4095s
 76720 15623 1316904.80   67   74 1079769.32 1602812.78  48.4%   420 4106s
 77080 15611     cutoff   71      1079769.32 1601506.49  48.3%   420 4117s
 77541 15659     cutoff   56      1079769.32 1598642.99  48.1%   420 4127s
 77937 15695 1403795.57   75   71 1079769.32 1598142.09  48.0%   420 4140s
 78435 15751 1191655.70   63  117 1079769.32 1595623.68  47.8%   419 4150s
 78820 15778 1082429.94   76   48 1079769.32 1593849.35  47.6%   419 4161s
 79275 15823     cutoff   61      1079769.32 1592307.72  47.5%   419 4171s
 79773 15934     cutoff   58      1079769.32 1591239.23  47.4%   418 4181s
 80123 15923     cutoff   47      1079769.32 1589486.97  47.2%   418 4192s
 80554 15921 infeasible   66      1079769.32 1587275.87  47.0%   418 4202s
 81003 15975 1534664.23   52   90 1079769.32 1585335.49  46.8%   418 4213s
 81459 15991 1528615.48   72   32 1079769.32 1583566.39  46.7%   417 4224s
 81997 16024     cutoff   50      1079769.32 1581929.94  46.5%   416 4234s
 82392 16034 1465794.85   69   65 1079769.32 1579943.52  46.3%   416 4243s
 82847 16120     cutoff   57      1079769.32 1578887.12  46.2%   416 4254s
 83011 16072 1146146.57   57   90 1079769.32 1577877.57  46.1%   416 4265s
 83487 16117 1384681.97   60   51 1079769.32 1576101.26  46.0%   415 4285s
 83938 16161 1334595.42   63   83 1079769.32 1575446.00  45.9%   415 4295s
 84413 16217 1444991.12   72   52 1079769.32 1572893.80  45.7%   414 4305s
 84854 16264     cutoff   58      1079769.32 1570916.59  45.5%   414 4314s
 85146 16326     cutoff   56      1079769.32 1569660.07  45.4%   414 4315s
 85264 16286 1408842.41   57   67 1079769.32 1569660.07  45.4%   413 4324s
 85701 16318     cutoff   80      1079769.32 1568194.71  45.2%   413 4333s
 86131 16356     cutoff   76      1079769.32 1565804.76  45.0%   413 4343s
 86565 16387 1253956.75   70   78 1079769.32 1564197.45  44.9%   412 4352s
 86975 16417     cutoff   52      1079769.32 1562533.27  44.7%   412 4362s
 87442 16457     cutoff   88      1079769.32 1561129.02  44.6%   412 4372s
 87800 16469 1189311.79   58  139 1079769.32 1559726.56  44.4%   412 4381s
 88211 16488     cutoff   63      1079769.32 1558805.47  44.4%   411 4391s
 88608 16504 1547245.23   56   63 1079769.32 1557653.65  44.3%   411 4400s
 89026 16556 1424372.92   50  122 1079769.32 1556681.29  44.2%   411 4410s
H89242 16604                    1079769.3207 1556509.91  44.2%   411 4410s
 89448 16610     cutoff   51      1079769.32 1554659.30  44.0%   410 4422s
 89711 16606     cutoff   60      1079769.32 1553862.52  43.9%   410 4433s
 89946 16629 1374700.95   81   74 1079769.32 1553327.19  43.9%   410 4443s
 90160 16644     cutoff   62      1079769.32 1552386.01  43.8%   410 4454s
 90363 16619 1419107.61   58   78 1079769.32 1551392.83  43.7%   410 4464s
 90687 16631     cutoff   60      1079769.32 1549523.52  43.5%   410 4474s
 91087 16631     cutoff   78      1079769.32 1549523.52  43.5%   410 4483s
 91455 16646     cutoff   75      1079769.32 1546259.02  43.2%   410 4493s
 91896 16661     cutoff   90      1079769.32 1544529.50  43.0%   409 4504s
 92285 16691 1503768.01   58   90 1079769.32 1543044.71  42.9%   409 4514s
 92584 16665 1157387.39   58  132 1079769.32 1542083.06  42.8%   409 4524s
 93019 16647     cutoff   69      1079769.32 1540493.87  42.7%   409 4535s
 93489 16708 1178086.46   67   46 1079769.32 1538698.21  42.5%   409 4544s
 93883 16701 1370509.21   59  107 1079769.32 1537223.34  42.4%   408 4565s
 94258 16690     cutoff   53      1079769.32 1535986.95  42.3%   408 4574s
 94666 16686     cutoff   74      1079769.32 1534160.81  42.1%   408 4585s
 95109 16756 1089387.56   56   74 1079769.32 1532936.76  42.0%   408 4596s
 95320 16712 1390705.20   62  102 1079769.32 1532184.14  41.9%   407 4605s
 95749 16719 1387945.79   62   77 1079769.32 1530463.64  41.7%   407 4614s
 96152 16723 1193913.18   62  124 1079769.32 1529193.14  41.6%   407 4624s
 96552 16754     cutoff   61      1079769.32 1527620.80  41.5%   407 4634s
 96965 16738     cutoff   59      1079769.32 1526589.06  41.4%   407 4643s
 97408 16734     cutoff   79      1079769.32 1525260.85  41.3%   406 4652s
 97785 16713 1518637.07   51  101 1079769.32 1524075.17  41.1%   406 4661s
 98156 16682 1131881.32   71   54 1079769.32 1522378.29  41.0%   406 4673s
 98522 16680 1249019.26   57  168 1079769.32 1521060.68  40.9%   406 4682s
 98991 16715     cutoff   54      1079769.32 1519509.38  40.7%   405 4691s
 99375 16712     cutoff   54      1079769.32 1518818.73  40.7%   405 4700s
 99664 16675 1483529.72   46   75 1079769.32 1516912.83  40.5%   405 4709s
 100084 16663 1333021.06   65  125 1079769.32 1515526.76  40.4%   405 4722s
 100463 16672 1430280.06   62  139 1079769.32 1514360.61  40.2%   405 4736s
 100834 16686 1461350.42   57   83 1079769.32 1513148.64  40.1%   405 4746s
 101214 16715 1448801.12   63  113 1079769.32 1511615.03  40.0%   405 4755s
 101668 16750 1425653.67   70   46 1079769.32 1509597.44  39.8%   404 4764s
 102035 16756     cutoff   72      1079769.32 1508400.30  39.7%   404 4775s
 102258 16704 1464568.10   61   59 1079769.32 1507380.27  39.6%   404 4785s
 102672 16711 1129014.27   44  124 1079769.32 1506501.53  39.5%   404 4793s
 103110 16717 infeasible   65      1079769.32 1504814.71  39.4%   403 4802s
 103508 16747 1448665.15   78   58 1079769.32 1503127.59  39.2%   403 4811s
 103892 16741 1177492.19   74  138 1079769.32 1501795.10  39.1%   403 4820s
 104243 16729     cutoff   63      1079769.32 1500542.03  39.0%   403 4830s
 104650 16754 1468919.69   81   54 1079769.32 1498968.55  38.8%   402 4852s
 105058 16741 1175817.80   68   54 1079769.32 1497856.86  38.7%   402 4860s
 105442 16718     cutoff   51      1079769.32 1496160.08  38.6%   402 4869s
 105844 16710 1258604.37   64  101 1079769.32 1494322.25  38.4%   401 4879s
 106250 16712     cutoff   69      1079769.32 1493152.75  38.3%   401 4887s
 106599 16698     cutoff   83      1079769.32 1491837.08  38.2%   401 4896s
 106978 16680     cutoff   66      1079769.32 1490707.44  38.1%   401 4904s
 107346 16662 1440310.74   59   66 1079769.32 1488767.95  37.9%   401 4913s
 107797 16672 infeasible   63      1079769.32 1487589.50  37.8%   400 4922s
 108212 16668     cutoff   80      1079769.32 1486616.22  37.7%   400 4931s
 108593 16685 1480642.89   60   31 1079769.32 1485344.71  37.6%   399 4940s
 108975 16671     cutoff   78      1079769.32 1484171.16  37.5%   399 4949s
 109324 16661     cutoff   67      1079769.32 1483094.48  37.4%   399 4958s
 109734 16649 1211526.35   93  115 1079769.32 1482076.60  37.3%   399 4967s
 110089 16622     cutoff   64      1079769.32 1480571.28  37.1%   399 4975s
 110428 16603 1276031.30   72   86 1079769.32 1479012.74  37.0%   399 4983s
 110736 16574 1455768.71   68   92 1079769.32 1477937.25  36.9%   399 4993s
 111162 16575 1422170.06  101  110 1079769.32 1476294.34  36.7%   398 5002s
 111601 16585     cutoff   73      1079769.32 1475099.79  36.6%   398 5011s
 112029 16597 1103841.72   57  111 1079769.32 1473956.85  36.5%   397 5019s
 112428 16578 1461478.43   48   73 1079769.32 1472389.12  36.4%   397 5027s
 112789 16581 1432204.49   65   42 1079769.32 1471173.94  36.2%   397 5035s
 113115 16542     cutoff   80      1079769.32 1470156.34  36.2%   397 5044s
 113490 16526     cutoff   75      1079769.32 1468748.39  36.0%   397 5052s
 113860 16530 1110454.24   62   65 1079769.32 1467572.60  35.9%   396 5060s
 114162 16492 1360995.58   60   81 1079769.32 1466197.71  35.8%   396 5069s
 114494 16474 1162070.72   59  122 1079769.32 1465170.02  35.7%   396 5077s
 114883 16469 1415557.56   64   72 1079769.32 1464130.73  35.6%   396 5085s
 115218 16427 1346027.25   65   81 1079769.32 1462644.00  35.5%   396 5092s
 115547 16414     cutoff   59      1079769.32 1461396.27  35.3%   396 5100s
 115854 16380 1412132.98   69   77 1079769.32 1460271.01  35.2%   396 5109s
 116197 16343     cutoff   71      1079769.32 1459134.00  35.1%   395 5118s
 116547 16350     cutoff   66      1079769.32 1457636.18  35.0%   395 5127s
 116842 16322     cutoff   70      1079769.32 1456677.80  34.9%   395 5136s
 117264 16331     cutoff   62      1079769.32 1455826.53  34.8%   395 5154s
 117652 16313     cutoff   54      1079769.32 1454304.52  34.7%   395 5162s
 118100 16324     cutoff   66      1079769.32 1452889.15  34.6%   394 5170s
 118367 16293 1303009.81   63   56 1079769.32 1451568.15  34.4%   394 5179s
 118737 16286 infeasible   61      1079769.32 1450499.93  34.3%   394 5188s
 119097 16277 1211601.06   56  171 1079769.32 1449262.81  34.2%   394 5196s
 119464 16265 1433932.31   77   35 1079769.32 1448320.47  34.1%   394 5204s
 119767 16228 1419931.78   58   49 1079769.32 1447159.11  34.0%   394 5212s
 120063 16183     cutoff   76      1079769.32 1445898.16  33.9%   394 5220s
 120421 16148 1165184.08   62   15 1079769.32 1444742.45  33.8%   394 5228s
 120743 16105     cutoff   61      1079769.32 1443313.24  33.7%   393 5236s
 121107 16092 1119673.92   80  209 1079769.32 1442229.71  33.6%   393 5244s
 121392 16044     cutoff   59      1079769.32 1440902.35  33.4%   393 5251s
 121643 16006 1198645.58   67   71 1079769.32 1439510.69  33.3%   393 5259s
 122023 16027 1289957.83   79   90 1079769.32 1438791.27  33.2%   393 5268s
 122397 16021 1115932.24   59  132 1079769.32 1437525.92  33.1%   393 5277s
 122773 15994 1333666.50   63   81 1079769.32 1436383.80  33.0%   393 5285s
 123020 15939     cutoff   82      1079769.32 1435181.12  32.9%   393 5292s
 123356 15896 1186182.92   62  186 1079769.32 1433721.68  32.8%   393 5301s
 123704 15860 1291829.12   65   38 1079769.32 1432366.56  32.7%   392 5310s
 124102 15837 1115349.76   53   85 1079769.32 1431176.70  32.5%   392 5318s
 124444 15804 1130557.80   75   53 1079769.32 1429926.82  32.4%   392 5327s
 124777 15778     cutoff   60      1079769.32 1428714.01  32.3%   392 5383s
 125083 15732 1235253.88   58  175 1079769.32 1427205.57  32.2%   392 5390s
 125395 15699     cutoff   73      1079769.32 1426063.85  32.1%   392 5397s
 125773 15676     cutoff   68      1079769.32 1424990.51  32.0%   392 5406s
 126057 15640     cutoff   89      1079769.32 1424193.84  31.9%   391 5414s
 126449 15650     cutoff   45      1079769.32 1422572.56  31.7%   391 5423s
 126807 15641     cutoff   75      1079769.32 1421607.89  31.7%   391 5431s
 127150 15625 1373127.01   63  116 1079769.32 1420168.00  31.5%   391 5439s
 127451 15582     cutoff   62      1079769.32 1419083.12  31.4%   391 5447s
 127767 15546     cutoff   56      1079769.32 1418011.41  31.3%   391 5456s
 128205 15544     cutoff   72      1079769.32 1416776.06  31.2%   390 5465s
 128586 15535     cutoff   73      1079769.32 1415509.44  31.1%   390 5473s
 128931 15493 1344826.00   58  201 1079769.32 1414527.08  31.0%   390 5483s
 129185 15439     cutoff   61      1079769.32 1413415.76  30.9%   390 5493s
 129484 15411 1276710.82   67  150 1079769.32 1412624.43  30.8%   390 5502s
 129823 15380 1163079.57   62  152 1079769.32 1411375.72  30.7%   390 5511s
 130221 15376 1126698.11   57   86 1079769.32 1410171.07  30.6%   390 5521s
 130483 15326 1244490.42   56  108 1079769.32 1408860.86  30.5%   390 5529s
 130769 15285 1165640.16   65  128 1079769.32 1407556.76  30.4%   389 5539s
 131079 15267     cutoff   60      1079769.32 1406594.86  30.3%   389 5547s
 131288 15191     cutoff   68      1079769.32 1405161.68  30.1%   390 5554s
 131573 15143 1198270.04   65   49 1079769.32 1403928.86  30.0%   389 5561s
 131870 15116 1235735.04   58   59 1079769.32 1402593.51  29.9%   389 5567s
 132169 15082 1259181.94   75   39 1079769.32 1401404.04  29.8%   389 5575s
 132475 15032     cutoff   65      1079769.32 1400158.78  29.7%   389 5582s
 132744 14997     cutoff   69      1079769.32 1399202.20  29.6%   389 5591s
 133046 15043     cutoff   83      1079769.32 1398163.76  29.5%   389 5606s
 133073 14957 1216347.73   61  101 1079769.32 1398067.55  29.5%   389 5614s
 133399 14951     cutoff   51      1079769.32 1397036.31  29.4%   389 5621s
 133737 14927 1254598.77   74   27 1079769.32 1395641.12  29.3%   389 5629s
 134081 14896 1176019.27   60   70 1079769.32 1394575.09  29.2%   389 5638s
 134451 14873 infeasible   51      1079769.32 1393569.55  29.1%   389 5645s
 134750 14851     cutoff   70      1079769.32 1392109.47  28.9%   388 5651s
 135081 14802     cutoff   83      1079769.32 1391031.32  28.8%   388 5658s
 135340 14759     cutoff   63      1079769.32 1389893.78  28.7%   388 5665s
 135621 14702     cutoff   77      1079769.32 1388697.51  28.6%   388 5674s
 135947 14687     cutoff   58      1079769.32 1387383.68  28.5%   388 5681s
 136197 14632 1378710.66   61   75 1079769.32 1386426.60  28.4%   388 5689s
 136479 14608     cutoff   71      1079769.32 1385158.09  28.3%   388 5696s
 136767 14577     cutoff   67      1079769.32 1383823.94  28.2%   388 5701s
 136997 14515 1221754.77   80   63 1079769.32 1382651.98  28.1%   388 5708s
 137271 14456     cutoff   78      1079769.32 1381560.58  27.9%   388 5716s
 137538 14398     cutoff   57      1079769.32 1380117.46  27.8%   388 5724s
 137906 14365     cutoff   69      1079769.32 1379221.20  27.7%   388 5731s
 138200 14334 1216279.46   61   49 1079769.32 1377853.54  27.6%   388 5741s
 138499 14294     cutoff   60      1079769.32 1376767.93  27.5%   388 5748s
 138751 14238     cutoff   71      1079769.32 1375538.67  27.4%   388 5756s
 139108 14213 1231561.95   70   44 1079769.32 1374432.50  27.3%   387 5762s
 139420 14159     cutoff   67      1079769.32 1373113.49  27.2%   387 5769s
 139734 14113 1316893.51   72   59 1079769.32 1371879.22  27.1%   387 5776s
 139994 14068     cutoff   53      1079769.32 1370768.68  27.0%   387 5784s
 140297 14024     cutoff   85      1079769.32 1369875.74  26.9%   387 5791s
 140588 14008     cutoff   55      1079769.32 1368751.03  26.8%   387 5799s
 140912 13962 1317247.84   61   93 1079769.32 1367690.45  26.7%   387 5806s
 141185 13903 1313056.19   49   56 1079769.32 1366620.91  26.6%   387 5813s
 141470 13850     cutoff   52      1079769.32 1365692.82  26.5%   387 5823s
 141720 13795 1100652.93   69   81 1079769.32 1364724.57  26.4%   387 5830s
 141947 13735 1325262.62   68   61 1079769.32 1363718.54  26.3%   387 5838s
 142294 13700     cutoff   57      1079769.32 1362785.80  26.2%   386 5845s
 142547 13671 1289287.13   91   55 1079769.32 1361820.76  26.1%   386 5854s
 142922 13647     cutoff   64      1079769.32 1360984.23  26.0%   386 5860s
 143167 13600 1321453.99   69   61 1079769.32 1360017.00  26.0%   386 5868s
 143456 13548 1295396.07   57   40 1079769.32 1358832.85  25.8%   386 5940s
 143727 13501 1255392.31   80   39 1079769.32 1357641.76  25.7%   386 5948s
 144042 13469 1323195.02   51  155 1079769.32 1356664.09  25.6%   386 5954s
 144319 13430 1089762.66   67   54 1079769.32 1355672.75  25.6%   385 5962s
 144601 13394     cutoff   47      1079769.32 1354486.91  25.4%   385 5971s
 144961 13348     cutoff   50      1079769.32 1353346.42  25.3%   385 5979s
 145207 13284     cutoff   80      1079769.32 1352448.01  25.3%   385 5986s
 145549 13260     cutoff   64      1079769.32 1351258.98  25.1%   385 5995s
 145849 13274     cutoff   56      1079769.32 1350319.42  25.1%   385 6010s
 145967 13208     cutoff   81      1079769.32 1350057.53  25.0%   385 6018s
 146300 13151     cutoff   60      1079769.32 1348933.18  24.9%   385 6025s
 146603 13113     cutoff   65      1079769.32 1347960.73  24.8%   385 6032s
 146938 13064     cutoff   70      1079769.32 1346808.70  24.7%   385 6038s
 147218 13002     cutoff   49      1079769.32 1345712.64  24.6%   384 6044s
 147481 12965     cutoff   73      1079769.32 1344583.94  24.5%   384 6052s
 147760 12930     cutoff   70      1079769.32 1343538.04  24.4%   384 6064s
 147974 12878 1270054.38   66   49 1079769.32 1343397.26  24.4%   384 6069s
 148224 12817 1204199.02   57   42 1079769.32 1341636.13  24.3%   384 6076s
 148567 12779     cutoff   62      1079769.32 1340622.10  24.2%   384 6082s
 148834 12724 1288850.02   76   40 1079769.32 1339433.97  24.0%   384 6088s
 149121 12679 1282772.91   68  134 1079769.32 1338208.42  23.9%   384 6095s
 149406 12624     cutoff   62      1079769.32 1337177.99  23.8%   384 6102s
 149712 12581     cutoff   65      1079769.32 1335844.50  23.7%   383 6109s
 149955 12534     cutoff   57      1079769.32 1334948.26  23.6%   383 6115s
 150183 12466     cutoff   71      1079769.32 1333931.70  23.5%   383 6121s
 150445 12414 1134154.07   70   22 1079769.32 1333009.55  23.5%   383 6127s
 150706 12351 1317919.14   66   69 1079769.32 1331932.73  23.4%   383 6133s
 151006 12308     cutoff   72      1079769.32 1331083.93  23.3%   383 6141s
 151343 12260 1280230.50   70   65 1079769.32 1330097.25  23.2%   383 6148s
 151618 12203 1240159.33   66   55 1079769.32 1328798.62  23.1%   383 6152s
 151872 12153     cutoff   65      1079769.32 1327722.62  23.0%   382 6158s
 152110 12084     cutoff   77      1079769.32 1326797.89  22.9%   382 6164s
 152461 12044 1310800.23   79   32 1079769.32 1325716.17  22.8%   382 6171s
 152789 12015     cutoff   97      1079769.32 1324797.98  22.7%   382 6176s
 153055 11963     cutoff   63      1079769.32 1323706.50  22.6%   382 6181s
 153306 11907     cutoff   70      1079769.32 1322642.49  22.5%   382 6187s
 153564 11860     cutoff   65      1079769.32 1321695.12  22.4%   382 6193s
 153839 11816     cutoff   68      1079769.32 1320605.61  22.3%   382 6201s
 154079 11749 1198939.06   57   76 1079769.32 1319686.96  22.2%   382 6209s
 154346 11709 1237967.57   61  121 1079769.32 1318800.86  22.1%   382 6215s
 154887 11602     cutoff   79      1079769.32 1317142.91  22.0%   381 6227s
 155161 11533 1154127.16   82   45 1079769.32 1316132.50  21.9%   381 6233s
 155416 11478 1298081.92   67   39 1079769.32 1315067.74  21.8%   381 6237s
 155652 11426     cutoff   65      1079769.32 1314083.84  21.7%   381 6242s
 155898 11381     cutoff   59      1079769.32 1313112.23  21.6%   381 6249s
 156139 11324     cutoff   72      1079769.32 1312289.50  21.5%   381 6254s
 156401 11262     cutoff   64      1079769.32 1311351.20  21.4%   381 6262s
 156697 11220     cutoff   77      1079769.32 1310223.61  21.3%   380 6267s
 156927 11155     cutoff   62      1079769.32 1309313.74  21.3%   380 6273s
 157173 11093     cutoff   91      1079769.32 1308491.97  21.2%   380 6279s
 157473 11042     cutoff   65      1079769.32 1307511.57  21.1%   380 6285s
 157785 11003     cutoff   66      1079769.32 1306444.59  21.0%   380 6291s
 158063 10942     cutoff   76      1079769.32 1305502.63  20.9%   380 6297s
 158294 10881 1155959.40   61  130 1079769.32 1304483.60  20.8%   380 6301s
 158514 10826     cutoff   72      1079769.32 1303616.35  20.7%   380 6306s
 158747 10770 infeasible   74      1079769.32 1302728.08  20.6%   380 6311s
 159011 10714     cutoff   75      1079769.32 1301773.01  20.6%   379 6317s
 159234 10670 1167796.92   51   87 1079769.32 1300691.76  20.5%   379 6323s
 159477 10613     cutoff   55      1079769.32 1299652.64  20.4%   379 6329s
 159779 10578 1280969.45   59  100 1079769.32 1298859.62  20.3%   379 6337s
 160026 10517 infeasible   70      1079769.32 1298029.72  20.2%   379 6342s
 160193 10443     cutoff   59      1079769.32 1297040.47  20.1%   379 6349s
 160453 10386     cutoff   55      1079769.32 1295929.85  20.0%   379 6355s
 160881 10264     cutoff   67      1079769.32 1293833.40  19.8%   379 6367s
 161213 10241     cutoff   72      1079769.32 1292998.43  19.7%   379 6373s
 161444 10182     cutoff   72      1079769.32 1291804.73  19.6%   379 6378s
 161663 10113 1123269.16   68  166 1079769.32 1290699.25  19.5%   378 6383s
 161946 10117     cutoff   73      1079769.32 1289710.17  19.4%   378 6400s
 162027 10037     cutoff   67      1079769.32 1289556.37  19.4%   378 6406s
 162277  9977     cutoff   62      1079769.32 1288391.77  19.3%   378 6410s
 162473  9903     cutoff   74      1079769.32 1287461.66  19.2%   378 6415s
 162738  9838     cutoff   68      1079769.32 1286539.58  19.1%   378 6421s
 162982  9800     cutoff   57      1079769.32 1285470.69  19.1%   378 6426s
 163228  9735 1247242.30   68   52 1079769.32 1284606.55  19.0%   378 6431s
 163434  9668 1192749.06   68   80 1079769.32 1283599.55  18.9%   378 6435s
 163656  9611     cutoff   70      1079769.32 1282535.96  18.8%   378 6440s
 163877  9537 1239554.57   57   80 1079769.32 1281518.59  18.7%   378 6445s
 164090  9475 1162311.91   91   21 1079769.32 1280578.30  18.6%   377 6450s
 164339  9416     cutoff   86      1079769.32 1279717.44  18.5%   377 6457s
 164508  9343     cutoff   76      1079769.32 1278602.26  18.4%   377 6461s
 164711  9270 1216614.65   76   38 1079769.32 1277740.98  18.3%   377 6465s
 165074  9133 infeasible   54      1079769.32 1275928.19  18.2%   377 6473s
 165219  9052 1263914.37   58   78 1079769.32 1275088.59  18.1%   377 6478s
 165475  8986     cutoff   68      1079769.32 1274201.40  18.0%   377 6483s
 165718  8921     cutoff   54      1079769.32 1273320.87  17.9%   377 6487s
 165934  8847     cutoff   66      1079769.32 1272519.76  17.9%   377 6491s
 166152  8778     cutoff   69      1079769.32 1271401.22  17.7%   377 6497s
 166429  8739 1232233.52   72   58 1079769.32 1270268.91  17.6%   377 6501s
 166614  8663 1241917.98   58   80 1079769.32 1269336.76  17.6%   377 6508s
 166809  8597     cutoff   65      1079769.32 1268391.52  17.5%   377 6513s
 167004  8530     cutoff   60      1079769.32 1267226.93  17.4%   376 6518s
 167214  8469     cutoff   63      1079769.32 1266355.78  17.3%   376 6523s
 167451  8420     cutoff   76      1079769.32 1265427.85  17.2%   376 6527s
 167636  8352     cutoff   56      1079769.32 1264431.56  17.1%   376 6531s
 167812  8274 1242409.86   66   47 1079769.32 1263542.14  17.0%   376 6535s
 168204  8131 1232649.82   73   76 1079769.32 1261659.64  16.8%   376 6542s
 168397  8056     cutoff   78      1079769.32 1260769.76  16.8%   376 6547s
 168599  7979 1243727.05   61  100 1079769.32 1259771.62  16.7%   376 6551s
 168786  7903 1254103.47   68   57 1079769.32 1258548.64  16.6%   376 6555s
 169187  7760     cutoff   67      1079769.32 1256653.93  16.4%   375 6564s
 169413  7704 1137452.28   79  143 1079769.32 1255814.64  16.3%   375 6569s
 169588  7622 1241545.40   70   68 1079769.32 1254667.80  16.2%   375 6573s
 169809  7554 1231748.66   78   49 1079769.32 1253768.27  16.1%   375 6578s
 170018  7481     cutoff   60      1079769.32 1252902.23  16.0%   375 6582s
 170188  7408     cutoff   69      1079769.32 1252087.82  16.0%   375 6586s
 170594  7286 1199463.08   79   91 1079769.32 1249904.59  15.8%   375 6593s
 170793  7211     cutoff   54      1079769.32 1249009.77  15.7%   375 6598s
 170982  7135     cutoff   54      1079769.32 1248162.55  15.6%   375 6602s
 171200  7058     cutoff   51      1079769.32 1247073.72  15.5%   375 6607s
 171371  6980     cutoff   75      1079769.32 1245917.61  15.4%   375 6611s
 171583  6914     cutoff   62      1079769.32 1244976.53  15.3%   375 6616s
 171778  6840 1134114.69   47  126 1079769.32 1244093.08  15.2%   375 6621s
 171985  6778     cutoff   76      1079769.32 1243180.41  15.1%   374 6625s
 172362  6639 1164150.02   65   48 1079769.32 1241092.15  14.9%   374 6633s
 172615  6584     cutoff   60      1079769.32 1239996.27  14.8%   374 6637s
 172829  6522     cutoff   62      1079769.32 1239122.12  14.8%   374 6642s
 173013  6454     cutoff   64      1079769.32 1237977.89  14.7%   374 6648s
 173206  6378     cutoff   63      1079769.32 1236854.97  14.5%   374 6652s
 173419  6313 1197815.97   84   49 1079769.32 1235747.18  14.4%   374 6657s
 173579  6236 1173996.13   56  158 1079769.32 1234672.61  14.3%   374 6660s
 173922  6073     cutoff   74      1079769.32 1232518.23  14.1%   374 6667s
 174092  5997     cutoff   62      1079769.32 1231569.86  14.1%   374 6672s
 174280  5934     cutoff   60      1079769.32 1230779.31  14.0%   374 6675s
 174593  5778     cutoff   65      1079769.32 1228534.47  13.8%   373 6682s
 174765  5698 1220834.47   59   48 1079769.32 1227371.99  13.7%   373 6686s
 175007  5627     cutoff   68      1079769.32 1226248.95  13.6%   373 6690s
 175204  5558 1126570.23   71   38 1079769.32 1225168.31  13.5%   373 6695s
 175599  5408     cutoff   79      1079769.32 1222870.84  13.3%   373 6702s
 175795  5336 infeasible   56      1079769.32 1221718.98  13.1%   373 6705s
 175969  5264     cutoff   71      1079769.32 1220486.90  13.0%   373 6711s
 176355  5128     cutoff   65      1079769.32 1218470.68  12.8%   373 6718s
 176564  5058     cutoff   67      1079769.32 1217218.31  12.7%   372 6722s
 176696  4981 1183257.19   82  136 1079769.32 1216191.77  12.6%   372 6726s
 177093  4846     cutoff   72      1079769.32 1213965.97  12.4%   372 6732s
 177239  4771     cutoff   85      1079769.32 1212823.37  12.3%   372 6736s
 177531  4615 1175265.79   64   98 1079769.32 1210221.80  12.1%   372 6742s
 177677  4533     cutoff   54      1079769.32 1209117.89  12.0%   372 6745s
 177954  4373     cutoff   68      1079769.32 1206548.78  11.7%   372 6751s
 178105  4294     cutoff   67      1079769.32 1205505.71  11.6%   372 6755s
 178399  4139     cutoff   57      1079769.32 1202820.63  11.4%   372 6762s
 178539  4058     cutoff   82      1079769.32 1201681.55  11.3%   372 6765s
 178677  4018 1135579.93   67  206 1079769.32 1200447.07  11.2%   372 6787s
 178889  3851     cutoff   54      1079769.32 1198611.07  11.0%   372 6792s
 179034  3770 1182556.33   61   81 1079769.32 1197301.47  10.9%   372 6797s
 179292  3610     cutoff   58      1079769.32 1194447.57  10.6%   372 6802s
 179565  3446     cutoff   54      1079769.32 1191742.61  10.4%   372 6807s
 179827  3283 1136238.54   76   58 1079769.32 1189263.76  10.1%   371 6813s
 180022  3203 1176071.35   72   52 1079769.32 1187865.18  10.0%   371 6816s
 180340  3047     cutoff  107      1079769.32 1185414.49  9.78%   371 6822s
 180665  2896     cutoff   69      1079769.32 1182584.17  9.52%   371 6826s
 180925  2733     cutoff   71      1079769.32 1179402.62  9.23%   371 6833s
 181055  2656     cutoff   75      1079769.32 1177877.50  9.09%   371 6835s
 181340  2497     cutoff   68      1079769.32 1175164.95  8.83%   371 6841s
 181622  2335     cutoff   65      1079769.32 1171870.02  8.53%   371 6846s
 181880  2176 1168500.17   64   54 1079769.32 1168503.33  8.22%   370 6853s
 182025  2098     cutoff   65      1079769.32 1166813.96  8.06%   370 6857s
 182157  2015     cutoff   64      1079769.32 1164716.70  7.87%   370 6860s
 182467  1858     cutoff   68      1079769.32 1161408.02  7.56%   370 6865s
 182773  1698     cutoff   66      1079769.32 1157581.79  7.21%   370 6870s
 183164  1452     cutoff   70      1079769.32 1152134.52  6.70%   370 6877s
 183275  1369     cutoff   59      1079769.32 1150262.49  6.53%   370 6880s
 183515  1203 infeasible   54      1079769.32 1146813.02  6.21%   370 6885s
 183874   953 1092474.60   61  131 1079769.32 1139352.66  5.52%   370 6892s
 184101   786 infeasible   52      1079769.32 1134870.10  5.10%   369 6896s
 184311   619     cutoff   60      1079769.32 1129563.66  4.61%   369 6900s
 184508   451     cutoff   78      1079769.32 1120874.38  3.81%   369 6905s
 184707   284     cutoff   53      1079769.32 1111861.57  2.97%   369 6910s
 184909   116 infeasible   79      1079769.32 1100086.91  1.88%   369 6917s
 185002    32 infeasible   76      1079769.32 1092046.28  1.14%   369 6921s

Cutting planes:
  Gomory: 59
  Cover: 5
  Implied bound: 138
  Projected implied bound: 51
  MIR: 91
  Flow cover: 904
  Inf proof: 1

Explored 185118 nodes (68508838 simplex iterations) in 6927.19 seconds
Thread count was 4 (of 16 available processors)

Solution count 10: 1.07977e+06 1.07977e+06 1.07977e+06 ... 864882

Optimal solution found (tolerance 1.00e-04)
Best objective 1.079769212879e+06, best bound 1.079769320702e+06, gap 0.0000%

***
***  |- Calculation finished, took 6,927.25 (6927.25) sec.
***  |-----------------------------------------------------------------------------------------------------------------------
***
*****************************************************************************************************************************
#############################################################################################################################
###
### Results
###
### The objective of the solution is 1,079,769.2129 (1079769.2129) and is feasible with a Gap of 0.0
###
### Service 81 (MECL1) is operated by 6 vessels from type 30 (PMax35)
###  |- Vessel  9 has the path [9, 332, 326, 342, 333, 324, 4, 294, 284, 7, 298, 196, 0]
###  |  9 (BEANR Out@344.0) - 332 (USEWR In@608.0/Out@618.0) - 326 (USCHS In@656.0/Out@666.0) - 342 (USORF In@691.0/Out@704.0
###  |  ) - 333 (USEWR In@728.0/Out@744.0) - 324 (TRZMK In@1063.0/Out@1077.0) - 4 (AEJEA In@1177.0/Out@1201.0) - 294 (PKBQM I
###  |  n@1258.0/Out@1288.0) - 284 (OMSLL In@1410.0/Out@1423.0) - 7 (AEJEA In@1681.0/Out@1705.0) - 298 (PKBQM In@1762.0/Out@1
###  |  792.0) - 196 (INNSA In@1856.0/Out@1872.0) - 0 (DUMMY_END Ziel-Service 81)
###  |   |- and carried Demand 237,   34.0 containers from 298 to 196
###  |   |- and carried Demand 238,   84.0 containers from   7 to 298
###  |   |- and carried Demand 239,   50.0 containers from   7 to 298
###  |   |- and carried Demand 297,  254.0 containers from 294 to 196
###  |   |- and carried Demand 298,    1.0 containers from 294 to 196
###  |   |- and carried Demand 299,  135.0 containers from 294 to 196
###  |   |- and carried Demand 302,   75.0 containers from   4 to 196
###  |   |- and carried Demand 303,  200.0 containers from   4 to 294
###  |   |- and carried Demand 304,   24.0 containers from   4 to 294
###  |   |- and carried Demand 305,   26.0 containers from   4 to 196
###  |   |- and carried Demand 306,  144.0 containers from   4 to 196
###  |   |- and carried Demand 307,    1.0 containers from   4 to 196
###  |   |- and carried Demand 309,  339.0 containers from 342 to   4
###  |   |- and carried Demand 310,  115.0 containers from 342 to   4
###  |   |- and carried Demand 311,    3.0 containers from 342 to 284
###  |   |- and carried Demand 312,    2.0 containers from 342 to 294
###  |   |- and carried Demand 313,  194.0 containers from 326 to   4
###  |   |- and carried Demand 314,   49.0 containers from 326 to   4
###  |   |- and carried Demand 315,   40.0 containers from 326 to 294
###  |   |- and carried Demand 318,  842.0 containers from 332 to   4
###  |   |- and carried Demand 319,   99.0 containers from 332 to   4
###  |   |- and carried Demand 320,  123.0 containers from 332 to 294
###  |   |- and carried Demand 321,    1.0 containers from 332 to 294
###  |- Vessel 10 has the path [10, 316, 190, 0]
###  |  10 (BEANR Out@512.0) - 316 (TRAMB In@854.0/Out@881.0) - 190 (INNSA In@1016.0/Out@1032.0) - 0 (DUMMY_END Ziel-Service 
###  |  81)
###  |- Vessel 11 has the path [13, 313, 191, 0]
###  |  13 (BEANR Out@680.0) - 313 (TRALI In@946.0/Out@964.0) - 191 (INNSA In@1184.0/Out@1200.0) - 0 (DUMMY_END Ziel-Service 
###  |  81)
###  |- Vessel 12 has the path [16, 314, 192, 0]
###  |  16 (BEANR Out@848.0) - 314 (TRALI In@1114.0/Out@1132.0) - 192 (INNSA In@1352.0/Out@1368.0) - 0 (DUMMY_END Ziel-Servic
###  |  e 81)
###  |- Vessel 17 has the path [158, 2, 291, 292, 293, 283, 5, 295, 194, 195, 0]
###  |  158 (GBFXT Out@580.0) - 2 (AEJEA In@841.0/Out@865.0) - 291 (PKBQM In@922.0/Out@952.0) - 292 (PKBQM In@992.0/Out@1020.
###  |  0) - 293 (PKBQM In@1090.0/Out@1120.0) - 283 (OMSLL In@1167.0/Out@1182.0) - 5 (AEJEA In@1345.0/Out@1369.0) - 295 (PKBQ
###  |  M In@1426.0/Out@1456.0) - 194 (INNSA In@1590.0/Out@1622.0) - 195 (INNSA In@1688.0/Out@1704.0) - 0 (DUMMY_END Ziel-Ser
###  |  vice 81)
###  |   |- and carried Demand 120,  237.0 containers from 292 to 194
###  |   |- and carried Demand 121,    2.0 containers from 292 to 194
###  |   |- and carried Demand 123,   97.0 containers from 292 to 194
###  |   |- and carried Demand 283,  153.0 containers from   5 to 195
###  |   |- and carried Demand 284,   86.0 containers from   5 to 295
###  |   |- and carried Demand 285,  118.0 containers from   5 to 295
###  |   |- and carried Demand 323,  244.0 containers from 293 to 195
###  |   |- and carried Demand 324,   67.0 containers from 293 to 195
###  |   |- and carried Demand 333,  237.0 containers from 291 to 194
###  |   |- and carried Demand 334,    2.0 containers from 291 to 194
###  |   |- and carried Demand 336,   97.0 containers from 291 to 194
###  |   |- and carried Demand 338,  704.0 containers from   2 to 195
###  |   |- and carried Demand 339,    8.0 containers from   2 to 195
###  |   |- and carried Demand 340,  156.0 containers from   2 to 291
###  |   |- and carried Demand 341,   45.0 containers from   2 to 291
###  |   |- and carried Demand 342,   16.0 containers from   2 to 194
###  |   |- and carried Demand 343,  264.0 containers from   2 to 194
###  |- Vessel 18 has the path [161, 321, 193, 0]
###  |  161 (GBFXT Out@748.0) - 321 (TRGEM In@1087.0/Out@1095.0) - 193 (INNSA In@1520.0/Out@1536.0) - 0 (DUMMY_END Ziel-Servi
###  |  ce 81)
###  |
### Vessels not used in the solution: [1, 2, 3, 4, 5, 6, 7, 8, 13, 14, 15, 16, 23]
###  |-----------------------------------------------------------------------------------------------------------------------
###
#############################################################################################################################

### Detialed variable overview

### All variables with value greater zero:
rho[81,30] = 1
eta[81,30,1] = 1
eta[81,30,2] = 1
eta[81,30,3] = 1
eta[81,30,4] = 1
eta[81,30,5] = 1
eta[81,30,6] = 1
y[9,4,294] = 1
y[9,332,326] = 1
y[9,294,284] = 1
y[9,284,7] = 1
y[9,342,333] = 1
y[9,9,332] = 1
y[9,324,4] = 1
y[9,7,298] = 1
y[9,196,0] = 1
y[9,333,324] = 1
y[9,298,196] = 1
y[9,326,342] = 1
y[10,190,0] = 1
y[10,316,190] = 1
y[10,10,316] = 1
y[11,313,191] = 1
y[11,191,0] = 1
y[11,13,313] = 1
y[12,192,0] = 1
y[12,314,192] = 1
y[12,16,314] = 1
y[17,283,5] = 1
y[17,293,283] = 1
y[17,195,0] = 1
y[17,5,295] = 1
y[17,292,293] = 1
y[17,194,195] = 1
y[17,291,292] = 1
y[17,295,194] = 1
y[17,2,291] = 1
y[17,158,2] = 1
y[18,161,321] = 1
y[18,193,0] = 1
y[18,321,193] = 1
xD[120,283,5] = 237
xD[120,293,283] = 237
xD[120,5,295] = 237
xD[120,292,293] = 237
xD[120,295,194] = 237
xD[121,283,5] = 2
xD[121,293,283] = 2
xD[121,5,295] = 2
xD[121,292,293] = 2
xD[121,295,194] = 2
xD[123,283,5] = 97
xD[123,293,283] = 97
xD[123,5,295] = 97
xD[123,292,293] = 97
xD[123,295,194] = 97
xD[237,298,196] = 34
xD[238,7,298] = 84
xD[239,7,298] = 50
xD[283,5,295] = 153
xD[283,194,195] = 153
xD[283,295,194] = 153
xD[284,5,295] = 86
xD[285,5,295] = 118
xD[297,294,284] = 254
xD[297,284,7] = 254
xD[297,7,298] = 254
xD[297,298,196] = 254
xD[298,294,284] = 1
xD[298,284,7] = 1
xD[298,7,298] = 1
xD[298,298,196] = 1
xD[299,294,284] = 135
xD[299,284,7] = 135
xD[299,7,298] = 135
xD[299,298,196] = 135
xD[302,4,294] = 75
xD[302,294,284] = 75
xD[302,284,7] = 75
xD[302,7,298] = 75
xD[302,298,196] = 75
xD[303,4,294] = 200
xD[304,4,294] = 24
xD[305,4,294] = 26
xD[305,294,284] = 26
xD[305,284,7] = 26
xD[305,7,298] = 26
xD[305,298,196] = 26
xD[306,4,294] = 144
xD[306,294,284] = 144
xD[306,284,7] = 144
xD[306,7,298] = 144
xD[306,298,196] = 144
xD[307,4,294] = 1
xD[307,294,284] = 1
xD[307,284,7] = 1
xD[307,7,298] = 1
xD[307,298,196] = 1
xD[309,342,333] = 339
xD[309,324,4] = 339
xD[309,333,324] = 339
xD[310,342,333] = 115
xD[310,324,4] = 115
xD[310,333,324] = 115
xD[311,4,294] = 3
xD[311,294,284] = 3
xD[311,342,333] = 3
xD[311,324,4] = 3
xD[311,333,324] = 3
xD[312,4,294] = 2
xD[312,342,333] = 2
xD[312,324,4] = 2
xD[312,333,324] = 2
xD[313,342,333] = 194
xD[313,324,4] = 194
xD[313,333,324] = 194
xD[313,326,342] = 194
xD[314,342,333] = 49
xD[314,324,4] = 49
xD[314,333,324] = 49
xD[314,326,342] = 49
xD[315,4,294] = 40
xD[315,342,333] = 40
xD[315,324,4] = 40
xD[315,333,324] = 40
xD[315,326,342] = 40
xD[318,332,326] = 842
xD[318,342,333] = 842
xD[318,324,4] = 842
xD[318,333,324] = 842
xD[318,326,342] = 842
xD[319,332,326] = 99
xD[319,342,333] = 99
xD[319,324,4] = 99
xD[319,333,324] = 99
xD[319,326,342] = 99
xD[320,4,294] = 123
xD[320,332,326] = 123
xD[320,342,333] = 123
xD[320,324,4] = 123
xD[320,333,324] = 123
xD[320,326,342] = 123
xD[321,4,294] = 1
xD[321,332,326] = 1
xD[321,342,333] = 1
xD[321,324,4] = 1
xD[321,333,324] = 1
xD[321,326,342] = 1
xD[323,283,5] = 244
xD[323,293,283] = 244
xD[323,5,295] = 244
xD[323,194,195] = 244
xD[323,295,194] = 244
xD[324,283,5] = 67
xD[324,293,283] = 67
xD[324,5,295] = 67
xD[324,194,195] = 67
xD[324,295,194] = 67
xD[333,283,5] = 237
xD[333,293,283] = 237
xD[333,5,295] = 237
xD[333,292,293] = 237
xD[333,291,292] = 237
xD[333,295,194] = 237
xD[334,283,5] = 2
xD[334,293,283] = 2
xD[334,5,295] = 2
xD[334,292,293] = 2
xD[334,291,292] = 2
xD[334,295,194] = 2
xD[336,283,5] = 97
xD[336,293,283] = 97
xD[336,5,295] = 97
xD[336,292,293] = 97
xD[336,291,292] = 97
xD[336,295,194] = 97
xD[338,283,5] = 704
xD[338,293,283] = 704
xD[338,5,295] = 704
xD[338,292,293] = 704
xD[338,194,195] = 704
xD[338,291,292] = 704
xD[338,295,194] = 704
xD[338,2,291] = 704
xD[339,283,5] = 8
xD[339,293,283] = 8
xD[339,5,295] = 8
xD[339,292,293] = 8
xD[339,194,195] = 8
xD[339,291,292] = 8
xD[339,295,194] = 8
xD[339,2,291] = 8
xD[340,2,291] = 156
xD[341,2,291] = 45
xD[342,283,5] = 16
xD[342,293,283] = 16
xD[342,5,295] = 16
xD[342,292,293] = 16
xD[342,291,292] = 16
xD[342,295,194] = 16
xD[342,2,291] = 16
xD[343,283,5] = 264
xD[343,293,283] = 264
xD[343,5,295] = 264
xD[343,292,293] = 264
xD[343,291,292] = 264
xD[343,295,194] = 264
xD[343,2,291] = 264
zE[2] = 841
zE[4] = 1177
zE[5] = 1345
zE[7] = 1681
zE[190] = 1016
zE[191] = 1184
zE[192] = 1352
zE[193] = 1520
zE[194] = 1590
zE[195] = 1688
zE[196] = 1856
zE[283] = 1167
zE[284] = 1410
zE[291] = 922
zE[292] = 992
zE[293] = 1090
zE[294] = 1258
zE[295] = 1426
zE[298] = 1762
zE[313] = 946
zE[314] = 1114
zE[316] = 854
zE[321] = 1087
zE[324] = 1063
zE[326] = 656
zE[332] = 608
zE[333] = 728
zE[342] = 691
zX[2] = 865
zX[4] = 1201
zX[5] = 1369
zX[7] = 1705
zX[9] = 344
zX[10] = 512
zX[13] = 680
zX[16] = 848
zX[158] = 580
zX[161] = 748
zX[190] = 1032
zX[191] = 1200
zX[192] = 1368
zX[193] = 1536
zX[194] = 1622
zX[195] = 1704
zX[196] = 1872
zX[283] = 1182
zX[284] = 1423
zX[291] = 952
zX[292] = 1020
zX[293] = 1120
zX[294] = 1288
zX[295] = 1456
zX[298] = 1792
zX[313] = 964
zX[314] = 1132
zX[316] = 881
zX[321] = 1095
zX[324] = 1077
zX[326] = 666
zX[332] = 618
zX[333] = 744
zX[342] = 704
phi[9] = 1528
phi[10] = 520
phi[11] = 520
phi[12] = 520
phi[17] = 1124
phi[18] = 788

### All variables with value smaller zero:

### End

real	119m11.390s
user	440m41.595s
sys	19m39.716s
	OpenBLAS 0.2.6 environment removed
	Freetype 2.4.12 environment removed
	Python 3.6.0 environment removed
	Gurobi 8.1.0 environment removed
