	OpenBLAS 0.2.6 environment established
		compiled with gcc for max. 16 cores
	Freetype 2.4.12 environment established
		library to render fonts
	Python 3.6.0 environment established
	Gurobi 8.1.0 environment established
Instance LSFRP: LSFDRP_4_3_6_1_fr.p
Instance LSFDP: LSFDRP_4_3_6_1_fd_16.p

*****************************************************************************************************************************
*** Solve LSFDRP_4_3_6_1_fd_16 with Gurobi
***
*** Graph info
*** |S|: 19
*** |S^E|: 0
*** |S^C|: 1
*** |V|: 348
*** |A|: 8709
*** |A^i|: 8382
*** |A^f|: 327
*** |M|: 343
*** |E|: 0

Changed value of parameter NumericFocus to 2
   Prev: 0  Min: 0  Max: 3  Default: 0
Changed value of parameter TimeLimit to 86400.0
   Prev: 1e+100  Min: 0.0  Max: 1e+100  Default: 1e+100
Changed value of parameter Threads to 4
   Prev: 0  Min: 0  Max: 1024  Default: 0
Optimize a model with 163606 rows, 3177009 columns and 11352648 nonzeros
Variable types: 3011517 continuous, 165492 integer (165492 binary)
Coefficient statistics:
  Matrix range     [1e+00, 5e+03]
  Objective range  [4e+01, 1e+08]
  Bounds range     [1e+00, 1e+00]
  RHS range        [1e+00, 5e+03]
Presolve removed 686 rows and 2168 columns (presolve time = 5s) ...
Presolve removed 6981 rows and 8400 columns (presolve time = 10s) ...
Presolve removed 7384 rows and 8418 columns (presolve time = 15s) ...
Presolve removed 7384 rows and 8423 columns (presolve time = 25s) ...
Presolve removed 7384 rows and 9927 columns (presolve time = 1062s) ...
Presolve removed 8327 rows and 9982 columns (presolve time = 1066s) ...
Presolve removed 8328 rows and 370536 columns (presolve time = 1070s) ...
Presolve removed 10753 rows and 375169 columns (presolve time = 1075s) ...
Presolve removed 11766 rows and 376181 columns (presolve time = 1080s) ...
Presolve removed 12428 rows and 377508 columns (presolve time = 1085s) ...
Presolve removed 12752 rows and 385873 columns (presolve time = 1094s) ...
Presolve removed 12752 rows and 385873 columns (presolve time = 1202s) ...
Presolve removed 12752 rows and 385873 columns (presolve time = 1306s) ...
Presolve removed 12752 rows and 385873 columns (presolve time = 1410s) ...
Presolve removed 12752 rows and 385873 columns (presolve time = 1508s) ...
Presolve removed 12752 rows and 385873 columns (presolve time = 1610s) ...
Presolve removed 12752 rows and 385873 columns (presolve time = 1698s) ...
Presolve removed 12752 rows and 385873 columns (presolve time = 1796s) ...
Presolve removed 12752 rows and 385873 columns (presolve time = 1882s) ...
Presolve removed 12752 rows and 385873 columns (presolve time = 1971s) ...
Presolve removed 12869 rows and 388623 columns (presolve time = 2017s) ...
Presolve removed 12869 rows and 388623 columns
Presolve time: 2016.61s
Presolved: 150737 rows, 2788386 columns, 10279378 nonzeros
Variable types: 2628184 continuous, 160202 integer (160170 binary)

Deterministic concurrent LP optimizer: primal simplex, dual simplex, and barrier
Showing barrier log only...

Presolve removed 445 rows and 18899 columns
Presolved: 32943 rows, 230228 columns, 1984686 nonzeros

Root barrier log...

Ordering time: 0.00s

Barrier statistics:
 Dense cols : 287
 AA' NZ     : 1.970e+06
 Factor NZ  : 1.669e+07 (roughly 240 MBytes of memory)
 Factor Ops : 3.020e+10 (roughly 1 second per iteration)
 Threads    : 2

                  Objective                Residual
Iter       Primal          Dual         Primal    Dual     Compl     Time
   0   1.12014184e+14 -8.91801821e+13  8.39e+06 2.57e+03  4.42e+10  2213s
   1   4.62406086e+13 -8.24158581e+13  3.46e+06 1.63e+06  1.86e+10  2215s
   2   1.49607641e+13 -7.17136098e+13  1.12e+06 3.37e+05  6.14e+09  2217s
   3   4.33328264e+12 -5.59587158e+13  3.24e+05 4.14e+04  1.84e+09  2219s
   4   2.97281258e+12 -3.81053381e+13  2.22e+05 6.13e+03  1.23e+09  2221s
   5   1.43957800e+12 -2.27826658e+13  1.08e+05 1.12e-06  5.91e+08  2223s
   6   7.26925965e+11 -1.52302067e+13  5.44e+04 1.32e-06  3.00e+08  2225s
   7   5.55407675e+11 -1.00870947e+13  4.16e+04 1.38e-06  2.25e+08  2227s
   8   2.32007055e+11 -5.56601896e+12  1.74e+04 8.58e-07  9.46e+07  2229s
   9   6.28454147e+10 -2.61019302e+12  4.70e+03 1.23e-06  2.71e+07  2231s
  10   1.89702056e+10 -1.57760964e+12  1.41e+03 1.20e-06  9.47e+06  2233s
  11   9.02884075e+09 -1.10200128e+12  6.63e+02 8.98e-07  5.11e+06  2234s
  12   7.10500433e+09 -8.51122582e+11  5.20e+02 8.24e-07  3.95e+06  2236s
  13   5.44399756e+09 -7.53490231e+11  3.96e+02 7.19e-07  3.22e+06  2238s
  14   4.90909843e+09 -7.17789973e+11  3.56e+02 9.42e-07  2.97e+06  2240s
  15   3.34558921e+09 -5.34348910e+11  2.39e+02 7.52e-07  2.10e+06  2241s
  16   3.13585530e+09 -5.12154898e+11  2.24e+02 7.35e-07  1.99e+06  2243s
  17   2.89974159e+09 -4.44420101e+11  2.08e+02 4.64e-07  1.78e+06  2245s
  18   2.02065987e+09 -3.39073330e+11  1.43e+02 4.41e-07  1.30e+06  2247s
  19   1.34491607e+09 -2.11228489e+11  9.32e+01 3.95e-07  8.21e+05  2249s
  20   7.77622652e+08 -1.53932128e+11  5.12e+01 2.85e-07  5.33e+05  2251s
  21   5.00287828e+08 -1.28379798e+11  3.04e+01 3.10e-07  3.94e+05  2253s
  22   4.31206832e+08 -9.65283415e+10  2.53e+01 3.13e-07  3.08e+05  2254s
  23   3.67559252e+08 -7.57041100e+10  2.07e+01 2.53e-07  2.46e+05  2256s
  24   2.56975430e+08 -6.18913423e+10  1.28e+01 2.74e-07  1.84e+05  2257s
  25   1.99576478e+08 -5.18341059e+10  9.05e+00 2.56e-07  1.47e+05  2259s
  26   1.53065880e+08 -4.06409527e+10  6.01e+00 2.22e-07  1.12e+05  2261s
  27   1.27309928e+08 -3.15755097e+10  4.37e+00 2.27e-07  8.74e+04  2263s
  28   1.16059573e+08 -2.94950660e+10  3.77e+00 2.14e-07  8.05e+04  2265s
  29   9.92148605e+07 -2.17458498e+10  2.74e+00 2.04e-07  6.01e+04  2268s
  30   8.56847122e+07 -1.66335638e+10  2.00e+00 2.14e-07  4.58e+04  2270s
  31   7.88051760e+07 -1.27688395e+10  1.63e+00 1.91e-07  3.59e+04  2272s
  32   7.21132119e+07 -1.16151074e+10  1.34e+00 2.05e-07  3.19e+04  2273s
  33   6.95188534e+07 -9.56157580e+09  1.22e+00 1.80e-07  2.71e+04  2275s
  34   6.28325853e+07 -7.88126681e+09  1.00e+00 2.22e-07  2.24e+04  2277s
  35   5.71237233e+07 -7.42775955e+09  8.85e-01 1.98e-07  2.08e+04  2278s
  36   4.71141156e+07 -6.13949530e+09  6.51e-01 2.10e-07  1.67e+04  2280s
  37   3.96020267e+07 -3.63367444e+09  4.62e-01 1.58e-07  1.04e+04  2283s
  38   2.98751691e+07 -2.28300095e+09  2.35e-01 1.58e-07  6.23e+03  2285s
  39   2.51633514e+07 -1.18779325e+09  1.53e-01 1.52e-07  3.46e+03  2286s
  40   1.66069589e+07 -5.55192728e+08  5.11e-02 1.65e-07  1.52e+03  2288s
  41   1.16762531e+07 -3.10746932e+08  3.19e-02 1.54e-07  8.82e+02  2290s
  42   5.42561797e+06 -2.06270233e+08  1.27e-02 1.53e-07  5.26e+02  2292s
  43   3.61708972e+06 -1.43440892e+08  1.01e-02 1.72e-07  3.74e+02  2294s
  44   2.56677320e+06 -1.24278637e+08  8.74e-03 1.86e-07  3.23e+02  2296s
  45   2.10507028e+05 -1.11838199e+08  5.92e-03 1.70e-07  2.74e+02  2298s
  46  -1.18533736e+06 -8.09719820e+07  4.58e-03 1.87e-07  1.98e+02  2300s
  47  -1.95016518e+06 -6.98470344e+07  3.87e-03 1.76e-07  1.68e+02  2302s
  48  -3.32728183e+06 -4.54323432e+07  2.68e-03 3.27e-07  1.06e+02  2304s
  49  -4.25166047e+06 -3.76192296e+07  2.00e-03 2.16e-07  8.36e+01  2306s
  50  -5.26212952e+06 -2.72387428e+07  1.36e-03 2.09e-07  5.55e+01  2308s
  51  -6.00496301e+06 -2.19240302e+07  9.27e-04 2.07e-07  3.99e+01  2310s
  52  -6.55377928e+06 -1.89621551e+07  6.22e-04 2.62e-07  3.04e+01  2312s
  53  -6.72206827e+06 -1.67846526e+07  5.30e-04 2.53e-07  2.49e+01  2314s
  54  -7.04926522e+06 -1.32064952e+07  3.62e-04 2.40e-07  1.56e+01  2316s
  55  -7.50633069e+06 -1.11470747e+07  1.42e-04 2.48e-07  8.72e+00  2318s
  56  -7.65362634e+06 -9.08317629e+06  7.91e-05 3.45e-07  3.62e+00  2320s
  57  -7.77049865e+06 -8.26492012e+06  3.18e-05 3.57e-07  1.30e+00  2322s
  58  -7.81252028e+06 -8.03936228e+06  1.58e-05 2.44e-07  6.07e-01  2324s
  59  -7.83365339e+06 -7.97036482e+06  7.94e-06 2.79e-07  3.53e-01  2326s
  60  -7.84466177e+06 -7.92579195e+06  3.94e-06 2.92e-07  2.03e-01  2328s
  61  -7.85035407e+06 -7.88816961e+06  1.93e-06 2.66e-07  9.56e-02  2330s
  62  -7.85258595e+06 -7.87332484e+06  1.18e-06 2.87e-07  5.39e-02  2332s
  63  -7.85419012e+06 -7.86243620e+06  6.40e-07 3.58e-07  2.32e-02  2334s
  64  -7.85586021e+06 -7.85732997e+06  8.39e-08 3.27e-07  3.89e-03  2337s
  65  -7.85608260e+06 -7.85629580e+06  2.09e-08 3.15e-07  5.62e-04  2339s
  66  -7.85611148e+06 -7.85615362e+06  6.83e-09 3.54e-07  1.16e-04  2342s
  67  -7.85611601e+06 -7.85613442e+06  6.81e-08 3.03e-07  5.25e-05  2344s
  68  -7.85611834e+06 -7.85612778e+06  6.14e-08 3.36e-07  2.66e-05  2345s
  69  -7.85611913e+06 -7.85612498e+06  1.86e-07 2.92e-07  1.68e-05  2347s
  70  -7.85611941e+06 -7.85612405e+06  2.17e-07 3.44e-07  1.34e-05  2349s
  71  -7.85611958e+06 -7.85612304e+06  1.00e-05 3.19e-07  9.58e-06  2352s
  72  -7.85611983e+06 -7.85612236e+06  7.49e-06 3.09e-07  7.06e-06  2353s
  73  -7.85611997e+06 -7.85612168e+06  6.14e-06 3.29e-07  5.07e-06  2355s
  74  -7.85612012e+06 -7.85612129e+06  5.10e-06 4.60e-07  3.59e-06  2358s
  75  -7.85612024e+06 -7.85612111e+06  3.90e-06 3.85e-07  2.71e-06  2360s
  76  -7.85612037e+06 -7.85612104e+06  2.69e-06 5.15e-07  2.05e-06  2362s
  77  -7.85612040e+06 -7.85612095e+06  2.34e-06 4.60e-07  1.73e-06  2365s
  78  -7.85612044e+06 -7.85612092e+06  1.86e-06 1.93e-06  1.47e-06  2368s
  79  -7.85612045e+06 -7.85612079e+06  1.04e-06 1.06e-06  9.47e-07  2371s
  80  -7.85612052e+06 -7.85612071e+06  1.02e-06 6.50e-07  6.38e-07  2373s
  81  -7.85612054e+06 -7.85612068e+06  9.27e-07 4.54e-07  4.18e-07  2376s
  82  -7.85612053e+06 -7.85612065e+06  1.17e-06 6.77e-07  2.94e-07  2377s
  83  -7.85612054e+06 -7.85612063e+06  8.86e-07 3.04e-06  2.01e-07  2379s
  84  -7.85612045e+06 -7.85612062e+06  2.50e-06 3.61e-07  1.49e-07  2381s

Barrier solved model in 84 iterations and 2380.90 seconds
Optimal objective -7.85612045e+06


Root crossover log...

   26314 DPushes remaining with DInf 7.8081153e-05              2381s
       0 DPushes remaining with DInf 2.2800076e-05              2382s

      92 PPushes remaining with PInf 5.8394502e-04              2382s
       0 PPushes remaining with PInf 5.2148425e-04              2382s

  Push phase complete: Pinf 5.2148425e-04, Dinf 1.9070129e-05   2382s


Root simplex log...

Iteration    Objective       Primal Inf.    Dual Inf.      Time
   23303   -7.8561206e+06   0.000000e+00   9.607989e+06   2382s
Warning: 1 variables dropped from basis
Warning: switch to quad precision
   24509   -7.8561318e+06   0.000000e+00   5.483436e+09   2386s
   24757   -7.8563019e+06   0.000000e+00   2.379467e+15   2390s
   25107   -7.8565446e+06   0.000000e+00   1.715152e+14   2396s
   25467   -7.8566845e+06   0.000000e+00   1.582017e+12   2402s
   25697   -7.8567606e+06   0.000000e+00   6.799609e+12   2405s
   26136   -7.8568427e+06   0.000000e+00   4.707182e+09   2411s
   26574   -7.8569202e+06   0.000000e+00   3.168843e+11   2416s
   26966   -7.8569988e+06   0.000000e+00   8.504937e+09   2421s
   27340   -7.8570794e+06   0.000000e+00   3.382390e+09   2427s
   27692   -7.8571689e+06   0.000000e+00   3.148382e+10   2432s
   28090   -7.8572097e+06   0.000000e+00   2.479318e+10   2435s
   28458   -7.8572553e+06   0.000000e+00   2.810215e+10   2440s
   28868   -7.8573605e+06   0.000000e+00   2.272166e+10   2445s
   29309   -7.8574298e+06   0.000000e+00   1.019573e+10   2451s
Concurrent spin time: 12.75s

Solved with primal simplex

Root relaxation: objective -7.856121e+06, 157364 iterations, 243.91 seconds
Total elapsed time = 2451.21s

    Nodes    |    Current Node    |     Objective Bounds      |     Work
 Expl Unexpl |  Obj  Depth IntInf | Incumbent    BestBd   Gap | It/Node Time

     0     0 7856120.70    0  280          - 7856120.70      -     - 2456s
H    0     0                    -1263265.359 7856120.70   722%     - 2457s
H    0     0                    -549701.1606 7856120.70  1529%     - 2596s
     0     0 7490895.73    0  294 -549701.16 7490895.73  1463%     - 2614s
     0     0 7490895.73    0  313 -549701.16 7490895.73  1463%     - 2665s
     0     0 7422086.80    0  344 -549701.16 7422086.80  1450%     - 2673s
     0     0 7401813.14    0  342 -549701.16 7401813.14  1447%     - 2675s
     0     0 7395999.09    0  336 -549701.16 7395999.09  1445%     - 2676s
     0     0 7395485.36    0  344 -549701.16 7395485.36  1445%     - 2677s
     0     0 7390382.32    0  342 -549701.16 7390382.32  1444%     - 2677s
     0     0 7379677.74    0  325 -549701.16 7379677.74  1442%     - 2679s
     0     0 7379555.78    0  326 -549701.16 7379555.78  1442%     - 2679s
     0     0 7314681.45    0  340 -549701.16 7314681.45  1431%     - 2687s
     0     0 7308402.36    0  335 -549701.16 7308402.36  1430%     - 2688s
     0     0 7304873.90    0  357 -549701.16 7304873.90  1429%     - 2690s
     0     0 7304151.96    0  349 -549701.16 7304151.96  1429%     - 2690s
     0     0 7298298.79    0  337 -549701.16 7298298.79  1428%     - 2691s
     0     0 7297565.93    0  335 -549701.16 7297565.93  1428%     - 2692s
     0     0 7297489.25    0  340 -549701.16 7297489.25  1428%     - 2692s
     0     0 7297298.74    0  341 -549701.16 7297298.74  1428%     - 2693s
     0     0 7296403.51    0  342 -549701.16 7296403.51  1427%     - 2693s
     0     0 7295759.14    0  342 -549701.16 7295759.14  1427%     - 2694s
     0     0 7295757.01    0  343 -549701.16 7295757.01  1427%     - 2694s
     0     0 5685605.34    0  336 -549701.16 5685605.34  1134%     - 2747s
     0     0 5685605.34    0  300 -549701.16 5685605.34  1134%     - 2789s
     0     0 5685605.34    0  315 -549701.16 5685605.34  1134%     - 2796s
     0     0 5657866.38    0  276 -549701.16 5657866.38  1129%     - 2802s
     0     0 5622671.80    0  306 -549701.16 5622671.80  1123%     - 2803s
     0     0 5606975.93    0  309 -549701.16 5606975.93  1120%     - 2803s
     0     0 5604225.49    0  322 -549701.16 5604225.49  1120%     - 2804s
     0     0 5599852.97    0  320 -549701.16 5599852.97  1119%     - 2804s
     0     0 5598010.78    0  319 -549701.16 5598010.78  1118%     - 2805s
     0     0 5596208.73    0  322 -549701.16 5596208.73  1118%     - 2805s
     0     0 5595701.87    0  322 -549701.16 5595701.87  1118%     - 2805s
     0     0 5595438.77    0  324 -549701.16 5595438.77  1118%     - 2806s
     0     0 5573819.95    0  339 -549701.16 5573819.95  1114%     - 2807s
     0     0 5565614.60    0  331 -549701.16 5565614.60  1112%     - 2808s
     0     0 5563345.98    0  332 -549701.16 5563345.98  1112%     - 2809s
     0     0 5563315.68    0  332 -549701.16 5563315.68  1112%     - 2809s
     0     0 5558135.97    0  348 -549701.16 5558135.97  1111%     - 2836s
     0     2 5558135.97    0  348 -549701.16 5558135.97  1111%     - 2844s
     1     5 5387616.28    1  305 -549701.16 5444555.06  1090%  2992 2864s
     2     5 5369363.67    1  311 -549701.16 5386754.12  1080%  2712 2865s
     3     8 5277830.20    2  254 -549701.16 5366997.71  1076%  2235 2875s
     7    12  postponed    3      -549701.16 5331946.62  1070%  4918 2925s
    11    16 5270655.22    4  270 -549701.16 5276899.18  1060%  9879 3063s
    19    22 5203304.96    5  261 -549701.16 5268201.74  1058%  6234 3069s
    23    21 4992586.85    6  301 -549701.16 5268201.74  1058%  5496 3077s
    29    29 4950118.57    7  328 -549701.16 5268201.74  1058%  4550 3080s
    34    33 4518324.74    7  322 -549701.16 5268201.74  1058%  4101 3092s
    39    40 4933995.07    8  306 -549701.16 5268201.74  1058%  3758 3097s
    44    41 4860658.58   10  304 -549701.16 5268201.74  1058%  3487 3104s
    52    51 4822932.84   11  312 -549701.16 5268201.74  1058%  3025 3116s
    59    60 4688679.28   12  295 -549701.16 5268201.74  1058%  2797 3121s
    66    66 4405648.31   13  284 -549701.16 5268201.74  1058%  2597 3132s
    72    70 4234710.44   13  210 -549701.16 5268201.74  1058%  2571 3207s
    80    78 4227808.29   14  211 -549701.16 5268201.74  1058%  3096 3216s
    87    86 4217745.30   15  212 -549701.16 5268201.74  1058%  2873 3222s
   104   108 4170535.02   20  241 -549701.16 5268201.74  1058%  2462 3234s
   116   108 3920109.21   22  173 -549701.16 5268201.74  1058%  2312 3241s
   136   132 3779756.73   25  180 -549701.16 5268201.74  1058%  2022 3261s
   154   152 3675130.99   30  229 -549701.16 5268201.74  1058%  1968 3268s
   169   166 3671730.43   31  165 -549701.16 5268201.74  1058%  1863 3277s
   190   185 3229016.04   33  164 -549701.16 5268201.74  1058%  1721 3284s
   207   203 3007229.04   36  137 -549701.16 5268201.74  1058%  1630 3293s
   228   224 2268398.35   40  119 -549701.16 5268201.74  1058%  1528 3300s
   259   254 1963447.48   50  117 -549701.16 5268201.74  1058%  1382 3312s
   288   272 1845706.18   58  149 -549701.16 5268201.74  1058%  1296 3320s
   309   293 1724673.53   59  137 -549701.16 5268201.74  1058%  1256 3329s
   323   308 1141524.30   63  103 -549701.16 5268201.74  1058%  1268 3336s
   349   326 862296.820   73  104 -549701.16 5268201.74  1058%  1217 3344s
   372   339 608724.034   79   69 -549701.16 5268201.74  1058%  1191 3355s
   383   341 573422.920   81   79 -549701.16 5268201.74  1058%  1198 3369s
   399   354 512223.398   87   75 -549701.16 5268201.74  1058%  1235 3384s
   410   363 511686.240   88   67 -549701.16 5268201.74  1058%  1231 3394s
   427   381 478778.576   92   69 -549701.16 5268201.74  1058%  1235 3475s
   455   398 274657.335  101   95 -549701.16 5268201.74  1058%  1246 3533s
   469   395 224043.935  104   61 -549701.16 5268201.74  1058%  1438 3557s
   482   417 82078.1048  108   49 -549701.16 5268201.74  1058%  1441 3571s
   507   438     cutoff  110      -549701.16 5268201.74  1058%  1435 3587s
   528   449 2978385.01    5  257 -549701.16 5203241.58  1047%  1454 3621s
   551   473 2822462.09    6  250 -549701.16 5203241.58  1047%  1445 3639s
   574   488 2060957.66    9  244 -549701.16 5203241.58  1047%  1450 3656s
   601   507 1976876.17   12  196 -549701.16 5203241.58  1047%  1439 3673s
   636   524 1542695.21   19  144 -549701.16 5203241.58  1047%  1408 3689s
   679   571 805879.717   25  123 -549701.16 5203241.58  1047%  1376 3711s
   708   579 1222724.87   27  125 -549701.16 5203241.58  1047%  1377 3724s
   737   605 845821.324   30  130 -549701.16 5203241.58  1047%  1371 3736s
   768   637 264567.907   35  122 -549701.16 5115826.40  1031%  1364 3751s
   793   632 3901595.80    8  190 -549701.16 5114904.73  1030%  1378 3765s
   836   682 3330554.84   11  143 -549701.16 5114904.73  1030%  1350 3780s
   867   708 2807599.28   16  113 -549701.16 5114904.73  1030%  1347 3795s
   915   728 2276008.66   18   81 -549701.16 5114904.73  1030%  1323 3810s
   966   773 1387061.61   28   53 -549701.16 5114904.73  1030%  1303 3829s
H  975   757                    -373931.9657 5114904.73  1468%  1295 3829s
H 1021   802                    -364897.3747 5114904.73  1502%  1272 3930s
  1022   803 1415332.00   15 6561 -364897.37 5114904.73  1502%  1271 3986s
  1024   804 2171993.07   51  259 -364897.37 5114904.73  1502%  1268 3994s
  1025   805 1873014.90   12  293 -364897.37 5114904.73  1502%  1267 3997s
  1028   807 3132025.91   13  327 -364897.37 5114904.73  1502%  1263 4000s
  1038   814 1074666.24   67  341 -364897.37 5114904.73  1502%  1251 4005s
  1054   824 1792400.20   55  363 -364897.37 5114904.73  1502%  1232 4030s
  1056   826 1178932.08   28  359 -364897.37 5114904.73  1502%  1230 4038s
  1057   829 5114904.73   10  337 -364897.37 5114904.73  1502%  1554 4096s
  1059   833 5114904.73   11  333 -364897.37 5114904.73  1502%  1556 4158s
  1063   835 5114904.73   12  285 -364897.37 5114904.73  1502%  1559 4183s
  1067   837 3200586.89   12  237 -364897.37 5114904.73  1502%  1561 4210s
  1071   840 4915814.69   13  264 -364897.37 5114904.73  1502%  1572 4225s
  1075   842 4933697.65   13  265 -364897.37 5114904.73  1502%  1576 4232s
  1079   847 4913504.26   14  272 -364897.37 4943295.08  1455%  1573 4247s
  1085   844 4876172.03   15  240 -364897.37 4943295.08  1455%  1575 4255s
  1092   850 4818652.31   16  240 -364897.37 4943295.08  1455%  1571 4260s
  1099   857 4589195.49   16  224 -364897.37 4943295.08  1455%  1565 4267s
  1104   856 4804597.69   17  241 -364897.37 4943295.08  1455%  1568 4278s
  1112   863 4688043.36   17  234 -364897.37 4943295.08  1455%  1576 4287s
  1120   866 4400262.68   18  277 -364897.37 4943295.08  1455%  1574 4294s
  1127   878 4480412.24   18  207 -364897.37 4943295.08  1455%  1577 4302s
  1133   871 4470196.71   19  203 -364897.37 4943295.08  1455%  1581 4312s
  1143   883 4439997.71   20  182 -364897.37 4943295.08  1455%  1582 4324s
  1154   889 4439997.71   21  183 -364897.37 4943295.08  1455%  1578 4333s
  1161   893 4417481.25   22  190 -364897.37 4943295.08  1455%  1583 4347s
  1171   895 4198452.63   23  185 -364897.37 4943295.08  1455%  1584 4358s
  1182   897  postponed   24      -364897.37 4943295.08  1455%  1600 4406s
  1201   902 235582.417   24  129 -364897.37 4943295.08  1455%  1589 4416s
  1219   909 125134.309   25  170 -364897.37 4943295.08  1455%  1585 4432s
  1240   906 4187668.36   25  182 -364897.37 4943295.08  1455%  1574 4443s
  1268   910 4172958.30   26  186 -364897.37 4943295.08  1455%  1544 4456s
  1292   913 122805.171   27  113 -364897.37 4943295.08  1455%  1532 4465s
  1317   928 1584788.80   29  133 -364897.37 4943295.08  1455%  1513 4476s
  1334   936 1183157.31   31   85 -364897.37 4943295.08  1455%  1508 4489s
  1354   943 3298154.36   33  139 -364897.37 4943295.08  1455%  1495 4500s
  1375   966 2284477.22   35  143 -364897.37 4943295.08  1455%  1486 4514s
  1400   968 3228420.57   38  129 -364897.37 4943295.08  1455%  1476 4542s
  1428   998 3149756.82   40  131 -364897.37 4943295.08  1455%  1473 4610s
  1446   994 3068728.94   41  135 -364897.37 4943295.08  1455%  1497 4623s
  1478  1019     cutoff   43      -364897.37 4943295.08  1455%  1489 4639s
  1522  1035 17428.6664   48  106 -364897.37 4943295.08  1455%  1473 4695s
  1563  1043 1375863.42   52  138 -364897.37 4943295.08  1455%  1477 4716s
  1605  1058 694562.386   53  128 -364897.37 4943295.08  1455%  1466 4733s
  1647  1066 963661.577   59   87 -364897.37 4943295.08  1455%  1452 4750s
  1677  1071 -227272.73   65   65 -364897.37 4943295.08  1455%  1450 4785s
  1706  1086 -307647.76   69   84 -364897.37 4943295.08  1455%  1452 4804s
  1731  1088 4927980.99   14  210 -364897.37 4927980.99  1451%  1454 4828s
  1767  1104 4514277.12   18  159 -364897.37 4917350.96  1448%  1454 4850s
  1805  1114 3691528.15   26   93 -364897.37 4917350.96  1448%  1449 4871s
  1840  1140 2568864.31   32   86 -364897.37 4911318.28  1446%  1446 4895s
  1894  1176 1066579.71   40  101 -364897.37 4911318.28  1446%  1436 4920s
  1949  1195 730830.784   51   49 -364897.37 4911318.28  1446%  1431 4943s
  1996  1194     cutoff   67      -364897.37 4899080.84  1443%  1430 5027s
  2028  1227 2601580.56   16  136 -364897.37 4899080.84  1443%  1445 5053s
  2067  1243 infeasible   18      -364897.37 4899080.84  1443%  1433 5135s
  2159  1288     cutoff   22      -364897.37 4899080.84  1443%  1438 5209s
  2190  1315     cutoff   24      -364897.37 4899080.84  1443%  1435 5238s
  2229  1295 -135334.96   31   91 -364897.37 4899080.84  1443%  1441 5266s
  2306  1327 4877801.74   15  226 -364897.37 4877801.74  1437%  1433 5296s
  2335  1329 4090384.20   19  163 -364897.37 4796200.63  1414%  1442 5394s
  2380  1338 2975555.07   24  132 -364897.37 4796200.63  1414%  1458 5435s
* 2437  1099              61    544267.73565 4796200.63   781%  1447 5435s
  2500  1193     cutoff   61      544267.736 4687296.23   761%  1438 5467s
  2599  1210 878357.907   45  123 544267.736 4585840.48   743%  1422 5500s
  2713  1241 2882429.65   29  148 544267.736 4585840.48   743%  1413 5540s
  2828  1276 1793364.15   36  109 544267.736 4579069.96   741%  1408 5623s
  2922  1292 2989561.81   25  175 544267.736 4465276.58   720%  1418 5692s
  3087  1338 3667309.93   20  195 544267.736 4427461.09   713%  1390 5771s
  3260  1394 2720603.47   34  129 544267.736 4396526.87   708%  1362 5832s
  3397  1436 832200.891   47   81 544267.736 4361305.35   701%  1357 5879s
  3534  1502     cutoff   54      544267.736 4344874.84   698%  1352 5957s
  3637  1550     cutoff   27      544267.736 4337804.58   697%  1353 6012s
  3780  1625 3694341.25   30  141 544267.736 4337804.58   697%  1348 6072s
  3867  1658 2453733.34   35  130 544267.736 4325280.00   695%  1347 6131s
  4009  1750 1979031.68   48   91 544267.736 4280704.75   687%  1339 6272s
  4154  1826 3072783.23   24  155 544267.736 4269452.51   684%  1344 6335s
  4334  1929 3516318.62   24  208 544267.736 4258080.73   682%  1326 6422s
  4534  2032 infeasible   42      544267.736 4258080.73   682%  1319 6528s
  4540  2021 1290752.08   43  101 544267.736 4243623.05   680%  1321 6793s
H 4702  1958                    792360.11881 4228315.18   434%  1303 6793s
  4744  1998 797090.048   44   55 792360.119 4209455.19   431%  1307 6860s
  4968  2151 2732301.75   28  194 792360.119 4178443.16   427%  1285 6929s
  5296  2371 2616370.08   31  172 792360.119 4169667.11   426%  1246 7018s
  5529  2512 3759990.62   26  199 792360.119 4104498.98   418%  1244 7099s
  5804  2656 1503805.84   29   99 792360.119 4069028.33   414%  1231 7234s
  6146  2852     cutoff   39      792360.119 4041049.34   410%  1220 7336s
  6369  2970 1532680.38   32   79 792360.119 4010044.60   406%  1212 7430s
  6685  3155 1029532.15   39  144 792360.119 3953842.04   399%  1198 7540s
  7056  3374 3263281.21   26  185 792360.119 3948244.83   398%  1176 8064s
H 7057  2971                    1194762.9892 3948244.83   230%  1176 8065s
  7060  2952 3202849.02   27  185 1194762.99 3931583.40   229%  1176 8143s
  7474  3162 3870296.70   16  115 1194762.99 3899159.15   226%  1152 8242s
  7959  3442 2981141.08   22  138 1194762.99 3885195.28   225%  1123 8357s
  8357  3691 2996921.87   26  161 1194762.99 3826141.15   220%  1108 8470s
  8924  3979 1645744.82   41  208 1194762.99 3781525.44   217%  1084 8585s
  9320  4174     cutoff   37      1194762.99 3774945.48   216%  1073 8705s
  9840  4463 2277991.54   54  147 1194762.99 3746130.28   214%  1055 8874s
 10235  4685     cutoff   34      1194762.99 3733177.51   212%  1056 9020s
 10619  4861 1479859.04   49   57 1194762.99 3718578.74   211%  1052 9210s
 11135  5146 1474172.61   38   70 1194762.99 3684678.60   208%  1049 9358s
 11665  5395 1381876.87   28   86 1194762.99 3667156.71   207%  1042 9488s
 12203  5704 2565966.70   23  166 1194762.99 3647872.11   205%  1031 9636s
 12708  5944 1933778.38   26  169 1194762.99 3634609.81   204%  1027 9867s
 13143  6149     cutoff   31      1194762.99 3609863.54   202%  1027 10367s
*13263  6071              54    1241011.3120 3609863.54   191%  1025 10367s
 13623  6299     cutoff   55      1241011.31 3591893.22   189%  1033 10519s
 13881  6398 3134027.64   25   76 1241011.31 3571751.64   188%  1038 10666s
 14235  6528 2260132.77   38  128 1241011.31 3563255.81   187%  1047 10815s
 14593  6667 2666862.06   26  115 1241011.31 3548400.38   186%  1050 10965s
 15168  6898 1349264.69   45  124 1241011.31 3524870.57   184%  1039 11124s
 15665  7125 2101342.69   28   99 1241011.31 3520059.46   184%  1036 11265s
 16235  7394     cutoff   44      1241011.31 3501550.37   182%  1029 11438s
 16667  7608 infeasible   31      1241011.31 3486545.76   181%  1029 11765s
 17032  7775 3299716.65   30  152 1241011.31 3478412.17   180%  1037 11927s
*17231  7835              40    1241353.9422 3473540.63   180%  1038 11927s
 17360  7921 2686967.68   24   63 1241353.94 3467839.37   179%  1037 12073s
 17726  8103 1477960.91   40   50 1241353.94 3464365.74   179%  1043 12247s
*17791  7701              39    1356440.7713 3464365.74   155%  1043 12247s
*17922  7761              38    1363944.0565 3452331.61   153%  1053 12359s
 18344  7916     cutoff   26      1363944.06 3448153.51   153%  1050 12489s
 18785  8089 1728097.16   37   69 1363944.06 3434439.78   152%  1050 12682s
 19208  8246 2008975.02   39  166 1363944.06 3416846.82   151%  1052 12822s
 19603  8382 2007530.62   34   60 1363944.06 3412352.76   150%  1055 12963s
 20088  8584 2241379.00   25  184 1363944.06 3395280.66   149%  1052 13119s
 20505  8715 3298490.52   24  124 1363944.06 3388952.61   148%  1055 13354s
 20794  8832 2709951.62   26  155 1363944.06 3379181.92   148%  1059 13580s
 21116  8944 1538271.60   31  115 1363944.06 3372849.91   147%  1063 13720s
 21550  9107 1449345.73   38  118 1363944.06 3363120.32   147%  1063 13872s
 22076  9307     cutoff   43      1363944.06 3355553.40   146%  1061 14016s
*22397  9331              43    1380631.3520 3350466.56   143%  1062 14016s
*22398  9326              43    1381646.6556 3350466.56   142%  1062 14016s
*22399  9101              42    1428334.7324 3350466.56   135%  1064 14016s
 22404  9074     cutoff   33      1428334.73 3348223.72   134%  1064 14155s
 22813  9195 1787560.55   40   79 1428334.73 3338275.08   134%  1066 14289s
 23359  9445 1748019.92   58   91 1428334.73 3325611.60   133%  1060 14482s
 23760  9595 2965959.90   25  133 1428334.73 3320006.85   132%  1062 14628s
 24091  9703 2880729.89   24  170 1428334.73 3310907.84   132%  1066 14880s
 24498  9866     cutoff   41      1428334.73 3302749.54   131%  1069 15054s
 24841  9957 1757946.83   36  144 1428334.73 3295352.57   131%  1075 15195s
 25367 10148 2959970.20   27  209 1428334.73 3283021.03   130%  1074 15332s
 25736 10272 2015307.45   39   65 1428334.73 3280503.86   130%  1076 15727s
 26130 10413     cutoff   25      1428334.73 3273388.86   129%  1081 15897s
 26552 10542 2535334.12   33  143 1428334.73 3268027.86   129%  1081 16062s
 27077 10690 1874119.49   33  118 1428334.73 3255026.73   128%  1082 16217s
 27589 10865 3213139.04   29  103 1428334.73 3244175.82   127%  1081 16375s
 28121 11035 2064192.48   29   78 1428334.73 3237991.15   127%  1079 16530s
 28584 11173 1506637.38   28   81 1428334.73 3227866.20   126%  1078 16693s
 29085 11344 1872074.32   44  101 1428334.73 3219670.91   125%  1077 16820s
 29606 11568 1728192.21   34   62 1428334.73 3212735.42   125%  1073 16963s
 30108 11764 2297747.11   36   72 1428334.73 3207478.26   125%  1073 17101s
 30716 11957 2842398.18   20  155 1428334.73 3199225.24   124%  1070 17272s
 31094 12088     cutoff   37      1428334.73 3197013.27   124%  1072 17402s
 31712 12298 2074571.48   28   50 1428334.73 3186947.22   123%  1067 17582s
 32160 12464     cutoff   27      1428334.73 3184233.86   123%  1068 17732s
 32557 12599     cutoff   32      1428334.73 3174802.77   122%  1068 17857s
 33064 12759 2446619.29   26  167 1428334.73 3168303.51   122%  1064 17989s
 33610 12954 2384853.60   31   75 1428334.73 3155850.58   121%  1060 18157s
 34019 13063 infeasible   48      1428334.73 3147023.56   120%  1063 18316s
 34393 13167 2667945.25   36  129 1428334.73 3134402.54   119%  1064 18442s
 34921 13350     cutoff   30      1428334.73 3125307.67   119%  1061 18567s
 35356 13535 1863972.12   29  123 1428334.73 3122235.48   119%  1060 18725s
H35361 13414                    1448433.3495 3122235.48   116%  1060 18725s
H35366 13321                    1466550.5365 3122235.48   113%  1060 18725s
 35369 13291 1824960.14   31   94 1466550.54 3121855.73   113%  1060 18848s
 35829 13455 2490069.97   35   60 1466550.54 3113249.48   112%  1059 18984s
*36262 13473              45    1486649.5924 3107919.23   109%  1058 18984s
 36273 13457 2344872.66   38   46 1486649.59 3107919.23   109%  1059 19194s
 36852 13704 2426604.47   35   61 1486649.59 3094908.13   108%  1057 19313s
 37255 13801 2657099.52   29  121 1486649.59 3089139.80   108%  1056 19436s
 37759 13907     cutoff   35      1486649.59 3085196.27   108%  1054 19558s
 38309 14117 2092015.79   30   68 1486649.59 3073402.47   107%  1051 19698s
 38767 14251 2161694.38   30  180 1486649.59 3069128.92   106%  1050 19822s
 39250 14371 1569136.64   51   50 1486649.59 3061266.98   106%  1050 19950s
 39785 14533     cutoff   41      1486649.59 3052676.93   105%  1047 20074s
 40229 14659     cutoff   31      1486649.59 3048886.01   105%  1045 20286s
 40494 14708     cutoff   37      1486649.59 3043165.72   105%  1048 20403s
 40887 14784     cutoff   34      1486649.59 3035916.87   104%  1048 20517s
 41363 14916     cutoff   33      1486649.59 3029669.84   104%  1047 20650s
 41765 15033     cutoff   34      1486649.59 3023219.13   103%  1047 20780s
 42211 15130 2159836.36   33   78 1486649.59 3016596.49   103%  1046 20910s
 42635 15235 1968479.38   40  102 1486649.59 3014209.72   103%  1047 21025s
 43192 15402     cutoff   46      1486649.59 3002881.55   102%  1043 21139s
 43714 15574 2923548.26   23   73 1486649.59 2998735.67   102%  1041 21270s
 44210 15711 2290413.46   39   67 1486649.59 2990276.77   101%  1040 21401s
 44520 15773 1733393.05   39   94 1486649.59 2987913.45   101%  1041 21515s
 44990 15889 1735066.93   37  155 1486649.59 2983387.82   101%  1040 21656s
 45480 16047 1526732.42   66   44 1486649.59 2979482.02   100%  1039 21805s
 45914 16180 1734904.04   46   49 1486649.59 2973429.38   100%  1038 21920s
 46234 16250     cutoff   27      1486649.59 2966629.21   100%  1039 22133s
 46609 16334 1945351.01   30  140 1486649.59 2965032.73  99.4%  1039 22269s
 46931 16433 2613664.39   35  150 1486649.59 2959650.77  99.1%  1041 22473s
 47254 16486 2767515.55   29   96 1486649.59 2955875.73  98.8%  1042 22597s
 47739 16621 2466572.66   28  187 1486649.59 2948456.29  98.3%  1041 22715s
 48296 16769 2174069.83   27  160 1486649.59 2943954.81  98.0%  1040 22851s
 48795 16900 2527049.29   41  129 1486649.59 2935818.15  97.5%  1037 22968s
 49260 17007 1950887.59   38   28 1486649.59 2932144.87  97.2%  1036 23083s
 49817 17192 2006130.37   58   48 1486649.59 2925782.39  96.8%  1033 23208s
 50244 17330 2598934.21   38   39 1486649.59 2922256.92  96.6%  1032 23325s
 50676 17435     cutoff   34      1486649.59 2915624.52  96.1%  1031 23434s
 51162 17543     cutoff   51      1486649.59 2909972.14  95.7%  1030 23555s
 51667 17683 2834381.10   24   92 1486649.59 2906139.56  95.5%  1028 23688s
 52165 17810 2252185.56   27  168 1486649.59 2900698.08  95.1%  1026 23830s
 52608 17900 2715885.69   29  141 1486649.59 2898496.66  95.0%  1026 23939s
 53156 18080 1800159.16   30  137 1486649.59 2898496.66  95.0%  1023 24093s
 53568 18173 2618925.66   36   61 1486649.59 2890393.25  94.4%  1023 27770s
*53581 17147              45    1600332.2907 2890393.25  80.6%  1023 27771s
 53900 17226 2622720.57   35  135 1600332.29 2889283.16  80.5%  1039 27866s
 54384 17313 2642997.08   35  131 1600332.29 2881593.26  80.1%  1038 27991s
 54744 17359 2191480.37   32  154 1600332.29 2877023.29  79.8%  1039 28127s
 55184 17470     cutoff   38      1600332.29 2869936.37  79.3%  1038 28244s
 55601 17566 2043740.25   47   16 1600332.29 2867254.04  79.2%  1038 28407s
 55979 17608 2079510.89   27  114 1600332.29 2861609.31  78.8%  1039 28525s
 56343 17678 2183593.51   31   98 1600332.29 2859675.92  78.7%  1040 28656s
 56688 17741 2338380.13   29  141 1600332.29 2857171.16  78.5%  1040 28818s
 57207 17886 1706478.46   59   24 1600332.29 2851187.88  78.2%  1039 28994s
 57713 17969 2806796.45   32  110 1600332.29 2842922.94  77.6%  1039 29112s
 58188 18061     cutoff   45      1600332.29 2838654.96  77.4%  1038 29244s
 58707 18194 1806564.59   28   77 1600332.29 2836279.21  77.2%  1037 29403s
 59236 18282 infeasible   28      1600332.29 2830782.48  76.9%  1036 29515s
 59667 18361     cutoff   17      1600332.29 2827074.44  76.7%  1035 29659s
 60056 18435     cutoff   40      1600332.29 2824076.61  76.5%  1036 29789s
 60522 18509 2611394.86   35  141 1600332.29 2819700.37  76.2%  1036 29935s
 60974 18620     cutoff   29      1600332.29 2814921.52  75.9%  1035 30076s
 61481 18744 infeasible   48      1600332.29 2811413.60  75.7%  1033 30206s
 61844 18780 2715729.61   25  136 1600332.29 2809981.02  75.6%  1034 30338s
 62288 18892 1704241.05   49   70 1600332.29 2804833.25  75.3%  1034 30515s
 62581 18899 1730741.03   37   78 1600332.29 2801313.75  75.0%  1035 30644s
 63059 18971 2309621.20   36  152 1600332.29 2797465.75  74.8%  1034 30756s
 63510 19093 2042191.21   42   28 1600332.29 2794823.33  74.6%  1033 31012s
 63793 19129     cutoff   35      1600332.29 2794033.26  74.6%  1035 31131s
 64122 19143     cutoff   38      1600332.29 2790524.25  74.4%  1036 31267s
 64670 19233     cutoff   47      1600332.29 2785990.71  74.1%  1035 31384s
 65250 19388 2400925.15   44   28 1600332.29 2782377.89  73.9%  1033 31547s
 65691 19475 1617758.45   34  143 1600332.29 2779609.81  73.7%  1032 31653s
 66182 19588 2429036.32   32   48 1600332.29 2775446.48  73.4%  1031 31765s
 66583 19674     cutoff   54      1600332.29 2772276.50  73.2%  1032 31911s
 66942 19705 1869840.75   35  125 1600332.29 2770124.79  73.1%  1032 32038s
 67373 19775     cutoff   31      1600332.29 2765898.33  72.8%  1032 32202s
H67548 19689                    1610415.9311 2765654.10  71.7%  1032 32202s
*67549 19682              56    1610975.9172 2765654.10  71.7%  1032 32202s
 67727 19707     cutoff   48      1610975.92 2764067.30  71.6%  1033 32325s
 68097 19787 infeasible   30      1610975.92 2763584.68  71.5%  1033 32435s
 68558 19889 1916204.88   32   56 1610975.92 2757191.38  71.2%  1033 32563s
 68999 19965 2402963.74   27  137 1610975.92 2754404.25  71.0%  1033 32673s
 69527 20099 2679945.47   29  116 1610975.92 2750567.66  70.7%  1032 32780s
 70097 20266     cutoff   70      1610975.92 2747480.79  70.5%  1030 32924s
 70539 20333 infeasible   35      1610975.92 2745416.49  70.4%  1029 33187s
 70875 20352 1996763.89   38   70 1610975.92 2743104.89  70.3%  1030 33335s
 71346 20442     cutoff   29      1610975.92 2739106.26  70.0%  1030 33445s
 71903 20575     cutoff   45      1610975.92 2736412.77  69.9%  1028 33569s
 72429 20725 2313043.84   35  233 1610975.92 2733740.10  69.7%  1027 33715s
 72724 20784     cutoff   39      1610975.92 2731338.97  69.5%  1028 33838s
 73105 20872     cutoff   38      1610975.92 2727681.50  69.3%  1028 33980s
 73591 20969     cutoff   29      1610975.92 2723932.55  69.1%  1027 34125s
 73998 21053     cutoff   26      1610975.92 2720539.08  68.9%  1027 34243s
 74489 21147 1739726.68   25   61 1610975.92 2717095.42  68.7%  1026 34375s
 75031 21278     cutoff   32      1610975.92 2712915.90  68.4%  1025 34497s
 75523 21369 infeasible   55      1610975.92 2709306.57  68.2%  1024 34655s
 75930 21442 infeasible   38      1610975.92 2706009.78  68.0%  1024 34769s
 76328 21520 2629828.97   31   99 1610975.92 2702983.38  67.8%  1023 34873s
 76777 21590     cutoff   44      1610975.92 2700626.98  67.6%  1023 34992s
 77154 21667 2600273.19   34   99 1610975.92 2697627.71  67.5%  1023 35170s
 77465 21719 2372741.87   43   58 1610975.92 2696730.76  67.4%  1025 35314s
 77854 21770 1790125.92   57   40 1610975.92 2694412.39  67.3%  1025 35462s
 78329 21851 2006453.18   32  155 1610975.92 2691533.36  67.1%  1025 35570s
 78768 21901     cutoff   35      1610975.92 2689502.25  66.9%  1025 35731s
 79157 21935     cutoff   39      1610975.92 2687747.95  66.8%  1026 35839s
 79544 21985 2364706.59   37  187 1610975.92 2687328.06  66.8%  1025 35974s
*79716 21324              62    1653252.6214 2687328.06  62.5%  1025 35974s
*79719 21018              61    1672397.5265 2687328.06  60.7%  1025 35974s
 79853 21013     cutoff   54      1672397.53 2683210.50  60.4%  1026 36073s
 80323 21121 2099294.62   43   42 1672397.53 2680591.61  60.3%  1026 36182s
 80685 21163     cutoff   47      1672397.53 2677633.88  60.1%  1027 36336s
 81104 21215 2141534.92   36   69 1672397.53 2675711.00  60.0%  1027 36442s
 81642 21310     cutoff   32      1672397.53 2672867.16  59.8%  1026 36552s
 82065 21395 1806440.56   27   93 1672397.53 2670057.94  59.7%  1026 36709s
 82332 21408 2291353.63   35  152 1672397.53 2668225.58  59.5%  1027 36813s
 82717 21450     cutoff   33      1672397.53 2664220.22  59.3%  1028 36930s
 83069 21505 1881549.55   32  135 1672397.53 2662329.00  59.2%  1028 37469s
*83157 21367              45    1681832.5042 2661691.67  58.3%  1028 37469s
 83472 21471 2316187.43   34  164 1681832.50 2660780.96  58.2%  1029 37630s
 83729 21503 1906658.71   35  131 1681832.50 2658892.71  58.1%  1031 37762s
 83939 21492 2309249.32   40  128 1681832.50 2658446.51  58.1%  1032 37953s
 84288 21540 2350935.23   27   48 1681832.50 2655990.14  57.9%  1034 38112s
 84562 21561 2490557.74   30  128 1681832.50 2652492.00  57.7%  1035 38234s
 84868 21603 infeasible   42      1681832.50 2651456.82  57.7%  1036 38408s
 85246 21668 1847066.36   42   62 1681832.50 2647691.20  57.4%  1037 38531s
 85640 21711     cutoff   36      1681832.50 2645341.41  57.3%  1037 38668s
 86147 21764     cutoff   30      1681832.50 2641031.66  57.0%  1036 38794s
 86671 21846     cutoff   43      1681832.50 2636549.85  56.8%  1035 38914s
 87032 21875 1860198.80   40  144 1681832.50 2635119.22  56.7%  1036 39031s
 87341 21871     cutoff   26      1681832.50 2633188.72  56.6%  1037 39152s
 87768 21921     cutoff   25      1681832.50 2630308.55  56.4%  1037 39266s
 88203 21982 1741013.65   32   54 1681832.50 2627476.44  56.2%  1037 39393s
 88712 22082 1783464.62   31   54 1681832.50 2622678.52  55.9%  1036 39530s
 89196 22125 1855399.31   34  103 1681832.50 2619742.60  55.8%  1036 39651s
 89671 22190 1896313.02   38  106 1681832.50 2616836.76  55.6%  1036 39774s
 90255 22306     cutoff   40      1681832.50 2614089.64  55.4%  1035 39882s
 90688 22340 2000519.10   43   84 1681832.50 2611178.72  55.3%  1035 40016s
 91150 22400 1878999.88   29  124 1681832.50 2609133.01  55.1%  1035 40127s
 91621 22469     cutoff   55      1681832.50 2605922.73  54.9%  1035 40234s
 92134 22576 2235550.20   51   20 1681832.50 2603411.59  54.8%  1033 40392s
 92505 22589     cutoff   48      1681832.50 2599756.81  54.6%  1034 40509s
 92957 22643 2476357.58   48   52 1681832.50 2597444.43  54.4%  1033 40652s
 93454 22738 2399837.10   35  232 1681832.50 2594661.14  54.3%  1033 40911s
 93887 22820     cutoff   35      1681832.50 2592378.08  54.1%  1033 41020s
 94354 22880 infeasible   30      1681832.50 2588736.62  53.9%  1032 41128s
 94934 22972 2148896.24   39   75 1681832.50 2585099.91  53.7%  1031 41305s
 95409 23017     cutoff   41      1681832.50 2582348.05  53.5%  1031 41439s
 95834 23077 infeasible   34      1681832.50 2579400.20  53.4%  1031 41571s
 96248 23138 2461947.72   26  144 1681832.50 2578977.66  53.3%  1030 41716s
 96691 23195 2043866.90   28  139 1681832.50 2574721.39  53.1%  1030 41826s
 97154 23238 1847914.60   33  161 1681832.50 2572664.66  53.0%  1030 41929s
 97293 23281     cutoff   34      1681832.50 2572664.66  53.0%  1030 41930s
 97638 23286 2519132.03   28  167 1681832.50 2569269.04  52.8%  1029 42064s
 98165 23379 2549284.61   35  100 1681832.50 2567235.39  52.6%  1028 42171s
 98616 23424 1758799.39   36   36 1681832.50 2563557.44  52.4%  1028 42273s
 99067 23464     cutoff   35      1681832.50 2561000.16  52.3%  1027 42434s
 99444 23465 1819413.95   41  192 1681832.50 2559018.78  52.2%  1028 42540s
 99950 23556     cutoff   35      1681832.50 2556170.79  52.0%  1027 42659s
 100461 23672 2517892.65   29  121 1681832.50 2553356.84  51.8%  1026 42786s
 100827 23680 2036077.15   33  151 1681832.50 2551186.08  51.7%  1027 42899s
 101309 23741 infeasible   40      1681832.50 2548254.93  51.5%  1026 42997s
 101741 23769     cutoff   50      1681832.50 2545411.23  51.3%  1026 43101s
 102118 23762     cutoff   43      1681832.50 2544339.61  51.3%  1026 43201s
 102565 23805 1844172.12   46   38 1681832.50 2540710.52  51.1%  1026 43326s
 103112 23890 2038703.05   36   65 1681832.50 2537712.64  50.9%  1025 43484s
 103579 23953 2075333.67   41   39 1681832.50 2535048.00  50.7%  1025 43585s
 104036 23998 2127762.35   40  112 1681832.50 2532516.85  50.6%  1024 43719s
 104546 24062 1918290.50   39   44 1681832.50 2529021.70  50.4%  1023 43856s
 105022 24115 2194954.25   47   30 1681832.50 2527300.80  50.3%  1022 43973s
 105415 24117 1802089.52   37  186 1681832.50 2523245.63  50.0%  1022 44088s
 105793 24157 1734153.81   39   82 1681832.50 2521875.81  49.9%  1022 44205s
 106190 24212     cutoff   37      1681832.50 2519858.38  49.8%  1022 44328s
 106543 24265 1722040.30   51   32 1681832.50 2518885.57  49.8%  1022 44429s
 106934 24280 2335237.96   50   30 1681832.50 2516214.72  49.6%  1023 44530s
 107327 24285 2479680.08   29  107 1681832.50 2514472.11  49.5%  1022 44624s
 107734 24317     cutoff   31      1681832.50 2510572.72  49.3%  1022 44739s
 108104 24338     cutoff   45      1681832.50 2509339.74  49.2%  1022 44836s
 108639 24458 1953254.47   40  178 1681832.50 2507150.57  49.1%  1021 44932s
 109040 24484 2350417.23   47   44 1681832.50 2504858.53  48.9%  1021 45027s
 109449 24533 2498135.42   26  118 1681832.50 2502152.88  48.8%  1021 45127s
 109882 24545 2020529.26   39  103 1681832.50 2500733.31  48.7%  1020 45228s
 110369 24614 1851707.60   33  159 1681832.50 2498675.65  48.6%  1020 45375s
 110840 24635 1796285.47   32  127 1681832.50 2495928.05  48.4%  1019 45491s
 111200 24627     cutoff   30      1681832.50 2492821.07  48.2%  1019 45603s
 111611 24675 2182817.02   33  108 1681832.50 2490986.65  48.1%  1019 45723s
 111877 24662 infeasible   38      1681832.50 2489644.17  48.0%  1020 45821s
 112326 24689 2067743.47   36  113 1681832.50 2486690.80  47.9%  1020 45936s
 112685 24697 2187607.70   39   25 1681832.50 2485870.18  47.8%  1020 46049s
 113094 24772     cutoff   41      1681832.50 2483442.87  47.7%  1020 46150s
 113464 24804 2443386.73   46   34 1681832.50 2482492.60  47.6%  1020 46257s
 113869 24841     cutoff   30      1681832.50 2479906.74  47.5%  1020 46369s
 114333 24864     cutoff   26      1681832.50 2477039.01  47.3%  1019 46531s
 114715 24883 2427566.83   31  166 1681832.50 2474778.21  47.1%  1019 46693s
 115169 24884 infeasible   56      1681832.50 2472868.40  47.0%  1019 46790s
 115616 24923 2264264.10   47  124 1681832.50 2468804.85  46.8%  1018 46888s
 116059 25001 2340275.92   46  153 1681832.50 2466977.43  46.7%  1018 46988s
 116529 25077 2050072.32   36   56 1681832.50 2465444.98  46.6%  1017 47125s
 116960 25146 1797131.96   33  144 1681832.50 2463550.42  46.5%  1017 47231s
 117307 25197     cutoff   40      1681832.50 2461846.80  46.4%  1017 47368s
 117728 25289 infeasible   49      1681832.50 2459513.10  46.2%  1017 47473s
 118068 25296 2419708.69   33  112 1681832.50 2457268.77  46.1%  1017 47583s
 118482 25321     cutoff   28      1681832.50 2455577.40  46.0%  1017 53161s
 118869 25346 1983130.28   31  156 1681832.50 2454525.06  45.9%  1024 53267s
 119323 25464 2193121.62   31   61 1681832.50 2453526.45  45.9%  1024 53404s
 119713 25474 1945740.10   34   59 1681832.50 2450549.99  45.7%  1024 53508s
 120200 25550 2028481.18   36   88 1681832.50 2447564.19  45.5%  1023 53724s
 120671 25603     cutoff   50      1681832.50 2445834.54  45.4%  1023 53825s
 121128 25645 2424343.88   29  126 1681832.50 2443168.22  45.3%  1022 53928s
 121548 25697 2039248.32   31  136 1681832.50 2440517.09  45.1%  1022 54044s
 121853 25693     cutoff   49      1681832.50 2438885.98  45.0%  1023 54158s
 122233 25706     cutoff   45      1681832.50 2437491.99  44.9%  1023 54293s
 122680 25767 1872401.94   74   42 1681832.50 2434235.57  44.7%  1022 54404s
*122685 24771              79    1724109.1591 2434235.57  41.2%  1022 54404s
H122922 24793                    1724109.2003 2433964.90  41.2%  1023 54502s
H123010 24268                    1743254.0307 2433964.90  39.6%  1023 54502s
H123107 23695                    1763353.3219 2433964.90  38.0%  1023 54502s
 123184 23645     cutoff   45      1763353.32 2432836.45  38.0%  1023 54596s
 123630 23639 2243470.64   45   56 1763353.32 2429576.68  37.8%  1023 54693s
 124072 23678 2078830.97   32   39 1763353.32 2428056.71  37.7%  1022 54788s
 124525 23690 2376274.15   24   89 1763353.32 2425420.38  37.5%  1022 54887s
 124923 23667 2377999.08   35   40 1763353.32 2422499.88  37.4%  1022 54979s
 125351 23686     cutoff   43      1763353.32 2420057.88  37.2%  1021 55079s
 125799 23728     cutoff   49      1763353.32 2418394.70  37.1%  1021 55206s
 126257 23732 2073315.64   41  126 1763353.32 2415983.67  37.0%  1020 55304s
 126730 23731     cutoff   27      1763353.32 2413999.19  36.9%  1020 55405s
 127269 23820 2223937.63   24   64 1763353.32 2411680.72  36.8%  1019 55502s
 127558 23786 2287315.01   42   55 1763353.32 2410495.49  36.7%  1020 55600s
 127879 23781 2007203.85   47  101 1763353.32 2409198.30  36.6%  1020 55710s
 128224 23775     cutoff   27      1763353.32 2406250.66  36.5%  1020 55827s
 128633 23772 1904832.43   37  100 1763353.32 2404417.48  36.4%  1020 55920s
 128996 23771     cutoff   35      1763353.32 2401500.70  36.2%  1020 56018s
 129356 23752     cutoff   31      1763353.32 2400843.49  36.2%  1020 56110s
 129693 23740     cutoff   38      1763353.32 2397891.84  36.0%  1020 56218s
 130075 23739     cutoff   40      1763353.32 2396286.68  35.9%  1020 56363s
 130403 23729 1977214.76   26  114 1763353.32 2395813.46  35.9%  1020 56485s
 130753 23721     cutoff   36      1763353.32 2394069.62  35.8%  1021 56583s
 131151 23714     cutoff   48      1763353.32 2391032.46  35.6%  1021 56677s
 131584 23703     cutoff   38      1763353.32 2388784.08  35.5%  1021 56785s
 131863 23678     cutoff   41      1763353.32 2387022.55  35.4%  1021 56886s
 132318 23694 2287182.61   38   94 1763353.32 2384025.12  35.2%  1021 56982s
 132748 23726 2147622.77   40   51 1763353.32 2381673.17  35.1%  1020 57092s
 133074 23697 infeasible   43      1763353.32 2380665.73  35.0%  1021 57236s
 133394 23680     cutoff   26      1763353.32 2378602.97  34.9%  1021 57347s
 133735 23688     cutoff   38      1763353.32 2376701.52  34.8%  1021 57482s
 134034 23650 2172826.96   37   21 1763353.32 2375306.93  34.7%  1022 57583s
 134549 23691 infeasible   39      1763353.32 2373116.15  34.6%  1021 57738s
 134836 23625 2231970.01   31  117 1763353.32 2371791.08  34.5%  1021 57837s
 135249 23637 2298142.18   40   32 1763353.32 2369977.64  34.4%  1021 57935s
 135635 23619 2172425.28   25  136 1763353.32 2366946.20  34.2%  1021 58116s
 136115 23669 2316644.92   37  109 1763353.32 2366556.83  34.2%  1021 58237s
 136319 23619 2350273.43   25   88 1763353.32 2364930.11  34.1%  1021 58435s
 136702 23617 infeasible   42      1763353.32 2361528.46  33.9%  1021 58533s
 137115 23617     cutoff   34      1763353.32 2359141.35  33.8%  1021 58640s
 137491 23636 2250798.28   36  153 1763353.32 2358430.86  33.7%  1021 58769s
 137814 23624     cutoff   62      1763353.32 2356437.12  33.6%  1021 58868s
 138109 23598 2200520.36   34   39 1763353.32 2355446.61  33.6%  1022 58972s
 138416 23609 1934493.54   40  135 1763353.32 2355175.40  33.6%  1022 59085s
 138714 23594     cutoff   56      1763353.32 2353355.52  33.5%  1022 59210s
 138988 23580 1898776.35   63   80 1763353.32 2352892.32  33.4%  1023 59392s
 139362 23604 2260932.49   50   54 1763353.32 2349444.64  33.2%  1023 59511s
 139686 23595     cutoff   36      1763353.32 2347561.85  33.1%  1023 59618s
 140038 23593     cutoff   35      1763353.32 2345525.26  33.0%  1024 59765s
 140409 23589 1922152.56   40  116 1763353.32 2344234.32  32.9%  1024 59890s
 140724 23549     cutoff   42      1763353.32 2341608.00  32.8%  1024 59988s
 141209 23566     cutoff   43      1763353.32 2339744.22  32.7%  1023 60092s
 141577 23553     cutoff   46      1763353.32 2337620.16  32.6%  1023 60184s
 141941 23587     cutoff   48      1763353.32 2335072.22  32.4%  1023 60293s
 142250 23575 1881488.12   24  105 1763353.32 2333979.79  32.4%  1024 60481s
 142626 23578 2200273.84   32   40 1763353.32 2332204.63  32.3%  1023 60592s
 142970 23571 2186950.58   29   45 1763353.32 2330441.73  32.2%  1024 60701s
 143296 23553 1964572.54   25   15 1763353.32 2329296.07  32.1%  1024 60824s
 143693 23572     cutoff   34      1763353.32 2326744.88  32.0%  1024 60932s
 144106 23555     cutoff   35      1763353.32 2324667.83  31.8%  1024 61068s
 144473 23537 1800166.78   31   53 1763353.32 2323885.26  31.8%  1024 61162s
 144959 23592     cutoff   28      1763353.32 2321139.86  31.6%  1024 61267s
 145306 23576 2244346.44   25  122 1763353.32 2319455.33  31.5%  1024 61414s
 145525 23516     cutoff   51      1763353.32 2319154.02  31.5%  1025 61509s
 145875 23491     cutoff   41      1763353.32 2315380.72  31.3%  1025 61605s
 146271 23498 2248087.50   36   70 1763353.32 2313178.01  31.2%  1025 61717s
 146625 23473 2214534.25   33   69 1763353.32 2312118.68  31.1%  1025 61824s
 146942 23464 1975105.82   36   79 1763353.32 2310104.28  31.0%  1025 61999s
 147299 23450 1999501.12   34   85 1763353.32 2308290.52  30.9%  1025 62149s
 147648 23428     cutoff   48      1763353.32 2306562.05  30.8%  1026 62270s
 148038 23423 2297100.68   34  124 1763353.32 2304980.45  30.7%  1026 62373s
 148415 23425     cutoff   29      1763353.32 2303804.73  30.6%  1026 62485s
 148682 23383     cutoff   49      1763353.32 2301584.48  30.5%  1026 62587s
 148958 23346 1851052.78   37   35 1763353.32 2299353.56  30.4%  1026 62702s
 149315 23334 2215137.94   33  143 1763353.32 2297973.96  30.3%  1026 62814s
 149606 23292 infeasible   23      1763353.32 2296920.54  30.3%  1027 62953s
 150010 23298 2019689.11   31   76 1763353.32 2295031.74  30.2%  1027 63067s
 150271 23268 1824605.49   41   88 1763353.32 2294217.27  30.1%  1028 63167s
 150499 23203 infeasible   35      1763353.32 2292579.23  30.0%  1028 63351s
 150816 23209 2176657.69   47   53 1763353.32 2290267.04  29.9%  1029 63467s
 151138 23209     cutoff   44      1763353.32 2289847.47  29.9%  1029 63620s
 151455 23188     cutoff   50      1763353.32 2288143.54  29.8%  1029 63695s
 151791 23161 2154749.31   38   97 1763353.32 2285626.66  29.6%  1029 63838s
 152139 23133     cutoff   52      1763353.32 2283934.75  29.5%  1029 63979s
 152441 23109 1780962.21   38   41 1763353.32 2282591.37  29.4%  1029 64070s
 152863 23122 2246187.07   34   86 1763353.32 2280214.22  29.3%  1029 64160s
 153184 23097 2018014.21   40  107 1763353.32 2278491.72  29.2%  1028 64260s
 153483 23067 1870886.12   44   17 1763353.32 2276697.23  29.1%  1028 64366s
 153800 23063 1859697.15   34   35 1763353.32 2275021.32  29.0%  1028 64479s
 154133 23071 1785474.10   35   78 1763353.32 2273776.72  28.9%  1029 64651s
 154435 23031     cutoff   30      1763353.32 2271522.99  28.8%  1029 64826s
 154778 22994     cutoff   40      1763353.32 2269546.36  28.7%  1030 64935s
 155035 22951     cutoff   36      1763353.32 2267635.31  28.6%  1030 65051s
 155394 22925     cutoff   33      1763353.32 2266376.49  28.5%  1030 65159s
 155770 22906 2155637.16   52  122 1763353.32 2264220.89  28.4%  1031 65261s
 156116 22896     cutoff   41      1763353.32 2262554.65  28.3%  1031 65362s
 156395 22855     cutoff   40      1763353.32 2260786.08  28.2%  1031 65538s
 156774 22859     cutoff   39      1763353.32 2258712.26  28.1%  1031 65659s
 157020 22804 2008659.52   39   80 1763353.32 2257913.16  28.0%  1031 65744s
 157374 22799     cutoff   27      1763353.32 2254649.97  27.9%  1031 65839s
 157759 22784 1999929.82   35   87 1763353.32 2253038.73  27.8%  1031 65980s
 158166 22787     cutoff   32      1763353.32 2251218.47  27.7%  1030 66102s
 158505 22776     cutoff   22      1763353.32 2250042.47  27.6%  1031 66201s
 158842 22763     cutoff   35      1763353.32 2248588.60  27.5%  1031 66312s
 159175 22725     cutoff   50      1763353.32 2246817.88  27.4%  1031 66535s
 159533 22702     cutoff   33      1763353.32 2245724.67  27.4%  1031 66636s
 159848 22657 2226244.86   39   61 1763353.32 2243461.99  27.2%  1031 66735s
 160357 22705     cutoff   37      1763353.32 2242192.14  27.2%  1031 66844s
 160628 22673     cutoff   51      1763353.32 2240222.69  27.0%  1030 66976s
 160960 22654     cutoff   29      1763353.32 2238890.49  27.0%  1030 67078s
 161302 22625     cutoff   38      1763353.32 2236784.42  26.8%  1031 67156s
 161634 22607 infeasible   44      1763353.32 2235221.51  26.8%  1030 67250s
 161975 22573     cutoff   40      1763353.32 2233763.10  26.7%  1030 67360s
 162278 22539 2204815.24   56   36 1763353.32 2232146.88  26.6%  1030 67458s
 162553 22514 2074713.18   37   45 1763353.32 2231644.64  26.6%  1031 67574s
 162887 22462 2203017.45   37   66 1763353.32 2229422.22  26.4%  1031 67644s
 163247 22453 1989817.56   39   46 1763353.32 2227758.37  26.3%  1030 67767s
 163614 22422 1951158.75   49   58 1763353.32 2226607.81  26.3%  1030 67858s
 163893 22376 1781975.30   47   32 1763353.32 2224888.96  26.2%  1030 67961s
 164252 22363     cutoff   33      1763353.32 2223337.75  26.1%  1030 68071s
 164606 22356     cutoff   49      1763353.32 2222871.61  26.1%  1030 68200s
 164948 22336     cutoff   45      1763353.32 2220393.49  25.9%  1030 68283s
 165306 22322     cutoff   50      1763353.32 2218750.16  25.8%  1030 68367s
 165681 22317     cutoff   56      1763353.32 2216798.43  25.7%  1030 68466s
 166001 22309 1893518.22   38   78 1763353.32 2215406.01  25.6%  1030 68607s
 166254 22260     cutoff   32      1763353.32 2215003.16  25.6%  1030 68712s
 166611 22236 2149495.05   30  125 1763353.32 2212833.66  25.5%  1030 68780s
 166897 22183 1964230.08   31   55 1763353.32 2210937.95  25.4%  1030 68923s
 167326 22182 2073369.94   52   54 1763353.32 2209554.19  25.3%  1030 69012s
 167699 22170     cutoff   32      1763353.32 2207992.31  25.2%  1030 69194s
 168015 22138 2140240.79   40   28 1763353.32 2206608.38  25.1%  1030 69277s
 168368 22114     cutoff   43      1763353.32 2205134.00  25.1%  1030 69364s
 168720 22079     cutoff   33      1763353.32 2203590.98  25.0%  1030 69423s
 168962 22023     cutoff   38      1763353.32 2202203.80  24.9%  1030 69584s
 169274 21983 2134720.46   31   96 1763353.32 2200604.35  24.8%  1030 69696s
 169694 21955 2109121.99   30  147 1763353.32 2199430.29  24.7%  1030 69800s
 170012 21903     cutoff   26      1763353.32 2198030.58  24.7%  1030 69881s
 170319 21859 2083629.89   49   43 1763353.32 2196151.83  24.5%  1030 69954s
 170677 21841 2157657.40   40   65 1763353.32 2194659.08  24.5%  1029 70025s
 171025 21811     cutoff   42      1763353.32 2193282.85  24.4%  1029 70144s
 171267 21778 2100074.03   44  108 1763353.32 2192384.46  24.3%  1029 70275s
H171535 21801                    1763353.3329 2191260.97  24.3%  1029 70275s
 171563 21732     cutoff   19      1763353.33 2191192.77  24.3%  1029 70370s
 171907 21705     cutoff   42      1763353.33 2188711.69  24.1%  1029 70484s
 172186 21661 2028302.78   29   51 1763353.33 2187358.47  24.0%  1030 70578s
 172504 21618 2140725.42   51   28 1763353.33 2185660.44  23.9%  1030 70660s
 172805 21566 2111082.98   35   83 1763353.33 2184330.16  23.9%  1030 70759s
 173178 21543     cutoff   40      1763353.33 2183173.55  23.8%  1030 70855s
 173493 21507     cutoff   24      1763353.33 2181756.69  23.7%  1030 70966s
 173812 21489     cutoff   56      1763353.33 2179980.88  23.6%  1030 71053s
 174076 21446 2161562.14   36   30 1763353.33 2179256.27  23.6%  1030 71129s
 174402 21426     cutoff   37      1763353.33 2177344.39  23.5%  1030 71201s
 174842 21448 2145255.95   44  123 1763353.33 2176194.82  23.4%  1029 71289s
 175200 21431     cutoff   28      1763353.33 2174993.49  23.3%  1029 71405s
 175476 21392     cutoff   57      1763353.33 2173586.52  23.3%  1029 71984s
 175724 21365     cutoff   41      1763353.33 2172703.98  23.2%  1029 72122s
 175985 21327     cutoff   46      1763353.33 2171953.75  23.2%  1029 72215s
 176337 21319     cutoff   49      1763353.33 2170711.42  23.1%  1029 72273s
 176594 21266     cutoff   31      1763353.33 2168973.36  23.0%  1029 72337s
 176963 21300 1897234.29   46   81 1763353.33 2167545.07  22.9%  1028 72498s
 177281 21282 1782614.86   40   84 1763353.33 2166512.49  22.9%  1029 72617s
 177589 21251 infeasible   37      1763353.33 2165352.10  22.8%  1029 72687s
 177939 21216     cutoff   38      1763353.33 2163837.12  22.7%  1029 72776s
 178329 21196 1807355.70   32   69 1763353.33 2162365.69  22.6%  1028 72889s
 178649 21178 1880581.62   41   71 1763353.33 2161148.66  22.6%  1029 73004s
 178899 21147 2106092.26   27   73 1763353.33 2160801.94  22.5%  1029 73117s
 179197 21107     cutoff   45      1763353.33 2158763.78  22.4%  1029 73207s
 179524 21092 2145083.45   29   34 1763353.33 2157249.30  22.3%  1029 73316s
 179779 21038     cutoff   36      1763353.33 2156235.98  22.3%  1029 73395s
 180057 21007 2034544.51   48   48 1763353.33 2154537.81  22.2%  1029 73449s
 180341 20950 2139551.13   38   65 1763353.33 2153276.33  22.1%  1029 73550s
 180709 20947 2068842.22   32  101 1763353.33 2152471.66  22.1%  1029 73640s
 181096 20923 1984208.09   35  118 1763353.33 2150874.18  22.0%  1028 73716s
 181408 20872     cutoff   44      1763353.33 2149271.09  21.9%  1028 73765s
 181670 20833 2037501.86   44   49 1763353.33 2147813.96  21.8%  1028 73831s
 181999 20814 2065848.20   36  110 1763353.33 2146389.03  21.7%  1028 73926s
 182324 20791 1907157.96   36  108 1763353.33 2145272.34  21.7%  1028 74023s
 182610 20761 2135494.60   46   39 1763353.33 2144142.66  21.6%  1028 74126s
 182856 20708     cutoff   32      1763353.33 2143354.12  21.5%  1028 74216s
 183172 20679     cutoff   38      1763353.33 2141525.07  21.4%  1028 74282s
 183444 20643     cutoff   50      1763353.33 2139977.77  21.4%  1028 74407s
 183714 20612  postponed   39      1763353.33 2139560.18  21.3%  1028 74537s
 183957 20587 infeasible   53      1763353.33 2138840.96  21.3%  1028 74663s
 184200 20548 2069762.65   50   58 1763353.33 2137503.46  21.2%  1028 74760s
 184399 20494     cutoff   39      1763353.33 2136533.21  21.2%  1029 74822s
 184630 20433 2074918.49   40   98 1763353.33 2134524.82  21.0%  1029 74917s
 184937 20423     cutoff   34      1763353.33 2132873.11  21.0%  1029 75012s
 185157 20359 2063235.26   42   21 1763353.33 2131281.40  20.9%  1029 75128s
 185507 20314     cutoff   47      1763353.33 2130254.46  20.8%  1029 75221s
 185842 20284 1964936.91   44   32 1763353.33 2128934.75  20.7%  1029 75290s
 186112 20238 2045005.05   48   28 1763353.33 2127418.83  20.6%  1029 75369s
 186474 20220     cutoff   46      1763353.33 2126082.46  20.6%  1029 75459s
 186687 20160     cutoff   46      1763353.33 2125078.74  20.5%  1029 75546s
 187077 20168     cutoff   40      1763353.33 2123460.70  20.4%  1029 75623s
 187451 20139 2062243.11   27   93 1763353.33 2122088.38  20.3%  1028 75700s
 187823 20118 2036850.67   35   94 1763353.33 2120846.41  20.3%  1028 75806s
 188114 20082     cutoff   40      1763353.33 2119747.75  20.2%  1028 75907s
 188437 20059     cutoff   37      1763353.33 2118216.55  20.1%  1028 76012s
 188831 20049     cutoff   41      1763353.33 2117183.81  20.1%  1028 76116s
 189147 20021     cutoff   36      1763353.33 2115944.67  20.0%  1028 76178s
 189401 19976     cutoff   38      1763353.33 2114645.66  19.9%  1028 76283s
 189693 19957 2040364.19   37   38 1763353.33 2113246.30  19.8%  1028 76375s
 189955 19931     cutoff   43      1763353.33 2112619.65  19.8%  1028 76469s
 190226 19923 1812702.38   33   64 1763353.33 2111566.00  19.7%  1028 76604s
 190359 19856 1804313.73   34   48 1763353.33 2111386.35  19.7%  1028 76706s
 190666 19846     cutoff   51      1763353.33 2109323.74  19.6%  1028 76814s
 190978 19793 infeasible   54      1763353.33 2107757.75  19.5%  1029 76904s
 191242 19746 2070595.76   34   83 1763353.33 2106429.80  19.5%  1029 76985s
 191523 19689 2051970.98   36  142 1763353.33 2105258.09  19.4%  1029 77050s
 191790 19663     cutoff   53      1763353.33 2104005.26  19.3%  1029 77253s
 192095 19618 1803156.86   34   89 1763353.33 2103031.00  19.3%  1029 77332s
 192401 19589     cutoff   54      1763353.33 2101415.86  19.2%  1029 77553s
 192716 19563 2049012.65   44   53 1763353.33 2100219.56  19.1%  1029 77619s
 192967 19534 1937513.48   22  128 1763353.33 2098866.05  19.0%  1029 77682s
 193246 19476 2083931.31   35   74 1763353.33 2097630.85  19.0%  1029 77767s
 193499 19430 1785607.93   42   46 1763353.33 2096341.29  18.9%  1029 77834s
 193755 19386 1975953.98   30  145 1763353.33 2094824.74  18.8%  1029 78009s
 193995 19316     cutoff   36      1763353.33 2093758.56  18.7%  1029 78097s
 194300 19281 1967667.58   32  125 1763353.33 2092455.21  18.7%  1029 78199s
 194595 19240     cutoff   26      1763353.33 2091575.78  18.6%  1029 78311s
 194968 19248 2073835.91   35   66 1763353.33 2090482.82  18.6%  1029 78386s
 195361 19247     cutoff   29      1763353.33 2089164.58  18.5%  1028 78455s
 195603 19201     cutoff   45      1763353.33 2088048.49  18.4%  1028 78549s
 195910 19166     cutoff   28      1763353.33 2087457.29  18.4%  1028 78642s
 196162 19121 2072438.21   34   90 1763353.33 2086235.05  18.3%  1028 78732s
 196439 19054 1965530.27   38   61 1763353.33 2084945.79  18.2%  1029 78823s
 196708 18993     cutoff   40      1763353.33 2083780.75  18.2%  1029 78906s
 197032 18957     cutoff   37      1763353.33 2082641.53  18.1%  1029 78982s
 197318 18894     cutoff   33      1763353.33 2081308.25  18.0%  1029 79075s
 197596 18885     cutoff   32      1763353.33 2080348.77  18.0%  1028 79186s
 197924 18858 1802675.36   58   18 1763353.33 2079735.31  17.9%  1028 79302s
 198111 18790     cutoff   41      1763353.33 2078475.15  17.9%  1029 79373s
 198520 18793 2027929.43   36   65 1763353.33 2076865.39  17.8%  1028 79458s
 198765 18761     cutoff   44      1763353.33 2075592.38  17.7%  1028 79553s
 199025 18716     cutoff   54      1763353.33 2075172.29  17.7%  1029 79618s
 199343 18685     cutoff   45      1763353.33 2073536.09  17.6%  1028 79701s
 199581 18623 1958244.27   42   12 1763353.33 2072657.22  17.5%  1029 79756s
 199852 18573     cutoff   35      1763353.33 2071484.59  17.5%  1029 79811s
 200107 18539 1949629.12   28  115 1763353.33 2070040.03  17.4%  1029 79900s
 200394 18495     cutoff   50      1763353.33 2069200.85  17.3%  1029 79991s
 200647 18455     cutoff   44      1763353.33 2068113.63  17.3%  1029 80060s
 200938 18410     cutoff   40      1763353.33 2066658.53  17.2%  1029 80138s
 201288 18370 2028734.79   40   38 1763353.33 2065582.00  17.1%  1028 80194s
 201586 18338     cutoff   29      1763353.33 2064586.60  17.1%  1028 80282s
 201804 18272 2050708.30   33  117 1763353.33 2063993.12  17.0%  1029 80346s
 202045 18223 1930259.92   44   67 1763353.33 2062333.02  17.0%  1029 80455s
 202282 18161     cutoff   44      1763353.33 2061474.99  16.9%  1029 80510s
 202564 18105     cutoff   38      1763353.33 2059992.71  16.8%  1029 80566s
 202834 18056     cutoff   35      1763353.33 2058808.02  16.8%  1028 80667s
 203140 18026     cutoff   37      1763353.33 2057702.39  16.7%  1028 80760s
 203425 17987     cutoff   31      1763353.33 2056982.27  16.7%  1029 80850s
 203697 17944     cutoff   36      1763353.33 2055413.56  16.6%  1029 80933s
 203984 17913 2034200.46   35   63 1763353.33 2054423.09  16.5%  1029 80997s
 204231 17847 1969613.63   34  109 1763353.33 2053437.64  16.5%  1029 81075s
 204550 17806     cutoff   46      1763353.33 2051891.53  16.4%  1029 81160s
 204756 17752     cutoff   34      1763353.33 2051119.42  16.3%  1029 81219s
 205014 17699     cutoff   47      1763353.33 2049760.84  16.2%  1029 81257s
 205190 17632     cutoff   30      1763353.33 2048791.81  16.2%  1029 81339s
 205343 17551 1934918.82   30  150 1763353.33 2048203.54  16.2%  1029 81387s
 205566 17518 1820495.35   48   26 1763353.33 2046542.59  16.1%  1029 81484s
 205925 17510     cutoff   40      1763353.33 2045572.84  16.0%  1029 81576s
 206158 17467     cutoff   27      1763353.33 2044267.75  15.9%  1029 81704s
 206211 17471     cutoff   39      1763353.33 2044188.63  15.9%  1029 81705s
 206353 17399 1949771.03   43  104 1763353.33 2043505.18  15.9%  1029 81776s
 206588 17328     cutoff   43      1763353.33 2042049.11  15.8%  1029 81831s
 206813 17277     cutoff   42      1763353.33 2041067.06  15.7%  1029 81947s
 207110 17261     cutoff   36      1763353.33 2039932.90  15.7%  1029 82052s
 207363 17217     cutoff   48      1763353.33 2039402.90  15.7%  1029 82140s
 207595 17151 1913302.11   46   57 1763353.33 2037778.00  15.6%  1029 82189s
 207867 17110     cutoff   29      1763353.33 2036849.29  15.5%  1029 82287s
 208115 17059 2036331.01   28  165 1763353.33 2036331.01  15.5%  1029 82372s
 208357 17011 2014866.54   46   33 1763353.33 2034803.82  15.4%  1029 82472s
 208590 16960     cutoff   50      1763353.33 2034408.39  15.4%  1029 82555s
 208864 16905     cutoff   45      1763353.33 2032540.46  15.3%  1030 82615s
 209146 16866 1812055.69   41  167 1763353.33 2031359.69  15.2%  1029 82682s
 209466 16820     cutoff   32      1763353.33 2030437.96  15.1%  1029 82766s
 209677 16748 1901482.51   49   60 1763353.33 2029200.58  15.1%  1029 82837s
 209985 16705     cutoff   29      1763353.33 2027993.75  15.0%  1029 82895s
 210214 16649     cutoff   47      1763353.33 2026945.53  14.9%  1029 82951s
 210415 16591     cutoff   46      1763353.33 2025770.26  14.9%  1029 83024s
 210619 16529     cutoff   50      1763353.33 2024714.12  14.8%  1029 83119s
 210897 16503 1931192.93   47   47 1763353.33 2023635.98  14.8%  1029 83195s
 211131 16448     cutoff   36      1763353.33 2022518.30  14.7%  1029 83315s
 211408 16424 2022063.27   32   47 1763353.33 2022063.27  14.7%  1029 83430s
 211598 16408 1842719.94   33   23 1763353.33 2021067.41  14.6%  1030 83596s
 211784 16356 infeasible   47      1763353.33 2020595.33  14.6%  1030 83683s
 212036 16319 infeasible   51      1763353.33 2019526.48  14.5%  1030 83767s
 212268 16275     cutoff   37      1763353.33 2018502.05  14.5%  1030 83806s
 212454 16198     cutoff   47      1763353.33 2017255.52  14.4%  1030 83885s
 212710 16147     cutoff   35      1763353.33 2016183.39  14.3%  1030 83934s
 212948 16103 1930137.33   35   56 1763353.33 2015134.53  14.3%  1030 83987s
 213184 16026     cutoff   32      1763353.33 2013971.28  14.2%  1030 84033s
 213426 15969 1980686.76   42   73 1763353.33 2012954.33  14.2%  1030 84101s
 213730 15946 1908301.43   31   94 1763353.33 2011590.59  14.1%  1030 84186s
 214051 15904     cutoff   56      1763353.33 2011040.67  14.0%  1030 84263s
 214299 15864     cutoff   34      1763353.33 2009429.57  14.0%  1030 84364s
 214547 15813     cutoff   44      1763353.33 2008259.93  13.9%  1029 84415s
 214746 15756     cutoff   40      1763353.33 2007031.39  13.8%  1029 84531s
 214975 15697     cutoff   33      1763353.33 2006167.60  13.8%  1030 84651s
 215260 15644     cutoff   28      1763353.33 2005052.50  13.7%  1030 84732s
 215471 15591     cutoff   40      1763353.33 2003884.15  13.6%  1030 84784s
 215660 15514     cutoff   40      1763353.33 2002631.42  13.6%  1030 84867s
 215937 15464     cutoff   53      1763353.33 2001686.87  13.5%  1030 84947s
 216186 15409 1890180.14   37   60 1763353.33 2000474.46  13.4%  1030 85128s
 216434 15349 1880234.73   65   20 1763353.33 1999479.46  13.4%  1030 85170s
 216635 15298     cutoff   34      1763353.33 1998396.35  13.3%  1030 85264s
 216834 15245 1855390.42   27   93 1763353.33 1997663.60  13.3%  1030 85316s
 217100 15208     cutoff   48      1763353.33 1996504.56  13.2%  1030 85427s
 217300 15152     cutoff   44      1763353.33 1996241.87  13.2%  1030 85477s
 217522 15109     cutoff   41      1763353.33 1994479.02  13.1%  1030 85569s
 217759 15071 1969223.73   52   60 1763353.33 1993787.77  13.1%  1030 85691s
 217960 15005     cutoff   54      1763353.33 1993124.46  13.0%  1031 85745s
 218196 14957     cutoff   44      1763353.33 1991640.16  12.9%  1030 85804s
 218472 14945     cutoff   40      1763353.33 1990653.90  12.9%  1030 85880s
 218720 14917 1783109.55   34   38 1763353.33 1989621.16  12.8%  1030 85966s
 218919 14857     cutoff   36      1763353.33 1988726.04  12.8%  1030 86025s
 219175 14795 1880065.36   48   35 1763353.33 1987864.78  12.7%  1030 86080s
 219463 14777     cutoff   44      1763353.33 1986840.61  12.7%  1030 86218s
 219694 14724 1932602.49   66   30 1763353.33 1986577.75  12.7%  1030 86288s
 220047 14689     cutoff   52      1763353.33 1985175.50  12.6%  1030 86349s
 220271 14653     cutoff   35      1763353.33 1984120.19  12.5%  1030 86400s

Cutting planes:
  Implied bound: 7
  Projected implied bound: 11
  MIR: 2
  Flow cover: 77

Explored 220455 nodes (226992470 simplex iterations) in 86408.32 seconds
Thread count was 4 (of 16 available processors)

Solution count 10: 1.76335e+06 1.76335e+06 1.74325e+06 ... 1.61042e+06

Time limit reached
Warning: max constraint violation (9.8916e-06) exceeds tolerance
Warning: max bound violation (6.6494e-06) exceeds tolerance
Best objective 1.763353335587e+06, best bound 1.983711757703e+06, gap 12.4966%

***
***  |- Calculation finished, timelimit reached 86,408.37 (86408.37) sec.))
***  |-----------------------------------------------------------------------------------------------------------------------
***
*****************************************************************************************************************************
#############################################################################################################################
###
### Results
###
### The objective of the solution is 1,763,353.3356 (1763353.3356) and is feasible with a Gap of 0.125
###
### Service 81 (MECL1) is operated by 6 vessels from type 30 (PMax35)
###  |- Vessel  9 has the path [9, 332, 326, 342, 333, 324, 4, 294, 284, 7, 298, 196, 0]
###  |  9 (BEANR Out@344.0) - 332 (USEWR In@608.0/Out@618.0) - 326 (USCHS In@656.0/Out@666.0) - 342 (USORF In@691.0/Out@704.0
###  |  ) - 333 (USEWR In@728.0/Out@744.0) - 324 (TRZMK In@1063.0/Out@1077.0) - 4 (AEJEA In@1177.0/Out@1201.0) - 294 (PKBQM I
###  |  n@1258.0/Out@1288.0) - 284 (OMSLL In@1410.0/Out@1423.0) - 7 (AEJEA In@1681.0/Out@1705.0) - 298 (PKBQM In@1762.0/Out@1
###  |  792.0) - 196 (INNSA In@1856.0/Out@1872.0) - 0 (DUMMY_END Ziel-Service 81)
###  |   |- and carried Demand 237,   34.0 containers from 298 to 196
###  |   |- and carried Demand 238,   84.0 containers from   7 to 298
###  |   |- and carried Demand 239,   50.0 containers from   7 to 298
###  |   |- and carried Demand 297,  254.0 containers from 294 to 196
###  |   |- and carried Demand 298,    1.0 containers from 294 to 196
###  |   |- and carried Demand 299,  135.0 containers from 294 to 196
###  |   |- and carried Demand 302,   75.0 containers from   4 to 196
###  |   |- and carried Demand 303,  200.0 containers from   4 to 294
###  |   |- and carried Demand 304,   24.0 containers from   4 to 294
###  |   |- and carried Demand 305,   26.0 containers from   4 to 196
###  |   |- and carried Demand 306,  144.0 containers from   4 to 196
###  |   |- and carried Demand 307,    1.0 containers from   4 to 196
###  |   |- and carried Demand 309,  339.0 containers from 342 to   4
###  |   |- and carried Demand 310,  115.0 containers from 342 to   4
###  |   |- and carried Demand 311,    3.0 containers from 342 to 284
###  |   |- and carried Demand 312,    2.0 containers from 342 to 294
###  |   |- and carried Demand 313,  194.0 containers from 326 to   4
###  |   |- and carried Demand 314,   49.0 containers from 326 to   4
###  |   |- and carried Demand 315,   40.0 containers from 326 to 294
###  |   |- and carried Demand 318,  842.0 containers from 332 to   4
###  |   |- and carried Demand 319,   99.0 containers from 332 to   4
###  |   |- and carried Demand 320,  123.0 containers from 332 to 294
###  |   |- and carried Demand 321,    1.0 containers from 332 to 294
###  |- Vessel 10 has the path [10, 316, 190, 0]
###  |  10 (BEANR Out@512.0) - 316 (TRAMB In@854.0/Out@881.0) - 190 (INNSA In@1016.0/Out@1032.0) - 0 (DUMMY_END Ziel-Service 
###  |  81)
###  |- Vessel 11 has the path [13, 313, 192, 0]
###  |  13 (BEANR Out@680.0) - 313 (TRALI In@946.0/Out@964.0) - 192 (INNSA In@1352.0/Out@1368.0) - 0 (DUMMY_END Ziel-Service 
###  |  81)
###  |- Vessel 12 has the path [16, 314, 5, 295, 193, 0]
###  |  16 (BEANR Out@848.0) - 314 (TRALI In@1114.0/Out@1132.0) - 5 (AEJEA In@1345.0/Out@1369.0) - 295 (PKBQM In@1426.0/Out@1
###  |  456.0) - 193 (INNSA In@1520.0/Out@1536.0) - 0 (DUMMY_END Ziel-Service 81)
###  |   |- and carried Demand 284,   86.0 containers from   5 to 295
###  |   |- and carried Demand 285,  118.0 containers from   5 to 295
###  |- Vessel 17 has the path [158, 270, 323, 191, 0]
###  |  158 (GBFXT Out@580.0) - 270 (NLRTM In@610.0/Out@622.0) - 323 (TRZMK In@895.0/Out@909.0) - 191 (INNSA In@1184.0/Out@12
###  |  00.0) - 0 (DUMMY_END Ziel-Service 81)
###  |- Vessel 23 has the path [347, 92, 63, 178, 2, 291, 292, 293, 194, 195, 0]
###  |  347 (JPYOK Out@51.27) - 92 (CNXMN In@180.0/Out@202.0) - 63 (CNNSA In@229.0/Out@239.0) - 178 (HKHKG In@276.0/Out@292.0
###  |  ) - 2 (AEJEA In@841.0/Out@865.0) - 291 (PKBQM In@922.0/Out@952.0) - 292 (PKBQM In@992.0/Out@1020.0) - 293 (PKBQM In@1
###  |  090.0/Out@1120.0) - 194 (INNSA In@1590.0/Out@1622.0) - 195 (INNSA In@1688.0/Out@1704.0) - 0 (DUMMY_END Ziel-Service 8
###  |  1)
###  |   |- and carried Demand 120,  237.0 containers from 292 to 194
###  |   |- and carried Demand 121,    2.0 containers from 292 to 194
###  |   |- and carried Demand 123,   97.0 containers from 292 to 194
###  |   |- and carried Demand 173,  412.0 containers from  92 to 178
###  |   |- and carried Demand 174,    2.0 containers from  92 to 178
###  |   |- and carried Demand 323,  244.0 containers from 293 to 195
###  |   |- and carried Demand 324,   67.0 containers from 293 to 195
###  |   |- and carried Demand 333,  237.0 containers from 291 to 194
###  |   |- and carried Demand 334,    2.0 containers from 291 to 194
###  |   |- and carried Demand 336,   97.0 containers from 291 to 194
###  |   |- and carried Demand 338,  704.0 containers from   2 to 195
###  |   |- and carried Demand 339,    8.0 containers from   2 to 195
###  |   |- and carried Demand 340,  156.0 containers from   2 to 291
###  |   |- and carried Demand 341,   45.0 containers from   2 to 291
###  |   |- and carried Demand 342,   16.0 containers from   2 to 194
###  |   |- and carried Demand 343,  264.0 containers from   2 to 194
###  |
### Vessels not used in the solution: [1, 2, 3, 4, 5, 6, 7, 8, 13, 14, 15, 16, 18]
###  |-----------------------------------------------------------------------------------------------------------------------
###
#############################################################################################################################

### Detialed variable overview

### All variables with value greater zero:
rho[81,30] = 1
eta[81,30,1] = 1
eta[81,30,2] = 1
eta[81,30,3] = 1
eta[81,30,4] = 1
eta[81,30,5] = 1
eta[81,30,6] = 1
y[9,4,294] = 1
y[9,332,326] = 1
y[9,294,284] = 1
y[9,284,7] = 1
y[9,342,333] = 1
y[9,9,332] = 1
y[9,324,4] = 1
y[9,7,298] = 1
y[9,196,0] = 1
y[9,333,324] = 1
y[9,298,196] = 1
y[9,326,342] = 1
y[10,190,0] = 1
y[10,316,190] = 1
y[10,10,316] = 1
y[11,192,0] = 1
y[11,313,192] = 1
y[11,13,313] = 1
y[12,5,295] = 1
y[12,193,0] = 1
y[12,16,314] = 1
y[12,295,193] = 1
y[12,314,5] = 1
y[17,270,323] = 1
y[17,158,270] = 1
y[17,191,0] = 1
y[17,323,191] = 1
y[23,293,194] = 1
y[23,347,92] = 1
y[23,195,0] = 1
y[23,292,293] = 1
y[23,194,195] = 1
y[23,63,178] = 1
y[23,291,292] = 1
y[23,178,2] = 1
y[23,92,63] = 1
y[23,2,291] = 1
xD[120,293,194] = 237
xD[120,292,293] = 237
xD[121,293,194] = 2
xD[121,292,293] = 2
xD[123,293,194] = 97
xD[123,292,293] = 97
xD[173,63,178] = 412
xD[173,92,63] = 412
xD[174,63,178] = 2
xD[174,92,63] = 2
xD[237,298,196] = 34
xD[238,7,298] = 84
xD[239,7,298] = 50
xD[284,5,295] = 86
xD[285,5,295] = 118
xD[297,294,284] = 254
xD[297,284,7] = 254
xD[297,7,298] = 254
xD[297,298,196] = 254
xD[298,294,284] = 1
xD[298,284,7] = 1
xD[298,7,298] = 1
xD[298,298,196] = 1
xD[299,294,284] = 135
xD[299,284,7] = 135
xD[299,7,298] = 135
xD[299,298,196] = 135
xD[302,4,294] = 75
xD[302,294,284] = 75
xD[302,284,7] = 75
xD[302,7,298] = 75
xD[302,298,196] = 75
xD[303,4,294] = 200
xD[304,4,294] = 24
xD[305,4,294] = 26
xD[305,294,284] = 26
xD[305,284,7] = 26
xD[305,7,298] = 26
xD[305,298,196] = 26
xD[306,4,294] = 144
xD[306,294,284] = 144
xD[306,284,7] = 144
xD[306,7,298] = 144
xD[306,298,196] = 144
xD[307,4,294] = 1
xD[307,294,284] = 1
xD[307,284,7] = 1
xD[307,7,298] = 1
xD[307,298,196] = 1
xD[309,342,333] = 339
xD[309,324,4] = 339
xD[309,333,324] = 339
xD[310,342,333] = 115
xD[310,324,4] = 115
xD[310,333,324] = 115
xD[311,4,294] = 3
xD[311,294,284] = 3
xD[311,342,333] = 3
xD[311,324,4] = 3
xD[311,333,324] = 3
xD[312,4,294] = 2
xD[312,342,333] = 2
xD[312,324,4] = 2
xD[312,333,324] = 2
xD[313,342,333] = 194
xD[313,324,4] = 194
xD[313,333,324] = 194
xD[313,326,342] = 194
xD[314,342,333] = 49
xD[314,324,4] = 49
xD[314,333,324] = 49
xD[314,326,342] = 49
xD[315,4,294] = 40
xD[315,342,333] = 40
xD[315,324,4] = 40
xD[315,333,324] = 40
xD[315,326,342] = 40
xD[318,332,326] = 842
xD[318,342,333] = 842
xD[318,324,4] = 842
xD[318,333,324] = 842
xD[318,326,342] = 842
xD[319,332,326] = 99
xD[319,342,333] = 99
xD[319,324,4] = 99
xD[319,333,324] = 99
xD[319,326,342] = 99
xD[320,4,294] = 123
xD[320,332,326] = 123
xD[320,342,333] = 123
xD[320,324,4] = 123
xD[320,333,324] = 123
xD[320,326,342] = 123
xD[321,4,294] = 1
xD[321,332,326] = 1
xD[321,342,333] = 1
xD[321,324,4] = 1
xD[321,333,324] = 1
xD[321,326,342] = 1
xD[323,293,194] = 244
xD[323,194,195] = 244
xD[324,293,194] = 67
xD[324,194,195] = 67
xD[333,293,194] = 237
xD[333,292,293] = 237
xD[333,291,292] = 237
xD[334,293,194] = 2
xD[334,292,293] = 2
xD[334,291,292] = 2
xD[336,293,194] = 97
xD[336,292,293] = 97
xD[336,291,292] = 97
xD[338,293,194] = 704
xD[338,292,293] = 704
xD[338,194,195] = 704
xD[338,291,292] = 704
xD[338,2,291] = 704
xD[339,293,194] = 8
xD[339,292,293] = 8
xD[339,194,195] = 8
xD[339,291,292] = 8
xD[339,2,291] = 8
xD[340,2,291] = 156
xD[341,2,291] = 45
xD[342,293,194] = 16
xD[342,292,293] = 16
xD[342,291,292] = 16
xD[342,2,291] = 16
xD[343,293,194] = 264
xD[343,292,293] = 264
xD[343,291,292] = 264
xD[343,2,291] = 264
zE[2] = 841
zE[4] = 1177
zE[5] = 1345
zE[7] = 1681
zE[63] = 229
zE[92] = 180
zE[178] = 276
zE[190] = 1016
zE[191] = 1184
zE[192] = 1352
zE[193] = 1520
zE[194] = 1590
zE[195] = 1688
zE[196] = 1856
zE[270] = 610
zE[284] = 1410
zE[291] = 922
zE[292] = 992
zE[293] = 1090
zE[294] = 1258
zE[295] = 1426
zE[298] = 1762
zE[313] = 946
zE[314] = 1114
zE[316] = 854
zE[323] = 895
zE[324] = 1063
zE[326] = 656
zE[332] = 608
zE[333] = 728
zE[342] = 691
zX[2] = 865
zX[4] = 1201
zX[5] = 1369
zX[7] = 1705
zX[9] = 344
zX[10] = 512
zX[13] = 680
zX[16] = 848
zX[63] = 239
zX[92] = 202
zX[158] = 580
zX[178] = 292
zX[190] = 1032
zX[191] = 1200
zX[192] = 1368
zX[193] = 1536
zX[194] = 1622
zX[195] = 1704
zX[196] = 1872
zX[270] = 622
zX[284] = 1423
zX[291] = 952
zX[292] = 1020
zX[293] = 1120
zX[294] = 1288
zX[295] = 1456
zX[298] = 1792
zX[313] = 964
zX[314] = 1132
zX[316] = 881
zX[323] = 909
zX[324] = 1077
zX[326] = 666
zX[332] = 618
zX[333] = 744
zX[342] = 704
zX[347] = 51.2735
w[23,(347,92)] = 128.726
phi[9] = 1528
phi[10] = 520
phi[11] = 688
phi[12] = 688
phi[17] = 620
phi[23] = 1652.73

### All variables with value smaller zero:

### End

real	1443m39.318s
user	5429m42.078s
sys	335m18.754s
	OpenBLAS 0.2.6 environment removed
	Freetype 2.4.12 environment removed
	Python 3.6.0 environment removed
	Gurobi 8.1.0 environment removed
