	OpenBLAS 0.2.6 environment established
		compiled with gcc for max. 16 cores
	Freetype 2.4.12 environment established
		library to render fonts
	Python 3.6.0 environment established
	Gurobi 8.1.0 environment established
Instance LSFRP: LSFDRP_4_3_6_1_fr.p
Instance LSFDP: LSFDRP_4_3_6_1_fd_49.p

*****************************************************************************************************************************
*** Solve LSFDRP_4_3_6_1_fd_49 with Gurobi
***
*** Graph info
*** |S|: 19
*** |S^E|: 0
*** |S^C|: 1
*** |V|: 348
*** |A|: 8709
*** |A^i|: 8382
*** |A^f|: 327
*** |M|: 343
*** |E|: 0

Changed value of parameter NumericFocus to 1
   Prev: 0  Min: 0  Max: 3  Default: 0
Changed value of parameter TimeLimit to 86400.0
   Prev: 1e+100  Min: 0.0  Max: 1e+100  Default: 1e+100
Changed value of parameter Threads to 4
   Prev: 0  Min: 0  Max: 1024  Default: 0
Optimize a model with 163606 rows, 3177009 columns and 11352648 nonzeros
Variable types: 3011517 continuous, 165492 integer (165492 binary)
Coefficient statistics:
  Matrix range     [1e+00, 5e+03]
  Objective range  [4e+01, 3e+08]
  Bounds range     [1e+00, 1e+00]
  RHS range        [1e+00, 5e+03]
Presolve removed 88329 rows and 2667857 columns (presolve time = 5s) ...
Presolve removed 135646 rows and 3001012 columns (presolve time = 10s) ...
Presolve removed 135800 rows and 3001291 columns (presolve time = 15s) ...
Presolve removed 135800 rows and 3018020 columns (presolve time = 93s) ...
Presolve removed 137035 rows and 3018174 columns (presolve time = 95s) ...
Presolve removed 137755 rows and 3024853 columns (presolve time = 194s) ...
Presolve removed 137755 rows and 3024853 columns
Presolve time: 194.22s
Presolved: 25851 rows, 152156 columns, 1226880 nonzeros
Variable types: 11011 continuous, 141145 integer (141106 binary)

Deterministic concurrent LP optimizer: primal and dual simplex
Showing first log only...


Root simplex log...

Iteration    Objective       Primal Inf.    Dual Inf.      Time
       0   -0.0000000e+00   4.800000e+01   2.523596e+10    198s
   11090   -5.7324493e+06   2.400658e+01   2.123593e+10    200s
   23746   -8.7956667e+06   0.000000e+00   3.015487e+13    205s
   38130   -6.3062086e+06   0.000000e+00   4.167247e+10    210s
   52824   -5.2047280e+06   0.000000e+00   1.726992e+09    215s
   64605   -4.8499396e+06   0.000000e+00   5.056728e+09    220s
   76845   -4.4349969e+06   0.000000e+00   1.127517e+10    225s
   88820   -2.7264038e+06   0.000000e+00   3.570074e+10    230s
   99133   -2.2690228e+06   0.000000e+00   1.037331e+10    235s
  108856   -1.7003315e+06   0.000000e+00   3.869608e+11    240s
  117392   -1.3892747e+06   0.000000e+00   1.492260e+11    245s
  127652   -9.9817852e+05   0.000000e+00   5.782855e+09    250s
  137951   -5.8435470e+05   0.000000e+00   9.799908e+09    255s
  148205   -4.0080765e+05   0.000000e+00   2.628793e+10    260s
  157519    2.3337558e+05   0.000000e+00   9.709508e+10    265s
  166615    4.1970346e+05   0.000000e+00   3.284144e+09    270s
  175733    5.3327724e+05   0.000000e+00   3.617994e+10    275s
  184463    7.4224994e+05   0.000000e+00   1.138132e+10    280s
  194551    1.3435453e+06   0.000000e+00   9.524286e+09    285s
  203863    1.8934902e+06   0.000000e+00   3.017734e+10    290s
  212399    2.0319167e+06   0.000000e+00   6.238627e+10    295s
  220159    2.4117597e+06   0.000000e+00   1.236328e+11    300s
Concurrent spin time: 25.15s

Solved with dual simplex

Root relaxation: objective 6.606501e+06, 80465 iterations, 104.89 seconds

    Nodes    |    Current Node    |     Objective Bounds      |     Work
 Expl Unexpl |  Obj  Depth IntInf | Incumbent    BestBd   Gap | It/Node Time

     0     0 6450440.09    0  278          - 6450440.09      -     -  310s
H    0     0                    -2390107.444 6450440.09   370%     -  314s
H    0     0                    130435.70705 6450440.09  4845%     -  346s
     0     0 4481115.38    0  262 130435.707 4481115.38  3335%     -  355s
     0     0 4481115.38    0  255 130435.708 4481115.38  3335%     -  364s
     0     0 4247281.72    0  298 130435.708 4247281.72  3156%     -  370s
     0     0 4039611.36    0  278 130435.708 4039611.36  2997%     -  370s
     0     0 4013980.98    0  282 130435.708 4013980.98  2977%     -  371s
     0     0 4010354.95    0  282 130435.708 4010354.95  2975%     -  371s
     0     0 4010271.49    0  282 130435.708 4010271.49  2975%     -  371s
     0     0 4010271.43    0  282 130435.708 4010271.43  2975%     -  371s
     0     0 3928978.17    0  295 130435.708 3928978.17  2912%     -  372s
     0     0 3911262.23    0  334 130435.708 3911262.23  2899%     -  372s
     0     0 3845658.66    0  329 130435.708 3845658.66  2848%     -  372s
     0     0 3815257.13    0  325 130435.708 3815257.13  2825%     -  373s
     0     0 3806840.02    0  327 130435.708 3806840.02  2819%     -  373s
     0     0 3803166.39    0  341 130435.708 3803166.39  2816%     -  373s
     0     0 3803096.64    0  346 130435.708 3803096.64  2816%     -  373s
     0     0 3797344.22    0  355 130435.708 3797344.22  2811%     -  374s
     0     0 3783934.68    0  348 130435.708 3783934.68  2801%     -  374s
     0     0 3781136.92    0  353 130435.708 3781136.92  2799%     -  374s
     0     0 3780191.30    0  352 130435.708 3780191.30  2798%     -  375s
     0     0 3777698.64    0  344 130435.708 3777698.64  2796%     -  375s
     0     0 3777676.30    0  344 130435.708 3777676.30  2796%     -  375s
     0     0 3773222.24    0  336 130435.708 3773222.24  2793%     -  375s
     0     0 3773222.24    0  257 130435.708 3773222.24  2793%     -  379s
H    0     0                    130435.71007 3773222.24  2793%     -  383s
     0     0 3773222.24    0  301 130435.710 3773222.24  2793%     -  384s
     0     0 3773222.24    0  306 130435.710 3773222.24  2793%     -  385s
     0     0 3773222.24    0  315 130435.710 3773222.24  2793%     -  385s
     0     0 3714196.13    0  320 130435.710 3714196.13  2748%     -  385s
     0     0 3689387.94    0  341 130435.710 3689387.94  2729%     -  386s
     0     0 3685462.73    0  355 130435.710 3685462.73  2726%     -  386s
     0     0 3680619.65    0  353 130435.710 3680619.65  2722%     -  386s
     0     0 3679738.83    0  340 130435.710 3679738.83  2721%     -  386s
     0     0 3679224.00    0  338 130435.710 3679224.00  2721%     -  386s
     0     0 3677607.89    0  339 130435.710 3677607.89  2719%     -  387s
     0     0 3677500.32    0  343 130435.710 3677500.32  2719%     -  387s
     0     0 3676712.18    0  334 130435.710 3676712.18  2719%     -  387s
     0     0 3676709.58    0  336 130435.710 3676709.58  2719%     -  387s
     0     0 3668025.45    0  353 130435.710 3668025.45  2712%     -  388s
     0     0 3664277.13    0  353 130435.710 3664277.13  2709%     -  388s
     0     0 3663069.64    0  338 130435.710 3663069.64  2708%     -  388s
     0     0 3662416.39    0  358 130435.710 3662416.39  2708%     -  388s
     0     0 3662233.84    0  350 130435.710 3662233.84  2708%     -  388s
     0     0 3660478.85    0  356 130435.710 3660478.85  2706%     -  389s
     0     0 3657245.32    0  358 130435.710 3657245.32  2704%     -  389s
     0     0 3656158.26    0  362 130435.710 3656158.26  2703%     -  389s
     0     0 3655857.72    0  371 130435.710 3655857.72  2703%     -  389s
     0     0 3653156.82    0  381 130435.710 3653156.82  2701%     -  390s
     0     0 3645160.07    0  376 130435.710 3645160.07  2695%     -  390s
     0     0 3644640.58    0  379 130435.710 3644640.58  2694%     -  390s
     0     0 3642563.75    0  383 130435.710 3642563.75  2693%     -  391s
     0     0 3642101.71    0  366 130435.710 3642101.71  2692%     -  391s
     0     0 3641543.44    0  376 130435.710 3641543.44  2692%     -  391s
     0     0 3641466.25    0  379 130435.710 3641466.25  2692%     -  391s
     0     0 3636608.71    0  391 130435.710 3636608.71  2688%     -  391s
     0     0 3634949.94    0  385 130435.710 3634949.94  2687%     -  392s
     0     0 3634620.32    0  394 130435.710 3634620.32  2687%     -  392s
     0     0 3633391.26    0  398 130435.710 3633391.26  2686%     -  392s
     0     0 3629875.72    0  395 130435.710 3629875.72  2683%     -  393s
     0     0 3629211.33    0  395 130435.710 3629211.33  2682%     -  393s
     0     0 3629035.16    0  382 130435.710 3629035.16  2682%     -  393s
     0     0 3628469.08    0  386 130435.710 3628469.08  2682%     -  394s
     0     0 3627002.04    0  340 130435.710 3627002.04  2681%     -  394s
     0     0 3626919.79    0  357 130435.710 3626919.79  2681%     -  394s
     0     0 3626202.98    0  375 130435.710 3626202.98  2680%     -  395s
     0     0 3626103.44    0  374 130435.710 3626103.44  2680%     -  395s
     0     0 3626060.51    0  386 130435.710 3626060.51  2680%     -  395s
     0     0 3626060.51    0  386 130435.710 3626060.51  2680%     -  402s
     0     0 3626060.51    0  254 130435.710 3626060.51  2680%     -  407s
H    0     0                    604814.19860 3626060.51   500%     -  409s
H    0     0                    604814.20059 3626060.51   500%     -  410s
     0     0 3626060.51    0  309 604814.201 3626060.51   500%     -  411s
     0     0 3626060.51    0  336 604814.201 3626060.51   500%     -  412s
     0     0 3596850.91    0  343 604814.201 3596850.91   495%     -  413s
     0     0 3577371.76    0  329 604814.201 3577371.76   491%     -  413s
     0     0 3568844.46    0  349 604814.201 3568844.46   490%     -  413s
     0     0 3560197.99    0  362 604814.201 3560197.99   489%     -  414s
     0     0 3548198.66    0  355 604814.201 3548198.66   487%     -  414s
     0     0 3544418.85    0  353 604814.201 3544418.85   486%     -  414s
     0     0 3540546.06    0  367 604814.201 3540546.06   485%     -  414s
     0     0 3536786.62    0  368 604814.201 3536786.62   485%     -  414s
     0     0 3536375.73    0  366 604814.201 3536375.73   485%     -  415s
     0     0 3536002.69    0  367 604814.201 3536002.69   485%     -  415s
     0     0 3535811.73    0  372 604814.201 3535811.73   485%     -  415s
     0     0 3535253.65    0  373 604814.201 3535253.65   485%     -  415s
     0     0 3535247.63    0  376 604814.201 3535247.63   485%     -  415s
     0     0 3503715.42    0  350 604814.201 3503715.42   479%     -  416s
     0     0 3498719.69    0  371 604814.201 3498719.69   478%     -  416s
     0     0 3497317.13    0  381 604814.201 3497317.13   478%     -  417s
     0     0 3496948.57    0  399 604814.201 3496948.57   478%     -  417s
     0     0 3496809.87    0  396 604814.201 3496809.87   478%     -  417s
     0     0 3488160.01    0  412 604814.201 3488160.01   477%     -  417s
     0     0 3480086.32    0  375 604814.201 3480086.32   475%     -  418s
     0     0 3478556.10    0  372 604814.201 3478556.10   475%     -  418s
     0     0 3478276.48    0  375 604814.201 3478276.48   475%     -  418s
     0     0 3477230.78    0  380 604814.201 3477230.78   475%     -  418s
     0     0 3474860.80    0  380 604814.201 3474860.80   475%     -  419s
     0     0 3474481.41    0  392 604814.201 3474481.41   474%     -  419s
     0     0 3472926.31    0  388 604814.201 3472926.31   474%     -  419s
     0     0 3472760.36    0  388 604814.201 3472760.36   474%     -  420s
     0     0 3472596.85    0  394 604814.201 3472596.85   474%     -  420s
     0     0 3472596.85    0  392 604814.201 3472596.85   474%     -  426s
     0     2 3472596.85    0  392 604814.201 3472596.85   474%     -  429s
     1     4 3451192.81    1  384 604814.201 3461566.28   472%  1299  434s
     3     8 3415478.82    2  360 604814.201 3451143.95   471%  1713  439s
     7    12 3348558.11    3  359 604814.201 3414134.11   464%  1907  441s
    28    29 2636147.33    8  205 604814.201 3414134.11   464%   909  448s
    32    35 3184923.07    8  339 604814.201 3414134.11   464%   978  451s
    46    44 3089828.75   11  260 604814.201 3414134.11   464%  1101  456s
    73    73 2927667.02   16  176 604814.201 3414134.11   464%   951  460s
H  101    99                    604814.20114 3414134.11   464%   814  465s
H  104   100                    714383.76204 3414134.11   378%   798  465s
   219   178 2670560.48   39  251 714383.762 3414134.11   378%   486  471s
   332   245 2601063.72   50  224 714383.762 3414134.11   378%   384  475s
   399   285 2325151.59   66  247 714383.762 3414134.11   378%   391  481s
   492   345 1048205.91   92  136 714383.762 3414134.11   378%   357  486s
H  509   354                    714383.76427 3414134.11   378%   358  489s
   510   345 1028357.18   96  121 714383.764 3321903.44   365%   358  493s
   557   374 3076154.21    4  327 714383.764 3321903.44   365%   368  495s
   606   402 2914419.42   11  186 714383.764 3321903.44   365%   396  501s
   649   434 2406724.27   28  122 714383.764 3321903.44   365%   410  505s
   716   474 2296834.96    5  248 714383.764 3183537.60   346%   424  510s
   830   524 1996934.33   10  207 714383.764 3155064.87   342%   418  515s
   882   535     cutoff   23      714383.764 3144606.19   340%   433  522s
   936   557 922742.321   11  226 714383.764 3096116.11   333%   456  526s
   970   581 2219227.50    9  120 714383.764 3081654.62   331%   463  530s
  1034   634 1089455.16   29  262 714383.764 3081654.62   331%   455  556s
  1036   635 1811650.30   65  228 714383.764 3081654.62   331%   454  560s
  1041   639 1382465.35   21  332 714383.764 3081654.62   331%   452  566s
  1047   643 2962767.67   11  367 714383.764 3081654.62   331%   449  570s
  1072   659 1649127.76   28  317 714383.764 3081654.62   331%   439  575s
  1085   668 993337.450   11  277 714383.764 3081654.62   331%   433  580s
  1100   678 1325414.38   23  339 714383.764 3081654.62   331%   428  585s
  1113   687 2830093.82   13  304 714383.764 3081654.62   331%   423  590s
  1125   695 2379135.79    5  294 714383.764 3081654.62   331%   418  595s
  1133   700 2102671.38    8  337 714383.764 3081654.62   331%   415  603s
  1135   701 1829117.34   30  336 714383.764 3081654.62   331%   414  607s
  1136   705 3081654.62   14  309 714383.764 3081654.62   331%   456  634s
  1138   708 3081654.62   15  355 714383.764 3081654.62   331%   457  653s
  1142   711 3081654.62   16  355 714383.764 3081654.62   331%   465  658s
  1146   714 2700700.65   16  281 714383.764 3081654.62   331%   468  663s
  1150   715 3081654.62   17  353 714383.764 3081654.62   331%   474  666s
  1158   716 3081654.62   18  335 714383.764 3081654.62   331%   481  670s
  1169   721 3081654.62   19  328 714383.764 3081654.62   331%   484  676s
  1183   725 2510355.92   20  211 714383.764 3081654.62   331%   498  680s
  1196   727 1894641.84   21  232 714383.764 3081654.62   331%   502  685s
  1229   740 2748434.50   24  281 714383.764 3081654.62   331%   513  692s
H 1232   706                    826603.16495 3081654.62   273%   513  692s
  1247   709 2349125.43   25  229 826603.165 3081654.62   273%   518  696s
H 1260   675                    826603.16608 3081654.62   273%   520  699s
  1264   679 1106568.95   26  114 826603.166 3081654.62   273%   521  703s
  1275   677 2325696.23   28  225 826603.166 3081654.62   273%   529  705s
  1304   681 2233323.48   32  159 826603.166 3081654.62   273%   541  711s
  1325   683 1243140.36   34  184 826603.166 3081654.62   273%   555  716s
  1355   691     cutoff   37      826603.166 3081654.62   273%   561  721s
  1395   704 1992959.56   42  222 826603.166 3081654.62   273%   571  725s
  1469   716 1552571.30   47  211 826603.166 3081654.62   273%   566  731s
  1535   721     cutoff   62      826603.166 3081654.62   273%   567  737s
  1566   724 infeasible   73      826603.166 3081654.62   273%   568  741s
  1616   727 2661725.27   19  184 826603.166 3000868.05   263%   577  747s
  1638   730 2310511.08   22  182 826603.166 3000868.05   263%   586  751s
  1708   734 1891540.51   25  116 826603.166 3000868.05   263%   596  757s
  1776   752 1451560.51   47   98 826603.166 2928284.36   254%   595  761s
  1834   764 2734868.95   27  255 826603.166 2927926.89   254%   597  768s
  1840   767 2230051.43   28  242 826603.166 2927926.89   254%   598  771s
  1930   785 1908403.05   35  197 826603.166 2927926.89   254%   584  776s
  2043   830 1817764.41   48  238 826603.166 2912377.13   252%   567  780s
  2091   835 1399601.24   62  186 826603.166 2912377.13   252%   570  785s
  2212   864     cutoff  109      826603.166 2867563.11   247%   577  793s
  2251   874 2851491.34   23  247 826603.166 2851491.34   245%   581  798s
  2299   871 1645835.82   26  179 826603.166 2797372.72   238%   585  803s
  2344   875 2184786.46   21  214 826603.166 2778073.95   236%   596  808s
  2418   880     cutoff   31      826603.166 2747937.95   232%   598  812s
  2504   898 2584031.93   25  205 826603.166 2741448.18   232%   598  816s
  2551   911 2452287.15   31  234 826603.166 2741448.18   232%   603  821s
  2643   948 1112224.96   44  179 826603.166 2709092.90   228%   600  826s
H 2662   918                    826603.16720 2709092.90   228%   602  826s
  2687   922 2087225.38   23  252 826603.167 2709092.90   228%   604  831s
  2776   962     cutoff   25      826603.167 2709092.90   228%   605  837s
  2817   971 1596905.69   35   90 826603.167 2696737.50   226%   607  843s
  2951  1019 1594303.29   33  167 826603.167 2692010.78   226%   599  849s
H 2972   924                    1079769.2178 2692010.78   149%   599  849s
  2995   916 1944682.73   32  210 1079769.22 2692010.78   149%   599  856s
  3071   941 1163619.04   34  164 1079769.22 2692010.78   149%   607  864s
  3131   951 1547501.93   58   96 1079769.22 2632409.11   144%   607  870s
  3227  1005 1916530.14   28  201 1079769.22 2632409.11   144%   610  877s
  3323  1051     cutoff   25      1079769.22 2576185.14   139%   611  886s
  3397  1075 1937100.37   20  216 1079769.22 2555506.26   137%   618  892s
  3483  1114     cutoff   31      1079769.22 2551221.96   136%   622  900s
  3550  1136     cutoff   32      1079769.22 2532952.02   135%   632  908s
  3654  1199 1971600.37   20  253 1079769.22 2509175.66   132%   634  916s
  3716  1219 2041006.96   22  222 1079769.22 2500071.84   132%   641  925s
  3914  1334     cutoff   32      1079769.22 2487543.51   130%   634  933s
  4017  1379 1602348.30   41  225 1079769.22 2483431.23   130%   637  943s
  4137  1425 2404344.39   24  219 1079769.22 2453426.86   127%   641  951s
  4277  1521 2064200.91   51  176 1079769.22 2453426.86   127%   641  960s
  4366  1555 1781643.82   85  210 1079769.22 2410433.16   123%   643  970s
  4560  1681     cutoff   31      1079769.22 2403671.44   123%   634  980s
  4733  1774 1721699.78   34  226 1079769.22 2379829.43   120%   633  990s
  4809  1813 1651676.32   37  232 1079769.22 2371453.47   120%   631 1000s
  5022  1917 1461878.73   34  158 1079769.22 2348876.75   118%   628 1011s
  5212  2013 1772604.76   36  120 1079769.22 2337324.21   116%   630 1022s
  5371  2064     cutoff   39      1079769.22 2329096.48   116%   637 1036s
  5507  2110 1352160.41   27  172 1079769.22 2317440.62   115%   646 1047s
  5656  2140 2138676.93   31  172 1079769.22 2304420.75   113%   651 1060s
  5831  2200 1218664.79   33  167 1079769.22 2294535.26   113%   654 1072s
  6026  2276 1399895.78   46  141 1079769.22 2283419.25   111%   655 1085s
  6267  2370 infeasible   32      1079769.22 2252829.72   109%   653 1099s
  6534  2473 1293382.11   37  259 1079769.22 2241983.72   108%   647 1115s
  6732  2527 1887215.08   47   98 1079769.22 2215958.44   105%   653 1131s
  6945  2576     cutoff   30      1079769.22 2198790.77   104%   661 1148s
H 6992  2590                    1079769.2183 2198790.77   104%   660 1148s
  7114  2613 1179030.49   34   68 1079769.22 2185053.26   102%   666 1164s
  7434  2725 1721920.55   32  141 1079769.22 2172423.75   101%   665 1182s
  7751  2814 1248345.52   33  180 1079769.22 2148104.81  98.9%   666 1200s
H 7784  2814                    1079769.2184 2148104.81  98.9%   667 1200s
  8161  2955 1956218.78   30  232 1079769.22 2134809.84  97.7%   663 1218s
  8464  3054 1865660.22   31  221 1079769.22 2118453.53  96.2%   664 1236s
  8780  3171     cutoff   57      1079769.22 2107734.82  95.2%   666 1256s
  9225  3339 1396702.07   26  135 1079769.22 2093887.33  93.9%   662 1277s
  9413  3355     cutoff   36      1079769.22 2081155.17  92.7%   665 1297s
H 9650  3452                    1079769.2551 2080244.85  92.7%   665 1297s
  9781  3492 1345615.36   32  227 1079769.26 2073161.13  92.0%   661 1318s
 10238  3634 1333150.45   27  118 1079769.26 2059441.89  90.7%   655 1344s
 10870  3852     cutoff   39      1079769.26 2042633.17  89.2%   647 1367s
 11332  3973 1451091.68   37  110 1079769.26 2031698.55  88.2%   643 1391s
 11982  4134     cutoff   45      1079769.26 2028692.23  87.9%   635 1414s
 12795  4376 1975788.12   33  120 1079769.26 2002754.11  85.5%   619 1437s
 13536  4649 1907162.09   38  189 1079769.26 1992649.49  84.5%   608 1459s
 14137  4805 1378390.62   36   44 1079769.26 1976434.96  83.0%   603 1481s
 14781  4962 infeasible   44      1079769.26 1960063.75  81.5%   598 1502s
 15395  5111 1894712.61   33  168 1079769.26 1948462.34  80.5%   593 1521s
 15928  5259 1945695.76   33  126 1079769.26 1945695.76  80.2%   591 1542s
 16381  5346     cutoff   34      1079769.26 1938331.98  79.5%   593 1561s
 16648  5368 1622880.36   26  254 1079769.26 1921195.96  77.9%   594 1579s
 17127  5436 1437222.62   66   62 1079769.26 1910362.68  76.9%   592 1598s
 17801  5651 infeasible   26      1079769.26 1905949.30  76.5%   587 1617s
 18354  5729 1440248.91   42  257 1079769.26 1896295.18  75.6%   583 1634s
 18923  5844 1832673.94   64   62 1079769.26 1889592.06  75.0%   579 1652s
 19439  5953 1750582.11   37  222 1079769.26 1880439.55  74.2%   577 1670s
 19951  6065 1503038.64   37  150 1079769.26 1871071.70  73.3%   575 1688s
 20667  6238 1211175.94   25  181 1079769.26 1864109.01  72.6%   569 2031s
 21280  6390     cutoff   64      1079769.26 1854597.31  71.8%   565 2048s
 22000  6589 1805610.34   39  181 1079769.26 1846903.55  71.0%   559 2064s
 22409  6669 1575392.61   49   57 1079769.26 1842319.10  70.6%   560 2080s
 22824  6771 1703106.07   27  240 1079769.26 1839319.82  70.3%   559 2098s
 22872  6728 1451320.59   31  182 1079769.26 1837209.04  70.1%   561 2115s
 23278  6826 1650354.55   41   39 1079769.26 1832311.38  69.7%   560 2131s
 23694  6901 1241890.42   38  175 1079769.26 1824886.02  69.0%   561 2146s
 24167  7042     cutoff   33      1079769.26 1821147.04  68.7%   560 2161s
 24512  7096 1410543.72   56  128 1079769.26 1816072.44  68.2%   558 2183s
 24835  7159     cutoff   38      1079769.26 1809869.50  67.6%   560 2198s
 25223  7225 1524444.36   39   79 1079769.26 1805174.93  67.2%   560 2215s
 25778  7365 1215197.90   36  139 1079769.26 1801335.25  66.8%   559 2231s
 26234  7439 1401429.76   57   75 1079769.26 1796887.87  66.4%   557 2247s
 26607  7489     cutoff   57      1079769.26 1792614.15  66.0%   558 2262s
 27012  7545     cutoff   58      1079769.26 1789953.08  65.8%   557 2277s
 27460  7629 1737597.52   29  101 1079769.26 1784008.73  65.2%   557 2305s
 27702  7637 1234366.73   21  245 1079769.26 1781638.07  65.0%   558 2320s
 28085  7685 1231327.93   36  191 1079769.26 1778496.15  64.7%   558 2335s
 28515  7781 1441309.93   78  158 1079769.26 1774334.85  64.3%   558 2355s
 28742  7743 1666014.80   39   99 1079769.26 1772853.45  64.2%   559 2372s
 29264  7836 1153512.68   36  268 1079769.26 1767718.03  63.7%   558 2387s
 29592  7847     cutoff   28      1079769.26 1762559.95  63.2%   560 2402s
 30007  7885 1601445.94   61  154 1079769.26 1757580.15  62.8%   560 2417s
 30530  7951 1427668.23   27  190 1079769.26 1753553.78  62.4%   559 2433s
 30992  8043     cutoff   54      1079769.26 1749596.67  62.0%   559 2452s
 31555  8138 1241366.63   44   80 1079769.26 1744080.96  61.5%   557 2467s
 31879  8149 1315431.25   53   11 1079769.26 1742507.33  61.4%   556 2482s
 32344  8183 1668410.15   40   48 1079769.26 1736406.78  60.8%   556 2496s
 32916  8307 1289102.11   46   72 1079769.26 1730017.47  60.2%   554 2511s
 33398  8371 1163046.01   45  139 1079769.26 1727582.43  60.0%   553 2528s
 33864  8412     cutoff   32      1079769.26 1722642.96  59.5%   552 2543s
 34272  8472 1464042.42   60   40 1079769.26 1719149.17  59.2%   551 2558s
 34655  8496 1223820.13   46  223 1079769.26 1714802.62  58.8%   551 2574s
 35150  8570 1665359.58   51   56 1079769.26 1710759.55  58.4%   550 2591s
 35613  8602 1307347.96   42   97 1079769.26 1706815.27  58.1%   549 2607s
 36172  8688     cutoff   68      1079769.26 1699961.59  57.4%   547 2622s
 36608  8746 1368403.60   40  235 1079769.26 1697153.13  57.2%   546 2637s
 37074  8824 infeasible   28      1079769.26 1693431.54  56.8%   546 2651s
 37430  8834 1503974.15   37  103 1079769.26 1690990.74  56.6%   546 2665s
 37864  8872     cutoff   43      1079769.26 1688519.14  56.4%   546 2680s
 38290  8963     cutoff   27      1079769.26 1685878.00  56.1%   545 2714s
 38622  8977 1391411.20   66  138 1079769.26 1682968.14  55.9%   545 2729s
 39094  9026 1214040.15   71   78 1079769.26 1678273.70  55.4%   544 2743s
 39559  9043 1257978.47   55  230 1079769.26 1672627.38  54.9%   544 2757s
 40057  9117 1607561.02   65   78 1079769.26 1668704.04  54.5%   543 2771s
 40493  9176 infeasible   38      1079769.26 1665394.90  54.2%   543 2784s
 40926  9185     cutoff   27      1079769.26 1661604.63  53.9%   543 2800s
 41550  9366 1614371.85   37  125 1079769.26 1658987.31  53.6%   540 2819s
 41865  9347 1467292.81   46  126 1079769.26 1656334.03  53.4%   540 2834s
 42248  9386 1514856.20   44  215 1079769.26 1652817.73  53.1%   540 2848s
 42617  9436 1203529.88   33  158 1079769.26 1650952.07  52.9%   541 2862s
 42830  9399     cutoff   39      1079769.26 1649039.64  52.7%   543 2876s
 43267  9433 1403696.53   38  155 1079769.26 1644860.91  52.3%   542 2890s
 43657  9441 1237342.63   30  151 1079769.26 1642845.02  52.1%   542 2904s
 44085  9499     cutoff   46      1079769.26 1639542.59  51.8%   542 2918s
 44509  9515 1384949.33   30  120 1079769.26 1635699.87  51.5%   541 2933s
 44981  9547 1401399.92   64   71 1079769.26 1633298.98  51.3%   541 2947s
 45448  9611 1370646.64   51   78 1079769.26 1630056.55  51.0%   540 2962s
 45862  9655 1237310.88   33  242 1079769.26 1627409.45  50.7%   540 2975s
 46285  9670 1498047.62   42   59 1079769.26 1624251.00  50.4%   539 2990s
 46713  9754 1577425.84   39   60 1079769.26 1621315.38  50.2%   539 3004s
 47111  9746 infeasible   34      1079769.26 1618637.47  49.9%   539 3017s
 47531  9760 1505724.61   36   75 1079769.26 1614909.14  49.6%   539 3030s
 48010  9837     cutoff   42      1079769.26 1612039.19  49.3%   538 3043s
 48256  9787 1573206.08   28  100 1079769.26 1611334.97  49.2%   539 3057s
 48768  9853     cutoff   57      1079769.26 1607652.40  48.9%   538 3071s
 49226  9887 1403012.42   53  152 1079769.26 1604532.63  48.6%   538 3084s
 49584  9917     cutoff   68      1079769.26 1601547.38  48.3%   538 3099s
 49937  9914 1348747.80   87  163 1079769.26 1599516.39  48.1%   538 3119s
 50381  9960 1150404.53   74   22 1079769.26 1596234.72  47.8%   537 3134s
 50806  9974 1302999.02   58  130 1079769.26 1593294.66  47.6%   537 3147s
 51147 10002 1557471.65   61   42 1079769.26 1589267.78  47.2%   537 3161s
 51420  9995 1264545.22   47   86 1079769.26 1587741.89  47.0%   537 3176s
 51884 10033 1156122.24   56   49 1079769.26 1585262.47  46.8%   537 3193s
 52281 10123 1234965.64   36   53 1079769.26 1582581.14  46.6%   537 3207s
 52392 10056 1263545.98   57   56 1079769.26 1581868.47  46.5%   537 3221s
 52810 10070 1574010.79   48   45 1079769.26 1578584.92  46.2%   536 3234s
 53205 10067     cutoff   44      1079769.26 1576168.80  46.0%   536 3249s
 53504 10059 1530992.93   30  116 1079769.26 1573764.59  45.8%   536 3264s
 54078 10103 infeasible   57      1079769.26 1571508.83  45.5%   535 3278s
 54466 10092 1215385.19   52  131 1079769.26 1566997.15  45.1%   534 3289s
 54888 10101 1549806.88   49  122 1079769.26 1563953.98  44.8%   534 3302s
 55235 10081 1336461.64   39   49 1079769.26 1561992.44  44.7%   534 3314s
 55682 10109 1377747.15   51   78 1079769.26 1559278.52  44.4%   533 3326s
 56045 10120 1482457.33   35  165 1079769.26 1556585.75  44.2%   533 3339s
 56385 10133 1492504.98   32  248 1079769.26 1554346.44  44.0%   534 3353s
 56689 10132     cutoff   28      1079769.26 1552467.89  43.8%   534 3366s
 57005 10132 1212660.02   57   80 1079769.26 1550613.13  43.6%   535 3379s
 57420 10166 1150961.62   72   33 1079769.26 1548956.29  43.5%   535 3391s
 57730 10143 1515968.81   38   14 1079769.26 1546031.89  43.2%   535 3405s
 58132 10130     cutoff   43      1079769.26 1543214.28  42.9%   535 3418s
 58463 10119 1303247.77   73   89 1079769.26 1540571.72  42.7%   535 3431s
 58773 10079 1367878.79   44   78 1079769.26 1538707.47  42.5%   536 3445s
 59118 10066 1133732.10   67   56 1079769.26 1535250.54  42.2%   536 3458s
 59493 10048 1150612.81   49   65 1079769.26 1533094.65  42.0%   536 3470s
 59829 10037 1382655.24   97  163 1079769.26 1530128.68  41.7%   537 3483s
 60115 10015 1312734.35   45   79 1079769.26 1528957.10  41.6%   538 3496s
 60498 10015     cutoff   35      1079769.26 1526975.57  41.4%   538 3509s
 60793 10003     cutoff   38      1079769.26 1524145.91  41.2%   538 3522s
 61067  9972 1386896.57   46   65 1079769.26 1522499.28  41.0%   539 3535s
 61417  9970     cutoff   35      1079769.26 1519491.47  40.7%   539 3549s
 61741  9988     cutoff   53      1079769.26 1517303.67  40.5%   539 3563s
 61985  9946 1262069.31   39   60 1079769.26 1516749.57  40.5%   540 3577s
 62422  9960 1332251.74   70   55 1079769.26 1512491.34  40.1%   539 3591s
 62853  9978 1272999.50   41   48 1079769.26 1510225.97  39.9%   538 3647s
 63233  9976 1455784.69   64  124 1079769.26 1507516.21  39.6%   538 3659s
 63539  9936 1498308.56   56   39 1079769.26 1503858.25  39.3%   538 3671s
 63861  9908     cutoff   40      1079769.26 1500887.39  39.0%   538 3684s
 64273  9917 1410449.57   64   60 1079769.26 1497951.85  38.7%   538 3696s
 64681  9918     cutoff   55      1079769.26 1495653.07  38.5%   537 3709s
 65069  9895 1115753.69   48   52 1079769.26 1494618.42  38.4%   537 3722s
 65482  9892 1436645.43   44   34 1079769.26 1491636.91  38.1%   537 3735s
 65803  9853 1177848.36   42  145 1079769.26 1489203.61  37.9%   537 3748s
 66184  9849 1136209.67   56   73 1079769.26 1486903.68  37.7%   537 3761s
 66567  9835     cutoff   41      1079769.26 1484319.07  37.5%   537 3773s
 66910  9812     cutoff   32      1079769.26 1482205.55  37.3%   537 3787s
 67250  9853     cutoff   49      1079769.26 1478837.77  37.0%   538 3807s
H67372  9876                    1079769.2703 1478367.27  36.9%   538 3807s
 67373  9800 1117233.74   33  102 1079769.27 1478367.27  36.9%   538 3831s
 67617  9743 1215667.88   68   60 1079769.27 1476916.74  36.8%   538 3843s
 68025  9740 1116780.91   70   42 1079769.27 1473627.73  36.5%   537 3856s
 68426  9756     cutoff   48      1079769.27 1471887.75  36.3%   537 3882s
 68689  9724 1201114.45   45  149 1079769.27 1470742.32  36.2%   537 3896s
 69124  9725     cutoff   41      1079769.27 1467831.07  35.9%   537 3909s
 69538  9738 1424728.31   36  134 1079769.27 1465815.66  35.8%   536 3920s
 69930  9707 1330476.35   45  154 1079769.27 1463326.29  35.5%   536 3931s
 70277  9680 1458921.08   40   36 1079769.27 1461001.22  35.3%   536 3944s
 70638  9663 1364649.60   51   50 1079769.27 1459221.53  35.1%   536 3956s
 70982  9628     cutoff  100      1079769.27 1456871.60  34.9%   536 3966s
 71261  9592 1370803.58   35   80 1079769.27 1454640.94  34.7%   536 3977s
 71618  9557     cutoff   30      1079769.27 1452228.48  34.5%   536 3989s
 72010  9557 1436363.48   61   45 1079769.27 1450346.54  34.3%   535 4002s
 72412  9548     cutoff   44      1079769.27 1448716.21  34.2%   535 4015s
 72876  9578     cutoff   35      1079769.27 1446415.36  34.0%   534 4027s
 73203  9560 1362142.89   46  204 1079769.27 1444668.77  33.8%   535 4041s
 73537  9553 1235215.71   43   41 1079769.27 1442796.00  33.6%   535 4054s
 73919  9533 1310606.77   35  184 1079769.27 1441238.25  33.5%   535 4067s
 74252  9503     cutoff   48      1079769.27 1438419.14  33.2%   535 4079s
 74594  9485 1356008.72   40  101 1079769.27 1436291.35  33.0%   536 4089s
 74895  9434 1285543.70   61  145 1079769.27 1433861.77  32.8%   535 4101s
 75211  9385     cutoff   41      1079769.27 1431951.55  32.6%   536 4111s
 75468  9322     cutoff   65      1079769.27 1429537.62  32.4%   536 4124s
 75809  9321 1203537.27   34  177 1079769.27 1427571.51  32.2%   536 4137s
 76144  9279     cutoff   54      1079769.27 1425559.68  32.0%   536 4149s
 76466  9242     cutoff   44      1079769.27 1424016.11  31.9%   536 4159s
 76757  9212     cutoff   44      1079769.27 1421738.80  31.7%   536 4173s
 77067  9186 1334974.75   47  165 1079769.27 1419878.35  31.5%   537 4183s
 77376  9142     cutoff   41      1079769.27 1417812.92  31.3%   536 4190s
 77689  9102     cutoff   50      1079769.27 1415623.98  31.1%   536 4201s
 78040  9089 1282490.70   55  250 1079769.27 1413561.69  30.9%   535 4215s
 78307  9032     cutoff   41      1079769.27 1412692.58  30.8%   536 4226s
 78589  8994 1406703.55   52   64 1079769.27 1410148.61  30.6%   536 4236s
 78874  8964     cutoff   47      1079769.27 1408682.48  30.5%   536 4247s
 79240  8949     cutoff   53      1079769.27 1406708.11  30.3%   535 4259s
 79583  8943     cutoff   48      1079769.27 1405431.03  30.2%   535 4310s
 79825  8881     cutoff   48      1079769.27 1404444.28  30.1%   535 4319s
 80105  8852     cutoff   65      1079769.27 1402470.95  29.9%   535 4333s
H80108  8852                    1079769.3207 1402470.95  29.9%   535 4333s
 80305  8807     cutoff   50      1079769.32 1401514.31  29.8%   535 4345s
 80559  8739 1301093.71   54   62 1079769.32 1399574.79  29.6%   535 4354s
 80878  8685     cutoff   42      1079769.32 1397007.40  29.4%   535 4367s
 81131  8623     cutoff   65      1079769.32 1395018.55  29.2%   535 4376s
 81426  8580     cutoff   43      1079769.32 1393033.13  29.0%   535 4385s
 81676  8540     cutoff   43      1079769.32 1391073.11  28.8%   535 4397s
 82009  8509 1167577.22   34  157 1079769.32 1389154.08  28.7%   535 4407s
 82278  8473 1376771.61   52  157 1079769.32 1387446.39  28.5%   535 4420s
 82635  8441     cutoff   51      1079769.32 1385900.94  28.4%   535 4432s
 82990  8402 1332513.44   61   50 1079769.32 1383883.54  28.2%   535 4442s
 83293  8364     cutoff   52      1079769.32 1382257.37  28.0%   534 4453s
 83589  8317 1207452.85   43   47 1079769.32 1380273.68  27.8%   534 4463s
 83863  8255 1289215.65   37   66 1079769.32 1378545.53  27.7%   534 4474s
 84130  8201     cutoff   51      1079769.32 1376907.28  27.5%   535 4483s
 84349  8132 1209004.21   39   73 1079769.32 1374321.15  27.3%   535 4495s
 84619  8076     cutoff   49      1079769.32 1372759.41  27.1%   535 4507s
 84905  8048     cutoff   38      1079769.32 1370977.02  27.0%   535 4515s
 85148  7986 1365823.92   38   29 1079769.32 1368992.06  26.8%   535 4523s
 85426  7925     cutoff   61      1079769.32 1366454.37  26.6%   535 4536s
 85682  7863     cutoff   57      1079769.32 1364815.29  26.4%   535 4549s
 85977  7801 1339679.20   52  153 1079769.32 1362480.85  26.2%   535 4558s
 86249  7742     cutoff   88      1079769.32 1360265.15  26.0%   535 4567s
 86473  7664 1332797.21   42  101 1079769.32 1358526.18  25.8%   535 4576s
 86692  7588     cutoff   51      1079769.32 1356616.65  25.6%   535 4584s
 86980  7537 1291247.20   59   60 1079769.32 1355009.19  25.5%   535 4596s
 87245  7472     cutoff   67      1079769.32 1352768.36  25.3%   535 4604s
 87489  7408     cutoff   51      1079769.32 1350896.24  25.1%   535 4609s
 87686  7342 1249315.07   45   90 1079769.32 1349310.70  25.0%   535 4619s
 87924  7300 1340467.79   47  115 1079769.32 1348027.75  24.8%   535 4636s
 88092  7232 1314536.48   48  103 1079769.32 1348008.47  24.8%   535 4644s
 88340  7165 1305160.33   36   69 1079769.32 1345094.44  24.6%   535 4652s
 88627  7123 1174241.86   59   65 1079769.32 1343498.39  24.4%   535 4663s
 88859  7059     cutoff   56      1079769.32 1342304.27  24.3%   535 4672s
 89159  7004     cutoff   47      1079769.32 1340032.60  24.1%   534 4682s
 89397  6933 1194392.28   66  104 1079769.32 1338209.58  23.9%   534 4687s
 89609  6868     cutoff   36      1079769.32 1336104.37  23.7%   534 4697s
 89921  6815     cutoff   63      1079769.32 1334527.70  23.6%   534 4706s
 90178  6760 infeasible   36      1079769.32 1332584.33  23.4%   534 4715s
 90425  6710     cutoff   38      1079769.32 1331162.63  23.3%   534 4727s
 90669  6648     cutoff   28      1079769.32 1329443.46  23.1%   534 4735s
 90931  6579     cutoff   64      1079769.32 1327433.26  22.9%   534 4743s
 91130  6515     cutoff   67      1079769.32 1325658.75  22.8%   534 4754s
 91333  6446     cutoff   41      1079769.32 1323998.58  22.6%   535 4760s
 91573  6385     cutoff   74      1079769.32 1322254.20  22.5%   534 4771s
 91810  6317 1276570.79   31  215 1079769.32 1320512.39  22.3%   534 4780s
 92021  6239     cutoff   63      1079769.32 1319057.13  22.2%   535 4788s
 92288  6176     cutoff   48      1079769.32 1317387.06  22.0%   535 4797s
 92535  6117     cutoff   36      1079769.32 1315810.69  21.9%   535 4808s
 92809  6055 1267151.88   35  142 1079769.32 1313881.53  21.7%   535 4817s
 93047  5996     cutoff   66      1079769.32 1312353.24  21.5%   534 4825s
 93294  5934 1289096.73   28  121 1079769.32 1310684.24  21.4%   534 4834s
 93512  5867     cutoff   49      1079769.32 1308907.52  21.2%   534 4840s
 93746  5794 1210840.49   47   56 1079769.32 1307464.45  21.1%   534 4850s
 93955  5717 1139805.13   52   34 1079769.32 1305845.74  20.9%   534 4858s
 94190  5646     cutoff   39      1079769.32 1304303.33  20.8%   534 4868s
 94408  5574     cutoff   56      1079769.32 1302723.29  20.6%   534 4879s
 94592  5498     cutoff   44      1079769.32 1300606.00  20.5%   534 4886s
 94801  5430 infeasible   61      1079769.32 1298491.90  20.3%   534 4894s
 95016  5355 1249184.80   65   59 1079769.32 1297019.21  20.1%   534 4900s
 95223  5280 1289471.90   40   77 1079769.32 1295182.08  19.9%   534 4907s
 95434  5199     cutoff   51      1079769.32 1293360.26  19.8%   534 4913s
 95624  5123     cutoff   40      1079769.32 1291721.68  19.6%   534 4920s
 95778  5040     cutoff   36      1079769.32 1289894.35  19.5%   534 4927s
 95974  4974     cutoff   83      1079769.32 1288348.79  19.3%   534 4933s
 96161  4903     cutoff   49      1079769.32 1286734.34  19.2%   534 4942s
 96358  4835 1227664.19   31   49 1079769.32 1285046.43  19.0%   534 4949s
 96568  4756 1249989.96   40   41 1079769.32 1283252.26  18.8%   534 4955s
 96744  4685     cutoff   69      1079769.32 1281741.86  18.7%   534 4962s
 96926  4609 1194450.89   48   39 1079769.32 1280000.87  18.5%   534 4967s
 97146  4546     cutoff   45      1079769.32 1278307.50  18.4%   533 4973s
 97305  4465     cutoff   43      1079769.32 1276738.63  18.2%   533 4979s
 97468  4387     cutoff   48      1079769.32 1274994.66  18.1%   533 4986s
 97656  4312     cutoff   57      1079769.32 1273058.66  17.9%   533 4990s
 97851  4241     cutoff   55      1079769.32 1270947.19  17.7%   533 4995s
 98010  4164     cutoff   53      1079769.32 1268903.82  17.5%   533 5001s
 98204  4093     cutoff  119      1079769.32 1267032.31  17.3%   533 5005s
 98368  4013     cutoff   57      1079769.32 1264967.00  17.2%   533 5010s
 98534  3938     cutoff   62      1079769.32 1262722.84  16.9%   533 5015s
 98701  3857 1214983.82   29   99 1079769.32 1260410.09  16.7%   533 5021s
 98843  3779     cutoff   42      1079769.32 1258718.73  16.6%   533 5028s
 99004  3700     cutoff   40      1079769.32 1256945.82  16.4%   533 5033s
 99144  3619     cutoff   69      1079769.32 1255199.93  16.2%   533 5038s
 99344  3548     cutoff   56      1079769.32 1253432.95  16.1%   533 5043s
 99547  3470     cutoff   40      1079769.32 1251389.44  15.9%   533 5048s
 99708  3393     cutoff   47      1079769.32 1249099.26  15.7%   533 5054s
 99899  3313     cutoff   83      1079769.32 1246986.65  15.5%   533 5060s
 100080  3237 1236239.94   52   73 1079769.32 1245085.59  15.3%   533 5066s
 100263  3160     cutoff   58      1079769.32 1242579.34  15.1%   532 5071s
 100448  3088 1208690.06   32   61 1079769.32 1240108.42  14.8%   532 5075s
 100785  2932     cutoff   64      1079769.32 1235704.55  14.4%   532 5085s
 100975  2853     cutoff   29      1079769.32 1233151.45  14.2%   532 5092s
 101173  2777 1137609.24   38  107 1079769.32 1231058.47  14.0%   532 5098s
 101336  2693 1201244.62   33  116 1079769.32 1228571.48  13.8%   531 5104s
 101492  2619     cutoff   71      1079769.32 1226147.32  13.6%   532 5112s
 101638  2537     cutoff   68      1079769.32 1223895.15  13.3%   532 5116s
 101788  2456     cutoff   44      1079769.32 1221884.92  13.2%   532 5121s
 101944  2374     cutoff   56      1079769.32 1219462.34  12.9%   532 5126s
 102113  2295     cutoff   59      1079769.32 1216723.02  12.7%   532 5130s
 102404  2132     cutoff   48      1079769.32 1211694.19  12.2%   531 5138s
 102527  2048 1177949.60   68   49 1079769.32 1208588.48  11.9%   531 5141s
 102694  1968     cutoff   43      1079769.32 1206025.16  11.7%   531 5145s
 103014  1805 1175141.75   42  137 1079769.32 1200999.42  11.2%   531 5153s
 103163  1726 1109219.92   44   87 1079769.32 1198219.71  11.0%   531 5158s
 103293  1645     cutoff   51      1079769.32 1194889.19  10.7%   531 5161s
 103426  1565     cutoff   32      1079769.32 1192603.66  10.4%   531 5166s
 103629  1494     cutoff   51      1079769.32 1189625.90  10.2%   530 5171s
 103800  1414     cutoff   48      1079769.32 1186747.01  9.91%   530 5176s
 103925  1331 1152329.68   60   30 1079769.32 1183813.60  9.64%   530 5185s
 104191  1168     cutoff   44      1079769.32 1177536.43  9.05%   530 5195s
 104447  1002     cutoff   85      1079769.32 1171493.74  8.49%   530 5201s
 104603   924 1136755.05   62   76 1079769.32 1168425.24  8.21%   529 5205s
 104865   758     cutoff   71      1079769.32 1160558.94  7.48%   529 5213s
 104985   676     cutoff   62      1079769.32 1155996.89  7.06%   529 5216s
 105118   594     cutoff   38      1079769.32 1150985.50  6.60%   529 5220s
 105341   427 infeasible   47      1079769.32 1141980.40  5.76%   529 5227s
 105454   343 infeasible   80      1079769.32 1134010.20  5.02%   529 5232s
 105655   175     cutoff   33      1079769.32 1118134.54  3.55%   529 5236s
 105754    91     cutoff   47      1079769.32 1108830.56  2.69%   528 5242s
 105846     7 1094774.22   41  165 1079769.32 1095571.10  1.46%   529 5245s

Cutting planes:
  Gomory: 55
  Cover: 4
  Implied bound: 134
  Projected implied bound: 59
  MIR: 149
  Flow cover: 1282
  Inf proof: 2
  Zero half: 1

Explored 105944 nodes (56170446 simplex iterations) in 5249.86 seconds
Thread count was 4 (of 16 available processors)

Solution count 10: 1.07977e+06 1.07977e+06 1.07977e+06 ... 714384

Optimal solution found (tolerance 1.00e-04)
Best objective 1.079769212879e+06, best bound 1.079769320695e+06, gap 0.0000%

***
***  |- Calculation finished, took 5,249.91 (5249.91) sec.
***  |-----------------------------------------------------------------------------------------------------------------------
***
*****************************************************************************************************************************
#############################################################################################################################
###
### Results
###
### The objective of the solution is 1,079,769.2129 (1079769.2129) and is feasible with a Gap of 0.0
###
### Service 81 (MECL1) is operated by 6 vessels from type 30 (PMax35)
###  |- Vessel  9 has the path [9, 332, 326, 342, 333, 324, 4, 294, 284, 7, 298, 196, 0]
###  |  9 (BEANR Out@344.0) - 332 (USEWR In@608.0/Out@618.0) - 326 (USCHS In@656.0/Out@666.0) - 342 (USORF In@691.0/Out@704.0
###  |  ) - 333 (USEWR In@728.0/Out@744.0) - 324 (TRZMK In@1063.0/Out@1077.0) - 4 (AEJEA In@1177.0/Out@1201.0) - 294 (PKBQM I
###  |  n@1258.0/Out@1288.0) - 284 (OMSLL In@1410.0/Out@1423.0) - 7 (AEJEA In@1681.0/Out@1705.0) - 298 (PKBQM In@1762.0/Out@1
###  |  792.0) - 196 (INNSA In@1856.0/Out@1872.0) - 0 (DUMMY_END Ziel-Service 81)
###  |   |- and carried Demand 237,   34.0 containers from 298 to 196
###  |   |- and carried Demand 238,   84.0 containers from   7 to 298
###  |   |- and carried Demand 239,   50.0 containers from   7 to 298
###  |   |- and carried Demand 297,  254.0 containers from 294 to 196
###  |   |- and carried Demand 298,    1.0 containers from 294 to 196
###  |   |- and carried Demand 299,  135.0 containers from 294 to 196
###  |   |- and carried Demand 302,   75.0 containers from   4 to 196
###  |   |- and carried Demand 303,  200.0 containers from   4 to 294
###  |   |- and carried Demand 304,   24.0 containers from   4 to 294
###  |   |- and carried Demand 305,   26.0 containers from   4 to 196
###  |   |- and carried Demand 306,  144.0 containers from   4 to 196
###  |   |- and carried Demand 307,    1.0 containers from   4 to 196
###  |   |- and carried Demand 309,  339.0 containers from 342 to   4
###  |   |- and carried Demand 310,  115.0 containers from 342 to   4
###  |   |- and carried Demand 311,    3.0 containers from 342 to 284
###  |   |- and carried Demand 312,    2.0 containers from 342 to 294
###  |   |- and carried Demand 313,  194.0 containers from 326 to   4
###  |   |- and carried Demand 314,   49.0 containers from 326 to   4
###  |   |- and carried Demand 315,   40.0 containers from 326 to 294
###  |   |- and carried Demand 318,  842.0 containers from 332 to   4
###  |   |- and carried Demand 319,   99.0 containers from 332 to   4
###  |   |- and carried Demand 320,  123.0 containers from 332 to 294
###  |   |- and carried Demand 321,    1.0 containers from 332 to 294
###  |- Vessel 10 has the path [10, 316, 190, 0]
###  |  10 (BEANR Out@512.0) - 316 (TRAMB In@854.0/Out@881.0) - 190 (INNSA In@1016.0/Out@1032.0) - 0 (DUMMY_END Ziel-Service 
###  |  81)
###  |- Vessel 11 has the path [13, 313, 191, 0]
###  |  13 (BEANR Out@680.0) - 313 (TRALI In@946.0/Out@964.0) - 191 (INNSA In@1184.0/Out@1200.0) - 0 (DUMMY_END Ziel-Service 
###  |  81)
###  |- Vessel 12 has the path [16, 314, 192, 0]
###  |  16 (BEANR Out@848.0) - 314 (TRALI In@1114.0/Out@1132.0) - 192 (INNSA In@1352.0/Out@1368.0) - 0 (DUMMY_END Ziel-Servic
###  |  e 81)
###  |- Vessel 17 has the path [158, 2, 291, 292, 293, 283, 5, 295, 194, 195, 0]
###  |  158 (GBFXT Out@580.0) - 2 (AEJEA In@841.0/Out@865.0) - 291 (PKBQM In@922.0/Out@952.0) - 292 (PKBQM In@992.0/Out@1020.
###  |  0) - 293 (PKBQM In@1090.0/Out@1120.0) - 283 (OMSLL In@1167.0/Out@1182.0) - 5 (AEJEA In@1345.0/Out@1369.0) - 295 (PKBQ
###  |  M In@1426.0/Out@1456.0) - 194 (INNSA In@1590.0/Out@1622.0) - 195 (INNSA In@1688.0/Out@1704.0) - 0 (DUMMY_END Ziel-Ser
###  |  vice 81)
###  |   |- and carried Demand 120,  237.0 containers from 292 to 194
###  |   |- and carried Demand 121,    2.0 containers from 292 to 194
###  |   |- and carried Demand 123,   97.0 containers from 292 to 194
###  |   |- and carried Demand 283,  153.0 containers from   5 to 195
###  |   |- and carried Demand 284,   86.0 containers from   5 to 295
###  |   |- and carried Demand 285,  118.0 containers from   5 to 295
###  |   |- and carried Demand 323,  244.0 containers from 293 to 195
###  |   |- and carried Demand 324,   67.0 containers from 293 to 195
###  |   |- and carried Demand 333,  237.0 containers from 291 to 194
###  |   |- and carried Demand 334,    2.0 containers from 291 to 194
###  |   |- and carried Demand 336,   97.0 containers from 291 to 194
###  |   |- and carried Demand 338,  704.0 containers from   2 to 195
###  |   |- and carried Demand 339,    8.0 containers from   2 to 195
###  |   |- and carried Demand 340,  156.0 containers from   2 to 291
###  |   |- and carried Demand 341,   45.0 containers from   2 to 291
###  |   |- and carried Demand 342,   16.0 containers from   2 to 194
###  |   |- and carried Demand 343,  264.0 containers from   2 to 194
###  |- Vessel 18 has the path [161, 321, 193, 0]
###  |  161 (GBFXT Out@748.0) - 321 (TRGEM In@1087.0/Out@1095.0) - 193 (INNSA In@1520.0/Out@1536.0) - 0 (DUMMY_END Ziel-Servi
###  |  ce 81)
###  |
### Vessels not used in the solution: [1, 2, 3, 4, 5, 6, 7, 8, 13, 14, 15, 16, 23]
###  |-----------------------------------------------------------------------------------------------------------------------
###
#############################################################################################################################

### Detialed variable overview

### All variables with value greater zero:
rho[81,30] = 1
eta[81,30,1] = 1
eta[81,30,2] = 1
eta[81,30,3] = 1
eta[81,30,4] = 1
eta[81,30,5] = 1
eta[81,30,6] = 1
y[9,4,294] = 1
y[9,332,326] = 1
y[9,294,284] = 1
y[9,284,7] = 1
y[9,342,333] = 1
y[9,9,332] = 1
y[9,324,4] = 1
y[9,7,298] = 1
y[9,196,0] = 1
y[9,333,324] = 1
y[9,298,196] = 1
y[9,326,342] = 1
y[10,190,0] = 1
y[10,316,190] = 1
y[10,10,316] = 1
y[11,313,191] = 1
y[11,191,0] = 1
y[11,13,313] = 1
y[12,192,0] = 1
y[12,314,192] = 1
y[12,16,314] = 1
y[17,283,5] = 1
y[17,293,283] = 1
y[17,195,0] = 1
y[17,5,295] = 1
y[17,292,293] = 1
y[17,194,195] = 1
y[17,291,292] = 1
y[17,295,194] = 1
y[17,2,291] = 1
y[17,158,2] = 1
y[18,161,321] = 1
y[18,193,0] = 1
y[18,321,193] = 1
xD[120,283,5] = 237
xD[120,293,283] = 237
xD[120,5,295] = 237
xD[120,292,293] = 237
xD[120,295,194] = 237
xD[121,283,5] = 2
xD[121,293,283] = 2
xD[121,5,295] = 2
xD[121,292,293] = 2
xD[121,295,194] = 2
xD[123,283,5] = 97
xD[123,293,283] = 97
xD[123,5,295] = 97
xD[123,292,293] = 97
xD[123,295,194] = 97
xD[237,298,196] = 34
xD[238,7,298] = 84
xD[239,7,298] = 50
xD[283,5,295] = 153
xD[283,194,195] = 153
xD[283,295,194] = 153
xD[284,5,295] = 86
xD[285,5,295] = 118
xD[297,294,284] = 254
xD[297,284,7] = 254
xD[297,7,298] = 254
xD[297,298,196] = 254
xD[298,294,284] = 1
xD[298,284,7] = 1
xD[298,7,298] = 1
xD[298,298,196] = 1
xD[299,294,284] = 135
xD[299,284,7] = 135
xD[299,7,298] = 135
xD[299,298,196] = 135
xD[302,4,294] = 75
xD[302,294,284] = 75
xD[302,284,7] = 75
xD[302,7,298] = 75
xD[302,298,196] = 75
xD[303,4,294] = 200
xD[304,4,294] = 24
xD[305,4,294] = 26
xD[305,294,284] = 26
xD[305,284,7] = 26
xD[305,7,298] = 26
xD[305,298,196] = 26
xD[306,4,294] = 144
xD[306,294,284] = 144
xD[306,284,7] = 144
xD[306,7,298] = 144
xD[306,298,196] = 144
xD[307,4,294] = 1
xD[307,294,284] = 1
xD[307,284,7] = 1
xD[307,7,298] = 1
xD[307,298,196] = 1
xD[309,342,333] = 339
xD[309,324,4] = 339
xD[309,333,324] = 339
xD[310,342,333] = 115
xD[310,324,4] = 115
xD[310,333,324] = 115
xD[311,4,294] = 3
xD[311,294,284] = 3
xD[311,342,333] = 3
xD[311,324,4] = 3
xD[311,333,324] = 3
xD[312,4,294] = 2
xD[312,342,333] = 2
xD[312,324,4] = 2
xD[312,333,324] = 2
xD[313,342,333] = 194
xD[313,324,4] = 194
xD[313,333,324] = 194
xD[313,326,342] = 194
xD[314,342,333] = 49
xD[314,324,4] = 49
xD[314,333,324] = 49
xD[314,326,342] = 49
xD[315,4,294] = 40
xD[315,342,333] = 40
xD[315,324,4] = 40
xD[315,333,324] = 40
xD[315,326,342] = 40
xD[318,332,326] = 842
xD[318,342,333] = 842
xD[318,324,4] = 842
xD[318,333,324] = 842
xD[318,326,342] = 842
xD[319,332,326] = 99
xD[319,342,333] = 99
xD[319,324,4] = 99
xD[319,333,324] = 99
xD[319,326,342] = 99
xD[320,4,294] = 123
xD[320,332,326] = 123
xD[320,342,333] = 123
xD[320,324,4] = 123
xD[320,333,324] = 123
xD[320,326,342] = 123
xD[321,4,294] = 1
xD[321,332,326] = 1
xD[321,342,333] = 1
xD[321,324,4] = 1
xD[321,333,324] = 1
xD[321,326,342] = 1
xD[323,283,5] = 244
xD[323,293,283] = 244
xD[323,5,295] = 244
xD[323,194,195] = 244
xD[323,295,194] = 244
xD[324,283,5] = 67
xD[324,293,283] = 67
xD[324,5,295] = 67
xD[324,194,195] = 67
xD[324,295,194] = 67
xD[333,283,5] = 237
xD[333,293,283] = 237
xD[333,5,295] = 237
xD[333,292,293] = 237
xD[333,291,292] = 237
xD[333,295,194] = 237
xD[334,283,5] = 2
xD[334,293,283] = 2
xD[334,5,295] = 2
xD[334,292,293] = 2
xD[334,291,292] = 2
xD[334,295,194] = 2
xD[336,283,5] = 97
xD[336,293,283] = 97
xD[336,5,295] = 97
xD[336,292,293] = 97
xD[336,291,292] = 97
xD[336,295,194] = 97
xD[338,283,5] = 704
xD[338,293,283] = 704
xD[338,5,295] = 704
xD[338,292,293] = 704
xD[338,194,195] = 704
xD[338,291,292] = 704
xD[338,295,194] = 704
xD[338,2,291] = 704
xD[339,283,5] = 8
xD[339,293,283] = 8
xD[339,5,295] = 8
xD[339,292,293] = 8
xD[339,194,195] = 8
xD[339,291,292] = 8
xD[339,295,194] = 8
xD[339,2,291] = 8
xD[340,2,291] = 156
xD[341,2,291] = 45
xD[342,283,5] = 16
xD[342,293,283] = 16
xD[342,5,295] = 16
xD[342,292,293] = 16
xD[342,291,292] = 16
xD[342,295,194] = 16
xD[342,2,291] = 16
xD[343,283,5] = 264
xD[343,293,283] = 264
xD[343,5,295] = 264
xD[343,292,293] = 264
xD[343,291,292] = 264
xD[343,295,194] = 264
xD[343,2,291] = 264
zE[2] = 841
zE[4] = 1177
zE[5] = 1345
zE[7] = 1681
zE[190] = 1016
zE[191] = 1184
zE[192] = 1352
zE[193] = 1520
zE[194] = 1590
zE[195] = 1688
zE[196] = 1856
zE[283] = 1167
zE[284] = 1410
zE[291] = 922
zE[292] = 992
zE[293] = 1090
zE[294] = 1258
zE[295] = 1426
zE[298] = 1762
zE[313] = 946
zE[314] = 1114
zE[316] = 854
zE[321] = 1087
zE[324] = 1063
zE[326] = 656
zE[332] = 608
zE[333] = 728
zE[342] = 691
zX[2] = 865
zX[4] = 1201
zX[5] = 1369
zX[7] = 1705
zX[9] = 344
zX[10] = 512
zX[13] = 680
zX[16] = 848
zX[158] = 580
zX[161] = 748
zX[190] = 1032
zX[191] = 1200
zX[192] = 1368
zX[193] = 1536
zX[194] = 1622
zX[195] = 1704
zX[196] = 1872
zX[283] = 1182
zX[284] = 1423
zX[291] = 952
zX[292] = 1020
zX[293] = 1120
zX[294] = 1288
zX[295] = 1456
zX[298] = 1792
zX[313] = 964
zX[314] = 1132
zX[316] = 881
zX[321] = 1095
zX[324] = 1077
zX[326] = 666
zX[332] = 618
zX[333] = 744
zX[342] = 704
phi[9] = 1528
phi[10] = 520
phi[11] = 520
phi[12] = 520
phi[17] = 1124
phi[18] = 788

### All variables with value smaller zero:

### End

real	91m5.574s
user	333m48.047s
sys	16m0.531s
	OpenBLAS 0.2.6 environment removed
	Freetype 2.4.12 environment removed
	Python 3.6.0 environment removed
	Gurobi 8.1.0 environment removed
