	OpenBLAS 0.2.6 environment established
		compiled with gcc for max. 16 cores
	Freetype 2.4.12 environment established
		library to render fonts
	Python 3.6.0 environment established
	Gurobi 8.1.0 environment established
Instance LSFRP: LSFDRP_4_3_6_1_fr.p
Instance LSFDP: LSFDRP_4_3_6_1_fd_43.p

*****************************************************************************************************************************
*** Solve LSFDRP_4_3_6_1_fd_43 with Gurobi
***
*** Graph info
*** |S|: 19
*** |S^E|: 0
*** |S^C|: 1
*** |V|: 348
*** |A|: 8709
*** |A^i|: 8382
*** |A^f|: 327
*** |M|: 343
*** |E|: 0

Changed value of parameter NumericFocus to 1
   Prev: 0  Min: 0  Max: 3  Default: 0
Changed value of parameter TimeLimit to 86400.0
   Prev: 1e+100  Min: 0.0  Max: 1e+100  Default: 1e+100
Changed value of parameter Threads to 4
   Prev: 0  Min: 0  Max: 1024  Default: 0
Optimize a model with 163606 rows, 3177009 columns and 11352648 nonzeros
Variable types: 3011517 continuous, 165492 integer (165492 binary)
Coefficient statistics:
  Matrix range     [1e+00, 5e+03]
  Objective range  [4e+01, 3e+08]
  Bounds range     [1e+00, 1e+00]
  RHS range        [1e+00, 5e+03]
Presolve removed 75566 rows and 2450955 columns (presolve time = 5s) ...
Presolve removed 135679 rows and 3001013 columns (presolve time = 10s) ...
Presolve removed 135800 rows and 3001291 columns (presolve time = 15s) ...
Presolve removed 135800 rows and 3018020 columns (presolve time = 89s) ...
Presolve removed 137025 rows and 3018164 columns (presolve time = 90s) ...
Presolve removed 137755 rows and 3024853 columns (presolve time = 197s) ...
Presolve removed 137755 rows and 3024853 columns
Presolve time: 197.07s
Presolved: 25851 rows, 152156 columns, 1226880 nonzeros
Variable types: 11011 continuous, 141145 integer (141106 binary)

Deterministic concurrent LP optimizer: primal and dual simplex
Showing first log only...


Root simplex log...

Iteration    Objective       Primal Inf.    Dual Inf.      Time
       0   -0.0000000e+00   4.800000e+01   2.523599e+10    201s
   17454   -6.5960088e+06   0.000000e+00   3.290528e+11    205s
   31880   -6.2256927e+06   0.000000e+00   3.095829e+09    210s
   46598   -5.3980374e+06   0.000000e+00   3.818534e+11    215s
   60972   -3.6324803e+06   0.000000e+00   1.176971e+10    220s
   75641   -1.4604575e+06   0.000000e+00   9.624460e+09    225s
   88740   -4.5294109e+05   0.000000e+00   3.523949e+09    230s
  101114    1.7652263e+04   0.000000e+00   4.467309e+09    235s
  112319    8.8069053e+05   0.000000e+00   4.687609e+10    240s
  122407    1.2009606e+06   0.000000e+00   2.321910e+11    245s
  131525    1.4208942e+06   0.000000e+00   2.435465e+11    250s
  139673    1.8866013e+06   0.000000e+00   7.702503e+11    255s
  147627    2.1655060e+06   0.000000e+00   9.435428e+09    260s
  155969    2.4347036e+06   0.000000e+00   4.168593e+11    265s
  164505    2.7720249e+06   0.000000e+00   3.269390e+10    270s
  173235    3.0425382e+06   0.000000e+00   1.525216e+11    275s
  182935    3.3048471e+06   0.000000e+00   4.410245e+11    280s
  192441    3.4661091e+06   0.000000e+00   2.113503e+10    285s
  200977    3.6822760e+06   0.000000e+00   2.148181e+10    290s
Concurrent spin time: 20.09s

Solved with dual simplex

Root relaxation: objective 6.833301e+06, 75522 iterations, 94.03 seconds

    Nodes    |    Current Node    |     Objective Bounds      |     Work
 Expl Unexpl |  Obj  Depth IntInf | Incumbent    BestBd   Gap | It/Node Time

     0     0 6677240.09    0  288          - 6677240.09      -     -  301s
H    0     0                    -2943367.110 6677240.09   327%     -  304s
H    0     0                    410873.37842 6677240.09  1525%     -  334s
     0     0 4792704.97    0  256 410873.378 4792704.97  1066%     -  342s
     0     0 4792704.97    0  250 410873.380 4792704.97  1066%     -  353s
     0     0 4433630.93    0  271 410873.380 4433630.93   979%     -  360s
     0     0 4302653.82    0  271 410873.380 4302653.82   947%     -  361s
     0     0 4275365.98    0  287 410873.380 4275365.98   941%     -  362s
     0     0 4272921.20    0  288 410873.380 4272921.20   940%     -  362s
     0     0 4267381.55    0  289 410873.380 4267381.55   939%     -  362s
     0     0 4265823.74    0  287 410873.380 4265823.74   938%     -  362s
     0     0 4265823.74    0  287 410873.380 4265823.74   938%     -  362s
     0     0 4191351.75    0  308 410873.380 4191351.75   920%     -  364s
     0     0 4178743.08    0  325 410873.380 4178743.08   917%     -  365s
     0     0 4163739.11    0  327 410873.380 4163739.11   913%     -  365s
     0     0 4149581.53    0  341 410873.380 4149581.53   910%     -  366s
     0     0 4148829.48    0  342 410873.380 4148829.48   910%     -  366s
     0     0 4147611.23    0  326 410873.380 4147611.23   909%     -  366s
     0     0 4147064.93    0  326 410873.380 4147064.93   909%     -  366s
     0     0 4147040.29    0  324 410873.380 4147040.29   909%     -  366s
     0     0 4126159.64    0  321 410873.380 4126159.64   904%     -  367s
     0     0 4126159.64    0  243 410873.380 4126159.64   904%     -  371s
H    0     0                    410873.38044 4126159.64   904%     -  374s
H    0     0                    410873.38274 4126159.64   904%     -  374s
     0     0 4126159.64    0  279 410873.383 4126159.64   904%     -  375s
     0     0 4126159.64    0  273 410873.383 4126159.64   904%     -  375s
     0     0 4126159.64    0  287 410873.383 4126159.64   904%     -  376s
     0     0 4126159.64    0  291 410873.383 4126159.64   904%     -  376s
     0     0 4119375.29    0  299 410873.383 4119375.29   903%     -  376s
     0     0 4115278.87    0  302 410873.383 4115278.87   902%     -  376s
     0     0 4114063.27    0  313 410873.383 4114063.27   901%     -  376s
     0     0 4101230.95    0  324 410873.383 4101230.95   898%     -  376s
     0     0 4098615.01    0  326 410873.383 4098615.01   898%     -  377s
     0     0 4098505.95    0  328 410873.383 4098505.95   898%     -  377s
     0     0 4098487.92    0  331 410873.383 4098487.92   898%     -  377s
     0     0 4084097.05    0  334 410873.383 4084097.05   894%     -  378s
     0     0 4074712.31    0  337 410873.383 4074712.31   892%     -  378s
     0     0 4072915.00    0  343 410873.383 4072915.00   891%     -  379s
     0     0 4070420.47    0  350 410873.383 4070420.47   891%     -  379s
     0     0 4069935.27    0  351 410873.383 4069935.27   891%     -  379s
     0     0 4069896.43    0  349 410873.383 4069896.43   891%     -  379s
     0     0 4053127.22    0  357 410873.383 4053127.22   886%     -  379s
     0     0 4051328.63    0  372 410873.383 4051328.63   886%     -  380s
     0     0 4045410.34    0  384 410873.383 4045410.34   885%     -  380s
     0     0 4043357.87    0  364 410873.383 4043357.87   884%     -  380s
     0     0 4042521.00    0  365 410873.383 4042521.00   884%     -  380s
     0     0 4040996.28    0  369 410873.383 4040996.28   884%     -  380s
     0     0 4040745.04    0  379 410873.383 4040745.04   883%     -  380s
     0     0 4040575.31    0  369 410873.383 4040575.31   883%     -  380s
     0     0 4037790.72    0  372 410873.383 4037790.72   883%     -  381s
     0     0 4031567.73    0  380 410873.383 4031567.73   881%     -  381s
     0     0 4031165.34    0  375 410873.383 4031165.34   881%     -  381s
     0     0 4029867.83    0  366 410873.383 4029867.83   881%     -  381s
     0     0 4029780.77    0  368 410873.383 4029780.77   881%     -  381s
     0     0 4026120.54    0  367 410873.383 4026120.54   880%     -  382s
     0     0 4025460.37    0  378 410873.383 4025460.37   880%     -  382s
     0     0 4025183.01    0  378 410873.383 4025183.01   880%     -  382s
     0     0 4024992.40    0  379 410873.383 4024992.40   880%     -  382s
     0     0 4012288.59    0  376 410873.383 4012288.59   877%     -  383s
     0     0 4008809.86    0  378 410873.383 4008809.86   876%     -  383s
     0     0 4006533.50    0  364 410873.383 4006533.50   875%     -  383s
     0     0 4004971.00    0  382 410873.383 4004971.00   875%     -  383s
     0     0 4004897.32    0  381 410873.383 4004897.32   875%     -  383s
     0     0 4002115.09    0  304 410873.383 4002115.09   874%     -  384s
     0     0 4001830.19    0  310 410873.383 4001830.19   874%     -  384s
     0     0 4000749.75    0  308 410873.383 4000749.75   874%     -  384s
     0     0 3997397.98    0  314 410873.383 3997397.98   873%     -  384s
     0     0 3997315.38    0  314 410873.383 3997315.38   873%     -  384s
     0     0 3996451.15    0  323 410873.383 3996451.15   873%     -  385s
     0     0 3995213.93    0  318 410873.383 3995213.93   872%     -  385s
     0     0 3994986.55    0  325 410873.383 3994986.55   872%     -  385s
     0     0 3993020.33    0  321 410873.383 3993020.33   872%     -  386s
     0     0 3992703.51    0  333 410873.383 3992703.51   872%     -  386s
     0     0 3992659.60    0  381 410873.383 3992659.60   872%     -  386s
     0     0 3988035.99    0  379 410873.383 3988035.99   871%     -  386s
     0     0 3986959.22    0  339 410873.383 3986959.22   870%     -  387s
     0     0 3986941.84    0  340 410873.383 3986941.84   870%     -  387s
     0     0 3982952.80    0  358 410873.383 3982952.80   869%     -  387s
     0     0 3982859.34    0  355 410873.383 3982859.34   869%     -  387s
     0     0 3980171.41    0  360 410873.383 3980171.41   869%     -  388s
     0     0 3978985.31    0  357 410873.383 3978985.31   868%     -  388s
     0     0 3978933.10    0  359 410873.383 3978933.10   868%     -  388s
     0     0 3978426.80    0  358 410873.383 3978426.80   868%     -  389s
     0     0 3978426.80    0  358 410873.383 3978426.80   868%     -  396s
H    0     0                    410873.38325 3978426.80   868%     -  400s
     0     2 3978426.80    0  358 410873.383 3978426.80   868%     -  400s
     1     4 3905205.34    1  379 410873.383 3905205.34   850%  1727  405s
     7    12 3493223.70    3  346 410873.383 3858388.59   839%  1420  410s
    28    31 2872356.78    7  274 410873.383 3858097.85   839%  1041  420s
H   31    32                    488714.86441 3858097.85   689%   952  420s
    68    63 3096305.53   14  334 488714.864 3858097.85   689%   703  426s
   102    89 2402812.39   19  282 488714.864 3785206.08   675%   701  431s
   128   104 2626066.19   23  238 488714.864 3785206.08   675%   736  436s
   158   128 2480342.46   28  226 488714.864 3785206.08   675%   736  441s
   226   189 2417827.72   54  176 488714.864 3785206.08   675%   616  445s
   292   251 1386302.10   89  154 488714.864 3785206.08   675%   559  454s
   311   262 1008570.31   98   72 488714.864 3785206.08   675%   552  455s
   438   320 983326.084  144   92 488714.864 3785206.08   675%   457  460s
   573   370 3568700.38    7  276 488714.864 3728974.88   663%   414  466s
   666   425 2797083.33   21   97 488714.864 3679273.39   653%   413  470s
   732   467 2306155.84   37   96 488714.864 3679273.39   653%   415  475s
   848   527 2062024.41   51   84 488714.864 3507170.50   618%   404  480s
H  889   546                    496217.92792 3496633.88   605%   406  485s
H  892   546                    496217.92812 3496633.88   605%   408  485s
H  893   547                    496217.93275 3496633.88   605%   407  485s
   915   552 1321209.24   17  165 496217.933 3492225.49   604%   418  491s
   984   590     cutoff   14      496217.933 3492225.49   604%   432  496s
  1076   634 2540641.17   51  256 496217.933 3439669.53   593%   437  516s
H 1077   603                    496217.93315 3439669.53   593%   437  522s
H 1077   573                    604814.28741 3439669.53   469%   437  523s
  1080   575 2554712.30   15  345 604814.287 3439669.53   469%   436  525s
  1087   579 2575747.18   44  377 604814.287 3439669.53   469%   433  530s
  1107   593 930845.171   13  343 604814.287 3439669.53   469%   425  535s
  1125   605 2385010.02   18  350 604814.287 3439669.53   469%   418  540s
  1142   616 2159893.02   44  386 604814.287 3439669.53   469%   412  545s
  1155   625 2245720.52   40  388 604814.287 3439669.53   469%   407  550s
  1170   635 1475381.52   23  396 604814.287 3439669.53   469%   402  555s
  1186   645 1139327.76   11  388 604814.287 3439669.53   469%   397  560s
  1200   655 3101436.95   16  387 604814.287 3439669.53   469%   392  570s
  1202   656 1435113.56   50  385 604814.287 3439669.53   469%   392  575s
  1203   659 3439669.53   14  378 604814.287 3439669.53   469%   432  600s
  1205   661 3322803.49   15  299 604814.287 3439669.53   469%   436  622s
  1208   664 3283235.91   16  292 604814.287 3439669.53   469%   437  632s
  1212   667 2869377.56   17  203 604814.287 3439669.53   469%   449  638s
  1216   669 3006898.15   17  269 604814.287 3439669.53   469%   464  642s
  1220   672 2962037.50   18  256 604814.287 3439669.53   469%   468  646s
  1224   674 2913571.07   18  255 604814.287 3424948.18   466%   471  650s
  1228   677 2927807.18   19  189 604814.287 3398839.08   462%   477  655s
  1244   681 2887827.48   21  132 604814.287 3346547.55   453%   498  661s
  1261   689 2684866.65   23  114 604814.287 3305654.13   447%   508  669s
H 1262   656                    756178.88800 3305654.13   337%   507  669s
  1266   656 2689512.89   23  111 756178.888 3305654.13   337%   510  671s
  1290   663 2450049.39   27   86 756178.888 3305654.13   337%   516  675s
  1333   669 2113652.86   31   93 756178.888 3305654.13   337%   526  682s
  1351   672 2606016.36   35  117 756178.888 3304165.20   337%   535  685s
H 1367   638                    826603.16455 3304165.20   300%   539  687s
H 1373   610                    826603.16468 3304165.20   300%   539  687s
  1382   611 2581041.03   38  108 826603.165 3304165.20   300%   537  690s
  1412   622 2324600.18   42  143 826603.165 3304057.77   300%   542  695s
  1464   636 2240181.52   49  139 826603.165 3304057.77   300%   543  700s
  1538   640 2073697.88   59  108 826603.165 3304057.77   300%   541  706s
  1621   645 1868199.27   70  131 826603.165 3304057.77   300%   531  710s
  1707   652 1356885.56   86   96 826603.165 3304057.77   300%   530  716s
  1769   646 1311845.58   99   93 826603.165 3221747.57   290%   523  720s
  1841   656 1732635.17   26  173 826603.165 3170028.99   284%   532  728s
  1888   659     cutoff   33      826603.165 3168208.39   283%   532  731s
  1972   660 871207.668   49   75 826603.165 3090398.38   274%   533  740s
  2002   663 2364174.14   28  256 826603.165 3090398.38   274%   540  748s
  2038   662 2324627.09   30  249 826603.165 3083256.05   273%   546  752s
  2085   661     cutoff   31      826603.165 3083256.05   273%   552  756s
  2128   655 1556512.95   35  176 826603.165 3082304.89   273%   553  760s
  2185   662 1169572.14   40  166 826603.165 3082304.89   273%   553  765s
  2258   667 2893696.98   26  230 826603.165 3032729.56   267%   564  772s
  2341   701 2624038.67   29  201 826603.165 3032729.56   267%   557  777s
  2373   705 1976909.10   39  182 826603.165 3001351.08   263%   559  782s
  2456   729 2682142.00   32  228 826603.165 2992260.11   262%   557  788s
  2506   739 1991355.35   34  207 826603.165 2975001.25   260%   556  793s
  2600   772 960120.830   24  182 826603.165 2913453.35   252%   555  799s
  2666   773     cutoff   37      826603.165 2910784.80   252%   556  805s
  2678   772 1756030.87   38  202 826603.165 2910784.80   252%   559  810s
  2746   787 1012767.30   60   98 826603.165 2905758.30   252%   560  815s
  2837   803 1393484.09   34  133 826603.165 2882804.20   249%   556  820s
  2909   817 1367713.14   27  132 826603.165 2869536.97   247%   558  826s
  3003   858 2689548.15   32  249 826603.165 2869536.97   247%   555  831s
  3072   895 1332422.11   47  218 826603.165 2863044.31   246%   557  838s
  3150   933 2145961.42   34  235 826603.165 2854617.47   245%   557  845s
H 3206   961                    826603.16587 2848977.29   245%   560  845s
  3245   976 2529536.30   22  278 826603.166 2848375.44   245%   558  852s
  3293   994 2337687.16   23  179 826603.166 2847550.79   244%   565  863s
  3316   994 1660103.26   25  127 826603.166 2822773.61   241%   568  871s
  3417  1061 1499607.11   28  213 826603.166 2815978.99   241%   566  880s
  3552  1116 2023516.35   26  237 826603.166 2805499.99   239%   566  887s
  3639  1165     cutoff   35      826603.166 2799906.35   239%   574  894s
  3724  1211 1426051.49   32  169 826603.166 2794222.01   238%   577  902s
  3845  1287 2640086.08   35  155 826603.166 2783095.98   237%   578  910s
  4033  1366 2485909.43   27  250 826603.166 2762106.35   234%   572  919s
  4127  1405 2085136.37   25  219 826603.166 2742232.76   232%   578  929s
H 4200  1271                    1079769.2140 2738679.90   154%   581  929s
  4217  1277 2214663.60   26  235 1079769.21 2738066.96   154%   581  939s
  4329  1326 2340886.57   27  180 1079769.21 2727931.07   153%   584  951s
  4444  1376 2386383.17   29  234 1079769.21 2710108.77   151%   588  961s
  4559  1403 1724034.74   44  211 1079769.21 2692581.27   149%   595  973s
  4694  1449 1292856.03   53  145 1079769.21 2665297.17   147%   597  983s
  4885  1525     cutoff   48      1079769.21 2652231.86   146%   595  995s
  5049  1585 2319614.97   44  189 1079769.21 2641019.18   145%   594 1007s
  5209  1654 1937986.63   26  105 1079769.21 2633898.42   144%   592 1019s
H 5414  1762                    1079769.2151 2633898.42   144%   587 1034s
  5594  1852 1731181.47   30  184 1079769.22 2601035.94   141%   587 1046s
  5785  1891 1428317.10   41  205 1079769.22 2584054.70   139%   587 1060s
  6041  1988 2457945.76   28  137 1079769.22 2557332.31   137%   585 1074s
  6172  2031 1749424.78   30  200 1079769.22 2541778.20   135%   583 1089s
  6320  2088 1246067.64   39  156 1079769.22 2537916.92   135%   585 1104s
  6723  2256 1141503.18   32  139 1079769.22 2516664.02   133%   575 1120s
  6937  2343 2287312.64   31  186 1079769.22 2497424.67   131%   576 1136s
  7050  2379 1581801.63   28  221 1079769.22 2489101.66   131%   580 1153s
  7289  2443 1421109.59   32  248 1079769.22 2478539.71   130%   584 1171s
  7567  2554 1680478.91   31  220 1079769.22 2465861.53   128%   585 1188s
  7924  2672 1687721.83   38  216 1079769.22 2445179.21   126%   583 1207s
  8274  2774 1568439.68   51   51 1079769.22 2434694.88   125%   577 1227s
  8723  2973 1550090.62   31  123 1079769.22 2418362.42   124%   570 1248s
  9070  3108 1211161.75   34   49 1079769.22 2400339.96   122%   567 1267s
  9421  3214     cutoff   44      1079769.22 2383109.70   121%   568 1288s
  9869  3398 1845213.92   49  190 1079769.22 2364412.20   119%   565 1310s
 10233  3543 1407269.47   31  145 1079769.22 2355097.02   118%   564 1337s
 10745  3727 1354851.63   38  152 1079769.22 2296807.33   113%   560 1362s
 11146  3805 1277319.58   28  212 1079769.22 2278499.83   111%   556 1387s
 11803  4048 1408729.90   42  190 1079769.22 2248997.63   108%   548 1411s
 12279  4199 1266494.51   34   70 1079769.22 2240203.50   107%   546 1434s
 12586  4278 1355742.63   31  181 1079769.22 2219426.53   106%   544 1435s
 12706  4253     cutoff   33      1079769.22 2215786.03   105%   544 1458s
 13138  4352     cutoff   38      1079769.22 2199420.19   104%   544 1481s
 13621  4430     cutoff   49      1079769.22 2177578.18   102%   544 1513s
H13980  4545                    1079769.2949 2173781.73   101%   542 1513s
 14123  4543 1488959.62   41   65 1079769.29 2163106.48   100%   540 1535s
 14619  4661 1102166.92   25  244 1079769.29 2158070.67   100%   540 1557s
 15158  4777     cutoff   61      1079769.29 2129294.17  97.2%   538 1579s
 15641  4886 2054609.96   34   39 1079769.29 2112176.38  95.6%   538 1602s
 16199  5037     cutoff   36      1079769.29 2100254.46  94.5%   534 1624s
 16673  5166 1299159.14   35  141 1079769.29 2088328.50  93.4%   535 1645s
 17118  5263     cutoff   25      1079769.29 2061141.89  90.9%   534 1665s
H17595  5343                    1079769.4823 2046348.16  89.5%   535 1688s
 18083  5461 1254231.27   30  218 1079769.48 2038223.10  88.8%   531 1709s
 18645  5611 1443013.69   40   59 1079769.48 2026440.81  87.7%   528 1730s
 18908  5618 1421353.31   33  158 1079769.48 2022841.07  87.3%   528 1750s
 19520  5733 1196693.48   51   35 1079769.48 2003297.98  85.5%   525 1770s
 19938  5781 1875566.48   32   80 1079769.48 1991635.21  84.5%   524 1791s
 20351  5849     cutoff   39      1079769.48 1984547.85  83.8%   524 1814s
 20981  5962 1263917.40   59   56 1079769.48 1972000.83  82.6%   519 2179s
 21518  6076 1304069.65   38   41 1079769.48 1960179.38  81.5%   517 2202s
 21902  6138 1102861.43   40   80 1079769.48 1947805.68  80.4%   517 2222s
 22388  6307 1630781.12   49   82 1079769.48 1945511.49  80.2%   516 2241s
 22833  6431 1573507.11   25  194 1079769.48 1936326.40  79.3%   517 2259s
 23117  6474     cutoff   64      1079769.48 1933887.98  79.1%   518 2278s
 23527  6548 1119682.10   31  203 1079769.48 1926073.10  78.4%   519 2304s
 23944  6664     cutoff   42      1079769.48 1921302.30  77.9%   518 2322s
 24334  6721 1860807.83   43  106 1079769.48 1915667.28  77.4%   519 2341s
 24744  6826     cutoff   27      1079769.48 1913044.47  77.2%   520 2359s
 25059  6879 1251448.04   40  167 1079769.48 1905096.19  76.4%   522 2378s
 25367  6948 1623685.54   41  125 1079769.48 1900359.68  76.0%   523 2398s
 25674  6989 1366181.72   59   73 1079769.48 1895580.78  75.6%   524 2417s
 26001  7055     cutoff   47      1079769.48 1891241.05  75.2%   525 2437s
 26257  7083 1742110.14   24  252 1079769.48 1887604.65  74.8%   528 2457s
 26599  7154     cutoff   49      1079769.48 1883131.15  74.4%   528 2476s
 26972  7208     cutoff   37      1079769.48 1878559.17  74.0%   529 2495s
 27460  7300     cutoff   29      1079769.48 1872258.44  73.4%   529 2529s
 27793  7348 1562823.47   41   99 1079769.48 1866065.49  72.8%   529 2548s
 28163  7404 1312861.13   34  234 1079769.48 1861799.45  72.4%   530 2567s
 28607  7478 1523865.91   40   90 1079769.48 1854249.96  71.7%   531 2587s
 29006  7548 1135347.86   31  198 1079769.48 1850137.85  71.3%   531 2607s
 29485  7615 1403068.14   42  227 1079769.48 1846934.28  71.0%   531 2626s
 30074  7748     cutoff   63      1079769.48 1840981.84  70.5%   529 2645s
 30486  7856 1796306.65   26  270 1079769.48 1838295.21  70.2%   529 2668s
 30543  7808 1477928.20   28  222 1079769.48 1836761.30  70.1%   530 2686s
 30859  7820     cutoff   26      1079769.48 1829443.60  69.4%   533 2705s
 31397  7931 1716606.46   41   51 1079769.48 1823983.23  68.9%   531 2729s
 31785  7970 infeasible   43      1079769.48 1819446.59  68.5%   532 2747s
 32111  7957 1797894.66   39   82 1079769.48 1811570.01  67.8%   533 2766s
 32622  8045 1218271.49   52   63 1079769.48 1807750.22  67.4%   532 2785s
 33067  8081 1318445.17   30  201 1079769.48 1800356.00  66.7%   531 2804s
 33554  8178     cutoff   41      1079769.48 1797251.29  66.4%   530 2822s
 34036  8216 1752226.07   43  202 1079769.48 1791747.26  65.9%   529 2841s
 34468  8282 1489479.37   52   60 1079769.48 1786552.78  65.5%   529 2860s
 34870  8324     cutoff   81      1079769.48 1782453.41  65.1%   529 2878s
 35278  8384 1296483.67   46   94 1079769.48 1779456.79  64.8%   529 2931s
 35674  8433 infeasible   49      1079769.48 1775608.80  64.4%   528 2952s
 36135  8466     cutoff   87      1079769.48 1769467.80  63.9%   529 2973s
 36612  8498 1423192.95   61   80 1079769.48 1762765.09  63.3%   528 2992s
 37072  8579 1372761.92   54   46 1079769.48 1758559.16  62.9%   528 3012s
 37508  8593     cutoff   50      1079769.48 1753572.96  62.4%   528 3029s
 38029  8667 1133667.37   50   58 1079769.48 1745094.48  61.6%   527 3047s
 38552  8745 1475476.05   36   57 1079769.48 1741597.53  61.3%   526 3065s
 39123  8819 1293741.96   31  160 1079769.48 1737376.29  60.9%   524 3082s
 39545  8827     cutoff   46      1079769.48 1730152.54  60.2%   524 3099s
 40080  8866     cutoff   45      1079769.48 1723414.65  59.6%   523 3117s
 40482  8897 1289761.26   45   25 1079769.48 1718960.57  59.2%   522 3134s
 41014  8975 1345639.62   34   91 1079769.48 1713269.97  58.7%   521 3150s
 41604  9123 1146640.46   65   79 1079769.48 1709429.81  58.3%   519 3173s
 41898  9102     cutoff   67      1079769.48 1706054.48  58.0%   519 3189s
 42303  9121 1482218.98   29  165 1079769.48 1702663.16  57.7%   519 3206s
 42736  9143     cutoff   53      1079769.48 1697488.33  57.2%   518 3222s
 43222  9193 1569869.90   44   69 1079769.48 1693361.63  56.8%   518 3238s
 43695  9226 1453847.93   49   28 1079769.48 1689576.33  56.5%   516 3255s
 44177  9316     cutoff   33      1079769.48 1685714.26  56.1%   515 3270s
 44638  9358 1298062.25   45  119 1079769.48 1681092.41  55.7%   514 3286s
 45026  9398     cutoff   47      1079769.48 1677995.17  55.4%   514 3302s
 45502  9479 1431734.48   42  123 1079769.48 1673546.47  55.0%   513 3318s
 45972  9537     cutoff   43      1079769.48 1668017.90  54.5%   512 3333s
 46372  9557 1374900.41   31  221 1079769.48 1664882.16  54.2%   511 3348s
 46783  9606 1578101.15   37   75 1079769.48 1662433.91  54.0%   511 3363s
 47160  9615 1420860.05   35   61 1079769.48 1657815.88  53.5%   511 3379s
 47645  9654 1297424.58   46   42 1079769.48 1653836.24  53.2%   510 3394s
 48152  9703     cutoff   49      1079769.48 1648518.22  52.7%   509 3410s
 48638  9758     cutoff   41      1079769.48 1644616.15  52.3%   508 3425s
 49126  9833 1373322.56   44   62 1079769.48 1642182.47  52.1%   507 3441s
 49538  9882 infeasible   42      1079769.48 1637965.55  51.7%   507 3457s
 50013  9900 1563088.25   42   70 1079769.48 1634105.36  51.3%   506 3471s
 50424  9945     cutoff   45      1079769.48 1630644.87  51.0%   505 3486s
 50798  9947 1183446.18   42   20 1079769.48 1628079.19  50.8%   505 3500s
 51135  9937 1425088.56   35   73 1079769.48 1625013.76  50.5%   505 3515s
 51612 10009 1605994.51   51   38 1079769.48 1621132.23  50.1%   504 3530s
 52070 10061 1450677.04   98  167 1079769.48 1619041.77  49.9%   503 3550s
 52436 10100     cutoff   43      1079769.48 1615968.54  49.7%   503 3566s
 52823 10155 1295378.05   46   47 1079769.48 1613159.64  49.4%   503 3580s
 53166 10151     cutoff   47      1079769.48 1611508.29  49.2%   503 3594s
 53604 10158     cutoff   51      1079769.48 1607381.06  48.9%   502 3608s
 54054 10176 1403758.17   37  160 1079769.48 1604423.20  48.6%   501 3624s
 54419 10157 1581546.65   47   41 1079769.48 1601878.39  48.4%   500 3638s
 54944 10208     cutoff   30      1079769.48 1598370.69  48.0%   499 3652s
 55342 10228     cutoff   46      1079769.48 1594993.26  47.7%   498 3666s
 55759 10260 1137810.84   25   77 1079769.48 1592232.68  47.5%   498 3679s
 56095 10270     cutoff   45      1079769.48 1590008.17  47.3%   498 3696s
 56301 10241 1303649.12   50   96 1079769.48 1589569.71  47.2%   498 3711s
 56776 10274 1371881.51   47   64 1079769.48 1585020.90  46.8%   497 3726s
 57161 10300 1463510.99   35  222 1079769.48 1582959.14  46.6%   497 3740s
 57544 10297 1203818.65   34   88 1079769.48 1580084.83  46.3%   496 3754s
 57909 10299     cutoff   47      1079769.48 1575656.22  45.9%   496 3822s
 58270 10277 1374859.70   43  120 1079769.48 1572727.95  45.7%   495 3836s
 58644 10263     cutoff   52      1079769.48 1569535.16  45.4%   495 3850s
 59018 10255 1510456.26   58  169 1079769.48 1566672.27  45.1%   494 3863s
 59366 10247     cutoff   47      1079769.48 1563265.32  44.8%   494 3879s
 59814 10304 1511871.46   54   87 1079769.48 1560274.13  44.5%   493 3893s
 60297 10352 1513821.66   37   47 1079769.48 1557283.70  44.2%   492 3907s
 60712 10342 1300452.06   50   89 1079769.48 1555020.21  44.0%   491 3921s
 61084 10353 1290741.77   51   22 1079769.48 1552333.25  43.8%   491 3935s
 61463 10343     cutoff   62      1079769.48 1549868.67  43.5%   491 3948s
 61779 10313 1327299.40   39   61 1079769.48 1546400.95  43.2%   491 3962s
 62160 10297     cutoff   39      1079769.48 1544173.87  43.0%   490 3976s
 62632 10306     cutoff   53      1079769.48 1540933.37  42.7%   489 3990s
 63126 10291 1534317.80   40   29 1079769.48 1538183.95  42.5%   489 4002s
 63498 10331     cutoff   49      1079769.48 1534438.45  42.1%   488 4017s
 63767 10294 1259696.17   35   97 1079769.48 1533448.72  42.0%   488 4035s
 64121 10289     cutoff   57      1079769.48 1530228.25  41.7%   488 4048s
 64508 10294     cutoff   52      1079769.48 1527728.68  41.5%   487 4062s
 64885 10293     cutoff   67      1079769.48 1524679.01  41.2%   487 4076s
 65255 10283 1487578.68   49   59 1079769.48 1522111.56  41.0%   487 4088s
 65606 10236 1214885.27   51   40 1079769.48 1520006.90  40.8%   486 4102s
 66028 10246     cutoff   42      1079769.48 1517745.45  40.6%   486 4115s
 66367 10208     cutoff   39      1079769.48 1515401.40  40.3%   485 4128s
 66764 10203     cutoff   30      1079769.48 1512681.65  40.1%   485 4140s
 67054 10168     cutoff   32      1079769.48 1509809.08  39.8%   485 4152s
 67453 10162     cutoff   44      1079769.48 1506688.43  39.5%   484 4165s
 67815 10146 1280140.37   50   41 1079769.48 1504761.39  39.4%   484 4178s
 68227 10145 1321668.74   44  130 1079769.48 1502892.22  39.2%   483 4190s
 68682 10163     cutoff   43      1079769.48 1499992.03  38.9%   483 4204s
 69086 10154     cutoff   45      1079769.48 1498018.63  38.7%   482 4215s
 69455 10127 1350094.16   50   52 1079769.48 1495914.39  38.5%   482 4226s
 69813 10114 1437012.40   38   56 1079769.48 1493453.20  38.3%   481 4235s
 70253 10112     cutoff   68      1079769.48 1490997.90  38.1%   480 4250s
 70554 10080 1370681.96   52   32 1079769.48 1488370.30  37.8%   480 4262s
 70935 10061     cutoff   41      1079769.48 1485743.95  37.6%   479 4273s
 71275 10061     cutoff   57      1079769.48 1483200.61  37.4%   479 4285s
 71633 10069 1343825.74   35  171 1079769.48 1481095.11  37.2%   479 4302s
 71855 10017     cutoff   42      1079769.48 1479700.57  37.0%   479 4314s
 72293 10012 1367338.89   39   87 1079769.48 1476531.26  36.7%   478 4326s
 72649 10025 1420184.17   39  168 1079769.48 1474209.80  36.5%   478 4340s
 73067 10053 1386439.13   51   35 1079769.48 1472253.16  36.3%   477 4352s
 73544 10086     cutoff   53      1079769.48 1469271.38  36.1%   477 4364s
 73865 10058     cutoff   58      1079769.48 1467237.00  35.9%   476 4375s
 74219 10035 1236399.25   51   67 1079769.48 1465297.98  35.7%   476 4385s
 74612 10021     cutoff   71      1079769.48 1462551.35  35.5%   475 4396s
 74910  9987     cutoff   55      1079769.48 1460572.33  35.3%   475 4404s
 75158  9925 1183449.10   52  169 1079769.48 1458663.14  35.1%   475 4413s
 75501  9899     cutoff   51      1079769.48 1456961.05  34.9%   474 4424s
 75875  9881 1400976.32   45   37 1079769.48 1455044.45  34.8%   474 4434s
 76215  9848     cutoff   39      1079769.48 1452662.00  34.5%   473 4443s
 76574  9848     cutoff   59      1079769.48 1451900.73  34.5%   473 4455s
 76874  9826     cutoff   70      1079769.48 1448974.18  34.2%   472 4465s
 77199  9830     cutoff   51      1079769.48 1446485.05  34.0%   472 4478s
 77392  9796     cutoff   20      1079769.48 1446283.60  33.9%   472 4490s
 77713  9764     cutoff   85      1079769.48 1443359.42  33.7%   472 4507s
 77991  9727 1362668.81   51   60 1079769.48 1440789.49  33.4%   472 4517s
 78363  9716     cutoff   47      1079769.48 1438366.22  33.2%   471 4528s
 78737  9691 1091680.54   62   27 1079769.48 1436062.69  33.0%   470 4538s
 79150  9658     cutoff   48      1079769.48 1434213.71  32.8%   470 4550s
 79595  9687     cutoff   48      1079769.48 1431913.90  32.6%   469 4561s
 79961  9679 1370852.34   46   74 1079769.48 1430387.22  32.5%   468 4572s
 80320  9660 1293503.72   53   49 1079769.48 1427364.95  32.2%   468 4580s
 80673  9638     cutoff   47      1079769.48 1425257.84  32.0%   467 4590s
 80993  9622     cutoff   27      1079769.48 1423468.85  31.8%   467 4601s
 81298  9583 1229806.47   30  165 1079769.48 1421177.92  31.6%   467 4613s
 81643  9560 1296227.06   63   75 1079769.48 1419656.67  31.5%   466 4623s
 81987  9518 1356695.24   67   78 1079769.48 1417130.28  31.2%   466 4633s
 82260  9463     cutoff   45      1079769.48 1415702.45  31.1%   466 4642s
 82548  9420     cutoff   44      1079769.48 1413536.34  30.9%   465 4653s
 82858  9398 1288741.28   38  120 1079769.48 1412216.82  30.8%   465 4665s
 83153  9350 1236895.09   44   72 1079769.48 1409830.77  30.6%   465 4676s
 83474  9340     cutoff   45      1079769.48 1407710.63  30.4%   465 4689s
 83698  9301     cutoff   51      1079769.48 1407496.95  30.4%   464 4700s
 83930  9237 1268011.00   45   66 1079769.48 1405107.90  30.1%   464 4707s
 84217  9177 1346003.22   37   79 1079769.48 1403053.12  29.9%   464 4717s
 84511  9120     cutoff   31      1079769.48 1400971.27  29.7%   464 4728s
 84829  9090 1140999.84   39   69 1079769.48 1399273.77  29.6%   463 4740s
 85116  9050 1277960.92   50   74 1079769.48 1397619.12  29.4%   463 4750s
 85358  9007     cutoff   53      1079769.48 1395925.30  29.3%   463 4760s
 85672  8969     cutoff   57      1079769.48 1393823.86  29.1%   463 4767s
 85908  8913 1215045.34   62   31 1079769.48 1392252.57  28.9%   463 4778s
 86195  8884 1263558.84   39   75 1079769.48 1390550.89  28.8%   462 4786s
 86510  8838 1229871.46   44   41 1079769.48 1388150.29  28.6%   462 4793s
 86759  8782     cutoff   67      1079769.48 1386438.13  28.4%   461 4801s
 87036  8728     cutoff   53      1079769.48 1384761.29  28.2%   461 4808s
 87271  8672     cutoff   51      1079769.48 1383212.55  28.1%   461 4818s
 87634  8656     cutoff   56      1079769.48 1381543.19  27.9%   461 4827s
 87980  8615     cutoff   34      1079769.48 1380049.68  27.8%   460 4837s
 88310  8580     cutoff   38      1079769.48 1378104.79  27.6%   460 4845s
 88606  8548     cutoff   50      1079769.48 1376240.59  27.5%   459 4855s
 88886  8530     cutoff   56      1079769.48 1374518.76  27.3%   459 4865s
 89213  8484 1363106.22   45   75 1079769.48 1373127.53  27.2%   459 4875s
 89519  8470     cutoff   44      1079769.48 1372140.30  27.1%   458 4887s
 89696  8411 1132592.00   55   42 1079769.48 1371129.71  27.0%   458 4895s
 89949  8359 1239655.74   51   55 1079769.48 1368596.35  26.7%   458 4903s
 90230  8299     cutoff   46      1079769.48 1366997.45  26.6%   458 4911s
 90520  8251     cutoff   46      1079769.48 1365454.24  26.5%   457 4920s
 90736  8198 1139752.09   52   39 1079769.48 1363419.23  26.3%   457 4928s
 90966  8139     cutoff   33      1079769.48 1361672.67  26.1%   457 4935s
 91209  8084     cutoff   45      1079769.48 1360178.95  26.0%   457 4946s
 91467  8028     cutoff   37      1079769.48 1359519.21  25.9%   457 4954s
 91800  8009 1288181.68   55   54 1079769.48 1357043.51  25.7%   456 4962s
 92050  7960     cutoff   49      1079769.48 1355034.49  25.5%   456 4971s
 92322  7919 1320357.47   52   58 1079769.48 1353554.09  25.4%   456 4979s
 92601  7866     cutoff   60      1079769.48 1352002.63  25.2%   456 4989s
 92811  7798     cutoff   46      1079769.48 1350965.55  25.1%   456 4996s
 93021  7736     cutoff   48      1079769.48 1348606.56  24.9%   455 5004s
 93280  7694     cutoff   45      1079769.48 1347186.81  24.8%   455 5013s
 93547  7647     cutoff   54      1079769.48 1345026.42  24.6%   455 5025s
 93799  7575     cutoff   61      1079769.48 1343543.95  24.4%   455 5034s
 94119  7556     cutoff   49      1079769.48 1341719.87  24.3%   455 5043s
 94383  7508 1320726.05   34   84 1079769.48 1340106.08  24.1%   455 5054s
 94683  7469     cutoff   46      1079769.48 1338224.84  23.9%   454 5062s
 94972  7431     cutoff   38      1079769.48 1336459.65  23.8%   454 5066s
 95159  7367 1330668.63   50  132 1079769.48 1334586.34  23.6%   454 5076s
 95418  7312     cutoff   57      1079769.48 1332998.93  23.5%   454 5083s
 95676  7266     cutoff   53      1079769.48 1331551.77  23.3%   453 5090s
 95924  7205     cutoff   44      1079769.48 1329557.12  23.1%   453 5097s
 96142  7144 1255683.08   47   80 1079769.48 1327865.96  23.0%   453 5104s
 96385  7081     cutoff   33      1079769.48 1326289.93  22.8%   453 5113s
 96596  7026 1228479.66   49  103 1079769.48 1324327.78  22.6%   453 5126s
 96809  6978 1151713.15   48   67 1079769.48 1323384.74  22.6%   452 5133s
 97060  6937 1292457.28   46   25 1079769.48 1321078.16  22.3%   452 5142s
 97347  6894     cutoff   35      1079769.48 1319509.55  22.2%   452 5149s
 97593  6850     cutoff   33      1079769.48 1317911.19  22.1%   452 5158s
 97853  6789     cutoff   54      1079769.48 1316186.37  21.9%   451 5164s
 98121  6758 infeasible   65      1079769.48 1314573.85  21.7%   451 5174s
 98323  6697 1207889.28   40   51 1079769.48 1313398.92  21.6%   451 5183s
 98664  6670 1268314.24   43   69 1079769.48 1311245.25  21.4%   450 5188s
 98873  6598 1287404.69   57   78 1079769.48 1309483.49  21.3%   450 5195s
 99073  6522     cutoff   45      1079769.48 1307753.94  21.1%   450 5201s
 99339  6463 1178504.12   60   61 1079769.48 1305877.50  20.9%   450 5207s
 99565  6397     cutoff   49      1079769.48 1304372.59  20.8%   449 5213s
 99810  6330 1291736.78   35  176 1079769.48 1302978.99  20.7%   449 5219s
 100032  6261     cutoff   46      1079769.48 1301519.04  20.5%   449 5226s
 100302  6228     cutoff   55      1079769.48 1300010.26  20.4%   448 5232s
 100507  6170     cutoff   39      1079769.48 1298410.86  20.2%   448 5239s
 100727  6112     cutoff   57      1079769.48 1296578.01  20.1%   448 5244s
 100940  6049 1123192.51   55  107 1079769.48 1295217.23  20.0%   448 5251s
 101179  5985     cutoff   78      1079769.48 1293594.73  19.8%   448 5330s
 101413  5915 1266769.37   56   55 1079769.48 1291807.47  19.6%   447 5336s
 101645  5853     cutoff   57      1079769.48 1290058.35  19.5%   447 5342s
 101855  5781     cutoff   68      1079769.48 1288712.17  19.4%   447 5350s
 102059  5719     cutoff   41      1079769.48 1287089.76  19.2%   447 5355s
 102331  5661 infeasible   61      1079769.48 1285378.05  19.0%   446 5366s
 102509  5593 1117770.71   70   60 1079769.48 1283647.73  18.9%   446 5373s
 102723  5535 1238260.27   54   52 1079769.48 1282000.37  18.7%   446 5380s
 102971  5465 1187595.95   56   29 1079769.48 1280437.81  18.6%   446 5386s
 103141  5399     cutoff   66      1079769.48 1278678.24  18.4%   446 5391s
 103336  5326     cutoff   32      1079769.48 1276866.32  18.3%   445 5396s
 103559  5273 1202091.53   59   48 1079769.48 1275422.21  18.1%   445 5404s
 103764  5207     cutoff   64      1079769.48 1273825.13  18.0%   445 5410s
 104016  5156     cutoff   50      1079769.48 1272062.60  17.8%   445 5415s
 104286  5105 1222473.56   42   88 1079769.48 1270263.55  17.6%   444 5422s
 104515  5046     cutoff   69      1079769.48 1269001.76  17.5%   444 5427s
 104733  4980 1248209.33   40   81 1079769.48 1267375.32  17.4%   444 5432s
 104975  4925     cutoff   46      1079769.48 1265621.00  17.2%   443 5442s
 105205  4860     cutoff   60      1079769.48 1264159.03  17.1%   443 5447s
 105390  4785 1232296.29   38   58 1079769.48 1262570.40  16.9%   443 5452s
 105624  4710     cutoff   34      1079769.48 1260963.58  16.8%   442 5457s
 105846  4646     cutoff   77      1079769.48 1259547.49  16.6%   442 5462s
 106055  4582     cutoff   51      1079769.48 1258155.52  16.5%   442 5466s
 106218  4507     cutoff   48      1079769.48 1256706.62  16.4%   442 5471s
 106430  4448 1226397.50   50   91 1079769.48 1255159.39  16.2%   441 5477s
 106613  4373     cutoff   50      1079769.48 1253407.05  16.1%   441 5482s
 106788  4301     cutoff   42      1079769.48 1251949.50  15.9%   441 5487s
 106965  4233 1232666.19   61   79 1079769.48 1249869.26  15.8%   441 5493s
 107149  4151 1203349.42   31  100 1079769.48 1248123.30  15.6%   441 5498s
 107362  4081     cutoff   43      1079769.48 1246282.35  15.4%   441 5503s
 107561  4005 1231050.91   36   94 1079769.48 1244738.69  15.3%   440 5510s
 107748  3936 1207650.06   58   52 1079769.48 1243221.18  15.1%   440 5515s
 107929  3868     cutoff   57      1079769.48 1241523.93  15.0%   440 5520s
 108116  3795     cutoff   49      1079769.48 1239476.55  14.8%   440 5526s
 108312  3726 1191820.37   48   38 1079769.48 1237557.87  14.6%   440 5531s
 108505  3657 infeasible   39      1079769.48 1235530.95  14.4%   440 5535s
 108679  3580     cutoff   51      1079769.48 1233908.62  14.3%   439 5540s
 109037  3427     cutoff   50      1079769.48 1230273.37  13.9%   439 5548s
 109195  3346 1226169.93   39   57 1079769.48 1228612.34  13.8%   439 5551s
 109405  3266 1126920.38   58   66 1079769.48 1226497.74  13.6%   438 5556s
 109586  3195 infeasible   53      1079769.48 1224591.77  13.4%   438 5560s
 109957  3046     cutoff   51      1079769.48 1221171.31  13.1%   438 5568s
 110130  2973 1163882.93   56   80 1079769.48 1219073.96  12.9%   437 5575s
 110322  2896     cutoff   47      1079769.48 1217388.08  12.7%   437 5581s
 110510  2822     cutoff   49      1079769.48 1215526.69  12.6%   437 5585s
 110851  2673 1080318.15   38   42 1079769.48 1211631.50  12.2%   437 5593s
 111020  2597 1113558.99   50   63 1079769.48 1209684.59  12.0%   436 5600s
 111372  2450 infeasible   68      1079769.48 1205478.14  11.6%   436 5611s
 111518  2371 1190887.05   43   94 1079769.48 1203286.06  11.4%   436 5615s
 111844  2217     cutoff   54      1079769.48 1198843.19  11.0%   435 5622s
 112023  2140 1111694.33   53   56 1079769.48 1197130.73  10.9%   435 5626s
 112193  2064     cutoff   42      1079769.48 1194484.36  10.6%   435 5632s
 112349  1984     cutoff   36      1079769.48 1192527.60  10.4%   435 5635s
 112647  1826     cutoff   38      1079769.48 1187906.03  10.0%   434 5642s
 112814  1753     cutoff   38      1079769.48 1185756.92  9.82%   434 5649s
 112992  1675     cutoff   45      1079769.48 1183504.78  9.61%   434 5654s
 113156  1595 1148352.76   43   37 1079769.48 1181259.22  9.40%   434 5658s
 113286  1512     cutoff   50      1079769.48 1178654.06  9.16%   433 5662s
 113435  1429     cutoff   61      1079769.48 1176252.80  8.94%   433 5665s
 113759  1269     cutoff   70      1079769.48 1171468.74  8.49%   433 5672s
 113898  1185     cutoff   39      1079769.48 1168686.50  8.23%   433 5676s
 114139  1018     cutoff   43      1079769.48 1162669.31  7.68%   432 5681s
 114399   858 1110067.45   46   46 1079769.48 1156457.05  7.10%   432 5686s
 114520   774     cutoff   42      1079769.48 1152297.82  6.72%   432 5691s
 114802   608     cutoff   38      1079769.48 1143203.76  5.87%   432 5696s
 114913   524     cutoff   28      1079769.48 1138213.06  5.41%   432 5703s
 115027   447     cutoff   49      1079769.48 1133297.63  4.96%   432 5714s
 115117   362 infeasible   54      1079769.48 1129247.78  4.58%   432 5718s
 115229   278     cutoff   53      1079769.48 1122461.68  3.95%   431 5722s
 115449   110     cutoff   55      1079769.48 1106121.51  2.44%   431 5727s
 115646     0     cutoff   35      1079769.48 1084323.30  0.42%   431 5731s

Cutting planes:
  Gomory: 68
  Cover: 5
  Implied bound: 136
  Projected implied bound: 44
  MIR: 133
  Flow cover: 1237

Explored 115674 nodes (50000900 simplex iterations) in 5735.08 seconds
Thread count was 4 (of 16 available processors)

Solution count 10: 1.07977e+06 1.07977e+06 1.07977e+06 ... 496218

Optimal solution found (tolerance 1.00e-04)
Best objective 1.079769212879e+06, best bound 1.079769482286e+06, gap 0.0000%

***
***  |- Calculation finished, took 5,735.13 (5735.13) sec.
***  |-----------------------------------------------------------------------------------------------------------------------
***
*****************************************************************************************************************************
#############################################################################################################################
###
### Results
###
### The objective of the solution is 1,079,769.2129 (1079769.2129) and is feasible with a Gap of 0.0
###
### Service 81 (MECL1) is operated by 6 vessels from type 30 (PMax35)
###  |- Vessel  9 has the path [9, 332, 326, 342, 333, 324, 4, 294, 284, 7, 298, 196, 0]
###  |  9 (BEANR Out@344.0) - 332 (USEWR In@608.0/Out@618.0) - 326 (USCHS In@656.0/Out@666.0) - 342 (USORF In@691.0/Out@704.0
###  |  ) - 333 (USEWR In@728.0/Out@744.0) - 324 (TRZMK In@1063.0/Out@1077.0) - 4 (AEJEA In@1177.0/Out@1201.0) - 294 (PKBQM I
###  |  n@1258.0/Out@1288.0) - 284 (OMSLL In@1410.0/Out@1423.0) - 7 (AEJEA In@1681.0/Out@1705.0) - 298 (PKBQM In@1762.0/Out@1
###  |  792.0) - 196 (INNSA In@1856.0/Out@1872.0) - 0 (DUMMY_END Ziel-Service 81)
###  |   |- and carried Demand 237,   34.0 containers from 298 to 196
###  |   |- and carried Demand 238,   84.0 containers from   7 to 298
###  |   |- and carried Demand 239,   50.0 containers from   7 to 298
###  |   |- and carried Demand 297,  254.0 containers from 294 to 196
###  |   |- and carried Demand 298,    1.0 containers from 294 to 196
###  |   |- and carried Demand 299,  135.0 containers from 294 to 196
###  |   |- and carried Demand 302,   75.0 containers from   4 to 196
###  |   |- and carried Demand 303,  200.0 containers from   4 to 294
###  |   |- and carried Demand 304,   24.0 containers from   4 to 294
###  |   |- and carried Demand 305,   26.0 containers from   4 to 196
###  |   |- and carried Demand 306,  144.0 containers from   4 to 196
###  |   |- and carried Demand 307,    1.0 containers from   4 to 196
###  |   |- and carried Demand 309,  339.0 containers from 342 to   4
###  |   |- and carried Demand 310,  115.0 containers from 342 to   4
###  |   |- and carried Demand 311,    3.0 containers from 342 to 284
###  |   |- and carried Demand 312,    2.0 containers from 342 to 294
###  |   |- and carried Demand 313,  194.0 containers from 326 to   4
###  |   |- and carried Demand 314,   49.0 containers from 326 to   4
###  |   |- and carried Demand 315,   40.0 containers from 326 to 294
###  |   |- and carried Demand 318,  842.0 containers from 332 to   4
###  |   |- and carried Demand 319,   99.0 containers from 332 to   4
###  |   |- and carried Demand 320,  123.0 containers from 332 to 294
###  |   |- and carried Demand 321,    1.0 containers from 332 to 294
###  |- Vessel 10 has the path [10, 316, 190, 0]
###  |  10 (BEANR Out@512.0) - 316 (TRAMB In@854.0/Out@881.0) - 190 (INNSA In@1016.0/Out@1032.0) - 0 (DUMMY_END Ziel-Service 
###  |  81)
###  |- Vessel 11 has the path [13, 313, 191, 0]
###  |  13 (BEANR Out@680.0) - 313 (TRALI In@946.0/Out@964.0) - 191 (INNSA In@1184.0/Out@1200.0) - 0 (DUMMY_END Ziel-Service 
###  |  81)
###  |- Vessel 12 has the path [16, 314, 192, 0]
###  |  16 (BEANR Out@848.0) - 314 (TRALI In@1114.0/Out@1132.0) - 192 (INNSA In@1352.0/Out@1368.0) - 0 (DUMMY_END Ziel-Servic
###  |  e 81)
###  |- Vessel 17 has the path [158, 2, 291, 292, 293, 283, 5, 295, 194, 195, 0]
###  |  158 (GBFXT Out@580.0) - 2 (AEJEA In@841.0/Out@865.0) - 291 (PKBQM In@922.0/Out@952.0) - 292 (PKBQM In@992.0/Out@1020.
###  |  0) - 293 (PKBQM In@1090.0/Out@1120.0) - 283 (OMSLL In@1167.0/Out@1182.0) - 5 (AEJEA In@1345.0/Out@1369.0) - 295 (PKBQ
###  |  M In@1426.0/Out@1456.0) - 194 (INNSA In@1590.0/Out@1622.0) - 195 (INNSA In@1688.0/Out@1704.0) - 0 (DUMMY_END Ziel-Ser
###  |  vice 81)
###  |   |- and carried Demand 120,  237.0 containers from 292 to 194
###  |   |- and carried Demand 121,    2.0 containers from 292 to 194
###  |   |- and carried Demand 123,   97.0 containers from 292 to 194
###  |   |- and carried Demand 283,  153.0 containers from   5 to 195
###  |   |- and carried Demand 284,   86.0 containers from   5 to 295
###  |   |- and carried Demand 285,  118.0 containers from   5 to 295
###  |   |- and carried Demand 323,  244.0 containers from 293 to 195
###  |   |- and carried Demand 324,   67.0 containers from 293 to 195
###  |   |- and carried Demand 333,  237.0 containers from 291 to 194
###  |   |- and carried Demand 334,    2.0 containers from 291 to 194
###  |   |- and carried Demand 336,   97.0 containers from 291 to 194
###  |   |- and carried Demand 338,  704.0 containers from   2 to 195
###  |   |- and carried Demand 339,    8.0 containers from   2 to 195
###  |   |- and carried Demand 340,  156.0 containers from   2 to 291
###  |   |- and carried Demand 341,   45.0 containers from   2 to 291
###  |   |- and carried Demand 342,   16.0 containers from   2 to 194
###  |   |- and carried Demand 343,  264.0 containers from   2 to 194
###  |- Vessel 18 has the path [161, 321, 193, 0]
###  |  161 (GBFXT Out@748.0) - 321 (TRGEM In@1087.0/Out@1095.0) - 193 (INNSA In@1520.0/Out@1536.0) - 0 (DUMMY_END Ziel-Servi
###  |  ce 81)
###  |
### Vessels not used in the solution: [1, 2, 3, 4, 5, 6, 7, 8, 13, 14, 15, 16, 23]
###  |-----------------------------------------------------------------------------------------------------------------------
###
#############################################################################################################################

### Detialed variable overview

### All variables with value greater zero:
rho[81,30] = 1
eta[81,30,1] = 1
eta[81,30,2] = 1
eta[81,30,3] = 1
eta[81,30,4] = 1
eta[81,30,5] = 1
eta[81,30,6] = 1
y[9,4,294] = 1
y[9,332,326] = 1
y[9,294,284] = 1
y[9,284,7] = 1
y[9,342,333] = 1
y[9,9,332] = 1
y[9,324,4] = 1
y[9,7,298] = 1
y[9,196,0] = 1
y[9,333,324] = 1
y[9,298,196] = 1
y[9,326,342] = 1
y[10,190,0] = 1
y[10,316,190] = 1
y[10,10,316] = 1
y[11,313,191] = 1
y[11,191,0] = 1
y[11,13,313] = 1
y[12,192,0] = 1
y[12,314,192] = 1
y[12,16,314] = 1
y[17,283,5] = 1
y[17,293,283] = 1
y[17,195,0] = 1
y[17,5,295] = 1
y[17,292,293] = 1
y[17,194,195] = 1
y[17,291,292] = 1
y[17,295,194] = 1
y[17,2,291] = 1
y[17,158,2] = 1
y[18,161,321] = 1
y[18,193,0] = 1
y[18,321,193] = 1
xD[120,283,5] = 237
xD[120,293,283] = 237
xD[120,5,295] = 237
xD[120,292,293] = 237
xD[120,295,194] = 237
xD[121,283,5] = 2
xD[121,293,283] = 2
xD[121,5,295] = 2
xD[121,292,293] = 2
xD[121,295,194] = 2
xD[123,283,5] = 97
xD[123,293,283] = 97
xD[123,5,295] = 97
xD[123,292,293] = 97
xD[123,295,194] = 97
xD[237,298,196] = 34
xD[238,7,298] = 84
xD[239,7,298] = 50
xD[283,5,295] = 153
xD[283,194,195] = 153
xD[283,295,194] = 153
xD[284,5,295] = 86
xD[285,5,295] = 118
xD[297,294,284] = 254
xD[297,284,7] = 254
xD[297,7,298] = 254
xD[297,298,196] = 254
xD[298,294,284] = 1
xD[298,284,7] = 1
xD[298,7,298] = 1
xD[298,298,196] = 1
xD[299,294,284] = 135
xD[299,284,7] = 135
xD[299,7,298] = 135
xD[299,298,196] = 135
xD[302,4,294] = 75
xD[302,294,284] = 75
xD[302,284,7] = 75
xD[302,7,298] = 75
xD[302,298,196] = 75
xD[303,4,294] = 200
xD[304,4,294] = 24
xD[305,4,294] = 26
xD[305,294,284] = 26
xD[305,284,7] = 26
xD[305,7,298] = 26
xD[305,298,196] = 26
xD[306,4,294] = 144
xD[306,294,284] = 144
xD[306,284,7] = 144
xD[306,7,298] = 144
xD[306,298,196] = 144
xD[307,4,294] = 1
xD[307,294,284] = 1
xD[307,284,7] = 1
xD[307,7,298] = 1
xD[307,298,196] = 1
xD[309,342,333] = 339
xD[309,324,4] = 339
xD[309,333,324] = 339
xD[310,342,333] = 115
xD[310,324,4] = 115
xD[310,333,324] = 115
xD[311,4,294] = 3
xD[311,294,284] = 3
xD[311,342,333] = 3
xD[311,324,4] = 3
xD[311,333,324] = 3
xD[312,4,294] = 2
xD[312,342,333] = 2
xD[312,324,4] = 2
xD[312,333,324] = 2
xD[313,342,333] = 194
xD[313,324,4] = 194
xD[313,333,324] = 194
xD[313,326,342] = 194
xD[314,342,333] = 49
xD[314,324,4] = 49
xD[314,333,324] = 49
xD[314,326,342] = 49
xD[315,4,294] = 40
xD[315,342,333] = 40
xD[315,324,4] = 40
xD[315,333,324] = 40
xD[315,326,342] = 40
xD[318,332,326] = 842
xD[318,342,333] = 842
xD[318,324,4] = 842
xD[318,333,324] = 842
xD[318,326,342] = 842
xD[319,332,326] = 99
xD[319,342,333] = 99
xD[319,324,4] = 99
xD[319,333,324] = 99
xD[319,326,342] = 99
xD[320,4,294] = 123
xD[320,332,326] = 123
xD[320,342,333] = 123
xD[320,324,4] = 123
xD[320,333,324] = 123
xD[320,326,342] = 123
xD[321,4,294] = 1
xD[321,332,326] = 1
xD[321,342,333] = 1
xD[321,324,4] = 1
xD[321,333,324] = 1
xD[321,326,342] = 1
xD[323,283,5] = 244
xD[323,293,283] = 244
xD[323,5,295] = 244
xD[323,194,195] = 244
xD[323,295,194] = 244
xD[324,283,5] = 67
xD[324,293,283] = 67
xD[324,5,295] = 67
xD[324,194,195] = 67
xD[324,295,194] = 67
xD[333,283,5] = 237
xD[333,293,283] = 237
xD[333,5,295] = 237
xD[333,292,293] = 237
xD[333,291,292] = 237
xD[333,295,194] = 237
xD[334,283,5] = 2
xD[334,293,283] = 2
xD[334,5,295] = 2
xD[334,292,293] = 2
xD[334,291,292] = 2
xD[334,295,194] = 2
xD[336,283,5] = 97
xD[336,293,283] = 97
xD[336,5,295] = 97
xD[336,292,293] = 97
xD[336,291,292] = 97
xD[336,295,194] = 97
xD[338,283,5] = 704
xD[338,293,283] = 704
xD[338,5,295] = 704
xD[338,292,293] = 704
xD[338,194,195] = 704
xD[338,291,292] = 704
xD[338,295,194] = 704
xD[338,2,291] = 704
xD[339,283,5] = 8
xD[339,293,283] = 8
xD[339,5,295] = 8
xD[339,292,293] = 8
xD[339,194,195] = 8
xD[339,291,292] = 8
xD[339,295,194] = 8
xD[339,2,291] = 8
xD[340,2,291] = 156
xD[341,2,291] = 45
xD[342,283,5] = 16
xD[342,293,283] = 16
xD[342,5,295] = 16
xD[342,292,293] = 16
xD[342,291,292] = 16
xD[342,295,194] = 16
xD[342,2,291] = 16
xD[343,283,5] = 264
xD[343,293,283] = 264
xD[343,5,295] = 264
xD[343,292,293] = 264
xD[343,291,292] = 264
xD[343,295,194] = 264
xD[343,2,291] = 264
zE[2] = 841
zE[4] = 1177
zE[5] = 1345
zE[7] = 1681
zE[190] = 1016
zE[191] = 1184
zE[192] = 1352
zE[193] = 1520
zE[194] = 1590
zE[195] = 1688
zE[196] = 1856
zE[283] = 1167
zE[284] = 1410
zE[291] = 922
zE[292] = 992
zE[293] = 1090
zE[294] = 1258
zE[295] = 1426
zE[298] = 1762
zE[313] = 946
zE[314] = 1114
zE[316] = 854
zE[321] = 1087
zE[324] = 1063
zE[326] = 656
zE[332] = 608
zE[333] = 728
zE[342] = 691
zX[2] = 865
zX[4] = 1201
zX[5] = 1369
zX[7] = 1705
zX[9] = 344
zX[10] = 512
zX[13] = 680
zX[16] = 848
zX[158] = 580
zX[161] = 748
zX[190] = 1032
zX[191] = 1200
zX[192] = 1368
zX[193] = 1536
zX[194] = 1622
zX[195] = 1704
zX[196] = 1872
zX[283] = 1182
zX[284] = 1423
zX[291] = 952
zX[292] = 1020
zX[293] = 1120
zX[294] = 1288
zX[295] = 1456
zX[298] = 1792
zX[313] = 964
zX[314] = 1132
zX[316] = 881
zX[321] = 1095
zX[324] = 1077
zX[326] = 666
zX[332] = 618
zX[333] = 744
zX[342] = 704
phi[9] = 1528
phi[10] = 520
phi[11] = 520
phi[12] = 520
phi[17] = 1124
phi[18] = 788

### All variables with value smaller zero:

### End

real	99m30.232s
user	366m2.895s
sys	16m50.618s
	OpenBLAS 0.2.6 environment removed
	Freetype 2.4.12 environment removed
	Python 3.6.0 environment removed
	Gurobi 8.1.0 environment removed
