### Additional Information to the goal services
# Basic costs on route 43: 43325273.73803602
# Direct costs (not staggered):
# For goal service 43:
# n_min: 5
# n_max: 8
# lowest costs of the goal service 43 with configuration (43, 18, 8) at 0.0
# (43, 18, 1): 24046577.335650712
# (43, 18, 2): 24536591.335650712
# (43, 18, 3): 25026605.335650727
# (43, 18, 4): 25516619.335650712
# (43, 18, 5): 20402088.0
# (43, 18, 6): 13601392.000000015
# (43, 18, 7): 6800696.0
# (43, 18, 8): 0.0
# -------------------------------------------
