### Additional Information
# Routes included into the instance: {121}
#
### Additional Information to the vessels
# 1: k: 18, Start port: DEHAM, tE: 256, 
# 2: k: 18, Start port: DEHAM, tE: 424, 
# 3: k: 18, Start port: DEHAM, tE: 592, 
# 4: k: 18, Start port: DEHAM, tE: 760, 
# 5: k: 19, Start port: NLRTM, tE: 80, 
# 6: k: 19, Start port: NLRTM, tE: 248, 
# 7: k: 19, Start port: NLRTM, tE: 416, 
# 8: k: 19, Start port: NLRTM, tE: 584, 
# 9: k: 30, Start port: BEANR, tE: 46, 
# 10: k: 30, Start port: BEANR, tE: 214, 
# 11: k: 30, Start port: BEANR, tE: 382, 
# 12: k: 30, Start port: BEANR, tE: 550, 
# 13: k: 18, Start port: DKAAR, tE: 208, 
# 14: k: 18, Start port: DKAAR, tE: 376, 
# 15: k: 19, Start port: FRLEH, tE: 142, 
# 16: k: 19, Start port: FRLEH, tE: 310, 
# 17: k: 30, Start port: GBFXT, tE: 280, 
# 18: k: 30, Start port: GBFXT, tE: 448, 
# -------------------------------------------
