### Additional Information to the goal services
# Basic costs on route 81: -666199248.7143277
# Direct costs (not staggered):
# For goal service 81:
# n_min: 6
# n_max: 6
# lowest costs of the goal service 81 with configuration (81, 30, 6) at 0.0
# (81, 18, 1): 245168677.82380688
# (81, 18, 2): 245952700.22380686
# (81, 18, 3): 246736722.62380683
# (81, 18, 4): 247520745.0238068
# (81, 18, 5): 246118323.851942
# (81, 18, 6): 235237210.25194204
# (81, 19, 1): 168914957.3592341
# (81, 19, 2): 169777334.95923412
# (81, 19, 3): 170639712.55923414
# (81, 19, 4): 171502090.1592341
# (81, 19, 5): 166068631.2928331
# (81, 19, 6): 151589158.8532331
# (81, 30, 1): 8806238.681843996
# (81, 30, 2): 9747038.681843996
# (81, 30, 3): 10687838.681843996
# (81, 30, 4): 11628638.681843996
# (81, 30, 5): 12569438.681843996
# (81, 30, 6): 0.0
# -------------------------------------------
