### Additional Information to the goal services
# Basic costs on route 81: -316444643.13930565
# Direct costs (not staggered):
# For goal service 81:
# n_min: 6
# n_max: 6
# lowest costs of the goal service 81 with configuration (81, 30, 6) at 0.0
# (81, 18, 1): 116455121.96630824
# (81, 18, 2): 116827532.60630822
# (81, 18, 3): 117199943.24630821
# (81, 18, 4): 117572353.88630822
# (81, 18, 5): 116906203.8296724
# (81, 18, 6): 111737674.86967242
# (81, 19, 1): 80234604.74563617
# (81, 19, 2): 80644234.10563615
# (81, 19, 3): 81053863.46563616
# (81, 19, 4): 81463492.82563615
# (81, 19, 5): 78882599.86409563
# (81, 19, 6): 72004850.45528567
# (81, 30, 1): 4182963.373875916
# (81, 30, 2): 4629843.373875916
# (81, 30, 3): 5076723.373875916
# (81, 30, 4): 5523603.373875916
# (81, 30, 5): 5970483.373875916
# (81, 30, 6): 0.0
# -------------------------------------------
