### Additional Information to the goal services
# Basic costs on route 81: -616234305.0607531
# Direct costs (not staggered):
# For goal service 81:
# n_min: 6
# n_max: 6
# lowest costs of the goal service 81 with configuration (81, 30, 6) at 0.0
# (81, 18, 1): 226781026.9870214
# (81, 18, 2): 227506247.70702136
# (81, 18, 3): 228231468.42702138
# (81, 18, 4): 228956689.1470214
# (81, 18, 5): 227659449.5630464
# (81, 18, 6): 217594419.4830464
# (81, 19, 1): 156246335.5572915
# (81, 19, 2): 157044034.83729148
# (81, 19, 3): 157841734.11729157
# (81, 19, 4): 158639433.39729148
# (81, 19, 5): 153613483.94587064
# (81, 19, 6): 140219971.93924057
# (81, 30, 1): 8145770.78070569
# (81, 30, 2): 9016010.78070569
# (81, 30, 3): 9886250.78070569
# (81, 30, 4): 10756490.78070569
# (81, 30, 5): 11626730.78070569
# (81, 30, 6): 0.0
# -------------------------------------------
