### Additional Information to the goal services
# Basic costs on route 81: -416374530.44645476
# Direct costs (not staggered):
# For goal service 81:
# n_min: 6
# n_max: 6
# lowest costs of the goal service 81 with configuration (81, 30, 6) at 0.0
# (81, 18, 1): 153230423.6398792
# (81, 18, 2): 153720437.6398792
# (81, 18, 3): 154210451.6398792
# (81, 18, 4): 154700465.6398792
# (81, 18, 5): 153823952.40746367
# (81, 18, 6): 147023256.40746367
# (81, 19, 1): 105571848.34952128
# (81, 19, 2): 106110834.34952128
# (81, 19, 3): 106649820.34952128
# (81, 19, 4): 107188806.34952128
# (81, 19, 5): 103792894.55802059
# (81, 19, 6): 94743224.2832706
# (81, 30, 1): 5503899.176152468
# (81, 30, 2): 6091899.176152468
# (81, 30, 3): 6679899.176152468
# (81, 30, 4): 7267899.176152468
# (81, 30, 5): 7855899.176152468
# (81, 30, 6): 0.0
# -------------------------------------------
