### Additional Information to the goal services
# Basic costs on route 24: 21908477.836899407
# Basic costs on route 177: -47037419.5723646
# Basic costs on route 121: 17374696.967779152
# Direct costs (not staggered):
# For goal service 24:
# n_min: 2
# n_max: 4
# lowest costs of the goal service 24 with configuration (24, 18, 3) at 0.0
# For goal service 177:
# n_min: 2
# n_max: 3
# lowest costs of the goal service 177 with configuration (177, 19, 3) at 0.0
# For goal service 121:
# n_min: 1
# n_max: 2
# lowest costs of the goal service 121 with configuration (121, 30, 2) at 0.0
# (24, 18, 1): 21772914.93651869
# (24, 18, 2): 11988224.126634203
# (24, 18, 3): 0.0
# (24, 18, 4): 901625.7599999979
# (24, 19, 1): 33626598.907577604
# (24, 19, 2): 19580281.478016622
# (24, 19, 3): 10243716.576513074
# (24, 19, 4): 11235450.816513069
# (24, 30, 1): 32943245.4996123
# (24, 30, 2): 20949962.852784753
# (24, 30, 3): 9681932.342091307
# (24, 30, 4): 10763852.342091307
# (121, 18, 1): 14109148.264580444
# (121, 18, 2): 1595867.624580443
# (121, 19, 1): 16231065.95030491
# (121, 19, 2): 1286643.3941684254
# (121, 30, 1): 16696271.496260509
# (121, 30, 2): 0.0
# (177, 18, 1): 17975253.28278532
# (177, 18, 2): 12827745.374552727
# (177, 18, 3): 314464.73455274105
# (177, 19, 1): 24881459.945493333
# (177, 19, 2): 16651393.305540003
# (177, 19, 3): 0.0
# (177, 30, 1): 24444372.902142167
# (177, 30, 2): 19261502.62416128
# (177, 30, 3): 1951224.5839732885
# -------------------------------------------
