### Additional Information to the goal services
# Basic costs on route 24: 14764408.977040898
# Basic costs on route 177: -31699130.581376143
# Basic costs on route 121: 11709034.913068563
# Direct costs (not staggered):
# For goal service 24:
# n_min: 2
# n_max: 4
# lowest costs of the goal service 24 with configuration (24, 18, 3) at 0.0
# For goal service 177:
# n_min: 2
# n_max: 3
# lowest costs of the goal service 177 with configuration (177, 19, 3) at 0.0
# For goal service 121:
# n_min: 1
# n_max: 2
# lowest costs of the goal service 121 with configuration (121, 30, 2) at 0.0
# (24, 18, 1): 14673051.3702626
# (24, 18, 2): 8079020.607079573
# (24, 18, 3): 0.0
# (24, 18, 4): 607617.3599999994
# (24, 19, 1): 22661403.611628402
# (24, 19, 2): 13195407.083011217
# (24, 19, 3): 6903374.214606635
# (24, 19, 4): 7571716.854606643
# (24, 30, 1): 22200882.836695243
# (24, 30, 2): 14118453.226876684
# (24, 30, 3): 6524780.491409361
# (24, 30, 4): 7253900.491409361
# (121, 18, 1): 9508339.047869422
# (121, 18, 2): 1075476.0078694262
# (121, 19, 1): 10938327.05346635
# (121, 19, 2): 867085.7656352445
# (121, 30, 1): 11251835.138784252
# (121, 30, 2): 0.0
# (177, 18, 1): 12113757.64709445
# (177, 18, 2): 8644784.92632901
# (177, 18, 3): 211921.88632901013
# (177, 19, 1): 16767940.398049854
# (177, 19, 2): 11221591.140689999
# (177, 19, 3): 0.0
# (177, 30, 1): 16473381.738400161
# (177, 30, 2): 12980577.855413042
# (177, 30, 3): 1314955.6978950426
# -------------------------------------------
