### Additional Information to the goal services
# Basic costs on route 24: 10477967.661125805
# Basic costs on route 177: -22496157.186783068
# Basic costs on route 121: 8309637.680242207
# Direct costs (not staggered):
# For goal service 24:
# n_min: 2
# n_max: 4
# lowest costs of the goal service 24 with configuration (24, 18, 3) at 0.0
# For goal service 177:
# n_min: 2
# n_max: 3
# lowest costs of the goal service 177 with configuration (177, 19, 3) at 0.0
# For goal service 121:
# n_min: 1
# n_max: 2
# lowest costs of the goal service 121 with configuration (121, 30, 2) at 0.0
# (24, 18, 1): 10413133.230508938
# (24, 18, 2): 5733498.495346792
# (24, 18, 3): 0.0
# (24, 18, 4): 431212.3199999966
# (24, 19, 1): 16082286.434058852
# (24, 19, 2): 9364482.446007952
# (24, 19, 3): 4899168.797462761
# (24, 19, 4): 5373476.477462769
# (24, 30, 1): 15755465.238945011
# (24, 30, 2): 10019547.451331832
# (24, 30, 3): 4630489.3810001835
# (24, 30, 4): 5147929.3810001835
# (121, 18, 1): 6747853.517842814
# (121, 18, 2): 763241.0378428157
# (121, 19, 1): 7762683.715363214
# (121, 19, 2): 615351.1885153335
# (121, 30, 1): 7985173.324298501
# (121, 30, 2): 0.0
# (177, 18, 1): 8596860.265679937
# (177, 18, 2): 6135008.657394778
# (177, 18, 3): 150396.17739478126
# (177, 19, 1): 11899828.669583764
# (177, 19, 2): 7963709.841779996
# (177, 19, 3): 0.0
# (177, 30, 1): 11690787.040154956
# (177, 30, 2): 9212022.994164102
# (177, 30, 3): 933194.3662480935
# -------------------------------------------
