	Freetype 2.4.12 environment established
		library to render fonts
	Python 3.6.0 environment established
	Gurobi 8.1.0 environment established
Instance LSFRP: LSFDRP_3_2_1_1_fr.p
Instance LSFDP: LSFDRP_3_2_1_1_fd_13.p

*****************************************************************************************************************************
*** Solve LSFDRP_3_2_1_1_fd_13 with Gurobi
***
*** Graph info
*** |S|: 24
*** |S^E|: 0
*** |S^C|: 6
*** |V|: 431
*** |A|: 14925
*** |A^i|: 14778
*** |A^f|: 147
*** |M|: 348
*** |E|: 28

Changed value of parameter TimeLimit to 86400.0
   Prev: 1e+100  Min: 0.0  Max: 1e+100  Default: 1e+100
Changed value of parameter Threads to 4
   Prev: 0  Min: 0  Max: 1024  Default: 0
Optimize a model with 203293 rows, 5586376 columns and 20275474 nonzeros
Variable types: 5228140 continuous, 358236 integer (358236 binary)
Coefficient statistics:
  Matrix range     [1e+00, 5e+03]
  Objective range  [2e+00, 1e+07]
  Bounds range     [1e+00, 1e+00]
  RHS range        [1e+00, 5e+03]
Presolve removed 11232 rows and 2403 columns (presolve time = 5s) ...
Presolve removed 72726 rows and 2990496 columns (presolve time = 10s) ...
Presolve removed 90596 rows and 3609084 columns (presolve time = 17s) ...
Presolve removed 90596 rows and 3619531 columns (presolve time = 20s) ...
Presolve removed 96574 rows and 3642624 columns (presolve time = 25s) ...
Presolve removed 100417 rows and 3718915 columns (presolve time = 32s) ...
Presolve removed 101377 rows and 3720254 columns (presolve time = 35s) ...
Presolve removed 101377 rows and 3720254 columns (presolve time = 42s) ...
Presolve removed 101383 rows and 3720941 columns (presolve time = 45s) ...
Warning: Failed to open log file 'gurobi.log'
Presolve removed 101410 rows and 3720941 columns (presolve time = 54s) ...
Presolve removed 101410 rows and 3926308 columns (presolve time = 705s) ...
Presolve removed 153667 rows and 5124246 columns (presolve time = 711s) ...
Presolve removed 154027 rows and 5125061 columns (presolve time = 715s) ...
Presolve removed 154149 rows and 5129497 columns (presolve time = 721s) ...
Presolve removed 155244 rows and 5139166 columns (presolve time = 729s) ...
Presolve removed 155246 rows and 5140096 columns (presolve time = 804s) ...
Presolve removed 155219 rows and 5140069 columns
Presolve time: 803.71s
Presolved: 48074 rows, 446307 columns, 2147356 nonzeros
Variable types: 287213 continuous, 159094 integer (158571 binary)

Deterministic concurrent LP optimizer: primal simplex, dual simplex, and barrier
Showing barrier log only...

Presolve removed 369 rows and 3716 columns
Presolved: 47705 rows, 442591 columns, 2142469 nonzeros

Root barrier log...

Ordering time: 0.00s

Barrier statistics:
 Dense cols : 22
 AA' NZ     : 2.575e+06
 Factor NZ  : 5.042e+07 (roughly 600 MBytes of memory)
 Factor Ops : 1.877e+11 (roughly 10 seconds per iteration)
 Threads    : 1

                  Objective                Residual
Iter       Primal          Dual         Primal    Dual     Compl     Time
   0  -2.54480816e+15  8.95190119e+14  1.82e+08 2.66e+06  5.58e+11   836s
   1  -1.53121694e+15  8.89914293e+14  1.09e+08 3.25e+06  3.38e+11   849s
   2  -1.05617702e+15  8.80678854e+14  7.54e+07 1.98e+06  2.34e+11   864s
   3  -6.14636007e+14  8.70656302e+14  4.39e+07 1.27e+06  1.37e+11   878s
   4  -2.28896397e+14  8.44936684e+14  1.63e+07 6.10e+05  5.39e+10   894s
   5  -8.47200631e+13  7.82222601e+14  6.04e+06 2.54e+05  2.04e+10   908s
   6  -2.03127355e+13  6.51823677e+14  1.45e+06 7.08e+04  5.39e+09   923s
   7  -5.96701922e+12  3.91836492e+14  4.23e+05 1.45e+04  1.73e+09   936s
   8  -1.35758542e+12  1.32371715e+14  9.61e+04 2.80e+02  4.09e+08   950s
   9  -3.15584176e+11  3.11680909e+13  2.22e+04 1.06e-06  8.93e+07   964s
  10  -7.78377114e+10  1.28301317e+13  5.35e+03 8.85e-06  2.70e+07   978s
  11  -4.35712848e+10  4.82984683e+12  2.99e+03 2.99e-06  1.26e+07   991s
  12  -1.79445086e+10  3.29901497e+12  1.23e+03 1.98e-06  6.64e+06  1005s
  13  -1.22729488e+10  2.74112211e+12  8.42e+02 1.44e-06  5.07e+06  1018s
  14  -7.27482596e+09  2.01132300e+12  4.97e+02 9.76e-07  3.43e+06  1031s
  15  -3.09036946e+09  1.00971855e+12  2.08e+02 6.01e-07  1.62e+06  1045s
  16  -1.20464701e+09  6.22955221e+11  7.82e+01 3.72e-07  8.79e+05  1059s
  17  -4.97192071e+08  2.66112683e+11  2.99e+01 3.11e-07  3.66e+05  1073s
  18  -2.98678156e+08  1.31128609e+11  1.65e+01 1.56e-07  1.84e+05  1086s
  19  -1.68879371e+08  9.79132584e+10  8.45e+00 1.04e-07  1.28e+05  1099s
  20  -1.32301271e+08  8.04056937e+10  6.28e+00 1.06e-07  1.04e+05  1112s
  21  -9.56338142e+07  5.91464708e+10  4.15e+00 9.97e-08  7.54e+04  1126s
  22  -7.76642729e+07  4.12231096e+10  3.16e+00 8.62e-08  5.30e+04  1139s
  23  -5.05149429e+07  3.07049955e+10  1.74e+00 8.67e-08  3.81e+04  1153s
  24  -3.88282510e+07  2.05485764e+10  1.18e+00 1.00e-07  2.55e+04  1167s
  25  -3.40512253e+07  1.92742767e+10  9.62e-01 9.00e-08  2.36e+04  1181s
  26  -2.59259821e+07  1.23894491e+10  5.98e-01 8.83e-08  1.50e+04  1194s
  27  -2.10497102e+07  9.24699744e+09  3.94e-01 1.27e-07  1.11e+04  1208s
  28  -1.71885105e+07  6.61923098e+09  2.45e-01 9.66e-08  7.85e+03  1221s
  29  -1.56205052e+07  5.08211659e+09  1.93e-01 1.03e-07  6.03e+03  1235s
  30  -1.37306539e+07  3.66495778e+09  1.37e-01 1.08e-07  4.34e+03  1248s
  31  -1.12650417e+07  2.85805718e+09  7.18e-02 1.23e-07  3.32e+03  1262s
  32  -8.82519264e+06  1.62389610e+09  3.30e-02 1.30e-07  1.88e+03  1276s
  33  -7.04392939e+06  1.21716080e+09  2.11e-02 1.06e-07  1.40e+03  1288s
  34  -3.76294344e+06  8.80080602e+08  1.28e-02 1.59e-07  1.01e+03  1302s
  35  -2.67686164e+06  6.99871334e+08  1.02e-02 1.45e-07  8.02e+02  1315s
  36  -1.18690575e+06  3.94048066e+08  7.19e-03 9.87e-08  4.55e+02  1329s
  37   5.21335819e+05  2.36267881e+08  4.69e-03 1.07e-07  2.72e+02  1343s
  38   2.63692524e+06  1.55188917e+08  2.62e-03 1.13e-07  1.75e+02  1357s
  39   5.12504047e+06  1.26872710e+08  1.20e-03 1.25e-07  1.38e+02  1370s
  40   5.84008759e+06  7.95998726e+07  9.36e-04 9.36e-08  8.43e+01  1383s
  41   7.24546140e+06  5.78121295e+07  4.92e-04 1.17e-07  5.75e+01  1397s
  42   7.74337459e+06  4.20792865e+07  3.83e-04 1.99e-07  3.92e+01  1411s
  43   8.49728493e+06  3.43929437e+07  2.37e-04 2.07e-07  2.94e+01  1425s
  44   8.76133389e+06  3.18261374e+07  2.06e-04 1.63e-07  2.62e+01  1439s
  45   9.02582549e+06  2.78010468e+07  1.83e-04 2.11e-07  2.14e+01  1453s
  46   9.34528668e+06  2.50404367e+07  1.51e-04 1.82e-07  1.79e+01  1467s
  47   9.63894255e+06  2.21246485e+07  1.22e-04 1.77e-07  1.42e+01  1482s
  48   9.86721053e+06  2.03148394e+07  1.01e-04 2.11e-07  1.19e+01  1497s
  49   1.00973752e+07  1.89801213e+07  8.82e-05 1.67e-07  1.01e+01  1510s
  50   1.03454268e+07  1.78379162e+07  7.49e-05 2.01e-07  8.55e+00  1524s
  51   1.06267250e+07  1.73709243e+07  6.13e-05 1.99e-07  7.69e+00  1537s
  52   1.09706821e+07  1.63251378e+07  4.83e-05 2.29e-07  6.10e+00  1551s
  53   1.12559372e+07  1.57014465e+07  3.73e-05 2.01e-07  5.06e+00  1564s
  54   1.14816266e+07  1.50576254e+07  2.88e-05 1.73e-07  4.07e+00  1578s
  55   1.16313727e+07  1.45145636e+07  2.32e-05 1.88e-07  3.28e+00  1592s
  56   1.16729113e+07  1.43298233e+07  2.17e-05 2.21e-07  3.02e+00  1605s
  57   1.17985215e+07  1.39270268e+07  1.73e-05 1.77e-07  2.42e+00  1619s
  58   1.21016216e+07  1.30533031e+07  7.21e-06 2.21e-07  1.09e+00  1634s
  59   1.22599694e+07  1.25866638e+07  2.23e-06 3.49e-07  3.74e-01  1648s
  60   1.22900865e+07  1.24666348e+07  1.84e-05 1.77e-06  2.03e-01  1662s
  61   1.23082516e+07  1.24123839e+07  1.17e-05 2.51e-06  1.20e-01  1675s
  62   1.23349932e+07  1.23485467e+07  1.81e-06 2.14e-06  1.59e-02  1689s
  63   1.23375767e+07  1.23469394e+07  9.32e-07 2.18e-06  1.09e-02  1703s
  64   1.23404870e+07  1.23424322e+07  1.80e-07 1.89e-06  2.28e-03  1717s
  65   1.23409910e+07  1.23414668e+07  6.88e-08 2.36e-06  5.68e-04  1730s
  66   1.23411722e+07  1.23413785e+07  4.14e-08 1.95e-06  2.37e-04  1743s
  67   1.23411990e+07  1.23412179e+07  9.06e-09 2.37e-06  2.36e-05  1757s
  68   1.23412104e+07  1.23412137e+07  1.73e-07 2.40e-06  3.99e-06  1770s
  69   1.23412104e+07  1.23412136e+07  1.67e-07 1.55e-06  3.91e-06  1783s
  70   1.23412104e+07  1.23412136e+07  1.64e-07 2.19e-06  3.86e-06  1796s
  71   1.23412111e+07  1.23412128e+07  7.35e-08 1.23e-06  1.98e-06  1810s
  72   1.23412116e+07  1.23412125e+07  1.40e-07 1.85e-06  1.03e-06  1823s
  73   1.23412119e+07  1.23412121e+07  4.72e-07 2.28e-06  2.29e-07  1837s
  74   1.23412119e+07  1.23412121e+07  4.62e-07 1.41e-06  1.72e-07  1850s
  75   1.23412119e+07  1.23412121e+07  4.61e-07 1.80e-06  1.60e-07  1863s
  76   1.23412119e+07  1.23412120e+07  5.63e-07 1.47e-06  4.18e-08  1876s
  77   1.23412117e+07  1.23412120e+07  1.85e-05 1.56e-06  4.18e-08  1889s

Barrier solved model in 77 iterations and 1888.83 seconds
Optimal objective 1.23412117e+07


Root crossover log...

   44529 DPushes remaining with DInf 0.0000000e+00              1889s
     161 DPushes remaining with DInf 0.0000000e+00              1891s
       0 DPushes remaining with DInf 7.8361231e-08              1892s

     139 PPushes remaining with PInf 8.9389721e-06              1892s
       0 PPushes remaining with PInf 0.0000000e+00              1892s

  Push phase complete: Pinf 0.0000000e+00, Dinf 5.5700020e-08   1892s


Root simplex log...

Iteration    Objective       Primal Inf.    Dual Inf.      Time
   39036    1.2341212e+07   0.000000e+00   0.000000e+00   1892s
   39935    1.2341246e+07   0.000000e+00   8.936216e+09   1895s
   41100    1.2341319e+07   0.000000e+00   5.680776e+09   1900s
   42395    1.2341464e+07   0.000000e+00   4.118771e+10   1905s
   43682    1.2341662e+07   0.000000e+00   1.532319e+10   1910s
   44846    1.2341813e+07   0.000000e+00   1.507355e+10   1915s
   46263    1.2342005e+07   0.000000e+00   1.832665e+09   1921s
   47550    1.2342158e+07   0.000000e+00   6.861672e+09   1926s
   48704    1.2342269e+07   0.000000e+00   8.480053e+08   1930s
   49999    1.2342423e+07   0.000000e+00   3.236470e+10   1935s
   51413    1.2342562e+07   0.000000e+00   2.944148e+09   1940s
   52698    1.2342650e+07   0.000000e+00   1.553604e+09   1945s
   53987    1.2342736e+07   0.000000e+00   1.076394e+09   1950s
   55272    1.2342826e+07   0.000000e+00   6.042545e+09   1955s
   56695    1.2342941e+07   0.000000e+00   5.017762e+09   1960s
   58115    1.2343074e+07   0.000000e+00   1.811155e+10   1965s
   59397    1.2343211e+07   0.000000e+00   2.275222e+09   1970s
   60679    1.2343313e+07   0.000000e+00   5.581987e+08   1975s
   62118    1.2343392e+07   0.000000e+00   2.063698e+09   1980s
   63401    1.2343478e+07   0.000000e+00   3.329829e+09   1985s
   64683    1.2343666e+07   0.000000e+00   7.768807e+09   1990s
   66096    1.2343830e+07   0.000000e+00   1.318141e+09   1995s
   67379    1.2343945e+07   0.000000e+00   1.250236e+11   2000s
   68661    1.2344050e+07   0.000000e+00   5.273333e+08   2005s
   69948    1.2344132e+07   0.000000e+00   8.583885e+08   2010s
   71230    1.2344218e+07   0.000000e+00   9.813028e+08   2015s
   72512    1.2344329e+07   0.000000e+00   4.220553e+10   2020s
   73933    1.2344410e+07   0.000000e+00   1.299643e+09   2025s
   75353    1.2344493e+07   0.000000e+00   5.591525e+08   2030s
   76638    1.2344634e+07   0.000000e+00   7.897970e+09   2035s
   77926    1.2344741e+07   0.000000e+00   4.414527e+09   2040s
   79208    1.2344837e+07   0.000000e+00   2.621856e+09   2045s
   80624    1.2344910e+07   0.000000e+00   4.526076e+09   2050s
   81914    1.2345004e+07   0.000000e+00   1.473036e+09   2055s
   83326    1.2345073e+07   0.000000e+00   2.019820e+09   2060s
   84608    1.2345155e+07   0.000000e+00   4.202645e+10   2065s
   85894    1.2345222e+07   0.000000e+00   1.448238e+09   2070s
   87175    1.2345309e+07   0.000000e+00   9.358862e+08   2075s
   88459    1.2345384e+07   0.000000e+00   6.995886e+08   2080s
   89740    1.2345455e+07   0.000000e+00   4.730979e+08   2085s
   91153    1.2345530e+07   0.000000e+00   1.771390e+10   2090s
   92441    1.2345594e+07   0.000000e+00   5.232908e+09   2095s
   93598    1.2345688e+07   0.000000e+00   9.339456e+09   2100s
   95012    1.2345764e+07   0.000000e+00   7.617741e+09   2105s
   96295    1.2345824e+07   0.000000e+00   3.750538e+09   2110s
   97580    1.2345877e+07   0.000000e+00   2.253893e+08   2115s
   98992    1.2345950e+07   0.000000e+00   1.795825e+09   2120s
  100409    1.2346029e+07   0.000000e+00   1.464722e+09   2125s
  101820    1.2346102e+07   0.000000e+00   3.999480e+08   2131s
  103106    1.2346163e+07   0.000000e+00   1.048067e+10   2135s
  104525    1.2346232e+07   0.000000e+00   1.235871e+09   2140s
  105811    1.2346284e+07   0.000000e+00   1.525027e+08   2145s
  107356    1.2346362e+07   0.000000e+00   3.698719e+09   2150s
  108784    1.2346461e+07   0.000000e+00   2.358327e+09   2155s
  110328    1.2346530e+07   0.000000e+00   6.472234e+08   2160s
  111866    1.2346590e+07   0.000000e+00   7.150488e+07   2165s
  113293    1.2346632e+07   0.000000e+00   1.482171e+08   2170s
  114713    1.2346699e+07   0.000000e+00   1.074848e+09   2175s
  116130    1.2346744e+07   0.000000e+00   2.086108e+08   2180s
  117416    1.2346787e+07   0.000000e+00   1.598333e+08   2185s
  118953    1.2346821e+07   0.000000e+00   4.713116e+08   2190s
  120495    1.2346855e+07   0.000000e+00   2.464649e+08   2195s
  121906    1.2346901e+07   0.000000e+00   7.749988e+09   2200s
  123449    1.2347082e+07   0.000000e+00   1.058304e+08   2205s
  125121    1.2347147e+07   0.000000e+00   8.569939e+08   2210s
  126663    1.2347178e+07   0.000000e+00   1.052656e+08   2215s
  128072    1.2347207e+07   0.000000e+00   2.048697e+08   2220s
  129610    1.2347238e+07   0.000000e+00   1.610762e+10   2225s
  130894    1.2347271e+07   0.000000e+00   5.617961e+08   2230s
  132306    1.2347301e+07   0.000000e+00   2.002722e+07   2235s
  133719    1.2347338e+07   0.000000e+00   1.349505e+07   2240s
  135259    1.2347359e+07   0.000000e+00   3.145141e+07   2245s
  136671    1.2347383e+07   0.000000e+00   5.720907e+09   2250s
  137959    1.2347422e+07   0.000000e+00   2.231310e+08   2255s
  139369    1.2347443e+07   0.000000e+00   3.838161e+07   2260s
  140910    1.2347465e+07   0.000000e+00   5.148225e+07   2265s
  142322    1.2347482e+07   0.000000e+00   4.085179e+08   2270s
  143737    1.2347494e+07   0.000000e+00   2.416770e+08   2275s
  145153    1.2347523e+07   0.000000e+00   5.893055e+08   2280s
  146434    1.2347563e+07   0.000000e+00   1.137275e+08   2285s
  147847    1.2347582e+07   0.000000e+00   3.408726e+07   2290s
  149263    1.2347595e+07   0.000000e+00   4.882845e+09   2295s
  150683    1.2347608e+07   0.000000e+00   9.691896e+07   2300s
  152102    1.2347619e+07   0.000000e+00   5.520309e+07   2305s
  153526    1.2347629e+07   0.000000e+00   9.444398e+06   2310s
  155071    1.2347649e+07   0.000000e+00   2.946991e+07   2315s
  156624    1.2347667e+07   0.000000e+00   6.881089e+08   2320s
  158032    1.2347677e+07   0.000000e+00   9.790005e+06   2325s
  159577    1.2347689e+07   0.000000e+00   1.159011e+09   2330s
  160989    1.2347698e+07   0.000000e+00   4.412996e+06   2335s
  162418    1.2347703e+07   0.000000e+00   3.106052e+06   2340s
  163964    1.2347710e+07   0.000000e+00   2.130015e+06   2345s
  165383    1.2347720e+07   0.000000e+00   6.200312e+08   2350s
  166801    1.2347724e+07   0.000000e+00   7.678344e+05   2355s
  168348    1.2347727e+07   0.000000e+00   4.678072e+05   2360s
  169900    1.2347730e+07   0.000000e+00   1.390290e+07   2365s
  171325    1.2347732e+07   0.000000e+00   3.014451e+05   2370s
  172739    1.2347733e+07   0.000000e+00   1.372092e+05   2375s
  174040    1.2347734e+07   0.000000e+00   1.851976e+05   2380s
  174807    1.2341215e+07   2.891172e+00   0.000000e+00   2385s
  175167    1.2341215e+07   2.695889e-01   0.000000e+00   2391s
  175517    1.2341215e+07   1.773001e+00   0.000000e+00   2396s
  175847    1.2341215e+07   1.714577e+00   0.000000e+00   2401s
  176197    1.2341215e+07   4.850265e-01   0.000000e+00   2407s
  176437    1.2341215e+07   1.030698e+00   0.000000e+00   2411s
  176767    1.2341215e+07   2.271619e+00   0.000000e+00   2416s
  177107    1.2341214e+07   1.059155e+02   0.000000e+00   2422s
  177347    1.2341214e+07   1.872312e+00   0.000000e+00   2426s
  177707    1.2341214e+07   4.735184e+00   0.000000e+00   2432s
  177947    1.2341214e+07   7.216674e-01   0.000000e+00   2436s
  178307    1.2341214e+07   7.537995e+00   0.000000e+00   2442s
  178547    1.2341214e+07   7.982929e-01   0.000000e+00   2446s
  178887    1.2341214e+07   3.626084e+00   0.000000e+00   2451s
  179107    1.2341214e+07   2.717617e+00   0.000000e+00   2455s
  179507    1.2341213e+07   5.726289e+00   0.000000e+00   2462s
  179747    1.2341213e+07   4.661820e+00   0.000000e+00   2466s
  180067    1.2341213e+07   2.788146e+00   0.000000e+00   2471s
  180427    1.2341213e+07   7.804639e-01   0.000000e+00   2477s
  180667    1.2341213e+07   3.323522e+00   0.000000e+00   2481s
  180907    1.2341213e+07   3.508008e+00   0.000000e+00   2485s
  181267    1.2341213e+07   3.594970e+00   0.000000e+00   2491s
  181567    1.2341212e+07   2.253528e+00   0.000000e+00   2496s
  181887    1.2341212e+07   1.993956e+00   0.000000e+00   2501s
  182127    1.2341212e+07   1.873831e+00   0.000000e+00   2505s
  182263    1.2341212e+07   0.000000e+00   0.000000e+00   2507s
Extra 143227 simplex iterations after uncrush
Concurrent spin time: 9.60s

Solved with barrier

Root relaxation: objective 1.234121e+07, 182263 iterations, 1708.58 seconds

    Nodes    |    Current Node    |     Objective Bounds      |     Work
 Expl Unexpl |  Obj  Depth IntInf | Incumbent    BestBd   Gap | It/Node Time

     0     0 1.2254e+07    0  339          - 1.2254e+07      -     - 3027s
     0     0 1.1444e+07    0  392          - 1.1444e+07      -     - 4070s
H    0     0                    -2347779.225 1.1444e+07   587%     - 4072s
H    0     0                    102272.77847 1.1444e+07      -     - 4125s
     0     0 1.1444e+07    0  394 102272.778 1.1444e+07      -     - 4163s
     0     0 1.1404e+07    0  394 102272.778 1.1404e+07      -     - 5008s
     0     0 1.1400e+07    0  397 102272.778 1.1400e+07      -     - 5349s
     0     0 1.1399e+07    0  405 102272.778 1.1399e+07      -     - 5480s
     0     0 1.1399e+07    0  405 102272.778 1.1399e+07      -     - 5482s
     0     0 1.1391e+07    0  432 102272.778 1.1391e+07      -     - 5863s
     0     0 1.1390e+07    0  440 102272.778 1.1390e+07      -     - 5948s
     0     0 1.1390e+07    0  438 102272.778 1.1390e+07      -     - 5995s
     0     0 1.1390e+07    0  438 102272.778 1.1390e+07      -     - 5996s
     0     0 1.1389e+07    0  436 102272.778 1.1389e+07      -     - 6291s
     0     0 1.1389e+07    0  448 102272.778 1.1389e+07      -     - 6386s
     0     0 1.1389e+07    0  448 102272.778 1.1389e+07      -     - 6417s
     0     0 1.1387e+07    0  432 102272.778 1.1387e+07      -     - 6581s
     0     0 1.1386e+07    0  437 102272.778 1.1386e+07      -     - 6667s
     0     0 1.1386e+07    0  447 102272.778 1.1386e+07      -     - 6726s
     0     0 1.1381e+07    0  462 102272.778 1.1381e+07      -     - 7107s
     0     0 1.1381e+07    0  463 102272.778 1.1381e+07      -     - 7174s
     0     0 1.1380e+07    0  459 102272.778 1.1380e+07      -     - 7338s
     0     0 1.1379e+07    0  469 102272.778 1.1379e+07      -     - 7491s
     0     0 1.1379e+07    0  479 102272.778 1.1379e+07      -     - 7525s
     0     0 1.1378e+07    0  456 102272.778 1.1378e+07      -     - 7801s
     0     0 1.1378e+07    0  458 102272.778 1.1378e+07      -     - 7849s
     0     0 1.1378e+07    0  458 102272.778 1.1378e+07      -     - 7854s
     0     0 1.1377e+07    0  465 102272.778 1.1377e+07      -     - 8018s
     0     0 1.1376e+07    0  465 102272.778 1.1376e+07      -     - 8073s
     0     0 1.1376e+07    0  465 102272.778 1.1376e+07      -     - 8074s
     0     0 1.1374e+07    0  460 102272.778 1.1374e+07      -     - 8328s
     0     0 1.1373e+07    0  464 102272.778 1.1373e+07      -     - 8422s
     0     0 1.1373e+07    0  470 102272.778 1.1373e+07      -     - 8442s
     0     0 1.1371e+07    0  462 102272.778 1.1371e+07      -     - 8701s
     0     0 1.1371e+07    0  460 102272.778 1.1371e+07      -     - 8775s
     0     0 1.1371e+07    0  461 102272.778 1.1371e+07      -     - 8801s
     0     0 1.1370e+07    0  475 102272.778 1.1370e+07      -     - 8949s
     0     0 1.1369e+07    0  478 102272.778 1.1369e+07      -     - 9067s
     0     0 1.1369e+07    0  473 102272.778 1.1369e+07      -     - 9203s
     0     0 1.1367e+07    0  466 102272.778 1.1367e+07      -     - 9531s
     0     0 1.1367e+07    0  479 102272.778 1.1367e+07      -     - 9637s
     0     0 1.1366e+07    0  470 102272.778 1.1366e+07      -     - 9736s
     0     0 1.1366e+07    0  477 102272.778 1.1366e+07      -     - 9791s
     0     0 1.1366e+07    0  477 102272.778 1.1366e+07      -     - 9794s
     0     0 1.1366e+07    0  497 102272.778 1.1366e+07      -     - 9861s
     0     0 1.1366e+07    0  480 102272.778 1.1366e+07      -     - 9885s
     0     0 1.1366e+07    0  471 102272.778 1.1366e+07      -     - 9919s
     0     0 1.1366e+07    0  471 102272.778 1.1366e+07      -     - 9947s
     0     0 1.1366e+07    0  480 102272.778 1.1366e+07      -     - 9988s
     0     0 1.1366e+07    0  480 102272.778 1.1366e+07      -     - 10418s
     0     2 1.1366e+07    0  475 102272.778 1.1366e+07      -     - 12278s
     1     4 1.1332e+07    1  437 102272.778 1.1366e+07      - 48821 13522s
     3     8 1.1079e+07    2  364 102272.778 1.1332e+07      - 62597 15712s
     7    12 1.1074e+07    3  391 102272.778 1.1325e+07      - 60180 17287s
    11    16 1.1070e+07    4  413 102272.778 1.1325e+07      - 51881 18908s
    15    18 1.0859e+07    5  402 102272.778 1.1309e+07      - 54048 20212s
    19    19 1.0772e+07    6  408 102272.778 1.1309e+07      - 53332 21877s
    23    26 1.0476e+07    6  466 102272.778 1.1309e+07      - 54966 24607s
    27    27 1.0771e+07    7  404 102272.778 1.1309e+07      - 50420 25283s
H   32    33                    102272.77910 1.1309e+07      - 44747 25283s
    33    34 1.0754e+07    8  408 102272.779 1.1309e+07      - 44320 25899s
    39    39 1.0747e+07   10  438 102272.779 1.1309e+07      - 40524 29748s
    43    45 1.0728e+07   11  402 102272.779 1.1309e+07      - 43507 31831s
    50    49 1.0713e+07   12  403 102272.779 1.1309e+07      - 42518 33088s
    58    59 1.0679e+07   15  388 102272.779 1.1309e+07      - 40182 33945s
    65    66 1.0659e+07   17  404 102272.779 1.1309e+07      - 37903 34497s
    71    72 1.0658e+07   18  409 102272.779 1.1309e+07      - 35913 35558s
    76    78 1.0651e+07   20  402 102272.779 1.1309e+07      - 35329 42575s
    84    87 1.0638e+07   23  379 102272.779 1.1309e+07      - 38988 46337s
    90    90 1.0618e+07   26  407 102272.779 1.1309e+07      - 43090 47593s
H   92    92                    641917.59808 1.1309e+07  1662% 42335 47593s
    94    93 1.0505e+07   27  428 641917.598 1.1309e+07  1662% 42930 49246s
    99   100 1.0502e+07   28  432 641917.598 1.1309e+07  1662% 42075 50832s
   108   110 1.0463e+07   30  408 641917.598 1.1309e+07  1662% 41027 52081s
   116   118 1.0433e+07   33  413 641917.598 1.1309e+07  1662% 40337 53577s
   124   126 1.0428e+07   35  406 641917.598 1.1309e+07  1662% 39434 56490s
   136   137 1.0395e+07   40  412 641917.598 1.1309e+07  1662% 39020 59805s
   145   144 1.0381e+07   42  433 641917.598 1.1309e+07  1662% 40307 62666s
   157   157 1.0323e+07   47  439 641917.598 1.1309e+07  1662% 39920 65118s
   167   172 1.0255e+07   51  421 641917.598 1.1309e+07  1662% 40066 69418s
   172   172 9989785.79   52  440 641917.598 1.1309e+07  1662% 43016 73116s
   178   178 1.0232e+07   52  393 641917.598 1.1309e+07  1662% 44018 76763s
   196   197 9933808.65   59  383 641917.598 1.1309e+07  1662% 43156 79713s
   206   209 1.0179e+07   60  421 641917.598 1.1309e+07  1662% 42793 86400s

Cutting planes:
  Gomory: 2
  Implied bound: 31
  Clique: 7
  MIR: 42
  Flow cover: 134
  Zero half: 4
  Mod-K: 1

Explored 213 nodes (10198881 simplex iterations) in 86400.78 seconds
Thread count was 4 (of 16 available processors)

Solution count 4: 641918 102273 102273 -2.34778e+06 

Time limit reached
Best objective 6.419175980772e+05, best bound 1.130922973187e+07, gap 1661.7884%

***
***  |- Calculation finished, timelimit reached 86,400.87 (86400.87) sec.))
***  |-----------------------------------------------------------------------------------------------------------------------
***
*****************************************************************************************************************************
#############################################################################################################################
###
### Results
###
### The objective of the solution is 641,917.5981 (641917.5981) and is feasible with a Gap of 16.6179
###
### Service 24 (WAF7) is operated by 3 vessels from type 18 (PMax25)
###  |- Vessel  1 has the path [131, 387, -1]
###  |  131 (DEHAM Out@288.0) - 387 (ESALG In@664.0/Out@683.0) - -1 (DUMMY_END Ziel-Service 24)
###  |- Vessel  2 has the path [132, 388, -1]
###  |  132 (DEHAM Out@456.0) - 388 (ESALG In@832.0/Out@851.0) - -1 (DUMMY_END Ziel-Service 24)
###  |- Vessel 13 has the path [135, 401, 263, 149, 386, -1]
###  |  135 (DKAAR Out@220.0) - 401 (MAPTM In@379.0/Out@398.0) - 263 (MAPTM In@406.0/Out@427.0) - 149 (ESALG In@452.0/Out@464
###  |  .0) - 386 (ESALG In@496.0/Out@515.0) - -1 (DUMMY_END Ziel-Service 24)
###  |   |- and carried Demand  66,  484.0 containers from 263 to 149
###  |   |- and carried Demand  67,   18.0 containers from 263 to 149
###  |   |- and carried Demand 274,  484.0 containers from 263 to 149
###  |   |- and carried Demand 275,   18.0 containers from 263 to 149
###  |   |- and carried Demand 287,  484.0 containers from 401 to 149
###  |   |- and carried Demand 288,   18.0 containers from 401 to 149
###  |
### Service 121 (SAE) is operated by 2 vessels from type 30 (PMax35)
###  |- Vessel 18 has the path [193, 425, 421, 411, -2]
###  |  193 (GBFXT Out@470.0) - 425 (USORF In@873.0/Out@881.0) - 421 (USMIA In@935.0/Out@943.0) - 411 (HNPCR In@998.0/Out@101
###  |  1.0) - -2 (DUMMY_END Ziel-Service 121)
###  |   |- and carried Demand 325,   10.0 containers from 421 to 411
###  |   |- and carried Demand 326,   75.0 containers from 425 to 411
###  |   |- and carried Demand 327,  114.0 containers from 425 to 411
###  |- Vessel 24 has the path [231, 106, 78, 210, 107, 75, 86, 140, 300, 412, -2]
###  |  231 (JPYOK Out@171.0) - 106 (CNXMN In@238.0/Out@260.0) - 78 (CNNSA In@287.0/Out@297.0) - 210 (HKHKG In@334.0/Out@350.
###  |  0) - 107 (CNYTN In@358.0/Out@376.0) - 75 (CNNGB In@430.0/Out@439.0) - 86 (CNSHA In@465.0/Out@483.0) - 140 (ECGYE In@9
###  |  11.0/Out@923.0) - 300 (PABLB In@982.0/Out@1030.0) - 412 (HNPCR In@1166.0/Out@1179.0) - -2 (DUMMY_END Ziel-Service 121
###  |  )
###  |   |- and carried Demand  87,  541.0 containers from 231 to 300
###  |   |- and carried Demand 178,  785.0 containers from 106 to 210
###  |   |- and carried Demand 179,    1.0 containers from 106 to 210
###  |   |- and carried Demand 181,  121.0 containers from 210 to  75
###  |   |- and carried Demand 182,   75.0 containers from 210 to  86
###  |   |- and carried Demand 183,    1.0 containers from 210 to 107
###  |   |- and carried Demand 186,    6.0 containers from 107 to 300
###  |   |- and carried Demand 188,  773.0 containers from  75 to 300
###  |   |- and carried Demand 189,    1.0 containers from  75 to 300
###  |   |- and carried Demand 297,    6.0 containers from 107 to 300
###  |   |- and carried Demand 298,  773.0 containers from  75 to 300
###  |   |- and carried Demand 299,    1.0 containers from  75 to 300
###  |
### Service 177 (WCSA) is operated by 3 vessels from type 19 (PMax28)
###  |- Vessel  5 has the path [282, 178, 260, 400, 261, 385, 151, 58, 63, 303, 0]
###  |  282 (NLRTM Out@92.0) - 178 (FRLEH In@111.0/Out@127.0) - 260 (MAPTM In@207.0/Out@228.0) - 400 (MAPTM In@211.0/Out@230.
###  |  0) - 261 (MAPTM In@238.0/Out@259.0) - 385 (ESALG In@328.0/Out@347.0) - 151 (ESALG In@625.0/Out@670.0) - 58 (CLLQN In@
###  |  1240.0/Out@1258.0) - 63 (CLSAI In@1288.0/Out@1304.0) - 303 (PABLB In@1472.0/Out@1484.0) - 0 (DUMMY_END Ziel-Service 1
###  |  77)
###  |   |- and carried Demand   9,   17.0 containers from 282 to 178
###  |   |- and carried Demand 140,  552.0 containers from 151 to 303
###  |   |- and carried Demand 141,   13.0 containers from 151 to 303
###  |   |- and carried Demand 256,   42.0 containers from 282 to 385
###  |   |- and carried Demand 257,  580.0 containers from 260 to 385
###  |   |- and carried Demand 271,  580.0 containers from 261 to 385
###  |   |- and carried Demand 295,  580.0 containers from 400 to 385
###  |- Vessel  6 has the path [283, 180, 262, 148, 57, 62, 304, 305, 0]
###  |  283 (NLRTM Out@260.0) - 180 (FRLEH In@279.0/Out@295.0) - 262 (MAPTM In@375.0/Out@396.0) - 148 (ESALG In@421.0/Out@433
###  |  .0) - 57 (CLLQN In@1072.0/Out@1090.0) - 62 (CLSAI In@1120.0/Out@1136.0) - 304 (PABLB In@1508.0/Out@1520.0) - 305 (PAB
###  |  LB In@1640.0/Out@1652.0) - 0 (DUMMY_END Ziel-Service 177)
###  |   |- and carried Demand  16,   74.0 containers from 283 to 148
###  |   |- and carried Demand  17,    5.0 containers from 283 to 180
###  |   |- and carried Demand  20,  484.0 containers from 262 to 148
###  |   |- and carried Demand  21,   18.0 containers from 262 to 148
###  |   |- and carried Demand 239,  540.0 containers from  57 to 304
###  |   |- and carried Demand 240,   69.0 containers from  57 to 304
###  |   |- and carried Demand 258,   74.0 containers from 283 to 148
###  |   |- and carried Demand 261,  484.0 containers from 262 to 148
###  |   |- and carried Demand 262,   18.0 containers from 262 to 148
###  |- Vessel  7 has the path [285, 182, 264, 302, 0]
###  |  285 (NLRTM Out@428.0) - 182 (FRLEH In@447.0/Out@463.0) - 264 (MAPTM In@543.0/Out@564.0) - 302 (PABLB In@1304.0/Out@13
###  |  16.0) - 0 (DUMMY_END Ziel-Service 177)
###  |   |- and carried Demand  32,    6.0 containers from 285 to 182
###  |
### Vessels not used in the solution: [3, 4, 8, 9, 10, 11, 12, 14, 15, 16, 17, 19, 20, 21, 22, 23]
###  |-----------------------------------------------------------------------------------------------------------------------
###
#############################################################################################################################

### Detialed variable overview

### All variables with value greater zero:
rho[24,18] = 1
rho[177,19] = 1
rho[121,30] = 1
eta[24,18,1] = 1
eta[24,18,2] = 1
eta[24,18,3] = 1
eta[177,19,1] = 1
eta[177,19,2] = 1
eta[177,19,3] = 1
eta[121,30,1] = 1
eta[121,30,2] = 1
y[1,387,-1] = 1
y[1,131,387] = 1
y[2,132,388] = 1
y[2,388,-1] = 1
y[5,260,400] = 1
y[5,63,303] = 1
y[5,282,178] = 1
y[5,385,151] = 1
y[5,58,63] = 1
y[5,303,0] = 1
y[5,261,385] = 1
y[5,178,260] = 1
y[5,151,58] = 1
y[5,400,261] = 1
y[6,180,262] = 1
y[6,148,57] = 1
y[6,57,62] = 1
y[6,305,0] = 1
y[6,304,305] = 1
y[6,262,148] = 1
y[6,283,180] = 1
y[6,62,304] = 1
y[7,302,0] = 1
y[7,285,182] = 1
y[7,264,302] = 1
y[7,182,264] = 1
y[13,401,263] = 1
y[13,263,149] = 1
y[13,135,401] = 1
y[13,386,-1] = 1
y[13,149,386] = 1
y[18,421,411] = 1
y[18,425,421] = 1
y[18,411,-2] = 1
y[18,193,425] = 1
y[24,300,412] = 1
y[24,231,106] = 1
y[24,210,107] = 1
y[24,412,-2] = 1
y[24,106,78] = 1
y[24,75,86] = 1
y[24,140,300] = 1
y[24,78,210] = 1
y[24,86,140] = 1
y[24,107,75] = 1
xD[9,282,178] = 17
xD[16,180,262] = 74
xD[16,262,148] = 74
xD[16,283,180] = 74
xD[17,283,180] = 5
xD[20,262,148] = 484
xD[21,262,148] = 18
xD[32,285,182] = 6
xD[66,263,149] = 484
xD[67,263,149] = 18
xD[87,231,106] = 541
xD[87,210,107] = 541
xD[87,106,78] = 541
xD[87,75,86] = 541
xD[87,140,300] = 541
xD[87,78,210] = 541
xD[87,86,140] = 541
xD[87,107,75] = 541
xD[140,63,303] = 552
xD[140,58,63] = 552
xD[140,151,58] = 552
xD[141,63,303] = 13
xD[141,58,63] = 13
xD[141,151,58] = 13
xD[178,106,78] = 785
xD[178,78,210] = 785
xD[179,106,78] = 1
xD[179,78,210] = 1
xD[181,210,107] = 121
xD[181,107,75] = 121
xD[182,210,107] = 75
xD[182,75,86] = 75
xD[182,107,75] = 75
xD[183,210,107] = 1
xD[186,75,86] = 6
xD[186,140,300] = 6
xD[186,86,140] = 6
xD[186,107,75] = 6
xD[188,75,86] = 773
xD[188,140,300] = 773
xD[188,86,140] = 773
xD[189,75,86] = 1
xD[189,140,300] = 1
xD[189,86,140] = 1
xD[239,57,62] = 540
xD[239,62,304] = 540
xD[240,57,62] = 69
xD[240,62,304] = 69
xD[256,260,400] = 42
xD[256,282,178] = 42
xD[256,261,385] = 42
xD[256,178,260] = 42
xD[256,400,261] = 42
xD[257,260,400] = 580
xD[257,261,385] = 580
xD[257,400,261] = 580
xD[258,180,262] = 74
xD[258,262,148] = 74
xD[258,283,180] = 74
xD[261,262,148] = 484
xD[262,262,148] = 18
xD[271,261,385] = 580
xD[274,263,149] = 484
xD[275,263,149] = 18
xD[287,401,263] = 484
xD[287,263,149] = 484
xD[288,401,263] = 18
xD[288,263,149] = 18
xD[295,261,385] = 580
xD[295,400,261] = 580
xD[297,75,86] = 6
xD[297,140,300] = 6
xD[297,86,140] = 6
xD[297,107,75] = 6
xD[298,75,86] = 773
xD[298,140,300] = 773
xD[298,86,140] = 773
xD[299,75,86] = 1
xD[299,140,300] = 1
xD[299,86,140] = 1
xD[325,421,411] = 10
xD[326,421,411] = 75
xD[326,425,421] = 75
xD[327,421,411] = 114
xD[327,425,421] = 114
zE[57] = 1072
zE[58] = 1240
zE[62] = 1120
zE[63] = 1288
zE[75] = 430
zE[78] = 287
zE[86] = 465
zE[106] = 238
zE[107] = 358
zE[140] = 911
zE[148] = 421
zE[149] = 452
zE[151] = 625
zE[178] = 111
zE[180] = 279
zE[182] = 447
zE[210] = 334
zE[260] = 207
zE[261] = 238
zE[262] = 375
zE[263] = 406
zE[264] = 543
zE[300] = 982
zE[302] = 1304
zE[303] = 1472
zE[304] = 1508
zE[305] = 1640
zE[385] = 328
zE[386] = 496
zE[387] = 664
zE[388] = 832
zE[400] = 211
zE[401] = 379
zE[411] = 998
zE[412] = 1166
zE[421] = 935
zE[425] = 873
zX[57] = 1090
zX[58] = 1258
zX[62] = 1136
zX[63] = 1304
zX[75] = 439
zX[78] = 297
zX[86] = 483
zX[106] = 260
zX[107] = 376
zX[131] = 288
zX[132] = 456
zX[135] = 220
zX[140] = 923
zX[148] = 433
zX[149] = 464
zX[151] = 670
zX[178] = 127
zX[180] = 295
zX[182] = 463
zX[193] = 470
zX[210] = 350
zX[231] = 171
zX[260] = 228
zX[261] = 259
zX[262] = 396
zX[263] = 427
zX[264] = 564
zX[282] = 92
zX[283] = 260
zX[285] = 428
zX[300] = 1030
zX[302] = 1316
zX[303] = 1484
zX[304] = 1520
zX[305] = 1652
zX[324] = 5093
zX[385] = 347
zX[386] = 515
zX[387] = 683
zX[388] = 851
zX[400] = 230
zX[401] = 398
zX[411] = 1011
zX[412] = 1179
zX[421] = 943
zX[425] = 881
phi[1] = 395
phi[2] = 395
phi[5] = 1392
phi[6] = 1392
phi[7] = 888
phi[13] = 295
phi[18] = 541
phi[24] = 1008

### All variables with value smaller zero:

### End

real	1446m53.688s
user	5105m48.335s
sys	507m24.257s
	Freetype 2.4.12 environment removed
	Python 3.6.0 environment removed
	Gurobi 8.1.0 environment removed
