	Freetype 2.4.12 environment established
		library to render fonts
	Python 3.6.0 environment established
	Gurobi 8.1.0 environment established
Instance LSFRP: LSFDRP_3_2_1_1_fr.p
Instance LSFDP: LSFDRP_3_2_1_1_fd_40.p

*****************************************************************************************************************************
*** Solve LSFDRP_3_2_1_1_fd_40 with Gurobi
***
*** Graph info
*** |S|: 24
*** |S^E|: 0
*** |S^C|: 6
*** |V|: 431
*** |A|: 14925
*** |A^i|: 14778
*** |A^f|: 147
*** |M|: 348
*** |E|: 28

Changed value of parameter TimeLimit to 86400.0
   Prev: 1e+100  Min: 0.0  Max: 1e+100  Default: 1e+100
Changed value of parameter Threads to 4
   Prev: 0  Min: 0  Max: 1024  Default: 0
Optimize a model with 203293 rows, 5586376 columns and 20275474 nonzeros
Variable types: 5228140 continuous, 358236 integer (358236 binary)
Coefficient statistics:
  Matrix range     [1e+00, 5e+03]
  Objective range  [2e+00, 3e+07]
  Bounds range     [1e+00, 1e+00]
  RHS range        [1e+00, 5e+03]
Presolve removed 31003 rows and 1191981 columns (presolve time = 5s) ...
Presolve removed 83178 rows and 3393705 columns (presolve time = 10s) ...
Presolve removed 90596 rows and 3609084 columns (presolve time = 15s) ...
Presolve removed 96238 rows and 3642624 columns (presolve time = 20s) ...
Presolve removed 98593 rows and 3668174 columns (presolve time = 25s) ...
Presolve removed 100417 rows and 3719251 columns (presolve time = 30s) ...
Presolve removed 101377 rows and 3720254 columns (presolve time = 35s) ...
Presolve removed 101383 rows and 3720941 columns (presolve time = 40s) ...
Warning: Failed to open log file 'gurobi.log'
Presolve removed 101410 rows and 3720941 columns (presolve time = 49s) ...
Presolve removed 101410 rows and 3926308 columns (presolve time = 652s) ...
Presolve removed 150641 rows and 5121220 columns (presolve time = 655s) ...
Presolve removed 154027 rows and 5125061 columns (presolve time = 660s) ...
Presolve removed 154162 rows and 5129711 columns (presolve time = 665s) ...
Presolve removed 155240 rows and 5139190 columns (presolve time = 672s) ...
Presolve removed 155242 rows and 5140133 columns (presolve time = 738s) ...
Presolve removed 155215 rows and 5140106 columns
Presolve time: 737.67s
Presolved: 48078 rows, 446270 columns, 2147272 nonzeros
Variable types: 286994 continuous, 159276 integer (158571 binary)

Deterministic concurrent LP optimizer: primal simplex, dual simplex, and barrier
Showing barrier log only...

Presolve removed 382 rows and 3821 columns
Presolved: 47696 rows, 442449 columns, 2142123 nonzeros

Root barrier log...

Ordering time: 0.00s

Barrier statistics:
 Dense cols : 22
 AA' NZ     : 2.575e+06
 Factor NZ  : 4.628e+07 (roughly 600 MBytes of memory)
 Factor Ops : 1.468e+11 (roughly 9 seconds per iteration)
 Threads    : 1

                  Objective                Residual
Iter       Primal          Dual         Primal    Dual     Compl     Time
   0  -2.54628317e+15  2.75303437e+15  1.82e+08 3.01e+06  1.72e+12   765s
   1  -1.53324248e+15  2.73681486e+15  1.09e+08 1.00e+07  1.04e+12   776s
   2  -1.08217341e+15  2.71126043e+15  7.71e+07 6.48e+06  7.35e+11   787s
   3  -6.63320178e+14  2.67140759e+15  4.72e+07 3.38e+06  4.54e+11   798s
   4  -3.35497517e+14  2.63154531e+15  2.39e+07 2.36e+06  2.34e+11   808s
   5  -1.17302714e+14  2.48955388e+15  8.34e+06 1.08e+06  8.45e+10   820s
   6  -3.63781446e+13  2.13393976e+15  2.58e+06 3.49e+05  2.80e+10   831s
   7  -1.33455575e+13  1.58185390e+15  9.47e+05 1.24e+05  1.09e+10   842s
   8  -3.77458327e+12  7.06647482e+14  2.67e+05 4.46e+03  3.14e+09   853s
   9  -4.01353840e+11  2.18913164e+14  2.82e+04 3.15e-06  4.73e+08   865s
  10  -2.68104608e+11  9.39923974e+13  1.88e+04 3.19e-06  2.45e+08   876s
  11  -9.83982018e+10  8.88763280e+13  6.78e+03 4.52e-06  1.49e+08   886s
  12  -6.30164635e+10  4.86180431e+13  4.32e+03 3.68e-06  8.66e+07   897s
  13  -2.83582081e+10  1.90079881e+13  1.94e+03 2.44e-06  3.60e+07   908s
  14  -1.37004255e+10  1.36880251e+13  9.36e+02 2.07e-06  2.25e+07   919s
  15  -6.94310249e+09  9.15042596e+12  4.71e+02 1.74e-06  1.38e+07   930s
  16  -3.46015846e+09  4.56105460e+12  2.32e+02 1.51e-06  6.92e+06   941s
  17  -1.33058856e+09  2.75252505e+12  8.53e+01 1.19e-06  3.75e+06   952s
  18  -6.39688530e+08  1.65355931e+12  3.81e+01 6.91e-07  2.15e+06   962s
  19  -3.89314819e+08  1.02233728e+12  2.12e+01 6.16e-07  1.31e+06   973s
  20  -2.55228274e+08  6.43896261e+11  1.25e+01 5.31e-07  8.17e+05   985s
  21  -1.80784478e+08  5.23996099e+11  7.84e+00 4.57e-07  6.46e+05   995s
  22  -1.52884751e+08  4.44738252e+11  6.16e+00 3.99e-07  5.44e+05  1006s
  23  -1.15382944e+08  3.20397064e+11  3.97e+00 4.80e-07  3.88e+05  1016s
  24  -9.67867957e+07  2.93265438e+11  2.97e+00 5.55e-07  3.50e+05  1027s
  25  -8.21619697e+07  2.30439534e+11  2.23e+00 3.80e-07  2.75e+05  1038s
  26  -6.36284922e+07  1.91171206e+11  1.39e+00 3.91e-07  2.25e+05  1049s
  27  -5.11932424e+07  1.23242473e+11  8.92e-01 2.98e-07  1.45e+05  1060s
  28  -4.24647120e+07  6.88834727e+10  5.65e-01 3.43e-07  8.11e+04  1070s
  29  -3.65356773e+07  5.33498533e+10  3.76e-01 3.17e-07  6.22e+04  1081s
  30  -3.19299777e+07  3.56546253e+10  2.45e-01 2.84e-07  4.14e+04  1092s
  31  -3.04357454e+07  2.85122486e+10  2.07e-01 3.52e-07  3.32e+04  1102s
  32  -2.77500990e+07  2.11888440e+10  1.45e-01 2.84e-07  2.46e+04  1113s
  33  -2.47916290e+07  1.35263232e+10  8.69e-02 4.31e-07  1.57e+04  1124s
  34  -2.08153995e+07  7.45661738e+09  3.21e-02 2.59e-07  8.56e+03  1135s
  35  -1.70092237e+07  4.76674078e+09  1.16e-02 3.40e-07  5.42e+03  1146s
  36  -1.31060522e+07  3.09284621e+09  9.12e-03 4.43e-07  3.53e+03  1157s
  37  -1.00653451e+07  1.75881091e+09  5.33e-03 3.90e-07  2.02e+03  1168s
  38  -6.23157429e+06  7.16580871e+08  1.94e-03 3.98e-07  8.27e+02  1179s
  39  -3.04457370e+06  4.01453978e+08  9.70e-04 8.15e-07  4.63e+02  1191s
  40  -5.17862231e+05  2.54139108e+08  5.72e-04 6.93e-07  2.91e+02  1203s
  41   1.20151716e+06  2.11762938e+08  3.63e-04 9.07e-07  2.40e+02  1213s
  42   2.46793274e+06  1.40448465e+08  2.79e-04 7.57e-07  1.58e+02  1224s
  43   4.36964170e+06  8.84421561e+07  1.38e-04 8.52e-07  9.62e+01  1236s
  44   5.83578959e+06  5.94093075e+07  7.52e-05 1.36e-06  6.12e+01  1248s
  45   6.41411362e+06  4.68676360e+07  5.75e-05 9.29e-07  4.62e+01  1258s
  46   6.66140539e+06  4.04505986e+07  5.16e-05 9.89e-07  3.87e+01  1269s
  47   7.25110813e+06  3.37536611e+07  3.84e-05 9.31e-07  3.03e+01  1281s
  48   7.56636573e+06  3.10349165e+07  3.34e-05 1.01e-06  2.69e+01  1292s
  49   7.93122906e+06  2.66568200e+07  2.78e-05 1.56e-06  2.15e+01  1304s
  50   8.14895509e+06  2.44546778e+07  2.50e-05 1.07e-06  1.87e+01  1314s
  51   8.46221402e+06  2.15646474e+07  2.03e-05 1.20e-06  1.50e+01  1325s
  52   8.64853193e+06  1.97683040e+07  1.73e-05 1.80e-06  1.28e+01  1337s
  53   8.96850267e+06  1.80355737e+07  1.31e-05 1.73e-06  1.04e+01  1349s
  54   9.19977747e+06  1.73790228e+07  1.09e-05 2.05e-06  9.36e+00  1359s
  55   9.40665087e+06  1.64715261e+07  9.35e-06 2.43e-06  8.08e+00  1370s
  56   9.70805352e+06  1.59360927e+07  7.68e-06 2.70e-06  7.11e+00  1380s
  57   9.98598251e+06  1.49469728e+07  5.67e-06 2.23e-06  5.66e+00  1392s
  58   1.02448626e+07  1.38658011e+07  4.36e-06 2.24e-06  4.14e+00  1404s
  59   1.04326067e+07  1.32855078e+07  3.54e-06 2.24e-06  3.27e+00  1415s
  60   1.06910614e+07  1.27290391e+07  2.29e-06 2.45e-06  2.33e+00  1426s
  61   1.07793772e+07  1.23266916e+07  1.88e-06 1.66e-05  1.77e+00  1437s
  62   1.09074409e+07  1.21900320e+07  1.30e-06 1.64e-05  1.46e+00  1447s
  63   1.09830241e+07  1.19328946e+07  9.71e-07 6.79e-05  1.08e+00  1458s
  64   1.10373864e+07  1.17330368e+07  7.40e-07 6.54e-05  7.95e-01  1468s
  65   1.10541612e+07  1.15472466e+07  6.65e-07 4.68e-05  5.67e-01  1479s
  66   1.11335822e+07  1.13669932e+07  3.34e-07 3.44e-05  2.69e-01  1490s
  67   1.11505051e+07  1.13285849e+07  2.96e-07 4.75e-05  2.06e-01  1500s
  68   1.11730183e+07  1.12708236e+07  4.26e-07 3.09e-02  1.15e-01  1511s
  69   1.11983031e+07  1.12462320e+07  1.46e-07 2.39e-02  5.59e-02  1521s
  70   1.12061559e+07  1.12250871e+07  1.81e-07 1.93e-02  2.25e-02  1532s
  71   1.12138965e+07  1.12157911e+07  4.83e-08 1.57e-02  2.29e-03  1542s
  72   1.12149894e+07  1.12150801e+07  2.92e-09 1.44e-02  1.11e-04  1553s
  73   1.12150366e+07  1.12150546e+07  1.35e-09 1.38e-02  2.24e-05  1563s
  74   1.12150387e+07  1.12150540e+07  2.57e-08 1.86e-02  1.90e-05  1574s
  75   1.12150467e+07  1.12150516e+07  2.28e-08 1.65e-02  6.18e-06  1585s
  76   1.12150467e+07  1.12150516e+07  1.68e-06 2.27e-02  6.16e-06  1595s
  77   1.12150482e+07  1.12150515e+07  1.28e-06 2.15e-02  4.07e-06  1606s
  78   1.12150498e+07  1.12150513e+07  5.99e-07 1.64e-02  1.95e-06  1616s
  79   1.12150498e+07  1.12150513e+07  2.07e-05 1.86e-02  1.95e-06  1626s
  80   1.12150498e+07  1.12150513e+07  2.06e-05 2.76e-02  1.94e-06  1637s
  81   1.12150500e+07  1.12150513e+07  1.77e-05 3.25e-02  1.74e-06  1647s
  82   1.12150503e+07  1.12150512e+07  1.35e-05 2.32e-02  1.25e-06  1658s
  83   1.12150503e+07  1.12150512e+07  1.31e-05 1.85e-02  1.15e-06  1668s
  84   1.12150493e+07  1.12150512e+07  5.72e-06 1.95e-02  5.09e-07  1678s
  85   1.12150502e+07  1.12150512e+07  9.04e-06 2.35e-02  5.07e-07  1689s
  86   1.12150502e+07  1.12150512e+07  8.98e-06 3.15e-02  5.05e-07  1699s
  87   1.12150502e+07  1.12150512e+07  8.90e-06 3.99e-02  5.15e-07  1710s
  88   1.12150502e+07  1.12150512e+07  8.78e-06 3.67e-02  5.12e-07  1720s
  89   1.12150529e+07  1.12150512e+07  1.26e-05 4.85e-02  5.10e-07  1730s
  90   1.12150529e+07  1.12150512e+07  1.25e-05 5.25e-02  5.08e-07  1741s
  91   1.12150524e+07  1.12150512e+07  8.71e-06 3.43e-02  3.64e-07  1751s
  92   1.12150524e+07  1.12150512e+07  8.48e-06 2.62e-02  3.46e-07  1761s
  93   1.12150516e+07  1.12150511e+07  3.56e-06 1.81e-02  1.42e-07  1772s
  94   1.12150519e+07  1.12150511e+07  5.43e-06 2.79e-02  1.41e-07  1782s
  95   1.12150518e+07  1.12150511e+07  4.73e-06 1.89e-02  1.21e-07  1792s

Barrier solved model in 95 iterations and 1792.40 seconds
Optimal objective 1.12150518e+07


Root crossover log...

   44803 DPushes remaining with DInf 0.0000000e+00              1793s
      68 DPushes remaining with DInf 1.5628861e-02              1796s
       0 DPushes remaining with DInf 8.5616624e+13              1796s

     117 PPushes remaining with PInf 5.4742082e-05              1796s
       0 PPushes remaining with PInf 0.0000000e+00              1796s

  Push phase complete: Pinf 0.0000000e+00, Dinf 1.1134686e+04   1796s


Root simplex log...

Iteration    Objective       Primal Inf.    Dual Inf.      Time
   39342    1.1215051e+07   0.000000e+00   1.113469e+04   1796s
   40751    1.1215313e+07   0.000000e+00   7.316598e+09   1800s
   43723    1.1216477e+07   0.000000e+00   1.863415e+09   1805s
   47056    1.1217236e+07   0.000000e+00   6.513463e+08   1810s
   50002    1.1217904e+07   0.000000e+00   1.162448e+09   1815s
   53090    1.1218366e+07   0.000000e+00   2.314828e+09   1820s
   56164    1.1218706e+07   0.000000e+00   3.710670e+08   1825s
   59652    1.1218968e+07   0.000000e+00   1.678883e+08   1830s
   63126    1.1219208e+07   0.000000e+00   3.151644e+08   1835s
   66341    1.1219388e+07   0.000000e+00   4.666088e+09   1840s
   70065    1.1219740e+07   0.000000e+00   1.279873e+09   1845s
   73782    1.1220168e+07   0.000000e+00   1.982559e+08   1850s
   77376    1.1220475e+07   0.000000e+00   2.511537e+10   1855s
   80842    1.1220700e+07   0.000000e+00   3.265574e+08   1860s
   84434    1.1220864e+07   0.000000e+00   3.606601e+09   1865s
   87892    1.1221108e+07   0.000000e+00   3.248410e+08   1870s
   91871    1.1221211e+07   0.000000e+00   1.200997e+08   1875s
   95083    1.1221312e+07   0.000000e+00   3.734758e+08   1880s
   98425    1.1221432e+07   0.000000e+00   4.404017e+10   1885s
  101892    1.1221498e+07   0.000000e+00   5.548452e+08   1890s
  105096    1.1221538e+07   0.000000e+00   1.255600e+08   1895s
  108177    1.1221588e+07   0.000000e+00   1.518138e+08   1900s
  111139    1.1221617e+07   0.000000e+00   8.945108e+08   1905s
  113831    1.1221666e+07   0.000000e+00   1.389958e+08   1910s
  116530    1.1221713e+07   0.000000e+00   1.276967e+09   1915s
  119737    1.1221767e+07   0.000000e+00   1.355152e+08   1920s
  123214    1.1221812e+07   0.000000e+00   2.726039e+07   1925s
  125656    1.1221856e+07   0.000000e+00   2.513697e+07   1930s
  128611    1.1221884e+07   0.000000e+00   2.443813e+08   1935s
  131571    1.1221897e+07   0.000000e+00   6.734666e+07   1940s
  134404    1.1221908e+07   0.000000e+00   1.877518e+08   1945s
  136975    1.1221934e+07   0.000000e+00   7.152622e+07   1950s
  139798    1.1221945e+07   0.000000e+00   6.263990e+07   1955s
  142620    1.1221965e+07   0.000000e+00   2.862120e+07   1960s
  145059    1.1221979e+07   0.000000e+00   9.138600e+08   1965s
  147497    1.1221998e+07   0.000000e+00   1.572613e+08   1970s
  149934    1.1222011e+07   0.000000e+00   8.891615e+07   1975s
  152506    1.1222019e+07   0.000000e+00   1.513843e+07   1980s
  155225    1.1222031e+07   0.000000e+00   4.955673e+07   1985s
  157672    1.1222057e+07   0.000000e+00   1.132051e+08   1990s
  160625    1.1222073e+07   0.000000e+00   4.976204e+07   1995s
  163318    1.1222081e+07   0.000000e+00   2.123310e+09   2000s
  166031    1.1222091e+07   0.000000e+00   2.324405e+07   2005s
  168854    1.1222104e+07   0.000000e+00   5.010096e+09   2010s
  171293    1.1222110e+07   0.000000e+00   3.515841e+07   2015s
  174247    1.1222115e+07   0.000000e+00   2.583952e+07   2020s
  177331    1.1222120e+07   0.000000e+00   9.550906e+07   2025s
  180278    1.1222136e+07   0.000000e+00   1.268843e+07   2030s
  183230    1.1222157e+07   0.000000e+00   5.015395e+07   2035s
  185924    1.1222162e+07   0.000000e+00   6.321441e+06   2040s
  188746    1.1222168e+07   0.000000e+00   4.198929e+07   2045s
  191570    1.1222172e+07   0.000000e+00   2.249310e+07   2050s
  194396    1.1222180e+07   0.000000e+00   1.090101e+07   2055s
  197088    1.1222186e+07   0.000000e+00   8.693410e+06   2060s
  200044    1.1222200e+07   0.000000e+00   5.247284e+06   2065s
  203000    1.1222213e+07   0.000000e+00   4.500170e+06   2070s
  205691    1.1222215e+07   0.000000e+00   1.945904e+06   2075s
  208642    1.1222269e+07   0.000000e+00   5.241561e+06   2080s
  211082    1.1222301e+07   0.000000e+00   1.598926e+11   2085s
  213146    1.1222311e+07   0.000000e+00   5.652947e+07   2090s
  215453    1.1222322e+07   0.000000e+00   1.137903e+07   2095s
  217634    1.1222323e+07   0.000000e+00   1.053803e+07   2100s
  219705    1.1222324e+07   0.000000e+00   7.723731e+06   2105s
  221786    1.1222324e+07   0.000000e+00   1.707987e+07   2110s
  223583    1.1222324e+07   0.000000e+00   4.145847e+06   2115s
  225256    1.1222325e+07   0.000000e+00   2.561694e+06   2120s
  226926    1.1222325e+07   0.000000e+00   6.929247e+06   2125s
  228603    1.1222325e+07   0.000000e+00   1.650722e+07   2130s
  230144    1.1222325e+07   0.000000e+00   2.044423e+06   2135s
  231815    1.1222325e+07   0.000000e+00   2.318862e+06   2140s
  233481    1.1222326e+07   0.000000e+00   2.719897e+06   2145s
  235021    1.1222326e+07   0.000000e+00   1.384168e+06   2150s
  236687    1.1222326e+07   0.000000e+00   2.806461e+06   2155s
  238224    1.1222326e+07   0.000000e+00   1.564681e+06   2160s
  239893    1.1222326e+07   0.000000e+00   3.647996e+06   2165s
  241429    1.1222326e+07   0.000000e+00   3.958165e+06   2170s
  242972    1.1222326e+07   0.000000e+00   3.691430e+06   2175s
  244386    1.1222326e+07   0.000000e+00   9.283541e+05   2180s
  245931    1.1222327e+07   0.000000e+00   1.298815e+06   2185s
  247467    1.1222327e+07   0.000000e+00   1.233436e+06   2190s
  248889    1.1222327e+07   0.000000e+00   9.894022e+05   2195s
  250444    1.1222327e+07   0.000000e+00   3.802212e+06   2200s
  251876    1.1222327e+07   0.000000e+00   5.217687e+05   2205s
  253288    1.1222327e+07   0.000000e+00   4.586481e+05   2210s
  254698    1.1222327e+07   0.000000e+00   3.873937e+05   2215s
  256237    1.1222327e+07   0.000000e+00   4.359501e+05   2220s
  257645    1.1222327e+07   0.000000e+00   3.382453e+05   2225s
  259184    1.1222327e+07   0.000000e+00   6.772546e+05   2230s
  260598    1.1222327e+07   0.000000e+00   3.999062e+05   2235s
  262012    1.1222327e+07   0.000000e+00   4.636362e+05   2240s
  263423    1.1222327e+07   0.000000e+00   4.554215e+05   2245s
  264835    1.1222327e+07   0.000000e+00   3.528692e+05   2250s
  266245    1.1222327e+07   0.000000e+00   2.509453e+05   2255s
  267658    1.1222327e+07   0.000000e+00   2.082204e+05   2260s
  268948    1.1222327e+07   0.000000e+00   3.423626e+05   2265s
  270362    1.1222327e+07   0.000000e+00   2.257697e+05   2270s
  271647    1.1222327e+07   0.000000e+00   1.066001e+05   2275s
  272927    1.1222327e+07   0.000000e+00   4.853275e+04   2280s
  274220    1.1222327e+07   0.000000e+00   8.253164e+04   2285s
  275506    1.1222327e+07   0.000000e+00   1.234155e+05   2291s
  276659    1.1222327e+07   0.000000e+00   7.990292e+04   2295s
  277947    1.1222327e+07   0.000000e+00   2.584236e+04   2300s
  279227    1.1222327e+07   0.000000e+00   6.169987e+04   2305s
  280508    1.1222327e+07   0.000000e+00   1.920037e+04   2310s
  281660    1.1222327e+07   0.000000e+00   7.818279e+03   2315s
  282524    1.1215055e+07   5.390798e+01   0.000000e+00   2321s
  282894    1.1215054e+07   1.020664e+02   0.000000e+00   2327s
  283134    1.1215053e+07   4.820548e+01   0.000000e+00   2330s
  283494    1.1215051e+07   0.000000e+00   0.000000e+00   2335s
  285102    1.1215187e+07   0.000000e+00   6.598801e+08   2340s
  286391    1.1215235e+07   0.000000e+00   8.057169e+08   2346s
  287543    1.1215304e+07   0.000000e+00   6.594784e+08   2350s
  288953    1.1215425e+07   0.000000e+00   3.148701e+08   2355s
  290237    1.1215474e+07   0.000000e+00   3.290234e+08   2360s
  291521    1.1215514e+07   0.000000e+00   3.081539e+08   2365s
  292934    1.1215542e+07   0.000000e+00   1.194964e+09   2370s
  294215    1.1215599e+07   0.000000e+00   2.656638e+08   2375s
  295373    1.1215642e+07   0.000000e+00   2.948031e+08   2380s
  296793    1.1215702e+07   0.000000e+00   7.772278e+07   2385s
  298210    1.1215748e+07   0.000000e+00   2.334445e+08   2390s
  299491    1.1215769e+07   0.000000e+00   2.348667e+10   2395s
  300773    1.1215814e+07   0.000000e+00   1.256891e+08   2400s
  302059    1.1215855e+07   0.000000e+00   7.057122e+08   2405s
  303347    1.1215873e+07   0.000000e+00   5.933844e+07   2410s
  304769    1.1215901e+07   0.000000e+00   2.280593e+08   2415s
  306058    1.1215930e+07   0.000000e+00   2.326790e+10   2420s
  307347    1.1215960e+07   0.000000e+00   3.552920e+08   2425s
  308641    1.1215978e+07   0.000000e+00   1.618704e+08   2430s
  309933    1.1215992e+07   0.000000e+00   1.449112e+10   2435s
  311234    1.1216021e+07   0.000000e+00   5.099740e+08   2440s
  312530    1.1216040e+07   0.000000e+00   3.732570e+08   2445s
  313696    1.1216074e+07   0.000000e+00   1.028731e+09   2450s
  314994    1.1216094e+07   0.000000e+00   1.107631e+08   2455s
  316408    1.1216131e+07   0.000000e+00   2.376708e+08   2460s
  317692    1.1216168e+07   0.000000e+00   9.002473e+08   2465s
  318989    1.1216215e+07   0.000000e+00   1.682224e+09   2470s
  320282    1.1216230e+07   0.000000e+00   1.241819e+08   2475s
  321575    1.1216249e+07   0.000000e+00   1.013665e+08   2480s
  322866    1.1216266e+07   0.000000e+00   9.822108e+07   2485s
  324279    1.1216306e+07   0.000000e+00   3.996920e+07   2490s
  325566    1.1216332e+07   0.000000e+00   3.528040e+07   2495s
  326865    1.1216356e+07   0.000000e+00   1.916996e+08   2500s
  328292    1.1216370e+07   0.000000e+00   2.100939e+08   2505s
  329593    1.1216378e+07   0.000000e+00   1.130760e+08   2510s
  330879    1.1216384e+07   0.000000e+00   1.723311e+08   2515s
  332305    1.1216387e+07   0.000000e+00   1.238865e+07   2520s
  333594    1.1216396e+07   0.000000e+00   3.201779e+07   2525s
  334756    1.1216406e+07   0.000000e+00   9.356124e+07   2530s
  336042    1.1216409e+07   0.000000e+00   1.693418e+08   2535s
  337337    1.1216416e+07   0.000000e+00   1.644461e+07   2540s
  338629    1.1216423e+07   0.000000e+00   1.883982e+07   2545s
  339917    1.1216439e+07   0.000000e+00   7.885588e+08   2550s
  341200    1.1216460e+07   0.000000e+00   1.344517e+08   2555s
  342619    1.1216479e+07   0.000000e+00   1.201112e+07   2560s
  344033    1.1216491e+07   0.000000e+00   2.051761e+07   2565s
  345451    1.1216495e+07   0.000000e+00   6.165074e+06   2570s
  346614    1.1216498e+07   0.000000e+00   1.445855e+08   2575s
  348029    1.1216505e+07   0.000000e+00   1.076429e+07   2580s
  349320    1.1216507e+07   0.000000e+00   3.606252e+06   2585s
  350624    1.1216509e+07   0.000000e+00   1.975961e+07   2590s
  352036    1.1216510e+07   0.000000e+00   1.110485e+06   2595s
  353453    1.1216516e+07   0.000000e+00   6.374714e+06   2600s
  354751    1.1216518e+07   0.000000e+00   2.306913e+07   2605s
  356162    1.1216520e+07   0.000000e+00   1.399675e+06   2610s
  357447    1.1216520e+07   0.000000e+00   1.336809e+06   2615s
  358864    1.1216521e+07   0.000000e+00   6.993374e+06   2620s
  360165    1.1216522e+07   0.000000e+00   6.886055e+05   2625s
  361457    1.1216523e+07   0.000000e+00   4.247611e+05   2630s
  362740    1.1216523e+07   0.000000e+00   6.079754e+07   2635s
  363905    1.1216523e+07   0.000000e+00   5.049591e+05   2640s
  365197    1.1216524e+07   0.000000e+00   5.157318e+05   2645s
  366495    1.1216524e+07   0.000000e+00   9.330134e+05   2650s
  367788    1.1216524e+07   0.000000e+00   2.677193e+05   2655s
  369073    1.1216525e+07   0.000000e+00   8.123913e+05   2660s
  370354    1.1216525e+07   0.000000e+00   1.864154e+05   2665s
  371637    1.1216525e+07   0.000000e+00   3.942869e+05   2670s
  372789    1.1216525e+07   0.000000e+00   1.502305e+05   2675s
  374082    1.1216525e+07   0.000000e+00   1.127545e+05   2680s
  375366    1.1216525e+07   0.000000e+00   8.544351e+04   2685s
  376521    1.1216525e+07   0.000000e+00   1.728081e+05   2690s
  377676    1.1216525e+07   0.000000e+00   5.790323e+04   2695s
  378962    1.1216525e+07   0.000000e+00   8.599683e+04   2700s
  380125    1.1216525e+07   0.000000e+00   3.536086e+03   2706s
  380758    1.1215059e+07   9.769925e+01   0.000000e+00   2711s
  381118    1.1215058e+07   2.480107e+02   0.000000e+00   2717s
  381358    1.1215057e+07   2.138237e+02   0.000000e+00   2721s
  381698    1.1215057e+07   2.920429e+02   0.000000e+00   2726s
  381938    1.1215057e+07   8.355043e+01   0.000000e+00   2730s
  382288    1.1215056e+07   1.072139e+02   0.000000e+00   2736s
  382648    1.1215055e+07   8.968525e+01   0.000000e+00   2742s
  382888    1.1215055e+07   1.206941e+02   0.000000e+00   2745s
  383248    1.1215054e+07   1.725157e+01   0.000000e+00   2751s
  383488    1.1215054e+07   5.434663e+01   0.000000e+00   2755s
  383848    1.1215054e+07   6.939714e+01   0.000000e+00   2761s
  384208    1.1215054e+07   5.163830e+01   0.000000e+00   2767s
  384448    1.1215054e+07   2.257766e+01   0.000000e+00   2771s
  384808    1.1215053e+07   8.043404e+01   0.000000e+00   2776s
  385048    1.1215053e+07   6.899350e+01   0.000000e+00   2780s
  385408    1.1215053e+07   6.422648e+01   0.000000e+00   2786s
  385768    1.1215052e+07   4.081957e+02   0.000000e+00   2792s
  386008    1.1215052e+07   1.555695e+02   0.000000e+00   2796s
  386368    1.1215052e+07   1.248838e+01   0.000000e+00   2802s
  386608    1.1215052e+07   2.057059e+02   0.000000e+00   2806s
  386941    1.1215051e+07   0.000000e+00   0.000000e+00   2811s
Extra 103447 simplex iterations after uncrush
Concurrent spin time: 29.81s

Solved with barrier

Root relaxation: objective 1.121505e+07, 386941 iterations, 2099.38 seconds
Total elapsed time = 2850.11s

    Nodes    |    Current Node    |     Objective Bounds      |     Work
 Expl Unexpl |  Obj  Depth IntInf | Incumbent    BestBd   Gap | It/Node Time

     0     0 1.1172e+07    0  288          - 1.1172e+07      -     - 3285s
     0     0 1.0279e+07    0  406          - 1.0279e+07      -     - 6233s
H    0     0                    -1927611.715 1.0279e+07   633%     - 6235s
H    0     0                    -1363611.713 1.0279e+07   854%     - 6261s
     0     0 1.0277e+07    0  415 -1363611.7 1.0277e+07   854%     - 6578s
     0     0 1.0277e+07    0  414 -1363611.7 1.0277e+07   854%     - 6580s
     0     0 1.0205e+07    0  409 -1363611.7 1.0205e+07   848%     - 7577s
     0     0 1.0198e+07    0  426 -1363611.7 1.0198e+07   848%     - 7953s
     0     0 1.0195e+07    0  420 -1363611.7 1.0195e+07   848%     - 8132s
     0     0 1.0195e+07    0  424 -1363611.7 1.0195e+07   848%     - 8134s
     0     0 1.0192e+07    0  452 -1363611.7 1.0192e+07   847%     - 8613s
     0     0 1.0191e+07    0  430 -1363611.7 1.0191e+07   847%     - 8985s
     0     0 1.0191e+07    0  443 -1363611.7 1.0191e+07   847%     - 9065s
     0     0 1.0190e+07    0  434 -1363611.7 1.0190e+07   847%     - 9276s
     0     0 1.0184e+07    0  447 -1363611.7 1.0184e+07   847%     - 9682s
     0     0 1.0182e+07    0  440 -1363611.7 1.0182e+07   847%     - 9843s
     0     0 1.0182e+07    0  442 -1363611.7 1.0182e+07   847%     - 9876s
     0     0 1.0182e+07    0  442 -1363611.7 1.0182e+07   847%     - 9878s
     0     0 1.0180e+07    0  440 -1363611.7 1.0180e+07   847%     - 10041s
H    0     0                    -1216756.264 1.0180e+07   937%     - 10042s
     0     0 1.0180e+07    0  441 -1216756.3 1.0180e+07   937%     - 10094s
     0     0 1.0180e+07    0  440 -1216756.3 1.0180e+07   937%     - 10156s
     0     0 1.0179e+07    0  463 -1216756.3 1.0179e+07   937%     - 10322s
H    0     0                    -917923.4240 1.0179e+07  1209%     - 10323s
H    0     0                    -206947.4175 1.0179e+07  5019%     - 10349s
     0     0 1.0179e+07    0  459 -206947.42 1.0179e+07  5019%     - 10479s
     0     0 1.0179e+07    0  447 -206947.42 1.0179e+07  5019%     - 10649s
     0     0 1.0179e+07    0  443 -206947.42 1.0179e+07  5019%     - 10655s
     0     0 1.0178e+07    0  457 -206947.42 1.0178e+07  5018%     - 11123s
     0     0 1.0178e+07    0  493 -206947.42 1.0178e+07  5018%     - 11353s
     0     0 1.0178e+07    0  493 -206947.42 1.0178e+07  5018%     - 11354s
     0     0 1.0177e+07    0  469 -206947.42 1.0177e+07  5018%     - 11631s
     0     0 1.0177e+07    0  471 -206947.42 1.0177e+07  5018%     - 11702s
     0     0 1.0177e+07    0  483 -206947.42 1.0177e+07  5017%     - 11901s
     0     0 1.0177e+07    0  487 -206947.42 1.0177e+07  5017%     - 11925s
     0     0 1.0176e+07    0  485 -206947.42 1.0176e+07  5017%     - 12122s
     0     0 1.0176e+07    0  491 -206947.42 1.0176e+07  5017%     - 12403s
     0     0 1.0176e+07    0  490 -206947.42 1.0176e+07  5017%     - 12412s
     0     0 1.0170e+07    0  500 -206947.42 1.0170e+07  5014%     - 13245s
     0     0 1.0170e+07    0  490 -206947.42 1.0170e+07  5014%     - 13669s
     0     0 1.0169e+07    0  473 -206947.42 1.0169e+07  5014%     - 13959s
     0     0 1.0169e+07    0  477 -206947.42 1.0169e+07  5014%     - 13980s
     0     0 1.0169e+07    0  469 -206947.42 1.0169e+07  5014%     - 14320s
     0     0 1.0169e+07    0  498 -206947.42 1.0169e+07  5014%     - 14442s
     0     0 1.0169e+07    0  479 -206947.42 1.0169e+07  5014%     - 14625s
     0     0 1.0169e+07    0  479 -206947.42 1.0169e+07  5014%     - 15000s
     0     2 1.0169e+07    0  478 -206947.42 1.0169e+07  5014%     - 15619s
     1     4 1.0072e+07    1  447 -206947.42 1.0169e+07  5014% 122874 17821s
     3     8 9921550.50    2  416 -206947.42 1.0117e+07  4989% 97775 22864s
     7    12 9900258.42    3  407 -206947.42 1.0116e+07  4988% 122410 25026s
    11    16 9861380.70    4  416 -206947.42 1.0116e+07  4988% 100117 28988s
    15    18 9861237.95    5  440 -206947.42 1.0116e+07  4988% 104604 30140s
    19    18 9858259.52    6  431 -206947.42 1.0116e+07  4988% 88330 30840s
    23    25 9858259.52    7  441 -206947.42 1.0116e+07  4988% 74724 36542s
    28    29 9853201.06    9  415 -206947.42 1.0116e+07  4988% 78949 38217s
    35    36 9728134.02   11  365 -206947.42 1.0116e+07  4988% 68721 40625s
    40    43 9723173.26   12  364 -206947.42 1.0116e+07  4988% 66254 43138s
    47    47 9690354.67   15  369 -206947.42 1.0116e+07  4988% 64117 48150s
    54    57 9676771.17   18  373 -206947.42 1.0116e+07  4988% 67129 50349s
    61    61 9300111.44   19  268 -206947.42 1.0116e+07  4988% 65232 52052s
    66    64 9594323.13   20  378 -206947.42 1.0116e+07  4988% 62617 53036s
    78    80 9544933.04   22  348 -206947.42 1.0116e+07  4988% 55042 55203s
    91    91 9532354.50   26  333 -206947.42 1.0116e+07  4988% 49389 56317s
   108   110 9510748.80   31  368 -206947.42 1.0116e+07  4988% 43186 59164s
   121   123 9495542.61   33  358 -206947.42 1.0116e+07  4988% 40996 61872s
   132   133 9212706.65   36  276 -206947.42 1.0116e+07  4988% 41093 64612s
   141   142 9471998.34   36  376 -206947.42 1.0116e+07  4988% 40298 66424s
   158   158 9423710.61   41  380 -206947.42 1.0116e+07  4988% 37679 67638s
   170   171 9400008.35   46  364 -206947.42 1.0116e+07  4988% 36268 70115s
   186   187 9388752.50   53  372 -206947.42 1.0116e+07  4988% 34811 71276s
   209   210 9378570.26   63  357 -206947.42 1.0116e+07  4988% 31936 74304s
   237   238 9354896.08   74  364 -206947.42 1.0116e+07  4988% 29567 76516s
   261   263 9347569.22   81  375 -206947.42 1.0116e+07  4988% 28014 82888s
   277   275 9295234.18   88  383 -206947.42 1.0116e+07  4988% 28650 86400s

Cutting planes:
  Gomory: 4
  Cover: 1
  Implied bound: 35
  Clique: 13
  MIR: 50
  Flow cover: 106
  Zero half: 4

Explored 297 nodes (9325780 simplex iterations) in 86400.50 seconds
Thread count was 4 (of 16 available processors)

Solution count 5: -206947 -917923 -1.21676e+06 ... -1.92761e+06

Time limit reached
Warning: max constraint violation (8.1683e-06) exceeds tolerance
Warning: max bound violation (7.5180e-06) exceeds tolerance
Best objective -2.069474100552e+05, best bound 1.011551724232e+07, gap 4987.9651%

***
***  |- Calculation finished, timelimit reached 86,400.58 (86400.58) sec.))
***  |-----------------------------------------------------------------------------------------------------------------------
***
*****************************************************************************************************************************
#############################################################################################################################
###
### Results
###
### The objective of the solution is -206,947.4101 (-206947.4101) and is feasible with a Gap of 49.8797
###
### Service 24 (WAF7) is operated by 3 vessels from type 18 (PMax25)
###  |- Vessel  1 has the path [131, 386, -1]
###  |  131 (DEHAM Out@288.0) - 386 (ESALG In@496.0/Out@515.0) - -1 (DUMMY_END Ziel-Service 24)
###  |- Vessel  2 has the path [132, 387, -1]
###  |  132 (DEHAM Out@456.0) - 387 (ESALG In@664.0/Out@683.0) - -1 (DUMMY_END Ziel-Service 24)
###  |- Vessel 13 has the path [135, 401, 263, 388, -1]
###  |  135 (DKAAR Out@220.0) - 401 (MAPTM In@379.0/Out@398.0) - 263 (MAPTM In@406.0/Out@427.0) - 388 (ESALG In@832.0/Out@851
###  |  .0) - -1 (DUMMY_END Ziel-Service 24)
###  |   |- and carried Demand 272,  214.0 containers from 263 to 388
###  |   |- and carried Demand 273,   10.0 containers from 263 to 388
###  |   |- and carried Demand 285,  214.0 containers from 401 to 388
###  |   |- and carried Demand 286,   10.0 containers from 401 to 388
###  |
### Service 121 (SAE) is operated by 2 vessels from type 30 (PMax35)
###  |- Vessel 18 has the path [193, 425, 421, 411, -2]
###  |  193 (GBFXT Out@470.0) - 425 (USORF In@873.0/Out@881.0) - 421 (USMIA In@935.0/Out@943.0) - 411 (HNPCR In@998.0/Out@101
###  |  1.0) - -2 (DUMMY_END Ziel-Service 121)
###  |   |- and carried Demand 325,   10.0 containers from 421 to 411
###  |   |- and carried Demand 326,   75.0 containers from 425 to 411
###  |   |- and carried Demand 327,  114.0 containers from 425 to 411
###  |- Vessel 24 has the path [231, 106, 78, 210, 107, 75, 86, 140, 300, 412, -2]
###  |  231 (JPYOK Out@171.0) - 106 (CNXMN In@238.0/Out@260.0) - 78 (CNNSA In@287.0/Out@297.0) - 210 (HKHKG In@334.0/Out@350.
###  |  0) - 107 (CNYTN In@358.0/Out@376.0) - 75 (CNNGB In@430.0/Out@439.0) - 86 (CNSHA In@465.0/Out@483.0) - 140 (ECGYE In@9
###  |  11.0/Out@923.0) - 300 (PABLB In@982.0/Out@1030.0) - 412 (HNPCR In@1166.0/Out@1179.0) - -2 (DUMMY_END Ziel-Service 121
###  |  )
###  |   |- and carried Demand  87,  541.0 containers from 231 to 300
###  |   |- and carried Demand 178,  785.0 containers from 106 to 210
###  |   |- and carried Demand 179,    1.0 containers from 106 to 210
###  |   |- and carried Demand 181,  121.0 containers from 210 to  75
###  |   |- and carried Demand 182,   75.0 containers from 210 to  86
###  |   |- and carried Demand 183,    1.0 containers from 210 to 107
###  |   |- and carried Demand 186,    6.0 containers from 107 to 300
###  |   |- and carried Demand 188,  773.0 containers from  75 to 300
###  |   |- and carried Demand 189,    1.0 containers from  75 to 300
###  |   |- and carried Demand 297,    6.0 containers from 107 to 300
###  |   |- and carried Demand 298,  773.0 containers from  75 to 300
###  |   |- and carried Demand 299,    1.0 containers from  75 to 300
###  |
### Service 177 (WCSA) is operated by 3 vessels from type 19 (PMax28)
###  |- Vessel  5 has the path [282, 178, 260, 400, 261, 385, 151, 58, 63, 303, 0]
###  |  282 (NLRTM Out@92.0) - 178 (FRLEH In@111.0/Out@127.0) - 260 (MAPTM In@207.0/Out@228.0) - 400 (MAPTM In@211.0/Out@230.
###  |  0) - 261 (MAPTM In@238.0/Out@259.0) - 385 (ESALG In@328.0/Out@347.0) - 151 (ESALG In@625.0/Out@670.0) - 58 (CLLQN In@
###  |  1240.0/Out@1258.0) - 63 (CLSAI In@1288.0/Out@1304.0) - 303 (PABLB In@1472.0/Out@1484.0) - 0 (DUMMY_END Ziel-Service 1
###  |  77)
###  |   |- and carried Demand   9,   17.0 containers from 282 to 178
###  |   |- and carried Demand 140,  552.0 containers from 151 to 303
###  |   |- and carried Demand 141,   13.0 containers from 151 to 303
###  |   |- and carried Demand 256,   42.0 containers from 282 to 385
###  |   |- and carried Demand 257,  580.0 containers from 260 to 385
###  |   |- and carried Demand 271,  580.0 containers from 261 to 385
###  |   |- and carried Demand 295,  580.0 containers from 400 to 385
###  |- Vessel  6 has the path [283, 180, 262, 148, 57, 62, 304, 305, 0]
###  |  283 (NLRTM Out@260.0) - 180 (FRLEH In@279.0/Out@295.0) - 262 (MAPTM In@375.0/Out@396.0) - 148 (ESALG In@421.0/Out@433
###  |  .0) - 57 (CLLQN In@1072.0/Out@1090.0) - 62 (CLSAI In@1120.0/Out@1136.0) - 304 (PABLB In@1508.0/Out@1520.0) - 305 (PAB
###  |  LB In@1640.0/Out@1652.0) - 0 (DUMMY_END Ziel-Service 177)
###  |   |- and carried Demand  16,   74.0 containers from 283 to 148
###  |   |- and carried Demand  17,    5.0 containers from 283 to 180
###  |   |- and carried Demand  20,  484.0 containers from 262 to 148
###  |   |- and carried Demand  21,   18.0 containers from 262 to 148
###  |   |- and carried Demand 239,  540.0 containers from  57 to 304
###  |   |- and carried Demand 240,   69.0 containers from  57 to 304
###  |   |- and carried Demand 258,   74.0 containers from 283 to 148
###  |   |- and carried Demand 261,  484.0 containers from 262 to 148
###  |   |- and carried Demand 262,   18.0 containers from 262 to 148
###  |- Vessel  7 has the path [285, 182, 264, 302, 0]
###  |  285 (NLRTM Out@428.0) - 182 (FRLEH In@447.0/Out@463.0) - 264 (MAPTM In@543.0/Out@564.0) - 302 (PABLB In@1304.0/Out@13
###  |  16.0) - 0 (DUMMY_END Ziel-Service 177)
###  |   |- and carried Demand  32,    6.0 containers from 285 to 182
###  |
### Vessels not used in the solution: [3, 4, 8, 9, 10, 11, 12, 14, 15, 16, 17, 19, 20, 21, 22, 23]
###  |-----------------------------------------------------------------------------------------------------------------------
###
#############################################################################################################################

### Detialed variable overview

### All variables with value greater zero:
rho[24,18] = 1
rho[177,19] = 1
rho[121,30] = 1
eta[24,18,1] = 1
eta[24,18,2] = 1
eta[24,18,3] = 1
eta[177,19,1] = 1
eta[177,19,2] = 1
eta[177,19,3] = 1
eta[121,30,1] = 1
eta[121,30,2] = 1
y[1,131,386] = 1
y[1,386,-1] = 1
y[2,387,-1] = 1
y[2,132,387] = 1
y[5,260,400] = 1
y[5,63,303] = 1
y[5,282,178] = 1
y[5,385,151] = 1
y[5,58,63] = 1
y[5,303,0] = 1
y[5,261,385] = 1
y[5,178,260] = 1
y[5,151,58] = 1
y[5,400,261] = 1
y[6,180,262] = 1
y[6,148,57] = 1
y[6,57,62] = 1
y[6,305,0] = 1
y[6,304,305] = 1
y[6,262,148] = 1
y[6,283,180] = 1
y[6,62,304] = 1
y[7,302,0] = 1
y[7,285,182] = 1
y[7,264,302] = 1
y[7,182,264] = 1
y[13,263,388] = 1
y[13,401,263] = 1
y[13,135,401] = 1
y[13,388,-1] = 1
y[18,421,411] = 1
y[18,425,421] = 1
y[18,411,-2] = 1
y[18,193,425] = 1
y[24,300,412] = 1
y[24,231,106] = 1
y[24,210,107] = 1
y[24,412,-2] = 1
y[24,106,78] = 1
y[24,75,86] = 1
y[24,140,300] = 1
y[24,78,210] = 1
y[24,86,140] = 1
y[24,107,75] = 1
xD[9,282,178] = 17
xD[16,180,262] = 74
xD[16,262,148] = 74
xD[16,283,180] = 74
xD[17,283,180] = 5
xD[20,262,148] = 484
xD[21,262,148] = 18
xD[32,285,182] = 6
xD[87,231,106] = 541
xD[87,210,107] = 541
xD[87,106,78] = 541
xD[87,75,86] = 541
xD[87,140,300] = 541
xD[87,78,210] = 541
xD[87,86,140] = 541
xD[87,107,75] = 541
xD[140,63,303] = 552
xD[140,58,63] = 552
xD[140,151,58] = 552
xD[141,63,303] = 13
xD[141,58,63] = 13
xD[141,151,58] = 13
xD[178,106,78] = 785
xD[178,78,210] = 785
xD[179,106,78] = 1
xD[179,78,210] = 1
xD[181,210,107] = 121
xD[181,107,75] = 121
xD[182,210,107] = 75
xD[182,75,86] = 75
xD[182,107,75] = 75
xD[183,210,107] = 1
xD[186,75,86] = 6
xD[186,140,300] = 6
xD[186,86,140] = 6
xD[186,107,75] = 6
xD[188,75,86] = 773
xD[188,140,300] = 773
xD[188,86,140] = 773
xD[189,75,86] = 1
xD[189,140,300] = 1
xD[189,86,140] = 1
xD[239,57,62] = 540
xD[239,62,304] = 540
xD[240,57,62] = 69
xD[240,62,304] = 69
xD[256,260,400] = 42
xD[256,282,178] = 42
xD[256,261,385] = 42
xD[256,178,260] = 42
xD[256,400,261] = 42
xD[257,260,400] = 580
xD[257,261,385] = 580
xD[257,400,261] = 580
xD[258,180,262] = 74
xD[258,262,148] = 74
xD[258,283,180] = 74
xD[261,262,148] = 484
xD[262,262,148] = 18
xD[271,261,385] = 580
xD[272,263,388] = 214
xD[273,263,388] = 10
xD[285,263,388] = 214
xD[285,401,263] = 214
xD[286,263,388] = 10
xD[286,401,263] = 10
xD[295,261,385] = 580
xD[295,400,261] = 580
xD[297,75,86] = 6
xD[297,140,300] = 6
xD[297,86,140] = 6
xD[297,107,75] = 6
xD[298,75,86] = 773
xD[298,140,300] = 773
xD[298,86,140] = 773
xD[299,75,86] = 1
xD[299,140,300] = 1
xD[299,86,140] = 1
xD[325,421,411] = 10
xD[326,421,411] = 75
xD[326,425,421] = 75
xD[327,421,411] = 114
xD[327,425,421] = 114
zE[57] = 1072
zE[58] = 1240
zE[62] = 1120
zE[63] = 1288
zE[75] = 430
zE[78] = 287
zE[86] = 465
zE[106] = 238
zE[107] = 358
zE[140] = 911
zE[148] = 421
zE[151] = 625
zE[178] = 111
zE[180] = 279
zE[182] = 447
zE[210] = 334
zE[260] = 207
zE[261] = 238
zE[262] = 375
zE[263] = 406
zE[264] = 543
zE[300] = 982
zE[302] = 1304
zE[303] = 1472
zE[304] = 1508
zE[305] = 1640
zE[385] = 328
zE[386] = 496
zE[387] = 664
zE[388] = 832
zE[400] = 211
zE[401] = 379
zE[411] = 998
zE[412] = 1166
zE[421] = 935
zE[425] = 873
zX[57] = 1090
zX[58] = 1258
zX[62] = 1136
zX[63] = 1304
zX[75] = 439
zX[78] = 297
zX[86] = 483
zX[106] = 260
zX[107] = 376
zX[131] = 288
zX[132] = 456
zX[135] = 220
zX[140] = 923
zX[148] = 433
zX[151] = 670
zX[178] = 127
zX[180] = 295
zX[182] = 463
zX[193] = 470
zX[210] = 350
zX[231] = 171
zX[260] = 228
zX[261] = 259
zX[262] = 396
zX[263] = 427
zX[264] = 564
zX[282] = 92
zX[283] = 260
zX[285] = 428
zX[300] = 1030
zX[302] = 1316
zX[303] = 1484
zX[304] = 1520
zX[305] = 1652
zX[385] = 347
zX[386] = 515
zX[387] = 683
zX[388] = 851
zX[400] = 230
zX[401] = 398
zX[411] = 1011
zX[412] = 1179
zX[421] = 943
zX[425] = 881
phi[1] = 227
phi[2] = 227
phi[5] = 1392
phi[6] = 1392
phi[7] = 888
phi[13] = 631
phi[18] = 541
phi[24] = 1008

### All variables with value smaller zero:

### End

real	1446m32.289s
user	4979m6.327s
sys	555m54.320s
	Freetype 2.4.12 environment removed
	Python 3.6.0 environment removed
	Gurobi 8.1.0 environment removed
