	Freetype 2.4.12 environment established
		library to render fonts
	Python 3.6.0 environment established
	Gurobi 8.1.0 environment established
Instance LSFRP: LSFDRP_3_2_1_1_fr.p
Instance LSFDP: LSFDRP_3_2_1_1_fd_46.p

*****************************************************************************************************************************
*** Solve LSFDRP_3_2_1_1_fd_46 with Gurobi
***
*** Graph info
*** |S|: 24
*** |S^E|: 0
*** |S^C|: 6
*** |V|: 431
*** |A|: 14925
*** |A^i|: 14778
*** |A^f|: 147
*** |M|: 348
*** |E|: 28

Changed value of parameter TimeLimit to 86400.0
   Prev: 1e+100  Min: 0.0  Max: 1e+100  Default: 1e+100
Changed value of parameter Threads to 4
   Prev: 0  Min: 0  Max: 1024  Default: 0
Optimize a model with 203293 rows, 5586376 columns and 20275474 nonzeros
Variable types: 5228140 continuous, 358236 integer (358236 binary)
Coefficient statistics:
  Matrix range     [1e+00, 5e+03]
  Objective range  [2e+00, 3e+07]
  Bounds range     [1e+00, 1e+00]
  RHS range        [1e+00, 5e+03]
Presolve removed 31003 rows and 1191981 columns (presolve time = 5s) ...
Presolve removed 85378 rows and 3439427 columns (presolve time = 10s) ...
Presolve removed 90596 rows and 3609084 columns (presolve time = 15s) ...
Presolve removed 96238 rows and 3642624 columns (presolve time = 21s) ...
Presolve removed 98593 rows and 3668174 columns (presolve time = 25s) ...
Presolve removed 100417 rows and 3719167 columns (presolve time = 30s) ...
Presolve removed 101377 rows and 3720254 columns (presolve time = 35s) ...
Presolve removed 101383 rows and 3720941 columns (presolve time = 40s) ...
Warning: Failed to open log file 'gurobi.log'
Presolve removed 101410 rows and 3720941 columns (presolve time = 49s) ...
Presolve removed 101410 rows and 3926308 columns (presolve time = 687s) ...
Presolve removed 150641 rows and 5119985 columns (presolve time = 690s) ...
Presolve removed 154027 rows and 5125061 columns (presolve time = 695s) ...
Presolve removed 154149 rows and 5129497 columns (presolve time = 700s) ...
Presolve removed 155244 rows and 5139166 columns (presolve time = 707s) ...
Presolve removed 155246 rows and 5140096 columns (presolve time = 779s) ...
Presolve removed 155219 rows and 5140069 columns
Presolve time: 779.01s
Presolved: 48074 rows, 446307 columns, 2147356 nonzeros
Variable types: 287213 continuous, 159094 integer (158571 binary)

Deterministic concurrent LP optimizer: primal simplex, dual simplex, and barrier
Showing barrier log only...

Presolve removed 369 rows and 3716 columns
Presolved: 47705 rows, 442591 columns, 2142469 nonzeros

Root barrier log...

Ordering time: 0.00s

Barrier statistics:
 Dense cols : 22
 AA' NZ     : 2.575e+06
 Factor NZ  : 5.042e+07 (roughly 600 MBytes of memory)
 Factor Ops : 1.877e+11 (roughly 11 seconds per iteration)
 Threads    : 1

                  Objective                Residual
Iter       Primal          Dual         Primal    Dual     Compl     Time
   0  -2.54658332e+15  3.16589103e+15  1.82e+08 3.45e+06  1.97e+12   809s
   1  -1.53352150e+15  3.14724874e+15  1.09e+08 1.15e+07  1.20e+12   822s
   2  -1.08219233e+15  3.11542882e+15  7.70e+07 7.13e+06  8.45e+11   837s
   3  -5.13521770e+14  3.06524508e+15  3.65e+07 3.46e+06  4.08e+11   851s
   4  -2.31080693e+14  2.92507397e+15  1.64e+07 1.45e+06  1.87e+11   864s
   5  -9.19187011e+13  2.70030488e+15  6.54e+06 6.09e+05  7.60e+10   878s
   6  -2.80295403e+13  2.27580828e+15  1.99e+06 1.84e+05  2.45e+10   891s
   7  -1.04210629e+13  1.65524804e+15  7.38e+05 5.03e+04  9.63e+09   904s
   8  -2.19577567e+12  7.04171674e+14  1.55e+05 3.33e-06  2.27e+09   918s
   9  -9.68364337e+11  2.27232472e+14  6.83e+04 1.92e-03  8.38e+08   930s
  10  -2.89026083e+11  7.53856359e+13  2.02e+04 3.29e-04  2.51e+08   943s
  11  -2.10786000e+11  7.44274797e+13  1.47e+04 3.23e-04  2.05e+08   956s
  12  -6.68118622e+10  1.55192922e+13  4.56e+03 4.38e-05  5.39e+07   969s
  13  -3.79920350e+10  7.85428477e+12  2.59e+03 2.09e-05  2.95e+07   982s
  14  -1.25696784e+10  5.91164836e+12  8.54e+02 1.48e-05  1.35e+07   995s
  15  -6.33899160e+09  4.30548405e+12  4.28e+02 1.08e-05  8.26e+06  1008s
  16  -2.30171276e+09  2.22596680e+12  1.52e+02 5.31e-06  3.71e+06  1022s
  17  -1.19721029e+09  1.44652081e+12  7.60e+01 3.45e-06  2.22e+06  1035s
  18  -5.59461147e+08  5.94469617e+11  3.28e+01 1.30e-06  9.20e+05  1048s
  19  -3.69649612e+08  3.92697283e+11  2.01e+01 1.01e-06  5.91e+05  1061s
  20  -2.25331457e+08  2.80372709e+11  1.08e+01 7.11e-07  3.93e+05  1073s
  21  -1.62242389e+08  2.18096069e+11  7.03e+00 6.70e-07  2.95e+05  1086s
  22  -1.17864277e+08  1.67119102e+11  4.45e+00 5.34e-07  2.19e+05  1099s
  23  -1.00307942e+08  1.37503494e+11  3.49e+00 4.19e-07  1.79e+05  1112s
  24  -8.31885688e+07  1.07829643e+11  2.59e+00 3.14e-07  1.39e+05  1125s
  25  -6.10895293e+07  7.60582202e+10  1.52e+00 3.84e-07  9.55e+04  1138s
  26  -4.95278413e+07  4.45105374e+10  1.02e+00 2.39e-07  5.64e+04  1151s
  27  -3.78905839e+07  2.88018305e+10  4.92e-01 2.53e-07  3.52e+04  1164s
  28  -3.32533165e+07  1.92804218e+10  3.16e-01 3.09e-07  2.34e+04  1177s
  29  -3.00052450e+07  1.13577417e+10  2.09e-01 3.30e-07  1.38e+04  1191s
  30  -2.78456382e+07  8.54165878e+09  1.55e-01 3.08e-07  1.04e+04  1204s
  31  -2.53131794e+07  5.10217058e+09  1.05e-01 2.79e-07  6.25e+03  1217s
  32  -2.06591274e+07  3.41419805e+09  4.42e-02 2.85e-07  4.05e+03  1230s
  33  -1.45515739e+07  1.89866523e+09  2.57e-02 4.52e-07  2.26e+03  1243s
  34  -1.31267255e+07  1.28456226e+09  2.29e-02 2.88e-07  1.56e+03  1256s
  35  -1.07837847e+07  7.61076607e+08  1.67e-02 2.50e-07  9.44e+02  1269s
  36  -8.28077539e+06  4.79532639e+08  1.09e-02 1.73e-07  5.99e+02  1282s
  37  -4.46097587e+06  2.54387363e+08  5.55e-03 2.53e-07  3.17e+02  1296s
  38  -1.44724553e+06  1.79587085e+08  3.32e-03 5.70e-07  2.19e+02  1310s
  39   2.21256879e+05  1.51464933e+08  2.42e-03 5.70e-07  1.81e+02  1323s
  40   1.69299748e+06  1.18752009e+08  1.68e-03 2.87e-07  1.39e+02  1336s
  41   3.88822019e+06  7.95710716e+07  8.27e-04 3.38e-07  8.89e+01  1350s
  42   5.29898473e+06  5.64637254e+07  4.39e-04 5.63e-07  5.95e+01  1364s
  43   5.71309798e+06  4.20223023e+07  3.72e-04 5.43e-07  4.27e+01  1376s
  44   6.32763547e+06  3.43706717e+07  2.78e-04 4.84e-07  3.29e+01  1390s
  45   6.87864350e+06  2.92161191e+07  2.07e-04 5.43e-07  2.61e+01  1403s
  46   7.14261854e+06  2.61532206e+07  1.82e-04 5.14e-07  2.23e+01  1416s
  47   7.44005990e+06  2.45898415e+07  1.65e-04 6.81e-07  2.01e+01  1430s
  48   7.65970155e+06  2.25058559e+07  1.47e-04 5.44e-07  1.74e+01  1443s
  49   7.94010094e+06  2.11832076e+07  1.29e-04 5.28e-07  1.55e+01  1456s
  50   8.12924252e+06  1.99222388e+07  1.12e-04 7.51e-07  1.38e+01  1469s
  51   8.27650693e+06  1.87355819e+07  1.02e-04 6.67e-07  1.23e+01  1482s
  52   8.52405425e+06  1.78537842e+07  8.16e-05 5.61e-07  1.09e+01  1495s
  53   8.75180897e+06  1.59637559e+07  6.87e-05 5.36e-07  8.45e+00  1510s
  54   9.01610556e+06  1.53628995e+07  5.62e-05 5.63e-07  7.41e+00  1524s
  55   9.43918713e+06  1.46670624e+07  4.16e-05 7.64e-07  6.08e+00  1537s
  56   9.70798017e+06  1.37526808e+07  3.16e-05 5.72e-07  4.70e+00  1551s
  57   9.91713579e+06  1.32502457e+07  2.58e-05 7.53e-07  3.87e+00  1564s
  58   1.01526872e+07  1.28034103e+07  2.02e-05 5.84e-07  3.08e+00  1577s
  59   1.05010975e+07  1.20552358e+07  1.13e-05 5.87e-07  1.80e+00  1590s
  60   1.06244607e+07  1.17640061e+07  8.25e-06 6.06e-07  1.32e+00  1604s
  61   1.07880380e+07  1.15134692e+07  4.42e-06 5.13e-07  8.38e-01  1618s
  62   1.08649978e+07  1.13918249e+07  2.66e-06 6.06e-07  6.05e-01  1632s
  63   1.08991129e+07  1.11977551e+07  1.89e-06 7.63e-07  3.46e-01  1645s
  64   1.09672496e+07  1.10424271e+07  5.97e-06 5.70e-07  8.70e-02  1660s
  65   1.09821099e+07  1.10116607e+07  2.17e-06 7.97e-07  3.39e-02  1673s
  66   1.09868072e+07  1.09918001e+07  4.33e-07 9.69e-07  5.79e-03  1686s
  67   1.09879469e+07  1.09883273e+07  1.01e-07 8.07e-07  4.73e-04  1699s
  68   1.09882343e+07  1.09882543e+07  2.91e-08 8.34e-07  2.49e-05  1713s
  69   1.09882403e+07  1.09882529e+07  8.45e-08 8.09e-07  1.59e-05  1726s
  70   1.09882415e+07  1.09882528e+07  8.99e-08 8.56e-07  1.43e-05  1739s
  71   1.09882710e+07  1.09882524e+07  1.48e-06 1.31e-06  7.59e-06  1752s
  72   1.09882704e+07  1.09882523e+07  1.44e-06 8.32e-07  7.26e-06  1765s
  73   1.09882588e+07  1.09882514e+07  5.74e-07 6.59e-05  2.73e-06  1778s
  74   1.09882588e+07  1.09882514e+07  6.64e-07 7.25e-05  2.73e-06  1791s
  75   1.09882578e+07  1.09882514e+07  5.72e-07 7.60e-05  2.39e-06  1803s
  76   1.09882526e+07  1.09882512e+07  3.97e-07 3.38e-05  5.51e-07  1816s
  77   1.09882521e+07  1.09882512e+07  2.59e-07 4.60e-05  3.72e-07  1829s
  78   1.09882516e+07  1.09882512e+07  4.71e-06 4.58e-05  2.66e-07  1842s
  79   1.09882502e+07  1.09882512e+07  4.73e-06 5.66e-05  2.00e-07  1855s
  80   1.09882501e+07  1.09882512e+07  4.69e-06 6.50e-05  1.98e-07  1868s
  81   1.09882512e+07  1.09882511e+07  3.39e-06 4.68e-05  1.39e-07  1881s

Barrier solved model in 81 iterations and 1881.34 seconds
Optimal objective 1.09882512e+07


Root crossover log...

   44777 DPushes remaining with DInf 0.0000000e+00              1882s
       0 DPushes remaining with DInf 1.9384680e+11              1885s

     122 PPushes remaining with PInf 3.0690535e-05              1885s
       0 PPushes remaining with PInf 0.0000000e+00              1885s

  Push phase complete: Pinf 0.0000000e+00, Dinf 1.3158867e+05   1885s


Root simplex log...

Iteration    Objective       Primal Inf.    Dual Inf.      Time
   39258    1.0988251e+07   0.000000e+00   1.315887e+05   1885s
   39260    1.0988251e+07   0.000000e+00   0.000000e+00   1885s
   40814    1.0988325e+07   0.000000e+00   7.273031e+09   1890s
   42096    1.0988489e+07   0.000000e+00   8.545331e+08   1895s
   43258    1.0988620e+07   0.000000e+00   1.546722e+09   1900s
   44543    1.0988775e+07   0.000000e+00   7.615357e+09   1905s
   45823    1.0988955e+07   0.000000e+00   2.175065e+10   1910s
   47106    1.0989142e+07   0.000000e+00   8.874229e+09   1915s
   48389    1.0989342e+07   0.000000e+00   2.122289e+09   1920s
   49670    1.0989524e+07   0.000000e+00   5.948554e+09   1925s
   50951    1.0989702e+07   0.000000e+00   4.680032e+09   1930s
   52231    1.0989850e+07   0.000000e+00   5.966175e+09   1935s
   53517    1.0989994e+07   0.000000e+00   1.673810e+09   1940s
   54801    1.0990164e+07   0.000000e+00   3.978192e+09   1945s
   56083    1.0990345e+07   0.000000e+00   9.100848e+09   1950s
   57364    1.0990514e+07   0.000000e+00   1.115609e+10   1955s
   58777    1.0990678e+07   0.000000e+00   2.708593e+09   1960s
   60063    1.0990816e+07   0.000000e+00   7.259895e+09   1965s
   61482    1.0990968e+07   0.000000e+00   1.113524e+09   1970s
   62768    1.0991089e+07   0.000000e+00   8.785680e+09   1975s
   64056    1.0991276e+07   0.000000e+00   6.955167e+09   1980s
   65466    1.0991439e+07   0.000000e+00   4.814128e+09   1985s
   66750    1.0991546e+07   0.000000e+00   5.055899e+08   1990s
   68164    1.0991718e+07   0.000000e+00   4.241798e+09   1995s
   69447    1.0991862e+07   0.000000e+00   3.087839e+09   2000s
   70729    1.0991993e+07   0.000000e+00   1.966621e+09   2005s
   72138    1.0992146e+07   0.000000e+00   5.327085e+08   2010s
   73419    1.0992286e+07   0.000000e+00   9.621896e+09   2015s
   74701    1.0992437e+07   0.000000e+00   8.743286e+10   2020s
   76241    1.0992601e+07   0.000000e+00   3.938525e+09   2025s
   77528    1.0992735e+07   0.000000e+00   2.767216e+09   2030s
   78940    1.0992897e+07   0.000000e+00   6.701605e+09   2035s
   80223    1.0993040e+07   0.000000e+00   2.698669e+09   2040s
   81513    1.0993130e+07   0.000000e+00   1.205405e+09   2045s
   82793    1.0993235e+07   0.000000e+00   3.740495e+10   2050s
   84080    1.0993561e+07   0.000000e+00   2.964309e+10   2055s
   85361    1.0993693e+07   0.000000e+00   2.157043e+09   2060s
   86773    1.0993836e+07   0.000000e+00   4.159534e+09   2065s
   88055    1.0993935e+07   0.000000e+00   1.370620e+10   2070s
   89466    1.0994048e+07   0.000000e+00   8.438815e+08   2075s
   90750    1.0994161e+07   0.000000e+00   9.742752e+08   2080s
   92031    1.0994249e+07   0.000000e+00   3.983754e+09   2085s
   93440    1.0994351e+07   0.000000e+00   4.510149e+09   2090s
   94723    1.0994435e+07   0.000000e+00   1.209188e+09   2095s
   96003    1.0994552e+07   0.000000e+00   1.868182e+09   2100s
   97412    1.0994701e+07   0.000000e+00   4.247766e+09   2105s
   98825    1.0994848e+07   0.000000e+00   4.045221e+08   2110s
  100106    1.0994966e+07   0.000000e+00   3.175683e+09   2115s
  101519    1.0995068e+07   0.000000e+00   4.561700e+08   2120s
  102804    1.0995166e+07   0.000000e+00   1.432772e+08   2125s
  104213    1.0995331e+07   0.000000e+00   4.253181e+08   2130s
  105495    1.0995446e+07   0.000000e+00   2.050385e+11   2135s
  106910    1.0995633e+07   0.000000e+00   7.605178e+08   2140s
  108321    1.0995733e+07   0.000000e+00   4.405676e+09   2145s
  109602    1.0995830e+07   0.000000e+00   7.979582e+08   2150s
  111013    1.0995910e+07   0.000000e+00   1.754361e+09   2155s
  112296    1.0995985e+07   0.000000e+00   5.397041e+10   2160s
  113711    1.0996103e+07   0.000000e+00   6.642730e+09   2165s
  114997    1.0996247e+07   0.000000e+00   1.910540e+09   2170s
  116406    1.0996376e+07   0.000000e+00   6.855772e+09   2175s
  117690    1.0996487e+07   0.000000e+00   3.013801e+09   2180s
  119100    1.0996588e+07   0.000000e+00   1.418955e+10   2185s
  120386    1.0996720e+07   0.000000e+00   6.562684e+09   2190s
  121669    1.0996821e+07   0.000000e+00   2.480860e+08   2195s
  122953    1.0996925e+07   0.000000e+00   6.767178e+09   2200s
  124236    1.0997036e+07   0.000000e+00   1.733177e+09   2205s
  125644    1.0997128e+07   0.000000e+00   4.409012e+10   2210s
  127053    1.0997214e+07   0.000000e+00   3.250059e+08   2215s
  128464    1.0997293e+07   0.000000e+00   2.356019e+09   2220s
  129875    1.0997367e+07   0.000000e+00   8.833768e+08   2225s
  131288    1.0997449e+07   0.000000e+00   2.253362e+09   2230s
  132703    1.0997518e+07   0.000000e+00   6.749657e+09   2235s
  134244    1.0997602e+07   0.000000e+00   2.329708e+10   2241s
  135528    1.0997668e+07   0.000000e+00   1.230206e+09   2245s
  136945    1.0997750e+07   0.000000e+00   9.582551e+08   2250s
  138359    1.0997839e+07   0.000000e+00   1.909867e+09   2255s
  139773    1.0997898e+07   0.000000e+00   1.224352e+09   2260s
  141192    1.0997964e+07   0.000000e+00   4.424996e+09   2265s
  142610    1.0998054e+07   0.000000e+00   8.066765e+08   2270s
  144028    1.0998132e+07   0.000000e+00   2.666635e+08   2275s
  145441    1.0998215e+07   0.000000e+00   2.182248e+10   2280s
  146729    1.0998270e+07   0.000000e+00   2.771495e+08   2285s
  148025    1.0998338e+07   0.000000e+00   9.460714e+08   2290s
  149447    1.0998420e+07   0.000000e+00   5.323532e+08   2295s
  150864    1.0998491e+07   0.000000e+00   4.463120e+08   2300s
  152155    1.0998539e+07   0.000000e+00   1.892548e+08   2305s
  153572    1.0998594e+07   0.000000e+00   1.157912e+09   2310s
  154993    1.0998636e+07   0.000000e+00   7.258862e+09   2315s
  156554    1.0998723e+07   0.000000e+00   3.722429e+08   2320s
  157843    1.0998790e+07   0.000000e+00   8.585013e+08   2325s
  159126    1.0998853e+07   0.000000e+00   1.349275e+09   2330s
  160408    1.0998922e+07   0.000000e+00   4.188740e+10   2335s
  161826    1.0998988e+07   0.000000e+00   1.681028e+08   2340s
  163385    1.0999037e+07   0.000000e+00   7.790439e+07   2345s
  164810    1.0999076e+07   0.000000e+00   9.960813e+07   2350s
  166356    1.0999128e+07   0.000000e+00   5.065387e+07   2355s
  167644    1.0999153e+07   0.000000e+00   1.631250e+09   2360s
  169057    1.0999182e+07   0.000000e+00   7.120798e+07   2365s
  170473    1.0999217e+07   0.000000e+00   6.017849e+08   2370s
  172020    1.0999260e+07   0.000000e+00   7.025880e+09   2375s
  173311    1.0999320e+07   0.000000e+00   5.412214e+07   2380s
  174859    1.0999369e+07   0.000000e+00   3.210955e+08   2385s
  176271    1.0999406e+07   0.000000e+00   2.825600e+09   2390s
  177682    1.0999463e+07   0.000000e+00   9.982429e+07   2395s
  179094    1.0999530e+07   0.000000e+00   2.591280e+08   2400s
  180511    1.0999559e+07   0.000000e+00   8.921256e+07   2405s
  181814    1.0999589e+07   0.000000e+00   9.078393e+08   2410s
  183232    1.0999613e+07   0.000000e+00   4.282909e+07   2415s
  184667    1.0999638e+07   0.000000e+00   6.461159e+08   2420s
  185949    1.0999683e+07   0.000000e+00   8.953649e+09   2425s
  187500    1.0999715e+07   0.000000e+00   3.699429e+07   2430s
  188916    1.0999737e+07   0.000000e+00   6.341988e+07   2435s
  190204    1.0999766e+07   0.000000e+00   3.311771e+08   2440s
  191616    1.0999830e+07   0.000000e+00   6.375598e+08   2445s
  193033    1.0999857e+07   0.000000e+00   5.072340e+10   2450s
  194448    1.0999878e+07   0.000000e+00   8.745663e+07   2455s
  195992    1.0999898e+07   0.000000e+00   4.013825e+09   2460s
  197409    1.0999918e+07   0.000000e+00   3.174590e+08   2465s
  198838    1.0999935e+07   0.000000e+00   2.749653e+07   2470s
  200253    1.0999950e+07   0.000000e+00   2.605539e+08   2475s
  201670    1.0999963e+07   0.000000e+00   1.004619e+10   2480s
  203092    1.0999979e+07   0.000000e+00   2.459871e+08   2485s
  204643    1.1000013e+07   0.000000e+00   3.116712e+08   2490s
  206203    1.1000037e+07   0.000000e+00   2.706163e+07   2495s
  207619    1.1000056e+07   0.000000e+00   7.100461e+07   2500s
  209034    1.1000102e+07   0.000000e+00   2.674039e+07   2505s
  210450    1.1000116e+07   0.000000e+00   2.636731e+09   2510s
  211862    1.1000129e+07   0.000000e+00   1.670561e+09   2515s
  213411    1.1000148e+07   0.000000e+00   2.224836e+08   2520s
  214821    1.1000164e+07   0.000000e+00   1.394486e+08   2525s
  216103    1.1000178e+07   0.000000e+00   1.397811e+08   2530s
  217518    1.1000194e+07   0.000000e+00   1.719520e+08   2535s
  218929    1.1000209e+07   0.000000e+00   1.499125e+08   2540s
  220339    1.1000220e+07   0.000000e+00   6.320517e+07   2545s
  221750    1.1000227e+07   0.000000e+00   1.108274e+07   2550s
  223165    1.1000236e+07   0.000000e+00   4.791296e+06   2555s
  224706    1.1000243e+07   0.000000e+00   1.267197e+07   2560s
  226245    1.1000248e+07   0.000000e+00   7.476932e+06   2565s
  227785    1.1000263e+07   0.000000e+00   9.318807e+06   2570s
  229199    1.1000268e+07   0.000000e+00   1.385028e+06   2575s
  230740    1.1000270e+07   0.000000e+00   6.034642e+05   2580s
  232150    1.1000272e+07   0.000000e+00   1.991230e+07   2585s
  233563    1.1000276e+07   0.000000e+00   5.513989e+05   2590s
  234986    1.1000277e+07   0.000000e+00   6.064803e+05   2595s
  236408    1.1000278e+07   0.000000e+00   1.020817e+07   2600s
  237830    1.1000282e+07   0.000000e+00   1.759047e+05   2605s
  239260    1.1000283e+07   0.000000e+00   8.065662e+04   2610s
  240551    1.1000284e+07   0.000000e+00   2.684659e+06   2615s
  241709    1.1000284e+07   0.000000e+00   1.104858e+03   2620s
  241742    1.0988251e+07   0.000000e+00   0.000000e+00   2621s
Extra 202482 simplex iterations after uncrush
Concurrent spin time: 37.27s

Solved with barrier

Root relaxation: objective 1.098825e+07, 241742 iterations, 1875.11 seconds

    Nodes    |    Current Node    |     Objective Bounds      |     Work
 Expl Unexpl |  Obj  Depth IntInf | Incumbent    BestBd   Gap | It/Node Time

     0     0 1.0946e+07    0  319          - 1.0946e+07      -     - 2811s
     0     0 1.0036e+07    0  430          - 1.0036e+07      -     - 4420s
H    0     0                    -1279166.852 1.0036e+07   885%     - 4422s
     0     0 1.0033e+07    0  435 -1279166.9 1.0033e+07   884%     - 4650s
     0     0 1.0032e+07    0  435 -1279166.9 1.0032e+07   884%     - 4691s
     0     0 1.0032e+07    0  435 -1279166.9 1.0032e+07   884%     - 4691s
     0     0 9965842.31    0  425 -1279166.9 9965842.31   879%     - 5303s
H    0     0                    -1193756.221 9965842.31   935%     - 5304s
H    0     0                    -653848.2184 9965842.31  1624%     - 5339s
     0     0 9962950.02    0  429 -653848.22 9962950.02  1624%     - 5537s
     0     0 9958455.57    0  447 -653848.22 9958455.57  1623%     - 5795s
     0     0 9958245.55    0  452 -653848.22 9958245.55  1623%     - 5851s
     0     0 9958245.55    0  452 -653848.22 9958245.55  1623%     - 5852s
     0     0 9954821.25    0  450 -653848.22 9954821.25  1622%     - 6248s
     0     0 9949451.93    0  434 -653848.22 9949451.93  1622%     - 6512s
     0     0 9948910.15    0  452 -653848.22 9948910.15  1622%     - 6655s
     0     0 9948272.80    0  460 -653848.22 9948272.80  1621%     - 6727s
     0     0 9948218.68    0  460 -653848.22 9948218.68  1621%     - 6729s
     0     0 9939681.64    0  497 -653848.22 9939681.64  1620%     - 7302s
     0     0 9939038.75    0  485 -653848.22 9939038.75  1620%     - 7368s
     0     0 9936115.68    0  492 -653848.22 9936115.68  1620%     - 7718s
     0     0 9922302.08    0  478 -653848.22 9922302.08  1618%     - 8302s
     0     0 9922254.48    0  467 -653848.22 9922254.48  1618%     - 8362s
     0     0 9921733.53    0  490 -653848.22 9921733.53  1617%     - 8498s
     0     0 9921715.17    0  491 -653848.22 9921715.17  1617%     - 8508s
     0     0 9920537.31    0  509 -653848.22 9920537.31  1617%     - 8689s
     0     0 9920486.18    0  509 -653848.22 9920486.18  1617%     - 8720s
     0     0 9920263.60    0  516 -653848.22 9920263.60  1617%     - 8818s
     0     0 9920240.07    0  524 -653848.22 9920240.07  1617%     - 8841s
     0     0 9917744.23    0  504 -653848.22 9917744.23  1617%     - 9261s
     0     0 9917413.43    0  511 -653848.22 9917413.43  1617%     - 9402s
     0     0 9917008.06    0  509 -653848.22 9917008.06  1617%     - 9483s
     0     0 9917008.06    0  510 -653848.22 9917008.06  1617%     - 9484s
     0     0 9916949.20    0  502 -653848.22 9916949.20  1617%     - 9588s
     0     0 9916934.09    0  504 -653848.22 9916934.09  1617%     - 9597s
     0     0 9916880.74    0  500 -653848.22 9916880.74  1617%     - 9736s
     0     0 9916812.09    0  504 -653848.22 9916812.09  1617%     - 9842s
     0     0 9916589.36    0  491 -653848.22 9916589.36  1617%     - 9941s
     0     0 9916589.36    0  491 -653848.22 9916589.36  1617%     - 10316s
H    0     0                    1401525.4104 9916589.36   608%     - 13677s
     0     2 9916589.36    0  490 1401525.41 9916589.36   608%     - 13686s
     1     4 9817271.21    1  466 1401525.41 9916580.39   608% 91609 15654s
     3     8 9754113.19    2  464 1401525.41 9866229.94   604% 93246 18775s
     7    12 9750901.20    3  453 1401525.41 9863568.47   604% 88691 19146s
    11    16 9745570.69    4  447 1401525.41 9863567.58   604% 62262 21239s
    15    17 9740706.79    5  445 1401525.41 9863567.58   604% 57407 21740s
    19    20 9640835.66    6  416 1401525.41 9863567.58   604% 54020 23377s
    23    24 9640619.82    7  419 1401525.41 9863567.58   604% 51505 24980s
    28    28 9622369.83    9  416 1401525.41 9863567.58   604% 48685 26571s
H   34    34                    1401525.4152 9863567.58   604% 41763 26571s
    35    37 9618276.46   11  424 1401525.42 9863567.58   604% 44961 27119s
    41    42 9596480.98   13  432 1401525.42 9863567.58   604% 40752 28019s
    45    47 9584947.50   14  449 1401525.42 9863567.58   604% 39954 31355s
    49    50 9576767.44   15  441 1401525.42 9863567.58   604% 43541 33525s
    56    57 9562776.96   18  436 1401525.42 9863567.58   604% 42934 36519s
    62    61 9552580.48   19  433 1401525.42 9863567.58   604% 42847 37357s
    69    70 9526972.35   22  487 1401525.42 9863567.58   604% 40462 39218s
    78    79 9509167.92   24  459 1401525.42 9863567.58   604% 38395 48382s
    83    84 9490877.34   25  467 1401525.42 9863567.58   604% 42397 49373s
    91    93 9476289.78   26  443 1401525.42 9863567.58   604% 40178 52605s
   102   102 9473650.09   27  440 1401525.42 9863567.58   604% 38721 53790s
   114   116 9457252.29   29  444 1401525.42 9863567.58   604% 35895 56496s
   126   127 9415655.92   32  474 1401525.42 9863567.58   604% 34937 58061s
   138   138 9380018.57   36  446 1401525.42 9863567.58   604% 33320 59231s
