	Freetype 2.4.12 environment established
		library to render fonts
	Python 3.6.0 environment established
	Gurobi 8.1.0 environment established
Instance LSFRP: LSFDRP_3_2_1_1_fr.p
Instance LSFDP: LSFDRP_3_2_1_1_fd_49.p

*****************************************************************************************************************************
*** Solve LSFDRP_3_2_1_1_fd_49 with Gurobi
***
*** Graph info
*** |S|: 24
*** |S^E|: 0
*** |S^C|: 6
*** |V|: 431
*** |A|: 14925
*** |A^i|: 14778
*** |A^f|: 147
*** |M|: 348
*** |E|: 28

Changed value of parameter TimeLimit to 86400.0
   Prev: 1e+100  Min: 0.0  Max: 1e+100  Default: 1e+100
Changed value of parameter Threads to 4
   Prev: 0  Min: 0  Max: 1024  Default: 0
Optimize a model with 203293 rows, 5586376 columns and 20275474 nonzeros
Variable types: 5228140 continuous, 358236 integer (358236 binary)
Coefficient statistics:
  Matrix range     [1e+00, 5e+03]
  Objective range  [2e+00, 4e+07]
  Bounds range     [1e+00, 1e+00]
  RHS range        [1e+00, 5e+03]
Presolve removed 31003 rows and 1191981 columns (presolve time = 5s) ...
Presolve removed 83178 rows and 3393705 columns (presolve time = 10s) ...
Presolve removed 90596 rows and 3609084 columns (presolve time = 15s) ...
Presolve removed 96238 rows and 3642624 columns (presolve time = 21s) ...
Presolve removed 98593 rows and 3668174 columns (presolve time = 25s) ...
Presolve removed 100417 rows and 3719167 columns (presolve time = 30s) ...
Presolve removed 101377 rows and 3720254 columns (presolve time = 35s) ...
Presolve removed 101383 rows and 3720941 columns (presolve time = 40s) ...
Warning: Failed to open log file 'gurobi.log'
Presolve removed 101410 rows and 3720941 columns (presolve time = 49s) ...
Presolve removed 101410 rows and 3926308 columns (presolve time = 654s) ...
Presolve removed 110835 rows and 3926366 columns (presolve time = 655s) ...
Presolve removed 153772 rows and 5124677 columns (presolve time = 661s) ...
Presolve removed 154142 rows and 5128047 columns (presolve time = 665s) ...
Presolve removed 155244 rows and 5139166 columns (presolve time = 674s) ...
Presolve removed 155246 rows and 5140096 columns (presolve time = 737s) ...
Presolve removed 155219 rows and 5140069 columns
Presolve time: 737.42s
Presolved: 48074 rows, 446307 columns, 2147356 nonzeros
Variable types: 287213 continuous, 159094 integer (158571 binary)

Deterministic concurrent LP optimizer: primal simplex, dual simplex, and barrier
Showing barrier log only...

Presolve removed 369 rows and 3716 columns
Presolved: 47705 rows, 442591 columns, 2142469 nonzeros

Root barrier log...

Ordering time: 0.00s

Barrier statistics:
 Dense cols : 22
 AA' NZ     : 2.575e+06
 Factor NZ  : 5.042e+07 (roughly 600 MBytes of memory)
 Factor Ops : 1.877e+11 (roughly 10 seconds per iteration)
 Threads    : 1

                  Objective                Residual
Iter       Primal          Dual         Primal    Dual     Compl     Time
   0  -2.54674469e+15  3.37231838e+15  1.82e+08 3.68e+06  2.10e+12   767s
   1  -1.53366885e+15  3.35246094e+15  1.09e+08 1.23e+07  1.27e+12   780s
   2  -1.08226255e+15  3.31856566e+15  7.70e+07 7.59e+06  9.00e+11   794s
   3  -5.13527232e+14  3.26510639e+15  3.65e+07 3.68e+06  4.35e+11   809s
   4  -2.31302641e+14  3.11563607e+15  1.65e+07 1.54e+06  1.99e+11   822s
   5  -9.19737287e+13  2.87623762e+15  6.54e+06 6.50e+05  8.10e+10   835s
   6  -2.89799809e+13  2.40701236e+15  2.06e+06 1.95e+05  2.69e+10   849s
   7  -1.06601625e+13  1.80468056e+15  7.55e+05 5.44e+04  1.05e+10   862s
   8  -2.08580050e+12  7.70757309e+14  1.47e+05 3.17e-03  2.37e+09   876s
   9  -8.77048674e+11  1.90567368e+14  6.18e+04 1.98e-03  7.68e+08   889s
  10  -2.94158089e+11  6.16982208e+13  2.06e+04 3.57e-04  2.47e+08   902s
  11  -7.96639174e+10  2.53019480e+13  5.45e+03 1.22e-04  7.53e+07   916s
  12  -4.90469269e+10  1.40895885e+13  3.35e+03 6.50e-05  4.48e+07   929s
  13  -1.82013573e+10  6.04022588e+12  1.24e+03 2.51e-05  1.75e+07   943s
  14  -7.11210449e+09  3.28648035e+12  4.82e+02 1.33e-05  7.80e+06   956s
  15  -3.30700629e+09  1.91062820e+12  2.21e+02 7.34e-06  4.03e+06   969s
  16  -1.32434175e+09  1.21548504e+12  8.46e+01 4.56e-06  2.08e+06   982s
  17  -5.65660947e+08  6.33394855e+11  3.30e+01 2.24e-06  9.84e+05   996s
  18  -3.01091618e+08  3.11579091e+11  1.56e+01 1.05e-06  4.75e+05  1010s
  19  -1.66936021e+08  2.27604279e+11  7.28e+00 7.59e-07  3.14e+05  1023s
  20  -1.25721261e+08  1.68239710e+11  4.78e+00 5.66e-07  2.27e+05  1036s
  21  -1.03906503e+08  1.36174749e+11  3.54e+00 4.59e-07  1.81e+05  1049s
  22  -8.45594650e+07  1.04137590e+11  2.50e+00 3.51e-07  1.36e+05  1062s
  23  -6.46674070e+07  8.01473448e+10  1.55e+00 2.80e-07  1.02e+05  1075s
  24  -5.35163815e+07  5.96018946e+10  1.04e+00 2.65e-07  7.47e+04  1089s
  25  -4.93988981e+07  5.45391440e+10  8.60e-01 3.03e-07  6.76e+04  1104s
  26  -4.20758828e+07  3.88315975e+10  5.50e-01 2.84e-07  4.74e+04  1117s
  27  -3.59114666e+07  2.51130179e+10  3.21e-01 2.72e-07  3.02e+04  1130s
  28  -3.26604264e+07  1.78346845e+10  2.12e-01 5.15e-07  2.13e+04  1143s
  29  -3.07849632e+07  1.07769464e+10  1.64e-01 3.94e-07  1.30e+04  1157s
  30  -2.78844726e+07  7.22908377e+09  1.05e-01 4.31e-07  8.67e+03  1170s
  31  -2.49621431e+07  4.84291995e+09  6.41e-02 3.98e-07  5.77e+03  1183s
  32  -2.01429681e+07  3.35475103e+09  2.51e-02 3.19e-07  3.90e+03  1196s
  33  -1.52869704e+07  2.31399973e+09  1.79e-02 3.68e-07  2.69e+03  1210s
  34  -1.33401345e+07  1.55736519e+09  1.53e-02 4.26e-07  1.84e+03  1222s
  35  -1.00342845e+07  8.86614420e+08  6.01e-03 4.83e-07  1.03e+03  1236s
  36  -6.07981985e+06  4.26458843e+08  1.82e-03 5.50e-07  4.94e+02  1250s
  37  -2.87175210e+06  2.40759993e+08  6.94e-04 6.48e-07  2.78e+02  1263s
  38  -3.05503846e+05  1.38349820e+08  4.26e-04 7.35e-07  1.58e+02  1277s
  39   1.24134395e+06  1.07497140e+08  3.25e-04 7.64e-07  1.22e+02  1290s
  40   2.97578373e+06  7.43107938e+07  1.97e-04 8.96e-07  8.15e+01  1304s
  41   4.72370772e+06  4.77491031e+07  1.04e-04 7.58e-07  4.90e+01  1318s
  42   5.61746823e+06  3.65527528e+07  7.33e-05 1.19e-06  3.53e+01  1333s
  43   6.24838533e+06  3.05820131e+07  5.64e-05 1.08e-06  2.78e+01  1346s
  44   6.83324425e+06  2.67491971e+07  4.31e-05 1.19e-06  2.27e+01  1360s
  45   7.28061659e+06  2.36656664e+07  3.68e-05 1.08e-06  1.87e+01  1374s
  46   7.49798848e+06  2.13786789e+07  3.35e-05 1.53e-06  1.59e+01  1387s
  47   7.69047288e+06  1.97072123e+07  2.96e-05 1.14e-06  1.37e+01  1400s
  48   8.04660152e+06  1.74353346e+07  2.41e-05 1.64e-06  1.07e+01  1414s
  49   8.33887402e+06  1.64149293e+07  2.03e-05 9.23e-07  9.24e+00  1427s
  50   8.56549689e+06  1.53951527e+07  1.77e-05 1.06e-06  7.83e+00  1441s
  51   9.10977482e+06  1.47563730e+07  1.22e-05 1.04e-06  6.44e+00  1454s
  52   9.33005018e+06  1.40407375e+07  1.06e-05 1.30e-06  5.39e+00  1467s
  53   9.54805149e+06  1.33677679e+07  8.65e-06 1.30e-06  4.37e+00  1481s
  54   9.88682527e+06  1.28274703e+07  6.18e-06 1.30e-06  3.36e+00  1495s
  55   1.00585953e+07  1.24789599e+07  5.09e-06 1.30e-06  2.77e+00  1508s
  56   1.01717060e+07  1.20015044e+07  4.37e-06 1.08e-06  2.10e+00  1521s
  57   1.03711582e+07  1.17219288e+07  6.18e-06 1.23e-06  1.55e+00  1534s
  58   1.04788067e+07  1.14264346e+07  4.82e-06 1.57e-06  1.09e+00  1547s
  59   1.05894128e+07  1.12569862e+07  3.45e-06 9.99e-07  7.69e-01  1561s
  60   1.06939341e+07  1.11292382e+07  2.17e-06 1.10e-06  5.01e-01  1574s
  61   1.07520643e+07  1.10044322e+07  1.47e-06 1.57e-06  2.92e-01  1588s
  62   1.08029101e+07  1.09306874e+07  8.54e-07 2.76e-04  1.50e-01  1601s
  63   1.08342448e+07  1.09112367e+07  4.78e-07 2.30e-04  8.99e-02  1614s
  64   1.08537268e+07  1.08837159e+07  4.76e-07 6.19e-04  3.60e-02  1627s
  65   1.08717336e+07  1.08764379e+07  8.09e-08 2.52e-04  5.63e-03  1640s
  66   1.08733453e+07  1.08751014e+07  6.18e-08 2.31e-04  2.15e-03  1653s
  67   1.08744585e+07  1.08748647e+07  1.61e-08 2.00e-04  5.04e-04  1665s
  68   1.08747865e+07  1.08748532e+07  1.17e-07 2.17e-04  8.29e-05  1678s
  69   1.08748351e+07  1.08748516e+07  8.28e-08 2.38e-04  2.06e-05  1692s
  70   1.08748423e+07  1.08748515e+07  1.44e-07 2.86e-04  1.08e-05  1705s
  71   1.08748450e+07  1.08748514e+07  3.29e-07 3.22e-04  7.67e-06  1717s
  72   1.08748464e+07  1.08748514e+07  2.64e-07 3.65e-04  6.28e-06  1730s
  73   1.08748466e+07  1.08748513e+07  4.03e-07 4.05e-04  5.95e-06  1743s
  74   1.08748480e+07  1.08748512e+07  3.00e-07 2.62e-04  4.16e-06  1756s
  75   1.08748496e+07  1.08748512e+07  3.34e-07 2.68e-04  1.84e-06  1768s
  76   1.08748514e+07  1.08748512e+07  2.03e-05 3.82e-04  7.57e-07  1781s
  77   1.08748511e+07  1.08748512e+07  5.18e-06 2.89e-04  2.00e-07  1794s
  78   1.08748511e+07  1.08748512e+07  5.18e-06 4.17e-04  2.00e-07  1807s

Barrier solved model in 78 iterations and 1806.54 seconds
Optimal objective 1.08748511e+07


Root crossover log...

   44776 DPushes remaining with DInf 1.2057026e-06              1807s
       5 DPushes remaining with DInf 2.4514087e-04              1810s

     119 PPushes remaining with PInf 2.9056937e-04              1810s
       0 PPushes remaining with PInf 0.0000000e+00              1810s

  Push phase complete: Pinf 0.0000000e+00, Dinf 5.2540838e+02   1810s


Root simplex log...

Iteration    Objective       Primal Inf.    Dual Inf.      Time
   39182    1.0874851e+07   0.000000e+00   5.254084e+02   1810s
   39291    1.0874851e+07   0.000000e+00   0.000000e+00   1811s
   40576    1.0874864e+07   0.000000e+00   3.951067e+09   1815s
   41986    1.0874984e+07   0.000000e+00   8.545314e+10   1820s
   43266    1.0875147e+07   0.000000e+00   8.819595e+09   1825s
   44547    1.0875294e+07   0.000000e+00   3.589048e+09   1830s
   45827    1.0875506e+07   0.000000e+00   8.008161e+09   1835s
   47108    1.0875689e+07   0.000000e+00   2.943043e+10   1840s
   48391    1.0875838e+07   0.000000e+00   1.335934e+10   1845s
   49674    1.0875985e+07   0.000000e+00   3.462917e+09   1850s
   50955    1.0876178e+07   0.000000e+00   5.041459e+09   1855s
   52235    1.0876352e+07   0.000000e+00   1.412427e+10   1860s
   53525    1.0876508e+07   0.000000e+00   5.766695e+09   1865s
   54933    1.0876683e+07   0.000000e+00   3.442083e+09   1870s
   56218    1.0876826e+07   0.000000e+00   6.007789e+09   1875s
   57498    1.0876948e+07   0.000000e+00   2.424031e+09   1880s
   58908    1.0877099e+07   0.000000e+00   1.776159e+11   1885s
   60189    1.0877234e+07   0.000000e+00   5.011712e+09   1890s
   61471    1.0877378e+07   0.000000e+00   2.609895e+10   1895s
   62752    1.0877531e+07   0.000000e+00   2.636534e+09   1900s
   64161    1.0877709e+07   0.000000e+00   1.635999e+09   1906s
   65442    1.0877850e+07   0.000000e+00   6.151662e+09   1910s
   66852    1.0878004e+07   0.000000e+00   2.495611e+09   1915s
   68261    1.0878180e+07   0.000000e+00   7.470585e+09   1920s
   69542    1.0878328e+07   0.000000e+00   1.854669e+10   1925s
   70822    1.0878439e+07   0.000000e+00   6.225614e+08   1930s
   72232    1.0878569e+07   0.000000e+00   2.727675e+09   1935s
   73656    1.0878781e+07   0.000000e+00   2.213838e+09   1940s
   74941    1.0878907e+07   0.000000e+00   5.057810e+09   1945s
   76223    1.0879042e+07   0.000000e+00   3.660553e+09   1950s
   77504    1.0879141e+07   0.000000e+00   5.117498e+09   1955s
   78784    1.0879272e+07   0.000000e+00   1.128280e+09   1960s
   80196    1.0879409e+07   0.000000e+00   1.309373e+09   1965s
   81485    1.0879537e+07   0.000000e+00   7.765087e+10   1970s
   82769    1.0879652e+07   0.000000e+00   3.869309e+09   1975s
   84185    1.0879797e+07   0.000000e+00   3.494130e+09   1980s
   85468    1.0879931e+07   0.000000e+00   6.859780e+08   1985s
   86752    1.0880125e+07   0.000000e+00   8.230028e+08   1990s
   88162    1.0880271e+07   0.000000e+00   3.260255e+11   1995s
   89446    1.0880415e+07   0.000000e+00   1.719853e+09   2000s
   90857    1.0880543e+07   0.000000e+00   6.438595e+08   2005s
   92150    1.0880653e+07   0.000000e+00   2.421310e+11   2010s
   93436    1.0880751e+07   0.000000e+00   2.341719e+09   2015s
   94721    1.0880831e+07   0.000000e+00   2.270754e+09   2020s
   96010    1.0880923e+07   0.000000e+00   1.424642e+09   2025s
   97419    1.0881050e+07   0.000000e+00   1.979713e+09   2030s
   98837    1.0881174e+07   0.000000e+00   6.138195e+09   2035s
  100122    1.0881311e+07   0.000000e+00   2.698497e+09   2040s
  101404    1.0881459e+07   0.000000e+00   2.183989e+09   2045s
  102688    1.0881548e+07   0.000000e+00   5.345925e+10   2050s
  103972    1.0881658e+07   0.000000e+00   1.856009e+09   2055s
  105385    1.0881866e+07   0.000000e+00   2.266168e+10   2060s
  106801    1.0881995e+07   0.000000e+00   2.151534e+09   2065s
  108210    1.0882138e+07   0.000000e+00   1.030914e+10   2070s
  109492    1.0882267e+07   0.000000e+00   9.644880e+09   2075s
  110903    1.0882392e+07   0.000000e+00   1.225479e+09   2080s
  112188    1.0882476e+07   0.000000e+00   6.078512e+09   2085s
  113473    1.0882567e+07   0.000000e+00   1.936611e+09   2090s
  114902    1.0882855e+07   0.000000e+00   4.918590e+09   2095s
  116186    1.0882977e+07   0.000000e+00   1.958322e+09   2100s
  117600    1.0883067e+07   0.000000e+00   6.891675e+08   2105s
  118884    1.0883166e+07   0.000000e+00   1.210643e+10   2110s
  120174    1.0883282e+07   0.000000e+00   1.105844e+09   2115s
  121586    1.0883401e+07   0.000000e+00   2.081275e+09   2120s
  122875    1.0883565e+07   0.000000e+00   1.700718e+10   2125s
  124291    1.0883746e+07   0.000000e+00   2.869230e+10   2130s
  125704    1.0883961e+07   0.000000e+00   3.758077e+09   2135s
  127117    1.0884046e+07   0.000000e+00   4.496850e+09   2140s
  128404    1.0884139e+07   0.000000e+00   7.351479e+08   2145s
  129821    1.0884221e+07   0.000000e+00   4.015610e+09   2150s
  131238    1.0884307e+07   0.000000e+00   1.066029e+09   2155s
  132521    1.0884380e+07   0.000000e+00   7.261076e+08   2160s
  133936    1.0884454e+07   0.000000e+00   8.081242e+08   2165s
  135216    1.0884517e+07   0.000000e+00   1.017678e+11   2170s
  136756    1.0884637e+07   0.000000e+00   3.754693e+08   2175s
  138041    1.0884717e+07   0.000000e+00   3.183396e+09   2180s
  139328    1.0884790e+07   0.000000e+00   4.686226e+10   2185s
  140873    1.0884884e+07   0.000000e+00   1.419348e+09   2191s
  142164    1.0884939e+07   0.000000e+00   5.830887e+08   2195s
  143449    1.0884995e+07   0.000000e+00   4.531934e+09   2200s
  144864    1.0885065e+07   0.000000e+00   3.207957e+08   2205s
  146407    1.0885274e+07   0.000000e+00   2.934104e+09   2210s
  147691    1.0885332e+07   0.000000e+00   1.688651e+09   2216s
  148977    1.0885392e+07   0.000000e+00   3.256838e+09   2220s
  150274    1.0885445e+07   0.000000e+00   3.083621e+08   2225s
  151693    1.0885514e+07   0.000000e+00   4.777030e+08   2230s
  152988    1.0885571e+07   0.000000e+00   1.272554e+09   2235s
  154400    1.0885666e+07   0.000000e+00   2.135025e+11   2240s
  155816    1.0885741e+07   0.000000e+00   1.018055e+09   2245s
  157104    1.0885798e+07   0.000000e+00   1.377605e+09   2250s
  158395    1.0885848e+07   0.000000e+00   2.356117e+09   2255s
  159680    1.0885913e+07   0.000000e+00   6.154689e+08   2260s
  160968    1.0885965e+07   0.000000e+00   6.504276e+08   2265s
  162384    1.0886065e+07   0.000000e+00   1.069288e+10   2270s
  163792    1.0886158e+07   0.000000e+00   1.242537e+09   2275s
  165080    1.0886208e+07   0.000000e+00   7.881896e+08   2280s
  166368    1.0886279e+07   0.000000e+00   4.500782e+08   2285s
  167657    1.0886352e+07   0.000000e+00   4.086345e+09   2290s
  169079    1.0886419e+07   0.000000e+00   1.370003e+09   2295s
  170365    1.0886488e+07   0.000000e+00   4.127567e+09   2300s
  171776    1.0886539e+07   0.000000e+00   8.065613e+08   2305s
  173190    1.0886591e+07   0.000000e+00   1.604948e+08   2310s
  174609    1.0886641e+07   0.000000e+00   3.180917e+10   2315s
  175900    1.0886695e+07   0.000000e+00   3.384592e+09   2320s
  177316    1.0886746e+07   0.000000e+00   1.487210e+08   2325s
  178599    1.0886780e+07   0.000000e+00   7.237109e+07   2330s
  179890    1.0886833e+07   0.000000e+00   1.850542e+09   2335s
  181323    1.0886885e+07   0.000000e+00   1.743734e+09   2341s
  182484    1.0886927e+07   0.000000e+00   7.050241e+07   2345s
  183773    1.0886972e+07   0.000000e+00   1.386370e+09   2350s
  185064    1.0887008e+07   0.000000e+00   3.201826e+08   2355s
  186350    1.0887057e+07   0.000000e+00   1.698371e+08   2360s
  187642    1.0887098e+07   0.000000e+00   1.119410e+09   2365s
  188930    1.0887136e+07   0.000000e+00   1.092870e+09   2370s
  190216    1.0887209e+07   0.000000e+00   1.091079e+09   2375s
  191371    1.0887283e+07   0.000000e+00   8.672084e+08   2380s
  192660    1.0887313e+07   0.000000e+00   1.359965e+08   2385s
  193950    1.0887346e+07   0.000000e+00   3.158386e+08   2390s
  195235    1.0887376e+07   0.000000e+00   1.779863e+09   2395s
  196520    1.0887413e+07   0.000000e+00   7.312339e+07   2400s
  197934    1.0887462e+07   0.000000e+00   2.432255e+08   2405s
  199226    1.0887487e+07   0.000000e+00   4.603952e+09   2410s
  200523    1.0887514e+07   0.000000e+00   4.771649e+09   2415s
  201813    1.0887547e+07   0.000000e+00   2.979347e+08   2420s
  203234    1.0887569e+07   0.000000e+00   3.569157e+08   2425s
  204524    1.0887600e+07   0.000000e+00   3.439718e+07   2430s
  205951    1.0887627e+07   0.000000e+00   5.603881e+07   2435s
  207251    1.0887650e+07   0.000000e+00   1.114704e+10   2440s
  208539    1.0887674e+07   0.000000e+00   1.295233e+08   2445s
  209834    1.0887699e+07   0.000000e+00   1.538066e+10   2450s
  211137    1.0887727e+07   0.000000e+00   3.878828e+08   2455s
  212431    1.0887751e+07   0.000000e+00   2.845508e+07   2460s
  213730    1.0887771e+07   0.000000e+00   8.119088e+07   2465s
  215021    1.0887792e+07   0.000000e+00   2.202201e+07   2470s
  216435    1.0887816e+07   0.000000e+00   5.630959e+09   2475s
  217731    1.0887843e+07   0.000000e+00   2.326429e+08   2480s
  219157    1.0887865e+07   0.000000e+00   7.673597e+07   2485s
  220444    1.0887886e+07   0.000000e+00   3.223218e+08   2490s
  221733    1.0887910e+07   0.000000e+00   1.040433e+08   2495s
  223154    1.0887928e+07   0.000000e+00   3.194900e+07   2500s
  224580    1.0887944e+07   0.000000e+00   4.153642e+07   2505s
  226252    1.0887956e+07   0.000000e+00   8.137142e+08   2510s
  227671    1.0887974e+07   0.000000e+00   4.346092e+07   2515s
  229092    1.0887987e+07   0.000000e+00   1.644528e+07   2520s
  230512    1.0888003e+07   0.000000e+00   1.297543e+07   2525s
  231929    1.0888021e+07   0.000000e+00   3.467013e+07   2530s
  233468    1.0888044e+07   0.000000e+00   7.413098e+06   2535s
  234890    1.0888060e+07   0.000000e+00   2.588502e+08   2540s
  236178    1.0888070e+07   0.000000e+00   7.702223e+07   2545s
  237743    1.0888078e+07   0.000000e+00   2.480812e+07   2550s
  239294    1.0888104e+07   0.000000e+00   1.451070e+08   2555s
  240726    1.0888110e+07   0.000000e+00   3.513069e+06   2560s
  242020    1.0888115e+07   0.000000e+00   6.237140e+06   2565s
  243580    1.0888120e+07   0.000000e+00   1.005736e+06   2570s
  245011    1.0888127e+07   0.000000e+00   2.264620e+07   2575s
  246436    1.0888137e+07   0.000000e+00   1.037307e+06   2580s
  247875    1.0888139e+07   0.000000e+00   1.339135e+07   2585s
  249430    1.0888141e+07   0.000000e+00   4.749497e+05   2590s
  250847    1.0888142e+07   0.000000e+00   1.276851e+06   2595s
  252269    1.0888143e+07   0.000000e+00   5.135483e+05   2600s
  253636    1.0888144e+07   0.000000e+00   1.388865e+06   2605s
  255059    1.0888145e+07   0.000000e+00   1.052939e+05   2610s
  256363    1.0888145e+07   0.000000e+00   2.633402e+04   2615s
  257663    1.0888145e+07   0.000000e+00   1.555501e+04   2620s
  258426    1.0874855e+07   5.640100e+00   0.000000e+00   2626s
  258786    1.0874851e+07   6.814396e-02   0.000000e+00   2631s
  258848    1.0874851e+07   0.000000e+00   0.000000e+00   2632s
Extra 219557 simplex iterations after uncrush
Concurrent spin time: 36.82s

Solved with barrier

Root relaxation: objective 1.087485e+07, 258848 iterations, 1927.78 seconds

    Nodes    |    Current Node    |     Objective Bounds      |     Work
 Expl Unexpl |  Obj  Depth IntInf | Incumbent    BestBd   Gap | It/Node Time

     0     0 1.0832e+07    0  291          - 1.0832e+07      -     - 2917s
     0     0 9925137.84    0  440          - 9925137.84      -     - 4283s
H    0     0                    -1677371.552 9925137.84   692%     - 4284s
     0     0 9923707.25    0  429 -1677371.6 9923707.25   692%     - 4376s
     0     0 9923707.25    0  429 -1677371.6 9923707.25   692%     - 4377s
     0     0 9850523.97    0  449 -1677371.6 9850523.97   687%     - 4935s
H    0     0                    -1588177.717 9850523.97   720%     - 4936s
H    0     0                    -1053493.714 9850523.97  1035%     - 4984s
     0     0 9846173.85    0  463 -1053493.7 9846173.85  1035%     - 5224s
     0     0 9841764.40    0  451 -1053493.7 9841764.40  1034%     - 5404s
     0     0 9841496.90    0  451 -1053493.7 9841496.90  1034%     - 5438s
     0     0 9841496.90    0  453 -1053493.7 9841496.90  1034%     - 5439s
     0     0 9838857.68    0  454 -1053493.7 9838857.68  1034%     - 5723s
H    0     0                    -833416.2487 9838857.68  1281%     - 5724s
     0     0 9838820.22    0  459 -833416.25 9838820.22  1281%     - 5765s
     0     0 9830610.65    0  453 -833416.25 9830610.65  1280%     - 6254s
     0     0 9828590.96    0  450 -833416.25 9828590.96  1279%     - 6313s
     0     0 9828590.96    0  451 -833416.25 9828590.96  1279%     - 6316s
     0     0 9828002.54    0  462 -833416.25 9828002.54  1279%     - 6388s
     0     0 9824409.27    0  455 -833416.25 9824409.27  1279%     - 6683s
     0     0 9824022.30    0  454 -833416.25 9824022.30  1279%     - 6728s
     0     0 9824000.86    0  454 -833416.25 9824000.86  1279%     - 6743s
     0     0 9822344.32    0  457 -833416.25 9822344.32  1279%     - 6945s
H    0     0                    -733395.8608 9822344.32  1439%     - 6946s
     0     0 9822270.77    0  462 -733395.86 9822270.77  1439%     - 6971s
     0     0 9821592.24    0  464 -733395.86 9821592.24  1439%     - 7182s
     0     0 9821406.61    0  459 -733395.86 9821406.61  1439%     - 7239s
     0     0 9821406.61    0  454 -733395.86 9821406.61  1439%     - 7241s
     0     0 9821331.65    0  464 -733395.86 9821331.65  1439%     - 7330s
     0     0 9821304.09    0  468 -733395.86 9821304.09  1439%     - 7337s
     0     0 9820882.90    0  475 -733395.86 9820882.90  1439%     - 7528s
     0     0 9820868.83    0  475 -733395.86 9820868.83  1439%     - 7553s
     0     0 9820592.71    0  470 -733395.86 9820592.71  1439%     - 7840s
     0     0 9820592.71    0  466 -733395.86 9820592.71  1439%     - 8141s
H    0     0                    -225133.6155 9820592.71  4462%     - 10941s
     0     2 9820592.71    0  466 -225133.62 9820592.71  4462%     - 10946s
     1     4 9729647.45    1  468 -225133.62 9820590.96  4462% 245372 14828s
     3     8 9664093.59    2  474 -225133.62 9771038.25  4440% 112006 16490s
     7    12 9656578.46    3  450 -225133.62 9768467.16  4439% 81021 18109s
    11    16 9654770.51    4  454 -225133.62 9768437.51  4439% 66737 18835s
    15    18 9654660.81    5  456 -225133.62 9759610.27  4435% 53932 20688s
    19    19 9651938.40    6  473 -225133.62 9737721.69  4425% 54097 22030s
    23    26 9645362.77    7  484 -225133.62 9710280.42  4413% 52369 25168s
    29    27 9531677.74    9  433 -225133.62 9710238.97  4413% 54589 26340s
    35    37 9524415.53   11  439 -225133.62 9710238.97  4413% 49084 28082s
    41    43 9484965.89   13  447 -225133.62 9710238.97  4413% 47377 31161s
    47    46 9452851.97   14  449 -225133.62 9710238.97  4413% 47721 32003s
    52    54 9443452.99   15  487 -225133.62 9710238.97  4413% 45224 34478s
    59    59 9438947.00   16  448 -225133.62 9710238.97  4413% 44543 35389s
    66    67 9425279.78   17  469 -225133.62 9710238.97  4413% 41664 36214s
    71    74 9424916.80   18  461 -225133.62 9710238.97  4413% 39974 40318s
    79    78 9396561.75   21  458 -225133.62 9710238.97  4413% 41885 45765s
    87    89 9035834.36   22  286 -225133.62 9710238.97  4413% 42076 48775s
    94    94 9336797.39   23  491 -225133.62 9710238.97  4413% 41233 50207s
   102   103 9321133.90   25  491 -225133.62 9710238.97  4413% 40069 52091s
   109   112 9311622.56   28  492 -225133.62 9710238.97  4413% 39678 57471s
   116   119 8781138.68   29  268 -225133.62 9710238.97  4413% 42495 60933s
   120   119 9275296.78   30  480 -225133.62 9710238.97  4413% 44003 65753s
   130   130 9269432.91   33  457 -225133.62 9710238.97  4413% 43526 71629s
   137   139 9260746.07   34  485 -225133.62 9710238.97  4413% 45350 77736s
H  139   140                    -165094.0303 9710238.97  5982% 45056 77736s
   143   143 9248802.21   36  465 -165094.03 9710238.97  5982% 45657 80955s
   154   156 9205998.00   39  452 -165094.03 9710238.97  5982% 45300 85761s
   160   156 9361949.78   32  453 -165094.03 9710238.97  5982% 46047 86400s

Cutting planes:
  Gomory: 4
  Implied bound: 26
  Clique: 13
  MIR: 47
  Flow cover: 95
  Zero half: 3
  Mod-K: 1

Explored 164 nodes (7996171 simplex iterations) in 86400.48 seconds
Thread count was 4 (of 16 available processors)

Solution count 7: -165094 -225134 -733396 ... -1.67737e+06

Time limit reached
Warning: max constraint violation (6.4980e-06) exceeds tolerance
Warning: max bound violation (4.9876e-06) exceeds tolerance
Best objective -1.650940302744e+05, best bound 9.710238971652e+06, gap 5981.6415%

***
***  |- Calculation finished, timelimit reached 86,400.56 (86400.56) sec.))
***  |-----------------------------------------------------------------------------------------------------------------------
***
*****************************************************************************************************************************
#############################################################################################################################
###
### Results
###
### The objective of the solution is -165,094.0303 (-165094.0303) and is feasible with a Gap of 59.8164
###
### Service 24 (WAF7) is operated by 3 vessels from type 18 (PMax25)
###  |- Vessel  1 has the path [131, 386, -1]
###  |  131 (DEHAM Out@288.0) - 386 (ESALG In@496.0/Out@515.0) - -1 (DUMMY_END Ziel-Service 24)
###  |- Vessel  2 has the path [132, 387, -1]
###  |  132 (DEHAM Out@456.0) - 387 (ESALG In@664.0/Out@683.0) - -1 (DUMMY_END Ziel-Service 24)
###  |- Vessel 13 has the path [135, 401, 265, 152, 388, -1]
###  |  135 (DKAAR Out@220.0) - 401 (MAPTM In@379.0/Out@398.0) - 265 (MAPTM In@711.0/Out@732.0) - 152 (ESALG In@757.0/Out@769
###  |  .0) - 388 (ESALG In@832.0/Out@851.0) - -1 (DUMMY_END Ziel-Service 24)
###  |   |- and carried Demand  42,   83.0 containers from 265 to 152
###  |   |- and carried Demand  43,   11.0 containers from 265 to 152
###  |   |- and carried Demand 269,   83.0 containers from 265 to 152
###  |   |- and carried Demand 270,   11.0 containers from 265 to 152
###  |   |- and carried Demand 285,  214.0 containers from 401 to 388
###  |   |- and carried Demand 286,   10.0 containers from 401 to 388
###  |
### Service 121 (SAE) is operated by 2 vessels from type 30 (PMax35)
###  |- Vessel  9 has the path [9, 384, 260, 400, 146, 385, 263, 149, 411, -2]
###  |  9 (BEANR Out@66.0) - 384 (ESALG In@160.0/Out@179.0) - 260 (MAPTM In@207.0/Out@228.0) - 400 (MAPTM In@211.0/Out@230.0)
###  |   - 146 (ESALG In@253.0/Out@265.0) - 385 (ESALG In@328.0/Out@347.0) - 263 (MAPTM In@406.0/Out@427.0) - 149 (ESALG In@4
###  |  52.0/Out@464.0) - 411 (HNPCR In@998.0/Out@1011.0) - -2 (DUMMY_END Ziel-Service 121)
###  |   |- and carried Demand  11,  580.0 containers from 260 to 146
###  |   |- and carried Demand  66,  484.0 containers from 263 to 149
###  |   |- and carried Demand  67,   18.0 containers from 263 to 149
###  |   |- and carried Demand 257,  580.0 containers from 260 to 146
###  |   |- and carried Demand 274,  484.0 containers from 263 to 149
###  |   |- and carried Demand 275,   18.0 containers from 263 to 149
###  |   |- and carried Demand 295,  580.0 containers from 400 to 146
###  |- Vessel 18 has the path [193, 286, 125, 412, -2]
###  |  193 (GBFXT Out@470.0) - 286 (NLRTM In@500.0/Out@512.0) - 125 (DEBRV In@531.0/Out@547.0) - 412 (HNPCR In@1166.0/Out@11
###  |  79.0) - -2 (DUMMY_END Ziel-Service 121)
###  |
### Service 177 (WCSA) is operated by 3 vessels from type 19 (PMax28)
###  |- Vessel  5 has the path [282, 407, 270, 300, 302, 0]
###  |  282 (NLRTM Out@92.0) - 407 (GTSTC In@687.0/Out@701.0) - 270 (MXLZC In@873.0/Out@896.0) - 300 (PABLB In@982.0/Out@1030
###  |  .0) - 302 (PABLB In@1304.0/Out@1316.0) - 0 (DUMMY_END Ziel-Service 177)
###  |   |- and carried Demand 192,  298.0 containers from 270 to 300
###  |   |- and carried Demand 193,  199.0 containers from 270 to 300
###  |   |- and carried Demand 300,  298.0 containers from 270 to 300
###  |   |- and carried Demand 301,  199.0 containers from 270 to 300
###  |- Vessel  6 has the path [283, 180, 262, 148, 395, 280, 30, 303, 0]
###  |  283 (NLRTM Out@260.0) - 180 (FRLEH In@279.0/Out@295.0) - 262 (MAPTM In@375.0/Out@396.0) - 148 (ESALG In@421.0/Out@433
###  |  .0) - 395 (GWOXB In@631.0/Out@710.0) - 280 (NGAPP In@793.0/Out@840.0) - 30 (BJCOO In@849.0/Out@886.0) - 303 (PABLB In
###  |  @1472.0/Out@1484.0) - 0 (DUMMY_END Ziel-Service 177)
###  |   |- and carried Demand  16,   74.0 containers from 283 to 148
###  |   |- and carried Demand  17,    5.0 containers from 283 to 180
###  |   |- and carried Demand  20,  484.0 containers from 262 to 148
###  |   |- and carried Demand  21,   18.0 containers from 262 to 148
###  |   |- and carried Demand 258,   74.0 containers from 283 to 148
###  |   |- and carried Demand 261,  484.0 containers from 262 to 148
###  |   |- and carried Demand 262,   18.0 containers from 262 to 148
###  |- Vessel 15 has the path [179, 261, 147, 394, 67, 58, 63, 305, 0]
###  |  179 (FRLEH Out@158.0) - 261 (MAPTM In@238.0/Out@259.0) - 147 (ESALG In@284.0/Out@296.0) - 394 (GWOXB In@463.0/Out@542
###  |  .0) - 67 (CMDLA In@765.0/Out@811.0) - 58 (CLLQN In@1240.0/Out@1258.0) - 63 (CLSAI In@1288.0/Out@1304.0) - 305 (PABLB 
###  |  In@1640.0/Out@1652.0) - 0 (DUMMY_END Ziel-Service 177)
###  |   |- and carried Demand  59,  161.0 containers from 261 to  67
###  |   |- and carried Demand  60,  580.0 containers from 261 to 147
###  |   |- and carried Demand 218,  194.0 containers from  58 to 305
###  |   |- and carried Demand 219,   20.0 containers from  58 to 305
###  |   |- and carried Demand 221,    5.0 containers from  58 to 305
###  |   |- and carried Demand 271,  580.0 containers from 261 to 147
###  |
### Vessels not used in the solution: [3, 4, 7, 8, 10, 11, 12, 14, 16, 17, 19, 20, 21, 22, 23, 24]
###  |-----------------------------------------------------------------------------------------------------------------------
###
#############################################################################################################################

### Detialed variable overview

### All variables with value greater zero:
rho[24,18] = 1
rho[177,19] = 1
rho[121,30] = 1
eta[24,18,1] = 1
eta[24,18,2] = 1
eta[24,18,3] = 1
eta[177,19,1] = 1
eta[177,19,2] = 1
eta[177,19,3] = 1
eta[121,30,1] = 1
eta[121,30,2] = 1
y[1,131,386] = 1
y[1,386,-1] = 1
y[2,387,-1] = 1
y[2,132,387] = 1
y[5,270,300] = 1
y[5,300,302] = 1
y[5,302,0] = 1
y[5,282,407] = 1
y[5,407,270] = 1
y[6,280,30] = 1
y[6,180,262] = 1
y[6,395,280] = 1
y[6,30,303] = 1
y[6,303,0] = 1
y[6,148,395] = 1
y[6,262,148] = 1
y[6,283,180] = 1
y[9,260,400] = 1
y[9,9,384] = 1
y[9,263,149] = 1
y[9,149,411] = 1
y[9,385,263] = 1
y[9,384,260] = 1
y[9,411,-2] = 1
y[9,400,146] = 1
y[9,146,385] = 1
y[13,135,401] = 1
y[13,265,152] = 1
y[13,388,-1] = 1
y[13,152,388] = 1
y[13,401,265] = 1
y[15,394,67] = 1
y[15,261,147] = 1
y[15,63,305] = 1
y[15,147,394] = 1
y[15,305,0] = 1
y[15,58,63] = 1
y[15,67,58] = 1
y[15,179,261] = 1
y[18,193,286] = 1
y[18,286,125] = 1
y[18,412,-2] = 1
y[18,125,412] = 1
xD[11,260,400] = 580
xD[11,400,146] = 580
xD[16,180,262] = 74
xD[16,262,148] = 74
xD[16,283,180] = 74
xD[17,283,180] = 5
xD[20,262,148] = 484
xD[21,262,148] = 18
xD[42,265,152] = 83
xD[43,265,152] = 11
xD[59,394,67] = 161
xD[59,261,147] = 161
xD[59,147,394] = 161
xD[60,261,147] = 580
xD[66,263,149] = 484
xD[67,263,149] = 18
xD[192,270,300] = 298
xD[193,270,300] = 199
xD[218,63,305] = 194
xD[218,58,63] = 194
xD[219,63,305] = 20
xD[219,58,63] = 20
xD[221,63,305] = 5
xD[221,58,63] = 5
xD[257,260,400] = 580
xD[257,400,146] = 580
xD[258,180,262] = 74
xD[258,262,148] = 74
xD[258,283,180] = 74
xD[261,262,148] = 484
xD[262,262,148] = 18
xD[269,265,152] = 83
xD[270,265,152] = 11
xD[271,261,147] = 580
xD[274,263,149] = 484
xD[275,263,149] = 18
xD[285,265,152] = 214
xD[285,152,388] = 214
xD[285,401,265] = 214
xD[286,265,152] = 10
xD[286,152,388] = 10
xD[286,401,265] = 10
xD[295,400,146] = 580
xD[300,270,300] = 298
xD[301,270,300] = 199
zE[30] = 849
zE[58] = 1240
zE[63] = 1288
zE[67] = 765
zE[125] = 531
zE[146] = 253
zE[147] = 284
zE[148] = 421
zE[149] = 452
zE[152] = 757
zE[180] = 279
zE[260] = 207
zE[261] = 238
zE[262] = 375
zE[263] = 406
zE[265] = 711
zE[270] = 873
zE[280] = 793
zE[286] = 500
zE[300] = 982
zE[302] = 1304
zE[303] = 1472
zE[305] = 1640
zE[384] = 160
zE[385] = 328
zE[386] = 496
zE[387] = 664
zE[388] = 832
zE[394] = 463
zE[395] = 631
zE[400] = 211
zE[401] = 379
zE[407] = 687
zE[411] = 998
zE[412] = 1166
zX[9] = 66
zX[30] = 886
zX[58] = 1258
zX[63] = 1304
zX[67] = 811
zX[125] = 547
zX[131] = 288
zX[132] = 456
zX[135] = 220
zX[146] = 265
zX[147] = 296
zX[148] = 433
zX[149] = 464
zX[152] = 769
zX[179] = 158
zX[180] = 295
zX[193] = 470
zX[260] = 228
zX[261] = 259
zX[262] = 396
zX[263] = 427
zX[265] = 732
zX[270] = 896
zX[280] = 840
zX[282] = 92
zX[283] = 260
zX[286] = 512
zX[300] = 1030
zX[302] = 1316
zX[303] = 1484
zX[305] = 1652
zX[384] = 179
zX[385] = 347
zX[386] = 515
zX[387] = 683
zX[388] = 851
zX[394] = 542
zX[395] = 710
zX[400] = 230
zX[401] = 398
zX[407] = 701
zX[411] = 1011
zX[412] = 1179
phi[1] = 227
phi[2] = 227
phi[5] = 1224
phi[6] = 1224
phi[9] = 945
phi[13] = 631
phi[15] = 1494
phi[18] = 709

### All variables with value smaller zero:

### End

real	1446m35.662s
user	5104m10.867s
sys	544m26.767s
	Freetype 2.4.12 environment removed
	Python 3.6.0 environment removed
	Gurobi 8.1.0 environment removed
