	Freetype 2.4.12 environment established
		library to render fonts
	Python 3.6.0 environment established
	Gurobi 8.1.0 environment established
Instance LSFRP: LSFDRP_3_2_1_1_fr.p
Instance LSFDP: LSFDRP_3_2_1_1_fd_34.p

*****************************************************************************************************************************
*** Solve LSFDRP_3_2_1_1_fd_34 with Gurobi
***
*** Graph info
*** |S|: 24
*** |S^E|: 0
*** |S^C|: 6
*** |V|: 431
*** |A|: 14925
*** |A^i|: 14778
*** |A^f|: 147
*** |M|: 348
*** |E|: 28

Changed value of parameter TimeLimit to 86400.0
   Prev: 1e+100  Min: 0.0  Max: 1e+100  Default: 1e+100
Changed value of parameter Threads to 4
   Prev: 0  Min: 0  Max: 1024  Default: 0
Optimize a model with 203293 rows, 5586376 columns and 20275474 nonzeros
Variable types: 5228140 continuous, 358236 integer (358236 binary)
Coefficient statistics:
  Matrix range     [1e+00, 5e+03]
  Objective range  [2e+00, 2e+07]
  Bounds range     [1e+00, 1e+00]
  RHS range        [1e+00, 5e+03]
Presolve removed 31003 rows and 1191981 columns (presolve time = 5s) ...
Presolve removed 83178 rows and 3393705 columns (presolve time = 10s) ...
Presolve removed 90596 rows and 3609084 columns (presolve time = 15s) ...
Presolve removed 96238 rows and 3642624 columns (presolve time = 21s) ...
Presolve removed 98593 rows and 3668174 columns (presolve time = 25s) ...
Presolve removed 100417 rows and 3719152 columns (presolve time = 30s) ...
Presolve removed 101377 rows and 3720254 columns (presolve time = 35s) ...
Presolve removed 101383 rows and 3720941 columns (presolve time = 40s) ...
Warning: Failed to open log file 'gurobi.log'
Presolve removed 101410 rows and 3720941 columns (presolve time = 49s) ...
Presolve removed 101410 rows and 3926308 columns (presolve time = 656s) ...
Presolve removed 153669 rows and 5124246 columns (presolve time = 660s) ...
Presolve removed 154039 rows and 5127823 columns (presolve time = 665s) ...
Presolve removed 155240 rows and 5139190 columns (presolve time = 675s) ...
Presolve removed 155242 rows and 5140133 columns (presolve time = 744s) ...
Presolve removed 155215 rows and 5140106 columns
Presolve time: 744.26s
Presolved: 48078 rows, 446270 columns, 2147272 nonzeros
Variable types: 286994 continuous, 159276 integer (158571 binary)

Deterministic concurrent LP optimizer: primal simplex, dual simplex, and barrier
Showing barrier log only...

Presolve removed 382 rows and 3821 columns
Presolved: 47696 rows, 442449 columns, 2142123 nonzeros

Root barrier log...

Ordering time: 0.00s

Barrier statistics:
 Dense cols : 22
 AA' NZ     : 2.575e+06
 Factor NZ  : 4.628e+07 (roughly 600 MBytes of memory)
 Factor Ops : 1.468e+11 (roughly 9 seconds per iteration)
 Threads    : 1

                  Objective                Residual
Iter       Primal          Dual         Primal    Dual     Compl     Time
   0  -2.54596041e+15  2.34017997e+15  1.82e+08 2.66e+06  1.46e+12   772s
   1  -1.53291544e+15  2.32639187e+15  1.09e+08 8.51e+06  8.84e+11   783s
   2  -1.08207206e+15  2.30467033e+15  7.71e+07 5.51e+06  6.25e+11   794s
   3  -6.63149041e+14  2.27079851e+15  4.72e+07 2.87e+06  3.86e+11   806s
   4  -3.35386113e+14  2.23697862e+15  2.39e+07 2.01e+06  1.99e+11   816s
   5  -1.18081717e+14  2.11721102e+15  8.40e+06 9.30e+05  7.26e+10   828s
   6  -3.59542108e+13  1.81796455e+15  2.56e+06 2.82e+05  2.36e+10   839s
   7  -9.81099954e+12  1.36293510e+15  6.96e+05 9.59e+04  7.19e+09   850s
   8  -4.34252386e+12  7.40367777e+14  3.07e+05 2.40e+04  3.11e+09   861s
   9  -7.15672124e+11  2.31105790e+14  5.05e+04 2.65e-06  5.94e+08   873s
  10  -3.00118640e+11  6.97061008e+13  2.11e+04 2.23e-06  2.05e+08   884s
  11  -8.87585956e+10  2.59188776e+13  6.10e+03 1.21e-04  6.42e+07   895s
  12  -4.52211453e+10  1.38454861e+13  3.10e+03 6.29e-05  3.40e+07   906s
  13  -1.94436959e+10  9.33530026e+12  1.33e+03 4.13e-05  1.84e+07   916s
  14  -1.23487360e+10  7.35826623e+12  8.45e+02 3.26e-05  1.32e+07   927s
  15  -6.17489013e+09  5.18456998e+12  4.20e+02 2.27e-05  8.26e+06   938s
  16  -2.74238376e+09  2.57301348e+12  1.83e+02 1.15e-05  3.97e+06   949s
  17  -1.14526264e+09  1.63550176e+12  7.29e+01 7.18e-06  2.27e+06   959s
  18  -5.70772242e+08  9.77024254e+11  3.36e+01 4.23e-06  1.29e+06   971s
  19  -3.80949656e+08  5.48310697e+11  2.08e+01 2.27e-06  7.32e+05   982s
  20  -2.32791604e+08  3.45625507e+11  1.12e+01 1.41e-06  4.50e+05   993s
  21  -1.58729626e+08  2.32210226e+11  6.77e+00 9.64e-07  2.97e+05  1004s
  22  -1.20013436e+08  1.71445807e+11  4.54e+00 7.23e-07  2.17e+05  1015s
  23  -9.50326344e+07  1.45585769e+11  3.20e+00 6.23e-07  1.80e+05  1025s
  24  -6.45604591e+07  9.43117210e+10  1.74e+00 4.15e-07  1.15e+05  1038s
  25  -5.07975839e+07  6.86706749e+10  1.13e+00 3.00e-07  8.28e+04  1049s
  26  -3.91650678e+07  3.60059031e+10  6.64e-01 1.94e-07  4.34e+04  1061s
  27  -3.09917101e+07  2.18059904e+10  3.65e-01 2.65e-07  2.60e+04  1072s
  28  -2.74298681e+07  1.46062373e+10  2.50e-01 2.32e-07  1.74e+04  1083s
  29  -2.56960350e+07  1.22446352e+10  2.00e-01 2.10e-07  1.45e+04  1093s
  30  -2.27414249e+07  8.13025790e+09  1.28e-01 1.37e-07  9.61e+03  1105s
  31  -2.07377704e+07  6.23497205e+09  8.96e-02 1.73e-07  7.34e+03  1115s
  32  -1.71950999e+07  3.41996099e+09  4.07e-02 2.21e-07  4.00e+03  1127s
  33  -1.22386304e+07  2.79539211e+09  2.50e-02 2.46e-07  3.23e+03  1138s
  34  -1.22159724e+07  2.05515660e+09  1.84e-02 2.02e-07  2.38e+03  1148s
  35  -8.78081100e+06  1.16870025e+09  1.20e-02 1.61e-07  1.36e+03  1159s
  36  -5.58767873e+06  5.44153486e+08  4.60e-03 1.96e-07  6.34e+02  1171s
  37  -2.44783599e+06  3.63451746e+08  2.62e-03 1.78e-07  4.20e+02  1183s
  38  -1.11121172e+06  2.37060566e+08  1.99e-03 2.11e-07  2.75e+02  1194s
  39   8.70468151e+05  2.15204303e+08  1.31e-03 2.25e-07  2.45e+02  1205s
  40   2.70509296e+06  1.84408308e+08  6.89e-04 3.09e-07  2.06e+02  1216s
  41   3.68854990e+06  1.23221505e+08  4.85e-04 2.39e-07  1.36e+02  1226s
  42   5.54560454e+06  8.14731774e+07  2.11e-04 3.42e-07  8.58e+01  1238s
  43   6.37754644e+06  6.39277115e+07  1.36e-04 3.66e-07  6.50e+01  1249s
  44   6.92563590e+06  4.88635008e+07  9.77e-05 4.01e-07  4.74e+01  1259s
  45   7.32033979e+06  3.97295169e+07  7.62e-05 3.72e-07  3.67e+01  1271s
  46   7.70217320e+06  3.42250813e+07  5.92e-05 4.53e-07  3.00e+01  1281s
  47   7.92002649e+06  3.08077316e+07  5.30e-05 4.45e-07  2.59e+01  1293s
  48   8.08872201e+06  2.99170590e+07  5.04e-05 6.01e-07  2.47e+01  1303s
  49   8.27583357e+06  2.73121200e+07  4.66e-05 6.03e-07  2.16e+01  1314s
  50   8.61126859e+06  2.60872576e+07  3.78e-05 6.10e-07  1.98e+01  1325s
  51   8.72791533e+06  2.28339749e+07  3.36e-05 6.62e-07  1.60e+01  1337s
  52   8.92076647e+06  2.05965693e+07  2.81e-05 5.06e-07  1.32e+01  1348s
  53   9.18707294e+06  1.97037092e+07  2.17e-05 6.41e-07  1.19e+01  1359s
  54   9.30412738e+06  1.86904360e+07  1.96e-05 6.41e-07  1.06e+01  1369s
  55   9.33918003e+06  1.80829522e+07  1.90e-05 1.53e-05  9.90e+00  1380s
  56   9.67046026e+06  1.74130133e+07  1.41e-05 1.81e-05  8.75e+00  1391s
  57   1.00462754e+07  1.60494091e+07  1.10e-05 1.27e-05  6.79e+00  1402s
  58   1.02341250e+07  1.50030445e+07  8.97e-06 1.65e-05  5.40e+00  1415s
  59   1.04481345e+07  1.41187701e+07  7.16e-06 1.55e-05  4.16e+00  1426s
  60   1.08838005e+07  1.34974211e+07  3.96e-06 1.58e-05  2.95e+00  1438s
  61   1.10433173e+07  1.29760219e+07  2.76e-06 1.69e-05  2.18e+00  1449s
  62   1.11019693e+07  1.24692217e+07  2.32e-06 1.30e-05  1.55e+00  1460s
  63   1.12284081e+07  1.23318274e+07  1.44e-06 1.31e-05  1.24e+00  1471s
  64   1.12454502e+07  1.21634122e+07  1.48e-06 1.45e-05  1.04e+00  1482s
  65   1.13100124e+07  1.17748051e+07  9.42e-07 1.34e-05  5.26e-01  1493s
  66   1.13757315e+07  1.16734327e+07  2.37e-06 1.31e-05  3.36e-01  1504s
  67   1.13998880e+07  1.15239653e+07  1.48e-06 8.48e-06  1.41e-01  1515s
  68   1.14124755e+07  1.14912978e+07  1.02e-06 9.74e-06  9.02e-02  1526s
  69   1.14338976e+07  1.14578403e+07  2.64e-07 8.09e-06  2.74e-02  1536s
  70   1.14394259e+07  1.14541415e+07  1.89e-07 1.05e-05  1.66e-02  1547s
  71   1.14408588e+07  1.14434241e+07  1.23e-07 7.63e-06  2.95e-03  1557s
  72   1.14415092e+07  1.14419099e+07  6.39e-08 6.80e-06  4.80e-04  1569s
  73   1.14417683e+07  1.14418567e+07  4.05e-08 7.50e-06  1.07e-04  1579s
  74   1.14418346e+07  1.14418516e+07  1.33e-08 7.05e-06  2.06e-05  1590s
  75   1.14418360e+07  1.14418515e+07  1.27e-08 9.51e-06  1.88e-05  1601s
  76   1.14418419e+07  1.14418513e+07  5.69e-08 1.11e-05  1.15e-05  1612s
  77   1.14418432e+07  1.14418513e+07  1.66e-07 1.08e-05  9.98e-06  1623s
  78   1.14418466e+07  1.14418512e+07  1.42e-07 8.60e-06  5.64e-06  1634s
  79   1.14418482e+07  1.14418512e+07  2.43e-06 1.07e-05  3.74e-06  1645s
  80   1.14418498e+07  1.14418512e+07  6.89e-07 8.23e-06  9.17e-07  1656s
  81   1.14418500e+07  1.14418512e+07  1.30e-05 1.22e-05  8.62e-07  1666s
  82   1.14418500e+07  1.14418512e+07  3.34e-05 1.18e-05  8.59e-07  1677s
  83   1.14418500e+07  1.14418512e+07  4.79e-05 1.55e-05  8.58e-07  1688s
  84   1.14418506e+07  1.14418512e+07  2.70e-05 1.74e-05  5.45e-07  1698s
  85   1.14418503e+07  1.14418512e+07  7.89e-06 1.16e-05  1.76e-07  1709s
  86   1.14418506e+07  1.14418511e+07  3.56e-06 8.92e-06  7.93e-08  1720s
  87   1.14418506e+07  1.14418511e+07  2.40e-05 1.36e-05  7.93e-08  1731s
  88   1.14418507e+07  1.14418511e+07  2.09e-05 1.82e-02  9.56e-08  1742s
  89   1.14418510e+07  1.14418511e+07  1.16e-05 1.08e-02  5.26e-08  1752s

Barrier solved model in 89 iterations and 1752.29 seconds
Optimal objective 1.14418510e+07


Root crossover log...

   44767 DPushes remaining with DInf 0.0000000e+00              1752s
      52 DPushes remaining with DInf 8.2773950e-06              1756s
       0 DPushes remaining with DInf 1.5477503e+14              1756s

     110 PPushes remaining with PInf 0.0000000e+00              1756s
       0 PPushes remaining with PInf 0.0000000e+00              1756s

  Push phase complete: Pinf 0.0000000e+00, Dinf 8.4307727e+01   1756s


Root simplex log...

Iteration    Objective       Primal Inf.    Dual Inf.      Time
   39283    1.1441851e+07   0.000000e+00   8.430773e+01   1756s
   39284    1.1441851e+07   0.000000e+00   0.000000e+00   1756s
   40459    1.1441862e+07   0.000000e+00   5.236770e+07   1760s
   41872    1.1441881e+07   0.000000e+00   9.410202e+07   1765s
   43153    1.1441914e+07   0.000000e+00   1.115597e+09   1770s
   44439    1.1441978e+07   0.000000e+00   3.595722e+09   1775s
   45726    1.1442117e+07   0.000000e+00   2.529213e+10   1780s
   46885    1.1442252e+07   0.000000e+00   9.992558e+09   1785s
   48175    1.1442424e+07   0.000000e+00   3.415871e+09   1790s
   49459    1.1442562e+07   0.000000e+00   3.552576e+09   1795s
   50613    1.1442729e+07   0.000000e+00   6.314819e+09   1800s
   51895    1.1442952e+07   0.000000e+00   1.570306e+11   1805s
   53180    1.1443106e+07   0.000000e+00   2.157746e+09   1810s
   54460    1.1443307e+07   0.000000e+00   4.241741e+09   1815s
   55742    1.1443480e+07   0.000000e+00   6.048407e+09   1820s
   57152    1.1443714e+07   0.000000e+00   2.143321e+09   1826s
   58437    1.1443872e+07   0.000000e+00   1.118337e+10   1830s
   59719    1.1444018e+07   0.000000e+00   3.923017e+09   1835s
   61132    1.1444180e+07   0.000000e+00   1.050313e+09   1840s
   62414    1.1444333e+07   0.000000e+00   1.847117e+09   1845s
   63702    1.1444464e+07   0.000000e+00   8.760315e+10   1850s
   65117    1.1444623e+07   0.000000e+00   2.187352e+09   1856s
   66274    1.1444765e+07   0.000000e+00   8.041476e+09   1860s
   67555    1.1444953e+07   0.000000e+00   4.518117e+09   1865s
   68967    1.1445108e+07   0.000000e+00   4.092312e+09   1870s
   70380    1.1445248e+07   0.000000e+00   1.561855e+09   1875s
   71665    1.1445396e+07   0.000000e+00   3.170916e+09   1880s
   73079    1.1445528e+07   0.000000e+00   7.780335e+09   1885s
   74500    1.1445635e+07   0.000000e+00   4.216422e+09   1890s
   75784    1.1445739e+07   0.000000e+00   3.741412e+08   1895s
   77194    1.1445852e+07   0.000000e+00   2.835455e+09   1900s
   78353    1.1445935e+07   0.000000e+00   2.214911e+09   1905s
   79770    1.1446093e+07   0.000000e+00   1.466167e+11   1910s
   81052    1.1446230e+07   0.000000e+00   6.377184e+09   1915s
   82341    1.1446390e+07   0.000000e+00   5.488131e+09   1920s
   83623    1.1446509e+07   0.000000e+00   4.334356e+09   1925s
   85041    1.1446629e+07   0.000000e+00   9.016158e+09   1930s
   86325    1.1446754e+07   0.000000e+00   5.972517e+09   1936s
   87618    1.1446848e+07   0.000000e+00   1.079990e+09   1940s
   88905    1.1446981e+07   0.000000e+00   2.953342e+09   1945s
   90192    1.1447069e+07   0.000000e+00   1.500221e+09   1950s
   91607    1.1447159e+07   0.000000e+00   1.124223e+10   1955s
   93023    1.1447244e+07   0.000000e+00   1.620561e+09   1960s
   94307    1.1447333e+07   0.000000e+00   7.029159e+09   1965s
   95590    1.1447441e+07   0.000000e+00   3.128828e+10   1970s
   97002    1.1447541e+07   0.000000e+00   4.968614e+08   1975s
   98287    1.1447624e+07   0.000000e+00   7.616222e+09   1980s
   99570    1.1447732e+07   0.000000e+00   4.263990e+09   1985s
  100990    1.1447857e+07   0.000000e+00   4.650992e+08   1990s
  102149    1.1447965e+07   0.000000e+00   1.120992e+10   1995s
  103694    1.1448062e+07   0.000000e+00   1.129500e+09   2001s
  105108    1.1448148e+07   0.000000e+00   1.077067e+09   2005s
  106520    1.1448363e+07   0.000000e+00   1.690996e+09   2010s
  107935    1.1448434e+07   0.000000e+00   3.726610e+08   2015s
  109217    1.1448502e+07   0.000000e+00   5.181394e+08   2020s
  110628    1.1448602e+07   0.000000e+00   4.010713e+08   2025s
  111911    1.1448660e+07   0.000000e+00   1.114257e+10   2030s
  113196    1.1448747e+07   0.000000e+00   5.623206e+08   2035s
  114486    1.1448826e+07   0.000000e+00   5.437278e+08   2040s
  115771    1.1448883e+07   0.000000e+00   2.996205e+09   2045s
  117185    1.1448942e+07   0.000000e+00   3.530923e+09   2050s
  118471    1.1449006e+07   0.000000e+00   1.119496e+09   2055s
  119755    1.1449095e+07   0.000000e+00   5.921755e+09   2060s
  121045    1.1449176e+07   0.000000e+00   2.175011e+08   2065s
  122462    1.1449263e+07   0.000000e+00   2.733419e+09   2070s
  123879    1.1449357e+07   0.000000e+00   9.396276e+08   2075s
  125168    1.1449437e+07   0.000000e+00   9.898783e+08   2080s
  126459    1.1449519e+07   0.000000e+00   1.167798e+09   2085s
  127752    1.1449592e+07   0.000000e+00   3.079260e+09   2090s
  129051    1.1449651e+07   0.000000e+00   2.642021e+08   2095s
  130470    1.1449706e+07   0.000000e+00   9.317208e+08   2100s
  131768    1.1449785e+07   0.000000e+00   4.482598e+09   2105s
  133185    1.1449863e+07   0.000000e+00   4.958869e+09   2110s
  134471    1.1449939e+07   0.000000e+00   2.112788e+09   2115s
  135758    1.1450007e+07   0.000000e+00   1.380628e+10   2120s
  137308    1.1450089e+07   0.000000e+00   2.682787e+08   2125s
  138594    1.1450170e+07   0.000000e+00   6.805583e+08   2130s
  139885    1.1450221e+07   0.000000e+00   1.022197e+09   2135s
  141171    1.1450282e+07   0.000000e+00   5.323936e+08   2140s
  142586    1.1450357e+07   0.000000e+00   4.870946e+08   2146s
  143743    1.1450430e+07   0.000000e+00   3.315320e+08   2150s
  145037    1.1450492e+07   0.000000e+00   6.735052e+09   2155s
  146321    1.1450547e+07   0.000000e+00   1.734897e+09   2160s
  147737    1.1450593e+07   0.000000e+00   8.874006e+08   2165s
  148897    1.1450636e+07   0.000000e+00   5.518127e+08   2170s
  150307    1.1450726e+07   0.000000e+00   1.314419e+09   2175s
  151589    1.1450905e+07   0.000000e+00   1.306542e+10   2180s
  153005    1.1451028e+07   0.000000e+00   2.561996e+11   2185s
  154288    1.1451090e+07   0.000000e+00   7.212209e+08   2190s
  155705    1.1451144e+07   0.000000e+00   2.893082e+09   2195s
  156988    1.1451193e+07   0.000000e+00   8.607702e+09   2200s
  158276    1.1451321e+07   0.000000e+00   1.167234e+09   2205s
  159569    1.1451389e+07   0.000000e+00   8.966107e+09   2210s
  160995    1.1451437e+07   0.000000e+00   2.633104e+09   2215s
  162160    1.1451486e+07   0.000000e+00   3.455972e+08   2220s
  163587    1.1451521e+07   0.000000e+00   3.609582e+08   2225s
  164893    1.1451570e+07   0.000000e+00   2.642826e+09   2230s
  166322    1.1451635e+07   0.000000e+00   3.592765e+08   2235s
  167739    1.1451688e+07   0.000000e+00   4.271068e+08   2240s
  169029    1.1451718e+07   0.000000e+00   2.378729e+08   2245s
  170453    1.1451773e+07   0.000000e+00   4.692555e+09   2250s
  171754    1.1451844e+07   0.000000e+00   1.917459e+09   2255s
  173063    1.1451885e+07   0.000000e+00   5.122274e+09   2260s
  174221    1.1451943e+07   0.000000e+00   1.003728e+08   2265s
  175775    1.1451976e+07   0.000000e+00   2.604749e+08   2270s
  177062    1.1452003e+07   0.000000e+00   7.793103e+08   2275s
  178603    1.1452045e+07   0.000000e+00   9.846518e+08   2280s
  179891    1.1452085e+07   0.000000e+00   1.076828e+11   2285s
  181194    1.1452120e+07   0.000000e+00   1.228057e+10   2290s
  182487    1.1452152e+07   0.000000e+00   2.121950e+10   2295s
  183904    1.1452195e+07   0.000000e+00   2.893043e+08   2300s
  185326    1.1452234e+07   0.000000e+00   3.819693e+08   2305s
  186879    1.1452277e+07   0.000000e+00   4.500470e+09   2310s
  188310    1.1452312e+07   0.000000e+00   1.181813e+08   2315s
  189731    1.1452360e+07   0.000000e+00   4.946597e+07   2320s
  191151    1.1452389e+07   0.000000e+00   2.346891e+08   2325s
  192438    1.1452426e+07   0.000000e+00   8.846468e+09   2330s
  193860    1.1452459e+07   0.000000e+00   3.503485e+09   2335s
  195406    1.1452483e+07   0.000000e+00   7.933570e+07   2340s
  196705    1.1452519e+07   0.000000e+00   1.983050e+09   2345s
  198125    1.1452558e+07   0.000000e+00   5.078620e+07   2350s
  199550    1.1452576e+07   0.000000e+00   2.394708e+08   2355s
  201020    1.1452596e+07   0.000000e+00   9.798397e+07   2360s
  202444    1.1452620e+07   0.000000e+00   1.198491e+08   2365s
  203888    1.1452636e+07   0.000000e+00   7.959844e+07   2370s
  205310    1.1452658e+07   0.000000e+00   2.102956e+08   2375s
  206600    1.1452674e+07   0.000000e+00   8.771257e+08   2380s
  208016    1.1452689e+07   0.000000e+00   1.004343e+09   2385s
  209303    1.1452715e+07   0.000000e+00   1.024274e+08   2390s
  210714    1.1452741e+07   0.000000e+00   1.558423e+07   2395s
  212129    1.1452767e+07   0.000000e+00   7.574314e+07   2400s
  213544    1.1452782e+07   0.000000e+00   1.170191e+08   2405s
  214964    1.1452794e+07   0.000000e+00   4.351291e+07   2410s
  216380    1.1452801e+07   0.000000e+00   6.409482e+07   2415s
  217791    1.1452816e+07   0.000000e+00   3.859414e+07   2420s
  219213    1.1452826e+07   0.000000e+00   2.669486e+07   2425s
  220638    1.1452833e+07   0.000000e+00   8.049216e+06   2430s
  221941    1.1452842e+07   0.000000e+00   6.347295e+06   2435s
  223373    1.1452858e+07   0.000000e+00   3.217255e+07   2440s
  224660    1.1452867e+07   0.000000e+00   1.183393e+08   2445s
  226088    1.1452883e+07   0.000000e+00   5.750821e+06   2450s
  227499    1.1452897e+07   0.000000e+00   1.256184e+07   2455s
  228780    1.1452901e+07   0.000000e+00   3.586279e+09   2460s
  230197    1.1452905e+07   0.000000e+00   2.128917e+07   2465s
  231499    1.1452912e+07   0.000000e+00   9.588555e+07   2470s
  232916    1.1452917e+07   0.000000e+00   2.201355e+07   2475s
  234204    1.1452938e+07   0.000000e+00   2.058598e+07   2480s
  235747    1.1452944e+07   0.000000e+00   1.059039e+08   2485s
  237163    1.1452950e+07   0.000000e+00   5.429191e+06   2490s
  238458    1.1452959e+07   0.000000e+00   1.512596e+08   2495s
  239873    1.1452962e+07   0.000000e+00   2.624049e+06   2500s
  241286    1.1452965e+07   0.000000e+00   1.661030e+06   2505s
  242711    1.1452968e+07   0.000000e+00   2.371377e+05   2510s
  244130    1.1452970e+07   0.000000e+00   3.654957e+07   2515s
  245556    1.1452972e+07   0.000000e+00   1.270976e+06   2520s
  246971    1.1452973e+07   0.000000e+00   1.803965e+07   2525s
  248275    1.1452976e+07   0.000000e+00   2.263592e+06   2530s
  249696    1.1452977e+07   0.000000e+00   1.799196e+05   2535s
  250984    1.1452978e+07   0.000000e+00   2.300664e+05   2540s
  252276    1.1452978e+07   0.000000e+00   6.145510e+04   2545s
  253178    1.1441851e+07   1.518393e+01   0.000000e+00   2551s
  253379    1.1441851e+07   0.000000e+00   0.000000e+00   2554s
Extra 214095 simplex iterations after uncrush
Concurrent spin time: 31.52s

Solved with barrier

Root relaxation: objective 1.144185e+07, 253379 iterations, 1837.28 seconds

    Nodes    |    Current Node    |     Objective Bounds      |     Work
 Expl Unexpl |  Obj  Depth IntInf | Incumbent    BestBd   Gap | It/Node Time

     0     0 1.1399e+07    0  296          - 1.1399e+07      -     - 2770s
     0     0 1.0492e+07    0  417          - 1.0492e+07      -     - 4247s
H    0     0                    -1774202.876 1.0492e+07   691%     - 4249s
     0     0 1.0491e+07    0  396 -1774202.9 1.0491e+07   691%     - 14049s
     0     0 1.0491e+07    0  396 -1774202.9 1.0491e+07   691%     - 14050s
     0     0 1.0435e+07    0  401 -1774202.9 1.0435e+07   688%     - 43392s
     0     0 1.0430e+07    0  419 -1774202.9 1.0430e+07   688%     - 44056s
     0     0 1.0426e+07    0  439 -1774202.9 1.0426e+07   688%     - 44541s
     0     0 1.0426e+07    0  451 -1774202.9 1.0426e+07   688%     - 44574s
     0     0 1.0426e+07    0  451 -1774202.9 1.0426e+07   688%     - 44575s
     0     0 1.0423e+07    0  427 -1774202.9 1.0423e+07   688%     - 44851s
H    0     0                    -1392927.715 1.0423e+07   848%     - 44852s
     0     0 1.0422e+07    0  422 -1392927.7 1.0422e+07   848%     - 44983s
     0     0 1.0420e+07    0  450 -1392927.7 1.0420e+07   848%     - 45325s
     0     0 1.0420e+07    0  450 -1392927.7 1.0420e+07   848%     - 45344s
     0     0 1.0418e+07    0  463 -1392927.7 1.0418e+07   848%     - 46104s
H    0     0                    -450190.2682 1.0418e+07  2414%     - 46104s
H    0     0                    285085.74466 1.0418e+07  3554%     - 46307s
     0     0 1.0415e+07    0  459 285085.745 1.0415e+07  3553%     - 46829s
     0     0 1.0413e+07    0  464 285085.745 1.0413e+07  3553%     - 46974s
     0     0 1.0413e+07    0  463 285085.745 1.0413e+07  3553%     - 47020s
     0     0 1.0401e+07    0  468 285085.745 1.0401e+07  3548%     - 47748s
     0     0 1.0401e+07    0  480 285085.745 1.0401e+07  3548%     - 47898s
     0     0 1.0401e+07    0  482 285085.745 1.0401e+07  3548%     - 48004s
     0     0 1.0394e+07    0  461 285085.745 1.0394e+07  3546%     - 48889s
     0     0 1.0394e+07    0  469 285085.745 1.0394e+07  3546%     - 48930s
     0     0 1.0393e+07    0  470 285085.745 1.0393e+07  3546%     - 49139s
     0     0 1.0393e+07    0  472 285085.745 1.0393e+07  3545%     - 49206s
     0     0 1.0392e+07    0  487 285085.745 1.0392e+07  3545%     - 49354s
     0     0 1.0392e+07    0  481 285085.745 1.0392e+07  3545%     - 49509s
     0     0 1.0392e+07    0  474 285085.745 1.0392e+07  3545%     - 49609s
     0     0 1.0392e+07    0  474 285085.745 1.0392e+07  3545%     - 49610s
     0     0 1.0391e+07    0  482 285085.745 1.0391e+07  3545%     - 49708s
     0     0 1.0390e+07    0  471 285085.745 1.0390e+07  3545%     - 49960s
     0     0 1.0390e+07    0  475 285085.745 1.0390e+07  3545%     - 49969s
     0     0 1.0390e+07    0  466 285085.745 1.0390e+07  3545%     - 50167s
     0     0 1.0390e+07    0  489 285085.745 1.0390e+07  3545%     - 50203s
     0     0 1.0390e+07    0  483 285085.745 1.0390e+07  3545%     - 50262s
     0     0 1.0390e+07    0  495 285085.745 1.0390e+07  3545%     - 50383s
     0     0 1.0390e+07    0  498 285085.745 1.0390e+07  3544%     - 50715s
     0     0 1.0390e+07    0  498 285085.745 1.0390e+07  3544%     - 51069s
     0     2 1.0390e+07    0  498 285085.745 1.0390e+07  3544%     - 57133s
     1     4 1.0345e+07    1  477 285085.745 1.0390e+07  3544% 60317 64289s
     3     8 1.0162e+07    2  399 285085.745 1.0345e+07  3529% 246954 72110s
     7    12 1.0160e+07    3  416 285085.745 1.0338e+07  3526% 214376 73132s
    11    16 1.0160e+07    4  408 285085.745 1.0338e+07  3526% 147393 77542s
    15    18 1.0124e+07    5  438 285085.745 1.0334e+07  3525% 142028 79354s
    19    21 1.0106e+07    5  380 285085.745 1.0334e+07  3525% 123045 81094s
    23    23 1.0119e+07    6  446 285085.745 1.0334e+07  3525% 111896 83503s
    27    27 1.0115e+07    7  449 285085.745 1.0334e+07  3525% 104295 84531s
    34    34 1.0103e+07    9  425 285085.745 1.0334e+07  3525% 87457 85498s
    41    40 1.0090e+07   11  400 285085.745 1.0334e+07  3525% 75717 86400s

Cutting planes:
  Gomory: 4
  Cover: 1
  Implied bound: 28
  Clique: 12
  MIR: 50
  Flow cover: 104
  Zero half: 4

Explored 45 nodes (6921530 simplex iterations) in 86400.42 seconds
Thread count was 4 (of 16 available processors)

Solution count 4: 285086 -450190 -1.39293e+06 -1.7742e+06 

Time limit reached
Warning: max constraint violation (1.6070e-06) exceeds tolerance
Warning: max bound violation (1.3685e-06) exceeds tolerance
Best objective 2.850857492198e+05, best bound 1.033357499970e+07, gap 3524.7252%

***
***  |- Calculation finished, timelimit reached 86,400.5 (86400.5) sec.))
***  |-----------------------------------------------------------------------------------------------------------------------
***
*****************************************************************************************************************************
#############################################################################################################################
###
### Results
###
### The objective of the solution is 285,085.7492 (285085.7492) and is feasible with a Gap of 35.2473
###
### Service 24 (WAF7) is operated by 3 vessels from type 18 (PMax25)
###  |- Vessel  1 has the path [131, 386, -1]
###  |  131 (DEHAM Out@288.0) - 386 (ESALG In@496.0/Out@515.0) - -1 (DUMMY_END Ziel-Service 24)
###  |- Vessel  2 has the path [132, 387, -1]
###  |  132 (DEHAM Out@456.0) - 387 (ESALG In@664.0/Out@683.0) - -1 (DUMMY_END Ziel-Service 24)
###  |- Vessel 13 has the path [135, 401, 263, 388, -1]
###  |  135 (DKAAR Out@220.0) - 401 (MAPTM In@379.0/Out@398.0) - 263 (MAPTM In@406.0/Out@427.0) - 388 (ESALG In@832.0/Out@851
###  |  .0) - -1 (DUMMY_END Ziel-Service 24)
###  |   |- and carried Demand 272,  214.0 containers from 263 to 388
###  |   |- and carried Demand 273,   10.0 containers from 263 to 388
###  |   |- and carried Demand 285,  214.0 containers from 401 to 388
###  |   |- and carried Demand 286,   10.0 containers from 401 to 388
###  |
### Service 121 (SAE) is operated by 2 vessels from type 30 (PMax35)
###  |- Vessel 18 has the path [193, 425, 421, 411, -2]
###  |  193 (GBFXT Out@470.0) - 425 (USORF In@873.0/Out@881.0) - 421 (USMIA In@935.0/Out@943.0) - 411 (HNPCR In@998.0/Out@101
###  |  1.0) - -2 (DUMMY_END Ziel-Service 121)
###  |   |- and carried Demand 325,   10.0 containers from 421 to 411
###  |   |- and carried Demand 326,   75.0 containers from 425 to 411
###  |   |- and carried Demand 327,  114.0 containers from 425 to 411
###  |- Vessel 24 has the path [231, 106, 78, 210, 107, 75, 86, 140, 300, 412, -2]
###  |  231 (JPYOK Out@171.0) - 106 (CNXMN In@238.0/Out@260.0) - 78 (CNNSA In@287.0/Out@297.0) - 210 (HKHKG In@334.0/Out@350.
###  |  0) - 107 (CNYTN In@358.0/Out@376.0) - 75 (CNNGB In@430.0/Out@439.0) - 86 (CNSHA In@465.0/Out@483.0) - 140 (ECGYE In@9
###  |  11.0/Out@923.0) - 300 (PABLB In@982.0/Out@1030.0) - 412 (HNPCR In@1166.0/Out@1179.0) - -2 (DUMMY_END Ziel-Service 121
###  |  )
###  |   |- and carried Demand  87,  541.0 containers from 231 to 300
###  |   |- and carried Demand 178,  785.0 containers from 106 to 210
###  |   |- and carried Demand 179,    1.0 containers from 106 to 210
###  |   |- and carried Demand 181,  121.0 containers from 210 to  75
###  |   |- and carried Demand 182,   75.0 containers from 210 to  86
###  |   |- and carried Demand 183,    1.0 containers from 210 to 107
###  |   |- and carried Demand 186,    6.0 containers from 107 to 300
###  |   |- and carried Demand 188,  773.0 containers from  75 to 300
###  |   |- and carried Demand 189,    1.0 containers from  75 to 300
###  |   |- and carried Demand 297,    6.0 containers from 107 to 300
###  |   |- and carried Demand 298,  773.0 containers from  75 to 300
###  |   |- and carried Demand 299,    1.0 containers from  75 to 300
###  |
### Service 177 (WCSA) is operated by 3 vessels from type 19 (PMax28)
###  |- Vessel  5 has the path [282, 178, 260, 400, 261, 385, 151, 371, 303, 0]
###  |  282 (NLRTM Out@92.0) - 178 (FRLEH In@111.0/Out@127.0) - 260 (MAPTM In@207.0/Out@228.0) - 400 (MAPTM In@211.0/Out@230.
###  |  0) - 261 (MAPTM In@238.0/Out@259.0) - 385 (ESALG In@328.0/Out@347.0) - 151 (ESALG In@625.0/Out@670.0) - 371 (TRZMK In
###  |  @778.0/Out@793.0) - 303 (PABLB In@1472.0/Out@1484.0) - 0 (DUMMY_END Ziel-Service 177)
###  |   |- and carried Demand   9,   17.0 containers from 282 to 178
###  |   |- and carried Demand 140,  552.0 containers from 151 to 303
###  |   |- and carried Demand 141,   13.0 containers from 151 to 303
###  |   |- and carried Demand 256,   42.0 containers from 282 to 385
###  |   |- and carried Demand 257,  580.0 containers from 260 to 385
###  |   |- and carried Demand 271,  580.0 containers from 261 to 385
###  |   |- and carried Demand 295,  580.0 containers from 400 to 385
###  |- Vessel  6 has the path [283, 180, 262, 148, 57, 62, 304, 305, 0]
###  |  283 (NLRTM Out@260.0) - 180 (FRLEH In@279.0/Out@295.0) - 262 (MAPTM In@375.0/Out@396.0) - 148 (ESALG In@421.0/Out@433
###  |  .0) - 57 (CLLQN In@1072.0/Out@1090.0) - 62 (CLSAI In@1120.0/Out@1136.0) - 304 (PABLB In@1508.0/Out@1520.0) - 305 (PAB
###  |  LB In@1640.0/Out@1652.0) - 0 (DUMMY_END Ziel-Service 177)
###  |   |- and carried Demand  16,   74.0 containers from 283 to 148
###  |   |- and carried Demand  17,    5.0 containers from 283 to 180
###  |   |- and carried Demand  20,  484.0 containers from 262 to 148
###  |   |- and carried Demand  21,   18.0 containers from 262 to 148
###  |   |- and carried Demand 239,  540.0 containers from  57 to 304
###  |   |- and carried Demand 240,   69.0 containers from  57 to 304
###  |   |- and carried Demand 258,   74.0 containers from 283 to 148
###  |   |- and carried Demand 261,  484.0 containers from 262 to 148
###  |   |- and carried Demand 262,   18.0 containers from 262 to 148
###  |- Vessel  7 has the path [285, 182, 264, 302, 0]
###  |  285 (NLRTM Out@428.0) - 182 (FRLEH In@447.0/Out@463.0) - 264 (MAPTM In@543.0/Out@564.0) - 302 (PABLB In@1304.0/Out@13
###  |  16.0) - 0 (DUMMY_END Ziel-Service 177)
###  |   |- and carried Demand  32,    6.0 containers from 285 to 182
###  |
### Vessels not used in the solution: [3, 4, 8, 9, 10, 11, 12, 14, 15, 16, 17, 19, 20, 21, 22, 23]
###  |-----------------------------------------------------------------------------------------------------------------------
###
#############################################################################################################################

### Detialed variable overview

### All variables with value greater zero:
rho[24,18] = 1
rho[177,19] = 1
rho[121,30] = 1
eta[24,18,1] = 1
eta[24,18,2] = 1
eta[24,18,3] = 1
eta[177,19,1] = 1
eta[177,19,2] = 1
eta[177,19,3] = 1
eta[121,30,1] = 1
eta[121,30,2] = 1
y[1,131,386] = 1
y[1,386,-1] = 1
y[2,387,-1] = 1
y[2,132,387] = 1
y[5,260,400] = 1
y[5,282,178] = 1
y[5,385,151] = 1
y[5,303,0] = 1
y[5,151,371] = 1
y[5,261,385] = 1
y[5,371,303] = 1
y[5,178,260] = 1
y[5,400,261] = 1
y[6,180,262] = 1
y[6,148,57] = 1
y[6,57,62] = 1
y[6,305,0] = 1
y[6,304,305] = 1
y[6,262,148] = 1
y[6,283,180] = 1
y[6,62,304] = 1
y[7,302,0] = 1
y[7,285,182] = 1
y[7,264,302] = 1
y[7,182,264] = 1
y[13,263,388] = 1
y[13,401,263] = 1
y[13,135,401] = 1
y[13,388,-1] = 1
y[18,421,411] = 1
y[18,425,421] = 1
y[18,411,-2] = 1
y[18,193,425] = 1
y[24,300,412] = 1
y[24,231,106] = 1
y[24,210,107] = 1
y[24,412,-2] = 1
y[24,106,78] = 1
y[24,75,86] = 1
y[24,140,300] = 1
y[24,78,210] = 1
y[24,86,140] = 1
y[24,107,75] = 1
xD[9,282,178] = 17
xD[16,180,262] = 74
xD[16,262,148] = 74
xD[16,283,180] = 74
xD[17,283,180] = 5
xD[20,262,148] = 484
xD[21,262,148] = 18
xD[32,285,182] = 6
xD[87,231,106] = 541
xD[87,210,107] = 541
xD[87,106,78] = 541
xD[87,75,86] = 541
xD[87,140,300] = 541
xD[87,78,210] = 541
xD[87,86,140] = 541
xD[87,107,75] = 541
xD[140,151,371] = 552
xD[140,371,303] = 552
xD[141,151,371] = 13
xD[141,371,303] = 13
xD[178,106,78] = 785
xD[178,78,210] = 785
xD[179,106,78] = 1
xD[179,78,210] = 1
xD[181,210,107] = 121
xD[181,107,75] = 121
xD[182,210,107] = 75
xD[182,75,86] = 75
xD[182,107,75] = 75
xD[183,210,107] = 1
xD[186,75,86] = 6
xD[186,140,300] = 6
xD[186,86,140] = 6
xD[186,107,75] = 6
xD[188,75,86] = 773
xD[188,140,300] = 773
xD[188,86,140] = 773
xD[189,75,86] = 1
xD[189,140,300] = 1
xD[189,86,140] = 1
xD[239,57,62] = 540
xD[239,62,304] = 540
xD[240,57,62] = 69
xD[240,62,304] = 69
xD[256,260,400] = 42
xD[256,282,178] = 42
xD[256,261,385] = 42
xD[256,178,260] = 42
xD[256,400,261] = 42
xD[257,260,400] = 580
xD[257,261,385] = 580
xD[257,400,261] = 580
xD[258,180,262] = 74
xD[258,262,148] = 74
xD[258,283,180] = 74
xD[261,262,148] = 484
xD[262,262,148] = 18
xD[271,261,385] = 580
xD[272,263,388] = 214
xD[273,263,388] = 10
xD[285,263,388] = 214
xD[285,401,263] = 214
xD[286,263,388] = 10
xD[286,401,263] = 10
xD[295,261,385] = 580
xD[295,400,261] = 580
xD[297,75,86] = 6
xD[297,140,300] = 6
xD[297,86,140] = 6
xD[297,107,75] = 6
xD[298,75,86] = 773
xD[298,140,300] = 773
xD[298,86,140] = 773
xD[299,75,86] = 1
xD[299,140,300] = 1
xD[299,86,140] = 1
xD[325,421,411] = 10
xD[326,421,411] = 75
xD[326,425,421] = 75
xD[327,421,411] = 114
xD[327,425,421] = 114
zE[57] = 1072
zE[62] = 1120
zE[75] = 430
zE[78] = 287
zE[86] = 465
zE[106] = 238
zE[107] = 358
zE[140] = 911
zE[148] = 421
zE[151] = 625
zE[178] = 111
zE[180] = 279
zE[182] = 447
zE[210] = 334
zE[260] = 207
zE[261] = 238
zE[262] = 375
zE[263] = 406
zE[264] = 543
zE[300] = 982
zE[302] = 1304
zE[303] = 1472
zE[304] = 1508
zE[305] = 1640
zE[371] = 778
zE[385] = 328
zE[386] = 496
zE[387] = 664
zE[388] = 832
zE[400] = 211
zE[401] = 379
zE[411] = 998
zE[412] = 1166
zE[421] = 935
zE[425] = 873
zX[57] = 1090
zX[62] = 1136
zX[75] = 439
zX[78] = 297
zX[86] = 483
zX[106] = 260
zX[107] = 376
zX[131] = 288
zX[132] = 456
zX[135] = 220
zX[140] = 923
zX[148] = 433
zX[151] = 670
zX[178] = 127
zX[180] = 295
zX[182] = 463
zX[193] = 470
zX[210] = 350
zX[231] = 171
zX[260] = 228
zX[261] = 259
zX[262] = 396
zX[263] = 427
zX[264] = 564
zX[282] = 92
zX[283] = 260
zX[285] = 428
zX[300] = 1030
zX[302] = 1316
zX[303] = 1484
zX[304] = 1520
zX[305] = 1652
zX[324] = 5093
zX[371] = 793
zX[385] = 347
zX[386] = 515
zX[387] = 683
zX[388] = 851
zX[400] = 230
zX[401] = 398
zX[411] = 1011
zX[412] = 1179
zX[421] = 943
zX[425] = 881
phi[1] = 227
phi[2] = 227
phi[5] = 1392
phi[6] = 1392
phi[7] = 888
phi[13] = 631
phi[18] = 541
phi[24] = 1008

### All variables with value smaller zero:

### End

real	1446m33.830s
user	4304m8.094s
sys	629m33.823s
	Freetype 2.4.12 environment removed
	Python 3.6.0 environment removed
	Gurobi 8.1.0 environment removed
