	Freetype 2.4.12 environment established
		library to render fonts
	Python 3.6.0 environment established
	Gurobi 8.1.0 environment established
Instance LSFRP: LSFDRP_3_2_1_1_fr.p
Instance LSFDP: LSFDRP_3_2_1_1_fd_31.p

*****************************************************************************************************************************
*** Solve LSFDRP_3_2_1_1_fd_31 with Gurobi
***
*** Graph info
*** |S|: 24
*** |S^E|: 0
*** |S^C|: 6
*** |V|: 431
*** |A|: 14925
*** |A^i|: 14778
*** |A^f|: 147
*** |M|: 348
*** |E|: 28

Changed value of parameter TimeLimit to 86400.0
   Prev: 1e+100  Min: 0.0  Max: 1e+100  Default: 1e+100
Changed value of parameter Threads to 4
   Prev: 0  Min: 0  Max: 1024  Default: 0
Optimize a model with 203293 rows, 5586376 columns and 20275474 nonzeros
Variable types: 5228140 continuous, 358236 integer (358236 binary)
Coefficient statistics:
  Matrix range     [1e+00, 5e+03]
  Objective range  [2e+00, 2e+07]
  Bounds range     [1e+00, 1e+00]
  RHS range        [1e+00, 5e+03]
Presolve removed 31003 rows and 1191981 columns (presolve time = 5s) ...
Presolve removed 83178 rows and 3393705 columns (presolve time = 10s) ...
Presolve removed 90596 rows and 3609084 columns (presolve time = 15s) ...
Presolve removed 96238 rows and 3642624 columns (presolve time = 21s) ...
Presolve removed 98593 rows and 3668174 columns (presolve time = 25s) ...
Presolve removed 100417 rows and 3719055 columns (presolve time = 30s) ...
Presolve removed 101377 rows and 3720254 columns (presolve time = 35s) ...
Presolve removed 101383 rows and 3720941 columns (presolve time = 41s) ...
Warning: Failed to open log file 'gurobi.log'
Presolve removed 101410 rows and 3720941 columns (presolve time = 50s) ...
Presolve removed 101410 rows and 3926308 columns (presolve time = 680s) ...
Presolve removed 110835 rows and 3926366 columns (presolve time = 680s) ...
Presolve removed 153765 rows and 5124297 columns (presolve time = 685s) ...
Presolve removed 154142 rows and 5128047 columns (presolve time = 690s) ...
Presolve removed 155244 rows and 5139166 columns (presolve time = 700s) ...
Presolve removed 155246 rows and 5140096 columns (presolve time = 768s) ...
Presolve removed 155219 rows and 5140069 columns
Presolve time: 767.98s
Presolved: 48074 rows, 446307 columns, 2147356 nonzeros
Variable types: 287213 continuous, 159094 integer (158571 binary)

Deterministic concurrent LP optimizer: primal simplex, dual simplex, and barrier
Showing barrier log only...

Presolve removed 369 rows and 3716 columns
Presolved: 47705 rows, 442591 columns, 2142469 nonzeros

Root barrier log...

Ordering time: 0.00s

Barrier statistics:
 Dense cols : 22
 AA' NZ     : 2.575e+06
 Factor NZ  : 5.042e+07 (roughly 600 MBytes of memory)
 Factor Ops : 1.877e+11 (roughly 11 seconds per iteration)
 Threads    : 1

                  Objective                Residual
Iter       Primal          Dual         Primal    Dual     Compl     Time
   0  -2.54577643e+15  2.13375430e+15  1.82e+08 2.66e+06  1.33e+12   798s
   1  -1.53271337e+15  2.12118772e+15  1.09e+08 7.76e+06  8.06e+11   811s
   2  -1.08192776e+15  2.09974462e+15  7.71e+07 4.80e+06  5.70e+11   826s
   3  -5.13677193e+14  2.06594314e+15  3.66e+07 2.33e+06  2.75e+11   840s
   4  -2.31670664e+14  1.97179462e+15  1.65e+07 9.79e+05  1.27e+11   854s
   5  -8.67671637e+13  1.75847965e+15  6.17e+06 3.66e+05  4.93e+10   867s
   6  -1.41110023e+13  1.45772859e+15  1.00e+06 6.22e+04  9.51e+09   882s
   7  -2.41402696e+12  5.81991784e+14  1.71e+05 2.01e-03  1.90e+09   897s
   8  -9.37774909e+11  1.62632261e+14  6.62e+04 2.48e-06  6.06e+08   909s
   9  -3.18416760e+11  4.85322370e+13  2.23e+04 1.69e-06  1.87e+08   923s
  10  -1.17772037e+11  2.25651804e+13  8.17e+03 2.02e-06  7.24e+07   936s
  11  -3.22430186e+10  6.77252277e+12  2.23e+03 1.77e-06  2.05e+07   949s
  12  -1.33189039e+10  3.59274349e+12  9.19e+02 2.22e-06  9.28e+06   963s
  13  -8.01949441e+09  2.20359544e+12  5.51e+02 1.70e-06  5.58e+06   976s
  14  -3.12180118e+09  1.32762491e+12  2.11e+02 8.33e-07  2.68e+06   989s
  15  -1.14098242e+09  7.17483864e+11  7.35e+01 5.68e-07  1.22e+06  1003s
  16  -5.25997506e+08  4.28224720e+11  3.13e+01 4.03e-07  6.54e+05  1017s
  17  -3.62846791e+08  2.67405376e+11  2.02e+01 2.74e-07  4.07e+05  1030s
  18  -1.85706872e+08  1.54107056e+11  9.04e+00 2.02e-07  2.21e+05  1044s
  19  -1.44850194e+08  1.21348075e+11  6.54e+00 2.33e-07  1.70e+05  1057s
  20  -1.00627947e+08  8.85240263e+10  3.94e+00 2.27e-07  1.19e+05  1070s
  21  -7.86078370e+07  6.30465607e+10  2.73e+00 2.08e-07  8.45e+04  1084s
  22  -4.92367463e+07  4.37357719e+10  1.30e+00 2.43e-07  5.56e+04  1098s
  23  -4.15932275e+07  3.05828238e+10  9.29e-01 2.30e-07  3.87e+04  1112s
  24  -3.45976255e+07  1.65196467e+10  6.28e-01 2.27e-07  2.12e+04  1125s
  25  -2.84032980e+07  1.13196970e+10  3.68e-01 1.62e-07  1.42e+04  1138s
  26  -2.49692065e+07  6.90544990e+09  2.42e-01 4.71e-07  8.65e+03  1152s
  27  -2.15050642e+07  5.02577781e+09  1.41e-01 3.01e-07  6.15e+03  1166s
  28  -1.88662218e+07  2.83270032e+09  9.05e-02 2.60e-07  3.50e+03  1179s
  29  -1.48600474e+07  2.00852389e+09  3.53e-02 1.71e-07  2.38e+03  1192s
  30  -1.03734851e+07  1.27270529e+09  2.48e-02 2.25e-07  1.52e+03  1206s
  31  -8.63121553e+06  6.14381473e+08  1.21e-02 2.30e-07  7.38e+02  1219s
  32  -5.26638394e+06  4.60630425e+08  7.15e-03 2.09e-07  5.45e+02  1233s
  33  -3.00815597e+06  3.11910294e+08  4.77e-03 2.77e-07  3.69e+02  1246s
  34  -4.85121191e+05  1.68835088e+08  2.90e-03 2.40e-07  2.00e+02  1260s
  35   1.65519005e+06  1.17353699e+08  1.72e-03 2.29e-07  1.35e+02  1274s
  36   3.03327574e+06  1.13613569e+08  1.19e-03 1.94e-07  1.28e+02  1287s
  37   3.56661729e+06  8.24469454e+07  1.04e-03 2.40e-07  9.20e+01  1300s
  38   4.96860954e+06  5.77787375e+07  6.43e-04 2.59e-07  6.14e+01  1314s
  39   6.22942429e+06  4.09255411e+07  3.63e-04 2.36e-07  4.01e+01  1327s
  40   6.77993461e+06  3.27023330e+07  2.89e-04 2.40e-07  3.01e+01  1340s
  41   7.36300335e+06  2.69145056e+07  2.18e-04 2.43e-07  2.27e+01  1355s
  42   7.59607456e+06  2.45633884e+07  1.97e-04 3.14e-07  1.98e+01  1368s
  43   7.89539695e+06  2.32818962e+07  1.77e-04 2.79e-07  1.79e+01  1382s
  44   8.16949355e+06  2.14805131e+07  1.57e-04 2.65e-07  1.55e+01  1395s
  45   8.32613248e+06  1.98315339e+07  1.45e-04 2.59e-07  1.35e+01  1409s
  46   8.44395543e+06  1.88658904e+07  1.35e-04 2.38e-07  1.22e+01  1423s
  47   8.82030622e+06  1.73575808e+07  1.04e-04 2.89e-07  9.97e+00  1437s
  48   9.02827334e+06  1.63027559e+07  8.91e-05 2.73e-07  8.50e+00  1451s
  49   9.32226826e+06  1.54492638e+07  7.19e-05 3.10e-07  7.15e+00  1465s
  50   9.96226252e+06  1.47617011e+07  4.26e-05 2.97e-07  5.54e+00  1480s
  51   1.02076472e+07  1.38719210e+07  3.40e-05 3.02e-07  4.24e+00  1493s
  52   1.05740468e+07  1.31082897e+07  2.19e-05 2.68e-07  2.92e+00  1508s
  53   1.08751915e+07  1.28315564e+07  1.49e-05 3.62e-07  2.25e+00  1521s
  54   1.10907978e+07  1.24523983e+07  9.87e-06 3.80e-07  1.56e+00  1534s
  55   1.11833202e+07  1.22147690e+07  7.85e-06 4.05e-07  1.19e+00  1548s
  56   1.12953556e+07  1.20397368e+07  5.30e-06 5.16e-07  8.55e-01  1563s
  57   1.14103706e+07  1.18239259e+07  2.90e-06 3.64e-07  4.76e-01  1577s
  58   1.14440526e+07  1.17308587e+07  2.20e-06 9.35e-07  3.32e-01  1591s
  59   1.15064072e+07  1.16810008e+07  9.29e-07 8.56e-07  2.00e-01  1604s
  60   1.15321730e+07  1.16079238e+07  9.61e-07 1.35e-05  8.73e-02  1618s
  61   1.15522853e+07  1.15684791e+07  4.91e-07 9.13e-06  1.85e-02  1631s
  62   1.15546690e+07  1.15566473e+07  9.52e-08 7.59e-06  2.29e-03  1644s
  63   1.15551792e+07  1.15553102e+07  3.04e-08 6.85e-06  1.57e-04  1657s
  64   1.15552357e+07  1.15552538e+07  1.16e-08 6.68e-06  2.25e-05  1670s
  65   1.15552434e+07  1.15552519e+07  1.74e-07 8.97e-06  1.00e-05  1684s
  66   1.15552489e+07  1.15552514e+07  7.19e-08 8.37e-06  2.87e-06  1697s
  67   1.15552504e+07  1.15552512e+07  1.32e-07 7.67e-06  7.40e-07  1710s
  68   1.15552506e+07  1.15552512e+07  8.49e-08 8.23e-06  4.32e-07  1723s
  69   1.15552508e+07  1.15552512e+07  5.17e-07 8.43e-06  1.65e-07  1736s
  70   1.15552511e+07  1.15552511e+07  2.05e-06 8.18e-06  3.49e-08  1750s
  71   1.15552511e+07  1.15552511e+07  9.78e-06 1.11e-05  3.15e-08  1762s

Barrier solved model in 71 iterations and 1762.47 seconds
Optimal objective 1.15552511e+07


Root crossover log...

   44775 DPushes remaining with DInf 0.0000000e+00              1763s
      63 DPushes remaining with DInf 0.0000000e+00              1766s
       0 DPushes remaining with DInf 2.1911723e-06              1766s

     120 PPushes remaining with PInf 3.9809359e-06              1766s
       0 PPushes remaining with PInf 0.0000000e+00              1766s

  Push phase complete: Pinf 0.0000000e+00, Dinf 8.2645509e-08   1766s


Root simplex log...

Iteration    Objective       Primal Inf.    Dual Inf.      Time
   39254    1.1555251e+07   0.000000e+00   0.000000e+00   1766s
   40411    1.1555259e+07   0.000000e+00   2.616461e+07   1771s
   41568    1.1555285e+07   0.000000e+00   3.159373e+09   1775s
   42999    1.1555385e+07   0.000000e+00   7.728426e+09   1781s
   44159    1.1555520e+07   0.000000e+00   2.777741e+09   1785s
   45442    1.1555724e+07   0.000000e+00   3.641410e+10   1790s
   46734    1.1555926e+07   0.000000e+00   2.376568e+09   1795s
   48014    1.1556083e+07   0.000000e+00   1.025541e+10   1800s
   49297    1.1556270e+07   0.000000e+00   7.597077e+09   1805s
   50577    1.1556476e+07   0.000000e+00   3.090422e+09   1810s
   51988    1.1556650e+07   0.000000e+00   2.357998e+09   1815s
   53273    1.1556809e+07   0.000000e+00   2.266119e+09   1820s
   54553    1.1556989e+07   0.000000e+00   2.289457e+09   1825s
   55962    1.1557197e+07   0.000000e+00   1.787662e+09   1830s
   57243    1.1557370e+07   0.000000e+00   1.719605e+09   1835s
   58528    1.1557551e+07   0.000000e+00   3.615118e+09   1840s
   59810    1.1557758e+07   0.000000e+00   3.224897e+09   1845s
   61220    1.1557971e+07   0.000000e+00   1.146722e+09   1850s
   62501    1.1558120e+07   0.000000e+00   3.917610e+09   1855s
   63911    1.1558349e+07   0.000000e+00   4.977659e+09   1860s
   65196    1.1558531e+07   0.000000e+00   1.590635e+09   1865s
   66477    1.1558680e+07   0.000000e+00   4.529303e+09   1870s
   67761    1.1558827e+07   0.000000e+00   2.476450e+09   1875s
   69172    1.1559012e+07   0.000000e+00   9.995721e+09   1880s
   70586    1.1559206e+07   0.000000e+00   1.009296e+11   1885s
   71873    1.1559325e+07   0.000000e+00   1.413904e+11   1890s
   73158    1.1559464e+07   0.000000e+00   3.759416e+09   1895s
   74445    1.1559599e+07   0.000000e+00   2.284026e+11   1900s
   75730    1.1559739e+07   0.000000e+00   7.930403e+09   1905s
   77156    1.1559907e+07   0.000000e+00   1.661954e+10   1910s
   78447    1.1560042e+07   0.000000e+00   2.726656e+09   1915s
   79733    1.1560187e+07   0.000000e+00   1.207894e+10   1920s
   81146    1.1560301e+07   0.000000e+00   3.657417e+10   1925s
   82429    1.1560404e+07   0.000000e+00   1.236261e+10   1930s
   83712    1.1560515e+07   0.000000e+00   2.389114e+09   1935s
   85000    1.1560660e+07   0.000000e+00   1.818667e+09   1940s
   86417    1.1560782e+07   0.000000e+00   2.284591e+09   1945s
   87706    1.1560961e+07   0.000000e+00   1.672170e+09   1950s
   88992    1.1561059e+07   0.000000e+00   8.971187e+08   1955s
   90409    1.1561206e+07   0.000000e+00   1.338778e+11   1960s
   91818    1.1561320e+07   0.000000e+00   2.525469e+09   1965s
   93230    1.1561440e+07   0.000000e+00   2.517005e+09   1970s
   94645    1.1561578e+07   0.000000e+00   1.035103e+10   1975s
   96057    1.1561762e+07   0.000000e+00   6.797474e+08   1980s
   97347    1.1561878e+07   0.000000e+00   7.334749e+09   1985s
   98757    1.1561961e+07   0.000000e+00   2.928268e+09   1990s
  100040    1.1562022e+07   0.000000e+00   8.970848e+10   1995s
  101458    1.1562126e+07   0.000000e+00   8.970035e+08   2000s
  102748    1.1562170e+07   0.000000e+00   1.401997e+09   2005s
  104036    1.1562238e+07   0.000000e+00   1.729769e+09   2010s
  105323    1.1562286e+07   0.000000e+00   4.326129e+08   2015s
  106614    1.1562364e+07   0.000000e+00   2.268483e+08   2020s
  107905    1.1562419e+07   0.000000e+00   2.023002e+09   2025s
  109316    1.1562479e+07   0.000000e+00   4.289362e+08   2030s
  110604    1.1562555e+07   0.000000e+00   2.582299e+10   2035s
  111889    1.1562626e+07   0.000000e+00   4.428618e+08   2040s
  113180    1.1562678e+07   0.000000e+00   1.854758e+08   2045s
  114465    1.1562730e+07   0.000000e+00   2.447906e+09   2050s
  115878    1.1562800e+07   0.000000e+00   3.123419e+08   2055s
  117296    1.1562891e+07   0.000000e+00   2.623550e+09   2060s
  118450    1.1562945e+07   0.000000e+00   2.174145e+09   2065s
  119737    1.1563027e+07   0.000000e+00   5.689061e+08   2070s
  121152    1.1563083e+07   0.000000e+00   3.959357e+08   2075s
  122568    1.1563146e+07   0.000000e+00   2.591120e+08   2080s
  123728    1.1563207e+07   0.000000e+00   1.098930e+09   2085s
  125271    1.1563275e+07   0.000000e+00   1.640053e+11   2090s
  126556    1.1563317e+07   0.000000e+00   5.691323e+09   2095s
  127846    1.1563393e+07   0.000000e+00   5.629873e+09   2100s
  129274    1.1563448e+07   0.000000e+00   2.818585e+10   2105s
  130565    1.1563488e+07   0.000000e+00   2.782220e+09   2110s
  132115    1.1563540e+07   0.000000e+00   5.322307e+09   2115s
  133403    1.1563600e+07   0.000000e+00   6.834623e+08   2120s
  134824    1.1563651e+07   0.000000e+00   3.958755e+08   2125s
  136236    1.1563690e+07   0.000000e+00   3.537688e+08   2130s
  137529    1.1563729e+07   0.000000e+00   2.634556e+09   2135s
  138962    1.1563782e+07   0.000000e+00   1.627464e+08   2140s
  140249    1.1563862e+07   0.000000e+00   2.008475e+09   2145s
  141542    1.1563913e+07   0.000000e+00   1.017462e+09   2150s
  142973    1.1563962e+07   0.000000e+00   7.790883e+07   2155s
  144275    1.1563989e+07   0.000000e+00   9.103742e+10   2160s
  145438    1.1564027e+07   0.000000e+00   2.449405e+08   2165s
  146862    1.1564066e+07   0.000000e+00   4.000912e+08   2170s
  148286    1.1564112e+07   0.000000e+00   2.950241e+09   2175s
  149585    1.1564148e+07   0.000000e+00   2.087132e+08   2180s
  151005    1.1564176e+07   0.000000e+00   3.191952e+09   2185s
  152289    1.1564213e+07   0.000000e+00   1.121907e+08   2190s
  153580    1.1564240e+07   0.000000e+00   3.401602e+09   2195s
  155003    1.1564303e+07   0.000000e+00   2.574141e+08   2200s
  156292    1.1564331e+07   0.000000e+00   7.269866e+09   2205s
  157703    1.1564386e+07   0.000000e+00   1.125448e+09   2210s
  158986    1.1564413e+07   0.000000e+00   3.950996e+08   2215s
  160279    1.1564462e+07   0.000000e+00   6.194929e+09   2220s
  161569    1.1564516e+07   0.000000e+00   1.660696e+08   2225s
  162863    1.1564548e+07   0.000000e+00   5.722431e+09   2230s
  164280    1.1564584e+07   0.000000e+00   8.135608e+07   2235s
  165697    1.1564614e+07   0.000000e+00   2.322231e+09   2240s
  166989    1.1564649e+07   0.000000e+00   2.659894e+08   2245s
  168406    1.1564680e+07   0.000000e+00   2.850108e+07   2250s
  169822    1.1564772e+07   0.000000e+00   1.789202e+08   2255s
  171241    1.1564804e+07   0.000000e+00   3.393089e+08   2260s
  172537    1.1564831e+07   0.000000e+00   1.923998e+10   2265s
  173959    1.1564859e+07   0.000000e+00   3.464262e+08   2270s
  175380    1.1564884e+07   0.000000e+00   4.356661e+08   2275s
  176800    1.1564915e+07   0.000000e+00   1.267591e+08   2280s
  178093    1.1564946e+07   0.000000e+00   1.002210e+09   2285s
  179525    1.1564971e+07   0.000000e+00   1.312069e+08   2290s
  180959    1.1564997e+07   0.000000e+00   3.964945e+09   2295s
  182251    1.1565041e+07   0.000000e+00   9.635205e+07   2300s
  183682    1.1565058e+07   0.000000e+00   1.415121e+07   2305s
  185101    1.1565071e+07   0.000000e+00   3.416054e+09   2310s
  186524    1.1565093e+07   0.000000e+00   1.621141e+09   2315s
  188073    1.1565107e+07   0.000000e+00   1.355783e+07   2320s
  189494    1.1565119e+07   0.000000e+00   1.532441e+07   2325s
  190914    1.1565133e+07   0.000000e+00   3.380615e+07   2330s
  192210    1.1565153e+07   0.000000e+00   4.958059e+07   2335s
  193631    1.1565168e+07   0.000000e+00   2.369794e+07   2340s
  195055    1.1565187e+07   0.000000e+00   2.428638e+07   2345s
  196497    1.1565198e+07   0.000000e+00   1.105745e+08   2351s
  197808    1.1565205e+07   0.000000e+00   8.601350e+06   2355s
  199227    1.1565214e+07   0.000000e+00   1.565107e+07   2360s
  200654    1.1565221e+07   0.000000e+00   5.365142e+07   2365s
  202203    1.1565226e+07   0.000000e+00   3.482117e+08   2370s
  203618    1.1565233e+07   0.000000e+00   9.981852e+07   2375s
  205041    1.1565239e+07   0.000000e+00   3.693194e+07   2380s
  206497    1.1565247e+07   0.000000e+00   2.797009e+06   2385s
  207919    1.1565251e+07   0.000000e+00   3.053392e+06   2390s
  209473    1.1565256e+07   0.000000e+00   2.902894e+07   2395s
  210892    1.1565267e+07   0.000000e+00   3.537020e+06   2400s
  212197    1.1565278e+07   0.000000e+00   8.584755e+06   2405s
  213744    1.1565280e+07   0.000000e+00   2.236277e+05   2410s
  215185    1.1565281e+07   0.000000e+00   2.751192e+05   2415s
  216344    1.1565281e+07   0.000000e+00   1.682878e+03   2420s
  216625    1.1555251e+07   0.000000e+00   0.000000e+00   2422s
Extra 177371 simplex iterations after uncrush
Concurrent spin time: 34.94s

Solved with barrier

Root relaxation: objective 1.155525e+07, 216625 iterations, 1684.84 seconds

    Nodes    |    Current Node    |     Objective Bounds      |     Work
 Expl Unexpl |  Obj  Depth IntInf | Incumbent    BestBd   Gap | It/Node Time

     0     0 1.1513e+07    0  316          - 1.1513e+07      -     - 2604s
     0     0 1.0603e+07    0  391          - 1.0603e+07      -     - 4589s
H    0     0                    -2046063.732 1.0603e+07   618%     - 4590s
H    0     0                    -1482063.722 1.0603e+07   815%     - 5927s
     0     0 1.0602e+07    0  394 -1482063.7 1.0602e+07   815%     - 6076s
     0     0 1.0602e+07    0  394 -1482063.7 1.0602e+07   815%     - 6077s
     0     0 1.0551e+07    0  408 -1482063.7 1.0551e+07   812%     - 14351s
     0     0 1.0546e+07    0  419 -1482063.7 1.0546e+07   812%     - 38061s
     0     0 1.0543e+07    0  435 -1482063.7 1.0543e+07   811%     - 67879s
     0     0 1.0542e+07    0  428 -1482063.7 1.0542e+07   811%     - 67936s
     0     0          -    0      -1482063.7 1.0542e+07   811%     - 86400s

Cutting planes:
  Gomory: 4
  Implied bound: 17
  Clique: 11
  MIR: 22
  Flow cover: 54
  Zero half: 1

Explored 1 nodes (6133079 simplex iterations) in 86400.42 seconds
Thread count was 4 (of 16 available processors)

Solution count 2: -1.48206e+06 -2.04606e+06 

Time limit reached
Best objective -1.482063721036e+06, best bound 1.054249668802e+07, gap 811.3390%

***
***  |- Calculation finished, timelimit reached 86,400.51 (86400.51) sec.))
***  |-----------------------------------------------------------------------------------------------------------------------
***
*****************************************************************************************************************************
#############################################################################################################################
###
### Results
###
### The objective of the solution is -1,482,063.721 (-1482063.721) and is feasible with a Gap of 8.1134
###
### Service 24 (WAF7) is operated by 3 vessels from type 18 (PMax25)
###  |- Vessel  1 has the path [131, 386, -1]
###  |  131 (DEHAM Out@288.0) - 386 (ESALG In@496.0/Out@515.0) - -1 (DUMMY_END Ziel-Service 24)
###  |- Vessel  2 has the path [132, 387, -1]
###  |  132 (DEHAM Out@456.0) - 387 (ESALG In@664.0/Out@683.0) - -1 (DUMMY_END Ziel-Service 24)
###  |- Vessel 13 has the path [135, 401, 265, 388, -1]
###  |  135 (DKAAR Out@220.0) - 401 (MAPTM In@379.0/Out@398.0) - 265 (MAPTM In@711.0/Out@732.0) - 388 (ESALG In@832.0/Out@851
###  |  .0) - -1 (DUMMY_END Ziel-Service 24)
###  |   |- and carried Demand 269,   83.0 containers from 265 to 388
###  |   |- and carried Demand 270,   11.0 containers from 265 to 388
###  |   |- and carried Demand 285,  214.0 containers from 401 to 388
###  |   |- and carried Demand 286,   10.0 containers from 401 to 388
###  |
### Service 121 (SAE) is operated by 2 vessels from type 30 (PMax35)
###  |- Vessel  9 has the path [9, 384, 264, 150, 412, -2]
###  |  9 (BEANR Out@66.0) - 384 (ESALG In@160.0/Out@179.0) - 264 (MAPTM In@543.0/Out@564.0) - 150 (ESALG In@589.0/Out@601.0)
###  |   - 412 (HNPCR In@1166.0/Out@1179.0) - -2 (DUMMY_END Ziel-Service 121)
###  |   |- and carried Demand  35,   60.0 containers from 264 to 150
###  |   |- and carried Demand  36,   11.0 containers from 264 to 150
###  |   |- and carried Demand 266,   60.0 containers from 264 to 150
###  |   |- and carried Demand 267,   11.0 containers from 264 to 150
###  |- Vessel 18 has the path [193, 425, 421, 411, -2]
###  |  193 (GBFXT Out@470.0) - 425 (USORF In@873.0/Out@881.0) - 421 (USMIA In@935.0/Out@943.0) - 411 (HNPCR In@998.0/Out@101
###  |  1.0) - -2 (DUMMY_END Ziel-Service 121)
###  |   |- and carried Demand 325,   10.0 containers from 421 to 411
###  |   |- and carried Demand 326,   75.0 containers from 425 to 411
###  |   |- and carried Demand 327,  114.0 containers from 425 to 411
###  |
### Service 177 (WCSA) is operated by 3 vessels from type 19 (PMax28)
###  |- Vessel  5 has the path [282, 178, 260, 400, 261, 385, 151, 58, 63, 303, 0]
###  |  282 (NLRTM Out@92.0) - 178 (FRLEH In@111.0/Out@127.0) - 260 (MAPTM In@207.0/Out@228.0) - 400 (MAPTM In@211.0/Out@230.
###  |  0) - 261 (MAPTM In@238.0/Out@259.0) - 385 (ESALG In@328.0/Out@347.0) - 151 (ESALG In@625.0/Out@670.0) - 58 (CLLQN In@
###  |  1240.0/Out@1258.0) - 63 (CLSAI In@1288.0/Out@1304.0) - 303 (PABLB In@1472.0/Out@1484.0) - 0 (DUMMY_END Ziel-Service 1
###  |  77)
###  |   |- and carried Demand   9,   17.0 containers from 282 to 178
###  |   |- and carried Demand 140,  552.0 containers from 151 to 303
###  |   |- and carried Demand 141,   13.0 containers from 151 to 303
###  |   |- and carried Demand 256,   42.0 containers from 282 to 385
###  |   |- and carried Demand 257,  580.0 containers from 260 to 385
###  |   |- and carried Demand 271,  580.0 containers from 261 to 385
###  |   |- and carried Demand 295,  580.0 containers from 400 to 385
###  |- Vessel  6 has the path [283, 180, 262, 299, 300, 301, 305, 0]
###  |  283 (NLRTM Out@260.0) - 180 (FRLEH In@279.0/Out@295.0) - 262 (MAPTM In@375.0/Out@396.0) - 299 (PABLB In@968.0/Out@980
###  |  .0) - 300 (PABLB In@982.0/Out@1030.0) - 301 (PABLB In@1136.0/Out@1148.0) - 305 (PABLB In@1640.0/Out@1652.0) - 0 (DUMM
###  |  Y_END Ziel-Service 177)
###  |   |- and carried Demand  17,    5.0 containers from 283 to 180
###  |- Vessel 16 has the path [181, 263, 302, 0]
###  |  181 (FRLEH Out@326.0) - 263 (MAPTM In@406.0/Out@427.0) - 302 (PABLB In@1304.0/Out@1316.0) - 0 (DUMMY_END Ziel-Service
###  |   177)
###  |
### Vessels not used in the solution: [3, 4, 7, 8, 10, 11, 12, 14, 15, 17, 19, 20, 21, 22, 23, 24]
###  |-----------------------------------------------------------------------------------------------------------------------
###
#############################################################################################################################

### Detialed variable overview

### All variables with value greater zero:
rho[24,18] = 1
rho[177,19] = 1
rho[121,30] = 1
eta[24,18,1] = 1
eta[24,18,2] = 1
eta[24,18,3] = 1
eta[177,19,1] = 1
eta[177,19,2] = 1
eta[177,19,3] = 1
eta[121,30,1] = 1
eta[121,30,2] = 1
y[1,131,386] = 1
y[1,386,-1] = 1
y[2,387,-1] = 1
y[2,132,387] = 1
y[5,260,400] = 1
y[5,63,303] = 1
y[5,282,178] = 1
y[5,385,151] = 1
y[5,58,63] = 1
y[5,303,0] = 1
y[5,261,385] = 1
y[5,178,260] = 1
y[5,151,58] = 1
y[5,400,261] = 1
y[6,299,300] = 1
y[6,180,262] = 1
y[6,300,301] = 1
y[6,262,299] = 1
y[6,305,0] = 1
y[6,301,305] = 1
y[6,283,180] = 1
y[9,264,150] = 1
y[9,9,384] = 1
y[9,150,412] = 1
y[9,384,264] = 1
y[9,412,-2] = 1
y[13,135,401] = 1
y[13,388,-1] = 1
y[13,401,265] = 1
y[13,265,388] = 1
y[16,263,302] = 1
y[16,302,0] = 1
y[16,181,263] = 1
y[18,421,411] = 1
y[18,425,421] = 1
y[18,411,-2] = 1
y[18,193,425] = 1
xD[9,282,178] = 17
xD[17,283,180] = 5
xD[35,264,150] = 60
xD[36,264,150] = 11
xD[140,63,303] = 552
xD[140,58,63] = 552
xD[140,151,58] = 552
xD[141,63,303] = 13
xD[141,58,63] = 13
xD[141,151,58] = 13
xD[256,260,400] = 42
xD[256,282,178] = 42
xD[256,261,385] = 42
xD[256,178,260] = 42
xD[256,400,261] = 42
xD[257,260,400] = 580
xD[257,261,385] = 580
xD[257,400,261] = 580
xD[266,264,150] = 60
xD[267,264,150] = 11
xD[269,265,388] = 83
xD[270,265,388] = 11
xD[271,261,385] = 580
xD[285,401,265] = 214
xD[285,265,388] = 214
xD[286,401,265] = 10
xD[286,265,388] = 10
xD[295,261,385] = 580
xD[295,400,261] = 580
xD[325,421,411] = 10
xD[326,421,411] = 75
xD[326,425,421] = 75
xD[327,421,411] = 114
xD[327,425,421] = 114
zE[58] = 1240
zE[63] = 1288
zE[150] = 589
zE[151] = 625
zE[178] = 111
zE[180] = 279
zE[260] = 207
zE[261] = 238
zE[262] = 375
zE[263] = 406
zE[264] = 543
zE[265] = 711
zE[299] = 968
zE[300] = 982
zE[301] = 1136
zE[302] = 1304
zE[303] = 1472
zE[305] = 1640
zE[384] = 160
zE[385] = 328
zE[386] = 496
zE[387] = 664
zE[388] = 832
zE[400] = 211
zE[401] = 379
zE[411] = 998
zE[412] = 1166
zE[421] = 935
zE[425] = 873
zX[9] = 66
zX[58] = 1258
zX[63] = 1304
zX[131] = 288
zX[132] = 456
zX[135] = 220
zX[150] = 601
zX[151] = 670
zX[178] = 127
zX[180] = 295
zX[181] = 326
zX[193] = 470
zX[260] = 228
zX[261] = 259
zX[262] = 396
zX[263] = 427
zX[264] = 564
zX[265] = 732
zX[282] = 92
zX[283] = 260
zX[299] = 980
zX[300] = 1030
zX[301] = 1148
zX[302] = 1316
zX[303] = 1484
zX[305] = 1652
zX[324] = 5093
zX[384] = 179
zX[385] = 347
zX[386] = 515
zX[387] = 683
zX[388] = 851
zX[400] = 230
zX[401] = 398
zX[411] = 1011
zX[412] = 1179
zX[421] = 943
zX[425] = 881
phi[1] = 227
phi[2] = 227
phi[5] = 1392
phi[6] = 1392
phi[9] = 1113
phi[13] = 631
phi[16] = 990
phi[18] = 541

### All variables with value smaller zero:

### End

real	1446m43.798s
user	3725m55.669s
sys	613m13.833s
	Freetype 2.4.12 environment removed
	Python 3.6.0 environment removed
	Gurobi 8.1.0 environment removed
