	Freetype 2.4.12 environment established
		library to render fonts
	Python 3.6.0 environment established
	Gurobi 8.1.0 environment established
Instance LSFRP: LSFDRP_3_2_1_1_fr.p
Instance LSFDP: LSFDRP_3_2_1_1_fd_19.p

*****************************************************************************************************************************
*** Solve LSFDRP_3_2_1_1_fd_19 with Gurobi
***
*** Graph info
*** |S|: 24
*** |S^E|: 0
*** |S^C|: 6
*** |V|: 431
*** |A|: 14925
*** |A^i|: 14778
*** |A^f|: 147
*** |M|: 348
*** |E|: 28

Changed value of parameter TimeLimit to 86400.0
   Prev: 1e+100  Min: 0.0  Max: 1e+100  Default: 1e+100
Changed value of parameter Threads to 4
   Prev: 0  Min: 0  Max: 1024  Default: 0
Optimize a model with 203293 rows, 5586376 columns and 20275474 nonzeros
Variable types: 5228140 continuous, 358236 integer (358236 binary)
Coefficient statistics:
  Matrix range     [1e+00, 5e+03]
  Objective range  [2e+00, 1e+07]
  Bounds range     [1e+00, 1e+00]
  RHS range        [1e+00, 5e+03]
Presolve removed 31003 rows and 1191981 columns (presolve time = 6s) ...
Presolve removed 72726 rows and 2990496 columns (presolve time = 10s) ...
Presolve removed 89948 rows and 3600742 columns (presolve time = 15s) ...
Presolve removed 90596 rows and 3619531 columns (presolve time = 20s) ...
Presolve removed 96574 rows and 3642624 columns (presolve time = 25s) ...
Presolve removed 100417 rows and 3718915 columns (presolve time = 32s) ...
Presolve removed 101123 rows and 3720000 columns (presolve time = 35s) ...
Presolve removed 101377 rows and 3720254 columns (presolve time = 43s) ...
Presolve removed 101383 rows and 3720941 columns (presolve time = 46s) ...
Warning: Failed to open log file 'gurobi.log'
Presolve removed 101410 rows and 3720941 columns (presolve time = 55s) ...
Presolve removed 101410 rows and 3926308 columns (presolve time = 664s) ...
Presolve removed 110835 rows and 3926366 columns (presolve time = 665s) ...
Presolve removed 153672 rows and 5124246 columns (presolve time = 670s) ...
Presolve removed 154039 rows and 5127823 columns (presolve time = 675s) ...
Presolve removed 155240 rows and 5139190 columns (presolve time = 686s) ...
Presolve removed 155242 rows and 5140133 columns (presolve time = 751s) ...
Presolve removed 155215 rows and 5140106 columns
Presolve time: 750.91s
Presolved: 48078 rows, 446270 columns, 2147272 nonzeros
Variable types: 286994 continuous, 159276 integer (158571 binary)

Deterministic concurrent LP optimizer: primal simplex, dual simplex, and barrier
Showing barrier log only...

Presolve removed 382 rows and 3821 columns
Presolved: 47696 rows, 442449 columns, 2142123 nonzeros

Root barrier log...

Ordering time: 0.00s

Barrier statistics:
 Dense cols : 22
 AA' NZ     : 2.575e+06
 Factor NZ  : 4.628e+07 (roughly 600 MBytes of memory)
 Factor Ops : 1.468e+11 (roughly 9 seconds per iteration)
 Threads    : 1

                  Objective                Residual
Iter       Primal          Dual         Primal    Dual     Compl     Time
   0  -2.54515352e+15  1.30804394e+15  1.82e+08 2.66e+06  8.15e+11   779s
   1  -1.53188138e+15  1.30033434e+15  1.09e+08 4.76e+06  4.94e+11   789s
   2  -1.08210378e+15  1.28819502e+15  7.72e+07 3.08e+06  3.50e+11   801s
   3  -6.62503480e+14  1.26926906e+15  4.72e+07 1.61e+06  2.16e+11   812s
   4  -3.34552193e+14  1.25021608e+15  2.39e+07 1.12e+06  1.11e+11   822s
   5  -1.19461614e+14  1.18298254e+15  8.51e+06 5.15e+05  4.09e+10   833s
   6  -3.57206457e+13  1.01992713e+15  2.54e+06 1.66e+05  1.31e+10   844s
   7  -1.22777799e+13  7.62880711e+14  8.72e+05 5.28e+04  4.80e+09   855s
   8  -2.52874135e+12  3.03255204e+14  1.79e+05 3.59e+02  1.09e+09   868s
   9  -4.41581022e+11  6.66919736e+13  3.11e+04 1.60e-06  1.89e+08   879s
  10  -2.70039708e+11  2.57546447e+13  1.89e+04 1.46e-06  9.41e+07   889s
  11  -7.17679567e+10  1.39887608e+13  4.91e+03 3.81e-05  3.23e+07   900s
  12  -1.93714530e+10  5.07751745e+12  1.33e+03 1.23e-05  1.03e+07   912s
  13  -1.17653015e+10  4.08756057e+12  8.03e+02 9.77e-06  7.34e+06   923s
  14  -6.80546667e+09  2.97755045e+12  4.63e+02 7.06e-06  4.92e+06   933s
  15  -2.47907716e+09  1.19018820e+12  1.65e+02 2.67e-06  1.92e+06   945s
  16  -6.33002697e+08  5.01065372e+11  3.86e+01 1.08e-06  7.03e+05   957s
  17  -3.16832438e+08  1.89830504e+11  1.74e+01 3.77e-07  2.77e+05   969s
  18  -2.06687141e+08  1.37015919e+11  1.05e+01 2.68e-07  1.91e+05   980s
  19  -1.56446000e+08  1.03145451e+11  7.41e+00 1.99e-07  1.42e+05   991s
  20  -1.08060152e+08  8.04316401e+10  4.55e+00 1.72e-07  1.06e+05  1001s
  21  -7.91074908e+07  6.53357026e+10  2.98e+00 1.57e-07  8.34e+04  1012s
  22  -6.46798753e+07  5.11863889e+10  2.21e+00 1.37e-07  6.48e+04  1022s
  23  -4.29329407e+07  3.08784732e+10  1.20e+00 1.59e-07  3.84e+04  1034s
  24  -3.19237416e+07  1.37322160e+10  6.93e-01 1.42e-07  1.74e+04  1045s
  25  -2.44757430e+07  8.30294686e+09  3.81e-01 1.26e-07  1.03e+04  1056s
  26  -2.19791066e+07  6.62350185e+09  2.88e-01 1.46e-07  8.17e+03  1066s
  27  -1.97291696e+07  4.74620653e+09  2.14e-01 1.02e-07  5.85e+03  1077s
  28  -1.60903735e+07  3.19442160e+09  1.11e-01 1.34e-07  3.86e+03  1088s
  29  -1.33308086e+07  2.01778456e+09  5.71e-02 1.21e-07  2.40e+03  1099s
  30  -1.10936707e+07  1.49494897e+09  3.06e-02 1.98e-07  1.75e+03  1109s
  31  -7.96283312e+06  9.61067573e+08  2.25e-02 1.29e-07  1.14e+03  1121s
  32  -6.62814672e+06  6.06338763e+08  1.87e-02 1.08e-07  7.34e+02  1131s
  33  -3.89927637e+06  4.03898153e+08  1.05e-02 1.14e-07  4.83e+02  1142s
  34  -1.36623101e+06  2.59652415e+08  6.53e-03 1.48e-07  3.09e+02  1153s
  35  -1.82188785e+05  1.81334400e+08  5.21e-03 1.49e-07  2.17e+02  1164s
  36   1.78644529e+06  1.27181264e+08  3.62e-03 1.74e-07  1.50e+02  1176s
  37   3.27612279e+06  1.04355289e+08  2.37e-03 1.88e-07  1.20e+02  1186s
  38   4.80856880e+06  7.14544986e+07  1.53e-03 1.94e-07  7.88e+01  1198s
  39   5.97500747e+06  5.21771948e+07  9.70e-04 2.25e-07  5.44e+01  1209s
  40   6.87125239e+06  3.83228690e+07  6.66e-04 2.05e-07  3.71e+01  1220s
  41   7.33330957e+06  3.41989866e+07  5.56e-04 2.73e-07  3.16e+01  1230s
  42   7.53977694e+06  3.15960680e+07  5.10e-04 2.02e-07  2.84e+01  1241s
  43   8.07326448e+06  2.74940882e+07  3.94e-04 2.14e-07  2.29e+01  1252s
  44   8.36142014e+06  2.59668811e+07  3.59e-04 2.28e-07  2.07e+01  1263s
  45   8.69562654e+06  2.31199573e+07  3.08e-04 2.61e-07  1.70e+01  1274s
  46   8.89420548e+06  2.14762704e+07  2.70e-04 2.34e-07  1.49e+01  1285s
  47   9.23282033e+06  1.99526641e+07  2.15e-04 2.94e-07  1.26e+01  1296s
  48   9.53408246e+06  1.84321902e+07  1.69e-04 2.00e-07  1.04e+01  1307s
  49   9.78212576e+06  1.70668428e+07  1.42e-04 2.10e-07  8.56e+00  1318s
  50   1.01840121e+07  1.60859328e+07  1.10e-04 2.38e-07  6.93e+00  1330s
  51   1.04460532e+07  1.55154238e+07  9.37e-05 2.80e-07  5.95e+00  1340s
  52   1.06138800e+07  1.51389632e+07  8.11e-05 2.24e-07  5.30e+00  1351s
  53   1.09282688e+07  1.42979525e+07  5.86e-05 2.60e-07  3.94e+00  1362s
  54   1.09868104e+07  1.40523520e+07  5.52e-05 2.95e-07  3.59e+00  1373s
  55   1.14136389e+07  1.34011012e+07  3.23e-05 2.58e-07  2.32e+00  1384s
  56   1.17224293e+07  1.29376296e+07  1.52e-05 1.81e-07  1.41e+00  1395s
  57   1.18324111e+07  1.25006167e+07  9.29e-06 1.64e-07  7.78e-01  1406s
  58   1.18949006e+07  1.23365039e+07  6.13e-06 2.01e-07  5.14e-01  1417s
  59   1.19018942e+07  1.23281848e+07  5.78e-06 1.55e-07  4.96e-01  1430s
  60   1.19334347e+07  1.21771546e+07  4.22e-06 1.98e-07  2.87e-01  1441s
  61   1.19407443e+07  1.21608437e+07  3.85e-06 2.97e-07  2.59e-01  1452s
  62   1.19626141e+07  1.21136212e+07  2.76e-06 2.45e-07  1.78e-01  1463s
  63   1.20093497e+07  1.20421112e+07  1.88e-06 2.59e-07  3.85e-02  1477s
  64   1.20184671e+07  1.20268881e+07  4.25e-07 3.95e-07  9.83e-03  1487s
  65   1.20206950e+07  1.20228091e+07  1.09e-07 4.47e-07  2.41e-03  1499s
  66   1.20209235e+07  1.20213780e+07  7.53e-08 3.84e-07  5.21e-04  1510s
  67   1.20209944e+07  1.20210151e+07  9.70e-08 6.44e-07  2.55e-05  1521s
  68   1.20210065e+07  1.20210080e+07  6.11e-08 5.71e-07  1.95e-06  1532s
  69   1.20210065e+07  1.20210080e+07  5.37e-07 6.42e-07  1.93e-06  1543s
  70   1.20210070e+07  1.20210079e+07  3.18e-07 5.06e-07  1.15e-06  1554s
  71   1.20210070e+07  1.20210079e+07  3.19e-07 5.89e-07  1.15e-06  1564s
  72   1.20210072e+07  1.20210078e+07  4.33e-06 4.90e-07  1.00e-06  1575s
  73   1.20210074e+07  1.20210078e+07  2.07e-06 9.80e-07  5.13e-07  1585s
  74   1.20210071e+07  1.20210078e+07  7.60e-07 9.55e-07  2.17e-07  1596s
  75   1.20210070e+07  1.20210078e+07  7.03e-07 8.67e-07  2.16e-07  1606s
  76   1.20210073e+07  1.20210077e+07  6.24e-06 7.62e-07  7.25e-08  1618s
  77   1.20210074e+07  1.20210077e+07  1.89e-05 9.04e-07  5.33e-08  1629s
  78   1.20210074e+07  1.20210077e+07  1.61e-05 2.33e-06  3.77e-08  1641s
  79   1.20210078e+07  1.20210077e+07  4.00e-05 1.10e-06  1.96e-09  1653s
  80   1.20210077e+07  1.20210077e+07  5.93e-05 4.54e-04  1.70e-09  1664s
  81   1.20210077e+07  1.20210077e+07  1.21e-05 4.19e-04  1.70e-09  1675s

Barrier solved model in 81 iterations and 1675.05 seconds
Optimal objective 1.20210077e+07


Root crossover log...

   44709 DPushes remaining with DInf 0.0000000e+00              1675s
       0 DPushes remaining with DInf 6.1557329e+11              1679s

      99 PPushes remaining with PInf 0.0000000e+00              1679s
       0 PPushes remaining with PInf 0.0000000e+00              1679s

  Push phase complete: Pinf 0.0000000e+00, Dinf 2.9379703e+05   1679s


Root simplex log...

Iteration    Objective       Primal Inf.    Dual Inf.      Time
   39149    1.2021008e+07   0.000000e+00   2.937970e+05   1679s
   39790    1.2021008e+07   0.000000e+00   6.448754e+05   1680s
   41591    1.2021008e+07   0.000000e+00   1.111569e+07   1685s
   43258    1.2021029e+07   0.000000e+00   1.578253e+10   1690s
   46377    1.2026074e+07   0.000000e+00   1.871909e+09   1695s
   50396    1.2031414e+07   0.000000e+00   1.543313e+09   1700s
   55705    1.2035518e+07   0.000000e+00   6.077520e+08   1705s
   59949    1.2037318e+07   0.000000e+00   9.097686e+08   1710s
   63687    1.2038676e+07   0.000000e+00   3.290581e+08   1715s
   67543    1.2039673e+07   0.000000e+00   2.180350e+08   1720s
   71020    1.2039835e+07   0.000000e+00   1.561712e+08   1725s
   74498    1.2040137e+07   0.000000e+00   1.195217e+08   1730s
   78230    1.2040588e+07   0.000000e+00   2.379708e+08   1735s
   82094    1.2040745e+07   0.000000e+00   9.202255e+07   1740s
   85703    1.2040853e+07   0.000000e+00   9.129258e+07   1745s
   88674    1.2040945e+07   0.000000e+00   7.955728e+08   1750s
   91637    1.2041128e+07   0.000000e+00   1.488517e+08   1755s
   94597    1.2041207e+07   0.000000e+00   5.547549e+07   1760s
   97677    1.2041278e+07   0.000000e+00   1.236569e+08   1765s
  100895    1.2041369e+07   0.000000e+00   7.818887e+07   1770s
  103987    1.2041441e+07   0.000000e+00   1.230599e+08   1775s
  106815    1.2041506e+07   0.000000e+00   4.580761e+07   1780s
  109902    1.2041535e+07   0.000000e+00   8.197034e+08   1785s
  112473    1.2041585e+07   0.000000e+00   5.900007e+07   1790s
  115436    1.2041624e+07   0.000000e+00   1.343132e+08   1795s
  118655    1.2041729e+07   0.000000e+00   2.147974e+07   1800s
  121478    1.2041741e+07   0.000000e+00   1.526535e+07   1805s
  124430    1.2041767e+07   0.000000e+00   1.030720e+08   1810s
  127381    1.2041870e+07   0.000000e+00   4.462420e+07   1815s
  130340    1.2041910e+07   0.000000e+00   4.020642e+07   1820s
  133811    1.2041966e+07   0.000000e+00   6.859920e+07   1825s
  137291    1.2041977e+07   0.000000e+00   2.605079e+07   1830s
  140123    1.2042001e+07   0.000000e+00   1.574177e+08   1835s
  143336    1.2042025e+07   0.000000e+00   9.839737e+07   1840s
  146287    1.2042268e+07   0.000000e+00   9.192377e+07   1845s
  149374    1.2042305e+07   0.000000e+00   2.492647e+07   1850s
  152215    1.2042318e+07   0.000000e+00   8.388490e+07   1855s
  154797    1.2042354e+07   0.000000e+00   3.706477e+08   1860s
  157636    1.2042369e+07   0.000000e+00   4.614512e+07   1865s
  160474    1.2042376e+07   0.000000e+00   1.241459e+07   1870s
  162921    1.2042388e+07   0.000000e+00   2.643653e+07   1875s
  165361    1.2042429e+07   0.000000e+00   9.135175e+06   1880s
  168064    1.2042446e+07   0.000000e+00   8.412755e+07   1885s
  170640    1.2042460e+07   0.000000e+00   1.353446e+09   1890s
  173081    1.2042475e+07   0.000000e+00   3.118049e+07   1895s
  175139    1.2042505e+07   0.000000e+00   1.868161e+08   1900s
  177450    1.2042514e+07   0.000000e+00   1.736599e+07   1905s
  180025    1.2042527e+07   0.000000e+00   6.289584e+06   1910s
  182607    1.2042551e+07   0.000000e+00   1.043981e+08   1915s
  184801    1.2042555e+07   0.000000e+00   9.856106e+07   1920s
  187251    1.2042564e+07   0.000000e+00   5.512207e+09   1925s
  189440    1.2042576e+07   0.000000e+00   4.470862e+07   1930s
  192016    1.2042580e+07   0.000000e+00   5.354029e+06   1935s
  194341    1.2042584e+07   0.000000e+00   6.546769e+06   1940s
  196915    1.2042606e+07   0.000000e+00   1.286612e+07   1945s
  199236    1.2042620e+07   0.000000e+00   4.945613e+06   1950s
  201559    1.2042638e+07   0.000000e+00   7.932441e+06   1955s
  204130    1.2042663e+07   0.000000e+00   5.299432e+06   1960s
  206843    1.2042685e+07   0.000000e+00   8.739814e+06   1965s
  208915    1.2042685e+07   0.000000e+00   9.265026e+06   1970s
  210851    1.2042686e+07   0.000000e+00   2.846060e+08   1975s
  212787    1.2042686e+07   0.000000e+00   1.031402e+07   1980s
  214845    1.2042686e+07   0.000000e+00   4.212416e+06   1985s
  217160    1.2042688e+07   0.000000e+00   4.297349e+06   1990s
  219218    1.2042688e+07   0.000000e+00   1.762543e+06   1995s
  221407    1.2042688e+07   0.000000e+00   1.485272e+06   2000s
  223340    1.2042688e+07   0.000000e+00   6.612781e+05   2005s
  225268    1.2042688e+07   0.000000e+00   6.356890e+05   2010s
  227070    1.2042688e+07   0.000000e+00   6.154783e+05   2015s
  228758    1.2042688e+07   0.000000e+00   2.819318e+06   2020s
  230568    1.2042688e+07   0.000000e+00   1.066755e+06   2025s
  232239    1.2042688e+07   0.000000e+00   4.048335e+06   2030s
  234184    1.2042689e+07   0.000000e+00   6.312713e+05   2035s
  235993    1.2042689e+07   0.000000e+00   4.422464e+05   2040s
  237536    1.2042689e+07   0.000000e+00   2.225853e+06   2045s
  239337    1.2042689e+07   0.000000e+00   1.248049e+06   2050s
  241020    1.2042689e+07   0.000000e+00   2.819134e+05   2055s
  242696    1.2042689e+07   0.000000e+00   5.214486e+05   2060s
  244369    1.2042689e+07   0.000000e+00   9.801268e+04   2065s
  246045    1.2042689e+07   0.000000e+00   1.313197e+05   2070s
  247607    1.2042689e+07   0.000000e+00   4.771710e+04   2075s
  249028    1.2042689e+07   0.000000e+00   2.409219e+05   2080s
  250322    1.2042689e+07   0.000000e+00   5.169246e+04   2085s
  251611    1.2042689e+07   0.000000e+00   1.366909e+03   2090s
  252077    1.2021008e+07   0.000000e+00   0.000000e+00   2092s
  253197    1.2021368e+07   0.000000e+00   1.955387e+09   2095s
  254492    1.2021449e+07   0.000000e+00   1.040554e+09   2100s
  255787    1.2021517e+07   0.000000e+00   4.064793e+08   2105s
  256941    1.2021576e+07   0.000000e+00   1.721889e+09   2110s
  258102    1.2021633e+07   0.000000e+00   2.062241e+08   2115s
  259396    1.2021677e+07   0.000000e+00   1.279804e+11   2120s
  260813    1.2021726e+07   0.000000e+00   7.817011e+07   2125s
  262095    1.2021776e+07   0.000000e+00   1.867595e+08   2130s
  263380    1.2021806e+07   0.000000e+00   6.611640e+07   2135s
  264792    1.2021840e+07   0.000000e+00   2.349689e+09   2140s
  266079    1.2021887e+07   0.000000e+00   3.723898e+08   2145s
  267496    1.2021933e+07   0.000000e+00   9.486497e+08   2150s
  268791    1.2021958e+07   0.000000e+00   1.113782e+08   2155s
  270081    1.2022025e+07   0.000000e+00   1.555524e+08   2160s
  271504    1.2022066e+07   0.000000e+00   8.150022e+07   2165s
  272931    1.2022107e+07   0.000000e+00   4.211984e+08   2170s
  274225    1.2022129e+07   0.000000e+00   1.184115e+09   2175s
  275527    1.2022158e+07   0.000000e+00   2.659010e+08   2180s
  276826    1.2022172e+07   0.000000e+00   8.847272e+07   2185s
  278248    1.2022189e+07   0.000000e+00   3.010681e+07   2190s
  279537    1.2022206e+07   0.000000e+00   7.169297e+08   2195s
  280830    1.2022223e+07   0.000000e+00   5.456762e+09   2200s
  282121    1.2022248e+07   0.000000e+00   6.012662e+07   2205s
  283415    1.2022267e+07   0.000000e+00   1.458031e+07   2210s
  284584    1.2022289e+07   0.000000e+00   2.377279e+07   2215s
  286142    1.2022309e+07   0.000000e+00   1.289199e+07   2220s
  287439    1.2022318e+07   0.000000e+00   7.613510e+07   2225s
  288857    1.2022339e+07   0.000000e+00   1.576257e+07   2230s
  290166    1.2022351e+07   0.000000e+00   7.329893e+08   2235s
  291470    1.2022365e+07   0.000000e+00   1.279462e+08   2240s
  292761    1.2022389e+07   0.000000e+00   1.542238e+08   2245s
  294068    1.2022396e+07   0.000000e+00   1.130613e+07   2250s
  295368    1.2022408e+07   0.000000e+00   1.408110e+07   2255s
  296543    1.2022410e+07   0.000000e+00   8.957793e+06   2260s
  297842    1.2022414e+07   0.000000e+00   9.607304e+06   2265s
  299138    1.2022420e+07   0.000000e+00   2.376446e+08   2270s
  300173    1.2022425e+07   0.000000e+00   1.602451e+07   2275s
  301465    1.2022427e+07   0.000000e+00   5.169796e+07   2280s
  302763    1.2022430e+07   0.000000e+00   1.167577e+07   2285s
  304062    1.2022434e+07   0.000000e+00   1.342329e+08   2290s
  305353    1.2022443e+07   0.000000e+00   3.663726e+07   2295s
  306531    1.2022446e+07   0.000000e+00   3.463857e+07   2300s
  307829    1.2022448e+07   0.000000e+00   2.464366e+07   2305s
  309120    1.2022450e+07   0.000000e+00   1.334079e+09   2310s
  310414    1.2022454e+07   0.000000e+00   4.330891e+06   2315s
  311703    1.2022466e+07   0.000000e+00   1.234127e+08   2320s
  312991    1.2022480e+07   0.000000e+00   6.430210e+06   2325s
  314286    1.2022494e+07   0.000000e+00   6.358655e+07   2330s
  315713    1.2022502e+07   0.000000e+00   4.281382e+07   2335s
  317002    1.2022505e+07   0.000000e+00   4.419862e+09   2340s
  318287    1.2022557e+07   0.000000e+00   2.292723e+08   2345s
  319707    1.2022560e+07   0.000000e+00   1.388582e+07   2350s
  321002    1.2022565e+07   0.000000e+00   2.789454e+08   2355s
  322425    1.2022572e+07   0.000000e+00   1.063761e+07   2360s
  323726    1.2022575e+07   0.000000e+00   3.862907e+08   2365s
  325023    1.2022578e+07   0.000000e+00   7.513165e+06   2370s
  326333    1.2022579e+07   0.000000e+00   4.923857e+06   2375s
  327629    1.2022583e+07   0.000000e+00   2.356119e+06   2380s
  328917    1.2022584e+07   0.000000e+00   2.012668e+06   2385s
  330079    1.2022585e+07   0.000000e+00   1.032900e+06   2390s
  331243    1.2022586e+07   0.000000e+00   9.492884e+05   2395s
  332534    1.2022586e+07   0.000000e+00   2.661775e+06   2400s
  333832    1.2022587e+07   0.000000e+00   8.209193e+05   2405s
  335126    1.2022587e+07   0.000000e+00   4.630282e+05   2410s
  336286    1.2022587e+07   0.000000e+00   4.764409e+05   2415s
  337451    1.2022588e+07   0.000000e+00   4.820079e+06   2420s
  338741    1.2022588e+07   0.000000e+00   3.707811e+05   2425s
  340035    1.2022588e+07   0.000000e+00   3.685460e+05   2430s
  341334    1.2022588e+07   0.000000e+00   1.781584e+05   2435s
  342619    1.2022588e+07   0.000000e+00   5.371948e+04   2440s
  343778    1.2022588e+07   0.000000e+00   9.775785e+04   2445s
  344938    1.2022589e+07   0.000000e+00   2.675153e+04   2450s
  346091    1.2022589e+07   0.000000e+00   1.304062e+04   2455s
  347120    1.2022589e+07   0.000000e+00   3.780152e+04   2460s
  347706    1.2021008e+07   0.000000e+00   0.000000e+00   2464s
Extra 95629 simplex iterations after uncrush
Concurrent spin time: 19.41s

Solved with barrier

Root relaxation: objective 1.202101e+07, 347706 iterations, 1728.03 seconds

    Nodes    |    Current Node    |     Objective Bounds      |     Work
 Expl Unexpl |  Obj  Depth IntInf | Incumbent    BestBd   Gap | It/Node Time

     0     0 1.1970e+07    0  339          - 1.1970e+07      -     - 3081s
     0     0 1.1077e+07    0  409          - 1.1077e+07      -     - 5338s
H    0     0                    -1867930.399 1.1077e+07   693%     - 5339s
H    0     0                    -1333246.397 1.1077e+07   931%     - 5370s
     0     0 1.1077e+07    0  392 -1333246.4 1.1077e+07   931%     - 5540s
     0     0 1.1077e+07    0  397 -1333246.4 1.1077e+07   931%     - 5648s
     0     0 1.1076e+07    0  398 -1333246.4 1.1076e+07   931%     - 5719s
     0     0 1.1076e+07    0  398 -1333246.4 1.1076e+07   931%     - 5719s
     0     0 1.1025e+07    0  388 -1333246.4 1.1025e+07   927%     - 6458s
     0     0 1.1022e+07    0  403 -1333246.4 1.1022e+07   927%     - 6667s
     0     0 1.1013e+07    0  384 -1333246.4 1.1013e+07   926%     - 7120s
     0     0 1.1012e+07    0  382 -1333246.4 1.1012e+07   926%     - 7377s
     0     0 1.1012e+07    0  384 -1333246.4 1.1012e+07   926%     - 7378s
     0     0 1.1009e+07    0  400 -1333246.4 1.1009e+07   926%     - 7649s
H    0     0                    -904221.8540 1.1009e+07  1318%     - 7650s
H    0     0                    -177519.8511 1.1009e+07  6302%     - 7687s
     0     0 1.1007e+07    0  412 -177519.85 1.1007e+07  6300%     - 7914s
     0     0 1.1007e+07    0  416 -177519.85 1.1007e+07  6300%     - 7935s
     0     0 1.1002e+07    0  408 -177519.85 1.1002e+07  6298%     - 8169s
     0     0 1.1000e+07    0  397 -177519.85 1.1000e+07  6297%     - 8389s
     0     0 1.1000e+07    0  400 -177519.85 1.1000e+07  6296%     - 8417s
     0     0 1.0999e+07    0  400 -177519.85 1.0999e+07  6296%     - 8420s
     0     0 1.0998e+07    0  411 -177519.85 1.0998e+07  6295%     - 8609s
     0     0 1.0998e+07    0  415 -177519.85 1.0998e+07  6295%     - 8620s
     0     0 1.0996e+07    0  410 -177519.85 1.0996e+07  6294%     - 9211s
     0     0 1.0995e+07    0  412 -177519.85 1.0995e+07  6293%     - 9514s
     0     0 1.0994e+07    0  403 -177519.85 1.0994e+07  6293%     - 9619s
     0     0 1.0994e+07    0  403 -177519.85 1.0994e+07  6293%     - 9620s
     0     0 1.0994e+07    0  438 -177519.85 1.0994e+07  6293%     - 9939s
     0     0 1.0994e+07    0  433 -177519.85 1.0994e+07  6293%     - 9972s
     0     0 1.0994e+07    0  432 -177519.85 1.0994e+07  6293%     - 10138s
     0     0 1.0994e+07    0  442 -177519.85 1.0994e+07  6293%     - 10172s
     0     0 1.0994e+07    0  410 -177519.85 1.0994e+07  6293%     - 10454s
     0     0 1.0994e+07    0  406 -177519.85 1.0994e+07  6293%     - 10489s
     0     0 1.0994e+07    0  412 -177519.85 1.0994e+07  6293%     - 10532s
     0     0 1.0994e+07    0  418 -177519.85 1.0994e+07  6293%     - 10550s
     0     0 1.0994e+07    0  424 -177519.85 1.0994e+07  6293%     - 10641s
     0     0 1.0994e+07    0  424 -177519.85 1.0994e+07  6293%     - 11015s
H    0     0                    478323.39334 1.0994e+07  2198%     - 11319s
H    0     0                    691439.86435 1.0994e+07  1490%     - 13636s
     0     2 1.0994e+07    0  421 691439.864 1.0994e+07  1490%     - 13649s
     1     4 1.0955e+07    1  410 691439.864 1.0993e+07  1490% 49532 20443s
     3     8 1.0856e+07    2  424 691439.864 1.0955e+07  1484% 197696 25639s
     7    12 9876402.72    3  348 691439.864 1.0946e+07  1483% 195086 29460s
    11    14 1.0728e+07    3  388 691439.864 1.0946e+07  1483% 148231 32746s
    15    17 1.0670e+07    4  426 691439.864 1.0946e+07  1483% 127739 34990s
    19    19 1.0701e+07    4  361 691439.864 1.0946e+07  1483% 106138 36212s
    23    20 1.0700e+07    5  353 691439.864 1.0946e+07  1483% 90696 36915s
    28    28 1.0669e+07    7  307 691439.864 1.0946e+07  1483% 81975 39203s
    33    33 1.0699e+07    7  351 691439.864 1.0946e+07  1483% 75965 40535s
    39    38 1.0680e+07    9  350 691439.864 1.0946e+07  1483% 78689 47298s
    43    40 1.0680e+07   10  353 691439.864 1.0946e+07  1483% 77389 49614s
    49    49 1.0630e+07   12  368 691439.864 1.0946e+07  1483% 75689 51423s
    53    53 1.0621e+07   12  309 691439.864 1.0946e+07  1483% 75380 53705s
    59    56 1.0621e+07   13  303 691439.864 1.0946e+07  1483% 71338 55637s
    69    69 1.0513e+07   15  307 691439.864 1.0946e+07  1483% 64470 58465s
    76    75 1.0357e+07   16  334 691439.864 1.0946e+07  1483% 62025 60029s
    84    83 1.0500e+07   16  332 691439.864 1.0946e+07  1483% 58117 65848s
    95    89 1.0470e+07   18  316 691439.864 1.0946e+07  1483% 57476 72738s
   108   105 1.0470e+07   20  313 691439.864 1.0946e+07  1483% 52119 75006s
   122   119 1.0446e+07   23  356 691439.864 1.0946e+07  1483% 48308 78239s
   135   134 1.0298e+07   25  323 691439.864 1.0946e+07  1483% 46622 81824s
   148   145 1.0400e+07   26  320 691439.864 1.0946e+07  1483% 44314 84873s
   163   157 1.0388e+07   28  348 691439.864 1.0946e+07  1483% 42635 86400s

Cutting planes:
  Gomory: 4
  Implied bound: 41
  Clique: 19
  MIR: 42
  Flow cover: 93
  Zero half: 1

Explored 173 nodes (7963178 simplex iterations) in 86400.40 seconds
Thread count was 4 (of 16 available processors)

Solution count 6: 691440 478323 -177520 ... -1.86793e+06

Time limit reached
Warning: max constraint violation (4.9272e-06) exceeds tolerance
Warning: max bound violation (7.0316e-06) exceeds tolerance
Best objective 6.914398643541e+05, best bound 1.094561564230e+07, gap 1483.0177%

***
***  |- Calculation finished, timelimit reached 86,400.49 (86400.49) sec.))
***  |-----------------------------------------------------------------------------------------------------------------------
***
*****************************************************************************************************************************
#############################################################################################################################
###
### Results
###
### The objective of the solution is 691,439.8644 (691439.8644) and is feasible with a Gap of 14.8302
###
### Service 24 (WAF7) is operated by 3 vessels from type 18 (PMax25)
###  |- Vessel  1 has the path [131, 386, -1]
###  |  131 (DEHAM Out@288.0) - 386 (ESALG In@496.0/Out@515.0) - -1 (DUMMY_END Ziel-Service 24)
###  |- Vessel  2 has the path [132, 387, -1]
###  |  132 (DEHAM Out@456.0) - 387 (ESALG In@664.0/Out@683.0) - -1 (DUMMY_END Ziel-Service 24)
###  |- Vessel 13 has the path [135, 401, 263, 149, 388, -1]
###  |  135 (DKAAR Out@220.0) - 401 (MAPTM In@379.0/Out@398.0) - 263 (MAPTM In@406.0/Out@427.0) - 149 (ESALG In@452.0/Out@464
###  |  .0) - 388 (ESALG In@832.0/Out@851.0) - -1 (DUMMY_END Ziel-Service 24)
###  |   |- and carried Demand  66,  484.0 containers from 263 to 149
###  |   |- and carried Demand  67,   18.0 containers from 263 to 149
###  |   |- and carried Demand 272,  214.0 containers from 263 to 388
###  |   |- and carried Demand 273,   10.0 containers from 263 to 388
###  |   |- and carried Demand 274,  484.0 containers from 263 to 149
###  |   |- and carried Demand 275,   18.0 containers from 263 to 149
###  |   |- and carried Demand 285,  214.0 containers from 401 to 388
###  |   |- and carried Demand 286,   10.0 containers from 401 to 388
###  |   |- and carried Demand 287,  484.0 containers from 401 to 149
###  |   |- and carried Demand 288,   18.0 containers from 401 to 149
###  |
### Service 121 (SAE) is operated by 2 vessels from type 30 (PMax35)
###  |- Vessel 18 has the path [193, 425, 421, 411, -2]
###  |  193 (GBFXT Out@470.0) - 425 (USORF In@873.0/Out@881.0) - 421 (USMIA In@935.0/Out@943.0) - 411 (HNPCR In@998.0/Out@101
###  |  1.0) - -2 (DUMMY_END Ziel-Service 121)
###  |   |- and carried Demand 325,   10.0 containers from 421 to 411
###  |   |- and carried Demand 326,   75.0 containers from 425 to 411
###  |   |- and carried Demand 327,  114.0 containers from 425 to 411
###  |- Vessel 24 has the path [231, 106, 78, 210, 107, 75, 86, 140, 300, 412, -2]
###  |  231 (JPYOK Out@171.0) - 106 (CNXMN In@238.0/Out@260.0) - 78 (CNNSA In@287.0/Out@297.0) - 210 (HKHKG In@334.0/Out@350.
###  |  0) - 107 (CNYTN In@358.0/Out@376.0) - 75 (CNNGB In@430.0/Out@439.0) - 86 (CNSHA In@465.0/Out@483.0) - 140 (ECGYE In@9
###  |  11.0/Out@923.0) - 300 (PABLB In@982.0/Out@1030.0) - 412 (HNPCR In@1166.0/Out@1179.0) - -2 (DUMMY_END Ziel-Service 121
###  |  )
###  |   |- and carried Demand  87,  541.0 containers from 231 to 300
###  |   |- and carried Demand 178,  785.0 containers from 106 to 210
###  |   |- and carried Demand 179,    1.0 containers from 106 to 210
###  |   |- and carried Demand 181,  121.0 containers from 210 to  75
###  |   |- and carried Demand 182,   75.0 containers from 210 to  86
###  |   |- and carried Demand 183,    1.0 containers from 210 to 107
###  |   |- and carried Demand 186,    6.0 containers from 107 to 300
###  |   |- and carried Demand 188,  773.0 containers from  75 to 300
###  |   |- and carried Demand 189,    1.0 containers from  75 to 300
###  |   |- and carried Demand 297,    6.0 containers from 107 to 300
###  |   |- and carried Demand 298,  773.0 containers from  75 to 300
###  |   |- and carried Demand 299,    1.0 containers from  75 to 300
###  |
### Service 177 (WCSA) is operated by 3 vessels from type 19 (PMax28)
###  |- Vessel  7 has the path [285, 182, 264, 302, 0]
###  |  285 (NLRTM Out@428.0) - 182 (FRLEH In@447.0/Out@463.0) - 264 (MAPTM In@543.0/Out@564.0) - 302 (PABLB In@1304.0/Out@13
###  |  16.0) - 0 (DUMMY_END Ziel-Service 177)
###  |   |- and carried Demand  32,    6.0 containers from 285 to 182
###  |- Vessel  8 has the path [287, 183, 265, 301, 305, 0]
###  |  287 (NLRTM Out@596.0) - 183 (FRLEH In@615.0/Out@631.0) - 265 (MAPTM In@711.0/Out@732.0) - 301 (PABLB In@1136.0/Out@11
###  |  48.0) - 305 (PABLB In@1640.0/Out@1652.0) - 0 (DUMMY_END Ziel-Service 177)
###  |- Vessel 15 has the path [179, 261, 385, 151, 371, 303, 0]
###  |  179 (FRLEH Out@158.0) - 261 (MAPTM In@238.0/Out@259.0) - 385 (ESALG In@328.0/Out@347.0) - 151 (ESALG In@625.0/Out@670
###  |  .0) - 371 (TRZMK In@778.0/Out@793.0) - 303 (PABLB In@1472.0/Out@1484.0) - 0 (DUMMY_END Ziel-Service 177)
###  |   |- and carried Demand 140,  552.0 containers from 151 to 303
###  |   |- and carried Demand 141,   13.0 containers from 151 to 303
###  |   |- and carried Demand 271,  580.0 containers from 261 to 385
###  |
### Vessels not used in the solution: [3, 4, 5, 6, 9, 10, 11, 12, 14, 16, 17, 19, 20, 21, 22, 23]
###  |-----------------------------------------------------------------------------------------------------------------------
###
#############################################################################################################################

### Detialed variable overview

### All variables with value greater zero:
rho[24,18] = 1
rho[177,19] = 1
rho[121,30] = 1
eta[24,18,1] = 1
eta[24,18,2] = 1
eta[24,18,3] = 1
eta[177,19,1] = 1
eta[177,19,2] = 1
eta[177,19,3] = 1
eta[121,30,1] = 1
eta[121,30,2] = 1
y[1,131,386] = 1
y[1,386,-1] = 1
y[2,387,-1] = 1
y[2,132,387] = 1
y[7,302,0] = 1
y[7,285,182] = 1
y[7,264,302] = 1
y[7,182,264] = 1
y[8,287,183] = 1
y[8,305,0] = 1
y[8,183,265] = 1
y[8,301,305] = 1
y[8,265,301] = 1
y[13,401,263] = 1
y[13,263,149] = 1
y[13,135,401] = 1
y[13,149,388] = 1
y[13,388,-1] = 1
y[15,385,151] = 1
y[15,303,0] = 1
y[15,151,371] = 1
y[15,261,385] = 1
y[15,371,303] = 1
y[15,179,261] = 1
y[18,421,411] = 1
y[18,425,421] = 1
y[18,411,-2] = 1
y[18,193,425] = 1
y[24,300,412] = 1
y[24,231,106] = 1
y[24,210,107] = 1
y[24,412,-2] = 1
y[24,106,78] = 1
y[24,75,86] = 1
y[24,140,300] = 1
y[24,78,210] = 1
y[24,86,140] = 1
y[24,107,75] = 1
xD[32,285,182] = 6
xD[66,263,149] = 484
xD[67,263,149] = 18
xD[87,231,106] = 541
xD[87,210,107] = 541
xD[87,106,78] = 541
xD[87,75,86] = 541
xD[87,140,300] = 541
xD[87,78,210] = 541
xD[87,86,140] = 541
xD[87,107,75] = 541
xD[140,151,371] = 552
xD[140,371,303] = 552
xD[141,151,371] = 13
xD[141,371,303] = 13
xD[178,106,78] = 785
xD[178,78,210] = 785
xD[179,106,78] = 1
xD[179,78,210] = 1
xD[181,210,107] = 121
xD[181,107,75] = 121
xD[182,210,107] = 75
xD[182,75,86] = 75
xD[182,107,75] = 75
xD[183,210,107] = 1
xD[186,75,86] = 6
xD[186,140,300] = 6
xD[186,86,140] = 6
xD[186,107,75] = 6
xD[188,75,86] = 773
xD[188,140,300] = 773
xD[188,86,140] = 773
xD[189,75,86] = 1
xD[189,140,300] = 1
xD[189,86,140] = 1
xD[271,261,385] = 580
xD[272,263,149] = 214
xD[272,149,388] = 214
xD[273,263,149] = 10
xD[273,149,388] = 10
xD[274,263,149] = 484
xD[275,263,149] = 18
xD[285,401,263] = 214
xD[285,263,149] = 214
xD[285,149,388] = 214
xD[286,401,263] = 10
xD[286,263,149] = 10
xD[286,149,388] = 10
xD[287,401,263] = 484
xD[287,263,149] = 484
xD[288,401,263] = 18
xD[288,263,149] = 18
xD[297,75,86] = 6
xD[297,140,300] = 6
xD[297,86,140] = 6
xD[297,107,75] = 6
xD[298,75,86] = 773
xD[298,140,300] = 773
xD[298,86,140] = 773
xD[299,75,86] = 1
xD[299,140,300] = 1
xD[299,86,140] = 1
xD[325,421,411] = 10
xD[326,421,411] = 75
xD[326,425,421] = 75
xD[327,421,411] = 114
xD[327,425,421] = 114
zE[75] = 430
zE[78] = 287
zE[86] = 465
zE[106] = 238
zE[107] = 358
zE[140] = 911
zE[149] = 452
zE[151] = 625
zE[182] = 447
zE[183] = 615
zE[210] = 334
zE[261] = 238
zE[263] = 406
zE[264] = 543
zE[265] = 711
zE[300] = 982
zE[301] = 1136
zE[302] = 1304
zE[303] = 1472
zE[305] = 1640
zE[324] = 5093
zE[371] = 778
zE[385] = 328
zE[386] = 496
zE[387] = 664
zE[388] = 832
zE[401] = 379
zE[411] = 998
zE[412] = 1166
zE[421] = 935
zE[425] = 873
zX[75] = 439
zX[78] = 297
zX[86] = 483
zX[106] = 260
zX[107] = 376
zX[131] = 288
zX[132] = 456
zX[135] = 220
zX[140] = 923
zX[149] = 464
zX[151] = 670
zX[179] = 158
zX[182] = 463
zX[183] = 631
zX[193] = 470
zX[210] = 350
zX[231] = 171
zX[261] = 259
zX[263] = 427
zX[264] = 564
zX[265] = 732
zX[285] = 428
zX[287] = 596
zX[300] = 1030
zX[301] = 1148
zX[302] = 1316
zX[303] = 1484
zX[305] = 1652
zX[324] = 5093
zX[371] = 793
zX[385] = 347
zX[386] = 515
zX[387] = 683
zX[388] = 851
zX[401] = 398
zX[411] = 1011
zX[412] = 1179
zX[421] = 943
zX[425] = 881
phi[1] = 227
phi[2] = 227
phi[7] = 888
phi[8] = 1056
phi[13] = 631
phi[15] = 1326
phi[18] = 541
phi[24] = 1008

### All variables with value smaller zero:

### End

real	1446m51.689s
user	5048m1.383s
sys	553m47.460s
	Freetype 2.4.12 environment removed
	Python 3.6.0 environment removed
	Gurobi 8.1.0 environment removed
