	Freetype 2.4.12 environment established
		library to render fonts
	Python 3.6.0 environment established
	Gurobi 8.1.0 environment established
Instance LSFRP: LSFDRP_3_2_1_1_fr.p
Instance LSFDP: LSFDRP_3_2_1_1_fd_25.p

*****************************************************************************************************************************
*** Solve LSFDRP_3_2_1_1_fd_25 with Gurobi
***
*** Graph info
*** |S|: 24
*** |S^E|: 0
*** |S^C|: 6
*** |V|: 431
*** |A|: 14925
*** |A^i|: 14778
*** |A^f|: 147
*** |M|: 348
*** |E|: 28

Changed value of parameter TimeLimit to 86400.0
   Prev: 1e+100  Min: 0.0  Max: 1e+100  Default: 1e+100
Changed value of parameter Threads to 4
   Prev: 0  Min: 0  Max: 1024  Default: 0
Optimize a model with 203293 rows, 5586376 columns and 20275474 nonzeros
Variable types: 5228140 continuous, 358236 integer (358236 binary)
Coefficient statistics:
  Matrix range     [1e+00, 5e+03]
  Objective range  [2e+00, 2e+07]
  Bounds range     [1e+00, 1e+00]
  RHS range        [1e+00, 5e+03]
Presolve removed 31003 rows and 1191981 columns (presolve time = 5s) ...
Presolve removed 83178 rows and 3393705 columns (presolve time = 10s) ...
Presolve removed 90596 rows and 3609084 columns (presolve time = 16s) ...
Presolve removed 96238 rows and 3642624 columns (presolve time = 21s) ...
Presolve removed 98593 rows and 3668174 columns (presolve time = 25s) ...
Presolve removed 100417 rows and 3719036 columns (presolve time = 30s) ...
Presolve removed 101377 rows and 3720254 columns (presolve time = 35s) ...
Presolve removed 101383 rows and 3720941 columns (presolve time = 41s) ...
Warning: Failed to open log file 'gurobi.log'
Presolve removed 101410 rows and 3720941 columns (presolve time = 50s) ...
Presolve removed 101410 rows and 3926308 columns (presolve time = 670s) ...
Presolve removed 153672 rows and 5124246 columns (presolve time = 675s) ...
Presolve removed 154039 rows and 5127915 columns (presolve time = 680s) ...
Presolve removed 155240 rows and 5139190 columns (presolve time = 690s) ...
Presolve removed 155242 rows and 5140133 columns (presolve time = 760s) ...
Presolve removed 155215 rows and 5140106 columns
Presolve time: 759.61s
Presolved: 48078 rows, 446270 columns, 2147272 nonzeros
Variable types: 286994 continuous, 159276 integer (158571 binary)

Deterministic concurrent LP optimizer: primal simplex, dual simplex, and barrier
Showing barrier log only...

Presolve removed 382 rows and 3821 columns
Presolved: 47696 rows, 442449 columns, 2142123 nonzeros

Root barrier log...

Ordering time: 0.00s

Barrier statistics:
 Dense cols : 22
 AA' NZ     : 2.575e+06
 Factor NZ  : 4.628e+07 (roughly 600 MBytes of memory)
 Factor Ops : 1.468e+11 (roughly 9 seconds per iteration)
 Threads    : 1

                  Objective                Residual
Iter       Primal          Dual         Primal    Dual     Compl     Time
   0  -2.54547628e+15  1.72089836e+15  1.82e+08 2.66e+06  1.07e+12   788s
   1  -1.53235188e+15  1.71075737e+15  1.09e+08 6.26e+06  6.50e+11   798s
   2  -1.08200825e+15  1.69478517e+15  7.71e+07 4.05e+06  4.60e+11   810s
   3  -6.62826006e+14  1.66988301e+15  4.72e+07 2.11e+06  2.84e+11   821s
   4  -3.35006510e+14  1.64489771e+15  2.39e+07 1.47e+06  1.46e+11   831s
   5  -1.17750913e+14  1.55704501e+15  8.38e+06 6.84e+05  5.33e+10   843s
   6  -3.56101625e+13  1.32849160e+15  2.53e+06 2.10e+05  1.73e+10   854s
   7  -1.31746408e+13  1.01367654e+15  9.36e+05 6.94e+04  6.73e+09   865s
   8  -3.57032568e+12  3.92066846e+14  2.53e+05 3.40e+03  1.81e+09   877s
   9  -3.90721592e+11  1.24268276e+14  2.75e+04 2.08e-06  2.76e+08   889s
  10  -2.70060698e+11  5.46478903e+13  1.89e+04 2.01e-06  1.49e+08   900s
  11  -1.03473010e+11  4.99979185e+13  7.15e+03 2.45e-06  8.86e+07   910s
  12  -6.12044244e+10  1.53833128e+13  4.20e+03 1.79e-06  3.61e+07   922s
  13  -2.19958273e+10  7.58689229e+12  1.51e+03 1.72e-06  1.53e+07   933s
  14  -1.30176890e+10  5.81218283e+12  8.90e+02 1.35e-06  1.05e+07   943s
  15  -6.54115109e+09  3.93173622e+12  4.45e+02 1.22e-06  6.39e+06   954s
  16  -3.44795458e+09  2.32091504e+12  2.32e+02 1.09e-06  3.64e+06   966s
  17  -1.75510414e+09  1.53167169e+12  1.16e+02 7.83e-07  2.24e+06   977s
  18  -5.41829621e+08  5.42653174e+11  3.22e+01 5.99e-07  7.59e+05   989s
  19  -3.04277658e+08  2.89201048e+11  1.63e+01 3.42e-07  4.00e+05  1001s
  20  -1.82519056e+08  2.19603801e+11  8.78e+00 2.51e-07  2.87e+05  1011s
  21  -1.21451614e+08  1.55517091e+11  5.12e+00 1.95e-07  1.98e+05  1022s
  22  -9.33729851e+07  1.21053678e+11  3.59e+00 1.83e-07  1.52e+05  1033s
  23  -7.14490414e+07  9.43400180e+10  2.40e+00 1.75e-07  1.17e+05  1044s
  24  -5.12892465e+07  6.69739810e+10  1.45e+00 2.03e-07  8.15e+04  1055s
  25  -3.91656773e+07  3.80195342e+10  9.33e-01 1.92e-07  4.66e+04  1067s
  26  -2.76196406e+07  1.84369642e+10  4.35e-01 1.77e-07  2.23e+04  1078s
  27  -2.49322411e+07  1.22302626e+10  3.27e-01 1.92e-07  1.49e+04  1089s
  28  -2.23315527e+07  7.67808759e+09  2.41e-01 1.51e-07  9.45e+03  1101s
  29  -1.90862131e+07  4.86792147e+09  1.46e-01 1.48e-07  5.95e+03  1112s
  30  -1.47108164e+07  2.68645342e+09  4.78e-02 1.83e-07  3.19e+03  1124s
  31  -1.02673321e+07  2.09998963e+09  1.84e-02 1.71e-07  2.42e+03  1135s
  32  -7.92327214e+06  1.53674009e+09  1.40e-02 1.89e-07  1.78e+03  1146s
  33  -6.76171978e+06  1.03292258e+09  1.09e-02 1.72e-07  1.20e+03  1157s
  34  -3.66372065e+06  3.65332607e+08  4.21e-03 2.07e-07  4.29e+02  1168s
  35  -1.21925780e+06  2.79319150e+08  2.63e-03 2.04e-07  3.24e+02  1179s
  36  -4.80744103e+05  2.10347060e+08  2.16e-03 1.67e-07  2.44e+02  1190s
  37   8.97810436e+05  1.70720319e+08  1.69e-03 1.86e-07  1.97e+02  1201s
  38   3.08701153e+06  1.33667497e+08  9.08e-04 2.03e-07  1.50e+02  1212s
  39   3.77757506e+06  1.18656829e+08  7.88e-04 1.77e-07  1.32e+02  1223s
  40   5.15999444e+06  9.41317217e+07  4.72e-04 2.47e-07  1.01e+02  1234s
  41   6.15603612e+06  6.15672917e+07  3.00e-04 1.80e-07  6.32e+01  1245s
  42   6.79943447e+06  4.88151055e+07  2.27e-04 1.51e-07  4.79e+01  1256s
  43   7.15937739e+06  3.98539028e+07  1.93e-04 1.94e-07  3.74e+01  1268s
  44   7.75891601e+06  3.28898880e+07  1.38e-04 1.85e-07  2.87e+01  1279s
  45   8.14792266e+06  2.94474418e+07  1.15e-04 2.99e-07  2.43e+01  1291s
  46   8.33798614e+06  2.81122803e+07  1.07e-04 2.49e-07  2.26e+01  1302s
  47   8.61698655e+06  2.67120914e+07  9.21e-05 3.29e-07  2.06e+01  1313s
  48   8.83191069e+06  2.36983128e+07  7.83e-05 3.76e-07  1.70e+01  1324s
  49   9.11521141e+06  2.15702565e+07  6.41e-05 4.02e-07  1.42e+01  1335s
  50   9.35431794e+06  1.94300034e+07  5.15e-05 3.04e-07  1.15e+01  1346s
  51   9.59598629e+06  1.75812149e+07  4.24e-05 2.92e-07  9.12e+00  1359s
  52   1.00114067e+07  1.60207183e+07  3.04e-05 3.15e-07  6.86e+00  1372s
  53   1.03609352e+07  1.49473367e+07  2.27e-05 3.09e-07  5.24e+00  1383s
  54   1.06132630e+07  1.43230791e+07  1.69e-05 2.77e-07  4.23e+00  1395s
  55   1.09570574e+07  1.33747532e+07  1.12e-05 3.07e-07  2.76e+00  1407s
  56   1.12405799e+07  1.26851181e+07  7.37e-06 3.01e-07  1.65e+00  1418s
  57   1.14146224e+07  1.24086617e+07  4.76e-06 2.50e-07  1.14e+00  1429s
  58   1.15222080e+07  1.22017793e+07  3.32e-06 2.38e-07  7.78e-01  1440s
  59   1.15757669e+07  1.21211981e+07  2.62e-06 2.76e-07  6.25e-01  1451s
  60   1.16272320e+07  1.20144528e+07  1.93e-06 3.76e-07  4.44e-01  1462s
  61   1.16775202e+07  1.18950458e+07  1.46e-06 5.23e-07  2.51e-01  1473s
  62   1.17146769e+07  1.18420697e+07  1.05e-06 5.62e-07  1.48e-01  1484s
  63   1.17437656e+07  1.18164918e+07  6.04e-07 6.56e-07  8.42e-02  1496s
  64   1.17682171e+07  1.17935052e+07  2.72e-07 5.57e-07  2.95e-02  1507s
  65   1.17790070e+07  1.17825220e+07  2.02e-06 6.52e-07  4.22e-03  1518s
  66   1.17815634e+07  1.17821039e+07  3.03e-07 8.11e-07  6.52e-04  1529s
  67   1.17819769e+07  1.17820539e+07  1.92e-07 1.52e-06  9.37e-05  1540s
  68   1.17820333e+07  1.17820515e+07  2.56e-07 8.87e-07  2.22e-05  1551s
  69   1.17820392e+07  1.17820514e+07  3.86e-06 1.32e-06  1.34e-05  1563s
  70   1.17820423e+07  1.17820514e+07  2.87e-06 1.56e-06  9.97e-06  1574s
  71   1.17820433e+07  1.17820513e+07  2.52e-06 1.80e-06  8.76e-06  1585s
  72   1.17820459e+07  1.17820513e+07  2.90e-06 1.27e-06  6.25e-06  1597s
  73   1.17820454e+07  1.17820513e+07  3.81e-06 1.46e-06  2.95e-06  1608s
  74   1.17820478e+07  1.17820512e+07  2.14e-06 2.38e-06  1.65e-06  1619s
  75   1.17820479e+07  1.17820512e+07  7.23e-06 2.11e-06  1.62e-06  1630s
  76   1.17820953e+07  1.17820512e+07  7.02e-06 2.87e-06  1.56e-06  1641s
  77   1.17820754e+07  1.17820512e+07  8.53e-06 2.87e-06  6.50e-07  1652s
  78   1.17820734e+07  1.17820512e+07  6.85e-06 1.97e-06  5.84e-07  1663s
  79   1.17820732e+07  1.17820512e+07  6.57e-06 2.33e-06  5.78e-07  1673s
  80   1.17820724e+07  1.17820512e+07  3.18e-05 2.42e-06  5.50e-07  1685s
  81   1.17820719e+07  1.17820512e+07  5.19e-06 2.30e-06  5.37e-07  1695s
  82   1.17820702e+07  1.17820512e+07  9.62e-06 1.95e-06  4.80e-07  1706s
  83   1.17820557e+07  1.17820511e+07  1.70e-05 1.30e-06  1.25e-07  1717s
  84   1.17820554e+07  1.17820511e+07  3.97e-05 1.63e-06  1.20e-07  1728s
  85   1.17820554e+07  1.17820511e+07  8.06e-05 2.13e-06  1.20e-07  1739s
  86   1.17820554e+07  1.17820511e+07  1.08e-04 2.34e-06  1.20e-07  1750s
  87   1.17820554e+07  1.17820511e+07  1.08e-04 3.08e-06  1.22e-07  1760s
  88   1.17820553e+07  1.17820511e+07  1.02e-04 3.04e-06  1.22e-07  1771s
  89   1.17820548e+07  1.17820511e+07  8.28e-05 2.31e-06  1.12e-07  1782s
  90   1.17820547e+07  1.17820511e+07  1.67e-04 2.62e-06  1.12e-07  1793s
  91   1.17820548e+07  1.17820511e+07  1.39e-04 3.09e-06  1.11e-07  1804s
  92   1.17820544e+07  1.17820511e+07  1.24e-04 3.73e-06  1.01e-07  1815s
  93   1.17820545e+07  1.17820511e+07  1.46e-04 3.95e-06  1.01e-07  1825s
  94   1.17820545e+07  1.17820511e+07  1.45e-04 3.28e-06  1.00e-07  1836s
  95   1.17820544e+07  1.17820511e+07  1.37e-04 3.35e-06  9.88e-08  1847s
  96   1.17820544e+07  1.17820511e+07  1.37e-04 3.81e-06  9.90e-08  1858s
  97   1.17820562e+07  1.17820511e+07  1.37e-04 4.53e-06  9.90e-08  1869s
  98   1.17820562e+07  1.17820511e+07  1.37e-04 4.43e-06  9.92e-08  1880s
  99   1.17820562e+07  1.17820511e+07  1.45e-04 4.96e-06  9.92e-08  1890s
 100   1.17820562e+07  1.17820511e+07  1.45e-04 4.51e-06  9.92e-08  1901s
 101   1.17820562e+07  1.17820511e+07  1.47e-04 4.77e-06  9.92e-08  1912s
 102   1.17820554e+07  1.17820511e+07  1.31e-04 3.30e-06  8.55e-08  1923s
 103   1.17820553e+07  1.17820511e+07  1.42e-04 2.98e-06  8.30e-08  1934s
 104   1.17820553e+07  1.17820511e+07  1.42e-04 1.55e-06  7.44e-08  1944s
 105   1.17820569e+07  1.17820511e+07  1.88e-04 1.83e-06  7.37e-08  1955s
 106   1.17820568e+07  1.17820511e+07  3.88e-05 2.37e-06  7.36e-08  1966s
 107   1.17820567e+07  1.17820511e+07  3.88e-05 2.62e-06  7.54e-08  1977s
 108   1.17820565e+07  1.17820511e+07  4.75e-05 2.77e-06  7.34e-08  1988s
 109   1.17820549e+07  1.17820511e+07  3.35e-05 2.38e-06  5.35e-08  1999s
 110   1.17820547e+07  1.17820511e+07  3.84e-05 2.76e-06  5.34e-08  2009s
 111   1.17820544e+07  1.17820511e+07  3.03e-05 2.73e-06  4.83e-08  2020s
 112   1.17820544e+07  1.17820511e+07  3.03e-05 2.95e-06  4.86e-08  2031s
 113   1.17820544e+07  1.17820511e+07  5.01e-05 3.36e-06  4.79e-08  2042s
 114   1.17820544e+07  1.17820511e+07  5.23e-05 3.69e-06  4.80e-08  2053s
 115   1.17820543e+07  1.17820511e+07  2.86e-05 2.35e-06  4.36e-08  2064s
 116   1.17820506e+07  1.17820511e+07  7.33e-05 2.62e-06  4.46e-08  2075s
 117   1.17820506e+07  1.17820511e+07  7.33e-05 2.53e-06  4.46e-08  2086s
 118   1.17820506e+07  1.17820511e+07  7.33e-05 3.11e-06  4.50e-08  2096s
 119   1.17820506e+07  1.17820511e+07  7.33e-05 3.25e-06  4.52e-08  2107s
 120   1.17820501e+07  1.17820511e+07  7.39e-05 3.55e-06  4.53e-08  2118s
 121   1.17820502e+07  1.17820511e+07  2.20e-05 1.94e-06  1.90e-08  2129s
 122   1.17820502e+07  1.17820511e+07  2.10e-05 1.91e-06  1.61e-08  2140s
 123   1.17820506e+07  1.17820511e+07  1.26e-05 1.09e-06  9.11e-09  2151s
 124   1.17820505e+07  1.17820511e+07  1.43e-05 1.83e-06  9.11e-09  2162s
 125   1.17820487e+07  1.17820511e+07  2.50e-05 1.64e-06  9.06e-09  2173s
 126   1.17820487e+07  1.17820511e+07  5.61e-05 1.12e-06  8.57e-09  2184s
 127   1.17820490e+07  1.17820511e+07  1.44e-04 1.24e-06  8.15e-09  2195s
 128   1.17820491e+07  1.17820511e+07  1.01e-04 1.28e-06  7.28e-09  2206s
 129   1.17820487e+07  1.17820511e+07  2.77e-04 4.48e-06  7.06e-09  2218s
 130   1.17820492e+07  1.17820511e+07  8.33e-04 2.41e-06  6.38e-09  2230s
 131   1.17820505e+07  1.17820511e+07  6.03e-04 1.66e-06  6.25e-10  2241s
 132   1.17820505e+07  1.17820511e+07  5.87e-04 1.56e-06  6.09e-10  2252s
 133   1.17819927e+07  1.17820511e+07  4.67e-04 1.63e-06  3.33e-10  2264s
 134   1.17820438e+07  1.17820511e+07  4.92e-05 1.58e-06  5.16e-11  2275s
 135   1.17820433e+07  1.17820511e+07  1.98e-05 1.84e-06  3.32e-11  2290s

Barrier solved model in 135 iterations and 2289.67 seconds
Optimal objective 1.17820433e+07


Root crossover log...

   44766 DPushes remaining with DInf 0.0000000e+00              2290s
    3984 DPushes remaining with DInf 0.0000000e+00              2290s
       0 DPushes remaining with DInf 9.4122496e-08              2293s

     121 PPushes remaining with PInf 1.0251533e-06              2293s
       0 PPushes remaining with PInf 1.0251533e-06              2293s

  Push phase complete: Pinf 1.0251533e-06, Dinf 8.3926564e+05   2293s


Root simplex log...

Iteration    Objective       Primal Inf.    Dual Inf.      Time
   39312    1.1782051e+07   0.000000e+00   8.392656e+05   2293s
   40082    1.1782051e+07   0.000000e+00   1.050984e+06   2295s
   41748    1.1782222e+07   0.000000e+00   1.155764e+10   2300s
   44634    1.1782563e+07   0.000000e+00   4.704760e+09   2305s
   47781    1.1782928e+07   0.000000e+00   1.747991e+09   2310s
   50865    1.1783216e+07   0.000000e+00   3.683498e+09   2315s
   54220    1.1783429e+07   0.000000e+00   3.365344e+08   2320s
   57574    1.1783692e+07   0.000000e+00   4.098908e+09   2325s
   61035    1.1783904e+07   0.000000e+00   2.923408e+08   2330s
   64383    1.1784091e+07   0.000000e+00   2.488559e+08   2335s
   67482    1.1784230e+07   0.000000e+00   1.195514e+08   2340s
   70833    1.1784386e+07   0.000000e+00   1.794968e+08   2345s
   73021    1.1784423e+07   0.000000e+00   2.384329e+11   2350s
   75609    1.1784456e+07   0.000000e+00   1.303345e+09   2355s
   78184    1.1784485e+07   0.000000e+00   4.535466e+08   2360s
   80767    1.1784552e+07   0.000000e+00   6.961169e+09   2365s
   83337    1.1784596e+07   0.000000e+00   5.113222e+08   2370s
   85776    1.1784622e+07   0.000000e+00   1.349945e+08   2375s
   88215    1.1784644e+07   0.000000e+00   2.137129e+08   2380s
   90785    1.1784665e+07   0.000000e+00   2.528719e+09   2385s
   93106    1.1784676e+07   0.000000e+00   4.935666e+08   2390s
   95692    1.1784693e+07   0.000000e+00   1.525790e+08   2395s
   98421    1.1784708e+07   0.000000e+00   7.921674e+08   2400s
  100611    1.1784712e+07   0.000000e+00   6.190318e+07   2405s
  102929    1.1784734e+07   0.000000e+00   8.152829e+07   2410s
  105256    1.1784746e+07   0.000000e+00   5.259763e+10   2415s
  107567    1.1784765e+07   0.000000e+00   9.959900e+07   2420s
  110150    1.1784777e+07   0.000000e+00   8.085981e+07   2425s
  112471    1.1784787e+07   0.000000e+00   2.454409e+08   2430s
  115051    1.1784794e+07   0.000000e+00   4.267744e+08   2435s
  117243    1.1784803e+07   0.000000e+00   6.263690e+08   2440s
  119824    1.1784809e+07   0.000000e+00   3.017446e+08   2445s
  122657    1.1784822e+07   0.000000e+00   2.159595e+08   2450s
  125226    1.1784827e+07   0.000000e+00   3.593932e+07   2455s
  127806    1.1784841e+07   0.000000e+00   1.217151e+09   2460s
  130120    1.1784846e+07   0.000000e+00   3.170276e+07   2465s
  132687    1.1784850e+07   0.000000e+00   6.828388e+07   2470s
  135262    1.1784851e+07   0.000000e+00   3.536830e+07   2475s
  137838    1.1784855e+07   0.000000e+00   9.471765e+07   2480s
  140411    1.1784863e+07   0.000000e+00   5.575773e+07   2485s
  142601    1.1784864e+07   0.000000e+00   3.441505e+07   2490s
  144917    1.1784868e+07   0.000000e+00   5.967007e+08   2495s
  147620    1.1784870e+07   0.000000e+00   1.499150e+07   2500s
  150079    1.1784880e+07   0.000000e+00   2.759665e+07   2505s
  152391    1.1784885e+07   0.000000e+00   1.042785e+09   2510s
  154588    1.1784896e+07   0.000000e+00   3.490064e+08   2515s
  156781    1.1784907e+07   0.000000e+00   3.549313e+07   2520s
  159114    1.1784911e+07   0.000000e+00   2.292571e+07   2525s
  161300    1.1784914e+07   0.000000e+00   4.182329e+07   2530s
  163870    1.1784916e+07   0.000000e+00   2.862576e+07   2535s
  166313    1.1784920e+07   0.000000e+00   1.923456e+07   2540s
  168754    1.1784921e+07   0.000000e+00   6.290820e+07   2545s
  171328    1.1784923e+07   0.000000e+00   3.581611e+07   2550s
  173519    1.1784925e+07   0.000000e+00   2.305601e+08   2555s
  175966    1.1784926e+07   0.000000e+00   4.884150e+07   2560s
  178284    1.1784928e+07   0.000000e+00   1.955840e+07   2565s
  180726    1.1784932e+07   0.000000e+00   4.928174e+07   2570s
  182918    1.1784936e+07   0.000000e+00   2.902185e+08   2575s
  185233    1.1784947e+07   0.000000e+00   2.332348e+08   2580s
  187672    1.1784950e+07   0.000000e+00   1.236725e+07   2585s
  189727    1.1784951e+07   0.000000e+00   6.754237e+06   2590s
  191915    1.1784952e+07   0.000000e+00   4.671968e+07   2595s
  194237    1.1784958e+07   0.000000e+00   6.168349e+06   2600s
  196816    1.1784958e+07   0.000000e+00   8.915811e+06   2605s
  199128    1.1784960e+07   0.000000e+00   3.272311e+06   2610s
  201329    1.1784965e+07   0.000000e+00   3.440853e+08   2615s
  203390    1.1784971e+07   0.000000e+00   1.802757e+07   2620s
  205448    1.1784983e+07   0.000000e+00   1.476887e+09   2625s
  207633    1.1784996e+07   0.000000e+00   2.355134e+09   2630s
  209566    1.1785001e+07   0.000000e+00   5.363321e+08   2635s
  211761    1.1785008e+07   0.000000e+00   6.637694e+08   2640s
  213847    1.1785012e+07   0.000000e+00   2.744913e+07   2645s
  215922    1.1785012e+07   0.000000e+00   4.286951e+06   2650s
  217731    1.1785013e+07   0.000000e+00   2.243494e+07   2655s
  219541    1.1785013e+07   0.000000e+00   2.650989e+06   2660s
  221340    1.1785013e+07   0.000000e+00   4.400928e+06   2665s
  223022    1.1785015e+07   0.000000e+00   1.823456e+07   2670s
  224705    1.1785015e+07   0.000000e+00   9.216686e+07   2675s
  226377    1.1785015e+07   0.000000e+00   5.232918e+06   2680s
  227916    1.1785015e+07   0.000000e+00   3.962999e+06   2685s
  229591    1.1785015e+07   0.000000e+00   2.123571e+06   2690s
  231129    1.1785016e+07   0.000000e+00   7.643384e+06   2695s
  232676    1.1785016e+07   0.000000e+00   2.700707e+07   2700s
  234348    1.1785016e+07   0.000000e+00   7.197859e+06   2705s
  236025    1.1785016e+07   0.000000e+00   1.715535e+06   2710s
  237570    1.1785016e+07   0.000000e+00   1.077799e+06   2715s
  239127    1.1785016e+07   0.000000e+00   5.101525e+06   2720s
  240670    1.1785016e+07   0.000000e+00   9.698697e+05   2725s
  242215    1.1785016e+07   0.000000e+00   9.460288e+05   2730s
  243636    1.1785017e+07   0.000000e+00   8.243358e+05   2735s
  245177    1.1785017e+07   0.000000e+00   9.538982e+05   2740s
  246588    1.1785017e+07   0.000000e+00   7.012339e+05   2745s
  248130    1.1785017e+07   0.000000e+00   5.232995e+05   2750s
  249538    1.1785017e+07   0.000000e+00   8.825569e+05   2755s
  250950    1.1785017e+07   0.000000e+00   5.203594e+05   2760s
  252365    1.1785017e+07   0.000000e+00   3.635134e+05   2765s
  253777    1.1785017e+07   0.000000e+00   2.861352e+05   2770s
  255201    1.1785017e+07   0.000000e+00   2.705936e+05   2775s
  256621    1.1785017e+07   0.000000e+00   3.999294e+05   2780s
  258029    1.1785017e+07   0.000000e+00   4.290626e+05   2785s
  259438    1.1785017e+07   0.000000e+00   1.356290e+05   2790s
  260721    1.1785017e+07   0.000000e+00   1.624466e+05   2795s
  262131    1.1785017e+07   0.000000e+00   5.667837e+05   2800s
  263415    1.1785017e+07   0.000000e+00   2.247753e+05   2805s
  264829    1.1785017e+07   0.000000e+00   1.105822e+05   2810s
  266113    1.1785017e+07   0.000000e+00   9.577549e+04   2815s
  267525    1.1785017e+07   0.000000e+00   7.549395e+04   2820s
  268812    1.1785017e+07   0.000000e+00   6.259498e+04   2825s
  269969    1.1785017e+07   0.000000e+00   4.985996e+04   2830s
  271255    1.1785017e+07   0.000000e+00   5.884947e+04   2835s
  272408    1.1785017e+07   0.000000e+00   2.440760e+04   2840s
  273560    1.1785017e+07   0.000000e+00   1.507651e+04   2845s
  274587    1.1782051e+07   4.318472e-05   0.000000e+00   2850s
  274826    1.1782051e+07   0.000000e+00   0.000000e+00   2852s
  275899    1.1785035e+07   0.000000e+00   9.463322e+10   2855s
  277568    1.1789388e+07   0.000000e+00   4.008042e+10   2860s
  278853    1.1793055e+07   0.000000e+00   3.077284e+10   2865s
  280264    1.1796075e+07   0.000000e+00   2.118759e+11   2870s
  281801    1.1798719e+07   0.000000e+00   2.887291e+09   2875s
  283214    1.1799773e+07   0.000000e+00   6.705324e+08   2880s
  284622    1.1801357e+07   0.000000e+00   3.776663e+09   2885s
  286037    1.1802048e+07   0.000000e+00   2.086063e+09   2891s
  287191    1.1802728e+07   0.000000e+00   6.895850e+08   2895s
  288613    1.1803040e+07   0.000000e+00   3.333133e+09   2900s
  289894    1.1803470e+07   0.000000e+00   9.201682e+08   2905s
  291175    1.1804171e+07   0.000000e+00   1.197592e+09   2911s
  292459    1.1804494e+07   0.000000e+00   7.659765e+09   2915s
  293740    1.1805340e+07   0.000000e+00   4.016353e+09   2920s
  295152    1.1806091e+07   0.000000e+00   5.210179e+08   2925s
  296566    1.1807240e+07   0.000000e+00   1.212876e+09   2930s
  298105    1.1808553e+07   0.000000e+00   1.007859e+10   2935s
  299389    1.1809083e+07   0.000000e+00   4.729896e+08   2940s
  300925    1.1810203e+07   0.000000e+00   1.335177e+09   2945s
  302209    1.1810430e+07   0.000000e+00   5.964141e+08   2950s
  303492    1.1810696e+07   0.000000e+00   8.996371e+08   2955s
  304902    1.1811061e+07   0.000000e+00   1.505041e+09   2960s
  306313    1.1811651e+07   0.000000e+00   8.527654e+07   2965s
  307597    1.1811759e+07   0.000000e+00   2.640329e+09   2970s
  308879    1.1812073e+07   0.000000e+00   1.053816e+09   2975s
  310296    1.1812365e+07   0.000000e+00   3.109813e+08   2980s
  311581    1.1812621e+07   0.000000e+00   2.309266e+09   2985s
  312991    1.1813254e+07   0.000000e+00   2.578536e+09   2990s
  314273    1.1813527e+07   0.000000e+00   4.666623e+09   2995s
  315687    1.1814154e+07   0.000000e+00   2.323688e+08   3000s
  317097    1.1814501e+07   0.000000e+00   1.117294e+09   3005s
  318598    1.1814771e+07   0.000000e+00   8.018468e+08   3010s
  319892    1.1815089e+07   0.000000e+00   4.146508e+08   3015s
  321306    1.1815488e+07   0.000000e+00   4.236555e+08   3021s
  322458    1.1815616e+07   0.000000e+00   1.834297e+09   3025s
  323613    1.1815761e+07   0.000000e+00   2.341064e+08   3030s
  324900    1.1815865e+07   0.000000e+00   1.279900e+08   3035s
  326189    1.1815944e+07   0.000000e+00   3.516226e+08   3040s
  327470    1.1816129e+07   0.000000e+00   8.624580e+08   3045s
  329009    1.1816586e+07   0.000000e+00   5.900048e+07   3050s
  330419    1.1816940e+07   0.000000e+00   1.076598e+08   3055s
  331576    1.1817038e+07   0.000000e+00   1.001386e+08   3060s
  332864    1.1817291e+07   0.000000e+00   5.167201e+07   3065s
  334277    1.1817482e+07   0.000000e+00   8.198528e+07   3070s
  335827    1.1817637e+07   0.000000e+00   5.377324e+10   3076s
  337259    1.1817798e+07   0.000000e+00   3.321620e+08   3080s
  338542    1.1817929e+07   0.000000e+00   4.134800e+07   3085s
  339839    1.1818080e+07   0.000000e+00   1.971664e+09   3090s
  341311    1.1818276e+07   0.000000e+00   4.544390e+07   3095s
  342734    1.1818444e+07   0.000000e+00   9.789111e+08   3100s
  344029    1.1818534e+07   0.000000e+00   1.195810e+10   3105s
  345572    1.1818656e+07   0.000000e+00   7.122033e+07   3111s
  346857    1.1818733e+07   0.000000e+00   6.823216e+09   3115s
  348408    1.1818816e+07   0.000000e+00   6.670755e+07   3120s
  349820    1.1818895e+07   0.000000e+00   1.658645e+08   3125s
  351242    1.1818936e+07   0.000000e+00   2.739738e+08   3130s
  352657    1.1818968e+07   0.000000e+00   4.220021e+08   3135s
  353950    1.1818988e+07   0.000000e+00   5.657321e+08   3140s
  355232    1.1819009e+07   0.000000e+00   5.774423e+07   3145s
  356652    1.1819031e+07   0.000000e+00   3.440914e+07   3150s
  357940    1.1819054e+07   0.000000e+00   3.121159e+09   3155s
  359360    1.1819073e+07   0.000000e+00   1.050438e+08   3160s
  360649    1.1819085e+07   0.000000e+00   3.080208e+07   3165s
  362068    1.1819097e+07   0.000000e+00   2.429856e+08   3170s
  363488    1.1819106e+07   0.000000e+00   5.220660e+08   3175s
  364784    1.1819112e+07   0.000000e+00   2.886534e+07   3180s
  366197    1.1819133e+07   0.000000e+00   1.350123e+07   3185s
  367738    1.1819236e+07   0.000000e+00   5.155566e+07   3190s
  369155    1.1819252e+07   0.000000e+00   1.371427e+07   3195s
  370440    1.1819256e+07   0.000000e+00   4.106729e+06   3200s
  371858    1.1819267e+07   0.000000e+00   1.038719e+08   3205s
  373401    1.1819273e+07   0.000000e+00   8.881960e+06   3210s
  374687    1.1819278e+07   0.000000e+00   1.617967e+07   3215s
  376111    1.1819282e+07   0.000000e+00   3.840062e+07   3220s
  377404    1.1819295e+07   0.000000e+00   1.401700e+09   3225s
  378820    1.1819307e+07   0.000000e+00   3.677795e+07   3230s
  380235    1.1819314e+07   0.000000e+00   3.097490e+07   3235s
  381518    1.1819318e+07   0.000000e+00   1.436792e+07   3240s
  382805    1.1819321e+07   0.000000e+00   7.128623e+06   3245s
  384222    1.1819327e+07   0.000000e+00   2.372114e+08   3250s
  385509    1.1819333e+07   0.000000e+00   9.245129e+06   3255s
  386802    1.1819335e+07   0.000000e+00   1.023524e+07   3260s
  387958    1.1819337e+07   0.000000e+00   2.169824e+09   3265s
  389243    1.1819339e+07   0.000000e+00   5.517282e+06   3270s
  390527    1.1819342e+07   0.000000e+00   5.798443e+07   3275s
  391938    1.1819343e+07   0.000000e+00   6.183865e+06   3280s
  393092    1.1819345e+07   0.000000e+00   4.983788e+06   3285s
  394376    1.1819346e+07   0.000000e+00   1.386076e+06   3290s
  395532    1.1819347e+07   0.000000e+00   4.970189e+06   3295s
  396812    1.1819348e+07   0.000000e+00   3.470805e+06   3300s
  398093    1.1819349e+07   0.000000e+00   4.171250e+07   3305s
  399379    1.1819350e+07   0.000000e+00   4.021644e+06   3310s
  400789    1.1819351e+07   0.000000e+00   2.533906e+09   3315s
  401942    1.1819352e+07   0.000000e+00   5.078210e+05   3320s
  403227    1.1819352e+07   0.000000e+00   3.544412e+06   3325s
  404519    1.1819353e+07   0.000000e+00   1.865115e+06   3330s
  405806    1.1819355e+07   0.000000e+00   1.738245e+06   3335s
  407221    1.1819356e+07   0.000000e+00   5.074386e+05   3340s
  408505    1.1819356e+07   0.000000e+00   3.130446e+05   3345s
  409661    1.1819357e+07   0.000000e+00   6.924131e+05   3350s
  410948    1.1819357e+07   0.000000e+00   3.079604e+06   3355s
  412234    1.1819357e+07   0.000000e+00   4.485836e+05   3360s
  413390    1.1819358e+07   0.000000e+00   7.501459e+06   3365s
  414679    1.1819358e+07   0.000000e+00   1.708685e+07   3370s
  415847    1.1819358e+07   0.000000e+00   5.914371e+05   3375s
  417127    1.1819359e+07   0.000000e+00   4.405836e+05   3380s
  418279    1.1819359e+07   0.000000e+00   1.365924e+05   3385s
  419564    1.1819359e+07   0.000000e+00   8.580527e+04   3390s
  420716    1.1819359e+07   0.000000e+00   3.022462e+04   3395s
  421868    1.1819359e+07   0.000000e+00   3.006595e+04   3400s
  423020    1.1819359e+07   0.000000e+00   1.054835e+04   3405s
  423487    1.1782351e+07   2.304437e+03   0.000000e+00   3410s
  423827    1.1782166e+07   7.524235e+03   0.000000e+00   3416s
  424067    1.1782158e+07   3.432216e+03   0.000000e+00   3420s
  424417    1.1782127e+07   2.550804e+03   0.000000e+00   3426s
  424657    1.1782089e+07   1.140604e+03   0.000000e+00   3430s
  425017    1.1782073e+07   5.066765e+01   0.000000e+00   3436s
  425257    1.1782069e+07   1.901820e+02   0.000000e+00   3440s
  425597    1.1782067e+07   1.775321e+03   0.000000e+00   3446s
  425837    1.1782065e+07   1.354882e+03   0.000000e+00   3450s
  426207    1.1782064e+07   2.917552e+03   0.000000e+00   3456s
  426567    1.1782060e+07   3.608536e+02   0.000000e+00   3462s
  426807    1.1782058e+07   5.368156e+01   0.000000e+00   3466s
  427167    1.1782057e+07   2.079249e+02   0.000000e+00   3472s
  427407    1.1782056e+07   6.833846e+01   0.000000e+00   3476s
  427687    1.1782055e+07   3.341719e+02   0.000000e+00   3480s
  428007    1.1782054e+07   4.244635e+01   0.000000e+00   3486s
  428367    1.1782053e+07   1.731253e+02   0.000000e+00   3492s
  428607    1.1782053e+07   2.749303e+02   0.000000e+00   3496s
  428967    1.1782051e+07   1.256529e+02   0.000000e+00   3502s
  429044    1.1782051e+07   0.000000e+00   0.000000e+00   3503s
Extra 154218 simplex iterations after uncrush
Concurrent spin time: 0.06s

Solved with barrier

Root relaxation: objective 1.178205e+07, 429044 iterations, 2739.84 seconds

    Nodes    |    Current Node    |     Objective Bounds      |     Work
 Expl Unexpl |  Obj  Depth IntInf | Incumbent    BestBd   Gap | It/Node Time

     0     0 1.1739e+07    0  302          - 1.1739e+07      -     - 3855s
     0     0 1.0847e+07    0  412          - 1.0847e+07      -     - 6420s
H    0     0                    -1759338.192 1.0847e+07   717%     - 6421s
     0     0 1.0845e+07    0  412 -1759338.2 1.0845e+07   716%     - 6785s
     0     0 1.0845e+07    0  412 -1759338.2 1.0845e+07   716%     - 6786s
     0     0 1.0786e+07    0  409 -1759338.2 1.0786e+07   713%     - 7522s
H    0     0                    -1729438.331 1.0786e+07   724%     - 7523s
H    0     0                    -993546.3291 1.0786e+07  1186%     - 7566s
     0     0 1.0781e+07    0  407 -993546.33 1.0781e+07  1185%     - 7799s
     0     0 1.0776e+07    0  423 -993546.33 1.0776e+07  1185%     - 8340s
     0     0 1.0775e+07    0  422 -993546.33 1.0775e+07  1185%     - 8379s
     0     0 1.0775e+07    0  435 -993546.33 1.0775e+07  1185%     - 8401s
     0     0 1.0773e+07    0  419 -993546.33 1.0773e+07  1184%     - 8741s
H    0     0                    -964357.6993 1.0773e+07  1217%     - 8742s
     0     0 1.0771e+07    0  444 -964357.70 1.0771e+07  1217%     - 9165s
     0     0 1.0770e+07    0  454 -964357.70 1.0770e+07  1217%     - 9375s
     0     0 1.0769e+07    0  446 -964357.70 1.0769e+07  1217%     - 9455s
     0     0 1.0769e+07    0  446 -964357.70 1.0769e+07  1217%     - 9479s
     0     0 1.0760e+07    0  400 -964357.70 1.0760e+07  1216%     - 10290s
H    0     0                    -353083.4240 1.0760e+07  3147%     - 10290s
H    0     0                    360052.59266 1.0760e+07  2888%     - 10335s
     0     0 1.0758e+07    0  429 360052.593 1.0758e+07  2888%     - 10394s
     0     0 1.0756e+07    0  416 360052.593 1.0756e+07  2887%     - 10624s
     0     0 1.0752e+07    0  422 360052.593 1.0752e+07  2886%     - 10764s
     0     0 1.0752e+07    0  428 360052.593 1.0752e+07  2886%     - 10768s
     0     0 1.0752e+07    0  405 360052.593 1.0752e+07  2886%     - 10942s
     0     0 1.0752e+07    0  404 360052.593 1.0752e+07  2886%     - 11074s
     0     0 1.0752e+07    0  406 360052.593 1.0752e+07  2886%     - 11077s
     0     0 1.0750e+07    0  465 360052.593 1.0750e+07  2886%     - 11480s
     0     0 1.0750e+07    0  416 360052.593 1.0750e+07  2886%     - 11547s
     0     0 1.0750e+07    0  416 360052.593 1.0750e+07  2886%     - 11574s
     0     0 1.0750e+07    0  422 360052.593 1.0750e+07  2886%     - 11634s
     0     0 1.0750e+07    0  432 360052.593 1.0750e+07  2886%     - 11681s
     0     0 1.0749e+07    0  425 360052.593 1.0749e+07  2885%     - 11758s
     0     0 1.0749e+07    0  427 360052.593 1.0749e+07  2885%     - 11761s
     0     0 1.0749e+07    0  430 360052.593 1.0749e+07  2885%     - 11784s
     0     0 1.0749e+07    0  430 360052.593 1.0749e+07  2885%     - 11786s
     0     0 1.0748e+07    0  437 360052.593 1.0748e+07  2885%     - 11819s
     0     0 1.0748e+07    0  437 360052.593 1.0748e+07  2885%     - 12164s
     0     2 1.0748e+07    0  437 360052.593 1.0748e+07  2885%     - 13619s
     1     4 1.0716e+07    1  447 360052.593 1.0748e+07  2885% 71697 18102s
     3     8 1.0715e+07    2  449 360052.593 1.0716e+07  2876% 115316 25008s
     7    12 1.0712e+07    3  472 360052.593 1.0712e+07  2875% 150786 26101s
    11    16 1.0709e+07    4  478 360052.593 1.0709e+07  2874% 106430 27747s
    15    18 1.0688e+07    5  494 360052.593 1.0709e+07  2874% 92305 28238s
    19    18 1.0682e+07    6  354 360052.593 1.0709e+07  2874% 79884 29850s
    23    25 1.0673e+07    7  370 360052.593 1.0709e+07  2874% 71762 31219s
    27    28 1.0663e+07    8  380 360052.593 1.0709e+07  2874% 67452 33683s
    31    32 1.0663e+07    9  362 360052.593 1.0709e+07  2874% 66716 34305s
    35    35 1.0663e+07   10  375 360052.593 1.0709e+07  2874% 61674 34981s
    41    45 1.0115e+07   11  326 360052.593 1.0709e+07  2874% 59162 37723s
    46    45 1.0533e+07   12  304 360052.593 1.0709e+07  2874% 59719 39707s
    54    55 1.0488e+07   14  294 360052.593 1.0709e+07  2874% 54878 41275s
    62    63 1.0470e+07   16  324 360052.593 1.0709e+07  2874% 51384 42254s
    71    73 1.0349e+07   17  301 360052.593 1.0709e+07  2874% 48217 46258s
    80    82 1.0384e+07   18  334 360052.593 1.0709e+07  2874% 44446 50106s
    87    87 1.0348e+07   19  329 360052.593 1.0709e+07  2874% 44985 51646s
    94    94 1.0330e+07   21  331 360052.593 1.0709e+07  2874% 44185 52880s
   108   109 1.0182e+07   24  393 360052.593 1.0709e+07  2874% 40720 54631s
   119   119 1.0169e+07   25  393 360052.593 1.0709e+07  2874% 38652 55980s
   132   134 1.0151e+07   27  455 360052.593 1.0709e+07  2874% 36113 58911s
   146   148 1.0064e+07   33  342 360052.593 1.0709e+07  2874% 36036 71569s
   153   154 9946894.42   34  335 360052.593 1.0709e+07  2874% 39206 74558s
   166   167 8844045.68   35  198 360052.593 1.0709e+07  2874% 39265 77488s
   178   182 9856718.13   35  340 360052.593 1.0709e+07  2874% 38661 79798s
   186   183 9844443.14   36  377 360052.593 1.0709e+07  2874% 38399 81701s
   206   206 9756039.01   39  309 360052.593 1.0709e+07  2874% 36607 86400s

Cutting planes:
  Gomory: 5
  Implied bound: 29
  Clique: 17
  MIR: 44
  Flow cover: 92
  Zero half: 4

Explored 225 nodes (8715948 simplex iterations) in 86400.41 seconds
Thread count was 4 (of 16 available processors)

Solution count 6: 360053 -353083 -964358 ... -1.75934e+06

Time limit reached
Warning: max constraint violation (9.6261e-06) exceeds tolerance
Warning: max bound violation (6.5929e-06) exceeds tolerance
Best objective 3.600525941295e+05, best bound 1.070906959573e+07, gap 2874.3070%

***
***  |- Calculation finished, timelimit reached 86,400.5 (86400.5) sec.))
***  |-----------------------------------------------------------------------------------------------------------------------
***
*****************************************************************************************************************************
#############################################################################################################################
###
### Results
###
### The objective of the solution is 360,052.5941 (360052.5941) and is feasible with a Gap of 28.7431
###
### Service 24 (WAF7) is operated by 3 vessels from type 18 (PMax25)
###  |- Vessel  1 has the path [131, 386, -1]
###  |  131 (DEHAM Out@288.0) - 386 (ESALG In@496.0/Out@515.0) - -1 (DUMMY_END Ziel-Service 24)
###  |- Vessel  2 has the path [132, 387, -1]
###  |  132 (DEHAM Out@456.0) - 387 (ESALG In@664.0/Out@683.0) - -1 (DUMMY_END Ziel-Service 24)
###  |- Vessel 13 has the path [135, 401, 263, 388, -1]
###  |  135 (DKAAR Out@220.0) - 401 (MAPTM In@379.0/Out@398.0) - 263 (MAPTM In@406.0/Out@427.0) - 388 (ESALG In@832.0/Out@851
###  |  .0) - -1 (DUMMY_END Ziel-Service 24)
###  |   |- and carried Demand 272,  214.0 containers from 263 to 388
###  |   |- and carried Demand 273,   10.0 containers from 263 to 388
###  |   |- and carried Demand 285,  214.0 containers from 401 to 388
###  |   |- and carried Demand 286,   10.0 containers from 401 to 388
###  |
### Service 121 (SAE) is operated by 2 vessels from type 30 (PMax35)
###  |- Vessel 18 has the path [193, 425, 421, 411, -2]
###  |  193 (GBFXT Out@470.0) - 425 (USORF In@873.0/Out@881.0) - 421 (USMIA In@935.0/Out@943.0) - 411 (HNPCR In@998.0/Out@101
###  |  1.0) - -2 (DUMMY_END Ziel-Service 121)
###  |   |- and carried Demand 325,   10.0 containers from 421 to 411
###  |   |- and carried Demand 326,   75.0 containers from 425 to 411
###  |   |- and carried Demand 327,  114.0 containers from 425 to 411
###  |- Vessel 24 has the path [231, 106, 78, 210, 107, 75, 86, 140, 300, 412, -2]
###  |  231 (JPYOK Out@171.0) - 106 (CNXMN In@238.0/Out@260.0) - 78 (CNNSA In@287.0/Out@297.0) - 210 (HKHKG In@334.0/Out@350.
###  |  0) - 107 (CNYTN In@358.0/Out@376.0) - 75 (CNNGB In@430.0/Out@439.0) - 86 (CNSHA In@465.0/Out@483.0) - 140 (ECGYE In@9
###  |  11.0/Out@923.0) - 300 (PABLB In@982.0/Out@1030.0) - 412 (HNPCR In@1166.0/Out@1179.0) - -2 (DUMMY_END Ziel-Service 121
###  |  )
###  |   |- and carried Demand  87,  541.0 containers from 231 to 300
###  |   |- and carried Demand 178,  785.0 containers from 106 to 210
###  |   |- and carried Demand 179,    1.0 containers from 106 to 210
###  |   |- and carried Demand 181,  121.0 containers from 210 to  75
###  |   |- and carried Demand 182,   75.0 containers from 210 to  86
###  |   |- and carried Demand 183,    1.0 containers from 210 to 107
###  |   |- and carried Demand 186,    6.0 containers from 107 to 300
###  |   |- and carried Demand 188,  773.0 containers from  75 to 300
###  |   |- and carried Demand 189,    1.0 containers from  75 to 300
###  |   |- and carried Demand 297,    6.0 containers from 107 to 300
###  |   |- and carried Demand 298,  773.0 containers from  75 to 300
###  |   |- and carried Demand 299,    1.0 containers from  75 to 300
###  |
### Service 177 (WCSA) is operated by 3 vessels from type 19 (PMax28)
###  |- Vessel  5 has the path [282, 178, 260, 400, 261, 385, 151, 58, 63, 303, 0]
###  |  282 (NLRTM Out@92.0) - 178 (FRLEH In@111.0/Out@127.0) - 260 (MAPTM In@207.0/Out@228.0) - 400 (MAPTM In@211.0/Out@230.
###  |  0) - 261 (MAPTM In@238.0/Out@259.0) - 385 (ESALG In@328.0/Out@347.0) - 151 (ESALG In@625.0/Out@670.0) - 58 (CLLQN In@
###  |  1240.0/Out@1258.0) - 63 (CLSAI In@1288.0/Out@1304.0) - 303 (PABLB In@1472.0/Out@1484.0) - 0 (DUMMY_END Ziel-Service 1
###  |  77)
###  |   |- and carried Demand   9,   17.0 containers from 282 to 178
###  |   |- and carried Demand 140,  552.0 containers from 151 to 303
###  |   |- and carried Demand 141,   13.0 containers from 151 to 303
###  |   |- and carried Demand 256,   42.0 containers from 282 to 385
###  |   |- and carried Demand 257,  580.0 containers from 260 to 385
###  |   |- and carried Demand 271,  580.0 containers from 261 to 385
###  |   |- and carried Demand 295,  580.0 containers from 400 to 385
###  |- Vessel  6 has the path [283, 180, 262, 148, 57, 62, 304, 305, 0]
###  |  283 (NLRTM Out@260.0) - 180 (FRLEH In@279.0/Out@295.0) - 262 (MAPTM In@375.0/Out@396.0) - 148 (ESALG In@421.0/Out@433
###  |  .0) - 57 (CLLQN In@1072.0/Out@1090.0) - 62 (CLSAI In@1120.0/Out@1136.0) - 304 (PABLB In@1508.0/Out@1520.0) - 305 (PAB
###  |  LB In@1640.0/Out@1652.0) - 0 (DUMMY_END Ziel-Service 177)
###  |   |- and carried Demand  16,   74.0 containers from 283 to 148
###  |   |- and carried Demand  17,    5.0 containers from 283 to 180
###  |   |- and carried Demand  20,  484.0 containers from 262 to 148
###  |   |- and carried Demand  21,   18.0 containers from 262 to 148
###  |   |- and carried Demand 239,  540.0 containers from  57 to 304
###  |   |- and carried Demand 240,   69.0 containers from  57 to 304
###  |   |- and carried Demand 258,   74.0 containers from 283 to 148
###  |   |- and carried Demand 261,  484.0 containers from 262 to 148
###  |   |- and carried Demand 262,   18.0 containers from 262 to 148
###  |- Vessel  7 has the path [285, 182, 264, 302, 0]
###  |  285 (NLRTM Out@428.0) - 182 (FRLEH In@447.0/Out@463.0) - 264 (MAPTM In@543.0/Out@564.0) - 302 (PABLB In@1304.0/Out@13
###  |  16.0) - 0 (DUMMY_END Ziel-Service 177)
###  |   |- and carried Demand  32,    6.0 containers from 285 to 182
###  |
### Vessels not used in the solution: [3, 4, 8, 9, 10, 11, 12, 14, 15, 16, 17, 19, 20, 21, 22, 23]
###  |-----------------------------------------------------------------------------------------------------------------------
###
#############################################################################################################################

### Detialed variable overview

### All variables with value greater zero:
rho[24,18] = 1
rho[177,19] = 1
rho[121,30] = 1
eta[24,18,1] = 1
eta[24,18,2] = 1
eta[24,18,3] = 1
eta[177,19,1] = 1
eta[177,19,2] = 1
eta[177,19,3] = 1
eta[121,30,1] = 1
eta[121,30,2] = 1
y[1,131,386] = 1
y[1,386,-1] = 1
y[2,387,-1] = 1
y[2,132,387] = 1
y[5,260,400] = 1
y[5,63,303] = 1
y[5,282,178] = 1
y[5,385,151] = 1
y[5,58,63] = 1
y[5,303,0] = 1
y[5,261,385] = 1
y[5,178,260] = 1
y[5,151,58] = 1
y[5,400,261] = 1
y[6,180,262] = 1
y[6,148,57] = 1
y[6,57,62] = 1
y[6,305,0] = 1
y[6,304,305] = 1
y[6,262,148] = 1
y[6,283,180] = 1
y[6,62,304] = 1
y[7,302,0] = 1
y[7,285,182] = 1
y[7,264,302] = 1
y[7,182,264] = 1
y[13,263,388] = 1
y[13,401,263] = 1
y[13,135,401] = 1
y[13,388,-1] = 1
y[18,421,411] = 1
y[18,425,421] = 1
y[18,411,-2] = 1
y[18,193,425] = 1
y[24,300,412] = 1
y[24,231,106] = 1
y[24,210,107] = 1
y[24,412,-2] = 1
y[24,106,78] = 1
y[24,75,86] = 1
y[24,140,300] = 1
y[24,78,210] = 1
y[24,86,140] = 1
y[24,107,75] = 1
xD[9,282,178] = 17
xD[16,180,262] = 74
xD[16,262,148] = 74
xD[16,283,180] = 74
xD[17,283,180] = 5
xD[20,262,148] = 484
xD[21,262,148] = 18
xD[32,285,182] = 6
xD[87,231,106] = 541
xD[87,210,107] = 541
xD[87,106,78] = 541
xD[87,75,86] = 541
xD[87,140,300] = 541
xD[87,78,210] = 541
xD[87,86,140] = 541
xD[87,107,75] = 541
xD[140,63,303] = 552
xD[140,58,63] = 552
xD[140,151,58] = 552
xD[141,63,303] = 13
xD[141,58,63] = 13
xD[141,151,58] = 13
xD[178,106,78] = 785
xD[178,78,210] = 785
xD[179,106,78] = 1
xD[179,78,210] = 1
xD[181,210,107] = 121
xD[181,107,75] = 121
xD[182,210,107] = 75
xD[182,75,86] = 75
xD[182,107,75] = 75
xD[183,210,107] = 1
xD[186,75,86] = 6
xD[186,140,300] = 6
xD[186,86,140] = 6
xD[186,107,75] = 6
xD[188,75,86] = 773
xD[188,140,300] = 773
xD[188,86,140] = 773
xD[189,75,86] = 1
xD[189,140,300] = 1
xD[189,86,140] = 1
xD[239,57,62] = 540
xD[239,62,304] = 540
xD[240,57,62] = 69
xD[240,62,304] = 69
xD[256,260,400] = 42
xD[256,282,178] = 42
xD[256,261,385] = 42
xD[256,178,260] = 42
xD[256,400,261] = 42
xD[257,260,400] = 580
xD[257,261,385] = 580
xD[257,400,261] = 580
xD[258,180,262] = 74
xD[258,262,148] = 74
xD[258,283,180] = 74
xD[261,262,148] = 484
xD[262,262,148] = 18
xD[271,261,385] = 580
xD[272,263,388] = 214
xD[273,263,388] = 10
xD[285,263,388] = 214
xD[285,401,263] = 214
xD[286,263,388] = 10
xD[286,401,263] = 10
xD[295,261,385] = 580
xD[295,400,261] = 580
xD[297,75,86] = 6
xD[297,140,300] = 6
xD[297,86,140] = 6
xD[297,107,75] = 6
xD[298,75,86] = 773
xD[298,140,300] = 773
xD[298,86,140] = 773
xD[299,75,86] = 1
xD[299,140,300] = 1
xD[299,86,140] = 1
xD[325,421,411] = 10
xD[326,421,411] = 75
xD[326,425,421] = 75
xD[327,421,411] = 114
xD[327,425,421] = 114
zE[57] = 1072
zE[58] = 1240
zE[62] = 1120
zE[63] = 1288
zE[75] = 430
zE[78] = 287
zE[86] = 465
zE[106] = 238
zE[107] = 358
zE[140] = 911
zE[148] = 421
zE[151] = 625
zE[178] = 111
zE[180] = 279
zE[182] = 447
zE[210] = 334
zE[260] = 207
zE[261] = 238
zE[262] = 375
zE[263] = 406
zE[264] = 543
zE[300] = 982
zE[302] = 1304
zE[303] = 1472
zE[304] = 1508
zE[305] = 1640
zE[385] = 328
zE[386] = 496
zE[387] = 664
zE[388] = 832
zE[400] = 211
zE[401] = 379
zE[411] = 998
zE[412] = 1166
zE[421] = 935
zE[425] = 873
zX[57] = 1090
zX[58] = 1258
zX[62] = 1136
zX[63] = 1304
zX[75] = 439
zX[78] = 297
zX[86] = 483
zX[106] = 260
zX[107] = 376
zX[131] = 288
zX[132] = 456
zX[135] = 220
zX[140] = 923
zX[148] = 433
zX[151] = 670
zX[178] = 127
zX[180] = 295
zX[182] = 463
zX[193] = 470
zX[210] = 350
zX[231] = 171
zX[260] = 228
zX[261] = 259
zX[262] = 396
zX[263] = 427
zX[264] = 564
zX[282] = 92
zX[283] = 260
zX[285] = 428
zX[300] = 1030
zX[302] = 1316
zX[303] = 1484
zX[304] = 1520
zX[305] = 1652
zX[385] = 347
zX[386] = 515
zX[387] = 683
zX[388] = 851
zX[400] = 230
zX[401] = 398
zX[411] = 1011
zX[412] = 1179
zX[421] = 943
zX[425] = 881
phi[1] = 227
phi[2] = 227
phi[5] = 1392
phi[6] = 1392
phi[7] = 888
phi[13] = 631
phi[18] = 541
phi[24] = 1008

### All variables with value smaller zero:

### End

real	1446m40.191s
user	5007m21.120s
sys	575m22.099s
	Freetype 2.4.12 environment removed
	Python 3.6.0 environment removed
	Gurobi 8.1.0 environment removed
