### Additional Information to the goal services
# Basic costs on route 24: 28923195.15221735
# Basic costs on route 177: 31855102.40145535
# Basic costs on route 121: 13975299.734952796
# Direct costs (not staggered):
# For goal service 24:
# n_min: 2
# n_max: 4
# lowest costs of the goal service 24 with configuration (24, 18, 3) at 0.0
# For goal service 177:
# n_min: 2
# n_max: 3
# lowest costs of the goal service 177 with configuration (177, 18, 3) at 0.0
# For goal service 121:
# n_min: 1
# n_max: 2
# lowest costs of the goal service 121 with configuration (121, 30, 2) at 0.0
# (24, 18, 1): 17512996.796765044
# (24, 18, 2): 9642702.01490143
# (24, 18, 3): 0.0
# (24, 18, 4): 725220.7200000025
# (24, 19, 1): 27047481.73000808
# (24, 19, 2): 15749356.84101338
# (24, 19, 3): 8239511.159369193
# (24, 19, 4): 9037210.439369202
# (24, 30, 1): 26497827.901862077
# (24, 30, 2): 16851057.07723991
# (24, 30, 3): 7787641.231682144
# (24, 30, 4): 8657881.231682144
# (121, 18, 1): 11348662.734553833
# (121, 18, 2): 1283632.6545538343
# (121, 19, 1): 13055422.612201776
# (121, 19, 2): 1034908.8170485198
# (121, 30, 1): 13429609.681774754
# (121, 30, 2): 0.0
# (177, 18, 1): 14205416.875752307
# (177, 18, 2): 10065030.079999998
# (177, 18, 3): 0.0
# (177, 19, 1): 21144319.833494842
# (177, 19, 2): 14524483.623097599
# (177, 19, 3): 1130971.6164675988
# (177, 30, 1): 20792749.820364572
# (177, 30, 2): 16623919.37937995
# (177, 30, 3): 2700434.8687939495
# -------------------------------------------
