### Additional Information to the goal services
# Basic costs on route 24: 19542699.427173883
# Basic costs on route 177: 21523717.83882118
# Basic costs on route 121: 9442770.091184327
# Direct costs (not staggered):
# For goal service 24:
# n_min: 2
# n_max: 4
# lowest costs of the goal service 24 with configuration (24, 18, 3) at 0.0
# For goal service 177:
# n_min: 2
# n_max: 3
# lowest costs of the goal service 177 with configuration (177, 18, 3) at 0.0
# For goal service 121:
# n_min: 1
# n_max: 2
# lowest costs of the goal service 121 with configuration (121, 30, 2) at 0.0
# (24, 18, 1): 11833105.943760164
# (24, 18, 2): 6515339.19925772
# (24, 18, 3): 0.0
# (24, 18, 4): 490014.0
# (24, 19, 1): 18275325.4932487
# (24, 19, 2): 10641457.325009037
# (24, 19, 3): 5567237.269844063
# (24, 19, 4): 6106223.269844059
# (24, 30, 1): 17903937.771528423
# (24, 30, 2): 11385849.376513451
# (24, 30, 3): 5261919.751136586
# (24, 30, 4): 5849919.751136582
# (121, 18, 1): 7668015.361185012
# (121, 18, 2): 867319.3611850161
# (121, 19, 1): 8821231.494730925
# (121, 19, 2): 699262.7142219674
# (121, 30, 1): 9074060.595793752
# (121, 30, 2): 0.0
# (177, 18, 1): 9598254.645778589
# (177, 18, 2): 6800696.0
# (177, 18, 3): 0.0
# (177, 19, 1): 14286702.590199225
# (177, 19, 2): 9813840.285876758
# (177, 19, 3): 764170.0111267492
# (177, 30, 1): 14049155.284030117
# (177, 30, 2): 11232377.959040504
# (177, 30, 3): 1824618.1545905024
# -------------------------------------------
