### Additional Information to the goal services
# Basic costs on route 24: 14852451.564652154
# Basic costs on route 177: 16358025.557504097
# Basic costs on route 121: 7176505.269300086
# Direct costs (not staggered):
# For goal service 24:
# n_min: 2
# n_max: 4
# lowest costs of the goal service 24 with configuration (24, 18, 3) at 0.0
# For goal service 177:
# n_min: 2
# n_max: 3
# lowest costs of the goal service 177 with configuration (177, 18, 3) at 0.0
# For goal service 121:
# n_min: 1
# n_max: 2
# lowest costs of the goal service 121 with configuration (121, 30, 2) at 0.0
# (24, 18, 1): 8993160.517257726
# (24, 18, 2): 4951657.791435869
# (24, 18, 3): 0.0
# (24, 18, 4): 372410.64000000246
# (24, 19, 1): 13889247.37486901
# (24, 19, 2): 8087507.567006862
# (24, 19, 3): 4231100.325081481
# (24, 19, 4): 4640729.68508148
# (24, 30, 1): 13606992.706361605
# (24, 30, 2): 8653245.526150221
# (24, 30, 3): 3999059.0108637977
# (24, 30, 4): 4445939.010863801
# (121, 18, 1): 5827691.674500614
# (121, 18, 2): 659162.7145006144
# (121, 19, 1): 6704135.935995501
# (121, 19, 2): 531439.6628086967
# (121, 30, 1): 6896286.052803252
# (121, 30, 2): 0.0
# (177, 18, 1): 7294673.530791728
# (177, 18, 2): 5168528.960000003
# (177, 18, 3): 0.0
# (177, 19, 1): 10857893.968551403
# (177, 19, 2): 7458518.617266333
# (177, 19, 3): 580769.2084563356
# (177, 30, 1): 10677358.015862884
# (177, 30, 2): 8536607.24887078
# (177, 30, 3): 1386709.7974887807
# -------------------------------------------
