### Additional Information to the goal services
# Basic costs on route 7: 22626733.67745271
# Basic costs on route 177: 11192333.276187016
# Basic costs on route 81: 50396730.61261159
# Basic costs on route 24: 10162203.702130424
# Basic costs on route 121: 4910240.447415849
# Direct costs (not staggered):
# For goal service 7:
# n_min: 3
# n_max: 6
# lowest costs of the goal service 7 with configuration (7, 19, 6) at 0.0
# For goal service 177:
# n_min: 2
# n_max: 3
# lowest costs of the goal service 177 with configuration (177, 18, 3) at 0.0
# For goal service 81:
# n_min: 6
# n_max: 6
# lowest costs of the goal service 81 with configuration (81, 18, 6) at 0.0
# For goal service 24:
# n_min: 2
# n_max: 4
# lowest costs of the goal service 24 with configuration (24, 18, 3) at 0.0
# For goal service 121:
# n_min: 1
# n_max: 2
# lowest costs of the goal service 121 with configuration (121, 30, 2) at 0.0
# (7, 18, 1): 13482882.864298452
# (7, 18, 2): 13737690.144298453
# (7, 18, 3): 12388054.771883894
# (7, 18, 4): 8851692.851883892
# (7, 18, 5): 5315330.93188389
# (7, 18, 6): 1778969.0118838958
# (7, 19, 1): 13948813.64935245
# (7, 19, 2): 14229086.369352449
# (7, 19, 3): 11804040.123679135
# (7, 19, 4): 7098211.580809139
# (7, 19, 5): 2392383.0379391424
# (7, 19, 6): 0.0
# (7, 30, 1): 14888374.067076724
# (7, 30, 2): 15194134.067076724
# (7, 30, 3): 14253874.869642328
# (7, 30, 4): 9361839.771328326
# (7, 30, 5): 4469804.673014324
# (7, 30, 6): 1031413.203529723
# (24, 18, 1): 6153215.090755282
# (24, 18, 2): 3387976.383614015
# (24, 18, 3): 0.0
# (24, 18, 4): 254807.27999999747
# (24, 19, 1): 9503169.25648932
# (24, 19, 2): 5533557.809004694
# (24, 19, 3): 2894963.380318908
# (24, 19, 4): 3175236.100318907
# (24, 30, 1): 9310047.641194781
# (24, 30, 2): 5920641.675786991
# (24, 30, 3): 2736198.2705910206
# (24, 30, 4): 3041958.270591017
# (81, 18, 1): 3227726.9608560577
# (81, 18, 2): 3482534.240856059
# (81, 18, 3): 3737341.5208560675
# (81, 18, 4): 3992148.800856054
# (81, 18, 5): 3536361.919999987
# (81, 18, 6): 0.0
# (81, 19, 1): 6739111.937943235
# (81, 19, 2): 7019384.657943234
# (81, 19, 3): 7299657.377943233
# (81, 19, 4): 7579930.097943239
# (81, 19, 5): 5814055.966362901
# (81, 19, 6): 1108227.423492901
# (81, 30, 1): 4951085.885542855
# (81, 30, 2): 5256845.885542855
# (81, 30, 3): 5562605.885542855
# (81, 30, 4): 5868365.885542855
# (81, 30, 5): 6174125.885542855
# (81, 30, 6): 2089058.313943565
# (121, 18, 1): 3987367.987816209
# (121, 18, 2): 451006.06781620905
# (121, 19, 1): 4587040.37726008
# (121, 19, 2): 363616.6113954233
# (121, 30, 1): 4718511.509812752
# (121, 30, 2): 0.0
# (177, 18, 1): 4991092.415804863
# (177, 18, 2): 3536361.920000002
# (177, 18, 3): 0.0
# (177, 19, 1): 7429085.346903594
# (177, 19, 2): 5103196.948655911
# (177, 19, 3): 397368.40578591265
# (177, 30, 1): 7305560.7476956565
# (177, 30, 2): 5840836.538701063
# (177, 30, 3): 948801.4403870609
# -------------------------------------------
