### Additional Information to the goal services
# Basic costs on route 24: 17622036.520984303
# Direct costs (not staggered):
# For goal service 24:
# n_min: 2
# n_max: 4
# lowest costs of the goal service 24 with configuration (24, 18, 3) at 0.0
# (24, 18, 1): 17512996.796765048
# (24, 18, 2): 9642702.01490143
# (24, 18, 3): 0.0
# (24, 18, 4): 725220.7200000025
# (24, 19, 1): 27047481.730008084
# (24, 19, 2): 15749356.84101338
# (24, 19, 3): 8239511.159369193
# (24, 19, 4): 9037210.439369202
# (24, 30, 1): 26497827.901862074
# (24, 30, 2): 16851057.077239905
# (24, 30, 3): 7787641.231682144
# (24, 30, 4): 8657881.231682144
# -------------------------------------------
