	Freetype 2.4.12 environment established
		library to render fonts
	Python 3.6.0 environment established
	Gurobi 8.1.0 environment established
Instance LSFRP: LSFDRP_3_4_1_0_fr.p
Instance LSFDP: LSFDRP_3_4_1_0_fd_13.p


*****************************************************************************************************************************
*** Solve LSFDRP_3_4_1_0_fd_13.p with matheuristics.
***  |
***  |- Create instance object for heuristic
***  |   |- Convert flexible visitations into inflexible visitations,	took 0.503602 sec.
***  |   |- Calculate demand structure for node flow model,		took 1.621108 sec.
***  |   |- Create additional vessel information,				took 0.009122 sec.
***  |
***  |   |- Create ranking for FDP solutions,				took 0.290508 sec.
***  |- Start solving instance with matheuristics, run 1
***  |   |- Create ranking for FDP solutions,				took 0.307596 sec.
***  |   |- Calculation finished, timelimit reached 			took   576.56 sec.
***  |
***  |- Start solving instance with matheuristics, run 2
***  |   |- Create ranking for FDP solutions,				took 0.277281 sec.
***  |   |- Calculation finished, timelimit reached 			took   577.32 sec.
***  |
***  |- Start solving instance with matheuristics, run 3
***  |   |- Create ranking for FDP solutions,				took 0.289276 sec.
***  |   |- Calculation finished, timelimit reached 			took    574.4 sec.
***  |
***  |- Start solving instance with matheuristics, run 4
***  |   |- Create ranking for FDP solutions,				took 0.269229 sec.
***  |   |- Calculation finished, timelimit reached 			took   589.59 sec.
***  |
***  |- Start solving instance with matheuristics, run 5
***  |   |- Create ranking for FDP solutions,				took 0.300616 sec.
***  |   |- Calculation finished, timelimit reached 			took   587.31 sec.
***  |
***  |- Start solving instance with matheuristics, run 6
***  |   |- Create ranking for FDP solutions,				took 0.269061 sec.
***  |   |- Calculation finished, timelimit reached 			took   587.07 sec.
***  |
***  |-----------------------------------------------------------------------------------------------------------------------
***
*****************************************************************************************************************************
###
###
#############################################################################################################################
### Solution run 1
#############################################################################################################################
###
### Results
###
### The objective of the solution is -701,007.6218 (-701007.6218)
###
### Service 7 (ME3) is operated by 6 vessels from type 19 (PMax28)
###  |
###  |- Vessel  5 has the path [282, 400, 261, 147, 394, 67, 480, 441, -3]
###  |  282 (NLRTM Out@92) - 400 (MAPTM In@211/Out@230) - 261 (MAPTM In@238/Out@259) - 147 (ESALG In@284/Out@296) - 394 (GWOX
###  |  B In@463/Out@542) - 67 (CMDLA In@765/Out@811) - 480 (TRMER In@1083/Out@1127) - 441 (AEJEA In@1530/Out@1563) - -3 (DUM
###  |  MY_END Ziel-Service 7)
###  |   |- and carried Demand   8,   42.0 containers from 282 to 147
###  |   |- and carried Demand  59,  161.0 containers from 261 to  67
###  |   |- and carried Demand  60,  580.0 containers from 261 to 147
###  |   |- and carried Demand 256,   42.0 containers from 282 to 147
###  |   |- and carried Demand 271,  580.0 containers from 261 to 147
###  |   |- and carried Demand 294,  161.0 containers from 400 to  67
###  |   |- and carried Demand 295,  580.0 containers from 400 to 147
###  |
###  |- Vessel  6 has the path [283, 476, 435, -3]
###  |  283 (NLRTM Out@260) - 476 (TRMER In@411/Out@455) - 435 (AEJEA In@690/Out@723) - -3 (DUMMY_END Ziel-Service 7)
###  |
###  |- Vessel  7 has the path [285, 182, 264, 150, 361, 438, -3]
###  |  285 (NLRTM Out@428) - 182 (FRLEH In@447/Out@463) - 264 (MAPTM In@543/Out@564) - 150 (ESALG In@589/Out@601) - 361 (TRA
###  |  LI In@836/Out@854) - 438 (AEJEA In@1026/Out@1059) - -3 (DUMMY_END Ziel-Service 7)
###  |   |- and carried Demand  31,   68.0 containers from 285 to 150
###  |   |- and carried Demand  32,    6.0 containers from 285 to 182
###  |   |- and carried Demand  35,   60.0 containers from 264 to 150
###  |   |- and carried Demand  36,   11.0 containers from 264 to 150
###  |   |- and carried Demand 263,   68.0 containers from 285 to 150
###  |   |- and carried Demand 266,   60.0 containers from 264 to 150
###  |   |- and carried Demand 267,   11.0 containers from 264 to 150
###  |
###  |- Vessel  8 has the path [287, 478, 448, 449, 369, 439, -3]
###  |  287 (NLRTM Out@596) - 478 (TRMER In@747/Out@791) - 448 (EGPSD In@867/Out@886) - 449 (EGPSD In@957/Out@973) - 369 (TRU
###  |  SK In@1018/Out@1028) - 439 (AEJEA In@1194/Out@1227) - -3 (DUMMY_END Ziel-Service 7)
###  |   |- and carried Demand 364,  467.0 containers from 448 to 439
###  |   |- and carried Demand 368,  467.0 containers from 449 to 439
###  |
###  |- Vessel 15 has the path [179, 557, 573, 565, 374, 486, 546, 349, 440, -3]
###  |  179 (FRLEH Out@158) - 557 (USCHS In@546/Out@556) - 573 (USORF In@581/Out@594) - 565 (USEWR In@618/Out@634) - 374 (UAI
###  |  LK In@957/Out@992) - 486 (AEJEA In@1067/Out@1091) - 546 (PKBQM In@1148/Out@1178) - 349 (PKBQM In@1218/Out@1246) - 440
###  |   (AEJEA In@1362/Out@1395) - -3 (DUMMY_END Ziel-Service 7)
###  |   |- and carried Demand 522,   86.0 containers from 486 to 546
###  |   |- and carried Demand 523,  118.0 containers from 486 to 546
###  |   |- and carried Demand 527,  418.0 containers from 573 to 486
###  |   |- and carried Demand 528,  123.0 containers from 573 to 486
###  |   |- and carried Demand 529,   61.0 containers from 573 to 546
###  |   |- and carried Demand 530,   64.0 containers from 557 to 486
###  |   |- and carried Demand 531,   49.0 containers from 557 to 546
###  |   |- and carried Demand 532,   24.0 containers from 557 to 546
###  |
###  |- Vessel 21 has the path [382, 464, 295, 437, -3]
###  |  382 (ZAPLZ Out@205) - 464 (OMSLL In@710/Out@722) - 295 (OMSLL In@721/Out@736) - 437 (AEJEA In@858/Out@891) - -3 (DUMM
###  |  Y_END Ziel-Service 7)
###  |   |- and carried Demand 365,  288.0 containers from 464 to 437
###  |   |- and carried Demand 366,   14.0 containers from 464 to 437
###  |
###  |
### Service 24 (WAF7) is operated by 3 vessels from type 18 (PMax25)
###  |
###  |- Vessel  1 has the path [131, 386, -1]
###  |  131 (DEHAM Out@288) - 386 (ESALG In@496/Out@515) - -1 (DUMMY_END Ziel-Service 24)
###  |
###  |- Vessel 13 has the path [135, 387, -1]
###  |  135 (DKAAR Out@220) - 387 (ESALG In@664/Out@683) - -1 (DUMMY_END Ziel-Service 24)
###  |
###  |- Vessel 20 has the path [164, 384, 260, 146, 385, 262, 401, 263, 149, 388, -1]
###  |  164 (ESBCN Out@94) - 384 (ESALG In@160/Out@179) - 260 (MAPTM In@207/Out@228) - 146 (ESALG In@253/Out@265) - 385 (ESAL
###  |  G In@328/Out@347) - 262 (MAPTM In@375/Out@396) - 401 (MAPTM In@379/Out@398) - 263 (MAPTM In@406/Out@427) - 149 (ESALG
###  |   In@452/Out@464) - 388 (ESALG In@832/Out@851) - -1 (DUMMY_END Ziel-Service 24)
###  |   |- and carried Demand  11,  580.0 containers from 260 to 146
###  |   |- and carried Demand  20,  484.0 containers from 262 to 149
###  |   |- and carried Demand  21,   18.0 containers from 262 to 149
###  |   |- and carried Demand  66,  484.0 containers from 263 to 149
###  |   |- and carried Demand  67,   18.0 containers from 263 to 149
###  |   |- and carried Demand 257,  580.0 containers from 260 to 146
###  |   |- and carried Demand 259,  214.0 containers from 262 to 388
###  |   |- and carried Demand 260,   10.0 containers from 262 to 388
###  |   |- and carried Demand 262,   18.0 containers from 262 to 149
###  |   |- and carried Demand 272,  214.0 containers from 263 to 388
###  |   |- and carried Demand 273,   10.0 containers from 263 to 388
###  |   |- and carried Demand 274,  312.0 containers from 263 to 149
###  |   |- and carried Demand 275,   18.0 containers from 263 to 149
###  |   |- and carried Demand 285,  214.0 containers from 401 to 388
###  |   |- and carried Demand 286,   10.0 containers from 401 to 388
###  |   |- and carried Demand 287,  484.0 containers from 401 to 149
###  |   |- and carried Demand 288,   18.0 containers from 401 to 149
###  |
###  |
### Service 81 (MECL1) is operated by 6 vessels from type 30 (PMax35)
###  |
###  |- Vessel  9 has the path [9, 483, 543, 215, 523, -4]
###  |  9 (BEANR Out@66) - 483 (AEJEA In@563/Out@587) - 543 (PKBQM In@644/Out@674) - 215 (INNSA In@1144/Out@1176) - 523 (INNS
###  |  A In@1242/Out@1258) - -4 (DUMMY_END Ziel-Service 81)
###  |   |- and carried Demand 565,  237.0 containers from 543 to 523
###  |   |- and carried Demand 566,    2.0 containers from 543 to 523
###  |   |- and carried Demand 567,  146.0 containers from 543 to 215
###  |   |- and carried Demand 568,   97.0 containers from 543 to 523
###  |   |- and carried Demand 572,  156.0 containers from 483 to 543
###  |   |- and carried Demand 573,   45.0 containers from 483 to 543
###  |   |- and carried Demand 574,   16.0 containers from 483 to 523
###  |   |- and carried Demand 575,  264.0 containers from 483 to 523
###  |
###  |- Vessel 10 has the path [10, 207, 521, -4]
###  |  10 (BEANR Out@234) - 207 (GRPIR In@528/Out@553) - 521 (INNSA In@906/Out@922) - -4 (DUMMY_END Ziel-Service 81)
###  |
###  |- Vessel 11 has the path [13, 360, 485, 545, 297, 488, 548, 525, -4]
###  |  13 (BEANR Out@402) - 360 (TRALI In@668/Out@686) - 485 (AEJEA In@899/Out@923) - 545 (PKBQM In@980/Out@1010) - 297 (OMS
###  |  LL In@1132/Out@1145) - 488 (AEJEA In@1403/Out@1427) - 548 (PKBQM In@1484/Out@1514) - 525 (INNSA In@1578/Out@1594) - -
###  |  4 (DUMMY_END Ziel-Service 81)
###  |   |- and carried Demand 475,   34.0 containers from 548 to 525
###  |   |- and carried Demand 476,   84.0 containers from 488 to 548
###  |   |- and carried Demand 477,   50.0 containers from 488 to 548
###  |   |- and carried Demand 535,  254.0 containers from 545 to 525
###  |   |- and carried Demand 536,    1.0 containers from 545 to 525
###  |   |- and carried Demand 537,  135.0 containers from 545 to 525
###  |   |- and carried Demand 540,   75.0 containers from 485 to 525
###  |   |- and carried Demand 541,  200.0 containers from 485 to 545
###  |   |- and carried Demand 542,   24.0 containers from 485 to 545
###  |   |- and carried Demand 543,   26.0 containers from 485 to 525
###  |   |- and carried Demand 544,  144.0 containers from 485 to 525
###  |   |- and carried Demand 545,    1.0 containers from 485 to 525
###  |
###  |- Vessel 12 has the path [16, 368, 522, -4]
###  |  16 (BEANR Out@570) - 368 (TRUSK In@844/Out@854) - 522 (INNSA In@1074/Out@1090) - -4 (DUMMY_END Ziel-Service 81)
###  |
###  |- Vessel 17 has the path [190, 284, 370, 484, 544, 217, 487, 547, 524, -4]
###  |  190 (GBFXT Out@302) - 284 (NLRTM In@332/Out@344) - 370 (TRZMK In@617/Out@631) - 484 (AEJEA In@731/Out@755) - 544 (PKB
###  |  QM In@812/Out@842) - 217 (INPAV In@1114/Out@1126) - 487 (AEJEA In@1235/Out@1259) - 547 (PKBQM In@1316/Out@1346) - 524
###  |   (INNSA In@1410/Out@1426) - -4 (DUMMY_END Ziel-Service 81)
###  |   |- and carried Demand 499,   31.0 containers from 547 to 524
###  |   |- and carried Demand 500,   37.0 containers from 487 to 524
###  |   |- and carried Demand 501,  211.0 containers from 487 to 524
###  |   |- and carried Demand 502,  176.0 containers from 487 to 547
###  |   |- and carried Demand 555,  244.0 containers from 544 to 524
###  |   |- and carried Demand 556,   67.0 containers from 544 to 524
###  |   |- and carried Demand 558,  118.0 containers from 484 to 524
###  |   |- and carried Demand 559,  133.0 containers from 484 to 544
###  |   |- and carried Demand 560,   61.0 containers from 484 to 544
###  |   |- and carried Demand 561,   15.0 containers from 484 to 524
###  |   |- and carried Demand 562,  267.0 containers from 484 to 524
###  |   |- and carried Demand 563,    1.0 containers from 484 to 524
###  |
###  |- Vessel 23 has the path [375, 520, -4]
###  |  375 (UYMVD Out@216) - 520 (INNSA In@738/Out@754) - -4 (DUMMY_END Ziel-Service 81)
###  |
###  |
### Service 121 (SAE) is operated by 2 vessels from type 30 (PMax35)
###  |
###  |- Vessel 18 has the path [193, 425, 421, 411, -2]
###  |  193 (GBFXT Out@470) - 425 (USORF In@873/Out@881) - 421 (USMIA In@935/Out@943) - 411 (HNPCR In@998/Out@1011) - -2 (DUM
###  |  MY_END Ziel-Service 121)
###  |   |- and carried Demand 325,   10.0 containers from 421 to 411
###  |   |- and carried Demand 326,   75.0 containers from 425 to 411
###  |   |- and carried Demand 327,  114.0 containers from 425 to 411
###  |
###  |- Vessel 24 has the path [231, 106, 78, 210, 107, 75, 86, 270, 300, 412, -2]
###  |  231 (JPYOK Out@171) - 106 (CNXMN In@238/Out@260) - 78 (CNNSA In@287/Out@297) - 210 (HKHKG In@334/Out@350) - 107 (CNYT
###  |  N In@358/Out@376) - 75 (CNNGB In@430/Out@439) - 86 (CNSHA In@465/Out@483) - 270 (MXLZC In@873/Out@896) - 300 (PABLB I
###  |  n@982/Out@1030) - 412 (HNPCR In@1166/Out@1179) - -2 (DUMMY_END Ziel-Service 121)
###  |   |- and carried Demand  87,  541.0 containers from 231 to 300
###  |   |- and carried Demand 178,  785.0 containers from 106 to 210
###  |   |- and carried Demand 179,    1.0 containers from 106 to 210
###  |   |- and carried Demand 181,  121.0 containers from 210 to  75
###  |   |- and carried Demand 182,   75.0 containers from 210 to  86
###  |   |- and carried Demand 183,    1.0 containers from 210 to 107
###  |   |- and carried Demand 184,   17.0 containers from 210 to 270
###  |   |- and carried Demand 185,  339.0 containers from 107 to 270
###  |   |- and carried Demand 186,    6.0 containers from 107 to 300
###  |   |- and carried Demand 187,  166.0 containers from  75 to 270
###  |   |- and carried Demand 188,  773.0 containers from  75 to 300
###  |   |- and carried Demand 189,    1.0 containers from  75 to 300
###  |   |- and carried Demand 192,  298.0 containers from 270 to 300
###  |   |- and carried Demand 193,  199.0 containers from 270 to 300
###  |   |- and carried Demand 297,    6.0 containers from 107 to 300
###  |   |- and carried Demand 298,  773.0 containers from  75 to 300
###  |   |- and carried Demand 299,    1.0 containers from  75 to 300
###  |   |- and carried Demand 300,  298.0 containers from 270 to 300
###  |   |- and carried Demand 301,  199.0 containers from 270 to 300
###  |
###  |
### Service 177 (WCSA) is operated by 3 vessels from type 18 (PMax25)
###  |
###  |- Vessel  2 has the path [132, 372, 303, 0]
###  |  132 (DEHAM Out@456) - 372 (TRZMK In@785/Out@799) - 303 (PABLB In@1472/Out@1484) - 0 (DUMMY_END Ziel-Service 177)
###  |
###  |- Vessel 14 has the path [136, 469, 362, 302, 0]
###  |  136 (DKAAR Out@388) - 469 (TRAMB In@515/Out@563) - 362 (TRAMB In@576/Out@603) - 302 (PABLB In@1304/Out@1316) - 0 (DUM
###  |  MY_END Ziel-Service 177)
###  |
###  |- Vessel 19 has the path [216, 354, 249, 226, 71, 102, 99, 76, 88, 305, 0]
###  |  216 (INPAV Out@118) - 354 (SGSIN In@618/Out@651) - 249 (KRPUS In@788/Out@810) - 226 (JPHKT In@824/Out@833) - 71 (CNDL
###  |  C In@871/Out@886) - 102 (CNXGG In@904/Out@923) - 99 (CNTAO In@960/Out@978) - 76 (CNNGB In@1031/Out@1040) - 88 (CNSHA 
###  |  In@1069/Out@1079) - 305 (PABLB In@1640/Out@1652) - 0 (DUMMY_END Ziel-Service 177)
###  |   |- and carried Demand  45,  975.0 containers from  76 to 305
###  |   |- and carried Demand  46,    1.0 containers from  76 to 305
###  |   |- and carried Demand  48,  907.0 containers from  88 to 305
###  |   |- and carried Demand  49,    3.0 containers from  88 to 305
###  |
###  |
### Vessels not used in the solution: [3, 4, 16, 22]
###  |-----------------------------------------------------------------------------------------------------------------------
###
#############################################################################################################################
###
###
#############################################################################################################################
### Solution run 2
#############################################################################################################################
###
### Results
###
### The objective of the solution is -634,423.6218 (-634423.6218)
###
### Service 7 (ME3) is operated by 6 vessels from type 19 (PMax28)
###  |
###  |- Vessel  5 has the path [282, 400, 261, 147, 394, 68, 480, 441, -3]
###  |  282 (NLRTM Out@92) - 400 (MAPTM In@211/Out@230) - 261 (MAPTM In@238/Out@259) - 147 (ESALG In@284/Out@296) - 394 (GWOX
###  |  B In@463/Out@542) - 68 (CMDLA In@796/Out@842) - 480 (TRMER In@1083/Out@1127) - 441 (AEJEA In@1530/Out@1563) - -3 (DUM
###  |  MY_END Ziel-Service 7)
###  |   |- and carried Demand   8,   42.0 containers from 282 to 147
###  |   |- and carried Demand  59,  161.0 containers from 261 to  68
###  |   |- and carried Demand  60,  580.0 containers from 261 to 147
###  |   |- and carried Demand 256,   42.0 containers from 282 to 147
###  |   |- and carried Demand 271,  580.0 containers from 261 to 147
###  |   |- and carried Demand 294,  161.0 containers from 400 to  68
###  |   |- and carried Demand 295,  580.0 containers from 400 to 147
###  |
###  |- Vessel  6 has the path [283, 476, 435, -3]
###  |  283 (NLRTM Out@260) - 476 (TRMER In@411/Out@455) - 435 (AEJEA In@690/Out@723) - -3 (DUMMY_END Ziel-Service 7)
###  |
###  |- Vessel  7 has the path [285, 182, 264, 150, 361, 438, -3]
###  |  285 (NLRTM Out@428) - 182 (FRLEH In@447/Out@463) - 264 (MAPTM In@543/Out@564) - 150 (ESALG In@589/Out@601) - 361 (TRA
###  |  LI In@836/Out@854) - 438 (AEJEA In@1026/Out@1059) - -3 (DUMMY_END Ziel-Service 7)
###  |   |- and carried Demand  31,   68.0 containers from 285 to 150
###  |   |- and carried Demand  32,    6.0 containers from 285 to 182
###  |   |- and carried Demand  35,   60.0 containers from 264 to 150
###  |   |- and carried Demand  36,   11.0 containers from 264 to 150
###  |   |- and carried Demand 263,   68.0 containers from 285 to 150
###  |   |- and carried Demand 266,   60.0 containers from 264 to 150
###  |   |- and carried Demand 267,   11.0 containers from 264 to 150
###  |
###  |- Vessel  8 has the path [287, 478, 448, 449, 369, 439, -3]
###  |  287 (NLRTM Out@596) - 478 (TRMER In@747/Out@791) - 448 (EGPSD In@867/Out@886) - 449 (EGPSD In@957/Out@973) - 369 (TRU
###  |  SK In@1018/Out@1028) - 439 (AEJEA In@1194/Out@1227) - -3 (DUMMY_END Ziel-Service 7)
###  |   |- and carried Demand 364,  467.0 containers from 448 to 439
###  |   |- and carried Demand 368,  467.0 containers from 449 to 439
###  |
###  |- Vessel 15 has the path [179, 557, 573, 565, 374, 486, 546, 349, 440, -3]
###  |  179 (FRLEH Out@158) - 557 (USCHS In@546/Out@556) - 573 (USORF In@581/Out@594) - 565 (USEWR In@618/Out@634) - 374 (UAI
###  |  LK In@957/Out@992) - 486 (AEJEA In@1067/Out@1091) - 546 (PKBQM In@1148/Out@1178) - 349 (PKBQM In@1218/Out@1246) - 440
###  |   (AEJEA In@1362/Out@1395) - -3 (DUMMY_END Ziel-Service 7)
###  |   |- and carried Demand 522,   86.0 containers from 486 to 546
###  |   |- and carried Demand 523,  118.0 containers from 486 to 546
###  |   |- and carried Demand 527,  418.0 containers from 573 to 486
###  |   |- and carried Demand 528,  123.0 containers from 573 to 486
###  |   |- and carried Demand 529,   61.0 containers from 573 to 546
###  |   |- and carried Demand 530,   64.0 containers from 557 to 486
###  |   |- and carried Demand 531,   49.0 containers from 557 to 546
###  |   |- and carried Demand 532,   24.0 containers from 557 to 546
###  |
###  |- Vessel 21 has the path [382, 464, 295, 437, -3]
###  |  382 (ZAPLZ Out@205) - 464 (OMSLL In@710/Out@722) - 295 (OMSLL In@721/Out@736) - 437 (AEJEA In@858/Out@891) - -3 (DUMM
###  |  Y_END Ziel-Service 7)
###  |   |- and carried Demand 365,  288.0 containers from 464 to 437
###  |   |- and carried Demand 366,   14.0 containers from 464 to 437
###  |
###  |
### Service 24 (WAF7) is operated by 3 vessels from type 18 (PMax25)
###  |
###  |- Vessel  1 has the path [131, 386, -1]
###  |  131 (DEHAM Out@288) - 386 (ESALG In@496/Out@515) - -1 (DUMMY_END Ziel-Service 24)
###  |
###  |- Vessel 14 has the path [136, 387, -1]
###  |  136 (DKAAR Out@388) - 387 (ESALG In@664/Out@683) - -1 (DUMMY_END Ziel-Service 24)
###  |
###  |- Vessel 20 has the path [164, 384, 260, 146, 385, 262, 401, 263, 149, 388, -1]
###  |  164 (ESBCN Out@94) - 384 (ESALG In@160/Out@179) - 260 (MAPTM In@207/Out@228) - 146 (ESALG In@253/Out@265) - 385 (ESAL
###  |  G In@328/Out@347) - 262 (MAPTM In@375/Out@396) - 401 (MAPTM In@379/Out@398) - 263 (MAPTM In@406/Out@427) - 149 (ESALG
###  |   In@452/Out@464) - 388 (ESALG In@832/Out@851) - -1 (DUMMY_END Ziel-Service 24)
###  |   |- and carried Demand  11,  580.0 containers from 260 to 146
###  |   |- and carried Demand  20,  484.0 containers from 262 to 149
###  |   |- and carried Demand  21,   18.0 containers from 262 to 149
###  |   |- and carried Demand  66,  484.0 containers from 263 to 149
###  |   |- and carried Demand  67,   18.0 containers from 263 to 149
###  |   |- and carried Demand 257,  580.0 containers from 260 to 146
###  |   |- and carried Demand 259,  214.0 containers from 262 to 388
###  |   |- and carried Demand 260,   10.0 containers from 262 to 388
###  |   |- and carried Demand 262,   18.0 containers from 262 to 149
###  |   |- and carried Demand 272,  214.0 containers from 263 to 388
###  |   |- and carried Demand 273,   10.0 containers from 263 to 388
###  |   |- and carried Demand 274,  312.0 containers from 263 to 149
###  |   |- and carried Demand 275,   18.0 containers from 263 to 149
###  |   |- and carried Demand 285,  214.0 containers from 401 to 388
###  |   |- and carried Demand 286,   10.0 containers from 401 to 388
###  |   |- and carried Demand 287,  484.0 containers from 401 to 149
###  |   |- and carried Demand 288,   18.0 containers from 401 to 149
###  |
###  |
### Service 81 (MECL1) is operated by 6 vessels from type 30 (PMax35)
###  |
###  |- Vessel  9 has the path [9, 483, 543, 215, 523, -4]
###  |  9 (BEANR Out@66) - 483 (AEJEA In@563/Out@587) - 543 (PKBQM In@644/Out@674) - 215 (INNSA In@1144/Out@1176) - 523 (INNS
###  |  A In@1242/Out@1258) - -4 (DUMMY_END Ziel-Service 81)
###  |   |- and carried Demand 565,  237.0 containers from 543 to 523
###  |   |- and carried Demand 566,    2.0 containers from 543 to 523
###  |   |- and carried Demand 567,  146.0 containers from 543 to 215
###  |   |- and carried Demand 568,   97.0 containers from 543 to 523
###  |   |- and carried Demand 572,  156.0 containers from 483 to 543
###  |   |- and carried Demand 573,   45.0 containers from 483 to 543
###  |   |- and carried Demand 574,   16.0 containers from 483 to 523
###  |   |- and carried Demand 575,  264.0 containers from 483 to 523
###  |
###  |- Vessel 10 has the path [10, 207, 521, -4]
###  |  10 (BEANR Out@234) - 207 (GRPIR In@528/Out@553) - 521 (INNSA In@906/Out@922) - -4 (DUMMY_END Ziel-Service 81)
###  |
###  |- Vessel 11 has the path [13, 360, 485, 545, 297, 488, 548, 525, -4]
###  |  13 (BEANR Out@402) - 360 (TRALI In@668/Out@686) - 485 (AEJEA In@899/Out@923) - 545 (PKBQM In@980/Out@1010) - 297 (OMS
###  |  LL In@1132/Out@1145) - 488 (AEJEA In@1403/Out@1427) - 548 (PKBQM In@1484/Out@1514) - 525 (INNSA In@1578/Out@1594) - -
###  |  4 (DUMMY_END Ziel-Service 81)
###  |   |- and carried Demand 475,   34.0 containers from 548 to 525
###  |   |- and carried Demand 476,   84.0 containers from 488 to 548
###  |   |- and carried Demand 477,   50.0 containers from 488 to 548
###  |   |- and carried Demand 535,  254.0 containers from 545 to 525
###  |   |- and carried Demand 536,    1.0 containers from 545 to 525
###  |   |- and carried Demand 537,  135.0 containers from 545 to 525
###  |   |- and carried Demand 540,   75.0 containers from 485 to 525
###  |   |- and carried Demand 541,  200.0 containers from 485 to 545
###  |   |- and carried Demand 542,   24.0 containers from 485 to 545
###  |   |- and carried Demand 543,   26.0 containers from 485 to 525
###  |   |- and carried Demand 544,  144.0 containers from 485 to 525
###  |   |- and carried Demand 545,    1.0 containers from 485 to 525
###  |
###  |- Vessel 12 has the path [16, 368, 522, -4]
###  |  16 (BEANR Out@570) - 368 (TRUSK In@844/Out@854) - 522 (INNSA In@1074/Out@1090) - -4 (DUMMY_END Ziel-Service 81)
###  |
###  |- Vessel 17 has the path [190, 284, 370, 484, 544, 217, 487, 547, 524, -4]
###  |  190 (GBFXT Out@302) - 284 (NLRTM In@332/Out@344) - 370 (TRZMK In@617/Out@631) - 484 (AEJEA In@731/Out@755) - 544 (PKB
###  |  QM In@812/Out@842) - 217 (INPAV In@1114/Out@1126) - 487 (AEJEA In@1235/Out@1259) - 547 (PKBQM In@1316/Out@1346) - 524
###  |   (INNSA In@1410/Out@1426) - -4 (DUMMY_END Ziel-Service 81)
###  |   |- and carried Demand 499,   31.0 containers from 547 to 524
###  |   |- and carried Demand 500,   37.0 containers from 487 to 524
###  |   |- and carried Demand 501,  211.0 containers from 487 to 524
###  |   |- and carried Demand 502,  176.0 containers from 487 to 547
###  |   |- and carried Demand 555,  244.0 containers from 544 to 524
###  |   |- and carried Demand 556,   67.0 containers from 544 to 524
###  |   |- and carried Demand 558,  118.0 containers from 484 to 524
###  |   |- and carried Demand 559,  133.0 containers from 484 to 544
###  |   |- and carried Demand 560,   61.0 containers from 484 to 544
###  |   |- and carried Demand 561,   15.0 containers from 484 to 524
###  |   |- and carried Demand 562,  267.0 containers from 484 to 524
###  |   |- and carried Demand 563,    1.0 containers from 484 to 524
###  |
###  |- Vessel 23 has the path [375, 520, -4]
###  |  375 (UYMVD Out@216) - 520 (INNSA In@738/Out@754) - -4 (DUMMY_END Ziel-Service 81)
###  |
###  |
### Service 121 (SAE) is operated by 2 vessels from type 30 (PMax35)
###  |
###  |- Vessel 18 has the path [193, 425, 421, 411, -2]
###  |  193 (GBFXT Out@470) - 425 (USORF In@873/Out@881) - 421 (USMIA In@935/Out@943) - 411 (HNPCR In@998/Out@1011) - -2 (DUM
###  |  MY_END Ziel-Service 121)
###  |   |- and carried Demand 325,   10.0 containers from 421 to 411
###  |   |- and carried Demand 326,   75.0 containers from 425 to 411
###  |   |- and carried Demand 327,  114.0 containers from 425 to 411
###  |
###  |- Vessel 24 has the path [231, 106, 78, 210, 107, 75, 86, 270, 300, 412, -2]
###  |  231 (JPYOK Out@171) - 106 (CNXMN In@238/Out@260) - 78 (CNNSA In@287/Out@297) - 210 (HKHKG In@334/Out@350) - 107 (CNYT
###  |  N In@358/Out@376) - 75 (CNNGB In@430/Out@439) - 86 (CNSHA In@465/Out@483) - 270 (MXLZC In@873/Out@896) - 300 (PABLB I
###  |  n@982/Out@1030) - 412 (HNPCR In@1166/Out@1179) - -2 (DUMMY_END Ziel-Service 121)
###  |   |- and carried Demand  87,  541.0 containers from 231 to 300
###  |   |- and carried Demand 178,  785.0 containers from 106 to 210
###  |   |- and carried Demand 179,    1.0 containers from 106 to 210
###  |   |- and carried Demand 181,  121.0 containers from 210 to  75
###  |   |- and carried Demand 182,   75.0 containers from 210 to  86
###  |   |- and carried Demand 183,    1.0 containers from 210 to 107
###  |   |- and carried Demand 184,   17.0 containers from 210 to 270
###  |   |- and carried Demand 185,  339.0 containers from 107 to 270
###  |   |- and carried Demand 186,    6.0 containers from 107 to 300
###  |   |- and carried Demand 187,  166.0 containers from  75 to 270
###  |   |- and carried Demand 188,  773.0 containers from  75 to 300
###  |   |- and carried Demand 189,    1.0 containers from  75 to 300
###  |   |- and carried Demand 192,  298.0 containers from 270 to 300
###  |   |- and carried Demand 193,  199.0 containers from 270 to 300
###  |   |- and carried Demand 297,    6.0 containers from 107 to 300
###  |   |- and carried Demand 298,  773.0 containers from  75 to 300
###  |   |- and carried Demand 299,    1.0 containers from  75 to 300
###  |   |- and carried Demand 300,  298.0 containers from 270 to 300
###  |   |- and carried Demand 301,  199.0 containers from 270 to 300
###  |
###  |
### Service 177 (WCSA) is operated by 3 vessels from type 18 (PMax25)
###  |
###  |- Vessel  2 has the path [132, 372, 303, 0]
###  |  132 (DEHAM Out@456) - 372 (TRZMK In@785/Out@799) - 303 (PABLB In@1472/Out@1484) - 0 (DUMMY_END Ziel-Service 177)
###  |
###  |- Vessel 13 has the path [135, 362, 302, 0]
###  |  135 (DKAAR Out@220) - 362 (TRAMB In@576/Out@603) - 302 (PABLB In@1304/Out@1316) - 0 (DUMMY_END Ziel-Service 177)
###  |
###  |- Vessel 19 has the path [216, 354, 249, 226, 71, 102, 99, 76, 88, 305, 0]
###  |  216 (INPAV Out@118) - 354 (SGSIN In@618/Out@651) - 249 (KRPUS In@788/Out@810) - 226 (JPHKT In@824/Out@833) - 71 (CNDL
###  |  C In@871/Out@886) - 102 (CNXGG In@904/Out@923) - 99 (CNTAO In@960/Out@978) - 76 (CNNGB In@1031/Out@1040) - 88 (CNSHA 
###  |  In@1069/Out@1079) - 305 (PABLB In@1640/Out@1652) - 0 (DUMMY_END Ziel-Service 177)
###  |   |- and carried Demand  45,  975.0 containers from  76 to 305
###  |   |- and carried Demand  46,    1.0 containers from  76 to 305
###  |   |- and carried Demand  48,  907.0 containers from  88 to 305
###  |   |- and carried Demand  49,    3.0 containers from  88 to 305
###  |
###  |
### Vessels not used in the solution: [3, 4, 16, 22]
###  |-----------------------------------------------------------------------------------------------------------------------
###
#############################################################################################################################
###
###
#############################################################################################################################
### Solution run 3
#############################################################################################################################
###
### Results
###
### The objective of the solution is -739,529.2491 (-739529.2491)
###
### Service 7 (ME3) is operated by 6 vessels from type 19 (PMax28)
###  |
###  |- Vessel  5 has the path [282, 400, 261, 147, 394, 68, 480, 441, -3]
###  |  282 (NLRTM Out@92) - 400 (MAPTM In@211/Out@230) - 261 (MAPTM In@238/Out@259) - 147 (ESALG In@284/Out@296) - 394 (GWOX
###  |  B In@463/Out@542) - 68 (CMDLA In@796/Out@842) - 480 (TRMER In@1083/Out@1127) - 441 (AEJEA In@1530/Out@1563) - -3 (DUM
###  |  MY_END Ziel-Service 7)
###  |   |- and carried Demand   8,   42.0 containers from 282 to 147
###  |   |- and carried Demand  59,  161.0 containers from 261 to  68
###  |   |- and carried Demand  60,  580.0 containers from 261 to 147
###  |   |- and carried Demand 256,   42.0 containers from 282 to 147
###  |   |- and carried Demand 271,  580.0 containers from 261 to 147
###  |   |- and carried Demand 294,  161.0 containers from 400 to  68
###  |   |- and carried Demand 295,  580.0 containers from 400 to 147
###  |
###  |- Vessel  6 has the path [283, 476, 435, -3]
###  |  283 (NLRTM Out@260) - 476 (TRMER In@411/Out@455) - 435 (AEJEA In@690/Out@723) - -3 (DUMMY_END Ziel-Service 7)
###  |
###  |- Vessel  7 has the path [285, 182, 264, 150, 371, 448, 449, 369, 439, -3]
###  |  285 (NLRTM Out@428) - 182 (FRLEH In@447/Out@463) - 264 (MAPTM In@543/Out@564) - 150 (ESALG In@589/Out@601) - 371 (TRZ
###  |  MK In@778/Out@793) - 448 (EGPSD In@867/Out@886) - 449 (EGPSD In@957/Out@973) - 369 (TRUSK In@1018/Out@1028) - 439 (AE
###  |  JEA In@1194/Out@1227) - -3 (DUMMY_END Ziel-Service 7)
###  |   |- and carried Demand  31,   68.0 containers from 285 to 150
###  |   |- and carried Demand  32,    6.0 containers from 285 to 182
###  |   |- and carried Demand  35,   60.0 containers from 264 to 150
###  |   |- and carried Demand  36,   11.0 containers from 264 to 150
###  |   |- and carried Demand 263,   68.0 containers from 285 to 150
###  |   |- and carried Demand 266,   60.0 containers from 264 to 150
###  |   |- and carried Demand 267,   11.0 containers from 264 to 150
###  |   |- and carried Demand 364,  467.0 containers from 448 to 439
###  |   |- and carried Demand 368,  467.0 containers from 449 to 439
###  |
###  |- Vessel 15 has the path [179, 557, 573, 565, 374, 486, 546, 349, 440, -3]
###  |  179 (FRLEH Out@158) - 557 (USCHS In@546/Out@556) - 573 (USORF In@581/Out@594) - 565 (USEWR In@618/Out@634) - 374 (UAI
###  |  LK In@957/Out@992) - 486 (AEJEA In@1067/Out@1091) - 546 (PKBQM In@1148/Out@1178) - 349 (PKBQM In@1218/Out@1246) - 440
###  |   (AEJEA In@1362/Out@1395) - -3 (DUMMY_END Ziel-Service 7)
###  |   |- and carried Demand 522,   86.0 containers from 486 to 546
###  |   |- and carried Demand 523,  118.0 containers from 486 to 546
###  |   |- and carried Demand 527,  418.0 containers from 573 to 486
###  |   |- and carried Demand 528,  123.0 containers from 573 to 486
###  |   |- and carried Demand 529,   61.0 containers from 573 to 546
###  |   |- and carried Demand 530,   64.0 containers from 557 to 486
###  |   |- and carried Demand 531,   49.0 containers from 557 to 546
###  |   |- and carried Demand 532,   24.0 containers from 557 to 546
###  |
###  |- Vessel 16 has the path [181, 477, 465, 296, 438, -3]
###  |  181 (FRLEH Out@326) - 477 (TRMER In@579/Out@623) - 465 (OMSLL In@878/Out@890) - 296 (OMSLL In@889/Out@904) - 438 (AEJ
###  |  EA In@1026/Out@1059) - -3 (DUMMY_END Ziel-Service 7)
###  |   |- and carried Demand 359,  111.0 containers from 465 to 438
###  |   |- and carried Demand 360,   35.0 containers from 465 to 438
###  |
###  |- Vessel 21 has the path [382, 464, 295, 437, -3]
###  |  382 (ZAPLZ Out@205) - 464 (OMSLL In@710/Out@722) - 295 (OMSLL In@721/Out@736) - 437 (AEJEA In@858/Out@891) - -3 (DUMM
###  |  Y_END Ziel-Service 7)
###  |   |- and carried Demand 365,  288.0 containers from 464 to 437
###  |   |- and carried Demand 366,   14.0 containers from 464 to 437
###  |
###  |
### Service 24 (WAF7) is operated by 3 vessels from type 18 (PMax25)
###  |
###  |- Vessel  1 has the path [131, 386, -1]
###  |  131 (DEHAM Out@288) - 386 (ESALG In@496/Out@515) - -1 (DUMMY_END Ziel-Service 24)
###  |
###  |- Vessel 13 has the path [135, 387, -1]
###  |  135 (DKAAR Out@220) - 387 (ESALG In@664/Out@683) - -1 (DUMMY_END Ziel-Service 24)
###  |
###  |- Vessel 20 has the path [164, 384, 260, 146, 385, 262, 401, 263, 149, 388, -1]
###  |  164 (ESBCN Out@94) - 384 (ESALG In@160/Out@179) - 260 (MAPTM In@207/Out@228) - 146 (ESALG In@253/Out@265) - 385 (ESAL
###  |  G In@328/Out@347) - 262 (MAPTM In@375/Out@396) - 401 (MAPTM In@379/Out@398) - 263 (MAPTM In@406/Out@427) - 149 (ESALG
###  |   In@452/Out@464) - 388 (ESALG In@832/Out@851) - -1 (DUMMY_END Ziel-Service 24)
###  |   |- and carried Demand  11,  580.0 containers from 260 to 146
###  |   |- and carried Demand  20,  484.0 containers from 262 to 149
###  |   |- and carried Demand  21,   18.0 containers from 262 to 149
###  |   |- and carried Demand  66,  484.0 containers from 263 to 149
###  |   |- and carried Demand  67,   18.0 containers from 263 to 149
###  |   |- and carried Demand 257,  580.0 containers from 260 to 146
###  |   |- and carried Demand 259,  214.0 containers from 262 to 388
###  |   |- and carried Demand 260,   10.0 containers from 262 to 388
###  |   |- and carried Demand 262,   18.0 containers from 262 to 149
###  |   |- and carried Demand 272,  214.0 containers from 263 to 388
###  |   |- and carried Demand 273,   10.0 containers from 263 to 388
###  |   |- and carried Demand 274,  312.0 containers from 263 to 149
###  |   |- and carried Demand 275,   18.0 containers from 263 to 149
###  |   |- and carried Demand 285,  214.0 containers from 401 to 388
###  |   |- and carried Demand 286,   10.0 containers from 401 to 388
###  |   |- and carried Demand 287,  484.0 containers from 401 to 149
###  |   |- and carried Demand 288,   18.0 containers from 401 to 149
###  |
###  |
### Service 81 (MECL1) is operated by 6 vessels from type 30 (PMax35)
###  |
###  |- Vessel  9 has the path [9, 483, 543, 215, 523, -4]
###  |  9 (BEANR Out@66) - 483 (AEJEA In@563/Out@587) - 543 (PKBQM In@644/Out@674) - 215 (INNSA In@1144/Out@1176) - 523 (INNS
###  |  A In@1242/Out@1258) - -4 (DUMMY_END Ziel-Service 81)
###  |   |- and carried Demand 565,  237.0 containers from 543 to 523
###  |   |- and carried Demand 566,    2.0 containers from 543 to 523
###  |   |- and carried Demand 567,  146.0 containers from 543 to 215
###  |   |- and carried Demand 568,   97.0 containers from 543 to 523
###  |   |- and carried Demand 572,  156.0 containers from 483 to 543
###  |   |- and carried Demand 573,   45.0 containers from 483 to 543
###  |   |- and carried Demand 574,   16.0 containers from 483 to 523
###  |   |- and carried Demand 575,  264.0 containers from 483 to 523
###  |
###  |- Vessel 10 has the path [10, 207, 521, -4]
###  |  10 (BEANR Out@234) - 207 (GRPIR In@528/Out@553) - 521 (INNSA In@906/Out@922) - -4 (DUMMY_END Ziel-Service 81)
###  |
###  |- Vessel 11 has the path [13, 360, 485, 545, 297, 488, 548, 525, -4]
###  |  13 (BEANR Out@402) - 360 (TRALI In@668/Out@686) - 485 (AEJEA In@899/Out@923) - 545 (PKBQM In@980/Out@1010) - 297 (OMS
###  |  LL In@1132/Out@1145) - 488 (AEJEA In@1403/Out@1427) - 548 (PKBQM In@1484/Out@1514) - 525 (INNSA In@1578/Out@1594) - -
###  |  4 (DUMMY_END Ziel-Service 81)
###  |   |- and carried Demand 475,   34.0 containers from 548 to 525
###  |   |- and carried Demand 476,   84.0 containers from 488 to 548
###  |   |- and carried Demand 477,   50.0 containers from 488 to 548
###  |   |- and carried Demand 535,  254.0 containers from 545 to 525
###  |   |- and carried Demand 536,    1.0 containers from 545 to 525
###  |   |- and carried Demand 537,  135.0 containers from 545 to 525
###  |   |- and carried Demand 540,   75.0 containers from 485 to 525
###  |   |- and carried Demand 541,  200.0 containers from 485 to 545
###  |   |- and carried Demand 542,   24.0 containers from 485 to 545
###  |   |- and carried Demand 543,   26.0 containers from 485 to 525
###  |   |- and carried Demand 544,  144.0 containers from 485 to 525
###  |   |- and carried Demand 545,    1.0 containers from 485 to 525
###  |
###  |- Vessel 12 has the path [16, 368, 522, -4]
###  |  16 (BEANR Out@570) - 368 (TRUSK In@844/Out@854) - 522 (INNSA In@1074/Out@1090) - -4 (DUMMY_END Ziel-Service 81)
###  |
###  |- Vessel 17 has the path [190, 284, 370, 484, 544, 217, 487, 547, 524, -4]
###  |  190 (GBFXT Out@302) - 284 (NLRTM In@332/Out@344) - 370 (TRZMK In@617/Out@631) - 484 (AEJEA In@731/Out@755) - 544 (PKB
###  |  QM In@812/Out@842) - 217 (INPAV In@1114/Out@1126) - 487 (AEJEA In@1235/Out@1259) - 547 (PKBQM In@1316/Out@1346) - 524
###  |   (INNSA In@1410/Out@1426) - -4 (DUMMY_END Ziel-Service 81)
###  |   |- and carried Demand 499,   31.0 containers from 547 to 524
###  |   |- and carried Demand 500,   37.0 containers from 487 to 524
###  |   |- and carried Demand 501,  211.0 containers from 487 to 524
###  |   |- and carried Demand 502,  176.0 containers from 487 to 547
###  |   |- and carried Demand 555,  244.0 containers from 544 to 524
###  |   |- and carried Demand 556,   67.0 containers from 544 to 524
###  |   |- and carried Demand 558,  118.0 containers from 484 to 524
###  |   |- and carried Demand 559,  133.0 containers from 484 to 544
###  |   |- and carried Demand 560,   61.0 containers from 484 to 544
###  |   |- and carried Demand 561,   15.0 containers from 484 to 524
###  |   |- and carried Demand 562,  267.0 containers from 484 to 524
###  |   |- and carried Demand 563,    1.0 containers from 484 to 524
###  |
###  |- Vessel 23 has the path [375, 520, -4]
###  |  375 (UYMVD Out@216) - 520 (INNSA In@738/Out@754) - -4 (DUMMY_END Ziel-Service 81)
###  |
###  |
### Service 121 (SAE) is operated by 2 vessels from type 30 (PMax35)
###  |
###  |- Vessel 18 has the path [193, 425, 421, 411, -2]
###  |  193 (GBFXT Out@470) - 425 (USORF In@873/Out@881) - 421 (USMIA In@935/Out@943) - 411 (HNPCR In@998/Out@1011) - -2 (DUM
###  |  MY_END Ziel-Service 121)
###  |   |- and carried Demand 325,   10.0 containers from 421 to 411
###  |   |- and carried Demand 326,   75.0 containers from 425 to 411
###  |   |- and carried Demand 327,  114.0 containers from 425 to 411
###  |
###  |- Vessel 24 has the path [231, 106, 78, 210, 107, 75, 86, 270, 300, 412, -2]
###  |  231 (JPYOK Out@171) - 106 (CNXMN In@238/Out@260) - 78 (CNNSA In@287/Out@297) - 210 (HKHKG In@334/Out@350) - 107 (CNYT
###  |  N In@358/Out@376) - 75 (CNNGB In@430/Out@439) - 86 (CNSHA In@465/Out@483) - 270 (MXLZC In@873/Out@896) - 300 (PABLB I
###  |  n@982/Out@1030) - 412 (HNPCR In@1166/Out@1179) - -2 (DUMMY_END Ziel-Service 121)
###  |   |- and carried Demand  87,  541.0 containers from 231 to 300
###  |   |- and carried Demand 178,  785.0 containers from 106 to 210
###  |   |- and carried Demand 179,    1.0 containers from 106 to 210
###  |   |- and carried Demand 181,  121.0 containers from 210 to  75
###  |   |- and carried Demand 182,   75.0 containers from 210 to  86
###  |   |- and carried Demand 183,    1.0 containers from 210 to 107
###  |   |- and carried Demand 184,   17.0 containers from 210 to 270
###  |   |- and carried Demand 185,  339.0 containers from 107 to 270
###  |   |- and carried Demand 186,    6.0 containers from 107 to 300
###  |   |- and carried Demand 187,  166.0 containers from  75 to 270
###  |   |- and carried Demand 188,  773.0 containers from  75 to 300
###  |   |- and carried Demand 189,    1.0 containers from  75 to 300
###  |   |- and carried Demand 192,  298.0 containers from 270 to 300
###  |   |- and carried Demand 193,  199.0 containers from 270 to 300
###  |   |- and carried Demand 297,    6.0 containers from 107 to 300
###  |   |- and carried Demand 298,  773.0 containers from  75 to 300
###  |   |- and carried Demand 299,    1.0 containers from  75 to 300
###  |   |- and carried Demand 300,  298.0 containers from 270 to 300
###  |   |- and carried Demand 301,  199.0 containers from 270 to 300
###  |
###  |
### Service 177 (WCSA) is operated by 3 vessels from type 18 (PMax25)
###  |
###  |- Vessel  2 has the path [132, 361, 303, 0]
###  |  132 (DEHAM Out@456) - 361 (TRALI In@836/Out@854) - 303 (PABLB In@1472/Out@1484) - 0 (DUMMY_END Ziel-Service 177)
###  |
###  |- Vessel 14 has the path [136, 469, 362, 302, 0]
###  |  136 (DKAAR Out@388) - 469 (TRAMB In@515/Out@563) - 362 (TRAMB In@576/Out@603) - 302 (PABLB In@1304/Out@1316) - 0 (DUM
###  |  MY_END Ziel-Service 177)
###  |
###  |- Vessel 19 has the path [216, 354, 249, 226, 71, 102, 99, 76, 88, 305, 0]
###  |  216 (INPAV Out@118) - 354 (SGSIN In@618/Out@651) - 249 (KRPUS In@788/Out@810) - 226 (JPHKT In@824/Out@833) - 71 (CNDL
###  |  C In@871/Out@886) - 102 (CNXGG In@904/Out@923) - 99 (CNTAO In@960/Out@978) - 76 (CNNGB In@1031/Out@1040) - 88 (CNSHA 
###  |  In@1069/Out@1079) - 305 (PABLB In@1640/Out@1652) - 0 (DUMMY_END Ziel-Service 177)
###  |   |- and carried Demand  45,  975.0 containers from  76 to 305
###  |   |- and carried Demand  46,    1.0 containers from  76 to 305
###  |   |- and carried Demand  48,  907.0 containers from  88 to 305
###  |   |- and carried Demand  49,    3.0 containers from  88 to 305
###  |
###  |
### Vessels not used in the solution: [3, 4, 8, 22]
###  |-----------------------------------------------------------------------------------------------------------------------
###
#############################################################################################################################
###
###
#############################################################################################################################
### Solution run 4
#############################################################################################################################
###
### Results
###
### The objective of the solution is -672,945.2491 (-672945.2491)
###
### Service 7 (ME3) is operated by 6 vessels from type 19 (PMax28)
###  |
###  |- Vessel  5 has the path [282, 400, 261, 147, 394, 67, 480, 441, -3]
###  |  282 (NLRTM Out@92) - 400 (MAPTM In@211/Out@230) - 261 (MAPTM In@238/Out@259) - 147 (ESALG In@284/Out@296) - 394 (GWOX
###  |  B In@463/Out@542) - 67 (CMDLA In@765/Out@811) - 480 (TRMER In@1083/Out@1127) - 441 (AEJEA In@1530/Out@1563) - -3 (DUM
###  |  MY_END Ziel-Service 7)
###  |   |- and carried Demand   8,   42.0 containers from 282 to 147
###  |   |- and carried Demand  59,  161.0 containers from 261 to  67
###  |   |- and carried Demand  60,  580.0 containers from 261 to 147
###  |   |- and carried Demand 256,   42.0 containers from 282 to 147
###  |   |- and carried Demand 271,  580.0 containers from 261 to 147
###  |   |- and carried Demand 294,  161.0 containers from 400 to  67
###  |   |- and carried Demand 295,  580.0 containers from 400 to 147
###  |
###  |- Vessel  6 has the path [283, 476, 435, -3]
###  |  283 (NLRTM Out@260) - 476 (TRMER In@411/Out@455) - 435 (AEJEA In@690/Out@723) - -3 (DUMMY_END Ziel-Service 7)
###  |
###  |- Vessel  7 has the path [285, 182, 264, 150, 371, 448, 449, 369, 439, -3]
###  |  285 (NLRTM Out@428) - 182 (FRLEH In@447/Out@463) - 264 (MAPTM In@543/Out@564) - 150 (ESALG In@589/Out@601) - 371 (TRZ
###  |  MK In@778/Out@793) - 448 (EGPSD In@867/Out@886) - 449 (EGPSD In@957/Out@973) - 369 (TRUSK In@1018/Out@1028) - 439 (AE
###  |  JEA In@1194/Out@1227) - -3 (DUMMY_END Ziel-Service 7)
###  |   |- and carried Demand  31,   68.0 containers from 285 to 150
###  |   |- and carried Demand  32,    6.0 containers from 285 to 182
###  |   |- and carried Demand  35,   60.0 containers from 264 to 150
###  |   |- and carried Demand  36,   11.0 containers from 264 to 150
###  |   |- and carried Demand 263,   68.0 containers from 285 to 150
###  |   |- and carried Demand 266,   60.0 containers from 264 to 150
###  |   |- and carried Demand 267,   11.0 containers from 264 to 150
###  |   |- and carried Demand 364,  467.0 containers from 448 to 439
###  |   |- and carried Demand 368,  467.0 containers from 449 to 439
###  |
###  |- Vessel 15 has the path [179, 557, 573, 565, 374, 486, 546, 349, 440, -3]
###  |  179 (FRLEH Out@158) - 557 (USCHS In@546/Out@556) - 573 (USORF In@581/Out@594) - 565 (USEWR In@618/Out@634) - 374 (UAI
###  |  LK In@957/Out@992) - 486 (AEJEA In@1067/Out@1091) - 546 (PKBQM In@1148/Out@1178) - 349 (PKBQM In@1218/Out@1246) - 440
###  |   (AEJEA In@1362/Out@1395) - -3 (DUMMY_END Ziel-Service 7)
###  |   |- and carried Demand 522,   86.0 containers from 486 to 546
###  |   |- and carried Demand 523,  118.0 containers from 486 to 546
###  |   |- and carried Demand 527,  418.0 containers from 573 to 486
###  |   |- and carried Demand 528,  123.0 containers from 573 to 486
###  |   |- and carried Demand 529,   61.0 containers from 573 to 546
###  |   |- and carried Demand 530,   64.0 containers from 557 to 486
###  |   |- and carried Demand 531,   49.0 containers from 557 to 546
###  |   |- and carried Demand 532,   24.0 containers from 557 to 546
###  |
###  |- Vessel 16 has the path [181, 477, 465, 296, 438, -3]
###  |  181 (FRLEH Out@326) - 477 (TRMER In@579/Out@623) - 465 (OMSLL In@878/Out@890) - 296 (OMSLL In@889/Out@904) - 438 (AEJ
###  |  EA In@1026/Out@1059) - -3 (DUMMY_END Ziel-Service 7)
###  |   |- and carried Demand 359,  111.0 containers from 465 to 438
###  |   |- and carried Demand 360,   35.0 containers from 465 to 438
###  |
###  |- Vessel 21 has the path [382, 464, 295, 437, -3]
###  |  382 (ZAPLZ Out@205) - 464 (OMSLL In@710/Out@722) - 295 (OMSLL In@721/Out@736) - 437 (AEJEA In@858/Out@891) - -3 (DUMM
###  |  Y_END Ziel-Service 7)
###  |   |- and carried Demand 365,  288.0 containers from 464 to 437
###  |   |- and carried Demand 366,   14.0 containers from 464 to 437
###  |
###  |
### Service 24 (WAF7) is operated by 3 vessels from type 18 (PMax25)
###  |
###  |- Vessel  1 has the path [131, 386, -1]
###  |  131 (DEHAM Out@288) - 386 (ESALG In@496/Out@515) - -1 (DUMMY_END Ziel-Service 24)
###  |
###  |- Vessel 14 has the path [136, 387, -1]
###  |  136 (DKAAR Out@388) - 387 (ESALG In@664/Out@683) - -1 (DUMMY_END Ziel-Service 24)
###  |
###  |- Vessel 20 has the path [164, 384, 260, 146, 385, 262, 401, 263, 149, 388, -1]
###  |  164 (ESBCN Out@94) - 384 (ESALG In@160/Out@179) - 260 (MAPTM In@207/Out@228) - 146 (ESALG In@253/Out@265) - 385 (ESAL
###  |  G In@328/Out@347) - 262 (MAPTM In@375/Out@396) - 401 (MAPTM In@379/Out@398) - 263 (MAPTM In@406/Out@427) - 149 (ESALG
###  |   In@452/Out@464) - 388 (ESALG In@832/Out@851) - -1 (DUMMY_END Ziel-Service 24)
###  |   |- and carried Demand  11,  580.0 containers from 260 to 146
###  |   |- and carried Demand  20,  484.0 containers from 262 to 149
###  |   |- and carried Demand  21,   18.0 containers from 262 to 149
###  |   |- and carried Demand  66,  484.0 containers from 263 to 149
###  |   |- and carried Demand  67,   18.0 containers from 263 to 149
###  |   |- and carried Demand 257,  580.0 containers from 260 to 146
###  |   |- and carried Demand 259,  214.0 containers from 262 to 388
###  |   |- and carried Demand 260,   10.0 containers from 262 to 388
###  |   |- and carried Demand 262,   18.0 containers from 262 to 149
###  |   |- and carried Demand 272,  214.0 containers from 263 to 388
###  |   |- and carried Demand 273,   10.0 containers from 263 to 388
###  |   |- and carried Demand 274,  312.0 containers from 263 to 149
###  |   |- and carried Demand 275,   18.0 containers from 263 to 149
###  |   |- and carried Demand 285,  214.0 containers from 401 to 388
###  |   |- and carried Demand 286,   10.0 containers from 401 to 388
###  |   |- and carried Demand 287,  484.0 containers from 401 to 149
###  |   |- and carried Demand 288,   18.0 containers from 401 to 149
###  |
###  |
### Service 81 (MECL1) is operated by 6 vessels from type 30 (PMax35)
###  |
###  |- Vessel  9 has the path [9, 483, 543, 215, 523, -4]
###  |  9 (BEANR Out@66) - 483 (AEJEA In@563/Out@587) - 543 (PKBQM In@644/Out@674) - 215 (INNSA In@1144/Out@1176) - 523 (INNS
###  |  A In@1242/Out@1258) - -4 (DUMMY_END Ziel-Service 81)
###  |   |- and carried Demand 565,  237.0 containers from 543 to 523
###  |   |- and carried Demand 566,    2.0 containers from 543 to 523
###  |   |- and carried Demand 567,  146.0 containers from 543 to 215
###  |   |- and carried Demand 568,   97.0 containers from 543 to 523
###  |   |- and carried Demand 572,  156.0 containers from 483 to 543
###  |   |- and carried Demand 573,   45.0 containers from 483 to 543
###  |   |- and carried Demand 574,   16.0 containers from 483 to 523
###  |   |- and carried Demand 575,  264.0 containers from 483 to 523
###  |
###  |- Vessel 10 has the path [10, 207, 521, -4]
###  |  10 (BEANR Out@234) - 207 (GRPIR In@528/Out@553) - 521 (INNSA In@906/Out@922) - -4 (DUMMY_END Ziel-Service 81)
###  |
###  |- Vessel 11 has the path [13, 360, 485, 545, 297, 488, 548, 525, -4]
###  |  13 (BEANR Out@402) - 360 (TRALI In@668/Out@686) - 485 (AEJEA In@899/Out@923) - 545 (PKBQM In@980/Out@1010) - 297 (OMS
###  |  LL In@1132/Out@1145) - 488 (AEJEA In@1403/Out@1427) - 548 (PKBQM In@1484/Out@1514) - 525 (INNSA In@1578/Out@1594) - -
###  |  4 (DUMMY_END Ziel-Service 81)
###  |   |- and carried Demand 475,   34.0 containers from 548 to 525
###  |   |- and carried Demand 476,   84.0 containers from 488 to 548
###  |   |- and carried Demand 477,   50.0 containers from 488 to 548
###  |   |- and carried Demand 535,  254.0 containers from 545 to 525
###  |   |- and carried Demand 536,    1.0 containers from 545 to 525
###  |   |- and carried Demand 537,  135.0 containers from 545 to 525
###  |   |- and carried Demand 540,   75.0 containers from 485 to 525
###  |   |- and carried Demand 541,  200.0 containers from 485 to 545
###  |   |- and carried Demand 542,   24.0 containers from 485 to 545
###  |   |- and carried Demand 543,   26.0 containers from 485 to 525
###  |   |- and carried Demand 544,  144.0 containers from 485 to 525
###  |   |- and carried Demand 545,    1.0 containers from 485 to 525
###  |
###  |- Vessel 12 has the path [16, 368, 522, -4]
###  |  16 (BEANR Out@570) - 368 (TRUSK In@844/Out@854) - 522 (INNSA In@1074/Out@1090) - -4 (DUMMY_END Ziel-Service 81)
###  |
###  |- Vessel 17 has the path [190, 284, 370, 484, 544, 217, 487, 547, 524, -4]
###  |  190 (GBFXT Out@302) - 284 (NLRTM In@332/Out@344) - 370 (TRZMK In@617/Out@631) - 484 (AEJEA In@731/Out@755) - 544 (PKB
###  |  QM In@812/Out@842) - 217 (INPAV In@1114/Out@1126) - 487 (AEJEA In@1235/Out@1259) - 547 (PKBQM In@1316/Out@1346) - 524
###  |   (INNSA In@1410/Out@1426) - -4 (DUMMY_END Ziel-Service 81)
###  |   |- and carried Demand 499,   31.0 containers from 547 to 524
###  |   |- and carried Demand 500,   37.0 containers from 487 to 524
###  |   |- and carried Demand 501,  211.0 containers from 487 to 524
###  |   |- and carried Demand 502,  176.0 containers from 487 to 547
###  |   |- and carried Demand 555,  244.0 containers from 544 to 524
###  |   |- and carried Demand 556,   67.0 containers from 544 to 524
###  |   |- and carried Demand 558,  118.0 containers from 484 to 524
###  |   |- and carried Demand 559,  133.0 containers from 484 to 544
###  |   |- and carried Demand 560,   61.0 containers from 484 to 544
###  |   |- and carried Demand 561,   15.0 containers from 484 to 524
###  |   |- and carried Demand 562,  267.0 containers from 484 to 524
###  |   |- and carried Demand 563,    1.0 containers from 484 to 524
###  |
###  |- Vessel 23 has the path [375, 520, -4]
###  |  375 (UYMVD Out@216) - 520 (INNSA In@738/Out@754) - -4 (DUMMY_END Ziel-Service 81)
###  |
###  |
### Service 121 (SAE) is operated by 2 vessels from type 30 (PMax35)
###  |
###  |- Vessel 18 has the path [193, 425, 421, 411, -2]
###  |  193 (GBFXT Out@470) - 425 (USORF In@873/Out@881) - 421 (USMIA In@935/Out@943) - 411 (HNPCR In@998/Out@1011) - -2 (DUM
###  |  MY_END Ziel-Service 121)
###  |   |- and carried Demand 325,   10.0 containers from 421 to 411
###  |   |- and carried Demand 326,   75.0 containers from 425 to 411
###  |   |- and carried Demand 327,  114.0 containers from 425 to 411
###  |
###  |- Vessel 24 has the path [231, 106, 78, 210, 107, 75, 86, 270, 300, 412, -2]
###  |  231 (JPYOK Out@171) - 106 (CNXMN In@238/Out@260) - 78 (CNNSA In@287/Out@297) - 210 (HKHKG In@334/Out@350) - 107 (CNYT
###  |  N In@358/Out@376) - 75 (CNNGB In@430/Out@439) - 86 (CNSHA In@465/Out@483) - 270 (MXLZC In@873/Out@896) - 300 (PABLB I
###  |  n@982/Out@1030) - 412 (HNPCR In@1166/Out@1179) - -2 (DUMMY_END Ziel-Service 121)
###  |   |- and carried Demand  87,  541.0 containers from 231 to 300
###  |   |- and carried Demand 178,  785.0 containers from 106 to 210
###  |   |- and carried Demand 179,    1.0 containers from 106 to 210
###  |   |- and carried Demand 181,  121.0 containers from 210 to  75
###  |   |- and carried Demand 182,   75.0 containers from 210 to  86
###  |   |- and carried Demand 183,    1.0 containers from 210 to 107
###  |   |- and carried Demand 184,   17.0 containers from 210 to 270
###  |   |- and carried Demand 185,  339.0 containers from 107 to 270
###  |   |- and carried Demand 186,    6.0 containers from 107 to 300
###  |   |- and carried Demand 187,  166.0 containers from  75 to 270
###  |   |- and carried Demand 188,  773.0 containers from  75 to 300
###  |   |- and carried Demand 189,    1.0 containers from  75 to 300
###  |   |- and carried Demand 192,  298.0 containers from 270 to 300
###  |   |- and carried Demand 193,  199.0 containers from 270 to 300
###  |   |- and carried Demand 297,    6.0 containers from 107 to 300
###  |   |- and carried Demand 298,  773.0 containers from  75 to 300
###  |   |- and carried Demand 299,    1.0 containers from  75 to 300
###  |   |- and carried Demand 300,  298.0 containers from 270 to 300
###  |   |- and carried Demand 301,  199.0 containers from 270 to 300
###  |
###  |
### Service 177 (WCSA) is operated by 3 vessels from type 18 (PMax25)
###  |
###  |- Vessel  2 has the path [132, 361, 303, 0]
###  |  132 (DEHAM Out@456) - 361 (TRALI In@836/Out@854) - 303 (PABLB In@1472/Out@1484) - 0 (DUMMY_END Ziel-Service 177)
###  |
###  |- Vessel 13 has the path [135, 362, 302, 0]
###  |  135 (DKAAR Out@220) - 362 (TRAMB In@576/Out@603) - 302 (PABLB In@1304/Out@1316) - 0 (DUMMY_END Ziel-Service 177)
###  |
###  |- Vessel 19 has the path [216, 354, 249, 226, 71, 102, 99, 76, 88, 305, 0]
###  |  216 (INPAV Out@118) - 354 (SGSIN In@618/Out@651) - 249 (KRPUS In@788/Out@810) - 226 (JPHKT In@824/Out@833) - 71 (CNDL
###  |  C In@871/Out@886) - 102 (CNXGG In@904/Out@923) - 99 (CNTAO In@960/Out@978) - 76 (CNNGB In@1031/Out@1040) - 88 (CNSHA 
###  |  In@1069/Out@1079) - 305 (PABLB In@1640/Out@1652) - 0 (DUMMY_END Ziel-Service 177)
###  |   |- and carried Demand  45,  975.0 containers from  76 to 305
###  |   |- and carried Demand  46,    1.0 containers from  76 to 305
###  |   |- and carried Demand  48,  907.0 containers from  88 to 305
###  |   |- and carried Demand  49,    3.0 containers from  88 to 305
###  |
###  |
### Vessels not used in the solution: [3, 4, 8, 22]
###  |-----------------------------------------------------------------------------------------------------------------------
###
#############################################################################################################################
###
###
#############################################################################################################################
### Solution run 5
#############################################################################################################################
###
### Results
###
### The objective of the solution is -386,344.1867 (-386344.1867)
###
### Service 7 (ME3) is operated by 6 vessels from type 19 (PMax28)
###  |
###  |- Vessel  5 has the path [282, 178, 260, 400, 261, 147, 394, 67, 480, 441, -3]
###  |  282 (NLRTM Out@92) - 178 (FRLEH In@111/Out@127) - 260 (MAPTM In@207/Out@228) - 400 (MAPTM In@211/Out@230) - 261 (MAPT
###  |  M In@238/Out@259) - 147 (ESALG In@284/Out@296) - 394 (GWOXB In@463/Out@542) - 67 (CMDLA In@765/Out@811) - 480 (TRMER 
###  |  In@1083/Out@1127) - 441 (AEJEA In@1530/Out@1563) - -3 (DUMMY_END Ziel-Service 7)
###  |   |- and carried Demand   9,   17.0 containers from 282 to 178
###  |   |- and carried Demand  10,  161.0 containers from 260 to  67
###  |   |- and carried Demand  11,  580.0 containers from 260 to 147
###  |   |- and carried Demand  59,  161.0 containers from 261 to  67
###  |   |- and carried Demand  60,  580.0 containers from 261 to 147
###  |   |- and carried Demand 257,   19.0 containers from 260 to 147
###  |   |- and carried Demand 271,  580.0 containers from 261 to 147
###  |   |- and carried Demand 294,  161.0 containers from 400 to  67
###  |   |- and carried Demand 295,  580.0 containers from 400 to 147
###  |
###  |- Vessel  6 has the path [283, 476, 435, -3]
###  |  283 (NLRTM Out@260) - 476 (TRMER In@411/Out@455) - 435 (AEJEA In@690/Out@723) - -3 (DUMMY_END Ziel-Service 7)
###  |
###  |- Vessel  7 has the path [285, 182, 264, 150, 371, 448, 449, 369, 439, -3]
###  |  285 (NLRTM Out@428) - 182 (FRLEH In@447/Out@463) - 264 (MAPTM In@543/Out@564) - 150 (ESALG In@589/Out@601) - 371 (TRZ
###  |  MK In@778/Out@793) - 448 (EGPSD In@867/Out@886) - 449 (EGPSD In@957/Out@973) - 369 (TRUSK In@1018/Out@1028) - 439 (AE
###  |  JEA In@1194/Out@1227) - -3 (DUMMY_END Ziel-Service 7)
###  |   |- and carried Demand  31,   68.0 containers from 285 to 150
###  |   |- and carried Demand  32,    6.0 containers from 285 to 182
###  |   |- and carried Demand  35,   60.0 containers from 264 to 150
###  |   |- and carried Demand  36,   11.0 containers from 264 to 150
###  |   |- and carried Demand 263,   68.0 containers from 285 to 150
###  |   |- and carried Demand 266,   60.0 containers from 264 to 150
###  |   |- and carried Demand 267,   11.0 containers from 264 to 150
###  |   |- and carried Demand 364,  467.0 containers from 448 to 439
###  |   |- and carried Demand 368,  467.0 containers from 449 to 439
###  |
###  |- Vessel 15 has the path [179, 557, 573, 565, 374, 486, 546, 349, 440, -3]
###  |  179 (FRLEH Out@158) - 557 (USCHS In@546/Out@556) - 573 (USORF In@581/Out@594) - 565 (USEWR In@618/Out@634) - 374 (UAI
###  |  LK In@957/Out@992) - 486 (AEJEA In@1067/Out@1091) - 546 (PKBQM In@1148/Out@1178) - 349 (PKBQM In@1218/Out@1246) - 440
###  |   (AEJEA In@1362/Out@1395) - -3 (DUMMY_END Ziel-Service 7)
###  |   |- and carried Demand 522,   86.0 containers from 486 to 546
###  |   |- and carried Demand 523,  118.0 containers from 486 to 546
###  |   |- and carried Demand 527,  418.0 containers from 573 to 486
###  |   |- and carried Demand 528,  123.0 containers from 573 to 486
###  |   |- and carried Demand 529,   61.0 containers from 573 to 546
###  |   |- and carried Demand 530,   64.0 containers from 557 to 486
###  |   |- and carried Demand 531,   49.0 containers from 557 to 546
###  |   |- and carried Demand 532,   24.0 containers from 557 to 546
###  |
###  |- Vessel 16 has the path [181, 477, 465, 296, 438, -3]
###  |  181 (FRLEH Out@326) - 477 (TRMER In@579/Out@623) - 465 (OMSLL In@878/Out@890) - 296 (OMSLL In@889/Out@904) - 438 (AEJ
###  |  EA In@1026/Out@1059) - -3 (DUMMY_END Ziel-Service 7)
###  |   |- and carried Demand 359,  111.0 containers from 465 to 438
###  |   |- and carried Demand 360,   35.0 containers from 465 to 438
###  |
###  |- Vessel 21 has the path [382, 464, 295, 437, -3]
###  |  382 (ZAPLZ Out@205) - 464 (OMSLL In@710/Out@722) - 295 (OMSLL In@721/Out@736) - 437 (AEJEA In@858/Out@891) - -3 (DUMM
###  |  Y_END Ziel-Service 7)
###  |   |- and carried Demand 365,  288.0 containers from 464 to 437
###  |   |- and carried Demand 366,   14.0 containers from 464 to 437
###  |
###  |
### Service 24 (WAF7) is operated by 3 vessels from type 18 (PMax25)
###  |
###  |- Vessel  1 has the path [131, 386, -1]
###  |  131 (DEHAM Out@288) - 386 (ESALG In@496/Out@515) - -1 (DUMMY_END Ziel-Service 24)
###  |
###  |- Vessel  2 has the path [132, 387, -1]
###  |  132 (DEHAM Out@456) - 387 (ESALG In@664/Out@683) - -1 (DUMMY_END Ziel-Service 24)
###  |
###  |- Vessel 20 has the path [164, 384, 262, 401, 263, 149, 388, -1]
###  |  164 (ESBCN Out@94) - 384 (ESALG In@160/Out@179) - 262 (MAPTM In@375/Out@396) - 401 (MAPTM In@379/Out@398) - 263 (MAPT
###  |  M In@406/Out@427) - 149 (ESALG In@452/Out@464) - 388 (ESALG In@832/Out@851) - -1 (DUMMY_END Ziel-Service 24)
###  |   |- and carried Demand  20,  312.0 containers from 262 to 149
###  |   |- and carried Demand  21,   18.0 containers from 262 to 149
###  |   |- and carried Demand  66,  484.0 containers from 263 to 149
###  |   |- and carried Demand  67,   18.0 containers from 263 to 149
###  |   |- and carried Demand 259,  214.0 containers from 262 to 388
###  |   |- and carried Demand 260,   10.0 containers from 262 to 388
###  |   |- and carried Demand 261,  484.0 containers from 262 to 149
###  |   |- and carried Demand 262,   18.0 containers from 262 to 149
###  |   |- and carried Demand 272,  214.0 containers from 263 to 388
###  |   |- and carried Demand 273,   10.0 containers from 263 to 388
###  |   |- and carried Demand 275,   18.0 containers from 263 to 149
###  |   |- and carried Demand 285,  214.0 containers from 401 to 388
###  |   |- and carried Demand 286,   10.0 containers from 401 to 388
###  |   |- and carried Demand 287,  484.0 containers from 401 to 149
###  |   |- and carried Demand 288,   18.0 containers from 401 to 149
###  |
###  |
### Service 81 (MECL1) is operated by 6 vessels from type 30 (PMax35)
###  |
###  |- Vessel  9 has the path [9, 483, 543, 217, 523, -4]
###  |  9 (BEANR Out@66) - 483 (AEJEA In@563/Out@587) - 543 (PKBQM In@644/Out@674) - 217 (INPAV In@1114/Out@1126) - 523 (INNS
###  |  A In@1242/Out@1258) - -4 (DUMMY_END Ziel-Service 81)
###  |   |- and carried Demand 565,  237.0 containers from 543 to 523
###  |   |- and carried Demand 566,    2.0 containers from 543 to 523
###  |   |- and carried Demand 567,  146.0 containers from 543 to 523
###  |   |- and carried Demand 568,   97.0 containers from 543 to 523
###  |   |- and carried Demand 572,  156.0 containers from 483 to 543
###  |   |- and carried Demand 573,   45.0 containers from 483 to 543
###  |   |- and carried Demand 574,   16.0 containers from 483 to 523
###  |   |- and carried Demand 575,  264.0 containers from 483 to 523
###  |
###  |- Vessel 10 has the path [10, 207, 521, -4]
###  |  10 (BEANR Out@234) - 207 (GRPIR In@528/Out@553) - 521 (INNSA In@906/Out@922) - -4 (DUMMY_END Ziel-Service 81)
###  |
###  |- Vessel 11 has the path [13, 360, 485, 545, 466, 488, 548, 525, -4]
###  |  13 (BEANR Out@402) - 360 (TRALI In@668/Out@686) - 485 (AEJEA In@899/Out@923) - 545 (PKBQM In@980/Out@1010) - 466 (OMS
###  |  LL In@1300/Out@1313) - 488 (AEJEA In@1403/Out@1427) - 548 (PKBQM In@1484/Out@1514) - 525 (INNSA In@1578/Out@1594) - -
###  |  4 (DUMMY_END Ziel-Service 81)
###  |   |- and carried Demand 475,   34.0 containers from 548 to 525
###  |   |- and carried Demand 476,   84.0 containers from 488 to 548
###  |   |- and carried Demand 477,   50.0 containers from 488 to 548
###  |   |- and carried Demand 535,  254.0 containers from 545 to 525
###  |   |- and carried Demand 536,    1.0 containers from 545 to 525
###  |   |- and carried Demand 537,  135.0 containers from 545 to 525
###  |   |- and carried Demand 540,   75.0 containers from 485 to 525
###  |   |- and carried Demand 541,  200.0 containers from 485 to 545
###  |   |- and carried Demand 542,   24.0 containers from 485 to 545
###  |   |- and carried Demand 543,   26.0 containers from 485 to 525
###  |   |- and carried Demand 544,  144.0 containers from 485 to 525
###  |   |- and carried Demand 545,    1.0 containers from 485 to 525
###  |
###  |- Vessel 12 has the path [16, 368, 522, -4]
###  |  16 (BEANR Out@570) - 368 (TRUSK In@844/Out@854) - 522 (INNSA In@1074/Out@1090) - -4 (DUMMY_END Ziel-Service 81)
###  |
###  |- Vessel 17 has the path [190, 362, 484, 544, 297, 487, 547, 524, -4]
###  |  190 (GBFXT Out@302) - 362 (TRAMB In@576/Out@603) - 484 (AEJEA In@731/Out@755) - 544 (PKBQM In@812/Out@842) - 297 (OMS
###  |  LL In@1132/Out@1145) - 487 (AEJEA In@1235/Out@1259) - 547 (PKBQM In@1316/Out@1346) - 524 (INNSA In@1410/Out@1426) - -
###  |  4 (DUMMY_END Ziel-Service 81)
###  |   |- and carried Demand 499,   31.0 containers from 547 to 524
###  |   |- and carried Demand 500,   37.0 containers from 487 to 524
###  |   |- and carried Demand 501,  211.0 containers from 487 to 524
###  |   |- and carried Demand 502,  176.0 containers from 487 to 547
###  |   |- and carried Demand 555,  244.0 containers from 544 to 524
###  |   |- and carried Demand 556,   67.0 containers from 544 to 524
###  |   |- and carried Demand 558,  118.0 containers from 484 to 524
###  |   |- and carried Demand 559,  133.0 containers from 484 to 544
###  |   |- and carried Demand 560,   61.0 containers from 484 to 544
###  |   |- and carried Demand 561,   15.0 containers from 484 to 524
###  |   |- and carried Demand 562,  267.0 containers from 484 to 524
###  |   |- and carried Demand 563,    1.0 containers from 484 to 524
###  |
###  |- Vessel 23 has the path [375, 520, -4]
###  |  375 (UYMVD Out@216) - 520 (INNSA In@738/Out@754) - -4 (DUMMY_END Ziel-Service 81)
###  |
###  |
### Service 121 (SAE) is operated by 2 vessels from type 30 (PMax35)
###  |
###  |- Vessel 18 has the path [193, 425, 421, 411, -2]
###  |  193 (GBFXT Out@470) - 425 (USORF In@873/Out@881) - 421 (USMIA In@935/Out@943) - 411 (HNPCR In@998/Out@1011) - -2 (DUM
###  |  MY_END Ziel-Service 121)
###  |   |- and carried Demand 325,   10.0 containers from 421 to 411
###  |   |- and carried Demand 326,   75.0 containers from 425 to 411
###  |   |- and carried Demand 327,  114.0 containers from 425 to 411
###  |
###  |- Vessel 24 has the path [231, 106, 78, 210, 107, 75, 86, 270, 300, 412, -2]
###  |  231 (JPYOK Out@171) - 106 (CNXMN In@238/Out@260) - 78 (CNNSA In@287/Out@297) - 210 (HKHKG In@334/Out@350) - 107 (CNYT
###  |  N In@358/Out@376) - 75 (CNNGB In@430/Out@439) - 86 (CNSHA In@465/Out@483) - 270 (MXLZC In@873/Out@896) - 300 (PABLB I
###  |  n@982/Out@1030) - 412 (HNPCR In@1166/Out@1179) - -2 (DUMMY_END Ziel-Service 121)
###  |   |- and carried Demand  87,  541.0 containers from 231 to 300
###  |   |- and carried Demand 178,  785.0 containers from 106 to 210
###  |   |- and carried Demand 179,    1.0 containers from 106 to 210
###  |   |- and carried Demand 181,  121.0 containers from 210 to  75
###  |   |- and carried Demand 182,   75.0 containers from 210 to  86
###  |   |- and carried Demand 183,    1.0 containers from 210 to 107
###  |   |- and carried Demand 184,   17.0 containers from 210 to 270
###  |   |- and carried Demand 185,  339.0 containers from 107 to 270
###  |   |- and carried Demand 186,    6.0 containers from 107 to 300
###  |   |- and carried Demand 187,  166.0 containers from  75 to 270
###  |   |- and carried Demand 188,  773.0 containers from  75 to 300
###  |   |- and carried Demand 189,    1.0 containers from  75 to 300
###  |   |- and carried Demand 192,  298.0 containers from 270 to 300
###  |   |- and carried Demand 193,  199.0 containers from 270 to 300
###  |   |- and carried Demand 297,    6.0 containers from 107 to 300
###  |   |- and carried Demand 298,  773.0 containers from  75 to 300
###  |   |- and carried Demand 299,    1.0 containers from  75 to 300
###  |   |- and carried Demand 300,  298.0 containers from 270 to 300
###  |   |- and carried Demand 301,  199.0 containers from 270 to 300
###  |
###  |
### Service 177 (WCSA) is operated by 3 vessels from type 18 (PMax25)
###  |
###  |- Vessel 13 has the path [135, 385, 151, 361, 303, 0]
###  |  135 (DKAAR Out@220) - 385 (ESALG In@328/Out@347) - 151 (ESALG In@625/Out@670) - 361 (TRALI In@836/Out@854) - 303 (PAB
###  |  LB In@1472/Out@1484) - 0 (DUMMY_END Ziel-Service 177)
###  |   |- and carried Demand 140,  552.0 containers from 151 to 303
###  |   |- and carried Demand 141,   13.0 containers from 151 to 303
###  |
###  |- Vessel 14 has the path [136, 370, 302, 0]
###  |  136 (DKAAR Out@388) - 370 (TRZMK In@617/Out@631) - 302 (PABLB In@1304/Out@1316) - 0 (DUMMY_END Ziel-Service 177)
###  |
###  |- Vessel 19 has the path [216, 354, 249, 226, 71, 102, 99, 76, 88, 305, 0]
###  |  216 (INPAV Out@118) - 354 (SGSIN In@618/Out@651) - 249 (KRPUS In@788/Out@810) - 226 (JPHKT In@824/Out@833) - 71 (CNDL
###  |  C In@871/Out@886) - 102 (CNXGG In@904/Out@923) - 99 (CNTAO In@960/Out@978) - 76 (CNNGB In@1031/Out@1040) - 88 (CNSHA 
###  |  In@1069/Out@1079) - 305 (PABLB In@1640/Out@1652) - 0 (DUMMY_END Ziel-Service 177)
###  |   |- and carried Demand  45,  975.0 containers from  76 to 305
###  |   |- and carried Demand  46,    1.0 containers from  76 to 305
###  |   |- and carried Demand  48,  907.0 containers from  88 to 305
###  |   |- and carried Demand  49,    3.0 containers from  88 to 305
###  |
###  |
### Vessels not used in the solution: [3, 4, 8, 22]
###  |-----------------------------------------------------------------------------------------------------------------------
###
#############################################################################################################################
###
###
#############################################################################################################################
### Solution run 6
#############################################################################################################################
###
### Results
###
### The objective of the solution is -386,344.1867 (-386344.1867)
###
### Service 7 (ME3) is operated by 6 vessels from type 19 (PMax28)
###  |
###  |- Vessel  5 has the path [282, 178, 260, 400, 261, 147, 394, 67, 480, 441, -3]
###  |  282 (NLRTM Out@92) - 178 (FRLEH In@111/Out@127) - 260 (MAPTM In@207/Out@228) - 400 (MAPTM In@211/Out@230) - 261 (MAPT
###  |  M In@238/Out@259) - 147 (ESALG In@284/Out@296) - 394 (GWOXB In@463/Out@542) - 67 (CMDLA In@765/Out@811) - 480 (TRMER 
###  |  In@1083/Out@1127) - 441 (AEJEA In@1530/Out@1563) - -3 (DUMMY_END Ziel-Service 7)
###  |   |- and carried Demand   9,   17.0 containers from 282 to 178
###  |   |- and carried Demand  10,  161.0 containers from 260 to  67
###  |   |- and carried Demand  11,  580.0 containers from 260 to 147
###  |   |- and carried Demand  59,  161.0 containers from 261 to  67
###  |   |- and carried Demand  60,  580.0 containers from 261 to 147
###  |   |- and carried Demand 257,   19.0 containers from 260 to 147
###  |   |- and carried Demand 271,  580.0 containers from 261 to 147
###  |   |- and carried Demand 294,  161.0 containers from 400 to  67
###  |   |- and carried Demand 295,  580.0 containers from 400 to 147
###  |
###  |- Vessel  6 has the path [283, 476, 435, -3]
###  |  283 (NLRTM Out@260) - 476 (TRMER In@411/Out@455) - 435 (AEJEA In@690/Out@723) - -3 (DUMMY_END Ziel-Service 7)
###  |
###  |- Vessel  7 has the path [285, 182, 264, 150, 371, 448, 449, 369, 439, -3]
###  |  285 (NLRTM Out@428) - 182 (FRLEH In@447/Out@463) - 264 (MAPTM In@543/Out@564) - 150 (ESALG In@589/Out@601) - 371 (TRZ
###  |  MK In@778/Out@793) - 448 (EGPSD In@867/Out@886) - 449 (EGPSD In@957/Out@973) - 369 (TRUSK In@1018/Out@1028) - 439 (AE
###  |  JEA In@1194/Out@1227) - -3 (DUMMY_END Ziel-Service 7)
###  |   |- and carried Demand  31,   68.0 containers from 285 to 150
###  |   |- and carried Demand  32,    6.0 containers from 285 to 182
###  |   |- and carried Demand  35,   60.0 containers from 264 to 150
###  |   |- and carried Demand  36,   11.0 containers from 264 to 150
###  |   |- and carried Demand 263,   68.0 containers from 285 to 150
###  |   |- and carried Demand 266,   60.0 containers from 264 to 150
###  |   |- and carried Demand 267,   11.0 containers from 264 to 150
###  |   |- and carried Demand 364,  467.0 containers from 448 to 439
###  |   |- and carried Demand 368,  467.0 containers from 449 to 439
###  |
###  |- Vessel 15 has the path [179, 557, 573, 565, 374, 486, 546, 349, 440, -3]
###  |  179 (FRLEH Out@158) - 557 (USCHS In@546/Out@556) - 573 (USORF In@581/Out@594) - 565 (USEWR In@618/Out@634) - 374 (UAI
###  |  LK In@957/Out@992) - 486 (AEJEA In@1067/Out@1091) - 546 (PKBQM In@1148/Out@1178) - 349 (PKBQM In@1218/Out@1246) - 440
###  |   (AEJEA In@1362/Out@1395) - -3 (DUMMY_END Ziel-Service 7)
###  |   |- and carried Demand 522,   86.0 containers from 486 to 546
###  |   |- and carried Demand 523,  118.0 containers from 486 to 546
###  |   |- and carried Demand 527,  418.0 containers from 573 to 486
###  |   |- and carried Demand 528,  123.0 containers from 573 to 486
###  |   |- and carried Demand 529,   61.0 containers from 573 to 546
###  |   |- and carried Demand 530,   64.0 containers from 557 to 486
###  |   |- and carried Demand 531,   49.0 containers from 557 to 546
###  |   |- and carried Demand 532,   24.0 containers from 557 to 546
###  |
###  |- Vessel 16 has the path [181, 477, 465, 296, 438, -3]
###  |  181 (FRLEH Out@326) - 477 (TRMER In@579/Out@623) - 465 (OMSLL In@878/Out@890) - 296 (OMSLL In@889/Out@904) - 438 (AEJ
###  |  EA In@1026/Out@1059) - -3 (DUMMY_END Ziel-Service 7)
###  |   |- and carried Demand 359,  111.0 containers from 465 to 438
###  |   |- and carried Demand 360,   35.0 containers from 465 to 438
###  |
###  |- Vessel 21 has the path [382, 464, 295, 437, -3]
###  |  382 (ZAPLZ Out@205) - 464 (OMSLL In@710/Out@722) - 295 (OMSLL In@721/Out@736) - 437 (AEJEA In@858/Out@891) - -3 (DUMM
###  |  Y_END Ziel-Service 7)
###  |   |- and carried Demand 365,  288.0 containers from 464 to 437
###  |   |- and carried Demand 366,   14.0 containers from 464 to 437
###  |
###  |
### Service 24 (WAF7) is operated by 3 vessels from type 18 (PMax25)
###  |
###  |- Vessel  1 has the path [131, 386, -1]
###  |  131 (DEHAM Out@288) - 386 (ESALG In@496/Out@515) - -1 (DUMMY_END Ziel-Service 24)
###  |
###  |- Vessel  2 has the path [132, 387, -1]
###  |  132 (DEHAM Out@456) - 387 (ESALG In@664/Out@683) - -1 (DUMMY_END Ziel-Service 24)
###  |
###  |- Vessel 20 has the path [164, 384, 262, 401, 263, 149, 388, -1]
###  |  164 (ESBCN Out@94) - 384 (ESALG In@160/Out@179) - 262 (MAPTM In@375/Out@396) - 401 (MAPTM In@379/Out@398) - 263 (MAPT
###  |  M In@406/Out@427) - 149 (ESALG In@452/Out@464) - 388 (ESALG In@832/Out@851) - -1 (DUMMY_END Ziel-Service 24)
###  |   |- and carried Demand  20,  312.0 containers from 262 to 149
###  |   |- and carried Demand  21,   18.0 containers from 262 to 149
###  |   |- and carried Demand  66,  484.0 containers from 263 to 149
###  |   |- and carried Demand  67,   18.0 containers from 263 to 149
###  |   |- and carried Demand 259,  214.0 containers from 262 to 388
###  |   |- and carried Demand 260,   10.0 containers from 262 to 388
###  |   |- and carried Demand 261,  484.0 containers from 262 to 149
###  |   |- and carried Demand 262,   18.0 containers from 262 to 149
###  |   |- and carried Demand 272,  214.0 containers from 263 to 388
###  |   |- and carried Demand 273,   10.0 containers from 263 to 388
###  |   |- and carried Demand 275,   18.0 containers from 263 to 149
###  |   |- and carried Demand 285,  214.0 containers from 401 to 388
###  |   |- and carried Demand 286,   10.0 containers from 401 to 388
###  |   |- and carried Demand 287,  484.0 containers from 401 to 149
###  |   |- and carried Demand 288,   18.0 containers from 401 to 149
###  |
###  |
### Service 81 (MECL1) is operated by 6 vessels from type 30 (PMax35)
###  |
###  |- Vessel  9 has the path [9, 483, 543, 217, 523, -4]
###  |  9 (BEANR Out@66) - 483 (AEJEA In@563/Out@587) - 543 (PKBQM In@644/Out@674) - 217 (INPAV In@1114/Out@1126) - 523 (INNS
###  |  A In@1242/Out@1258) - -4 (DUMMY_END Ziel-Service 81)
###  |   |- and carried Demand 565,  237.0 containers from 543 to 523
###  |   |- and carried Demand 566,    2.0 containers from 543 to 523
###  |   |- and carried Demand 567,  146.0 containers from 543 to 523
###  |   |- and carried Demand 568,   97.0 containers from 543 to 523
###  |   |- and carried Demand 572,  156.0 containers from 483 to 543
###  |   |- and carried Demand 573,   45.0 containers from 483 to 543
###  |   |- and carried Demand 574,   16.0 containers from 483 to 523
###  |   |- and carried Demand 575,  264.0 containers from 483 to 523
###  |
###  |- Vessel 10 has the path [10, 207, 521, -4]
###  |  10 (BEANR Out@234) - 207 (GRPIR In@528/Out@553) - 521 (INNSA In@906/Out@922) - -4 (DUMMY_END Ziel-Service 81)
###  |
###  |- Vessel 11 has the path [13, 360, 485, 545, 466, 488, 548, 525, -4]
###  |  13 (BEANR Out@402) - 360 (TRALI In@668/Out@686) - 485 (AEJEA In@899/Out@923) - 545 (PKBQM In@980/Out@1010) - 466 (OMS
###  |  LL In@1300/Out@1313) - 488 (AEJEA In@1403/Out@1427) - 548 (PKBQM In@1484/Out@1514) - 525 (INNSA In@1578/Out@1594) - -
###  |  4 (DUMMY_END Ziel-Service 81)
###  |   |- and carried Demand 475,   34.0 containers from 548 to 525
###  |   |- and carried Demand 476,   84.0 containers from 488 to 548
###  |   |- and carried Demand 477,   50.0 containers from 488 to 548
###  |   |- and carried Demand 535,  254.0 containers from 545 to 525
###  |   |- and carried Demand 536,    1.0 containers from 545 to 525
###  |   |- and carried Demand 537,  135.0 containers from 545 to 525
###  |   |- and carried Demand 540,   75.0 containers from 485 to 525
###  |   |- and carried Demand 541,  200.0 containers from 485 to 545
###  |   |- and carried Demand 542,   24.0 containers from 485 to 545
###  |   |- and carried Demand 543,   26.0 containers from 485 to 525
###  |   |- and carried Demand 544,  144.0 containers from 485 to 525
###  |   |- and carried Demand 545,    1.0 containers from 485 to 525
###  |
###  |- Vessel 12 has the path [16, 368, 522, -4]
###  |  16 (BEANR Out@570) - 368 (TRUSK In@844/Out@854) - 522 (INNSA In@1074/Out@1090) - -4 (DUMMY_END Ziel-Service 81)
###  |
###  |- Vessel 17 has the path [190, 362, 484, 544, 297, 487, 547, 524, -4]
###  |  190 (GBFXT Out@302) - 362 (TRAMB In@576/Out@603) - 484 (AEJEA In@731/Out@755) - 544 (PKBQM In@812/Out@842) - 297 (OMS
###  |  LL In@1132/Out@1145) - 487 (AEJEA In@1235/Out@1259) - 547 (PKBQM In@1316/Out@1346) - 524 (INNSA In@1410/Out@1426) - -
###  |  4 (DUMMY_END Ziel-Service 81)
###  |   |- and carried Demand 499,   31.0 containers from 547 to 524
###  |   |- and carried Demand 500,   37.0 containers from 487 to 524
###  |   |- and carried Demand 501,  211.0 containers from 487 to 524
###  |   |- and carried Demand 502,  176.0 containers from 487 to 547
###  |   |- and carried Demand 555,  244.0 containers from 544 to 524
###  |   |- and carried Demand 556,   67.0 containers from 544 to 524
###  |   |- and carried Demand 558,  118.0 containers from 484 to 524
###  |   |- and carried Demand 559,  133.0 containers from 484 to 544
###  |   |- and carried Demand 560,   61.0 containers from 484 to 544
###  |   |- and carried Demand 561,   15.0 containers from 484 to 524
###  |   |- and carried Demand 562,  267.0 containers from 484 to 524
###  |   |- and carried Demand 563,    1.0 containers from 484 to 524
###  |
###  |- Vessel 23 has the path [375, 520, -4]
###  |  375 (UYMVD Out@216) - 520 (INNSA In@738/Out@754) - -4 (DUMMY_END Ziel-Service 81)
###  |
###  |
### Service 121 (SAE) is operated by 2 vessels from type 30 (PMax35)
###  |
###  |- Vessel 18 has the path [193, 425, 421, 411, -2]
###  |  193 (GBFXT Out@470) - 425 (USORF In@873/Out@881) - 421 (USMIA In@935/Out@943) - 411 (HNPCR In@998/Out@1011) - -2 (DUM
###  |  MY_END Ziel-Service 121)
###  |   |- and carried Demand 325,   10.0 containers from 421 to 411
###  |   |- and carried Demand 326,   75.0 containers from 425 to 411
###  |   |- and carried Demand 327,  114.0 containers from 425 to 411
###  |
###  |- Vessel 24 has the path [231, 106, 78, 210, 107, 75, 86, 270, 300, 412, -2]
###  |  231 (JPYOK Out@171) - 106 (CNXMN In@238/Out@260) - 78 (CNNSA In@287/Out@297) - 210 (HKHKG In@334/Out@350) - 107 (CNYT
###  |  N In@358/Out@376) - 75 (CNNGB In@430/Out@439) - 86 (CNSHA In@465/Out@483) - 270 (MXLZC In@873/Out@896) - 300 (PABLB I
###  |  n@982/Out@1030) - 412 (HNPCR In@1166/Out@1179) - -2 (DUMMY_END Ziel-Service 121)
###  |   |- and carried Demand  87,  541.0 containers from 231 to 300
###  |   |- and carried Demand 178,  785.0 containers from 106 to 210
###  |   |- and carried Demand 179,    1.0 containers from 106 to 210
###  |   |- and carried Demand 181,  121.0 containers from 210 to  75
###  |   |- and carried Demand 182,   75.0 containers from 210 to  86
###  |   |- and carried Demand 183,    1.0 containers from 210 to 107
###  |   |- and carried Demand 184,   17.0 containers from 210 to 270
###  |   |- and carried Demand 185,  339.0 containers from 107 to 270
###  |   |- and carried Demand 186,    6.0 containers from 107 to 300
###  |   |- and carried Demand 187,  166.0 containers from  75 to 270
###  |   |- and carried Demand 188,  773.0 containers from  75 to 300
###  |   |- and carried Demand 189,    1.0 containers from  75 to 300
###  |   |- and carried Demand 192,  298.0 containers from 270 to 300
###  |   |- and carried Demand 193,  199.0 containers from 270 to 300
###  |   |- and carried Demand 297,    6.0 containers from 107 to 300
###  |   |- and carried Demand 298,  773.0 containers from  75 to 300
###  |   |- and carried Demand 299,    1.0 containers from  75 to 300
###  |   |- and carried Demand 300,  298.0 containers from 270 to 300
###  |   |- and carried Demand 301,  199.0 containers from 270 to 300
###  |
###  |
### Service 177 (WCSA) is operated by 3 vessels from type 18 (PMax25)
###  |
###  |- Vessel 13 has the path [135, 385, 151, 361, 303, 0]
###  |  135 (DKAAR Out@220) - 385 (ESALG In@328/Out@347) - 151 (ESALG In@625/Out@670) - 361 (TRALI In@836/Out@854) - 303 (PAB
###  |  LB In@1472/Out@1484) - 0 (DUMMY_END Ziel-Service 177)
###  |   |- and carried Demand 140,  552.0 containers from 151 to 303
###  |   |- and carried Demand 141,   13.0 containers from 151 to 303
###  |
###  |- Vessel 14 has the path [136, 370, 302, 0]
###  |  136 (DKAAR Out@388) - 370 (TRZMK In@617/Out@631) - 302 (PABLB In@1304/Out@1316) - 0 (DUMMY_END Ziel-Service 177)
###  |
###  |- Vessel 19 has the path [216, 354, 249, 226, 71, 102, 99, 76, 88, 305, 0]
###  |  216 (INPAV Out@118) - 354 (SGSIN In@618/Out@651) - 249 (KRPUS In@788/Out@810) - 226 (JPHKT In@824/Out@833) - 71 (CNDL
###  |  C In@871/Out@886) - 102 (CNXGG In@904/Out@923) - 99 (CNTAO In@960/Out@978) - 76 (CNNGB In@1031/Out@1040) - 88 (CNSHA 
###  |  In@1069/Out@1079) - 305 (PABLB In@1640/Out@1652) - 0 (DUMMY_END Ziel-Service 177)
###  |   |- and carried Demand  45,  975.0 containers from  76 to 305
###  |   |- and carried Demand  46,    1.0 containers from  76 to 305
###  |   |- and carried Demand  48,  907.0 containers from  88 to 305
###  |   |- and carried Demand  49,    3.0 containers from  88 to 305
###  |
###  |
### Vessels not used in the solution: [3, 4, 8, 22]
###  |-----------------------------------------------------------------------------------------------------------------------
###
#############################################################################################################################
+++++++++++++++++++++++++++++++++++++++++++++++++++++++++++++++++++++++++++++++++++++++++++++++++++++++++++++++++++++++++++++
+++
+++ The average objective is -586,765.6859 (-586765.6859)
+++
+++++++++++++++++++++++++++++++++++++++++++++++++++++++++++++++++++++++++++++++++++++++++++++++++++++++++++++++++++++++++++++

real	58m55.772s
user	120m52.627s
sys	8m9.028s
	Freetype 2.4.12 environment removed
	Python 3.6.0 environment removed
	Gurobi 8.1.0 environment removed
