### Additional Information to the goal services
# Basic costs on route 81: -366409586.7928802
# Direct costs (not staggered):
# For goal service 81:
# n_min: 6
# n_max: 6
# lowest costs of the goal service 81 with configuration (81, 30, 6) at 0.0
# (81, 18, 1): 134842772.80309367
# (81, 18, 2): 135273985.12309366
# (81, 18, 3): 135705197.44309366
# (81, 18, 4): 136136409.76309368
# (81, 18, 5): 135365078.118568
# (81, 18, 6): 129380465.63856804
# (81, 19, 1): 92903226.54757869
# (81, 19, 2): 93377534.2275787
# (81, 19, 3): 93851841.9075787
# (81, 19, 4): 94326149.58757871
# (81, 19, 5): 91337747.21105814
# (81, 19, 6): 83374037.36927813
# (81, 30, 1): 4843431.275014162
# (81, 30, 2): 5360871.275014162
# (81, 30, 3): 5878311.275014162
# (81, 30, 4): 6395751.275014162
# (81, 30, 5): 6913191.275014162
# (81, 30, 6): 0.0
# -------------------------------------------
