### Additional Information to the goal services
# Basic costs on route 7: -292080382.11259896
# Direct costs (not staggered):
# For goal service 7:
# n_min: 3
# n_max: 6
# lowest costs of the goal service 7 with configuration (7, 30, 6) at 0.0
# (7, 18, 1): 110236562.69283634
# (7, 18, 2): 110550171.65283632
# (7, 18, 3): 108889081.96371073
# (7, 18, 4): 104536636.52371073
# (7, 18, 5): 100184191.08371073
# (7, 18, 6): 95831745.64371073
# (7, 19, 1): 72480399.27409762
# (7, 19, 2): 72825350.31409761
# (7, 19, 3): 69840678.01173046
# (7, 19, 4): 64048889.03589046
# (7, 19, 5): 58257100.06005046
# (7, 19, 6): 55312628.62874073
# (7, 30, 1): 17054721.06282705
# (7, 30, 2): 17431041.06282705
# (7, 30, 3): 16273798.97367704
# (7, 30, 4): 10252832.698829055
# (7, 30, 5): 4231866.423981011
# (7, 30, 6): 0.0
# -------------------------------------------
