### Additional Information to the goal services
# Basic costs on route 7: -511140668.6970481
# Direct costs (not staggered):
# For goal service 7:
# n_min: 3
# n_max: 6
# lowest costs of the goal service 7 with configuration (7, 30, 6) at 0.0
# (7, 18, 1): 192913984.71246356
# (7, 18, 2): 193462800.3924635
# (7, 18, 3): 190555893.4364937
# (7, 18, 4): 182939113.9164937
# (7, 18, 5): 175322334.39649373
# (7, 18, 6): 167705554.8764937
# (7, 19, 1): 126840698.72967076
# (7, 19, 2): 127444363.04967076
# (7, 19, 3): 122221186.52052826
# (7, 19, 4): 112085555.81280822
# (7, 19, 5): 101949925.10508823
# (7, 19, 6): 96797100.10029626
# (7, 30, 1): 29845761.859947383
# (7, 30, 2): 30504321.859947383
# (7, 30, 3): 28479148.20393485
# (7, 30, 4): 17942457.222950816
# (7, 30, 5): 7405766.241966784
# (7, 30, 6): 0.0
# -------------------------------------------
