### Additional Information to the goal services
# Basic costs on route 7: -620670811.9892727
# Direct costs (not staggered):
# For goal service 7:
# n_min: 3
# n_max: 6
# lowest costs of the goal service 7 with configuration (7, 30, 6) at 0.0
# (7, 18, 1): 234252695.72227716
# (7, 18, 2): 234919114.76227713
# (7, 18, 3): 231389299.17288518
# (7, 18, 4): 222140352.61288524
# (7, 18, 5): 212891406.05288517
# (7, 18, 6): 203642459.49288523
# (7, 19, 1): 154020848.4574573
# (7, 19, 2): 154753869.41745734
# (7, 19, 3): 148411440.77492714
# (7, 19, 4): 136103889.20126712
# (7, 19, 5): 123796337.62760717
# (7, 19, 6): 117539335.836074
# (7, 30, 1): 36241282.25850749
# (7, 30, 2): 37040962.25850749
# (7, 30, 3): 34581822.81906366
# (7, 30, 4): 21787269.485011697
# (7, 30, 5): 8992716.150959611
# (7, 30, 6): 0.0
# -------------------------------------------
