### Additional Information to the goal services
# Basic costs on route 7: -675435883.6353852
# Direct costs (not staggered):
# For goal service 7:
# n_min: 3
# n_max: 6
# lowest costs of the goal service 7 with configuration (7, 30, 6) at 0.0
# (7, 18, 1): 254922051.22718406
# (7, 18, 2): 255647271.9471841
# (7, 18, 3): 251806002.04108107
# (7, 18, 4): 241740971.9610811
# (7, 18, 5): 231675941.88108104
# (7, 18, 6): 221610911.80108106
# (7, 19, 1): 167610923.32135075
# (7, 19, 2): 168408622.60135078
# (7, 19, 3): 161506567.90212673
# (7, 19, 4): 148113055.89549673
# (7, 19, 5): 134719543.88886678
# (7, 19, 6): 127910453.70396304
# (7, 30, 1): 39439042.45778763
# (7, 30, 2): 40309282.45778763
# (7, 30, 3): 37633160.12662816
# (7, 30, 4): 23709675.616042256
# (7, 30, 5): 9786191.105456233
# (7, 30, 6): 0.0
# -------------------------------------------
