### Additional Information to the goal services
# Basic costs on route 7: 0
# Direct costs (not staggered): 0
# For goal service 7:
# n_min: 6
# n_max: 6
# K on service: {30}
# -------------------------------------------
