### Additional Information to the goal services
# Basic costs on route 7: -565905740.3431605
# Direct costs (not staggered):
# For goal service 7:
# n_min: 3
# n_max: 6
# lowest costs of the goal service 7 with configuration (7, 30, 6) at 0.0
# (7, 18, 1): 213583340.21737045
# (7, 18, 2): 214190957.5773704
# (7, 18, 3): 210972596.3046896
# (7, 18, 4): 202539733.26468956
# (7, 18, 5): 194106870.2246896
# (7, 18, 6): 185674007.18468958
# (7, 19, 1): 140430773.59356415
# (7, 19, 2): 141099116.23356414
# (7, 19, 3): 135316313.6477278
# (7, 19, 4): 124094722.50703776
# (7, 19, 5): 112873131.36634779
# (7, 19, 6): 107168217.96818525
# (7, 30, 1): 33043522.059227467
# (7, 30, 2): 33772642.05922747
# (7, 30, 3): 31530485.511499286
# (7, 30, 4): 19864863.353981256
# (7, 30, 5): 8199241.196463227
# (7, 30, 6): 0.0
# -------------------------------------------
