### Additional Information to the goal services
# Basic costs on route 7: -894496170.2198343
# Direct costs (not staggered):
# For goal service 7:
# n_min: 3
# n_max: 6
# lowest costs of the goal service 7 with configuration (7, 30, 6) at 0.0
# (7, 18, 1): 337599473.2468113
# (7, 18, 2): 338559900.6868112
# (7, 18, 3): 333472813.51386404
# (7, 18, 4): 320143449.3538641
# (7, 18, 5): 306814085.1938641
# (7, 18, 6): 293484721.033864
# (7, 19, 1): 221971222.7769239
# (7, 19, 2): 223027635.33692396
# (7, 19, 3): 213887076.41092455
# (7, 19, 4): 196149722.67241454
# (7, 19, 5): 178412368.93390453
# (7, 19, 6): 169394925.1755185
# (7, 30, 1): 52230083.25490785
# (7, 30, 2): 53382563.25490785
# (7, 30, 3): 49838509.35688591
# (7, 30, 4): 31399300.1401639
# (7, 30, 5): 12960090.923441887
# (7, 30, 6): 0.0
# -------------------------------------------
