### Additional Information to the goal services
# Basic costs on route 177: -39625938.83868485
# Direct costs (not staggered):
# For goal service 177:
# n_min: 2
# n_max: 3
# lowest costs of the goal service 177 with configuration (177, 18, 3) at 0.0
# (177, 18, 1): 11901835.76076544
# (177, 18, 2): 8432863.04
# (177, 18, 3): 0.0
# -------------------------------------------
