### Additional Information to the goal services
# Basic costs on route 177: -24286865.739839107
# Direct costs (not staggered):
# For goal service 177:
# n_min: 2
# n_max: 3
# lowest costs of the goal service 177 with configuration (177, 18, 3) at 0.0
# (177, 18, 1): 7294673.53079173
# (177, 18, 2): 5168528.960000005
# (177, 18, 3): 0.0
# -------------------------------------------
