### Additional Information to the goal services
# Basic costs on route 177: -28121634.01455054
# Direct costs (not staggered):
# For goal service 177:
# n_min: 2
# n_max: 3
# lowest costs of the goal service 177 with configuration (177, 18, 3) at 0.0
# (177, 18, 1): 8446464.088285156
# (177, 18, 2): 5984612.479999997
# (177, 18, 3): 0.0
# -------------------------------------------
