### Additional Information to the goal services
# Basic costs on route 177: -66469316.761664905
# Direct costs (not staggered):
# For goal service 177:
# n_min: 2
# n_max: 3
# lowest costs of the goal service 177 with configuration (177, 18, 3) at 0.0
# (177, 18, 1): 19964369.663219452
# (177, 18, 2): 14145447.680000007
# (177, 18, 3): 0.0
# -------------------------------------------
